iter	MAE
0	0.2337672708
1	0.2128309891
2	0.1978274939
3	0.187442814
4	0.1820203732
5	0.1764026669
6	0.1703866246
7	0.1662794169
8	0.1619856726
9	0.1593912961
10	0.1545789024
11	0.1532019795
12	0.1485713251
13	0.1478275702
14	0.1443564206
15	0.1437267735
16	0.141288272
17	0.1411196776
18	0.1390497601
19	0.1387146838
20	0.1381341392
21	0.1380743272
22	0.136676352
23	0.135705555
24	0.1346766185
25	0.1339045347
26	0.1329637391
27	0.1327919172
28	0.1317955054
29	0.130816977
30	0.1300393917
31	0.1295724562
32	0.1291201619
33	0.1286328342
34	0.1277645847
35	0.1278544714
36	0.1277071346
37	0.1274959662
38	0.1273326385
39	0.1269771994
40	0.126681411
41	0.1264346957
42	0.1260734324
43	0.1254711607
44	0.1252534344
45	0.1249219231
46	0.124844037
47	0.1245736873
48	0.1241505582
49	0.1236275223
50	0.1233765965
51	0.1227558618
52	0.1227322495
53	0.1223375226
54	0.1221190335
55	0.1213983775
56	0.1210536406
57	0.1201887506
58	0.1200072754
59	0.1196175072
60	0.1187023118
61	0.1184785486
62	0.1185678191
63	0.1180157942
64	0.1180782029
65	0.1168972717
66	0.1168655319
67	0.1161025805
68	0.1165666113
69	0.1159161393
70	0.1159915682
71	0.1153966831
72	0.1157069367
73	0.1146290444
74	0.1152697971
75	0.1143851459
76	0.1148909732
77	0.1140636399
78	0.114627416
79	0.1138062444
80	0.1144406227
81	0.1135939536
82	0.1142330852
83	0.1132879765
84	0.1140095788
85	0.1128675027
86	0.113763619
87	0.112347775
88	0.1134546637
89	0.1121227282
90	0.1131541367
91	0.111867658
92	0.1130723041
93	0.1117364149
94	0.1129811484
95	0.111653262
96	0.1128862957
97	0.1115493868
98	0.1128392911
99	0.111533902
100	0.1128154734
101	0.111561072
102	0.1129319726
103	0.1116392956
104	0.1127794938
105	0.1113286018
106	0.1127253593
107	0.1114274742
108	0.1127083855
109	0.1113261518
110	0.1127172685
111	0.1112091318
112	0.1125967056
113	0.1111849474
114	0.1123967821
115	0.1109888969
116	0.1122812952
117	0.1108409367
118	0.1120470719
119	0.1106204084
120	0.111844229
121	0.1104197881
122	0.1116526385
123	0.1102951321
124	0.1115472523
125	0.1101497612
126	0.1113675669
127	0.1100262788
128	0.1112076941
129	0.1099614128
130	0.11076853
131	0.1095437925
132	0.1104251575
133	0.1093797826
134	0.1102624533
135	0.109145596
136	0.1098147803
137	0.10866187
138	0.1094091605
139	0.1085488991
140	0.108996264
141	0.1084698319
142	0.108575893
143	0.1083276812
144	0.1086011924
145	0.1081665101
146	0.1084924173
147	0.1081764715
148	0.1083506554
149	0.1080752664
150	0.1081024437
151	0.107878079
152	0.1076482862
153	0.1075658302
154	0.1075894865
155	0.1074680433
156	0.1072814848
157	0.1072722863
158	0.1071718515
159	0.107388272
160	0.107228744
161	0.1075323886
162	0.107303498
163	0.1075717277
164	0.1073037914
165	0.1075940197
166	0.1073022877
167	0.1075455701
168	0.107395842
169	0.107484225
170	0.1073900178
171	0.107506561
172	0.1074251759
173	0.1074566516
174	0.1074428246
175	0.1075072945
176	0.1074119503
177	0.1074309488
178	0.1072702178
179	0.1074754887
180	0.107231348
181	0.1074030893
182	0.1069242559
183	0.1073217556
184	0.1066673886
185	0.107294725
186	0.1067503214
187	0.1073047083
188	0.1066868858
189	0.1072561854
190	0.1065474198
191	0.1072311573
192	0.1065326612
193	0.1071563153
194	0.1065015522
195	0.1070994961
196	0.1063204584
197	0.1069200528
198	0.1064024744
199	0.1066027719
200	0.1064488995
201	0.1068589938
202	0.1063035873
203	0.1069229356
204	0.1062919315
205	0.1069348408
206	0.1062482425
207	0.1069103115
208	0.1061106837
209	0.1067626374
210	0.1060001114
211	0.1065000411
212	0.1058843678
213	0.1064609734
214	0.1058413977
215	0.106398506
216	0.1056228719
217	0.10614425
218	0.1054342081
219	0.1060323941
220	0.1053264159
221	0.1058253554
222	0.1051719053
223	0.1056467336
224	0.1050040957
225	0.1052720321
226	0.104811845
227	0.1049410856
228	0.1047448884
229	0.1046344555
230	0.1044787859
231	0.1044560978
232	0.1042420246
233	0.1040821152
234	0.1038429112
235	0.1037851091
236	0.103812455
237	0.103626608
238	0.1036466847
239	0.1034452502
240	0.1034859537
241	0.1032677434
242	0.1033277167
243	0.1031487942
244	0.1032771032
245	0.1030883001
246	0.1031228713
247	0.1028059719
248	0.1030051251
249	0.1027763373
250	0.1029816522
251	0.102581974
252	0.1028155298
253	0.1026813966
254	0.102772853
255	0.1026232644
256	0.102664188
257	0.1025989992
258	0.1025373534
259	0.1024927401
260	0.1024381215
261	0.1025611051
262	0.1023443251
263	0.1025052615
264	0.1022246351
265	0.1025352995
266	0.1021160214
267	0.1024655042
268	0.101992517
269	0.1024547726
270	0.1018568287
271	0.102542202
272	0.1017080469
273	0.1025031122
274	0.1016016851
275	0.1023785296
276	0.1016065631
277	0.1022514969
278	0.1017071007
279	0.1020570529
280	0.1016354789
281	0.1019372896
282	0.101586017
283	0.1018307517
284	0.101473831
285	0.1016925254
286	0.101628393
287	0.1014729214
288	0.1017151328
289	0.101355586
290	0.1017038438
291	0.1012176091
292	0.1016683997
293	0.1012266168
294	0.1016736664
295	0.10119864
296	0.1016448754
297	0.101014194
298	0.1016425061
299	0.1008076321
300	0.1016014137
301	0.1007964971
302	0.1015804275
303	0.1007228801
304	0.1015450273
305	0.1006917198
306	0.1014469691
307	0.1006809809
308	0.1013733521
309	0.1005845365
310	0.1013550505
311	0.1005607921
312	0.1012761374
313	0.1005875219
314	0.1012220543
315	0.1006545739
316	0.101284463
317	0.1007145326
318	0.1013485368
319	0.1006276533
320	0.1013901719
321	0.1006341157
322	0.1012985027
323	0.1006957542
324	0.1011171742
325	0.1007267532
326	0.1010405497
327	0.1004310234
328	0.1011390921
329	0.1003407626
330	0.1011347423
331	0.100222701
332	0.1010700963
333	0.1001672902
334	0.100830973
335	0.1004033253
336	0.1006112223
337	0.1004910848
338	0.1004714189
339	0.1005095771
340	0.1003724364
341	0.1005490263
342	0.1003244269
343	0.1004885468
344	0.1004183847
345	0.1004731133
346	0.1002947483
347	0.1004240182
348	0.1002209332
349	0.1004397817
350	0.1001300856
351	0.1004563889
352	0.1001500743
353	0.100394611
354	0.1001080137
355	0.1001862666
356	0.1000395094
357	0.1000327389
358	0.1000798095
359	0.09997733541
360	0.099965841
361	0.09984485264
362	0.09984769874
363	0.09970001724
364	0.09983263204
365	0.09956548059
366	0.0996184781
367	0.09956747579
368	0.099368836
369	0.09936510967
370	0.09927026431
371	0.0992239786
372	0.09929107454
373	0.09906045287
374	0.09928178072
375	0.09892370096
376	0.09914793359
377	0.09880192039
378	0.09909178925
379	0.09863816727
380	0.09878415431
381	0.09834482148
382	0.09883242788
383	0.09805941982
384	0.09862028382
385	0.09793738252
386	0.09867994911
387	0.09779440295
388	0.09857893476
389	0.09775760177
390	0.09840822777
391	0.09776620607
392	0.09834016357
393	0.09777213299
394	0.09830623049
395	0.09775822527
396	0.09827622914
397	0.09764154273
398	0.09808461656
399	0.09764583388
400	0.09802434978
401	0.0975645148
402	0.09792976115
403	0.09759932811
404	0.09798307407
405	0.09757152001
406	0.09797489522
407	0.09747995352
408	0.09789845411
409	0.09736387247
410	0.09777847069
411	0.09738122778
412	0.09772325058
413	0.09732144513
414	0.09772143143
415	0.09732523748
416	0.09773147345
417	0.09728373438
418	0.09772075658
419	0.09725778944
420	0.09770964361
421	0.09720303146
422	0.09761879598
423	0.09712893031
424	0.09760009098
425	0.09707576409
426	0.09756582048
427	0.09705521059
428	0.09747118051
429	0.09707924836
430	0.09739440197
431	0.09706038931
432	0.09726603431
433	0.09712542404
434	0.09719015802
435	0.09702908227
436	0.09710734987
437	0.09704174299
438	0.09703324872
439	0.09698593607
440	0.09718995263
441	0.09693150084
442	0.09724932451
443	0.09691396215
444	0.09704445705
445	0.09669256828
446	0.09703214109
447	0.09670605055
448	0.09693213168
449	0.09667180206
450	0.09692181825
451	0.09666335913
452	0.09688475301
453	0.09667663602
454	0.09686803587
455	0.09669484955
456	0.0967938687
457	0.0966960012
458	0.09681090126
459	0.09659113582
460	0.09675841722
461	0.0964270306
462	0.09661384589
463	0.09650854773
464	0.09664291567
465	0.09643834896
466	0.09658790829
467	0.09641008607
468	0.0965281403
469	0.09637028475
470	0.09639427851
471	0.09626712117
472	0.09637413578
473	0.09633489929
474	0.09630544075
475	0.09621318474
476	0.09619514725
477	0.09620243853
478	0.09608134748
479	0.09612855011
480	0.09609746313
481	0.09610293526
482	0.09608715704
483	0.09616450039
484	0.0959031585
485	0.09620890093
486	0.09584996294
487	0.09612637152
488	0.09588882533
489	0.09599901613
490	0.09598771244
491	0.09592319852
492	0.09593315252
493	0.09580161601
494	0.09585712218
495	0.09568253483
496	0.09581199545
497	0.09567178862
498	0.09581919871
499	0.09568630517
500	0.09576225481
501	0.09563264015
502	0.09569383118
503	0.09561124309
504	0.09572117716
505	0.09549639438
506	0.09567473007
507	0.09545880833
508	0.09562416055
509	0.09539064143
510	0.09570024956
511	0.09540683043
512	0.09561988407
513	0.09535011393
514	0.09567828036
515	0.09530605081
516	0.09549041611
517	0.09535593081
518	0.09550986932
519	0.09535198443
520	0.0954651827
521	0.09534852217
522	0.0954471012
523	0.09531576274
524	0.09539628227
525	0.09534099615
526	0.09541943246
527	0.09526676297
528	0.09537127625
529	0.09522707169
530	0.09533110818
531	0.09521667757
532	0.09534230917
533	0.09513556388
534	0.09520759648
535	0.09505953355
536	0.0952577919
