19

C -0.1853047941 1.4696002052 -0.1874013487
N 0.0934922070 0.0590054962 0.0407930142
C 1.3783963894 -0.5630334163 -0.1414738949
C 2.5504844444 0.3068602525 0.3547665715
C 1.9142055965 0.3032360676 1.7929777144
C 2.7104977776 -0.5583889126 2.7848736686
C 1.6209595397 1.6017688404 2.3948320544
N 1.4008104780 2.6249057373 2.8878791912
C 0.7036427176 -0.4966142621 1.2112346697
H 0.6291978769 2.1579360340 0.0689680336
H -0.4279094989 1.6014239899 -1.2461374185
H -1.0610964335 1.7526269043 0.4026700171
H 1.4653160902 -1.3960559133 -0.8302833528
H 3.5121118452 -0.2093550760 0.3451589751
H 2.6671589772 1.2799384531 -0.1273228105
H 3.6633772988 -0.0849141536 3.0364608044
H 2.1462575057 -0.7067699426 3.7102765483
H 2.9119455353 -1.5389048429 2.3434682781
H 0.1745615472 -1.2516317809 1.7846517846