14

C -0.0262686683 1.3787242524 -0.0737746520
N 0.0192884843 -0.0688888852 -0.0267202069
N 0.1186997543 -0.8012300338 -1.1498055720
C 0.1294933445 -2.0448922467 -0.6862720636
O 0.2181493722 -3.1232725511 -1.4746662763
C 0.0349584059 -2.0297856605 0.7239529194
C 0.0110087993 -3.1612777190 1.6518417801
O -0.0721185645 -3.0762778525 2.8548733239
N -0.0333093866 -0.7361652959 1.0978001455
H 0.8844413252 1.7630918969 -0.5391475507
H -0.8918120451 1.7034693408 -0.6560975664
H -0.1057553699 1.7332354647 0.9523400228
H 0.2691844173 -2.8214429693 -2.3907177989
H 0.0781139913 -4.1455826709 1.1410011252