17

O -0.4314466315 1.2406341595 0.9109069632
C -0.0788103823 0.1143922301 0.1401629125
C 0.5535788049 -1.0440412528 0.9690928842
C -0.8410606590 -1.7204985972 1.0749781615
C -1.7359974812 -1.3060870940 2.2481074187
C -2.8409225134 -0.4346152740 1.6396861655
O -3.8123724310 0.0019209472 2.1783448137
O -2.5833343436 -0.2170004969 0.3129425136
C -1.3452076100 -0.7834336378 -0.0579342081
H 0.3797958478 1.6606139102 1.2144996306
H 0.4490290471 0.4012929254 -0.7783380308
H 1.2605728863 -1.6395041217 0.3851928693
H 1.0313076870 -0.7458291491 1.9066831442
H -0.8750127166 -2.7935937109 0.8845587843
H -2.1998103282 -2.1456859079 2.7699889624
H -1.2145651883 -0.7046399879 2.9974911663
H -1.4347684280 -1.2084809622 -1.0581830111