19

C -0.0956280940 1.5181990925 0.0449128984
C 0.0277006254 0.0249353055 0.0199753168
C -0.0380219774 -0.8538726915 -1.2204634317
C 1.0215538611 -1.9404158851 -1.1831882346
C 1.0709117777 -2.1528875734 0.3180479343
C 0.7969997002 -0.8390870756 1.0584738243
C -0.2732956143 -1.9103759208 0.9468521898
O -0.8201007903 -2.7774090759 1.8675540949
C -1.0418426476 -1.0456635963 -0.0927641256
H 0.8696774011 2.0036191583 -0.1449104497
H -0.7972096736 1.8651897422 -0.7210194280
H -0.4601533781 1.8767405616 1.0148660683
H -0.3727750214 -0.4178061123 -2.1557675545
H 0.7139846982 -2.8442297274 -1.7218268311
H 1.9802340824 -1.6013069985 -1.5921607638
H 1.7259874354 -2.8764343541 0.7884330816
H 1.3770872927 -0.4855106055 1.9006108508
H -1.3457535172 -2.2633973137 2.4906117362
H -2.1153798702 -0.9465454600 -0.1921583764