18

N -0.1693991166 1.1309710644 -0.6008377991
C 0.0485411757 -0.0805606278 -0.0118119479
O 1.0233681201 -0.3731309736 0.6374392977
O -1.0023028863 -0.9091932720 -0.2775538744
C -0.8312354978 -2.2900706238 0.0996758803
C -2.2365168776 -2.8770366521 0.3483963716
C -2.4180961051 -3.9046084106 -0.7918531078
C -1.3203016665 -3.4943679867 -1.7802700500
O -0.2613643253 -3.0112281321 -0.9514940976
H 0.4219920944 1.8881771960 -0.3057171469
H -1.0847926403 1.3460080258 -0.9562958079
H -0.1394596006 -2.3202070822 0.9399745970
H -2.2995382588 -3.3371616764 1.3362609071
H -2.9760263409 -2.0753172555 0.3035093069
H -2.2341947824 -4.9199610680 -0.4298443111
H -3.4167641408 -3.8793142501 -1.2337767241
H -0.9224510586 -4.3173211135 -2.3778289191
H -1.6669409627 -2.7020201917 -2.4590349846