15

N -0.0090926911 1.2611844806 0.0933630969
C 0.0019964635 -0.0852638692 -0.0283333825
N -1.0162160443 -0.8923558881 -0.0306321765
C -0.3254346455 -2.2126092489 -0.0226853848
C 0.8377800808 -2.0218983947 -1.0374187203
C 1.2758000911 -0.8975209094 -0.0222034504
O 2.4774697363 -0.2209862351 -0.0080041385
C 0.7669850506 -1.9452945382 1.0587614580
O 1.1722689528 -2.3522007352 2.0982075855
H 0.8222220715 1.7650112847 -0.1669571161
H -0.8930442114 1.7365972221 0.0055742337
H -0.9845308200 -3.0747040814 -0.0240626353
H 1.5409896821 -2.8583598982 -1.0930087064
H 0.5371884864 -1.6685033307 -2.0260731979
H 3.0873725372 -0.6882216183 0.5746288146