14

N -0.3188258126 -1.1855724372 -0.2714032765
C -0.1529986401 -0.0468272417 -0.1686269765
C 0.0382596480 1.3898333812 -0.0246120426
C -0.3032845412 1.9939069857 1.4109827292
N 1.1144649267 2.3888375706 1.4837141594
C 2.2013599886 3.0763493921 1.9686709304
C 3.1449549249 2.9111722164 0.9692416015
N 2.6636228944 2.1843937617 -0.1113303514
C 1.4458694672 1.9064214057 0.2701651516
H -0.4745620114 1.9117788594 -0.8375223225
H -1.0011230805 2.8335911757 1.3860732253
H -0.6049097789 1.2621044714 2.1622816617
H 2.2351880716 3.5673439046 2.9256028301
H 4.1609583434 3.2765311544 0.9741504402