20

C -0.8636767087 1.1242743351 -0.0042571975
C 0.1190333965 -0.0430568854 -0.0098261246
C 1.2268618600 0.0304734162 -1.0903155201
C 2.3706249938 -0.7241077249 -0.4644346114
C 2.2198329153 -0.9132935357 0.8468925156
C 3.1567079517 -1.5680990780 1.8092580076
C 0.9045403328 -0.2903397022 1.3227621474
C 1.1678067778 0.9305606165 2.0951805765
N 1.3912440708 1.8886600214 2.7033480748
H -0.3541114624 2.0739808373 0.1847401492
H -1.3706247648 1.1981225215 -0.9716799648
H -1.6321395651 0.9995058231 0.7654955979
H -0.4374716448 -0.9713065395 -0.1828564540
H 0.8940230235 -0.3978676002 -2.0423191614
H 1.5130409632 1.0711538025 -1.3018307025
H 3.2391739251 -1.0486784895 -1.0280474242
H 4.0569050427 -1.9285808432 1.3051592358
H 3.4619903400 -0.8692335583 2.5977391883
H 2.6812060173 -2.4204109903 2.3113294406
H 0.3468970156 -0.9655338265 1.9840365568