21

C -0.5076969817 1.2271159851 -0.5993965878
O -0.5744460991 -0.1778366424 -0.5414935061
C -0.8155279006 -0.6673636108 0.7599073689
C -0.9213205992 -2.1943246824 0.6914089715
O -0.9857825974 -2.7369717304 1.9975080215
C -2.1288763227 -2.6379696400 -0.1270774886
C -2.4004389199 -4.1514137903 -0.2552584996
C -3.7501026344 -3.8252443318 0.4094605331
O -3.3500400971 -2.4541361581 0.6517121885
H -0.3174008068 1.5042658231 -1.6391943209
H -1.4500487603 1.6941292252 -0.2725244907
H 0.3060362602 1.6222741736 0.0287776065
H 0.0015618302 -0.3956273955 1.4459982834
H -1.7507489519 -0.2492798808 1.1703430176
H -0.0117306998 -2.5843607079 0.2186006768
H -1.9047858251 -2.6085443065 2.2727564076
H -2.1723103204 -2.0775130097 -1.0669686214
H -2.4371319264 -4.5547380297 -1.2675678359
H -1.7379473697 -4.7563194440 0.3654952657
H -4.6179945286 -3.8718152213 -0.2597893707
H -3.9876836694 -4.3519783353 1.3400280105