16

O 0.1465146926 1.3281460039 0.2216314657
C 0.0814450513 -0.0069215390 0.0040724541
C 0.0282104466 -0.8157689268 -1.0980618448
N -0.0199165727 -2.1387380201 -0.6951658877
C -0.0012909400 -2.1272088722 0.6152634103
N 0.0643798429 -0.8405970840 1.0949737604
C -0.0407638557 -3.3192499545 1.4829485643
C -1.0053868846 -4.4145699950 1.1675026830
N 0.4283039064 -4.5949715006 0.9204251145
H 0.1608766189 1.7757652472 -0.6299527449
H 0.0294141980 -0.5331639939 -2.1392840833
H 0.0917514950 -0.5408076542 2.0555344384
H 0.2408926995 -3.1499722625 2.5202078617
H -1.4157272864 -5.0205609682 1.9712289506
H -1.6621008480 -4.2508966540 0.3180834251
H 0.6147527163 -4.4316670362 -0.0690320172