22

C -0.1663261563 1.5484092404 0.0056249261
C 0.0635770807 0.0392146313 -0.0146549758
C 0.9357662976 -0.4577425196 -1.1892445626
C 1.5622916986 -1.7993149416 -0.7266064527
C 1.2200996844 -1.9492564381 0.7988496432
C 2.3911272732 -2.5076241045 1.6268725434
C 0.8012490470 -0.5132062021 1.2130365831
C 0.0630126475 -2.8445589855 0.9536374241
N -0.8451484732 -3.5500642879 1.0772998318
H 0.7844539023 2.0898144169 0.0787375399
H -0.6704515869 1.8840714079 -0.9066328950
H -0.7878548322 1.8469676131 0.8561926361
H -0.9113894011 -0.4628654969 -0.0704649849
H 0.3613050436 -0.5625715138 -2.1133571326
H 1.7255178646 0.2756032450 -1.3896815971
H 1.1875383941 -2.6536523243 -1.2939133021
H 2.6492513126 -1.7917421529 -0.8462263735
H 3.2571110480 -1.8463364900 1.5266270969
H 2.1291683105 -2.5765521294 2.6864715060
H 2.6771286981 -3.5057178041 1.2832698319
H 1.7133033482 0.0704059500 1.3953081474
H 0.2060809486 -0.4968901539 2.1299921966