22

C -0.4418562896 1.5500289667 0.7413782586
C -0.3192837235 0.0239891877 0.8357678614
C -1.5630640041 -0.6814641921 0.3308433611
C -1.7460396658 -0.9803680125 -1.1387209043
C -1.5882396680 -2.1141621145 -0.1574224491
C -0.3471841318 -3.0003984130 -0.1630343872
C -0.1276076439 -3.7047379179 1.1911685357
C -0.4423717234 -3.9915129081 -1.2448144726
N -0.5249876498 -4.7778166727 -2.0880462783
H 0.4605068478 2.0437269919 1.1145058906
H -0.5989965534 1.8673221227 -0.2945145935
H -1.2900170762 1.9135660549 1.3315336873
H 0.5588370604 -0.2988656753 0.2643242440
H -0.1293151864 -0.2607797017 1.8790961880
H -2.4658282441 -0.3807410058 0.8587204882
H -2.7129763479 -0.8247822948 -1.6033254048
H -0.9040310540 -0.7726421060 -1.7931351938
H -2.4927126423 -2.6705285747 0.0746590533
H 0.5332322392 -2.3859795414 -0.3834769614
H 0.7618701128 -4.3392661307 1.1670894397
H -0.0044723071 -2.9564765321 1.9781174724
H -0.9874356288 -4.3319730908 1.4429318345