15

O 0.0010062183 1.3627462881 0.1375795361
C 0.0488422418 -0.0015599935 0.0686779974
C 0.6817259609 -1.0139640154 1.1007433004
C 0.0547298419 -1.9487944506 0.0009768875
C -1.1810608763 -0.9695753779 0.0211567500
C 0.0493309915 -3.3713728072 -0.0434322569
C 0.0543848277 -4.5727685909 -0.0995194767
C 0.6565268360 -0.9163323955 -0.9975397571
O 1.2683852813 -0.8549923128 -2.0160383959
H 0.6409383327 1.7238778484 -0.4869309142
H 1.7670370836 -1.0312946129 1.2099320850
H 0.1630549134 -1.0538059298 2.0603307269
H -1.7579311777 -1.0107674970 0.9469270789
H -1.8152580898 -0.9476116775 -0.8659830402
H 0.0606953047 -5.6333276056 -0.1514562211