19

C -0.0938303244 1.6281867200 -0.1199847169
C -0.0142331705 0.1051356238 -0.0990247936
C -1.3954294144 -0.5136987933 0.2123739130
O -1.8697130900 -0.1228801791 1.4817710580
C 0.7216975435 -0.6262701562 -1.2460839278
C 2.1525535848 -0.2403115146 -1.2946324455
C 1.7363131074 -1.2677448556 -0.2481774320
C 0.9863157735 -0.6075361764 0.8554882094
O 0.9452420165 -0.7752136114 2.0499842681
H 0.8867047780 2.1012311246 -0.2153278640
H -0.7146070521 1.9638163262 -0.9587428350
H -0.5585583701 1.9817489272 0.8032465725
H -2.1301215606 -0.1624440795 -0.5221845589
H -1.3350224145 -1.6109211995 0.1191497884
H -1.1835774270 -0.3664809356 2.1196433156
H 0.2279149298 -1.1475253166 -2.0566897364
H 2.7374318317 -0.6666968362 -2.1033759183
H 2.4807542846 0.7480943930 -0.9907739710
H 2.1723838938 -2.2585241607 -0.2257753857