18

C -0.0584744475 1.4574440645 0.0675125344
C 0.0178800338 -0.0378659383 -0.0636545964
C -0.3273690827 -0.7503481907 -1.3531091288
C -0.2134900015 -2.1800698372 -0.8590664689
O -0.3963089542 -3.2818977990 -1.6804521814
C 0.8545751937 -2.2931113393 0.2152967309
C -0.6041549445 -2.2230476620 0.6017032038
N -0.4728865664 -0.8184558641 1.1332129368
C 0.9771218593 -0.8557869981 0.7327989429
H 0.6358187166 1.9472350899 -0.6238245686
H -1.0690443645 1.8180094866 -0.1519191713
H 0.1930921046 1.7659479632 1.0857862229
H -1.3387488587 -0.5095002654 -1.7026598943
H 0.3847039305 -0.5255683073 -2.1541244075
H -1.3388739338 -3.3692856639 -1.8621934373
H 1.5651038891 -3.1047175423 0.2733933816
H -1.2722001066 -2.9394150270 1.0622377666
H 1.7547303027 -0.4580700097 1.3760678946