14

O -0.0093205305 -0.0696634632 0.0039204903
C 0.0169596489 1.1419739639 0.0093781914
N -1.0708043538 1.9991914360 0.0286992692
C -0.7598109406 3.4307277453 0.0315636933
C 0.7416232459 3.3936706378 0.0109699608
C 1.1564914570 2.0851188500 -0.0012417565
N 2.5037472011 2.0873860191 -0.0194445488
N 2.9968519367 3.3437820904 -0.0198587458
C 1.9277537622 4.1488206197 -0.0013620219
H -2.0084977609 1.6341164720 0.0398128860
H -1.1874721725 3.9330807308 -0.8459413528
H -1.1633490536 3.9242786016 0.9253385431
H 3.1379291942 1.3060935999 -0.0319288085
H 2.0756061360 5.2182132466 0.0019878502