14

N -0.0117611446 1.0396448522 0.9869290084
C -0.0138113928 0.0626423133 0.1609119348
C 1.2160217539 -0.3316891440 -0.5423610257
N 1.5227373809 -1.2391919067 -1.4042138134
N 0.6853016101 -2.1412760119 -1.9173095716
N -0.6098209210 -2.4185646139 -1.7638451076
C -1.4270262427 -1.7937240226 -0.9877835412
C -1.3179214945 -0.6596263732 -0.0580860330
N -2.3370503198 -0.2493639810 0.5976316807
H 0.9251035987 1.4481250365 1.0510549482
H 2.0732944495 0.2863303890 -0.2758433345
H 1.1362425605 -2.7559885878 -2.5747777316
H -2.4342755800 -2.2072707508 -1.0356090547
H -3.1589699883 -0.8146435591 0.3661192012