21

C -0.1081106898 1.5671260040 -0.0101439378
C -0.0686291872 0.0505216872 -0.0228416062
C 1.1692724310 -0.6654017014 -0.6389377463
C 1.7705910912 -0.5466574628 -2.0038687080
O 1.9801642967 -0.2301443581 0.5266601964
C 0.6939428678 -0.6924538079 1.1176355718
C 0.5202746964 -0.6134926743 2.6010216832
C 0.8248570586 -1.9338101384 0.2076961409
O -0.3407763595 -2.6797343178 -0.0237477866
H 0.8666669846 1.9776449141 0.2633975176
H -0.3865587475 1.9598857122 -0.9944665753
H -0.8528481727 1.9332259134 0.7052328387
H -1.0277167613 -0.4005150416 -0.2888379867
H 1.9540418727 0.5010209941 -2.2623723619
H 2.7224313177 -1.0849482921 -2.0547276400
H 1.0919009990 -0.9690544397 -2.7524905372
H 0.5279652965 0.4264072630 2.9416184686
H -0.4346495823 -1.0652597718 2.8875099553
H 1.3251464377 -1.1514490072 3.1114038275
H 1.7016157701 -2.5511152683 0.4368282255
H -0.1388420396 -3.3661966367 -0.6666997491