23

C -1.4689422543 0.9823370020 -0.9407944651
C -1.1382755272 -0.4793001253 -1.2861818090
C -2.0079290896 -0.9799321039 -2.4491285645
C 0.3505754629 -0.6305639797 -1.5883116256
O 0.7930346457 0.1260264661 -2.6921471411
C 1.3294591043 -0.8145003193 -0.4535429721
C 1.0959982839 -1.9355392471 -1.4510905581
C 0.4551540458 -3.2408797051 -1.0482695309
O 0.0271750898 -4.0070391238 -2.1664963379
H -0.8430547270 1.3514936828 -0.1213273029
H -1.3209602788 1.6361585917 -1.8079687395
H -2.5151346299 1.0829847433 -0.6368703821
H -1.3592079381 -1.0842899057 -0.3988365334
H -1.7041423415 -0.5023517931 -3.3853219089
H -1.9248902110 -2.0643760012 -2.5735595613
H -3.0650705301 -0.7551416772 -2.2755660036
H 0.8204611559 1.0514084843 -2.4256741095
H 2.2772039400 -0.2902670681 -0.5059859279
H 0.9285161219 -0.9339886534 0.5488310014
H 1.8848645177 -2.0533715623 -2.1892945665
H 1.1860359233 -3.8659371132 -0.5222454535
H -0.3748017415 -3.0643151108 -0.3462435714
H -0.3760911424 -3.4008179509 -2.7957023267