21

C 0.0040629894 1.4074147039 -0.0577480229
O -0.0052494348 0.0025552645 0.0019790587
C 0.6422156374 -0.5953438686 -1.0954769678
C 0.6006677199 -2.0842687527 -0.9823284208
C 0.0027454080 -2.8114904110 -0.0340258343
C 0.1952995235 -4.2987426314 -0.2455640090
C 0.9343487967 -4.3798037280 -1.5815845497
C 0.2616523501 -3.8181100617 -2.8066449759
C 1.2320085266 -2.9552254750 -2.0221457126
H 1.0295815597 1.8107122157 -0.0624828823
H -0.5141616722 1.7834465828 -0.9545862206
H -0.5152665804 1.7762974406 0.8300192945
H 0.1705094653 -0.2774163949 -2.0449337004
H 1.6941375068 -0.2552446678 -1.1568394058
H -0.5711874438 -2.3965561321 0.7843636929
H 0.7877177871 -4.7437851292 0.5659422142
H -0.7579223787 -4.8437297319 -0.2612945969
H 1.6670083607 -5.1647537096 -1.7269753815
H 0.5921233442 -4.2017791170 -3.7667060953
H -0.7923688024 -3.5618523426 -2.7585570642
H 2.1729779768 -2.6675785239 -2.4806534004