19

C -0.0232287780 1.6166962812 0.6835949598
C -0.1370379587 0.2651383918 -0.0061996009
O 0.6827684023 -0.7348150300 0.6118807893
C -1.5916271374 -0.2103906548 -0.1317467419
N -2.5429363484 0.6245686833 -0.2069765212
N -1.6746487526 -1.6113624749 -0.1970022333
C -2.8123861014 -2.3682189524 -0.3875243791
C -2.5588388006 -3.8662079702 -0.3963436708
O -3.9177221347 -1.8840298188 -0.5372946854
H 1.0166882179 1.9530704969 0.6792888515
H -0.6524062623 2.3499827302 0.1781089233
H -0.3726486851 1.5497609393 1.7206574021
H 0.2597201044 0.3411765781 -1.0269156401
H 0.5594878029 -0.6606890153 1.5653548246
H -3.4310525577 0.1383226310 -0.3391999663
H -0.7931003992 -2.0804004632 -0.0368839525
H -1.8615599037 -4.1378523949 -1.1956303216
H -2.1197893642 -4.1921282579 0.5525296854
H -3.5062225937 -4.3808083297 -0.5515959430