16

C -0.0791577121 1.5628952647 -0.0422404073
C -0.0166763039 0.0417246394 -0.0104819019
C 1.3406188527 -0.6469837586 -0.2161770049
C 0.7091369483 -0.6479068132 1.1428261908
O 1.1963318269 0.1887646648 2.1416209565
C -1.1655137742 -0.6340387687 -0.5303666806
C -2.1449488768 -1.1916352985 -0.9725152805
C -3.2435699385 -1.8282749370 -1.4694879447
N -4.1791889683 -2.3726015442 -1.8934934296
H 0.7880595601 1.9826820793 0.4688467855
H -0.0993283618 1.9251463654 -1.0738242932
H -0.9786669980 1.9214460662 0.4656320844
H 1.3674496927 -1.5697240802 -0.7834615328
H 2.1782172584 0.0241454267 -0.3737740709
H 0.2687262643 -1.5804507045 1.4922717239
H 2.0520636300 -0.1491529116 2.4267432250