20

C -0.2880374673 -0.6162140118 1.3882335385
N -0.0087517463 0.0222057762 0.1114687288
C 0.3742369206 1.3351229968 0.1075974591
O 0.5109971544 2.0388453531 1.0860751403
C -0.1188420383 -0.7104929781 -1.1316875482
C 0.7750465391 -1.9679106020 -1.4365353963
C -0.4836833100 -2.6936359152 -1.9314267114
C -1.4379552577 -2.8665864491 -0.7933635637
C -1.3714913825 -1.5235773252 -1.4778066323
H -1.3390342813 -0.9122477037 1.4616953368
H 0.3367900033 -1.5047606533 1.5286336830
H -0.0620050754 0.1094305406 2.1695973201
H 0.5530459952 1.7045290970 -0.9213287195
H 0.0487772115 0.0194438480 -1.9280405385
H 1.5286328672 -1.7669783226 -2.2001863168
H 1.2667221264 -2.4349515066 -0.5778671797
H -0.5542107934 -3.2670247944 -2.8462335335
H -2.3401552150 -3.4273219931 -1.0162788135
H -1.0660066111 -3.0190157519 0.2154031364
H -2.2469893494 -1.1077273749 -1.9629874595