16

O -0.0374702655 1.4172309416 0.1609052748
C 0.0575629673 0.0173282062 0.0848165367
C 0.1221233262 -0.6958093517 1.4934102528
C -1.3801693561 -0.8035472026 1.3535909810
C -2.4247260910 -0.1317808976 1.8590084066
N -3.2471332175 0.3246281996 0.8180756728
C -2.6469917270 0.1951701257 -0.4367454930
O -3.1341230927 0.5365375307 -1.4866337744
C -1.3698833454 -0.6023349034 -0.1453266263
H 0.8029564021 1.7599063167 0.4816894381
H 0.8155554644 -0.3036558407 -0.6417384127
H 0.6559795365 -1.6499649908 1.4385073316
H 0.5198881776 -0.0988789330 2.3185674286
H -2.6130930177 0.1972415462 2.8723926576
H -4.1531409813 0.7499735374 0.9278769178
H -1.3227851999 -1.4808681144 -0.7926030220