18

O -0.6127901952 0.7141422339 -1.0659493189
C 0.0594793684 0.9603803838 -0.0964924905
C 1.1865643644 1.9611227140 -0.0674214757
C 1.1809683034 3.1637468959 -1.0469222608
C 1.2874733919 4.0708313448 0.2120651142
C 0.0359462996 4.6409628074 0.8969174327
C -1.1153261597 3.6811529379 0.8073597888
C 0.0245827248 3.3686919848 1.7475073951
N 1.2796933226 2.8761351975 1.1313852363
H -0.0920291530 0.4226024148 0.8676420411
H 2.1084334008 1.3629917269 -0.1227114034
H 2.0409794534 3.2123890652 -1.7165501760
H 0.2683965206 3.2591279922 -1.6388160310
H 2.1733036557 4.7070975091 0.2800500950
H -0.0867641384 5.6727228308 1.2005972003
H -2.0137201832 4.0122490524 1.3198158524
H -1.3174628386 3.1093804475 -0.0910660504
H -0.1354942475 3.2344649711 2.8112992610