18

C -0.2944526836 1.4806541071 -0.4360383133
O -0.3756728435 0.0735337808 -0.4740095288
C 0.8958094864 -0.5267172136 -0.6104913008
C 0.7613946890 -1.9780276226 -0.6357017618
C 0.6749952956 -3.1768632471 -0.6483767997
C 0.5471111871 -4.6344977246 -0.6941111588
C 0.7535687388 -5.2003328917 -2.1210897743
C 1.4770322059 -5.2743740849 0.2535992607
N 2.2047729017 -5.7976887038 0.9820036599
H 0.3071648765 1.8328731934 0.4167049246
H 0.1451781187 1.8902724893 -1.3593282442
H -1.3134741014 1.8585764342 -0.3308963789
H 1.3898617545 -0.1828090147 -1.5361993244
H 1.5564782437 -0.2343517505 0.2243432058
H -0.4665429995 -4.9007422434 -0.3638502055
H 1.7580524969 -4.9686340503 -2.4806087781
H 0.6190811723 -6.2845462846 -2.1206721449
H 0.0249054410 -4.7472199929 -2.7963737974