19

C 0.0110180861 1.3846039317 0.0952522718
N -0.0411290371 -0.0560371270 -0.0122837131
C -0.0536490388 -0.8031678723 -1.1568571276
C 0.0150437053 -2.1176905329 -0.7552939525
C 0.0084945563 -3.5384110516 -1.2365064727
C 0.4533970879 -4.3126281283 0.0499191860
C 0.1007493719 -3.4141037917 1.2774917215
C 0.0663589636 -2.0527629929 0.6476546750
N 0.0371545493 -0.8113855722 1.1126930176
H 1.0348983757 1.7371083540 0.2628970290
H -0.3720044752 1.8277723376 -0.8263670215
H -0.6105291864 1.7020915451 0.9345291021
H -0.1057140613 -0.3275084374 -2.1239344935
H -0.9951474651 -3.8506417335 -1.5546895251
H 0.6795160532 -3.7363041309 -2.0784244254
H 0.0012389579 -5.3056337447 0.1141859160
H 1.5385872368 -4.4531616085 0.0163424503
H -0.8787061743 -3.6786514770 1.6965794330
H 0.8297048042 -3.5110649175 2.0871080990