21

C -0.1967809001 1.5321911768 0.0976006758
C 0.1071339163 0.0408547859 -0.0342830448
C 1.1110545081 -0.3320885029 -1.1413412091
C 1.5640788537 -1.7594738609 -0.7771485093
O 2.7377117159 -2.2098448630 -1.4260848330
C 1.6232903357 -1.7661418704 0.7679581282
C 2.7692041065 -0.9560221324 1.4005933910
O 1.8971043250 0.1563168856 1.6842073378
C 0.7337865174 -0.5796278252 1.2226741116
H 0.7097853223 2.0805800508 0.3684769217
H -0.5811249573 1.9413427788 -0.8420725840
H -0.9466713819 1.7170088528 0.8742833501
H -0.8303029489 -0.5043713306 -0.2190662356
H 0.6941255507 -0.2702848970 -2.1496335846
H 1.9727162743 0.3485030853 -1.0990546062
H 0.7892924187 -2.4698010384 -1.0890630646
H 3.4254953698 -1.5499305009 -1.2883925102
H 1.4512522450 -2.7532343447 1.1963679189
H 3.1872550715 -1.3898076270 2.3173997838
H 3.6038482526 -0.6703334797 0.7447266883
H 0.0201710146 -0.7356571531 2.0396130542