18

O -0.2191313768 0.4269671666 1.1026516897
C -0.1489632716 1.3232563886 0.2946711983
C -1.3996282369 1.8680577446 -0.4112026931
N -1.2248074477 3.0771698541 -1.2116338370
C -0.3128749920 4.0279681777 -0.5701086755
C 1.1104957975 3.4671072327 -0.4879393910
O 1.8581830771 3.8701891932 0.6809871529
C 2.0237227547 2.5019179156 1.1167902730
C 1.1728878390 1.9810775410 -0.0622524574
H -1.8138988025 1.0667818567 -1.0332531675
H -2.1424596562 2.0509609174 0.3776156118
H -0.8865059591 2.8443781352 -2.1396531878
H -0.3379804150 4.9789898806 -1.1104970307
H -0.6751223546 4.2218498423 0.4469052350
H 1.6680685096 3.6932176192 -1.4074866286
H 3.0750644777 2.1930703156 1.1058371292
H 1.6061362690 2.3227445517 2.1132985853
H 1.7075969978 1.3207228871 -0.7512399164