19

O 0.0402015775 1.4299946163 0.1002047082
C 0.0069947718 0.0187127225 0.0377293020
C -1.4073404763 -0.4878965122 0.0043714170
C -2.4733096121 0.3318427246 -0.0859644504
C -3.8560208790 -0.0726483681 0.0008174018
C -4.3530669483 -1.1209285354 0.7116597800
C -3.5772843160 -2.0303118140 1.5220401429
C -2.2984486518 -2.3808245491 1.2908171764
C -1.5830508365 -1.9898574486 0.0231883112
H 0.9560806406 1.7119584218 0.0277757793
H 0.5373439597 -0.3552535882 -0.8578505935
H 0.5212951281 -0.4342705565 0.9043089303
H -2.2820199647 1.3930100363 -0.2129538970
H -4.5776526521 0.6066072537 -0.4486070328
H -5.4348756136 -1.2100628512 0.7805893766
H -4.0754324266 -2.4337665555 2.4015411259
H -1.7621867650 -2.9770962974 2.0240242080
H -2.1805039044 -2.2952698113 -0.8468586421
H -0.6154172413 -2.4961966177 -0.0498624135