19

C -0.0627688619 -1.2087293210 -0.1970593497
C -0.0249704925 -0.0174745166 -0.0419861832
C 0.0107223239 1.4232602378 0.1470004052
C -0.4700598596 1.9201801627 1.5345459969
C 0.0385706762 3.3735615549 1.5898155687
C 1.4062371850 3.3402769171 0.8879981569
C 2.5401636434 2.6322253572 1.6567825865
O 2.3951163008 1.4326405407 0.8665066180
C 1.4121668340 2.0544256879 0.0149114893
H -0.0857636525 -2.2614506779 -0.3322964058
H -0.6145399480 1.8987415481 -0.6237421532
H -1.5521002345 1.8343722286 1.6557863940
H 0.0010180398 1.3103957496 2.3110948967
H -0.6424451669 4.0297516193 1.0350812043
H 0.1002385168 3.7626048359 2.6110389649
H 1.6778236419 4.2836331366 0.4136977017
H 3.5346365417 3.0794196240 1.5336791742
H 2.3621419696 2.4476408087 2.7240565354
H 1.7578950828 2.1136782165 -1.0222766007