14

N 0.1738976996 1.4590844730 -0.0437338338
C 0.0374756296 0.0588241065 -0.0646467046
C -1.0136529019 -0.8329870433 -0.1339552617
N -0.6069413971 -2.1602578034 -0.1235614079
C 0.6872667387 -2.0465613776 -0.0476200415
O 1.7206538428 -2.9200089300 0.0022078041
C 2.8568681258 -2.1370287946 0.0741902903
C 2.5482392870 -0.8235507432 0.0698271691
N 1.1603840131 -0.7688770691 -0.0076195666
H -0.1927896183 1.8959828076 -0.8817037101
H -0.2841418903 1.8807759170 0.7562601311
H -2.0630505210 -0.5828361960 -0.1917487380
H 3.7931305938 -2.6638737722 0.1222475587
H 3.1752939082 0.0489718151 0.1142009409