19

C -0.7636875675 0.4977750655 0.4769088056
O 0.2367857953 0.2154990564 1.4373269604
C 1.3576675666 -0.4597738260 0.8901824756
C 1.0597289933 -1.9096455853 0.6246280854
N 1.4191456356 -2.5567226911 -0.4295298643
C 0.9579459937 -3.9100561426 -0.2696992010
C 1.4938991444 -4.7273654133 0.8883326955
C 0.2076365511 -3.9714217159 1.0772800599
N 0.3708408577 -2.6338513387 1.5789796898
H -1.1612019854 -0.4151838453 0.0109382344
H -1.5727046990 1.0130090045 0.9999834214
H -0.3793201696 1.1509390391 -0.3202382101
H 1.7028459544 0.0023573334 -0.0435069127
H 2.1529190920 -0.3708710007 1.6381808298
H 0.6499354515 -4.4240248418 -1.1735022519
H 1.4153421440 -5.8043817262 0.7876211892
H 2.3791861993 -4.3747885766 1.4077987096
H -0.7346658930 -4.4713556847 1.2667412994
H -0.3089554845 -2.1806493508 2.1676234640