16

C -0.0811623465 1.6040690566 -0.0338561156
C 0.0232507873 0.0760572440 -0.0542923458
C -1.2698194644 -0.5346635196 0.2400149162
N -2.2973440722 -1.0164245584 0.4621498482
C 0.7121408046 -0.6442600657 -1.2449496809
C 2.1381521647 -0.2433875532 -1.3460966035
C 1.7605264897 -1.2998928542 -0.3133042393
C 1.1250949866 -0.6269648657 0.8585370944
O 1.2591508941 -0.6735851013 2.0421760470
H 0.8773409245 2.0664115026 -0.2794284756
H -0.8292456234 1.9536801068 -0.7507293788
H -0.3766523658 1.9408023741 0.9632261709
H 0.1695711338 -1.1262685285 -2.0463670169
H 2.6810165601 -0.6449626185 -2.1951496381
H 2.4794373963 0.7369510952 -1.0311788048
H 2.2007650506 -2.2882158340 -0.3250878973