15

O 0.1139571133 1.4253817939 -0.0467697427
C -0.0422998181 0.0589850805 0.0485138711
C -0.4211012789 -0.7509632700 1.2546108399
C -1.6145487477 -0.1723772527 2.0531112097
O -2.0272017631 1.0889958959 1.4744564435
C -2.4693236620 -0.1440765930 0.8763501833
C -1.3438863562 -0.7381876631 -0.0307639093
C -1.5927570609 -1.7778094945 -0.9603732908
C -1.8249825716 -2.6556801586 -1.7523111158
H -0.5954460528 1.8148820165 0.4827441070
H 0.7299478655 -0.4371721984 -0.5347688826
H 0.1640809789 -1.5883828431 1.6134475402
H -1.8338934204 -0.3297591125 3.1009979843
H -3.5334375191 -0.2882794261 0.7396190326
H -2.0215345169 -3.4266577147 -2.4551607102