19

C -0.0531788113 1.4549230692 -0.0877702484
C -0.0536204706 -0.0315588059 0.0604635234
C -1.0706327712 -0.8825728093 0.1509852436
C -2.5352453011 -0.9287463106 -0.1354716626
O -2.7506465799 -2.2579551527 -0.6527303512
C -1.4934391473 -2.9050165232 -0.8914421229
C -0.5659183165 -2.2973305038 0.1714179759
O 0.8182946129 -2.2119864539 -0.1128649570
C 1.2258059427 -0.8506570337 0.0598056702
H 0.5305049951 1.7644328815 -0.9634872691
H -1.0674179746 1.8488646293 -0.1926188596
H 0.4047719454 1.9422991843 0.7823737902
H -3.1698357270 -0.8091723585 0.7522367608
H -2.8420767722 -0.1738326310 -0.8729589282
H -1.6634740847 -3.9806029020 -0.8017908736
H -1.0974710117 -2.6805668839 -1.8933609475
H -0.7285153854 -2.8025551246 1.1382919256
H 1.8892750114 -0.5672607705 -0.7696605612
H 1.8059770261 -0.7385392508 0.9919391214