17

O -0.0655029529 0.1464606498 -0.5902815649
C 0.0582501364 1.1137760056 0.1265199796
C 1.2789051396 1.9503909565 0.1525263551
N 2.2630265122 1.7571779374 -0.9343856050
C 2.6131050276 1.2761091702 0.3921398727
C 3.4446939567 2.2370999419 1.2358922329
N 2.6409248117 3.4507401697 1.5097646295
C 2.3043441837 4.2895995735 0.3493469018
C 1.3269174857 3.2877433458 0.8455613420
H -0.7492244327 1.4257377998 0.8217812224
H 1.9252897517 0.9725326332 -1.4953764563
H 2.6662205784 0.2048998180 0.5677822663
H 3.6797413467 1.7654281141 2.1958510348
H 4.3880571257 2.5003569778 0.7471066681
H 2.1671070956 5.3408345066 0.5880673120
H 2.7763484129 4.0797930955 -0.6047109515
H 0.4463315009 3.5814071345 1.4116722406