25

C -0.2575508265 1.5646371880 0.3972063352
C 0.1346900511 0.1484484856 -0.0426110959
C 0.8824404956 -0.6025285425 1.0416196099
C 0.1475690894 -1.3701701235 2.1185207823
C 1.0071515652 -2.1125379726 1.1144745293
C 0.3244559708 -2.9812239570 0.0714691955
C 2.3433610114 -2.6481957960 1.6125910121
C 2.2525268879 -3.9706563250 2.3698438712
O 3.5523619574 -4.2692685447 2.8618927231
H 0.6268985305 2.1571583008 0.6562060768
H -0.7919903519 2.0941375072 -0.3978718491
H -0.9050827859 1.5360248049 1.2798298920
H -0.7695809550 -0.3991278941 -0.3297603016
H 0.7559048523 0.2074760098 -0.9464566628
H 1.7687606228 -0.0706947556 1.3844505692
H 0.4913549760 -1.2949741710 3.1453404751
H -0.9309381333 -1.4569445330 2.0205535185
H -0.6157376510 -2.5470326291 -0.2759485296
H 0.9690633543 -3.1233637884 -0.8044516273
H 0.0902624230 -3.9738754341 0.4712718478
H 3.0355862021 -2.7763923445 0.7700890698
H 2.8061622982 -1.9181908289 2.2867062194
H 1.5255404109 -3.8748665995 3.1925339900
H 1.8916430712 -4.7717039269 1.7068201822
H 3.5133740036 -5.1150382401 3.3174560269