19

C -0.4608455844 1.1412918710 -0.1870155155
O 0.2520242223 -0.0632503567 0.0477805631
C 0.8674291070 -0.5580444168 -1.0967816018
C 1.4492055484 -2.0012388840 -0.9348092399
N 0.7839311551 -2.3623458616 -2.2197856511
C -0.1492402047 -3.4510809510 -2.5334226072
C -1.3085277719 -2.6238184370 -3.1904733050
N -1.2011940434 -1.2468586342 -2.6204544867
C -0.0231671675 -1.2272245438 -2.1493546325
H 0.2082634727 1.9367160002 -0.5491836026
H -1.2638888507 0.9893513699 -0.9186216643
H -0.8902990616 1.4460808221 0.7694887708
H 1.5864631376 0.1577707852 -1.5215251035
H 2.5341437300 -2.1211347194 -0.9383623500
H 1.0063048378 -2.4883462521 -0.0583379755
H 0.2825674796 -4.1962252812 -3.2055122005
H -0.4872614954 -3.9556389140 -1.6156655075
H -1.1869323019 -2.5822335007 -4.2802410446
H -2.2966189091 -3.0410578860 -2.9818602158