17

C 0.0011491100 1.4851741293 0.0230206031
C 0.0035007696 0.0305989499 0.0737239627
C -0.0006968737 -1.1737273572 0.1090679791
C 0.0089004607 -2.6113337287 0.1443971124
C -0.4854497648 -3.4261559715 1.3026281039
C -1.6532231953 -2.7094097758 1.9962175166
C -2.4188340244 -2.8205243846 0.6485078502
O -3.5597298513 -2.6351788514 0.3387948169
C -1.2522256239 -3.4755860917 -0.0385593785
H 0.5996278572 1.8513557832 -0.8183520291
H -1.0155002046 1.8743740027 -0.0993995309
H 0.4162027766 1.9191568382 0.9393975177
H 0.8557450292 -3.0643508052 -0.3671029298
H 0.1098577270 -4.2183674726 1.7368127501
H -2.1535210507 -3.3152330055 2.7569215283
H -1.4572341336 -1.7090661363 2.3880212454
H -1.2894166282 -4.2297285328 -0.8149892282