16

N 0.0495784530 1.2669396084 0.4728598561
C -0.0130419245 0.1429651598 -0.2792797455
O 0.8661447732 -0.2112306551 -1.0409967824
C -1.2919763103 -0.7056201929 -0.1283125391
C -1.8738692994 -1.1642320701 -1.5084653260
O -1.6523155687 -2.5493250853 -1.2122066857
C -0.9836760857 -2.2346070664 0.0162966705
C -2.2690105789 -0.1856955093 0.8070465234
C -3.0756895870 0.2525793090 1.5856586838
H 0.8697683129 1.8457765726 0.4003094421
H -0.6994840941 1.5263078128 1.0921051395
H -2.9323797278 -0.9321408010 -1.6611340884
H -1.2720477005 -0.8205833345 -2.3555649073
H 0.0874567344 -2.4551908385 -0.0269913663
H -1.4476744121 -2.7173602483 0.8819001214
H -3.8013591244 0.6215105288 2.2682652338