17

C 0.0278862090 1.6704935453 -0.2266844604
C 0.0695266569 0.1407551435 -0.0761866733
C -1.3643545233 -0.3685108420 -0.2628877703
O -2.0781258764 -0.7366612152 0.6320385481
N 0.8978710067 -0.4658435751 -1.1453093843
C 1.7287853930 -1.2449485041 -0.5750351659
N 1.6881956414 -1.4005648607 0.8397914509
C 2.0973396233 -0.1352117262 1.5159696224
C 0.6688258874 -0.3904328072 1.2268787060
H 1.0395459611 2.0815915274 -0.1849518274
H -0.4087684322 1.9497801049 -1.1899666953
H -0.5687801233 2.1182631714 0.5733571104
H -1.7031365919 -0.3496276529 -1.3205731502
H 2.4642475377 -1.8244252003 -1.1261890678
H 2.4721120930 -0.2706535748 2.5253631936
H 2.6366435446 0.5917249088 0.9153167798
H -0.0138840270 -0.6739619927 2.0190432538