23

C 0.0062728449 1.5934605501 -0.0368618169
C -0.0101912917 0.0650852394 0.0381662034
C -1.4337162641 -0.5454268227 -0.0041527588
C -2.1179031413 -0.1397021004 -1.2343810739
C -2.6479577038 0.1945512287 -2.2615346746
C -1.4363176696 -2.0944669789 0.1561676143
C -0.7082349988 -2.5599664081 1.4245033394
C -2.8702461579 -2.6338543008 0.1466002327
O -2.8077094992 -4.0546864253 0.1572869666
H 1.0321107513 1.9716798391 0.0083987978
H -0.4479031167 1.9508724546 -0.9648977095
H -0.5480229069 2.0357235684 0.7988385022
H 0.5754758303 -0.3568081227 -0.7876690754
H 0.4741781129 -0.2532267707 0.9654946956
H -1.9947145106 -0.1266604657 0.8464884363
H -3.1280918064 0.4910279697 -3.1610486390
H -0.9317303090 -2.5230525137 -0.7194635098
H -1.0863280189 -2.0337442425 2.3102286347
H -0.8804856396 -3.6284950769 1.5683098037
H 0.3703805871 -2.3955140934 1.3693226037
H -3.4082297522 -2.2550335617 1.0331508534
H -3.3976792072 -2.2698377576 -0.7442866029
H -3.7069679126 -4.3931155488 0.1332810671