13

C 0.1506178315 1.4554115082 -0.0021425722
C -0.0036739239 -0.0332765609 0.0325970673
N -0.0991861785 -0.6499992959 -1.0950570422
O -0.2429847960 -2.0245499980 -1.1112945237
N -0.2902001675 -2.7825820536 0.0395701824
C -0.1946915868 -2.1610462063 1.1485853189
F -0.2413344631 -2.8994766948 2.2462709885
C -0.0400537886 -0.7250621569 1.3251668688
N 0.0565891967 -0.0926087044 2.4338461800
H 1.0767989465 1.7455776598 0.5031301334
H 0.1592232953 1.8092506659 -1.0330813884
H -0.6670676674 1.9274267372 0.5509483607
H 0.0104038019 -0.7442721502 3.2203899864