20

C -0.2042333863 1.4198701805 1.1023438316
C 0.0821282792 -0.0284525405 0.7210911957
C 0.3818255246 -0.4218668167 -0.7292834722
C 1.6771236043 0.0694019647 -1.2900582341
C 2.2160136239 1.4606815599 -1.2284880149
O 2.7213233914 2.0654309580 -0.3146520092
N 1.6896785601 -1.0941487801 -0.3793224626
C 1.4344018737 -0.7382472658 1.0742160017
C 2.5422242565 -0.0930215944 1.8830033085
H 0.6173367269 2.0921989040 0.8559838353
H -1.1054276810 1.7774304032 0.5915255040
H -0.3865903973 1.4971910506 2.1794851105
H -0.7471890209 -0.6472234552 1.0780065402
H -0.3380744307 -0.8899609601 -1.3957111789
H 1.8206443429 -0.2998484892 -2.3073364652
H 2.1114303674 1.9488943365 -2.2255954222
H 1.2016604576 -1.7052384712 1.5311484990
H 2.8171817450 0.8912254088 1.5089646881
H 2.2267822905 -0.0058748474 2.9289946999
H 3.4304408722 -0.7340825657 1.8583045751