21

C -0.1102892701 1.5260452306 -0.0974238523
C -0.1552284553 0.0132989727 0.1330068336
C 0.8966629291 -0.4673820584 1.1380393320
C 0.8522958699 -1.9763698051 1.3704984047
C 1.8777174268 -2.4838758264 2.3658581607
O 2.6628872472 -1.7622443214 2.9366743045
C 1.8647746846 -3.9887687907 2.6561226946
C 1.6642295892 -4.2411696400 4.1440023850
O 0.8826850820 -5.0377561539 4.5903834980
H 0.8665757571 1.8386475005 -0.4824942045
H -0.8698784856 1.8424615119 -0.8188126851
H -0.2869996069 2.0731864843 0.8350431107
H -1.1547831777 -0.2742845210 0.4858545089
H -0.0115034452 -0.5079419073 -0.8231011517
H 1.8990417142 -0.1870979690 0.7936496088
H 0.7607411418 0.0461524589 2.0969284517
H -0.1381017873 -2.2978041892 1.7275012274
H 0.9992155806 -2.5299657995 0.4308666227
H 1.1141878758 -4.5391250013 2.0859013419
H 2.8629587869 -4.3676874852 2.3992771454
H 2.3082509929 -3.6133608204 4.7939585330