18

C -0.1340405040 1.5322636879 -0.0810949136
C 0.0591845610 0.0587762164 -0.0047750847
C 0.6797079171 -0.9759769867 -0.8638980092
C 1.3963172292 -1.6407527876 0.3045621262
C 0.3231016305 -0.9596267608 1.2097845330
C -0.9731926347 -1.6404443909 0.7113619133
N -0.8130270130 -0.9784822421 -0.6174923386
C 0.5737922287 -0.6540228215 2.5849556467
C 0.7706538827 -0.3796646961 3.7404848244
H 0.7739495947 2.0658441744 0.2188865462
H -0.3829957387 1.8209504224 -1.1070159638
H -0.9496491662 1.8604835013 0.5723530103
H 0.9879060012 -0.9101928056 -1.8990378509
H 1.4562204538 -2.7330125136 0.3503915925
H 2.3855437753 -1.2042815792 0.4589432894
H -0.9959064178 -2.7361202306 0.6991568414
H -1.8725273002 -1.2511959138 1.1932003446
H 0.9477823604 -0.1435410541 4.7603599427