18

O -0.1314036672 1.5046711623 0.1941859033
C 0.0351310829 0.1042266702 0.0059190949
C -1.3459030623 -0.5280429667 -0.1310261673
N -2.0584722338 -0.1235202131 -1.3197328742
C -2.7146817350 1.1538398634 -1.5009485811
C -3.3061380304 1.0283085384 -2.8777491043
C -3.0142868407 -0.1652480029 -3.3968492532
C -2.2052973699 -0.9486693252 -2.4188158657
O -1.7543836901 -2.0739813774 -2.5268084608
H 0.7371787196 1.9169379577 0.1870649921
H 0.6227082980 -0.1128122905 -0.8977085775
H 0.5499906210 -0.3539493115 0.8652181380
H -1.2348907048 -1.6147423969 -0.1907279196
H -1.9384811967 -0.2835998118 0.7599317557
H -3.4912244981 1.3224746736 -0.7386105012
H -2.0050669640 1.9863454395 -1.4198585648
H -3.8774590588 1.8250343707 -3.3359301523
H -3.2879804297 -0.5660450798 -4.3621722821