18

C -0.0820343247 1.4829513205 -0.0008706000
C 0.0180897289 -0.0345144132 0.0061237612
C 0.8396592343 -0.6217640943 -1.1553733438
O 1.2576510842 -1.9277450980 -0.6961884541
C 0.8545358877 -2.0756451050 0.6323961296
C 0.7758358476 -0.6602050273 1.1940315596
O -0.4634015291 -2.6764649420 0.6943469240
C -1.4492363144 -1.8282586288 0.3105000605
N -1.3445895675 -0.6149238721 -0.0396921695
H 0.9087460453 1.9459587505 0.0442772321
H -0.5911171464 1.8255357698 -0.9067303523
H -0.6679686600 1.8271704617 0.8557382500
H 0.2468275210 -0.7355631268 -2.0667468768
H 1.7295505717 -0.0175695709 -1.3735243495
H 1.5102877374 -2.7875527056 1.1320853741
H 1.7788669826 -0.2402583731 1.3113192417
H 0.2346189455 -0.5943622659 2.1394112133
H -2.4168366540 -2.3253136396 0.3379398197