19

O -0.3195845711 0.0106926888 -0.3757069589
C -0.0126044949 1.1290791709 -0.0523022349
C 1.3488108806 1.7503508360 -0.2517525070
C 1.2678944416 3.0644563351 -1.0492134281
C 2.6074327139 3.7909742129 -1.1356833772
C 3.5832068861 3.3672793511 -2.2259862756
C 2.8639943054 4.6792490136 -2.3444809637
C 3.1570954484 4.2117791867 0.1262170216
C 3.5923156277 4.5534102587 1.1950586471
H -0.7548231789 1.8062475300 0.4348823947
H 1.7635036090 1.9731076105 0.7416236087
H 2.0028598704 1.0229103238 -0.7404165121
H 0.9162472194 2.8564046694 -2.0662890641
H 0.5282407810 3.7305578186 -0.5876948481
H 4.6393803377 3.3792688227 -1.9861375344
H 3.2727414566 2.5499697663 -2.8682973291
H 2.0614299036 4.7653769394 -3.0692096636
H 3.4274006506 5.5900231326 -2.1818515002
H 3.9863308530 4.8603720929 2.1320458548