21

C 0.0913729371 1.4871025770 -0.2203049830
C 0.0033464403 0.0114464449 0.1954004382
C -1.3962993737 -0.5361377300 0.1742589235
C -2.0895745918 -0.9790837987 -1.1075004984
C -1.9628412216 -1.9655602862 -0.0025863680
O -1.3677436441 -3.1936865109 -0.1862832993
C -2.9891455334 -1.7248657700 1.1021967651
O -2.7218165814 -2.5378497403 2.2394025583
C -2.4930322436 -0.2500238907 1.2188350106
H 1.1248652792 1.8460771694 -0.1872017584
H -0.2844462380 1.6297508502 -1.2386627965
H -0.5036626573 2.1226828379 0.4443943700
H 0.6299174094 -0.5965721451 -0.4691184560
H 0.4264682591 -0.1059321561 1.2030370354
H -3.0548879126 -0.5700808166 -1.4054852255
H -1.4123312795 -1.1687249422 -1.9359199678
H -1.4183245382 -3.6328707948 0.6743642600
H -4.0426241985 -1.8957005871 0.8565484578
H -1.9405182829 -2.1860696090 2.6809707650
H -2.1044256544 -0.0425877919 2.2225795586
H -3.2203067342 0.5295142201 0.9661670406