18

C -0.1029068886 1.5080850144 -0.0196457996
N -0.0109336426 0.0558574074 0.0644329780
C 1.3039656339 -0.5325763863 -0.1631716891
C 0.7070269651 -0.4957463159 1.1998503678
C 1.2556541544 0.1864629885 2.4468965599
C 0.1600785800 0.3218768168 3.4511266863
C 0.8275033415 -1.0375620174 3.3026485979
C 0.3228854524 -1.7099542006 2.0506371370
O -0.0512736084 -2.8167395830 1.7876666660
H 0.7869344336 2.0329368642 0.3644481865
H -0.2447315463 1.7925272998 -1.0664502987
H -0.9739136018 1.8493518453 0.5478798352
H 1.3179936946 -1.4673624488 -0.7169014620
H 2.1440347709 0.1367792543 -0.3502043507
H 2.1975358993 0.7124125031 2.5229987967
H 0.4104832264 0.8373221043 4.3727905438
H -0.8668605869 0.4611142888 3.1268518886
H 1.3411772526 -1.5105275250 4.1290720465