19

C -0.0210314417 1.4848097556 -0.0112644691
O 1.2719230335 2.0544372050 0.0913004296
C 2.1235943322 1.3541787026 0.9806944435
C 1.9362026525 -0.1581473843 0.8890130632
C 1.3828980395 -0.6455229384 -0.5041886282
C 1.1623324971 -2.1328320820 -0.2232232910
C 0.6004500374 -2.1438302911 0.9902077307
C 0.5220925488 -0.6625177791 1.3546491315
C 0.0177182680 -0.0412920397 0.0016500903
H -0.6787805236 1.8453260530 0.8000792100
H -0.4358955621 1.8531401612 -0.9561344452
H 3.1448327475 1.6350301281 0.7000634642
H 1.9658894804 1.6842417041 2.0233216954
H 2.7959557476 -0.6967218365 1.2978499027
H 1.8371213466 -0.3383966885 -1.4457790860
H 1.4166188753 -2.9519583615 -0.8808980925
H 0.2689978275 -2.9741241708 1.5975081470
H 0.0958032860 -0.3672007857 2.3151779081
H -0.8991656625 -0.4716505221 -0.4112670041