18

C -0.1605224670 1.5131982441 -0.0056456056
C 0.1117758595 0.0194993385 0.0074100187
N 1.2724112494 -0.4445940451 -0.8428927448
C 1.7827532624 -1.2631149533 0.2882777307
C 2.1912580926 -0.2914448637 1.3817757209
C 0.7399559032 -0.6373038621 1.2397188271
O -0.0235566000 -1.1876668806 2.2446865936
C 2.2815671120 -2.5797661374 0.1382501016
C 2.6801388983 -3.7060165001 -0.0146337747
H 0.7383753992 2.0805456972 0.2516090001
H -0.4898164200 1.8391886058 -0.9974652610
H -0.9506348258 1.7624944147 0.7111876149
H -0.7993572325 -0.5377341502 -0.2416325907
H 0.9439949076 -1.0517739504 -1.5883228596
H 2.6743771583 -0.7654257486 2.2311325866
H 2.5877242411 0.6793140362 1.0948935599
H 0.2435980561 -0.8031256231 3.0857252284
H 3.0408611357 -4.6961460920 -0.1431003061