16

C -0.2182576382 1.3907684716 -0.0814375781
C 0.0584910025 -0.0841524040 -0.0241208972
N 1.2369684850 -0.5488114843 -0.0085380281
O -1.1189789147 -0.7768339596 0.0100729353
C -1.0714133404 -2.2035638716 0.0389777183
C -2.5158612599 -2.6782990772 0.0206005413
O -3.1901960583 -2.2682702276 -1.1502536573
H 0.7230121006 1.9379737289 -0.0920637925
H -0.7956403750 1.6337904314 -0.9791188921
H -0.8159599364 1.6980570811 0.7823106351
H 1.2635612412 -1.5664860835 0.0318976039
H -0.5376232261 -2.5768297471 -0.8443883961
H -0.5558912773 -2.5521989630 0.9442007268
H -2.5351795833 -3.7727563004 0.0355442736
H -3.0229143826 -2.3194311993 0.9299313684
H -3.0905216970 -1.3109161454 -1.2003593412