19

C 0.1056498071 1.5386070236 -0.2242077092
C -0.0340774329 0.0373039226 0.0302486071
O 0.4604239831 -0.6895581394 -1.0986099261
C 1.4229265425 -1.6558690945 -0.6921781264
C 1.5787064486 -1.4544474635 0.7863481289
C 0.7520668945 -0.5013457303 1.2097748552
C 0.5656585818 0.0141755453 2.6079094469
C 1.3625733992 1.2900629280 2.8590685156
O 0.8894785593 2.3328385860 3.2246581634
H 1.1589945280 1.8130100803 -0.3379776700
H -0.4198866343 1.8040254976 -1.1454508333
H -0.3223140860 2.1214011527 0.5972004783
H -1.1059888512 -0.1948015956 0.1620723937
H 1.0701036445 -2.6720369327 -0.9343383493
H 2.3616613353 -1.5025102340 -1.2468174909
H 2.2565450004 -2.0392478049 1.3968066653
H -0.4854714156 0.2228486501 2.8301452095
H 0.9309553900 -0.7330861796 3.3244402074
H 2.4548694156 1.1795486082 2.6717147641