16

C 0.2806982009 0.8504741259 0.6432598882
N -0.0333119259 -0.4528566305 0.1018351393
C -1.2284276273 -0.7901695290 -0.1749408646
N -1.5305942596 -2.0547900958 -0.6261961217
C -0.4490208669 -2.9425391784 -1.0019619216
C 0.3824626631 -3.3817038945 0.2032327560
O 1.4700127249 -3.8781663585 0.1007634149
C -2.3949811902 0.0723231126 -0.0255515455
N -3.3066046335 0.7741496519 0.0884409734
H 0.7485844062 0.7278375185 1.6267658982
H 1.0222296859 1.3353702459 -0.0010013181
H -0.5839589909 1.5196132826 0.7488250473
H -2.4287930779 -2.1809734679 -1.0625396779
H -0.8904822844 -3.8430492783 -1.4426720167
H 0.2303792537 -2.4966620446 -1.7385076120
H -0.1265150982 -3.2469312900 1.1826592308