18

O 0.2633052981 1.4329927864 -0.0329785650
C 0.0333129651 0.0515784404 -0.0663540305
C -1.3863630535 -0.5100254652 0.0178133082
C -2.1772750306 -0.1766808145 -1.2150934701
C -1.1693212925 -1.2853598115 -1.2987616497
C 0.2243230805 -0.7010788051 -1.4403461754
O 0.3634575981 0.1436974007 -2.5778614741
C 1.5823431578 0.6916120884 -2.7750771468
N 1.7435946078 1.5459577523 -3.6895834129
H -0.2602556091 1.8452923815 -0.7292856402
H 0.6807737366 -0.3798637277 0.7010640441
H -1.8665417132 -0.8526632952 0.9259366569
H -3.2127381936 -0.4989719347 -1.1914584357
H -2.0191064116 0.7431574676 -1.7698682531
H -1.4423546699 -2.3041765865 -1.5391814038
H 1.0296140604 -1.4423740621 -1.4191648396
H 2.3525455207 0.3097977010 -2.0926250552
H 2.7173615489 1.8411205942 -3.7189935070