20

O -0.6974882728 1.3507998760 -0.5673837254
C -0.3739948962 0.0076221051 -0.3600368005
C -0.1383624295 -0.4892121430 1.0458204410
C -1.4052149330 -0.8593926809 0.3043268029
C -2.7648689421 -0.2648281561 0.6867947460
C -3.7535772267 -1.0686061997 -0.1399604052
N -3.3849463616 -1.1523896505 -1.5709882753
C -3.0818477622 -2.2828800829 -0.6663977971
C -1.6376736104 -2.2900332926 -0.1974969311
H 0.0793901147 1.8782570182 -0.3561822895
H 0.2051451054 -0.4483203211 -1.1638403691
H 0.6114375216 -1.2562251514 1.2152241866
H -0.2290169670 0.2430877480 1.8426274754
H -2.9785551096 -0.4177376564 1.7525040537
H -2.8025785859 0.8072335060 0.4799395525
H -4.8050973538 -1.0685465733 0.1294191661
H -4.2162954537 -1.3768077353 -2.1124231889
H -3.6107727415 -3.2212496140 -0.8005911697
H -0.9337503979 -2.5726582657 -0.9879361391
H -1.5256657279 -3.0136407804 0.6207084965