19

C 0.0595942865 1.5561990154 0.0421516269
C -0.0348626389 0.0301617139 -0.0265936596
C 0.6787297754 -0.5531757736 -1.2514282381
O 2.0671151252 -0.2052828580 -1.2178857245
C 2.8419255245 -1.3431446204 -1.2584137575
O 4.0395752969 -1.3045026111 -1.2332651702
C 1.9228972458 -2.4971886255 -1.3370618867
C 0.6598989892 -2.0633031404 -1.3402296756
C -0.6069046705 -2.8464851297 -1.4232300813
H 1.1037196433 1.8764585317 0.0734019323
H -0.4099821903 2.0211200910 -0.8317130610
H -0.4445188732 1.9366634610 0.9350822084
H 0.4035439938 -0.4207014903 0.8715481144
H -1.0859726190 -0.2812360992 -0.0619098571
H 0.2483662369 -0.1124669993 -2.1638471582
H 2.2828017282 -3.5147642335 -1.3880175906
H -0.4085538494 -3.9130278125 -1.5489906006
H -1.2126916238 -2.7153468806 -0.5188264800
H -1.2227615905 -2.5078045991 -2.2650781609