20

C 0.8270868282 1.2922426578 -0.8179903009
C -0.0234116407 0.0646391167 -0.4743039358
N 0.5617715854 -1.2571738053 -0.6230004039
C 1.7397774087 -1.3930435149 -1.0284887280
O 2.2676935743 -2.6432163014 -1.1362823532
C 3.5668098282 -2.7293780548 -1.6629175350
C 3.6471894539 -2.4281075052 -3.1642063993
C 4.9366367605 -2.8470125637 -3.8427831240
O 2.7424901580 -1.8807010179 -3.7443408328
H 1.7203556386 1.3597591611 -0.1872227243
H 1.1477427359 1.2836762077 -1.8650663283
H 0.2396737560 2.2012801591 -0.6571627483
H -0.3724987522 0.1443983975 0.5640140058
H -0.9362884950 0.0774185723 -1.0844526648
H 2.4378623798 -0.5941860028 -1.3001542575
H 4.2683551973 -2.0513291842 -1.1478104480
H 3.9160081692 -3.7487317920 -1.4700400999
H 5.8109131579 -2.5617139446 -3.2476255564
H 4.9586844379 -3.9388874987 -3.9412245876
H 4.9958290082 -2.3982384867 -4.8347537777