18

C -0.0632814756 1.3691189126 -0.0794258810
O -0.1637757542 -0.0416619324 -0.1259382984
C 0.5508383338 -0.6561727333 -1.1960263253
C 1.2377951327 -1.8441533642 -0.6994237695
C 1.8474729392 -2.7827517143 -0.2669701066
C -0.4193093232 -0.9586880139 -2.3394741377
N -0.7585784812 -2.1329873776 -2.6565430782
O -0.8208656902 0.2245688769 -2.8804490218
C -1.8046173922 0.1772237129 -3.9043296519
H 0.9846881426 1.6959925705 -0.0031602954
H -0.5199557111 1.8438305064 -0.9560701584
H -0.5958232328 1.6874084543 0.8200678887
H 1.3005053875 0.0482902935 -1.5885384489
H 2.3675262338 -3.6291991089 0.1080144947
H -1.4288171920 -2.1621541144 -3.4236898687
H -1.9997304407 1.2124845111 -4.1855858533
H -1.4415123303 -0.3738396708 -4.7802505001
H -2.7313700961 -0.2845235783 -3.5440714481