16

C -0.0108793239 1.2514825259 -0.3708825668
N -0.0734261549 -0.0837516498 0.1879899711
C -1.1334722133 -0.9000918551 0.0421339479
O -2.1684180654 -0.6663473667 -0.5625887914
C -0.9370888909 -2.2618555060 0.7270325925
O 0.1072809366 -2.5915469245 1.2353548860
C -2.1908184028 -3.1612324722 0.7550526990
C -2.4905525456 -3.9603337357 -0.4842632057
O -2.8376372227 -3.1793163093 1.7726759730
H 0.1339958635 1.9992127276 0.4155784948
H 0.8071802461 1.3386846710 -1.0938046294
H -0.9575488486 1.4433251774 -0.8777750564
H 0.7040560573 -0.4636735086 0.7098471250
H -1.6164606910 -4.5536359748 -0.7759801686
H -3.3472413572 -4.6129853776 -0.3085597086
H -2.7062911973 -3.2628070215 -1.3009128923