17

O 0.1898639293 0.3049232847 -0.8899809648
C 0.2430242661 1.4610918657 -0.5976819635
O 0.9267344977 1.9139234815 0.4690540092
C 0.9803507447 3.3330290247 0.6834704239
C 2.3361135055 3.8689335497 0.3064834911
C 2.6327256292 4.2777492296 -1.1067608668
C 2.5037983229 5.3465948610 -0.0314733463
C 1.3805242969 6.2395126807 -0.0294776572
C 0.4449696072 6.9960892049 -0.0221085048
H -0.2667994974 2.2717623823 -1.1557372663
H 0.1909485600 3.8363997788 0.1136150035
H 0.7778801269 3.4858613886 1.7470643563
H 3.1552976396 3.4305524316 0.8678932503
H 3.6204421922 4.0848226027 -1.5085505211
H 1.8290840482 4.2223488911 -1.8328062970
H 3.4335235842 5.7938377533 0.3072685317
H -0.3771866231 7.6681634690 -0.0192861282