21

C 0.0026098780 1.4311018570 -0.0048238564
C 1.4804766159 1.9211778962 0.0132750473
C 2.2014598775 0.6656547360 0.4908675980
O 3.5511780736 0.5328209541 0.1133589404
C 4.0539857208 -0.7101538406 0.6031635667
C 3.2419370851 -1.9276679335 0.1273062968
C 1.7312377726 -1.7830670696 0.4243534591
C 1.3285736645 -0.4279972620 -0.1230411608
O 0.0144188447 0.0012305843 0.1722539340
H -0.5906032978 1.8577448013 0.8097301902
H -0.4896523050 1.6856553366 -0.9524350604
H 1.8289294443 2.1805565908 -0.9909355222
H 1.6279894279 2.7879353423 0.6603364411
H 2.1133454180 0.5847522825 1.5893433025
H 5.0882054465 -0.7764747740 0.2547578135
H 4.0696561040 -0.6867874876 1.7063405851
H 3.3871397263 -2.0469129619 -0.9531249366
H 3.6444273284 -2.8274366252 0.6053379526
H 1.1637010965 -2.6005803275 -0.0311815846
H 1.5425856292 -1.8118249750 1.5047934171
H 1.5008745590 -0.4218992940 -1.2156401232