16

C -0.0251286677 1.5687637930 0.0039105332
C 0.0235701202 0.0508715186 0.0176605291
N 1.0881959515 -0.5645294513 -0.7946450315
C 1.7756809045 -1.1437320060 0.2319724021
O 2.8039342254 -1.7572054091 0.3151033965
C 0.7055608820 -0.6280497649 1.2666717920
O 1.2190217445 0.3245969732 2.1709114309
C -0.0684896573 -1.6729619933 1.9162951696
C -0.6841498977 -2.5529367244 2.4567234998
H 0.9458648382 1.9937950881 0.2632056720
H -0.3196770760 1.9280771419 -0.9878106638
H -0.7635831402 1.9284509465 0.7262476241
H -0.9605903090 -0.3771318186 -0.1960604062
H 1.3085879059 -0.4865979580 -1.7769982100
H 1.8797730176 -0.1235113234 2.7123542284
H -1.2270667019 -3.3291129424 2.9376354038