17

C -0.0828309873 1.5450196510 -0.1655726003
C 0.0324635757 0.0466919625 -0.0032107246
C 1.3366061458 -0.6697023442 -0.1635583508
C 0.6957674454 -0.6091572158 1.2130345348
C 1.3021898140 0.1579515595 2.2997851462
N 1.1245104589 -0.0187608729 3.5813120470
C 1.9275948094 0.9548664801 4.1152531044
N 2.5681254614 1.6953304306 3.2542456964
O 2.1536993166 1.1597603317 2.0227970387
H 0.8139699871 2.0616337173 0.1824150835
H -0.2290194830 1.7974637001 -1.2211856894
H -0.9384818639 1.9380300183 0.3934311561
H -0.8436310287 -0.5038676981 -0.3359850401
H 1.3614243117 -1.6355153029 -0.6552638805
H 2.2249741402 -0.0640447662 -0.3062356645
H 0.2183602781 -1.5063644139 1.5869966698
H 2.0384747383 1.1165340032 5.1779446732