16

O -0.0611643358 -0.1465958287 0.1264517250
C -0.0012539667 1.0554812180 0.2490415025
C 1.2082265797 1.8282859240 0.1349141018
C 2.2077880048 2.5044438142 0.0534436180
C 3.4096994831 3.3010461948 -0.0603931905
C 4.1137001496 3.3964041281 -1.4559191819
C 3.8670262641 4.8979088598 -1.3684969502
C 2.4398756896 5.1968400253 -1.1599177207
N 3.2421504892 4.8107136435 0.0179506432
H -0.9045494183 1.6616553479 0.4649508181
H 4.1137167495 3.0032248643 0.7213107155
H 5.1648229047 3.1124027659 -1.3972075186
H 3.6440805430 2.8699257437 -2.2898658497
H 4.5969086697 5.6641189795 -1.6062804865
H 2.1423746092 6.2399634410 -1.1279817594
H 1.6747538647 4.5163160187 -1.5266362566