23

O 0.0995842311 1.3925021034 -0.0143258713
C 0.0460083726 -0.0003330513 0.2018830410
C -1.3804519848 -0.5288448352 0.0298989697
O -1.8886682144 -0.0717226285 -1.2329459418
C -1.4855702904 -2.0448364536 0.1836254486
C -2.9228264909 -2.5755132758 0.0912455265
C -3.0063618423 -4.0828598485 0.1997129167
C -3.0349456096 -4.7524829024 1.5521025503
C -4.2685978990 -4.7496438869 0.6813631793
H -0.4953154750 1.5538005685 -0.7588405506
H 0.7149797302 -0.5432740126 -0.4926782549
H 0.4065214041 -0.1937635249 1.2183767672
H -2.0215292488 -0.0320765637 0.7686271985
H -1.4418995366 -0.5757860490 -1.9242076226
H -0.8633355452 -2.5239280780 -0.5880957953
H -1.0457669703 -2.3346252585 1.1465003160
H -3.5256365028 -2.1221796895 0.8896878203
H -3.3686850164 -2.2391782931 -0.8522732912
H -2.4598252176 -4.6168164568 -0.5749718239
H -2.4988119527 -5.6857392315 1.6846755372
H -3.0372911512 -4.1154641924 2.4312545547
H -5.0952675028 -4.1119198368 0.9777882324
H -4.5735799971 -5.6805924329 0.2162684032