20

C -0.1191624229 1.3499231842 -0.0599959793
O 0.0196236346 -0.0530122670 0.0391615810
C 0.6589854813 -0.5143687006 1.1780965126
C 2.1043114796 -0.1080616890 1.6761625316
N 1.6483718902 -0.7336599870 2.9890694348
C 0.2857975186 -0.1658656289 2.6433616574
C 1.5445494046 -2.1537627911 2.5222513733
C 0.2148607414 -2.8318420548 2.3382883572
C 0.8208909052 -2.0473661975 1.1986528030
H 0.8541285985 1.8602212451 -0.0632968253
H -0.6234593182 1.5510349270 -1.0077113137
H -0.7279465625 1.7628124331 0.7563358182
H 2.9687384470 -0.5912249572 1.2145442237
H 2.2758583377 0.9640171192 1.8021208710
H 0.2938475900 0.9052202061 2.8522129532
H -0.5732435514 -0.6192626276 3.1358523434
H 2.4408497564 -2.7388011347 2.6877584089
H 0.2820884410 -3.9109776030 2.2336698373
H -0.6868280690 -2.5140212185 2.8466717894
H 1.1276797279 -2.5313221878 0.2794739723