17

C 0.1994443952 1.4724285291 -0.0010806701
C 0.1594396805 -0.0374768030 0.0173395576
C 1.4078524146 -0.8568423343 0.0826076357
C 0.4999683231 -0.8140176007 1.3007484746
N 0.9457302983 -0.0884625749 2.4523271406
C 2.1442816780 -0.3115833910 3.0844249556
O 3.0161387595 -1.0501707997 2.6956247394
C -0.3072785993 -1.9787773665 1.5915203322
N -0.9782374992 -2.8906323542 1.8297319243
H 1.0174327089 1.8586071342 0.6119494009
H 0.3500155580 1.8294946605 -1.0248306065
H -0.7385362605 1.9024262314 0.3661273494
H -0.6624976279 -0.4787160673 -0.5385810702
H 1.4590706659 -1.7954803159 -0.4549765927
H 2.3569118665 -0.3504900741 0.2051174018
H 0.2645573792 0.4734096077 2.9416470079
H 2.2274638190 0.3041031187 4.0020102096