23

C -0.0284990157 1.5200062058 0.0146535818
C -0.0234067939 0.0033064492 0.0096730248
C -0.8584280448 -0.7026631543 1.0576927385
C 0.6463494833 -0.7100822914 1.1715235841
C 1.4556141285 -1.9774403852 0.9526124239
C 1.1122876598 -2.6870844401 -0.3645303790
C 1.1455590177 -1.6959344311 -1.5296857604
O 0.9263039287 -2.3260407059 -2.7865630610
C 0.0555268588 -0.6320681758 -1.3851919588
H 0.8884084370 1.9220978811 -0.4330769610
H -0.8758220714 1.9139328166 -0.5595972859
H -0.1044889742 1.9160541073 1.0325785198
H -1.4209973155 -0.0978672499 1.7620026938
H -1.3593663410 -1.6223005225 0.7700429095
H 1.0532601868 -0.0602840113 1.9427996133
H 2.5211521087 -1.7108673762 0.9367090786
H 1.3241321633 -2.6628808919 1.7990366342
H 1.8313242536 -3.4970457824 -0.5428488526
H 0.1202829230 -3.1538085283 -0.3224855897
H 2.1305907502 -1.1961943259 -1.5245994863
H 1.6023254731 -3.0016522646 -2.9006973166
H -0.8980670966 -1.1044309213 -1.6503128242
H 0.2293729105 0.1454070180 -2.1358912871