13

C 0.0256106326 1.3865707468 0.0172750333
O 1.3091965485 1.9425669243 -0.0064075026
C 2.0861003195 1.6620395133 1.1628577414
C 1.8587528264 0.2247291224 1.4829263678
C 0.9067286650 -0.5106323203 0.8546930575
O 0.0342108368 -0.0485697244 -0.0584866360
N 0.9850456461 -1.7898689909 1.3216902683
N 1.9046474633 -1.8762595963 2.1802709895
O 2.5103416653 -0.5635058586 2.3290897304
H -0.5117635188 1.6720914037 0.9348755217
H -0.4932379755 1.7335066248 -0.8747049707
H 3.1264439863 1.8700195565 0.8973964213
H 1.8061989246 2.3232506986 1.9966032181