20

O -4.9366571579 -0.0275113989 -0.6239759985
C -4.2126539854 -1.1985632925 -0.2841928609
C -2.8429437325 -1.1016850142 -0.9498969416
C -1.9665693202 -2.2864494561 -0.6015328482
C -1.9444126575 -3.5134626026 -1.4517944444
N -0.7704361540 -2.6480561904 -1.3631453557
C -0.3911269468 -1.8840463108 -2.5391767984
C 0.7527956158 -2.5850423136 -3.2583425565
O 0.9727209452 -2.4823716019 -4.4363095605
H -5.8051371226 -0.0795309098 -0.2145518333
H -4.0898285910 -1.2910975998 0.8074488371
H -4.7289848309 -2.1074837216 -0.6319478518
H -2.9907231917 -1.0204529398 -2.0309125031
H -2.3679338767 -0.1690208131 -0.6207446990
H -1.8233698963 -2.4230463598 0.4707108901
H -1.8440778646 -4.5025400515 -1.0130273917
H -2.5259086135 -3.4814240681 -2.3732600779
H -1.1921549292 -1.6944911114 -3.2682800446
H -0.0061106842 -0.9058519436 -2.2147346986
H 1.3900370337 -3.2003609905 -2.5853142525