17

C -0.0506717491 1.5573784547 0.0490498554
C 0.1486277762 0.0796499801 0.0478157601
O -0.7471686222 -0.7511514368 0.7963310791
C 0.6620056998 -0.8841765705 1.0215894105
C 1.2866882970 -1.7560591860 -0.1072047775
C 0.2858068333 -2.2131802223 -1.1532116474
C -1.0373044172 -2.7438701225 -0.9641161284
C -2.1094622915 -3.2870707401 -0.9206957917
C 0.7448565215 -0.7658129781 -1.1298507620
H 0.8545038099 2.0717634633 -0.2899838248
H -0.8695910759 1.8379218697 -0.6232425303
H -0.2974214638 1.9051467121 1.0554729396
H 1.0242935252 -0.7755123046 2.0369944805
H 2.2784121182 -2.1854699739 -0.0472265570
H 0.8138465718 -2.7422724843 -1.9469017212
H -3.0706693835 -3.7296825402 -0.8378255863
H 1.2591481904 -0.3241143207 -1.9743195586