16

C -0.1008607727 1.4045698479 0.0293753172
O -0.0131926916 -0.0188696089 -0.0344056428
C 0.6449088801 -0.5509580476 -1.1567021245
C 0.5679304769 -2.0920193463 -1.0055166224
N -0.8217632881 -2.4993857052 -1.0213669883
C 0.0005994079 -0.1225068041 -2.4252968504
N -0.4899063687 0.2402925871 -3.4053706745
C 2.0720479658 -0.1344831029 -1.1867662566
N 3.1862631295 0.1681621778 -1.1677482944
H 0.8958560850 1.8607565696 0.0610940871
H -0.6615942173 1.8060375896 -0.8225719564
H -0.6325945779 1.6278941052 0.9548099415
H 1.0922605847 -2.5443455020 -1.8515794060
H 1.1294506836 -2.3319657982 -0.0894836943
H -0.9005838410 -3.5021785758 -1.1379601204
H -1.2764833265 -2.2439538562 -0.1526476248