13

C 0.0166675725 1.3064055205 0.0093501491
C 1.3226719803 1.7796324988 -0.0006725471
N 2.0963225447 0.6641472879 -0.0143065837
N 3.4412651083 0.5830676300 -0.0277315123
C 3.8853213969 -0.6512806861 -0.0388701048
N 3.1713211605 -1.8090389776 -0.0384226276
C 1.8606106153 -1.6940178773 -0.0251460239
C 1.2320015243 -0.4388860510 -0.0121029509
N -0.0384267576 -0.0486617798 0.0023144048
H -0.8835716769 1.9036117406 0.0213689696
H 1.7525741258 2.7663747403 0.0006422585
H 4.9657945641 -0.7456906125 -0.0498244869
H 1.2551535518 -2.5966474339 -0.0243200746