14

O -0.0457431534 -0.0097467070 -0.0976171686
C -0.0185577370 1.1756904118 0.0446952398
C -1.0390554404 2.3349480235 0.0213058172
O -0.7852536748 2.9367564187 1.3027011495
C 0.5778630239 3.3472410113 1.0582574822
C 0.4097094580 4.3688605958 -0.0862358657
C 0.0189468472 3.1077855211 -0.8757422784
C 1.0476015797 2.2610400485 0.0142422622
H -2.1005284371 2.2417828639 -0.1909808667
H 1.0948278733 3.5462083255 1.9943575806
H -0.3223831760 5.1663865259 0.0587394339
H 1.3647789687 4.7687604929 -0.4341083938
H -0.0526989473 3.0249452284 -1.9571570997
H 2.1009350951 2.1204962194 -0.2082713126