17

C 0.1267396875 1.4843229282 0.1717226829
C -0.1998384082 0.0228837183 -0.1171329804
N 0.6636090076 -0.5008548150 -1.1675911630
C 0.8634351066 -1.8188339175 -1.3772629702
C 1.4518500984 -2.4140129240 -2.4935085550
N 1.9061187229 -1.7428935035 -3.6403715207
N 1.4806346639 -3.7513507830 -2.2298050733
N 1.0009620552 -4.0801702879 -1.1432040423
O 0.5356932053 -2.7084127484 -0.4828698076
H 1.1649127048 1.5966049567 0.4967312217
H -0.0221542929 2.1074596928 -0.7175105847
H -0.5281178113 1.8694797812 0.9579827409
H -0.0411921713 -0.5905163076 0.7734812956
H -1.2607661463 -0.0807982053 -0.3900890110
H 0.8243584725 0.0692790583 -1.9862104562
H 1.4623548412 -2.0755999188 -4.4897766526
H 2.9107822240 -1.8109011747 -3.7668445640