18

C 0.3964983093 1.5245404493 -0.0405935429
C -0.1657730549 0.1034711286 0.0980416287
O -1.5915104817 0.1466469715 0.1735400633
C 0.1918062958 -0.8133700462 -1.0988319761
C 1.3784492874 -1.6982484350 -0.6177673016
C 1.2780743235 -1.6063783269 0.8978552949
C 0.4548682616 -0.6340031395 1.2711640030
C 1.3320451452 -3.0699722974 -1.1273360067
N 1.3003253077 -4.1541113270 -1.5267994859
H 1.4798452565 1.5118070497 -0.1954400713
H -0.0747559660 2.0318513682 -0.8879467384
H 0.2014614218 2.1113140212 0.8652640185
H -1.8397702956 0.8212821948 0.8146968645
H -0.6779158964 -1.4412945362 -1.3002653605
H 0.4300956601 -0.2577564135 -2.0077437932
H 2.3354436924 -1.2726606275 -0.9511062244
H 1.8529694126 -2.2550036655 1.5474498745
H 0.2488594809 -0.3452817987 2.2967258537