19

C 0.0249884918 1.5168312133 -0.0695934577
C -0.0390100326 0.0201279514 0.0217859078
O 0.3836823405 -0.7109377950 -1.1878849014
C -0.2854200935 -1.8403772782 -0.5397668970
C 0.5772025638 -2.0204329980 0.7256808788
C 0.7446366796 -0.7541232802 1.1095247862
C -1.3404799690 -0.8311194754 -0.0395828800
C -2.5437627756 -0.9377866326 0.8264667820
C -2.6611270173 -0.4791430152 -0.6256264042
H 1.0563342091 1.8433286780 -0.2354307902
H -0.5878720278 1.8812096068 -0.8982609673
H -0.3316900444 1.9743005263 0.8591357148
H -0.5019571815 -2.6838391777 -1.1941993883
H 0.9152010676 -2.9472962738 1.1650845306
H 1.2637796457 -0.3303839653 1.9571811873
H -2.9154485204 -1.9252259945 1.0819939702
H -2.6903888939 -0.1957013419 1.6054121223
H -2.8867365888 0.5670025939 -0.8095580568
H -3.1107463431 -1.1596873216 -1.3418281171