24

C -0.8675173523 1.9574319647 -0.1467974469
C -0.4392853525 0.5198240218 0.1677601031
C -1.4820141574 -0.5958333262 -0.0739577563
C -2.0193924820 -0.5792692934 -1.5167546601
C -0.7571243830 -1.9407392979 0.1702671051
O -1.6062345835 -3.0713962805 0.0772903355
N -2.5032463580 -0.5051610200 0.9950752951
C -3.6214024821 0.4244147494 0.9213217627
C -3.8514000621 -1.0403178495 0.8110803852
H -0.0324309169 2.6429622736 0.0293424862
H -1.1711525451 2.0764135564 -1.1915944977
H -1.6964391650 2.2849479539 0.4858027563
H 0.4474695671 0.2786431819 -0.4330522008
H -0.1310066977 0.4600743319 1.2178243678
H -1.1862280742 -0.4823396455 -2.2203370044
H -2.5337749904 -1.5156425192 -1.7449843168
H -2.7013712730 0.2534842194 -1.7087524274
H 0.0141075835 -2.0784972324 -0.5952756116
H -0.2615980727 -1.8998319334 1.1505442853
H -2.1976078466 -3.0393315882 0.8355911998
H -3.8472583198 0.9574019459 1.8414958293
H -3.7693890565 1.0087106511 0.0165502839
H -4.1440827088 -1.4195319310 -0.1640145330
H -4.2534741011 -1.5996467128 1.6531226798