15

N 0.1013765958 1.2931581004 0.2526825360
C 0.0712762170 0.0562509797 0.0058956712
O 1.1351683273 -0.7083179880 -0.3832538023
C 0.7127050845 -1.9965438282 -0.8706560363
C -0.7540222097 -2.1267325618 -0.5076383278
N -0.9845250340 -1.9979488840 0.9175893042
C -1.1491904608 -0.7928182064 0.0585097977
C -2.5191314687 -0.2488045953 -0.1240497818
O -3.5059731769 -0.9064907308 0.1132740039
H 1.0354605082 1.6750010174 0.0958094633
H 0.8602153631 -2.0309915508 -1.9556437121
H 1.3321997616 -2.7594167676 -0.3915705432
H -1.4351755262 -2.6948266136 -1.1316863937
H -1.9372374045 -2.3086815545 1.1238745854
H -2.5711516166 0.7936381333 -0.4872189445