17

C -0.0849900530 1.4352688549 -0.1493533039
C 0.0023027600 -0.0785942706 0.0734820069
C 0.7179572130 -0.4517907082 1.3694585316
N -1.3476394592 -0.6623872033 0.0435665901
N -2.0569557554 -0.9366590036 1.1189320940
N -3.2266819298 -1.3684554595 0.6932105450
C -3.1562055407 -1.3206835033 -0.6536873112
O -4.1513733508 -1.6851667450 -1.4638977700
N -1.9917521902 -0.8797082069 -1.1084006334
H 0.9216121909 1.8569725516 -0.2203868573
H -0.6216287058 1.6584097842 -1.0743993508
H -0.6045408741 1.9169342963 0.6845453165
H 0.5135890348 -0.5364265631 -0.7782088058
H 0.2135729053 -0.0213159806 2.2370843245
H 0.7604481148 -1.5353335583 1.5022660311
H 1.7396700680 -0.0645692617 1.3317684476
H -4.8823393177 -1.9723532029 -0.9021496549