19

C 0.0357637070 1.5823987853 -0.0572650829
C 0.0387522009 0.0502882396 0.0457026188
N 0.6184782043 -0.5247856434 -1.1710973187
C 1.7805103594 -1.0226473836 -1.1119280211
O 2.6405680422 -1.1074299997 -0.0718162162
C 2.2394086469 -0.4446537741 1.1399277272
C 0.7402137326 -0.4705366738 1.2921879634
C 0.1100358180 -0.3641378679 2.6274552472
N 0.2320147711 -1.6779558476 1.9689769263
H 1.0546909345 1.9819916748 -0.0449876917
H -0.4287707194 1.8873101810 -0.9985003074
H -0.5208342573 2.0288702797 0.7722339250
H -1.0095332504 -0.2790088099 0.0791957488
H 2.2291802205 -1.4818340514 -1.9913479251
H 2.7251949917 -0.9812452506 1.9563017861
H 2.6186761928 0.5849354548 1.1091312923
H 0.7194360758 -0.2381754975 3.5190835096
H -0.8698616806 0.1042951038 2.6858973718
H -0.6634621199 -1.9498768896 1.5686242967