18

N 0.2922586121 1.3137449910 0.5763302195
C -0.0043587565 0.0169237042 0.1488019739
C -1.1490983194 -0.7508900815 0.2293054085
C -0.7798325547 -2.0139083217 -0.3028939512
C -1.6568001827 -3.2197657853 -0.4675839763
C -0.9050422951 -4.4766734303 -0.8882698567
O -1.8660170610 -5.5207711867 -0.9944520823
N 0.4911858835 -2.0297216447 -0.6872878954
N 0.9461796880 -0.7782335315 -0.4021778768
H 0.7572310170 1.8725829262 -0.1298546840
H -0.5368881878 1.8011586301 0.8883150183
H -2.1129766927 -0.4416154067 0.6010048463
H -2.1845350035 -3.4247693553 0.4719435492
H -2.4393294860 -3.0190636232 -1.2109745702
H -0.3907834773 -4.3010728006 -1.8431343367
H -0.1312238093 -4.7136739786 -0.1437737034
H -1.4072459598 -6.3160461470 -1.2790356347
H 1.9218482452 -0.5695733886 -0.5245291979