21

C -0.0925306105 1.5907864181 -0.1379479505
C -0.0052632963 0.0694035636 -0.0123394540
C -1.3679022721 -0.5669211761 -0.3015923527
C 1.1331115886 -0.6375147316 -0.8393783366
C 1.7306838059 -1.2105185777 0.4470375967
C 2.1138016818 -0.1328745968 1.3878769511
C 0.6399640425 -0.4755778230 1.2904938291
C -0.0423699004 -1.0561999488 2.4571047664
O 0.5238664761 -1.5543388980 3.4063456276
H 0.8676066238 2.0765308849 0.0564839565
H -0.4097910441 1.8776914889 -1.1470443188
H -0.8229677111 1.9997446619 0.5693264472
H -1.6704761052 -0.3524522325 -1.3324484993
H -1.3384970559 -1.6548676348 -0.1793126764
H -2.1486502391 -0.1742428159 0.3588941453
H 0.7408811826 -1.3970635759 -1.5189514899
H 1.8001329444 0.0242553271 -1.4019449034
H 2.0417492254 -2.2369017325 0.5981597152
H 2.5578611836 -0.4549908827 2.3233962370
H 2.4632569415 0.8251235184 1.0130306413
H -1.1532232515 -1.0303153567 2.4154483782