19

O -0.0150850574 0.0113550328 -0.0973441333
C -0.0621189589 1.2022102524 0.0179218812
C -1.1931471143 2.2145513191 0.2520470521
C -0.0986839751 3.2605461596 0.6286372254
C 1.0225208157 2.2962707963 0.1247977771
C 2.2110023115 1.9909330661 1.0126498271
C 3.2667057413 0.9936162427 0.4854291843
C 4.2528245248 2.1633053078 0.6729791262
O 3.1829060497 3.0641284003 1.0383806505
H -1.7262354919 2.4472705157 -0.6758237963
H -1.9297402691 1.9386397302 1.0110543131
H -0.1585271628 4.2228616667 0.1208084370
H -0.0375915972 3.4347347395 1.7054328898
H 1.3801429074 2.5745413714 -0.8742612798
H 1.8633140175 1.7642314062 2.0314111288
H 3.4358452942 0.1075922493 1.0973827028
H 3.1084608366 0.6868214462 -0.5495436009
H 4.9738449643 2.0374417759 1.4906945681
H 4.7882474936 2.5055898220 -0.2199980633