18

N 0.0528916631 1.2634239567 0.0085359250
C 0.0475113027 0.0028953725 0.0470434587
O -1.1214109103 -0.6680581189 0.0117767658
C -1.0687234295 -2.0886304634 -0.0789932768
C -2.2977688744 -2.6934840948 0.6210247522
C -2.4263360294 -4.0976472667 0.0141741474
C -1.8363194874 -3.9787640886 -1.3982809301
O -1.8922388553 -4.8171114173 -2.2576716377
C -1.1549518793 -2.6106440711 -1.5193156312
H 1.0081932265 1.6091449754 0.0690614633
H 0.9263879452 -0.6533138103 0.1235781368
H -0.1475111018 -2.4488657108 0.4001865083
H -2.2001774201 -2.6859379508 1.7084465224
H -3.1665688460 -2.0790975371 0.3621841007
H -1.8199342136 -4.8334993455 0.5584899281
H -3.4445760480 -4.4915403296 -0.0189124197
H -1.8167110983 -1.9508563614 -2.0957109375
H -0.2055947441 -2.6768424783 -2.0549025258