16

N 0.0052720240 1.3783015368 -0.2503454592
C -0.0590660158 0.0158567028 -0.0806181733
C -1.0570667218 -0.9019352112 -0.2369356077
C -0.3989382006 -2.1342207044 0.0367488057
N 0.8761947101 -1.9835815667 0.3251072630
O 1.0903348619 -0.5839820358 0.2551251892
N -1.0072061221 -3.3874946018 0.0812327077
C -1.2975482902 -4.0823167949 -1.1764689098
C -0.2175448820 -4.5620444804 -0.2679712617
H 0.7733353863 1.8146318765 0.2404085206
H -0.8692580065 1.8619152928 -0.1123056911
H -2.0900205650 -0.7403758464 -0.4914081013
H -2.2558236366 -4.5916258077 -1.2121217968
H -0.9945398858 -3.5960968139 -2.1003146609
H 0.8106757111 -4.3953520866 -0.5729381692
H -0.3838732169 -5.4299345191 0.3624037349