18

C 0.0252958136 1.4952450070 -0.0723761342
C 0.0139352642 -0.0106695550 -0.0055093479
N -1.2160610371 -0.6107233332 -0.4825775645
C -1.2086580122 -2.0883586901 -0.4750220117
C 0.1178011501 -2.5832369094 0.0954498172
O 0.3141942947 -2.0183786223 1.3873909045
C 0.7751267963 -0.7080894692 1.1199861481
C 1.3051905779 -0.7533551480 -0.2947564580
O 1.1709100766 -2.0893338523 -0.7199318537
H 0.9792966571 1.8991028616 0.2805676854
H -0.1374217788 1.8345265981 -1.1000771495
H -0.7651006932 1.9209854400 0.5580040139
H -1.9843805765 -0.2648711995 0.0809363618
H -2.0314280911 -2.4832877618 0.1304186573
H -1.3199872292 -2.4815498640 -1.4946710369
H 0.1904007774 -3.6707990689 0.1579863361
H 1.2347277400 -0.2278418125 1.9750177178
H 2.2006776600 -0.2709146606 -0.6654332956