23

C 0.1787341708 1.5461568832 -0.2701036482
C 0.0417634545 0.0338998409 -0.0932303947
C -1.4025636201 -0.4240889329 0.1356494742
O -2.1443863789 -0.0181142007 -1.0079359934
C -3.5476179725 0.0340084983 -0.8525026219
C -4.2302440004 -1.3281813034 -0.9732830782
C -3.9862758951 -2.2797687111 0.2072687815
C -2.5523115041 -2.6879126107 0.4495459664
C -1.4682195449 -1.9129157982 0.4217832529
H 1.2199441731 1.8284733676 -0.4531156937
H -0.4251889892 1.8894096395 -1.1131370976
H -0.1590609807 2.0809054707 0.6252721082
H 0.4266906329 -0.4877763483 -0.9783429360
H 0.6438806825 -0.3046686187 0.7585234181
H -1.8016484460 0.1182919293 1.0147959624
H -3.8076867413 0.5054978737 0.1114226731
H -3.9090341912 0.6949069312 -1.6482401125
H -5.3105908255 -1.1594672417 -1.0710607012
H -3.8917189415 -1.7987029023 -1.9033949772
H -4.3832768690 -1.8157964750 1.1242001870
H -4.5873071091 -3.1833840700 0.0575955819
H -2.4058870221 -3.7363396297 0.7027075709
H -0.5105334321 -2.3748923117 0.6549882382