14

C -0.0149689745 1.5384002853 0.0066569171
C 0.0036196064 0.0365217387 0.0123482009
C 0.0748791739 -0.7091518034 -1.1616207742
F 0.1281359553 -0.0571359014 -2.3275726803
C 0.0917087032 -2.0964230324 -1.1498901062
N 0.0406070695 -2.7940401633 -0.0139538097
C -0.0282939688 -2.1184939565 1.1320054341
C -0.0479331613 -0.7290748047 1.1730667173
F -0.1181590602 -0.1148675724 2.3587903428
H 0.8861727797 1.9358235712 -0.4707679204
H -0.8704827892 1.9137285815 -0.5635696982
H -0.0735524566 1.9275723233 1.0230332598
H 0.1479258190 -2.6443276664 -2.0856826758
H -0.0700033759 -2.6839301196 2.0582070323