20

C -0.0098344711 1.5355234479 -0.0126981083
C -0.0037007547 0.0116582849 -0.0294578698
C -1.2821552082 -0.6318650223 -0.4871872093
C -1.7293357965 -1.5412190097 0.3788056287
C -0.8421835973 -1.7122847125 1.5948443968
C 0.2985978821 -0.7016460001 1.3474175205
C 1.6269711914 -1.2026552504 0.7516347930
N 1.2928948585 -2.0420678635 -0.4228413919
C 1.3398155936 -0.5697565678 -0.5639804879
H 0.9300104407 1.9291938834 0.3911973132
H -0.1320520440 1.9416219739 -1.0239741571
H -0.8315117894 1.9161512168 0.6026184511
H -1.7642336365 -0.3768422247 -1.4256620441
H -2.6309396440 -2.1308804441 0.2436695814
H -1.3863357831 -1.5105874885 2.5262901154
H -0.4662486073 -2.7403915650 1.6641243776
H 0.4524710670 -0.0006941900 2.1704046717
H 2.5702012664 -1.3316445211 1.2694333339
H 2.1730875860 -2.4026213964 -0.7901908990
H 2.0104271862 -0.1007485410 -1.2756738761