20

C 0.0254578423 1.4884794687 -0.2682930829
C -0.0465194843 0.0256661377 0.1047783127
N 1.2080381096 -0.7435151173 0.0818034818
C 0.5022992641 -0.5581383953 1.3597758789
C 1.2052519074 0.2431047387 2.4216118608
O 1.9593701711 -0.6536242651 3.2191416152
C 2.6755495726 -0.0218298279 4.2455147493
C 3.4342385684 -1.0856426112 5.0197817252
O 4.1053386918 -0.8539131245 5.9896673426
H 0.9524819750 1.9459021128 0.0835858939
H -0.0081202864 1.6044857962 -1.3567913481
H -0.8202753995 2.0420076975 0.1540244519
H -0.9353088856 -0.4787333295 -0.2742374290
H 1.0573462279 -1.6810369095 -0.2793578222
H -0.0332281238 -1.4141191767 1.7679002421
H 1.8652583262 0.9921741525 1.9621809890
H 0.4705695803 0.7761703279 3.0495224942
H 3.4010058660 0.7126441705 3.8543670932
H 2.0157393097 0.5224089660 4.9432323853
H 3.3132401572 -2.1092872815 4.6016963162