20

C -0.7452269356 1.3593031096 -0.0269191407
C 0.0297683387 0.0606499037 -0.0696281933
O 1.2840027887 0.1879436620 -0.7953425645
C 2.0041151941 -0.5216142901 0.2213731833
C 3.2297547158 0.1633072741 0.6370543330
N 4.1967582897 0.6903591744 0.9876682169
C 0.7717291907 -0.4973431607 1.1893255948
C 0.9063688974 0.4708750286 2.3618032745
C 0.3087097047 -1.8733109709 1.6568907349
H -0.1624510388 2.1672221754 0.4207185307
H -1.0136767260 1.6574045660 -1.0452313394
H -1.6723886271 1.2331254018 0.5423551593
H -0.5871427741 -0.7199310027 -0.5382154612
H 2.2733192190 -1.5364272552 -0.1035175726
H 1.2840356752 1.4483903553 2.0534769274
H -0.0622660822 0.6159195394 2.8509938795
H 1.6014932015 0.0722390449 3.1074748473
H 1.0079840977 -2.2976903434 2.3853691417
H -0.6715164637 -1.8050370328 2.1413171694
H 0.2216356341 -2.5753725896 0.8214722390