20

C -0.1519253014 1.4619456768 -0.0333645396
N 0.0476529998 0.0192642684 0.0407723817
C 1.4265725459 -0.4585104201 -0.1952038543
C 0.7945231236 -0.5060726756 1.1459094090
C 1.1608753069 0.0937960914 2.5255526617
C -0.2070230169 -0.4802471760 3.0114015314
C 0.3962003615 -1.6203248543 2.1354214790
C 1.7474038626 -1.3183933991 2.8664196382
O 2.9698873415 -1.7432040917 2.3457629134
H 0.6906127044 2.0452350236 0.3720441950
H -0.2982021393 1.7506173658 -1.0787686193
H -1.0549002821 1.7324404648 0.5228617704
H 1.5137791930 -1.3437047595 -0.8215314807
H 2.1931609923 0.2977319259 -0.3685397259
H 1.5959322683 1.0671859913 2.7524018467
H -0.2932679402 -0.6841619698 4.0822492989
H -1.1022767679 0.0009912616 2.6175569430
H -0.0444488873 -2.5902502142 1.9061785821
H 1.7579843217 -1.5615581634 3.9313397252
H 2.9845356737 -1.5362761957 1.4051301841