18

C 0.2703790370 1.5305249852 -0.0812728470
C -0.0444635387 0.0544580968 0.0967183775
O 0.3760128151 -0.6668927734 -1.0895075798
C 1.0615700355 -1.8044864560 -0.7749084862
N 1.3830875095 -2.7180815835 -1.5844097567
C 1.3703184256 -1.8109145545 0.6924301168
C 1.7244066451 -3.0809617247 1.4011380198
O 2.1047668915 -0.6095858570 1.0436241299
C 0.6918938662 -0.6274921815 1.2347625926
H 1.3517200690 1.6746286095 -0.1364829906
H -0.1874250182 1.9083784642 -0.9987110204
H -0.1227061079 2.1056011721 0.7630668239
H -1.1251688826 -0.1024566177 0.2134425945
H 1.0448204704 -2.5053618509 -2.5247189147
H 2.5974867302 -3.5383474814 0.9283376332
H 1.9491637174 -2.8787180231 2.4507002123
H 0.9009550720 -3.7981316449 1.3395974725
H 0.3322738231 -0.5511447191 2.2572362623