19

C -0.2682208842 1.5420740525 0.0993792661
C 0.0195918128 0.0380405190 0.0012823648
C 0.8516725490 -0.3679389223 -1.2490152804
C 2.3813041258 -0.4073082742 -1.0001607433
C 2.6348103659 -0.8667135779 0.4500737734
O 1.5159521723 -1.6873180001 0.9062180024
C 0.7644972804 -0.4836173142 1.2525280452
C 2.1193777721 0.2246530501 1.3937159524
O 2.5754058046 1.1386853425 2.0103611915
H 0.6528878589 2.1336703475 0.1024118555
H -0.8780772650 1.8707134388 -0.7474442313
H -0.8138558715 1.7845343723 1.0177606022
H -0.9406102402 -0.4884822894 -0.0516312722
H 0.5413321319 -1.3721059985 -1.5447285353
H 0.6196932696 0.2951240020 -2.0880311182
H 2.8550725271 -1.0924874981 -1.7097296120
H 2.8476374018 0.5739883133 -1.1475672822
H 3.6064888850 -1.3329340200 0.6259720435
H 0.1289763535 -0.6134896832 2.1320832180