20

C -0.0169862382 1.5123365201 0.0655075578
C -0.0376851763 0.0218062620 -0.0193815304
C 0.0820434861 -0.7727605681 -1.0861809363
C 0.0560274492 -2.2007193395 -0.6501037005
C -0.4075204633 -3.2761861576 -1.6006346310
C 0.9431643462 -2.6083014474 0.5038606083
C 1.4214188577 -1.4558108231 1.3693949074
C -0.0227657234 -0.8773389233 1.1982212084
N -0.5098516073 -2.2498548584 0.7212823673
H 0.8456793384 1.8694924483 0.6429478472
H 0.0297931764 1.9702439195 -0.9261219441
H -0.9108831593 1.8917610110 0.5766787023
H 0.1980319162 -0.4653772580 -2.1183948932
H 0.2959814819 -3.3933414710 -2.4322257617
H -0.4934166759 -4.2373057039 -1.0864561213
H -1.3895584997 -3.0262318507 -2.0152785714
H 1.2954041858 -3.6333505705 0.5882195535
H 1.5881735702 -1.7995446017 2.3928581652
H 2.2698105084 -0.8470057297 1.0413060745
H -0.5282274830 -0.5064266080 2.0903957881