17

C -0.0368846499 1.5514372674 -0.0180141010
C 0.0096226314 0.0299104680 -0.0387528043
O -1.2840080651 -0.5475675345 -0.1294951106
C 0.9472684006 -0.5656003233 -1.1140702899
C 1.1530214200 -2.0351332699 -0.6917666567
C 1.9208712640 -1.2993987460 0.4364628806
O 2.2574022952 -0.2459758504 -0.5311842893
C 0.7801028200 -0.5889149975 1.1678961596
O 0.4872366445 -0.5331028253 2.3306502850
H 0.9694698047 1.9712313365 -0.0874450997
H -0.6417161742 1.9154994626 -0.8540079944
H -0.4889732471 1.9005105969 0.9166708965
H -1.7277537442 -0.3886884438 0.7125778303
H 0.8235947925 -0.2433633836 -2.1471587017
H 0.2766767742 -2.6350330712 -0.4442068397
H 1.8403143778 -2.5605615713 -1.3555022816
H 2.7573345056 -1.7090418446 0.9983581367