20

C 0.1475289254 1.5905076338 0.0222310940
C 0.0105566256 0.0649229227 -0.0170130208
C 0.6507717869 -0.5928132113 -1.2489956461
N 2.0996651157 -0.3613858407 -1.3992253897
C 1.6205534645 -1.6311535431 -0.8129831338
C 1.6282970711 -1.6599107672 0.7115074626
C 1.9804953408 -2.9307760310 1.4332163410
O 2.0772512277 -0.4329933859 1.3006072829
C 0.6653830056 -0.6419197143 1.1727783999
H 1.2050730431 1.8624644815 0.0196383341
H -0.3316473672 2.0509370908 -0.8478660834
H -0.3187448772 2.0065488314 0.9212304081
H -1.0528777062 -0.2108493128 -0.0118546864
H 0.0498501676 -0.7068283140 -2.1467748182
H 2.3591651479 -0.5276436938 -2.3694925559
H 1.7698262821 -2.5601374344 -1.3533707981
H 3.0299282769 -3.1955641890 1.2625107413
H 1.8297715916 -2.8162238109 2.5094091080
H 1.3622446689 -3.7638482777 1.0809439486
H 0.1257098390 -0.7154260141 2.1165763721