16

O -0.0972475031 1.4141535165 0.0285472166
C 0.0219477028 0.0411039964 -0.0017671183
C -1.2541163965 -0.8658141321 0.0141587654
C -0.5816561387 -1.7942179433 1.0947896885
C 0.0500817169 -2.6356402326 -0.0553231748
C -0.6408311353 -1.7502320974 -1.1363072533
C 0.6436095385 -0.8653982183 -1.1231159741
N 1.3048184600 -1.7590053238 -0.0713497908
C 0.7012356196 -0.9082567486 1.0483894108
H 0.7858139120 1.8018050813 0.0136701427
H -2.2709899848 -0.4829214645 0.0486780340
H -1.0721213208 -2.1783342802 1.9869472389
H 0.1665263038 -3.7190278233 -0.0797695554
H -1.1782941435 -2.0994237960 -2.0156503924
H 1.2244553337 -0.5408028771 -1.9879346902
H 1.3274584555 -0.6173854371 1.8933172623