15

C -0.1841153012 1.5758215122 0.0334445014
C 0.1006678124 0.0626800366 0.0163507098
C 0.8681090174 -0.3686740886 -1.1839475177
C 2.1221075389 -0.9040872712 -1.3511454104
C 2.2345926662 -1.0679671936 -2.7656293076
N 1.1601693186 -0.6718062725 -3.3885632897
O 0.2932553283 -0.2277163699 -2.3815099926
C 3.0666963751 -1.2140625002 -0.3465291982
N 3.8386834836 -1.4666584828 0.4789973518
H 0.7466707973 2.1495176820 0.0493874204
H -0.7559310740 1.8752731955 -0.8483435771
H -0.7619154385 1.8360027025 0.9238220029
H 0.6697474746 -0.2315438053 0.9025998722
H -0.8455812300 -0.4907102534 0.0405929881
H 3.0679384115 -1.4629260515 -3.3281929232