17

C -0.0282461897 1.5688060521 -0.0020060862
C -0.0835707680 0.0697951873 0.1537409881
N 1.1407917180 -0.6863761480 -0.1999415654
C 0.6992321367 -0.6504390858 1.1778378772
C 1.5103740257 -0.1643861465 2.3727588853
O 0.9837430696 -1.2494026962 3.1861266675
C 0.2673002320 -1.8221831454 2.0791147851
C -1.1692552971 -1.9685655833 2.3275154898
N -2.3091514949 -2.0782412080 2.4840127362
H 0.9581163129 1.9508802221 0.2747531176
H -0.2202826247 1.8558942114 -1.0405914788
H -0.7817410574 2.0519307857 0.6285621046
H -1.0361359861 -0.3901354617 -0.1072643307
H 0.9161253738 -1.5761786741 -0.6392728085
H 2.5965662600 -0.2365173939 2.2510088416
H 1.2428201506 0.8147469620 2.7838940469
H 0.6812062987 -2.7976765377 1.7872339899