23

C 0.2801752840 1.1675365250 0.4385654597
C 0.2310947963 -0.2823642886 -0.0551900293
C 0.6861919349 -0.4650048780 -1.5067462050
O -0.1271044002 0.2814549891 -2.3998106259
C 2.2282050761 -0.3183591405 -1.7481800927
C 2.3189385306 -1.8409701432 -2.0570642797
C 3.0734657837 -2.6553526218 -1.0225539824
O 2.8994662886 -4.0293287825 -1.3352144385
C 0.7691498547 -1.9394820787 -1.9794144751
H 1.2861804926 1.5928518521 0.3475840663
H -0.4101902381 1.8069399319 -0.1231017495
H -0.0111644723 1.2340656055 1.4908279130
H 0.8558159705 -0.9099416175 0.5919685974
H -0.7929192403 -0.6672217498 0.0280706453
H -0.0338999689 1.2149163510 -2.1816609925
H 2.4462309782 0.3141031979 -2.6113207345
H 2.8211891936 0.0308166363 -0.8960173613
H 2.7280052706 -2.0769041342 -3.0425343319
H 4.1393439069 -2.3719834372 -1.0362771234
H 2.6910423374 -2.4283873580 -0.0127526955
H 3.3449667512 -4.5516169086 -0.6619391632
H 0.3787290316 -2.6900531955 -1.2871325120
H 0.2873621384 -2.0690348747 -2.9497891894