17

C 0.1006936816 1.5748152837 0.2023917570
C 0.0991887027 0.0790243835 0.0974996877
C -1.1477986302 -0.8008146049 0.0002150757
O -0.5073091475 -1.8655876065 0.7755318201
C 0.6327991083 -1.0357857501 0.9588916582
C 1.2621215877 -0.8013369640 -0.4128966123
O 1.0776795350 -1.7373348235 -1.4264147369
C 2.6337446982 -0.2391175185 -0.3853866879
O 3.0278791274 0.5963322181 0.3974716022
H 1.0911819443 1.9432731905 0.4724808299
H -0.1888035581 2.0306523438 -0.7511873398
H -0.6119238753 1.9081952533 0.9648879161
H -1.9992633570 -0.3975770151 0.5561477528
H -1.4581053781 -1.1403320363 -0.9921738354
H 1.1869937670 -1.0851928553 1.8892098256
H 0.6058156330 -2.4828749157 -1.0291547929
H 3.2961829310 -0.6895247629 -1.1542425899