16

C 0.1752724119 1.7427953437 -0.6509972851
N -0.0585474734 0.3708161295 -1.0540481013
C 0.1192340509 -0.5316141482 -0.1882336618
N -0.0898144089 -1.8688450089 -0.5155746474
C 0.0799134506 -2.9108170733 0.3567465442
O 0.4321250090 -2.7716197872 1.5144661324
C -0.2015835970 -4.3046272284 -0.2035343227
O 0.0082863260 -5.2687426687 0.7816595109
H 0.4919609086 1.8512221105 0.3977137966
H 0.9437477253 2.1858738030 -1.2944771689
H -0.7392422435 2.3277155874 -0.8009095454
H 0.4353287988 -0.3891141371 0.8488124934
H -0.3832056554 -2.0493053522 -1.4659448977
H -1.2390422950 -4.3317460230 -0.5755973997
H 0.4531821883 -4.4732920078 -1.0743161964
H 0.2813058039 -4.7671473593 1.5677105989