20

C 0.1510000654 1.5966325555 0.3433888080
C 0.1146330056 0.1359724703 0.0160755484
N -0.9346331575 -0.7577376555 0.5431472864
C 0.5171463701 -1.0720339469 0.8220473552
C 0.9307265302 -1.7790588543 -0.4383231797
C 0.9371027715 -2.8909714112 -1.1628349544
C 0.6983680703 -2.5095536878 -2.6273531219
C 0.0485354855 -1.0837985502 -2.5335354098
C 0.7106703300 -0.5318037429 -1.2638801319
H 1.1229857245 2.0325067408 0.0890563293
H -0.6167304962 2.1448119860 -0.2157678743
H -0.0266433571 1.7692280395 1.4109702676
H -1.2951222723 -0.3129458950 1.3902246648
H 0.8665513092 -1.1563926042 1.8434987354
H 1.0092308126 -3.9166009195 -0.8209607912
H 1.6332088686 -2.4824680753 -3.2067210606
H 0.0442251641 -3.2292022880 -3.1317313268
H 0.2064742280 -0.4845060174 -3.4349168726
H -1.0279682518 -1.1945054807 -2.3695278196
H 1.6654036994 -0.0303775330 -1.4802217423