17

N -0.0999132138 1.2979032480 -0.0012334292
C -0.0556964409 0.0391097208 -0.0504279039
O -1.2001732915 -0.6754056157 0.0543339910
C -1.0799258819 -2.0647406586 0.0344055263
C -0.4923991256 -2.8361688720 -1.1833430116
C -1.4217160462 -3.9628417534 -0.7384824028
C -2.3112687808 -3.0416467410 0.0041353984
N -1.4825912122 -4.0118747310 0.7715559894
C -0.5945899154 -2.8936250437 1.2361261743
H 0.8373105234 1.6829912939 -0.0993586926
H 0.8408703418 -0.5807730035 -0.1770121346
H -0.8323050010 -2.4005980718 -2.1260411602
H 0.5877343782 -3.0150876362 -1.2112779580
H -1.6604257437 -4.8844107546 -1.2516586299
H -3.3812553747 -2.9192409237 0.0981516979
H 0.4714030856 -3.1361276716 1.3166842588
H -0.9762928014 -2.5226228160 2.1900080467