21

O -0.0903495934 1.4565948534 -0.1723282126
C -0.0462521031 0.0959284141 0.2339858020
C -1.4239519514 -0.4866932232 -0.0106979906
C -1.7934164902 -0.7143912666 -1.4884314055
O -1.8474661598 -2.1446637293 -1.2954005191
C -1.5932545247 -2.0243220187 0.1127309556
C -0.5187670898 -2.9349742328 0.7549752439
C -1.4504387366 -3.0974922318 1.9868473634
C -2.6299138566 -2.6050171821 1.1047326613
H 0.7917924245 1.8283017006 -0.0807998364
H 0.7041398092 -0.4677961479 -0.3429134653
H 0.2204708405 0.0046997227 1.2996267060
H -2.1618937029 0.0881013301 0.5547913662
H -2.7597508308 -0.3069288588 -1.8073202186
H -1.0261143474 -0.4233153644 -2.2153357961
H -0.4455756975 -3.8611897966 0.1773598233
H 0.4875072863 -2.5370581209 0.9066127925
H -1.5332709602 -4.0939440993 2.4243650389
H -1.2069768588 -2.3884668294 2.7827991554
H -3.3594108512 -1.9171399345 1.5409409985
H -3.1613536461 -3.4379472449 0.6353236873