21

C -0.1394983301 1.4944869997 0.0927433555
C 0.0378440107 -0.0202609719 -0.0264382272
C -1.3042434987 -0.7791050674 0.0094229915
O -1.0177636932 -2.0471100847 0.5749072306
C -0.1530073762 -1.7844007454 1.6696216952
C 0.8000633861 -0.6549105518 1.1965732652
C 2.1003158414 -1.1414017315 0.6153586740
C 2.1536727139 -1.0083325906 -0.7075050521
C 0.9018500005 -0.3937473619 -1.2744623196
H 0.8316991890 2.0001881340 0.1123558913
H -0.7032378846 1.8960517867 -0.7574587604
H -0.6775775755 1.7636917316 1.0083632065
H -2.0345260181 -0.2336927824 0.6330342337
H -1.7483710091 -0.9406612820 -0.9766510707
H -0.7351390924 -1.4548912421 2.5463580134
H 0.3611894636 -2.7148683684 1.9243390321
H 0.9577222071 0.0661161220 2.0068340155
H 2.8811649409 -1.5725290297 1.2336263608
H 2.9852118882 -1.3142843662 -1.3337080500
H 0.3813526240 -1.1035116082 -1.9305379021
H 1.1170513522 0.4886326901 -1.8912064033