21

C -0.1505663429 1.6074215911 -0.0465392118
C 0.0119192550 0.0946197862 -0.0239193148
O -1.2791308175 -0.4913217218 -0.2681892520
C 1.1637882719 -0.6143569633 -0.8195997982
C 2.4247379467 0.0582493850 -0.2498941036
C 2.0475348187 0.0408793165 1.2789980183
C 0.6717026383 -0.6404182018 1.1861114822
C 1.0063943444 -1.8104959112 0.1903661105
O 0.0420735850 -2.7879872661 -0.0564788093
H 0.7718090615 2.1449309290 0.1780651590
H -0.4873386656 1.9380742491 -1.0376774025
H -0.9115661543 1.9080890253 0.6801718000
H -1.5664834754 -0.2091076932 -1.1439127189
H 1.0998857296 -0.7632115872 -1.8996383634
H 3.3239630136 -0.5262707547 -0.4629041220
H 2.5904023533 1.0671114960 -0.6358658268
H 2.7483304884 -0.5507508907 1.8738550996
H 2.0061937144 1.0404603944 1.7185827373
H 0.1119783020 -0.8126050396 2.1061910842
H 1.9361474283 -2.3455694247 0.4089117532
H -0.7887707454 -2.3113339685 -0.1953561412