23

C 0.2010537763 1.6436321547 -0.0591707909
C 0.0987613519 0.1282843221 0.0324242812
C 0.9589491187 -0.7616138645 -0.9181280600
C 1.2841433737 -1.7207303590 0.2717552071
C 2.6651998651 -1.5633125560 0.9534245225
C 3.9327169583 -1.4833538977 0.1278725858
O 5.0169753005 -1.2848480803 1.0280687539
C 2.1431514567 -0.2860897729 1.6765022668
C 0.6863547979 -0.6407653282 1.2440024075
H 1.2369407948 1.9882999442 0.0264902231
H -0.1846192373 2.0035518595 -1.0198598528
H -0.3781712859 2.1307725914 0.7335573158
H -0.9533745680 -0.1629174951 -0.0715154299
H 0.4222064230 -1.2151999057 -1.7547800706
H 1.8327289647 -0.2444984004 -1.3259221405
H 0.8769589275 -2.7289498665 0.1771948801
H 2.7961241596 -2.3687952425 1.6846992950
H 4.0597113782 -2.4130712065 -0.4523926446
H 3.8696846537 -0.6541411919 -0.5939994375
H 5.8182046529 -1.1626429980 0.5107832041
H 2.3220993861 -0.2488544110 2.7524336107
H 2.5234798446 0.6439228477 1.2439159383
H 0.0080612869 -0.8901842734 2.0621405348