19

O 0.1162902539 1.3839854384 0.0619181704
C 0.0255963168 -0.0055678940 -0.0137929121
C -1.3191210867 -0.7247991956 0.0125820363
C -2.5925863190 0.1143891598 0.0622519110
C -2.9698292443 0.6573753707 -1.3187054770
O -1.8238755520 1.1606893661 -2.0085612544
C -0.9652297951 0.1014533156 -2.4207689336
C -0.4666960188 -0.7191148658 -1.2424554838
O 0.1051280898 -1.9476028019 -1.6028846611
H -0.5000568387 1.7542674781 -0.5870927471
H 0.8367423679 -0.4752727989 0.5336701343
H -1.3314412560 -1.6670331927 0.5500774704
H -3.4234458583 -0.4816193193 0.4516324763
H -2.4462617475 0.9524592371 0.7545234810
H -3.4369095281 -0.1292998388 -1.9303869721
H -3.6702422496 1.4934462456 -1.2433149848
H -1.4892767972 -0.5673405072 -3.1206984039
H -0.1340781606 0.5760355911 -2.9555072411
H 1.0053470933 -1.7800868083 -1.9046695987