20

C -0.2678148873 1.5104415126 -0.1315165329
C 0.0946457645 0.0314516229 0.0262520420
C 0.7588107678 -0.5600881295 -1.2211468813
C 1.1233268213 -2.0374298478 -1.0510827881
N 1.7633288766 -2.5917879732 -2.2325778800
C 1.3559699667 -3.7872341771 -2.7778895145
N 2.1805903044 -4.2419242488 -3.8068360980
O 0.3844361815 -4.4133787494 -2.3961395855
H 0.6221056295 2.1170124670 -0.3338696561
H -0.9649267511 1.6602208402 -0.9633255189
H -0.7402061991 1.9045699068 0.7735723612
H 0.7642871309 -0.0919625976 0.8879092482
H -0.8092660626 -0.5455011026 0.2611783462
H 0.0925367531 -0.4574414842 -2.0867763296
H 1.6641069503 0.0168637534 -1.4597410400
H 1.7700745984 -2.1620040419 -0.1698945378
H 0.2294263182 -2.6421197357 -0.8813782395
H 2.6949057264 -2.2736257462 -2.4469998269
H 2.6178021880 -3.5425699858 -4.3892807990
H 1.7443424227 -4.9841684531 -4.3333480293