16

N -0.2737142013 1.2081708838 0.1278369732
C -0.1263377344 -0.1216339948 -0.1403360979
O 0.7088568919 -0.6121042575 -0.8584828921
O -1.0432535491 -0.8324786220 0.5845276017
C -1.0290354039 -2.2163449114 0.3606141426
C -2.1773822924 -2.9670281203 0.9309092139
C -2.0640111114 -2.8027735062 -0.5876856242
C -2.9730308531 -1.9440913218 -1.2838018879
C -3.7295484514 -1.2252059143 -1.8819477545
H 0.2111207639 1.8363731430 -0.4897441185
H -1.1388655366 1.5227696945 0.5337136123
H -0.0355176346 -2.6472044095 0.3438018272
H -2.0019171971 -3.9497344467 1.3526697732
H -2.9484527881 -2.3820892846 1.4175270044
H -1.7356678451 -3.6763761500 -1.1430774773
H -4.4007303273 -0.5965491122 -2.4121581862