17

C -0.1142421979 1.3731976601 -0.0224006365
O -0.0108468179 -0.0539557806 -0.0445098870
C 0.6099071097 -0.5601070419 -1.1103428151
N 1.1422887971 0.1003131868 -2.1204952449
C 1.6254823706 -0.9218556402 -2.8937810445
N 2.2222643292 -0.6726624404 -4.1150722462
N 1.4322923457 -2.1420867457 -2.4243756967
N 0.7529536666 -1.8882365503 -1.2465426740
C 0.3208843267 -2.9585923428 -0.3839811370
H 0.8784281793 1.8315754068 -0.0199522184
H -0.6675858674 1.7328605015 -0.8940334741
H -0.6485708842 1.6155888181 0.8965318145
H 2.6847322946 0.2239967798 -4.1509870744
H 2.8117012555 -1.4289066890 -4.4321697426
H 1.1794891730 -3.5482447534 -0.0487402095
H -0.1803047317 -2.5227193291 0.4809599390
H -0.3732576890 -3.6185036497 -0.9130443627