20

C -0.0447057034 1.6021156077 -0.0912870578
C 0.0333173508 0.0885117848 0.0131896046
C 0.9707146336 -0.6945003236 -0.9517516135
C 1.4294123694 -1.5914384178 0.2338842242
C 2.9121506450 -1.5686724260 0.5882335170
O 3.1296142238 -0.3258352945 1.2795720220
C 1.9548912125 0.1802192356 1.7720993603
N 1.8857176558 1.1595663260 2.5681758996
C 0.7736517424 -0.5843882339 1.2195179039
H 0.9492090767 2.0574512058 -0.0604222751
H -0.5250843521 1.8947011980 -1.0318092850
H -0.6224830908 2.0277827136 0.7347739415
H -0.9750119660 -0.3361117552 -0.0339769475
H 0.5002127147 -1.1998274291 -1.7980020469
H 1.7865844281 -0.0704743638 -1.3319674900
H 1.0118581451 -2.5985624120 0.2216976900
H 3.1901118177 -2.3945694468 1.2553555235
H 3.5732975748 -1.5849803248 -0.2833408376
H 2.8218937153 1.4950890495 2.8032413738
H 0.1426773565 -0.9460404036 2.0323370031