17

C 0.0590465111 1.4949117805 0.0690589806
C -0.0992192616 0.0093685525 -0.0401268206
C -0.9741169246 -0.8189792203 0.8111418919
N 0.4975855136 -0.9419554259 0.9665891890
C 1.0794493330 -1.7303948149 -0.1760348258
C 0.1671734657 -2.2452634630 -1.2367794511
C 0.5266102264 -0.7710711596 -1.2350662631
C 1.1941039366 -0.1377792597 -2.3184755553
N 1.7326804781 0.3905091751 -3.1978421356
H 1.0792080367 1.8015435536 -0.1820309255
H -0.6245340593 2.0071051011 -0.6173277873
H -0.1600868581 1.8239890810 1.0879895639
H -1.4179261905 -0.3217822405 1.6687890061
H -1.5694936972 -1.6405485330 0.4317314527
H 2.0963343714 -2.0803252687 -0.0575428138
H 0.6841387993 -2.8053905864 -2.0093887553
H -0.8479028806 -2.5804307917 -1.0630662109