20

C 0.0438381641 1.5472391505 -0.1367385607
C -0.0229974002 0.0227158397 0.0188316623
C 0.6800291491 -0.4201956085 1.3295751417
C 2.1124185200 -0.1339819977 1.3199472518
N 3.2441377680 0.0987939587 1.2903436192
C -1.4801615242 -0.5256845376 -0.0019481535
C -2.3181102080 0.0103643651 -1.1727491759
C -1.4265930763 -2.0415742646 -0.0868029171
O -1.5354926000 -2.7941176839 0.8472856461
H 1.0767640033 1.8932728142 -0.0390237578
H -0.3215438610 1.8706387007 -1.1135706407
H -0.5545564499 2.0471611856 0.6338347706
H 0.5219310297 -0.4310399266 -0.8206495637
H 0.2266907871 0.0986923863 2.1831077925
H 0.5397219384 -1.4904575322 1.5091562397
H -1.9615647610 -0.2735234717 0.9507992195
H -3.2994808711 -0.4737434173 -1.1985972487
H -2.4835766842 1.0857241954 -1.0845769646
H -1.8265663699 -0.1789203513 -2.1337143220
H -1.2499761739 -2.4323026650 -1.1175644087