25

C -0.1643310498 1.7423401349 -0.4490946624
C -0.2820110670 0.2144061422 -0.4124016043
C 0.8936548175 -0.5003596652 -1.0985550732
C 2.2210988461 -0.4102535655 -0.3746708772
C 2.9343688495 -1.5272052164 -0.4998911628
C 2.2069945822 -2.5591229654 -1.3250996399
C 0.7325712663 -2.0466400879 -1.3425963653
C -0.0307893484 -2.7248606847 -0.1897848533
C 0.0265514608 -2.3440852722 -2.6701485800
H 0.7336269424 2.0931058840 0.0701786333
H -0.1131047514 2.1100359608 -1.4801658443
H -1.0266895033 2.2158664745 0.0307113428
H -0.3663445784 -0.1189831450 0.6283404853
H -1.2170890763 -0.0784025134 -0.9071170520
H 1.0137316285 -0.0225397516 -2.0861219881
H 2.5477286707 0.4846842319 0.1440130835
H 3.9315158848 -1.6849556186 -0.1032413269
H 2.6253264679 -2.6023242830 -2.3418317912
H 2.2849137770 -3.5748379926 -0.9187712826
H 0.4563743792 -2.5401106709 0.7728253306
H -1.0645805929 -2.3739305978 -0.1204561274
H -0.0614354564 -3.8086164887 -0.3469142720
H -0.0466923052 -3.4232989458 -2.8464349405
H -0.9931706604 -1.9418471714 -2.6779176770
H 0.5659782369 -1.9034505523 -3.5155265352