21

C -0.0231675964 1.5464437563 0.0229718243
C 1.4042037824 2.1470984108 -0.0167842961
C 2.4928550006 1.0614411486 -0.1359613491
O 2.7120521578 0.4680076109 1.1604435072
C 1.9948578495 -0.7155342608 1.4642425420
C 0.4690072423 -0.5956602317 1.3476430004
C -0.0184821663 -0.0044210834 -0.0060303514
C 0.8734324662 -0.4503746429 -1.1460464693
C 2.1014085604 0.0668913827 -1.2073868749
H -0.5621615511 1.8849860185 0.9141329995
H -0.5964043177 1.9003091076 -0.8396949156
H 1.5033138556 2.8305910820 -0.8667336883
H 1.6170626646 2.7256920918 0.8869655938
H 3.4484868922 1.5362624969 -0.3781118152
H 2.3385508579 -1.5444423345 0.8302943324
H 2.2719184136 -0.9588526507 2.4950537004
H 0.0535121664 -1.6015820498 1.4885410768
H 0.0773427937 0.0246027782 2.1626539953
H -1.0457317944 -0.3432742814 -0.1722091113
H 0.5137883076 -1.1745166078 -1.8712635370
H 2.8123514952 -0.2014236913 -1.9818135141