13

C 0.0739726706 1.4699386551 0.1925574925
O 0.9529412560 2.1891399388 -0.7042599942
C 2.0199154040 1.4584092416 -1.0629871666
C 2.0778900262 0.0950482600 -1.0695643787
O 3.2650565537 -0.2635959416 -1.5488541469
N 3.9517831530 0.9690593305 -1.8611271484
N 3.1859459945 1.9365123359 -1.5656447553
C 0.9449747710 -0.7018809574 -0.6788775566
C -0.0556742890 -0.0097246378 -0.1110706156
H 0.4369508755 1.6106234982 1.2250355808
H -0.8907222884 1.9745366145 0.1090233508
H 0.8994907093 -1.7650352920 -0.8775408272
H -0.9766323866 -0.4934723158 0.1955556655