23

C -1.4796680029 -0.1787470901 -0.1725860959
C 0.0396271860 -0.2027255407 0.0394098994
C 0.8386785070 -0.7371946498 -1.1454293593
C 2.1708323197 -1.3751349698 -0.8353725075
C 0.9921855275 -2.2375477484 -1.2229285789
C 0.6983194546 0.0731517329 -2.4508975185
C 1.1963863845 1.5281347744 -2.2909114422
C 1.3713927794 -0.5514853996 -3.5900509546
C 1.9341489519 -1.0317067911 -4.5384763508
H -1.7741917757 0.5240349433 -0.9586495739
H -1.8540979765 -1.1685517401 -0.4541888161
H -1.9935887604 0.1271162859 0.7439833946
H 0.3883782832 0.8020335754 0.3081096610
H 0.2661196700 -0.8349532182 0.9060694408
H 2.9670093113 -1.2717896984 -1.5643150181
H 2.5038990729 -1.3838876199 0.1972605485
H 0.5133452287 -2.8307716116 -0.4506190066
H 1.0177895852 -2.7051887219 -2.1999781226
H -0.3714777932 0.1124798781 -2.6989221565
H 1.1058723815 2.0681709899 -3.2366263162
H 0.6128646423 2.0624337977 -1.5367702461
H 2.2473158613 1.5410511222 -1.9883445926
H 2.4217618517 -1.4617606204 -5.3780424180