20

C -0.0280459802 1.5661263294 -0.0379504064
C -0.0526568851 0.0449404112 0.0754937635
O -0.1221964980 -0.4777999184 1.1829558952
C -0.0005569006 -0.6959070114 -1.1777222727
C 0.0432943966 -2.0536170490 -1.3202897198
C 0.0182891204 -3.1175852913 -0.2728527236
N 0.1750258261 -2.4242186261 -2.6398632179
C -0.1170954932 -1.2734709136 -3.5049529024
C 0.1232168457 -0.0698373986 -2.5634392210
H 0.8590020528 1.9080857264 -0.5833598844
H -0.9018751214 1.9303567719 -0.5907562159
H -0.0305753367 1.9967605149 0.9638698422
H -0.8406184702 -3.7840840320 -0.4224932914
H 0.9216375717 -3.7347898243 -0.3417411988
H -0.0437940776 -2.6618680840 0.7130884446
H -0.1502349002 -3.3383314901 -2.9177646927
H 0.5280668531 -1.2686817617 -4.3873806477
H -1.1620275394 -1.3008101862 -3.8465976543
H -0.5906492519 0.7364219379 -2.7541612600
H 1.1258114684 0.3510571649 -2.7230559263