21

C 0.0802578660 1.5319067860 0.1679895663
C -0.0546657940 0.0176884429 -0.0078458549
O -1.4180065260 -0.3824225553 -0.0633205112
C 0.6888044497 -0.4874461243 -1.2523578326
C 0.7463410055 -2.0135125856 -1.3325303146
O 1.2933627555 -2.4435460464 -2.5711466321
C 0.5409314073 -1.9400778607 -3.6602593955
C 0.5000502154 -0.4176017941 -3.6150949833
O -0.0307502730 0.0299370780 -2.3756924919
H 1.1235074832 1.8173248138 0.3418278519
H -0.2710578985 2.0513958327 -0.7283369578
H -0.5180893373 1.8599243011 1.0215087596
H 0.3660024891 -0.4884300886 0.8701118788
H -1.7259116846 -0.1290148166 -0.9428645542
H 1.7172091532 -0.0906629359 -1.2668658743
H 1.3972603393 -2.4133967158 -0.5492162101
H -0.2670444340 -2.4177558932 -1.1918013083
H 1.0281370452 -2.2901234121 -4.5755530273
H -0.4874731966 -2.3375379296 -3.6336674113
H 1.5169625360 -0.0175663931 -3.7538673207
H -0.1465463714 -0.0137662133 -4.4004090064