17

N 0.1414848837 1.1772675609 -0.7942255254
C 0.1674727423 0.0116557314 -0.3208682757
O -0.8899946120 -0.8133969707 -0.5227147975
C -0.8596608848 -2.0899369369 0.1056138523
C -1.4543591872 -2.0067507696 1.5103489775
O -1.2397465774 -2.8243154288 2.3645550932
C -1.7012802248 -3.0572705946 -0.7171845059
C -2.9392742544 -2.5963956892 -1.3947814123
N -1.7376468122 -2.9538996945 -2.1736828273
H 1.0074153007 1.6656507808 -0.5765221863
H 0.9791844658 -0.4532243150 0.2538820895
H 0.1693320189 -2.4666644680 0.1776732576
H -2.1338126226 -1.1387756143 1.6598076725
H -1.6516996165 -4.0705395367 -0.3273483823
H -3.7773401397 -3.2779592229 -1.5025908408
H -3.1991828959 -1.5454945786 -1.3168045111
H -1.2705613438 -2.0952484335 -2.4595090378