17

C -0.2207029308 1.3666049320 0.0165754472
N -0.0868309990 -0.0792437120 0.0587455863
C 0.6323932988 -0.6234101587 0.9448539312
N 1.3817876324 -0.0792234659 1.9801356480
C 1.8060566063 -1.0153334004 2.9263084603
O 2.4736096061 -0.7550612760 3.8931286255
C 1.2359868152 -2.3638379635 2.4904236590
C 0.7695386462 -2.1404473374 1.0448917698
O -0.4312828202 -2.7945697696 0.7348514474
H 0.5917636134 1.8152213744 -0.5701679611
H -1.1597453888 1.6276060067 -0.4780007807
H -0.2224039608 1.8383010054 1.0111187965
H 1.5724911497 0.9033092544 2.1062541974
H 1.9736651201 -3.1558422353 2.6207762355
H 0.3702129616 -2.5950820178 3.1202683699
H 1.5718308426 -2.4431849837 0.3506546562
H -0.8819867928 -2.2154744528 0.1021945117