20

C -0.3616111448 1.4800882635 0.0858253041
C 0.1891874957 0.0491442021 0.0298592881
C 0.7811598195 -0.3199390218 -1.3078889214
O 1.8163852720 -1.3233625547 -1.2987270664
C 2.1520207839 -0.0039482325 -1.7524080347
C 2.1437530497 0.1525310009 -3.2637644944
N 0.7610271654 -0.0883128621 -3.7406754057
C 0.2323121393 -1.4447047862 -3.5480536259
C -0.0781754326 -0.3812628565 -2.5569412186
H 0.4227649544 2.2133798054 -0.1274831207
H -1.1671039472 1.6361321162 -0.6383994721
H -0.7649893642 1.6977787195 1.0789502734
H 0.9705177814 -0.0841907208 0.7849730037
H -0.6057144427 -0.6660961327 0.2769852268
H 2.8781423329 0.5305770560 -1.1413078644
H 2.4209096061 1.1802602881 -3.5268800450
H 2.8491223850 -0.5227060564 -3.7592264733
H -0.5177049030 -1.7366168468 -4.2787493815
H 0.9073972046 -2.2302863470 -3.2255351358
H -1.0577143453 0.0866136557 -2.5184332961