21

O -0.0486891473 1.4767302011 0.1512281440
C 0.0526571921 0.0611061428 0.1107888517
C -1.3573965517 -0.4969689200 -0.0387174313
C -1.4006632659 -2.0266693035 -0.0676238240
O -0.8316285571 -2.5930214352 1.1135266473
C -2.8217961235 -2.5575929183 -0.3092357634
C -2.8697999380 -4.0912102929 -0.3998090966
C -4.2831339509 -4.6189163966 -0.3854761160
O -4.7655403053 -5.3424168367 -1.2181126042
H 0.8330536844 1.8368221343 0.2829945568
H 0.6723381185 -0.2719455134 -0.7382111780
H 0.5121819419 -0.3399073920 1.0251058883
H -1.9745416095 -0.1257764976 0.7917020710
H -1.8020146551 -0.0973323050 -0.9575557825
H -0.7509838547 -2.3892759683 -0.8753040703
H -1.3185041170 -2.2419238386 1.8685690972
H -3.4698885071 -2.2120909134 0.5100651466
H -3.2223982197 -2.1134305247 -1.2279685241
H -2.3655672870 -4.4584817078 -1.2985114270
H -2.3461215347 -4.4973881166 0.4764633612
H -4.8861537025 -4.2770864777 0.4907325532