21

C 0.1717269798 1.5065944495 -0.1233381419
O 0.4878266948 0.1298360955 -0.1880293177
C 0.6945030727 -0.5274587425 1.0550121870
C 2.0198092106 -0.1362704936 1.6952970943
C -0.5165343819 -0.5685304400 2.0374361810
C -0.3511427061 -2.1184088755 2.1215119575
O -1.4912360148 -2.9173130429 2.0246343248
C 0.5395296979 -2.0663347746 0.8409215757
O -0.2517119745 -2.3716115653 -0.2890317118
H 1.0145854718 2.1045762755 0.2473486041
H -0.0605310037 1.8263798191 -1.1417286573
H -0.7007876492 1.6951999412 0.5165092932
H 2.0142238170 0.9051909206 2.0323534477
H 2.2216327085 -0.7608810019 2.5712689930
H 2.8390021573 -0.2692864116 0.9820159103
H -0.4411000088 0.0064634335 2.9632105919
H -1.4531431307 -0.3203532776 1.5316849179
H 0.2077116867 -2.4251382180 3.0105447131
H -1.6848660472 -2.9557023726 1.0755681284
H 1.4610613461 -2.6600856573 0.8285216784
H -0.2799924565 -1.5583712117 -0.8156233498