22

C -0.1164141710 1.5060383557 -0.0060175980
N 0.1004755999 0.0708039679 0.0981106237
C 1.3841916086 -0.5518006239 -0.1507447418
C 2.5779131653 0.2780410412 0.3667551181
C 1.9163042529 0.2711411308 1.7584939407
C 2.6284694359 0.0610950163 3.0615946962
C 1.8867053619 1.3527911595 2.8020127288
C 0.7523347482 -0.5699727364 1.2278655084
C 0.0305757954 -1.6465787159 1.9836927580
H 0.6989333180 2.1331711598 0.3780565543
H -0.2789132650 1.7582978546 -1.0589830316
H -1.0268967492 1.7635191052 0.5447209862
H 1.4415527271 -1.3366388590 -0.8985734705
H 3.5123290364 -0.2893096869 0.3459040620
H 2.7443119486 1.2487726874 -0.1120804325
H 2.2003852217 -0.6358694793 3.7753351270
H 3.7137295850 0.0835664680 3.0603882776
H 2.4717195223 2.2493314414 2.6212139854
H 0.9616536711 1.5284988995 3.3422411691
H -0.5986089161 -1.2227306062 2.7765606571
H -0.6205342036 -2.2054648765 1.3070798393
H 0.7332914163 -2.3430734432 2.4527022926