21

C -0.3600955013 1.3775185191 -0.0061545436
C -0.0040399215 -0.1122493849 -0.0031615652
C 0.8366628668 -0.5248087897 1.1990478710
C 0.1819147996 -0.4933525947 2.6239897970
C 0.5660708907 -1.9824729209 2.8406419762
O 1.1750376024 -2.3775069590 4.0270324040
C -0.4601497665 -2.9894656047 2.3117909056
O 0.0652748768 -2.8919462236 0.9672085061
C 1.1486292577 -2.0327682513 1.3818608914
H 0.5396995748 2.0025152095 -0.0354646925
H -0.9728417731 1.6362694687 -0.8752600736
H -0.9243713473 1.6555651993 0.8909418281
H -0.9144420442 -0.7207325986 -0.0240146082
H 0.5445073962 -0.3611914143 -0.9210036577
H 1.7750671220 0.0435728999 1.2072311410
H 0.6799883885 0.1849245142 3.3243700108
H -0.8918289910 -0.2842970292 2.6583846414
H 1.7504921968 -1.6686920545 4.3320258323
H -0.3168545762 -3.9938588445 2.7290414075
H -1.5187578235 -2.7099798880 2.3734841104
H 2.1259215223 -2.4191181830 1.0795320279