21

C -0.0173590464 1.5609328187 0.2219608787
C -0.0242297768 0.0365421384 0.0118695731
C 0.8691319373 -0.6639792492 1.0436328798
C -1.4445778767 -0.4823244869 -0.0056942170
C -2.2413982504 -0.9054831807 1.1756974668
C -1.9635091202 -1.9531325816 0.0963236041
C -2.8406571136 -1.6933076217 -1.0839313671
O -3.4683124287 -2.4002767350 -1.8217232955
C -2.4287746170 -0.1988777964 -1.1611568982
H 1.0022953977 1.9555719662 0.1687524910
H -0.6165235780 2.0735062911 -0.5369761093
H -0.4280340041 1.8192102980 1.2044183921
H 0.3984187563 -0.1645106365 -0.9833277757
H 0.5507422773 -0.4423608006 2.0681128598
H 0.8650107536 -1.7505178572 0.9121466623
H 1.9031574091 -0.3201493983 0.9439591852
H -1.6969362694 -1.0903806453 2.0956253184
H -3.2525508374 -0.5366645791 1.3278136338
H -1.4506861816 -2.8765628043 0.3369149511
H -3.2000210895 0.5568567814 -0.9852226448
H -1.9412325115 0.0014473389 -2.1206335586