19

C 0.2527439582 1.5842350433 -0.0901814858
C 0.1589481351 0.1326633390 -0.0303369668
C 0.0823933033 -1.0689560101 0.0157801312
C -0.0027800579 -2.5134902221 0.0835625065
C -0.2275230732 -3.1866126384 1.4664584230
O -1.3432476997 -3.9501866053 0.9645905908
C -1.3373203734 -3.2279654970 -0.2951048363
C -2.5981469039 -2.3874899589 -0.4096499782
O -3.7359761814 -3.2213999083 -0.3052507847
H 1.1630263275 1.9036131467 -0.6093413839
H -0.6018672520 2.0150645127 -0.6233154656
H 0.2715369374 2.0230158558 0.9134948093
H 0.8412882554 -2.9674339366 -0.4431729879
H 0.5809826129 -3.8314405633 1.8260034683
H -0.5217612737 -2.4902083365 2.2598043571
H -1.2719570344 -3.9264570671 -1.1370231056
H -2.5938741415 -1.6035073907 0.3628463893
H -2.6411683415 -1.8927035618 -1.3855798042
H -3.6039811273 -3.7417217914 0.4974372135