18

C -0.0192001336 1.5479626514 0.0633243394
C -0.0055695697 0.0428276774 0.0667287469
C 1.2540934122 -0.7545922883 -0.2571775558
C 0.6561641389 -0.7865179176 1.1373763625
O 1.3153341830 -0.1184525689 2.1689788074
C -0.2916385278 -1.9195366058 1.4910885675
C -1.4327805268 -1.8106269670 0.4645716334
O -2.3249849103 -2.6053281162 0.2760549948
N -1.2466660581 -0.6303937353 -0.2179373529
H 0.9118179158 1.9312978180 0.4860644176
H -0.1237267575 1.9448983595 -0.9526696053
H -0.8507477144 1.9256121692 0.6663426630
H 1.1681536011 -1.6255942365 -0.8993447269
H 2.1754304526 -0.1901191269 -0.3575648724
H 2.1026419753 -0.6238016150 2.3985527171
H 0.1470666248 -2.9201919575 1.4459805469
H -0.6932441492 -1.7735668789 2.4992765325
H -1.7780350463 -0.4585927715 -1.0586256357