19

O -0.1043744152 1.3972199080 0.0865579774
C 0.0171371335 0.0209463327 -0.0168975835
C -1.3071901716 -0.7996610163 0.0286097116
C -0.9133320846 -1.4604246707 -1.3362948457
C 0.4930624488 -0.8492909775 -1.2260609724
O 1.3343193231 -1.6198321787 -0.3356056735
C 0.9925342470 -0.8206410929 0.8311750248
C 0.1813024930 -1.5881089634 1.8681838976
C -1.2520509834 -1.7177924402 1.2741709361
H 0.7716030498 1.7908970136 0.0060583170
H -2.2128804352 -0.1942155287 -0.0183620006
H -0.9526631494 -2.5514369299 -1.3919011860
H -1.4768576901 -1.0331948886 -2.1713270366
H 1.0253936386 -0.5136703536 -2.1194509653
H 1.8824139350 -0.3204563045 1.2354741767
H 0.6426457374 -2.5537806150 2.0938532638
H 0.1639274135 -1.0116154301 2.8002815664
H -2.0006270970 -1.4201783316 2.0139436942
H -1.4801983132 -2.7513055925 0.9983263078