13

O 0.0646880948 -0.0298177702 0.0017219088
C 0.0382088135 1.1671775438 0.0080417633
O -1.1038030392 1.9470780808 0.0299245931
N -0.7831083024 3.3412292504 0.0320676839
C 0.5093705913 3.3462534161 0.0126094225
C 1.5930019040 4.3159802216 0.0008175264
C 2.7463575686 3.6262836104 -0.0203584316
C 2.5099956937 2.1275049956 -0.0241943552
N 1.0609462412 2.0926302575 -0.0020279234
H 1.4612992751 5.3870770264 0.0082187914
H 3.7424019693 4.0478265550 -0.0335428233
H 2.9157703168 1.6383529049 -0.9183502553
H 2.9431392233 1.6294705478 0.8520365394