21

C 0.2145921853 1.5203823739 0.1582018479
C -0.0793392801 0.0325786797 -0.0588046906
O 0.4672128733 -0.6760991121 1.0713221843
C -1.6036355313 -0.2151209941 -0.0258787566
O -2.1263358579 0.0348282651 1.2602304193
C 0.5293306259 -0.4706114819 -1.3751350942
C 2.0673645773 -0.6234115200 -1.3330956752
O 1.9344820580 -2.0453217713 -1.0730111918
C 0.5593352177 -2.0092464652 -1.5311611754
H 1.2893915660 1.6993973274 0.2452372073
H -0.1764044261 2.1216190194 -0.6690839436
H -0.2681964973 1.8512504578 1.0802170495
H 1.0182742657 -1.4060305423 0.7591344777
H -2.1150433938 0.4591756203 -0.7218244165
H -1.8166547949 -1.2483645850 -0.3446910739
H -1.5260744000 -0.4223549205 1.8646241202
H 0.1172862612 0.0925610463 -2.2154113376
H 2.5638370247 -0.4383182664 -2.2940174121
H 2.6102999537 -0.1128650037 -0.5331573227
H -0.0977283318 -2.6117202758 -0.8968911909
H 0.4737789344 -2.3521078718 -2.5703364951