14

O 0.0278201892 1.3481849832 0.5161640046
C 0.0151623975 0.0915125271 -0.1429424252
C -1.3688725004 -0.4658433461 -0.0465307143
C -1.7319328180 -1.7801052570 0.0953945480
O -3.0940558019 -1.9027480719 0.1091449080
C -3.5916471185 -0.6520281303 -0.0161509691
C -2.5927230321 0.2659550904 -0.1170370839
C -0.9559539295 -2.9502982294 0.2221844888
N -0.2824511642 -3.8882510344 0.3246688307
H 0.8920039515 1.7473615365 0.3777180005
H 0.2875714211 0.2017646827 -1.2054806518
H 0.7310232929 -0.6158643523 0.3010552015
H -4.6669886993 -0.5789900336 -0.0131558276
H -2.6932351284 1.3345277352 -0.2115983003