13

C 0.0252063788 1.4416880237 -0.0659101290
N -0.0412328025 0.0067622607 -0.2697570916
C -1.0740028828 -0.6499792322 0.0197418946
O -2.2210388054 -0.0745798272 0.5490889115
C -3.3284891910 -0.8015481232 0.8592830939
O -4.2977228686 -0.2908743278 1.3126754262
O -3.2917191870 -2.1454664745 0.6317460040
N -2.1706567894 -2.8144421302 0.0944917397
C -1.1583765653 -2.0887131032 -0.1777851727
H 0.8712016634 1.6545707466 0.5963457393
H 0.2531315742 1.9139018791 -1.0274941145
H -0.8825671165 1.8867623569 0.3507196838
H -0.2959969080 -2.5996424386 -0.5900813053