12

C -0.0087335824 1.4389609812 -0.0072691569
C -0.0523249456 -0.0460293206 -0.0037572277
N -1.0629559919 -0.8204795709 -0.2740116474
C -0.5670118658 -2.1002495399 -0.1238789176
O -1.3418937372 -3.1819371880 -0.3259841738
C 0.7385768767 -2.0510688370 0.2353644816
O 1.0737735020 -0.7136288022 0.3135013382
H 0.7336298088 1.8088673812 -0.7219964711
H -0.9908295387 1.8234653210 -0.2828585130
H 0.2630534953 1.8267271244 0.9799251185
H -2.2152543900 -2.8519610561 -0.5692145816
H 1.5058940688 -2.7693618730 0.4540177008