15

C 0.1402802529 1.4006332315 -0.1578217889
N -0.0251547321 -0.0342235493 -0.0430808663
C 0.5704147300 -0.6224581751 0.8849683466
O 0.4198438415 -1.9743582915 1.0339814708
C 1.1691951371 -2.5846249747 2.0638127253
C 0.4422189302 -3.9018031398 2.4164604465
O 0.9762577444 -4.8345651675 2.9375995275
C 2.5727643152 -2.8065813207 1.6905735210
N 3.6764081854 -2.9545132219 1.3858263785
H 0.7957118874 1.8390536455 0.6107430235
H 0.5534509009 1.6371439426 -1.1438425522
H -0.8406806970 1.8835793908 -0.0971600070
H 1.2262167757 -0.1575821093 1.6356790048
H 1.1508959280 -1.9709235870 2.9801193049
H -0.6339857497 -3.8636359536 2.1534953349