15

C -0.1018157792 1.5582138889 0.0628481835
C 0.0104379174 0.0524682515 0.0385517287
C 1.3337966945 -0.6541462130 -0.2327399048
C 2.5515415994 0.0896457146 -0.3695766115
N 3.5437739163 0.6763007045 -0.4668076606
C 0.6839931360 -0.6805651730 1.1721327193
O 1.2243482485 0.1106974336 2.1699213849
C 0.1471699451 -1.9548554904 1.6051409285
N -0.2674104702 -2.9772086495 1.9513920311
H 0.7758719451 2.0194646165 0.5163945816
H -0.2094969902 1.9409302725 -0.9561762456
H -0.9826820497 1.8598980385 0.6366203531
H -0.8401257032 -0.4700504300 -0.3875582015
H 1.2984059024 -1.5755907529 -0.8034336644
H 2.0597258478 -0.2717731518 2.4660693477