21

C -0.1254687293 1.5888535428 0.2474911948
C -0.0595453227 0.0847209104 -0.0297611972
C -1.4144787456 -0.6151363533 0.1220402992
C -1.3510313344 -2.1202798346 -0.1549161630
C -2.7062331708 -2.8086519822 -0.0010841679
C -2.6711343429 -4.2928139078 -0.2683476880
O -1.6862671099 -4.9235401509 -0.5781947256
C -3.9956928095 -5.0610380075 -0.1350356174
O -5.0397386850 -4.5460237499 0.1664191053
H 0.8554025842 2.0601161720 0.1314486821
H -0.8180554247 2.0881165994 -0.4393244970
H -0.4722443364 1.7886541591 1.2675325307
H 0.3227987038 -0.0860478455 -1.0447377029
H 0.6659806224 -0.3831470804 0.6486454524
H -1.7989285577 -0.4450492993 1.1376653191
H -2.1422491248 -0.1478176581 -0.5563312404
H -0.9703002490 -2.2987541274 -1.1675631894
H -0.6284113930 -2.5948107582 0.5195423065
H -3.1247294256 -2.6648688731 1.0052374949
H -3.4635660889 -2.3716413502 -0.6673746016
H -3.8835108102 -6.1456421853 -0.3478775545