16

C 0.1045976889 1.5274735162 -0.2404408654
C -0.0339841902 0.0389662256 -0.1110140587
C -1.2041177977 -0.6349030195 0.0826903658
C -2.5795508716 -0.0399301334 0.2054760127
C -1.1734259109 -2.0871487743 0.1888455090
O -2.1056866894 -2.8235444769 0.3583357521
O 0.1048369135 -2.6717016356 0.0770912536
C 1.1763323844 -1.8941787711 -0.1124648916
N 1.1890295445 -0.6223196187 -0.2102176052
H 0.7845119966 1.8964746261 0.5349007014
H 0.5724783870 1.7652425660 -1.2017707763
H -0.8405860915 2.0622864368 -0.1654376231
H -2.5774595988 1.0461534535 0.1219205302
H -3.2399639093 -0.4487287461 -0.5664404220
H -3.0279637472 -0.3158583234 1.1656491439
H 2.0889764316 -2.4795836852 -0.1795400963