20

C -0.1402368378 1.3910477233 0.0149031102
N -0.0807705374 -0.0570078711 -0.1238824667
C -1.1269369073 -0.7260829820 0.0092611999
O -2.4458667292 -0.3034707748 0.2682378170
C -2.9111879330 -1.6611590146 0.0825527837
C -1.4930859655 -2.1661510305 -0.1000866866
C -2.3488279188 -2.5783269714 1.1194568889
C -2.0311956464 -2.1073538935 2.5230671544
C -2.8476615772 -4.0101408683 1.0244094150
H 0.4803084809 1.6950651261 0.8654524417
H 0.2955760882 1.8527985945 -0.8776244740
H -1.1524168798 1.7860229199 0.1597499907
H -3.8099475584 -1.7972285945 -0.5053784558
H -1.0656455071 -2.8851835596 -0.7843025731
H -1.7667131326 -1.0491381164 2.5445678521
H -2.8996456528 -2.2509185490 3.1759010592
H -1.1982454211 -2.6807293708 2.9431853841
H -2.0888817483 -4.7109563747 1.3885901461
H -3.7477422805 -4.1441934493 1.6340061830
H -3.0926663259 -4.2887595433 -0.0056639100