19

C 0.0775922670 1.1386728752 0.2261549301
O -0.2226020978 -0.1847657876 -0.2160578278
C -1.5106298025 -0.5708978784 -0.1221403552
N -1.6438549858 -1.8930706240 -0.4604364615
N -2.4137536757 0.2427964698 0.2866870458
C -3.7705678222 -0.2779365898 0.4578085202
C -4.5790345469 0.6775918039 1.3311306705
C -4.3556891082 -0.3967360435 -0.9417994486
O -4.3197606880 -1.4076635688 -1.6083680726
H 1.1563872520 1.2475875656 0.1059449903
H -0.4521938316 1.8799569725 -0.3774567153
H -0.2088251018 1.2739725595 1.2722307242
H -0.8316850531 -2.3024418150 -0.8957433719
H -2.5341065004 -2.1619074887 -0.8622170372
H -3.7675874341 -1.2868102515 0.8980005578
H -4.0990978183 0.7813245476 2.3074750171
H -4.6216658561 1.6705930513 0.8722844405
H -5.6010317360 0.3134189007 1.4797383654
H -4.7660720706 0.5467366913 -1.3641905020