16

O -0.0352753327 -0.0755888990 0.0730077900
C 0.0045075400 1.1292677458 0.0102904965
C 1.2721160714 1.9220693850 0.0040032397
C 2.7251482423 1.4536506201 0.0692938217
N 2.9117661667 2.9750240377 -0.0065717349
C 1.7487168077 2.9939824521 -1.0459406062
C 1.0143780908 4.2947294566 -0.7977877443
C 0.9773666099 4.3657068622 0.5336227404
C 1.6930402931 3.1008429104 0.9588136226
H -0.9274969356 1.7362789950 -0.0482981491
H 3.0803833854 1.0159352365 1.0049604574
H 3.1303160929 0.9200822095 -0.7934933052
H 2.0161228639 2.6849461833 -2.0567905184
H 0.6559984923 4.9844494061 -1.5478092699
H 0.5800474852 5.1301322588 1.1851362440
H 1.9031190265 2.9017325299 2.0100287856