18

C -0.0144542034 1.4581316599 0.0481597631
C -0.0392885443 -0.0565535727 -0.0206249554
C -1.2122904131 -0.6875872547 -0.6300887387
C -1.2172251773 -2.0203981546 -0.7420498624
C -0.0580833620 -2.7433962973 -0.2260325240
C 0.6983829419 -2.2673437995 0.9759874163
C 0.7116074197 -0.7488482058 1.1360982773
C 1.3377667464 -0.7000420940 -0.2247216447
N 1.3597520614 -2.1937038850 -0.3579471891
H 0.9204536787 1.8241810899 0.4839189239
H -0.1116382162 1.8960193451 -0.9510161100
H -0.8383884208 1.8353931913 0.6636457939
H -2.0211268403 -0.0623292544 -0.9936856320
H -2.0250491411 -2.5756408146 -1.2038649139
H -0.0356778363 -3.8179305817 -0.3778867037
H 1.0449363773 -2.9525570219 1.7428748704
H 0.9509034119 -0.2198112824 2.0489172113
H 2.1691939175 -0.1394889278 -0.6321176524