20

C 0.0721113216 1.6098946971 -0.4259432229
C 0.0865688527 0.1328572750 -0.0870357411
C 1.2432762357 -0.8218312768 -0.2836666602
C 2.6651656159 -0.2870796436 -0.4116921246
C 2.9205009278 0.6075903283 0.8264952742
C 1.8558082465 0.1801321631 1.8853012933
C 1.4026996505 1.2930523413 2.7219179928
N 1.0433317176 2.1728154136 3.3805128432
C 0.7351573545 -0.5213658601 1.1131216900
H 1.0399958211 2.0983459333 -0.3086147673
H -0.2374002058 1.7503335801 -1.4673773647
H -0.6416513465 2.1450531317 0.2083618798
H -0.8694588064 -0.3355636871 -0.3133953118
H 1.0340210067 -1.7784193348 -0.7508161944
H 3.3585484117 -1.1349416017 -0.4172613744
H 2.8343820352 0.2641262121 -1.3428596059
H 3.9312628045 0.4874537401 1.2233078967
H 2.8060765801 1.6652833537 0.5868089212
H 2.3000693035 -0.5618145152 2.5598359006
H 0.1500810931 -1.2406273201 1.6751981657