21

C -0.0224609470 1.5340484080 -0.0746409788
C -0.0848508998 0.0017092565 0.0012863044
C 0.6163727033 -0.4964603344 1.2738700123
O -1.4614043767 -0.4158894444 0.0128212410
C 0.5377731378 -0.5930028866 -1.2777658857
C 0.4157216734 -2.1345002036 -1.4356250416
N -0.9151112391 -2.6596195928 -1.7565196357
C 1.3671385947 -2.5830589153 -2.4659915091
N 2.1205549432 -2.8992688346 -3.2829192219
H 1.0110928060 1.8901694715 -0.1265702314
H -0.5602973274 1.8934220223 -0.9561450691
H -0.4839449089 1.9807560610 0.8136882322
H 0.1726872619 -0.0255323065 2.1586085844
H 0.5166966230 -1.5785370102 1.3910703246
H 1.6812515318 -0.2443251033 1.2661020711
H -1.8692475039 -0.0747427554 0.8159559504
H 0.0692210771 -0.1269147153 -2.1519420918
H 1.5963289184 -0.3116611000 -1.2952783436
H 0.7336172364 -2.6102377669 -0.4994418752
H -1.5633707452 -2.2517566722 -1.0883493205
H -1.1964617489 -2.3175479377 -2.6717931258