20

O -0.1095599422 1.4712054534 0.0048492600
C 0.0101655441 0.0584614240 -0.0749857167
C -1.3881878034 -0.5431940347 0.0074548381
C -1.3735353543 -2.0693843820 -0.1203923636
C -2.8069596222 -2.6030938950 -0.0194181261
C -3.5657426173 -2.0609863750 1.1708853394
N -4.4251725815 -2.7652749887 1.7783571878
O -3.3679416284 -0.7457475653 1.4880594406
C -2.0629587956 -0.1700125597 1.3263480253
H 0.7722224128 1.8537803596 -0.0155306229
H 0.4815739076 -0.2513492045 -1.0209922356
H 0.6326205352 -0.3360198147 0.7456930491
H -1.9825757510 -0.1209954648 -0.8139957835
H -0.9229189438 -2.3807704571 -1.0690230206
H -0.7564635177 -2.4981904944 0.6810289082
H -3.3615032364 -2.2986405347 -0.9175884014
H -2.8442765676 -3.6923931425 0.0261002061
H -4.8576366785 -2.2117829423 2.5219804166
H -1.4304099501 -0.4933481152 2.1676118475
H -2.2057843297 0.9077565137 1.4051380717