20

C 0.0098437915 1.5017254169 0.1460435737
C -0.2086966149 0.0067825371 0.3004084227
O 0.8957117266 -0.5316416346 1.0178730671
C 0.8384518822 -1.9160139121 1.1932778136
C 2.0446728949 -2.4996501769 1.9825874573
C 1.0654819839 -3.2875884073 2.9090398380
C -0.0653981418 -2.4961666374 2.2836652315
N -1.2773912709 -2.2523025717 2.5545032680
O -1.6927512167 -2.9508510791 3.7039457132
H 0.9403747854 1.7023337998 -0.3928032751
H -0.8184461468 1.9509694205 -0.4100898950
H 0.0707471312 1.9833621942 1.1260958309
H -1.1424157243 -0.2021908352 0.8395702480
H -0.2810939149 -0.4802091610 -0.6868737970
H 0.6759812690 -2.4262241318 0.2284709943
H 2.7636375502 -3.0835509376 1.4067854277
H 2.5651218562 -1.6988276458 2.5107725640
H 1.0071169503 -4.3596984684 2.6971033312
H 1.1875615233 -3.1602825441 3.9871916723
H -2.6065157142 -2.6608702255 3.7987326938