19

O -0.6030872317 0.5367946389 0.4907974759
C 0.2267787440 0.8903401582 -0.3063964173
C 1.2624773439 1.9707238193 -0.0616257590
C 1.2468097747 3.0233378804 -1.1526242211
C 2.0052230169 2.7758820060 -2.4362385031
C 2.4711159018 3.8667360200 -1.4900067874
C 1.9455653476 5.2294701721 -1.7898915279
C 0.6150898737 5.2779067491 -1.6923234901
C 0.0298640009 3.9571825002 -1.2402659769
H 0.2828636689 0.4293650046 -1.3202170323
H 1.0817801895 2.4044426650 0.9273043964
H 2.2459650032 1.4800185888 -0.0425203841
H 2.6025737477 1.8704566826 -2.4885445345
H 1.5637869460 3.0815825061 -3.3793448401
H 3.4159911323 3.7404622636 -0.9717154754
H 2.5868348368 6.0523610347 -2.0841513562
H -0.0018343362 6.1405359863 -1.9160298340
H -0.7356466018 3.5825415817 -1.9324250282
H -0.4649742081 4.0520826724 -0.2633779548