16

O 0.0887835887 1.3427416667 0.2025591542
C 0.0598340682 -0.0002543264 -0.0092389345
C 0.0499240899 -0.8043773472 -1.1228418270
C 0.0602886076 -0.8196014538 -2.5774053044
C 0.0348752006 -2.0962272268 -3.0076233776
C 0.0040270138 -3.0851381441 -1.8475486750
C 0.0159419115 -2.1628262363 -0.6562976911
C 0.0062050789 -2.1521501824 0.7076506980
N 0.0332383724 -0.8119936275 1.0936305790
H 0.1023813169 1.7811587695 -0.6530589902
H 0.0846890841 0.0533973346 -3.2191002587
H 0.0355221036 -2.4123214240 -4.0430789754
H -0.8877340773 -3.7255411964 -1.8896286288
H 0.8666278801 -3.7649868597 -1.8765999504
H -0.0168160596 -2.9318481456 1.4508965604
H 0.0343050707 -0.4673240008 2.0377444715