24

C -0.6301728939 1.1576031020 -0.2755131072
C -0.1720109043 -0.2904535207 -0.0850201270
C 0.7529270517 -0.4815071599 1.1232616319
O 0.0269399562 -0.1659007407 2.3161495541
C 0.5436969275 0.9009756559 3.0784070697
C 1.3391674281 -1.9069196522 1.2327476021
C 2.3852661193 -1.9841979272 2.3533225569
C 0.2551583086 -2.9757694993 1.4360979949
H 0.2201358824 1.8292504673 -0.4411910706
H -1.2973672104 1.2497422372 -1.1380471995
H -1.1730342076 1.5089836068 0.6065048559
H -1.0500137043 -0.9335527793 0.0390365767
H 0.3517432182 -0.6394295866 -0.9840749340
H 1.5971735236 0.2191895348 1.0232446154
H 0.5571662327 1.8450139083 2.5137346584
H -0.1129814968 1.0244586606 3.9445503810
H 1.5632648077 0.7017019341 3.4396018049
H 1.8486863010 -2.1042524515 0.2789082318
H 1.9212464331 -1.7965502600 3.3267935936
H 2.8460647313 -2.9765954601 2.3900265770
H 3.1856276481 -1.2496916982 2.2100304781
H -0.4255740383 -3.0433791394 0.5827470187
H 0.7099565037 -3.9622171285 1.5725253420
H -0.3389502177 -2.7484573136 2.3261559349