16

C 0.0369085587 1.4355070436 -0.1269790877
N -0.0360421412 0.0131068112 0.1226792035
C -1.2240365063 -0.6828902445 0.0776415591
N -1.1267543117 -2.0212969527 -0.0029847833
C -2.2491596467 -2.7247049538 -0.0046478513
C -3.4996781585 -2.1007421001 0.0697679343
O -4.6254464462 -2.8538036852 0.0686063491
N -3.6114106073 -0.7838087243 0.1351018780
C -2.4847924022 -0.0681517527 0.1366216024
H 1.0851680070 1.7403456810 -0.1212663252
H -0.4053494654 1.7318805357 -1.0910088897
H -0.4725993700 1.9980525894 0.6641397767
H 0.7542668757 -0.5466085452 -0.1573411713
H -2.1740062023 -3.8062923104 -0.0703517883
H -5.3642233383 -2.2327681243 0.1213458976
H -2.5921947352 1.0101513622 0.1875989860