20

C -0.1102660591 1.4634980215 -0.1197785720
C 0.0219244822 -0.0322683161 0.0279321456
N 1.3825170148 -0.5939104518 -0.1190311761
C 0.7118947971 -0.6800374569 1.1689832946
C 1.1798169244 -0.0665666174 2.4961400405
C 0.2561827228 -1.0760258153 3.2248399662
O -1.0399356427 -0.5714592601 3.5361680300
C 0.1941351174 -1.9274311226 1.9130636706
O -1.0471817977 -2.4731738802 1.5793073585
H 0.7482497773 1.9744851072 0.3239251216
H -0.1578743243 1.7459191436 -1.1767298252
H -1.0242576008 1.8300576823 0.3629379764
H -0.7947114995 -0.6179683997 -0.3924391887
H 1.3481086181 -1.4949300218 -0.5920197963
H 2.2393939388 -0.2508129315 2.6946733096
H 0.9738930631 0.9933454165 2.6778911566
H 0.6345154121 -1.5635978874 4.1252945324
H -1.1604351178 0.2663400153 3.0779046051
H 0.9414146760 -2.7305839282 1.9102620725
H -1.6905375123 -1.9463247274 2.0775759479