20

C -0.0825289415 0.8468207226 -1.1815153508
C -0.2971536457 -0.2434569634 -0.1358973534
O 0.0545388556 -1.5479333190 -0.5840810686
C 1.4474621832 -1.8332675160 -0.6558054948
C 1.9113410121 -2.0629922772 -2.1057626009
O 3.3040961044 -2.2009901261 -2.1186702462
C 1.2886980976 -3.3216535192 -2.7406983927
N -0.0612445759 -3.3903438815 -2.7322319973
O 2.0212248914 -4.1644965716 -3.2378233519
H 0.9750673771 0.9577450067 -1.4403222022
H -0.6395831967 0.6209836331 -2.0958263654
H -0.4331741975 1.8092035002 -0.7941047862
H 0.2587975078 -0.0090392227 0.7834350287
H -1.3571165793 -0.3077244814 0.1305023717
H 2.0423712737 -1.0145068111 -0.2353860927
H 1.6507448460 -2.7331107381 -0.0622812636
H 1.5943388564 -1.1960090227 -2.7087326839
H 3.4565150242 -3.0346695534 -2.6002307269
H -0.5722626838 -2.7659249699 -2.1230802381
H -0.4924150595 -4.2427611392 -3.0527635447