19

C -0.2732253384 -0.8805551342 1.3035577476
C -0.5519517792 -0.3815343368 -0.1175754470
C 0.6652361919 -0.2523575253 -1.0308634230
C 0.4895315502 0.8096481728 -2.1068676767
O 1.6726192944 0.8866311730 -2.8848043674
N 1.9934778887 -0.4052137080 -0.4412308635
C 1.5212249451 -1.4266457760 -1.4054108494
C 1.2781660085 -2.7605955931 -0.9148475266
N 1.0666232014 -3.8437379427 -0.5686077407
H 0.1356661341 -1.8926956596 1.3088911185
H 0.4409787695 -0.2296989625 1.8126976751
H -1.2052443044 -0.8914256881 1.8765432153
H -1.2845396662 -1.0337295305 -0.6093460601
H -1.0251479591 0.6077699589 -0.0567247124
H -0.3867349117 0.5589630195 -2.7240167245
H 0.2823522422 1.7709804864 -1.6107960622
H 1.5705797890 1.5831909915 -3.5386283022
H 2.6539201191 0.1937760772 -0.9341277970
H 1.9493022449 -1.3999919023 -2.4025804837