20

O -0.5884844252 1.1658404671 0.0906036047
C -0.1190425211 -0.1502452549 0.0469850027
C -0.4153489271 -1.0365547774 1.2219287934
C 1.0222786005 -0.6697168144 0.8941943353
C 1.8366452388 -1.6441573586 0.0541294718
C 0.9173397112 -2.0126249339 -1.1410269927
C -0.0243640128 -0.8229293581 -1.3054779593
C -1.1219777100 -0.7559384732 -2.2919526048
N 0.1221507492 0.0198208662 -2.5043834466
H 0.1576228094 1.7555652206 -0.0627794777
H -0.8478788638 -0.5335257794 2.0793160239
H -0.7720258741 -2.0486527377 1.0604887272
H 1.5333714472 -0.0097126865 1.5874296963
H 2.7422367876 -1.1412684286 -0.3039484481
H 2.1575904361 -2.5290175379 0.6135157632
H 1.4748127126 -2.1974134113 -2.0613218999
H 0.3427021260 -2.9179847459 -0.9177356590
H -1.2783628778 -1.5712696032 -2.9936158138
H -2.0204801297 -0.2119944470 -2.0121909899
H -0.0717161868 0.9873059639 -2.2494619165