17

C 0.6702462122 0.4206504813 -0.5996842299
C -0.4143723444 0.2443652368 0.4312691481
O -0.4141682180 0.7585209302 1.5199397201
C -1.5761255329 -0.7309502747 0.0639198132
C -2.1586801489 -0.4231881803 -1.2462328947
N -2.6177965015 -0.1527606834 -2.2714844732
N -1.0238718010 -2.0882256963 0.0590686518
C -0.9746591383 -2.7372882426 1.3735403443
C -1.9717639569 -3.1647977665 0.3564453521
H 1.0014978762 -0.5592856967 -0.9563313337
H 0.2699433153 0.9574236764 -1.4669896042
H 1.5016605307 0.9805703303 -0.1715827368
H -2.3508450538 -0.5814084442 0.8326569328
H -0.0862669703 -3.3321776037 1.5591976913
H -1.3355669697 -2.1730832555 2.2302528961
H -3.0110381049 -2.8932219737 0.5271566390
H -1.8252955239 -4.0760777375 -0.2141552063