17

C 0.0131132963 1.4263318222 0.0333594960
C 0.0148760828 -0.0702021626 -0.0383610321
C -0.9361949416 -0.9875055152 0.7304573298
C 0.5623091439 -1.1025582539 0.9262743523
C 0.5625066556 -2.1139194205 -0.2519809414
O 1.4547386009 -3.1458762651 -0.3725344173
C -1.0184745412 -2.1541973198 -0.2893036674
O -1.0572050327 -1.5798244867 -1.6141744505
C 0.2149968293 -0.9787757450 -1.2902126170
H 0.9750154309 1.8442751537 -0.2838723496
H -0.7664805114 1.8487659027 -0.6108015224
H -0.1753675509 1.7711255625 1.0555317106
H -1.6880795826 -0.6170376909 1.4141697712
H 1.1768277979 -1.0076025972 1.8093426159
H 1.2633421141 -3.6206920382 -1.1906851018
H -1.6836974985 -3.0035996148 -0.1390443752
H 0.7941131571 -0.6395316313 -2.1490898411