17

C -0.0749738769 1.5508396671 0.0628929818
C -0.0148220759 0.0407750273 -0.0725459485
C 0.6125124858 -0.7650351914 -1.1645163937
C 1.6916926287 -0.3037371848 -2.1264288763
C 2.2909479541 1.0569387682 -2.1295651933
N 2.8905186144 -0.0292529119 -1.3199620131
C 2.4484269076 -0.0353115303 0.0553059891
O 3.0513535594 0.4528393497 0.9658836255
N 1.2156819477 -0.7630268717 0.1801318855
H 0.9043203220 2.0016944949 0.2336427142
H -0.5270190752 2.0099145864 -0.8218703387
H -0.6934435402 1.8110060806 0.9257469460
H -0.8749769503 -0.4504775006 0.3791831655
H 0.1158716191 -1.6866514954 -1.4563021615
H 1.8379302025 -0.9393368527 -2.9945008943
H 2.9004534399 1.3614595628 -2.9753938074
H 1.7950242575 1.8714374420 -1.6192895607