16

N 0.5089293484 1.0342100470 -0.4450147965
C -0.0850696011 -0.2269310191 -0.1423282358
C -0.1442151727 -0.6365741629 1.3635481620
C -1.5113014402 -1.3350187560 1.0973828621
C -1.6573420474 -0.5059554876 -0.2156334642
C -2.4253988423 0.7149140109 -0.0580591717
N -2.9767218501 1.7232408197 0.0769658075
C 0.9480945219 -1.4279407250 1.8993509468
N 1.8097530584 -2.0848952348 2.3025796507
H 0.6376035532 1.1663182488 -1.4416003694
H -0.0449763271 1.8103995918 -0.0947472842
H 0.4162390198 -1.0098675274 -0.7159009089
H -0.2844595270 0.2583055939 1.9775678983
H -1.3883794681 -2.3956533918 0.8751374970
H -2.2817474419 -1.2065423958 1.8559967352
H -2.0039884836 -1.0495536118 -1.0965838889