17

C 0.1859853639 1.4471580551 0.1198166287
C -0.0620350581 -0.0498744951 -0.0775901945
C -1.4987315017 -0.4267593825 -0.0013996153
N -2.4896095722 0.3573441174 0.2046536638
O -3.6291739444 -0.4961082976 0.1832019829
C -3.2068480058 -1.7796225311 -0.0431437683
O -1.8322768815 -1.7312981664 -0.1626544436
N -3.8595743420 -2.8368082732 -0.1371521803
C -5.3066540121 -2.8023597565 0.0015237425
H 1.2559448412 1.6578218326 0.0527698566
H -0.3316044532 2.0352052756 -0.6417440571
H -0.1723080782 1.7795329388 1.0969689528
H 0.3185799406 -0.3882384335 -1.0493945387
H 0.4764165407 -0.6415471604 0.6732415352
H -5.7640167793 -3.1836473825 -0.9179635525
H -5.6040301216 -3.4778623106 0.8107572881
H -5.7181148463 -1.8077046200 0.2085184596