19

C -0.0769147876 1.3792934004 0.0043177214
N 0.0092414776 -0.0665629860 0.0007169928
C -1.2664582511 -0.7755298588 0.0096952556
C -1.1260789812 -2.2721610997 0.0062271329
C -2.3889642374 -3.0780667584 0.0156938575
C 0.0936244281 -2.8115891435 -0.0046174596
N 1.2458797188 -2.0365838839 -0.0128991251
C 1.2525298055 -0.6507936854 -0.0103044581
O 2.3025431123 -0.0286248180 -0.0175443742
H 0.9331066905 1.7848516099 -0.0033090857
H -0.6233049629 1.7373560213 -0.8787777210
H -0.6084443971 1.7338857367 0.8978339370
H -1.8504072461 -0.4531661513 0.8916760814
H -1.8643624261 -0.4503211942 -0.8618234617
H -3.0168166705 -2.8559265586 -0.8580502274
H -2.1770386985 -4.1507438949 0.0111751137
H -3.0009604622 -2.8601906417 0.9016878196
H 0.2579273937 -3.8832990176 -0.0075345730
H 2.1595622741 -2.4552259962 -0.0211066963