19

C 0.1494241349 1.6108366545 0.0221598583
C 0.1333937724 0.1082594374 0.0414132605
C 0.5851974887 -0.7816670725 -1.1314583368
C 1.1899569220 -1.8040678399 -0.1120112271
C 0.6746483363 -0.9042802960 1.0139359846
O 1.3353964974 -0.6466330744 2.1986860407
C -0.8469966934 -0.7433647643 0.8765543809
C -1.5615283962 -0.1055505413 2.0017707640
O -2.6959530306 -0.3833082343 2.3175725582
H 1.0941771809 1.9726842543 -0.3981681189
H -0.6641351904 2.0056467523 -0.5967308975
H 0.0484860963 2.0395182015 1.0221341647
H -0.2127657864 -1.1518205095 -1.7814322130
H 1.3510988581 -0.3035270883 -1.7470298040
H 0.8112741328 -2.8303309857 -0.1370852472
H 2.2816410543 -1.8208931716 -0.1467167107
H 1.1715734738 -1.3728208220 2.8119576126
H -1.4316378573 -1.5137298237 0.3771850302
H -0.9813403736 0.6499792334 2.5722079604