23

C 0.0605113277 1.5884273306 -0.1216933065
C -0.0581440934 0.0792969664 -0.0377273171
C -1.3638716290 -0.4797460837 -0.5492588888
O -1.4840694769 -0.1781051368 -1.9333821795
C -2.6925985511 -0.5907037650 -2.4850792405
C -3.9080223433 0.2931117407 -2.3493344659
C -3.1773463292 0.1720775662 -3.6734131197
C 1.1798427989 -0.7583499461 -0.2436708989
C 0.5723747093 -0.6363203651 1.1334005314
H 1.0348049514 1.9294135219 0.2415284580
H -0.0572464745 1.9265012794 -1.1553045273
H -0.7117351081 2.0790466367 0.4834215458
H -1.3991800142 -1.5709037400 -0.3968638381
H -2.2128588116 -0.0435740153 0.0019824225
H -2.8491308406 -1.6708160146 -2.4659814257
H -4.8838751884 -0.1681109497 -2.2435862473
H -3.7792079316 1.2202526135 -1.8019735294
H -2.5711464872 1.0164765383 -3.9808394632
H -3.6454361264 -0.3730683637 -4.4851813562
H 1.0770271687 -1.7029720101 -0.7668435965
H 2.1150752655 -0.2443367413 -0.4378937061
H 1.0903288691 -0.0329729725 1.8714435868
H 0.0652814449 -1.5018314199 1.5479337624