18

C -0.0649143867 1.5402542832 -0.0117213854
C 0.0225359539 0.0270813474 0.0622728102
O -1.3020367111 -0.4936689292 -0.0811047647
C -1.4155177983 -1.8833986118 -0.0006765799
C -1.3143412024 -2.5214233366 1.4210393913
O -2.6934459818 -2.9210877538 1.3827350954
C -2.8977151936 -2.3236177021 0.0915810102
C -0.6252810741 -2.5672399256 -1.0373389610
N 0.0015207486 -3.1000949007 -1.8492008649
H 0.9321141619 1.9784023969 0.0891713183
H -0.4862946871 1.8527050319 -0.9708990359
H -0.6995527008 1.9310841949 0.7883451905
H 0.6657914955 -0.3701352093 -0.7347998833
H 0.4472151163 -0.2934351725 1.0254282264
H -0.6355712381 -3.3738408750 1.5260162161
H -1.1132363960 -1.7781624838 2.2015349408
H -3.5705157530 -1.4599519288 0.1215477424
H -3.2349387432 -3.0470906352 -0.6566637765