21

C -0.1634606774 1.3936915383 -0.0802688496
C -0.0292520343 -0.1092004807 -0.0586534770
C 0.6750309537 -0.8970445760 -1.2317084648
C -0.0731814954 -2.0783774450 -0.6072443444
C 0.5959152930 -2.7962561595 0.3169414533
C 0.2907341860 -2.2389115438 1.7041117778
C -0.3517209317 -0.9010174287 1.2894374420
C -1.1218514710 -1.1432302040 0.0386619923
C -2.5939823514 -1.0789305312 -0.2375742117
H 0.7825173676 1.8837670338 0.1776644207
H -0.4569980041 1.7455489737 -1.0764474761
H -0.9200465161 1.7415376688 0.6304686037
H 0.2929580680 -0.5067257377 -2.1838011447
H 1.7669084768 -0.9666451305 -1.2693357375
H 1.5691037343 -3.2355664448 0.1130017696
H -0.3903422194 -2.8092645356 2.3534507512
H 1.2371778415 -2.1419543903 2.2509017375
H -0.7605922507 -0.2447136582 2.0573202146
H -3.0438230889 -0.2002832229 0.2368669593
H -2.8001142269 -1.0216040836 -1.3125314360
H -3.1111241437 -1.9648825222 0.1485717997