20

C -0.0023161091 1.5223235419 0.0072826632
C -0.1618795111 0.0265946881 -0.2019355591
O 0.9510141006 -0.4439391201 -0.9457128323
C 0.9464646241 -1.8242629195 -1.1501843919
C 0.1551370631 -2.4069881650 -2.3363851202
C 1.1860318345 -1.9124948674 -3.3981011079
C 1.3000010507 -3.3412765476 -3.9154636599
N 1.1448571621 -3.6037408493 -2.4174348301
C 1.9949124758 -2.3325865626 -2.1323464301
H 0.9213927641 1.7364917466 0.5522459351
H 0.0392730180 2.0420617837 -0.9541343559
H -0.8453652047 1.9190884879 0.5806785782
H -0.2136293178 -0.4981499650 0.7661431840
H -1.0992384182 -0.1912158034 -0.7383378633
H 0.8577577728 -2.3870884113 -0.2091199641
H -0.9148613854 -2.5746178951 -2.4723951859
H 1.2083491786 -0.9549722374 -3.9244464763
H 0.4765187361 -3.7452052058 -4.5139888701
H 2.2633814511 -3.6742969609 -4.3161715731
H 3.0781923746 -2.4033907479 -2.0225493704