22

C -0.0442462724 1.5596322822 -0.0603890464
C 0.0453815846 0.0315440166 -0.0268435810
C 0.7161097766 -0.5020344351 1.2432942178
C 0.8046177270 -2.0300745181 1.2827985657
C 1.4986409009 -2.5723971015 2.5367501283
C 1.5652268437 -4.1244887648 2.5932969490
O 2.9775398187 -4.4200548926 2.7285044999
C 3.5953630552 -3.2156147369 2.6958524893
N 2.9164128020 -2.1518179958 2.6012573241
H 0.9509329272 2.0145726974 -0.0059725886
H -0.5227716236 1.9130950906 -0.9792005554
H -0.6266248241 1.9407160311 0.7860386069
H -0.9622961839 -0.3968385479 -0.1158552585
H 0.6020066115 -0.3217679053 -0.9051323593
H 1.7261067657 -0.0867454372 1.3342687628
H 0.1602322093 -0.1485379332 2.1233495909
H -0.2043371102 -2.4628415694 1.2299347627
H 1.3475739015 -2.3956815950 0.4006208549
H 0.9874361142 -2.1718850810 3.4214702136
H 1.0434638435 -4.5599203432 3.4488517419
H 1.2052441870 -4.5993596084 1.6746483543
H 4.6768541657 -3.2699753024 2.7598880874