21

C 0.4696771995 1.4917435638 0.0481781143
C 0.1997795020 0.0144146064 -0.0357126875
C -0.0986727538 -0.6123357144 -1.1955810924
C -0.2425888699 0.0980003654 -2.5228745195
C -0.2766155239 -2.0921077095 -1.2335502129
O -0.5662479074 -2.6760206315 -2.2619786682
C -0.0357820529 -2.8655614873 0.0558308831
C -0.4305654633 -2.0569658474 1.2904037442
C 0.2986063674 -0.7135110634 1.2857092597
H 1.3897093785 1.6777284054 0.6164899114
H 0.5678766058 1.9664791534 -0.9281718381
H -0.3357130905 1.9990370351 0.5962189308
H 0.7200814345 0.4728769076 -2.8899975914
H -0.6288639974 -0.6047727812 -3.2619631303
H -0.9246232655 0.9511050580 -2.4601031758
H -0.5690285908 -3.8164910565 -0.0183237103
H 1.0375640181 -3.1035627213 0.0965170276
H -1.5132297153 -1.8800235769 1.2788126561
H -0.2087057627 -2.6119317762 2.2077786249
H 1.3641612831 -0.8633849422 1.5230696651
H -0.0849040954 -0.0626526074 2.0815252093