19

N 0.9781134929 -1.0794627226 -0.5563325002
C 0.1183277711 -0.7310430882 0.4414728525
O 0.4825234488 -0.4548153457 1.5688509025
C -1.3657226723 -0.6778897817 0.0205282227
C -1.8478907421 -1.9941769416 -0.6113523121
O -1.2650511501 -2.1220327538 -1.9097571050
C -2.2294775941 -0.3037924124 1.2058246960
C -2.5312008034 1.1106119041 1.5054914985
N -3.5922814530 0.2192018761 0.9914451695
H 1.9428506617 -1.2222044733 -0.3034672327
H 0.6141896837 -1.4857803590 -1.4059208952
H -1.4669208255 0.0941214704 -0.7555750096
H -1.5727938135 -2.8432112099 0.0314048606
H -2.9434568974 -1.9719393421 -0.6864660862
H -1.4778061659 -2.9940892177 -2.2550619563
H -2.1580879490 -0.9896787583 2.0455974052
H -2.6582788086 1.4316598815 2.5345828260
H -2.1227265301 1.8690750403 0.8424792511
H -3.7376465633 0.4086329138 0.0012665326