14

C 0.0842928483 1.4063826329 0.0066424092
O 0.0125604622 -0.0093760194 0.0025961599
C -1.2264427154 -0.5560873690 0.0108611495
C -2.4175151506 0.0879248597 0.0226931873
O -3.5737620247 -0.5954400065 0.0298223029
C -3.6085285033 -2.0105641537 0.0254483873
O -4.6853416335 -2.5264145013 0.0315022215
N -2.3899565309 -2.6746984417 0.0131813500
C -1.2932881258 -1.9885199839 0.0066134410
H 1.1442962352 1.6606665176 -0.0012395062
H -0.4001728415 1.8313046890 -0.8826005887
H -0.3854565723 1.8254526199 0.9064955628
H -2.5667324978 1.1597632104 0.0274854450
H -0.3496734199 -2.5360938440 -0.0028867115