12

N 0.0146317024 1.3683222161 0.1677297083
C -0.0096590683 -0.0037158339 0.0622789603
C -1.2041339230 -0.7411441095 0.0343075708
N -1.1917307247 -2.0724957858 -0.0144915464
C -0.0315987960 -2.6744883226 -0.0324853237
F 0.0033437696 -4.0012378468 -0.0794872622
C 1.1583556052 -1.9418196260 -0.0075345953
F 2.3201216317 -2.5751124782 -0.0350221710
N 1.1751907855 -0.6360092115 0.0348574415
H 0.8952223974 1.7956627251 -0.0755690175
H -0.7988269511 1.8691884621 -0.1519643540
H -2.1725564387 -0.2505409189 0.0531578191