23

C 0.1721072147 1.5635285898 -0.1464789817
C 0.0529502317 0.0421951226 -0.0281943221
C 0.7206807764 -0.5125793237 1.2344440936
C 0.6361141434 -2.0452571330 1.3300635851
O 1.1666391340 -2.6589798209 0.1660320293
C 1.3388715855 -2.6017230353 2.5765752717
C 1.0080195359 -1.9770000347 3.9125225435
C 1.8533647429 -3.9768708011 2.5287274422
O 2.7399782807 -2.8567021756 2.3489235712
H 1.2215494335 1.8774431549 -0.1799656018
H -0.3128918533 1.9307602392 -1.0563722944
H -0.2948208001 2.0696620278 0.7062880159
H -1.0074353229 -0.2448465071 -0.0291153956
H 0.4987671286 -0.4416769019 -0.9025865735
H 1.7795470880 -0.2173832213 1.2570064602
H 0.2533845975 -0.0638214386 2.1197701665
H -0.4211837813 -2.3415915108 1.3711866017
H 2.1271173025 -2.6452221041 0.2870403175
H -0.0717137543 -2.0097136585 4.0960329194
H 1.5106690210 -2.5131989747 4.7209835640
H 1.3251134409 -0.9313260587 3.9513757667
H 1.9942550715 -4.5248389459 3.4588865445
H 1.6921383932 -4.5802799087 1.6399205662