21

C -0.0101160131 1.5504928644 0.0493387632
C 0.0081006645 0.0495673832 -0.0341004383
C 0.0006238042 -0.6139347957 -1.1957621890
C -0.0121706313 -2.1369894501 -1.2204482620
C 0.8733953648 -2.6336088907 -0.0555326854
C -0.0324977835 -2.2383516640 1.1308258246
C 0.0202620889 -0.6948546341 1.2912661775
C -1.3933611335 -2.6619980529 0.5926049246
C -1.3877302756 -2.6109171457 -0.7398171259
H 0.8558302476 1.9313298356 0.6068384048
H -0.0027733837 2.0096768804 -0.9431762004
H -0.9016990738 1.9076884633 0.5821062678
H -0.0271166091 -0.0724433235 -2.1381000327
H 0.2787549394 -2.5241789602 -2.1996858174
H 0.9994361863 -3.7197555004 -0.0965653491
H 1.8576137582 -2.1566353024 -0.0359946189
H 0.2370526740 -2.7215603667 2.0743752811
H 0.9254478506 -0.4139530493 1.8495958928
H -0.8220998887 -0.3482311730 1.9084660758
H -2.2478669747 -2.8745332366 1.2250168376
H -2.2326880314 -2.7694401116 -1.3996402306