23

C -0.3333753473 1.5660684004 -0.2021665271
C -0.0179167076 0.0906554850 -0.0714857641
C 1.3394041066 -0.5239964014 -0.3685279342
C 2.5797320512 0.3353897254 -0.5908375958
O 3.3688878444 0.5051872236 0.5788972605
C 2.6281403514 1.0869102780 1.6305694935
C 1.5307199805 0.1440526934 2.1599017179
C 0.6160099940 0.8523389853 3.1661457828
C 0.7737515274 -0.5635630513 1.0393593815
H 0.4771735252 2.2163436763 0.1299449578
H -0.5484623384 1.8210745486 -1.2466136491
H -1.2202344132 1.8245149144 0.3867360749
H -0.8461918577 -0.5274129630 -0.4127445054
H 1.3334038108 -1.4542474667 -0.9277284100
H 3.2370080065 -0.1474510652 -1.3184290370
H 2.3145461298 1.3253305939 -0.9971902203
H 3.3438354624 1.3013477861 2.4309022457
H 2.2011993701 2.0525750603 1.3111872932
H 2.0652446284 -0.6527220715 2.6947511230
H 0.0615763060 1.6711291369 2.6968945753
H -0.1155577545 0.1560965174 3.5885280319
H 1.1942071730 1.2720314330 3.9973854047
H 0.3759687108 -1.5243224890 1.3568905002