21

O -1.1785568670 0.0495233925 1.5174962935
C -0.5641476712 0.0354620495 0.2204444623
C -1.4167216443 -0.7934003600 -0.7304057051
C -1.4274089162 -2.3286331502 -0.5368785337
C -0.7569919312 -2.9566588789 0.7306294930
C -2.1496527436 -3.2082768391 1.3607508082
O -2.5663715448 -2.2454882877 2.3108934330
C -2.7980434939 -2.9341798809 -0.0335255573
O -3.9285920962 -2.1139245455 0.0024279393
H -0.5932260635 0.4958278819 2.1367869231
H -0.4941149715 1.0649755993 -0.1567620239
H 0.4568316513 -0.3667785229 0.2861424727
H -2.4488853817 -0.4297021943 -0.6681960725
H -1.0700736737 -0.5604707648 -1.7428454024
H -1.0867096603 -2.7972061564 -1.4629203500
H -0.2324919833 -3.8874101530 0.4993987623
H -0.0878357535 -2.3304623788 1.3243001326
H -2.3309028115 -4.1909416090 1.8047209438
H -2.0752912833 -1.4207629587 2.1455555713
H -3.0408575842 -3.8532380558 -0.5783877221
H -3.9551389565 -1.7794004972 0.9145042118