18

O -0.3515270304 0.1278024442 0.6459933319
C -0.2080544967 1.2517369949 0.2482365704
C -1.3095163406 2.2051157441 -0.2218211645
O -0.6490875275 3.3501080024 -0.7215247304
C 0.5924533166 3.4719472554 -0.0262954741
C 1.1142778805 2.0362411521 0.1369296269
C 2.0606476878 1.7849874620 1.2823031560
C 2.9917906307 0.6340596687 1.2509244097
N 3.5095937108 2.0099788051 1.1362915822
H -1.9269381708 1.7613951525 -1.0080328502
H -1.9617962947 2.4400632280 0.6367549347
H 1.2399545631 4.1192510540 -0.6203683818
H 0.4447450786 3.9391729017 0.9613431231
H 1.5794012750 1.7140604416 -0.8064168571
H 1.6780360677 2.1017961679 2.2511701075
H 3.2511838598 0.1212231706 2.1718382891
H 2.9834821497 0.0000292485 0.3685411506
H 3.7334396803 2.2132969064 0.1644544658