18

O 0.0727412193 1.4837416271 0.0237396451
C 0.0879045538 0.0772372309 0.0106720050
C 0.2174552392 -0.5698392959 1.4221294532
C -1.3353216610 -0.6635645572 1.4639624117
C -1.3247560768 -0.5724221022 -0.0894936409
C -2.0609015831 -1.8030954335 2.2061619863
O -2.9608958940 -1.1280608164 3.1233040704
C -2.7573819641 0.1895694373 2.9134467115
N -1.9108218396 0.5666126116 2.0490105940
H -0.5787691604 1.7512183488 0.6879679958
H 0.8238779777 -0.2190837057 -0.7396904518
H 0.6741467188 -1.5636890959 1.3784385027
H 0.6999210244 0.0280907488 2.1984063926
H -2.1115663604 0.0233758171 -0.5573123321
H -1.2885163112 -1.5669746308 -0.5453071879
H -2.6616956693 -2.4358609341 1.5463813746
H -1.3881465153 -2.4338008038 2.7946047273
H -3.3635544081 0.8431920438 3.5307581025