19

C -0.0244252915 1.4735819038 0.0076692318
C -0.0461378156 -0.0298063421 0.0146841872
C -0.9007543956 -0.8185920189 0.9407132890
O -1.9171367872 -1.7290035711 0.5675234109
C 0.5791277932 -1.0441803409 1.0164955675
C 1.2826391434 -1.7734116811 -0.1563740692
C 0.4641283994 -2.2664680132 -1.3241386842
O -0.6824384530 -3.0317426859 -1.3769126246
C 0.6490354423 -0.7843738606 -1.1624848325
H 0.9816370515 1.8531745872 -0.2043268984
H -0.6945241653 1.8677662771 -0.7668076216
H -0.3440727842 1.8856839188 0.9696383958
H -1.2311822933 -0.1935302890 1.7723376632
H -1.9696080618 -2.4030976006 1.2559351070
H 1.1149582425 -0.8365959467 1.9365373105
H 2.3331175611 -2.0234255535 -0.0599356005
H 1.1472262533 -2.6235712331 -2.0948447447
H -1.3385241625 -2.6215962563 -0.7876741843
H 1.1595043932 -0.1874134241 -1.9107751831