17

C 0.0912274197 1.5065239359 0.2255516960
N 1.5588632958 1.4209428252 -0.1061876205
C 1.3209767634 0.2080882882 -0.9499965251
C 1.4764978604 -1.2046803574 -0.3587683467
O 0.7225034731 -0.7704533956 0.8094802450
C -0.0146018048 0.0440909883 -0.1984991740
C -0.8147478117 -1.0377810956 -0.9137678579
N -0.2865700213 -1.2991324827 -2.2768842701
C 0.3266960424 -1.9787159503 -1.1084003314
H -0.1233616584 1.7255685248 1.2748110383
H -0.4778138246 2.1810870683 -0.4269187782
H 1.8799910149 2.2006736193 -0.6688502394
H 1.3838081138 0.3515991949 -2.0258215741
H 2.3963429761 -1.7463459727 -0.1316046779
H -1.8104042393 -1.3525740868 -0.6269557469
H -0.9032046191 -1.9617937654 -2.7453572997
H 0.2308546598 -3.0514108983 -0.9897113373