21

C -0.1069708400 1.5161783190 -0.0345409729
C 0.0520086908 0.0020858950 0.0060564752
O 0.7389015482 -0.3874727069 -1.1752761473
C 0.8760380713 -1.7974749734 -1.2702284158
C 1.8760315524 -2.3420218579 -0.2439183779
C 1.6865744439 -1.6836492559 1.1195201887
C 2.2668261156 -0.3003716086 1.3728490375
C 0.7795318624 -0.4919874455 1.2526539950
O 0.0020692368 -0.4528968991 2.4206778501
H 0.8712019927 2.0059359576 -0.0365185526
H -0.6466925257 1.8168419800 -0.9362676601
H -0.6738854538 1.8652293153 0.8345193024
H -0.9471770329 -0.4682268292 0.0181742395
H -0.1086930740 -2.2717581075 -1.1272660138
H 1.2045154324 -2.0073557911 -2.2923726520
H 1.7437538180 -3.4263629132 -0.1615512772
H 2.8992759203 -2.1761648431 -0.6003709564
H 1.6840434789 -2.3437114586 1.9803224365
H 2.6641943553 -0.0947566189 2.3606341895
H 2.7865500759 0.1791274396 0.5491289565
H -0.0075478784 0.4558337323 2.7405726150