20

C 0.0155982837 1.3849924651 -0.0590509861
N 0.0216287278 -0.0584934569 -0.0950156889
C -1.1938009179 -0.8611721234 -0.0663270472
C -0.7036731900 -2.2734527817 -0.4546806339
C 0.7715700669 -2.2871478297 -0.0258155058
C 0.9764531321 -2.7887214540 1.4114628532
O 1.5713818969 -3.0270369867 -0.9266378758
C 1.1579714432 -0.8018134523 -0.1126744869
O 2.3060061659 -0.3998831883 -0.1915753450
H 1.0521048932 1.7224497873 -0.1156317999
H -0.5459394564 1.7962988431 -0.9063630865
H -0.4364825566 1.7593197115 0.8681022347
H -1.6547263015 -0.8414531134 0.9321069893
H -1.9309618073 -0.4647045872 -0.7735902640
H -1.2999196915 -3.0619019800 0.0091738505
H -0.7419473744 -2.4022099320 -1.5392398214
H 0.7736705237 -3.8627621483 1.4498518374
H 2.0100530350 -2.6153394630 1.7243301127
H 0.3131058288 -2.2808396355 2.1205472477
H 2.4232888885 -2.5663251047 -0.9490188640