17

O 0.0932703158 1.3913724609 0.0260342800
C 0.0294321826 -0.0235339171 -0.0941680495
C -1.3800653527 -0.5281062907 -0.0204540826
C -2.0495276295 -1.0436240721 1.2344489595
O -3.2017796942 -0.5837608847 1.8467074206
C -1.9235984702 -1.9903624385 0.0642018369
C -2.8751332088 -1.6507501155 -1.1123532450
O -3.7383138731 -0.5501127540 -0.7457974656
C -2.3871025548 -0.2796909918 -1.1817413933
H -0.3448163049 1.6301932181 0.8503822565
H 0.4793679472 -0.2505162312 -1.0683938047
H 0.6416282550 -0.5290309577 0.6701112820
H -1.3080594043 -1.2757021460 1.9988098868
H -3.8273666894 -0.4097043134 1.1296376916
H -1.3556751036 -2.9120263638 0.1063714816
H -3.2405213116 -2.3282965697 -1.8734509523
H -2.2598417536 0.4111520772 -2.0055541526