25

C -0.7000495492 1.4910304496 -0.5192269482
C -0.2637471217 0.0431366731 -0.3163008719
C 1.0427514862 -0.5061883123 -1.0137987088
C 1.8880700834 0.4028431030 -1.9009482439
C 1.5847882778 -0.9114316624 0.3689197411
C 2.3768811225 -2.1620812464 0.6302206633
C 1.6444545177 0.2966817594 1.2696015799
C 0.3135455298 -0.3769136064 1.0476038067
C -0.5066750250 -0.9496143633 2.1696837306
H 0.0887971269 2.2034837850 -0.2600863809
H -0.9855807688 1.6774452909 -1.5604700444
H -1.5696815295 1.7231366477 0.1059397349
H -1.1039163535 -0.6119029305 -0.5738161967
H 0.7871681251 -1.4070205304 -1.5834066728
H 2.1970623202 1.3170089968 -1.3853436602
H 2.7982311416 -0.1135631909 -2.2263651852
H 1.3397354060 0.6999900120 -2.8017806873
H 3.3946013530 -2.0827641412 0.2277267578
H 2.4679392896 -2.3620892735 1.7033031131
H 1.9079374455 -3.0380158559 0.1659400682
H 2.0874069145 0.1122018421 2.2445689691
H 1.8561078652 1.2906748127 0.8832101849
H -1.1296063747 -0.1803649147 2.6432436296
H -1.1771599668 -1.7407531309 1.8129280638
H 0.1285466843 -1.3785550135 2.9521830372