15

O 0.1397117810 1.4145728763 -0.2215124364
C 0.0313658389 0.0110822346 -0.0460115643
C 0.6437981105 -0.5380395600 1.2506108483
C -0.2353674575 -1.2904977031 1.9371367548
C -1.5142935323 -1.3166657635 1.2130608869
C -1.3685263115 -0.5441790108 0.0785918795
N -2.5447731560 -0.5685750909 -0.5720228842
N -3.4725603090 -1.3143939479 0.0802720893
C -2.8444172544 -1.7772042277 1.1672652452
H -0.2244388871 1.8287257563 0.5693591813
H 0.5474477553 -0.4229211922 -0.9125093015
H 1.6678161484 -0.3201727571 1.5243918887
H -0.0380147360 -1.7977329075 2.8732145379
H -2.8125607655 -0.1005948021 -1.4216595223
H -3.3834637547 -2.4151295043 1.8519544067