23

C 0.0552570721 1.3838011998 0.1328094448
O -0.0516395387 -0.0148825129 0.0029552620
C 0.6083330680 -0.5456120982 -1.1450942729
C 2.1263462205 -0.6625917189 -0.9287952276
C 0.0141092746 -1.8481764506 -1.4465886167
C -0.4514226286 -2.9271057317 -1.7110090916
C -1.0101661980 -4.2445365557 -2.0174947492
C -0.2825675255 -4.8886610023 -3.2144721198
C -0.9748469297 -5.1622474778 -0.7793032729
H 1.0861307587 1.7199791545 0.3188244709
H -0.3202222939 1.9056760991 -0.7618869964
H -0.5596119915 1.6705335264 0.9894988421
H 0.4259872846 0.1287852344 -2.0000329026
H 2.3286686694 -1.3130423392 -0.0743003216
H 2.6023003369 -1.0893980929 -1.8158704216
H 2.5714177554 0.3185706534 -0.7407904030
H -2.0628313102 -4.1062577956 -2.3018173881
H -0.7368700947 -5.8542827474 -3.4585577169
H -0.3351249428 -4.2481342686 -4.0987875604
H 0.7731286931 -5.0557677392 -2.9790447793
H -1.5099913751 -4.7103380855 0.0597170103
H -1.4391746281 -6.1268562133 -1.0087436845
H 0.0574309335 -5.3436600178 -0.4642894650