19

C 0.1227761482 1.5264538759 0.1642475538
C 1.6369412967 1.7205771147 -0.2061913950
C 1.9049206633 2.7714208173 -1.2623303860
C 1.4116468835 2.6948169606 -2.5123415401
C 0.5541992242 1.6077179518 -2.8200847693
C -0.1648252316 0.6461161041 -2.6881992691
C -0.9725415457 -0.4696842419 -2.2191058382
C -0.7939141719 -0.7238757971 -0.7262378240
C -0.3314601343 0.0816254491 0.2349531002
H -0.0530687562 1.9817771736 1.1445130613
H -0.4944732328 2.0791213437 -0.5436151038
H 2.2081149228 1.9556888652 0.6962920437
H 2.0215246526 0.7626745266 -0.5762868169
H 2.5484696597 3.6077227052 -1.0017254321
H 1.6365274235 3.4521092344 -3.2562772500
H -2.0378107975 -0.3066785090 -2.4453537622
H -0.7095240661 -1.3905035615 -2.7580242887
H -1.0944948459 -1.7279134122 -0.4314939263
H -0.2786026625 -0.3616247005 1.2286426126