18

C 0.0373080425 1.5784869245 0.0331785228
C 0.0459736297 0.0493846768 0.0071342719
C 0.7406760309 -0.4756132278 -1.2687610120
C 0.4506314162 -1.9267437248 -1.5976041431
O 0.1714651402 -2.2895152118 -2.7168302685
C 0.5914994397 -2.9838409084 -0.4963663872
O 0.0586961736 -2.6599317026 0.7908334204
C 0.6607537952 -1.6593377510 1.5069312779
N 0.7051049538 -0.4336736157 1.2225216641
H 1.0599251528 1.9678345891 0.0007487001
H -0.5183136537 1.9819157309 -0.8187982601
H -0.4285660586 1.9358115786 0.9550602458
H -0.9932513353 -0.3115362430 0.0027842843
H 0.4490651818 0.1126886905 -2.1423579099
H 1.8257578716 -0.3604860614 -1.1361329659
H 0.0630014445 -3.8788156818 -0.8260160639
H 1.6614612968 -3.2279708721 -0.4044149045
H 1.0803888183 -2.0207623101 2.4467977378