17

N -0.0909266133 1.2654923024 0.2618300148
C -0.0283562163 0.0338864375 -0.0276464796
O 1.1690599484 -0.6114867201 -0.1717922894
C 1.3063135117 -1.7513509694 -0.9943360950
C 1.1756147198 -3.1241387883 -0.4079138380
C 0.1059874305 -2.5866120476 -1.3392352410
C -1.2134802857 -2.1210599101 -0.7902082324
N -1.3194235197 -2.0048091849 0.6641806306
C -1.2702984745 -0.7714246289 -0.1583470471
H 0.8507890273 1.6615403420 0.3038937569
H 2.0633647187 -1.5751082519 -1.7518212508
H 1.8398866988 -3.9000586551 -0.7709060943
H 0.9008323514 -3.1803457432 0.6383940646
H 0.0605585308 -2.9791704781 -2.3493903740
H -2.0909154534 -2.4434252826 -1.3437275834
H -2.2746926184 -2.1679132079 0.9694014367
H -2.1652141661 -0.1667801538 -0.2446660784