14

C 0.0039620005 1.3761226331 0.0256851964
C 1.4345406905 1.9226569979 0.0443583263
O 2.1496142519 1.5195290071 1.2221535639
C 1.9160773526 0.2117669590 1.4630321184
N 2.6150093374 -0.5613079731 2.2771370990
N 1.9833700567 -1.7339921755 2.1583999888
N 0.9325218052 -1.7825941748 1.3328141203
C 0.8783881039 -0.5403964409 0.8823232896
O -0.0238139830 -0.0590263547 0.0007645737
H -0.5426381356 1.7349103309 0.9075418020
H -0.5137070844 1.7096508408 -0.8760213986
H 1.9762052126 1.5769966617 -0.8457483587
H 1.4193696687 3.0144483576 0.0521517397
H 2.2875967430 -2.5457479689 2.6662458493