14

C 0.1322049013 1.5858509270 0.2284599622
C 0.0171326154 0.0716213930 0.0756387150
O 0.7404257578 -0.5203296621 1.1417823474
C -1.4565599975 -0.3488533009 0.2253727619
O -2.1649304824 -0.7933962920 -0.6341828654
C 0.6131954346 -0.3971265398 -1.2609254319
F 1.8918169743 -0.0159111336 -1.3752412363
F 0.5915034019 -1.7417486970 -1.3234160488
F -0.0532366877 0.0864920008 -2.3077504537
H 1.1873110079 1.8659699823 0.2530153903
H -0.3607231358 2.0961097315 -0.6019132527
H -0.3325040524 1.8964651358 1.1676350697
H 0.7810045272 -1.4723528411 0.9859865475
H -1.8001415647 -0.2131094137 1.2757371548