18

O -0.0159789675 1.4877813392 0.5693234339
C 0.0521910725 0.1168857398 0.2978316183
C -0.6493592994 -0.8577797784 1.2063780958
C -1.2202585954 -0.5425467918 -0.1629160708
C -2.4869254527 0.2616304615 -0.2729055167
C -2.9486114363 0.7241342173 -1.6750647620
O -4.1926753164 -0.0294968157 -1.5218874011
C -3.8022066653 -0.5030261603 -0.2851030493
N -4.3719797118 -1.2952479837 0.5015129002
H 0.4987590344 1.6600244544 1.3643170578
H 0.9784255309 -0.2055569330 -0.1772798768
H -0.2104619872 -1.8344037710 1.3758540272
H -1.1768391744 -0.4429972783 2.0588087484
H -1.1097662911 -1.3158450623 -0.9183419947
H -2.4819566484 1.0721094825 0.4578597228
H -3.1469949025 1.7906170461 -1.8007918664
H -2.3642651314 0.3428950528 -2.5169418040
H -5.2667486182 -1.6130122791 0.1243192475