13

C -0.1328639403 1.4200043037 0.0041385456
N -0.1252623517 -0.0255892140 -0.0694758429
C 0.5658270659 -0.6435413093 -0.9340473680
N 1.3936863099 0.0346369841 -1.9061905936
N 2.0866697315 -0.4656140417 -2.7677876983
O 2.1234738524 -1.9515377494 -2.8788509610
C 1.3779217053 -2.6531259943 -2.0073399573
C 0.6185633028 -2.0794301514 -1.0620276901
F -0.0965286095 -2.8217770143 -0.2291967865
H 0.4987747656 1.9224924297 -0.7355241910
H -1.1665027592 1.7666856359 -0.1096234187
H 0.1845658613 1.7167360759 1.0104525963
H 1.4486339459 -3.7273461149 -2.1410719645