12

N -0.1286265876 1.2520007075 -0.2774455467
C -0.0541275622 -0.0041324065 -0.0723621699
N 1.1343158892 -0.7648339660 -0.1438526051
N 1.4631450674 -1.9217543143 0.5842053924
N 0.6638076181 -2.8657810202 0.6402786270
C -0.5450962968 -2.8238394635 -0.1696066497
O -0.6691776059 -3.5890332582 -1.0793199647
N -1.5372960141 -1.9506436446 0.2791777696
C -1.3093267949 -0.7001162727 0.3065786906
H 0.7684206151 1.6748284693 -0.5231038306
H 1.9670139868 -0.1911220226 -0.1948261878
H -2.0989636550 -0.0216096782 0.6252035148