14

O -0.1596348031 1.3894509386 -0.1522585962
C -0.0861313762 0.0168660943 -0.0168686017
C -0.4207044446 -0.6753045841 1.2675289865
N -1.1675611546 0.1042707264 2.2182766433
C -2.2737147884 0.3954811748 1.6518561803
O -2.5298962516 -0.0924219800 0.4205067868
C -1.3765894574 -0.8060087191 0.0320938820
C -1.5917110796 -2.0047541694 -0.7947771333
O -2.6658541887 -2.4367030603 -1.1263846348
H -0.1251645216 1.7809393395 0.7298029963
H 0.7044433641 -0.4456948440 -0.6043265952
H 0.1985162825 -1.4770353478 1.6526543443
H -3.0618310796 1.0060491087 2.0742359149
H -0.6368336711 -2.4896729677 -1.1018329432