20

C -0.0229705777 1.1539065434 0.4690397626
O -0.1667041621 0.0756900817 -0.4430719281
C -1.3569195281 -0.6105218075 -0.2929885337
C -1.4524142594 -1.9654331041 -0.9086271383
C -0.3164973209 -2.5630234785 -1.7092221659
C -1.3814286081 -1.8521924976 0.6278821485
C -0.1228082839 -2.2629408953 1.3766551095
C -2.6140116007 -2.0868141100 1.3309235058
N -3.6107313886 -2.2624629650 1.8939492384
H 0.9251398448 1.6424463762 0.2363690836
H -0.8401583309 1.8798598553 0.3551965512
H -0.0066690801 0.8047047094 1.5097301853
H -2.2467773682 0.0194385915 -0.2802989205
H -2.4409506035 -2.2189554703 -1.2799029471
H 0.6536917620 -2.1766840174 -1.3954609548
H -0.3057774644 -3.6538114685 -1.6211570908
H -0.4411108912 -2.3146309261 -2.7680224558
H 0.7594075037 -1.8268747155 0.9064063431
H -0.1644448716 -1.9163854168 2.4129814960
H -0.0095223012 -3.3510041449 1.3915095408