21

C -0.0766083015 0.8203419938 -2.1175936949
C 0.0266582873 -0.3139886034 -1.1179345526
C 1.3283336849 -0.6479170480 -0.3696753965
C 2.6120096772 0.1316142912 -0.5652603489
C 0.1630742719 -0.0690593785 0.3492476969
C 0.0169860738 1.1609809221 1.2617305162
C -1.4721997954 0.7923903457 1.4839075591
C -0.6070472429 -0.4869199736 1.6094950378
O 0.3653614198 0.2950191761 2.4179767432
H 0.4905506613 1.6998276866 -1.8011174532
H 0.3003092595 0.5182587322 -3.1010134332
H -1.1187689133 1.1336444771 -2.2457539675
H -0.5618448271 -1.1880359353 -1.3919210103
H 1.4872230760 -1.7134041901 -0.2139358283
H 2.4273687992 1.2010627896 -0.6985512725
H 3.2620435866 0.0205067169 0.3087923436
H 3.1643065362 -0.2222544544 -1.4428499063
H 0.4901350058 2.1415779257 1.2081193321
H -1.8970867462 1.1525407814 2.4218599044
H -2.1559325500 0.8711386262 0.6351534431
H -0.8775381832 -1.4811233913 1.9668168776