20

C 0.2679601824 1.4500863804 -0.3760545248
C -0.0924393292 0.0991115177 0.1955394889
N 0.9635557652 -0.9282653216 0.2271578383
C 0.4056444452 -0.4353605316 1.4929926090
C 1.3519698886 0.3198345276 2.4165801000
C 2.0609512002 -0.5687245090 3.3329804814
C 2.6233895752 -1.3327520502 4.0759674423
C 3.3134931241 -2.2113697031 5.0188013138
O 2.7724928146 -2.1729082164 6.3339609284
H 1.2921436923 1.7323827076 -0.1231317304
H 0.1911746320 1.4340898681 -1.4684661736
H -0.4102724018 2.2256679013 -0.0035451787
H -1.0924502972 -0.2386953145 -0.0771358600
H 0.5927053641 -1.8460769206 -0.0005272035
H -0.2744541238 -1.0956146157 2.0288176854
H 2.0739601285 0.8823148885 1.8160088686
H 0.7799799625 1.0569459990 2.9967661825
H 3.2288542470 -3.2548578521 4.6950058840
H 4.3885964241 -1.9692300795 5.0232337079
H 2.7170522760 -1.2468908059 6.5916581406