14

O 0.0316497832 -0.0192800330 -0.1244788178
C -0.0202282297 1.1819820079 -0.0394106859
C -1.2339888201 2.0449533802 0.0249814518
C -0.8835466264 3.3374653190 0.0097029486
C 0.6026100110 3.5150247628 -0.0262494628
C 1.3567162878 3.0190214411 1.2090605321
C 0.6929294539 2.7625859647 2.4591446127
N 0.1835466668 2.5750032493 3.4801092856
C 1.1743216333 2.1299056592 -0.0246465075
H -2.2320952964 1.6362343576 0.1017389177
H -1.5606728889 4.1809729471 0.0681285066
H 1.0445964008 4.3357803697 -0.5779520261
H 2.3625127659 3.4106511610 1.3317425388
H 2.0692178089 1.8429808431 -0.5607500837