18

N -0.0075510851 1.2662489781 -0.1649212044
C 0.0358471909 -0.0827691880 -0.0411277556
O 1.0749698636 -0.7135006398 0.0630000733
C -1.3121304778 -0.8213992696 0.0153375539
O -1.0694520129 -2.1941497506 -0.1437484169
C -2.0225049681 -0.5657353775 1.3498980289
C -2.8200376817 0.7445971344 1.5396306259
O -4.0490406122 0.0271362818 1.7352668495
C -3.3993613992 -1.2455199794 1.5101264954
H 0.8618347419 1.7712014932 -0.2300338370
H -0.8631261491 1.7510050404 -0.3730590142
H -1.9571817247 -0.4703674195 -0.8060965807
H -0.1056260377 -2.2856933463 -0.0449228074
H -1.3325233115 -0.7851023203 2.1682197666
H -2.5497542715 1.3558104638 2.4086881206
H -2.8730586336 1.4005207995 0.6560196063
H -3.7731245800 -1.7487224258 0.6104261632
H -3.5085656113 -1.9184338646 2.3673220824