18

O 0.0273210077 0.5345416398 1.2740729084
C -0.1134612819 0.3226281920 -0.1273104486
C -1.3912138188 -0.4302647728 -0.4641272823
C -1.5535397567 -0.9560707215 -1.9277613886
C -1.8585228084 -2.3585769536 -1.3485541253
O -2.2243248322 -3.3938159092 -1.8225609912
C -1.5117424913 -1.8840849755 0.0448990483
C -0.6319469278 -2.5912427028 1.0252233835
N -2.0595835430 -2.4062490215 1.2961874371
H -0.6282306935 1.1857440770 1.5437142627
H -0.0683209978 1.2728675604 -0.6804354506
H 0.7573743173 -0.2709020440 -0.4262001932
H -2.2619209080 0.1657042282 -0.1623660442
H -2.3515256361 -0.5154102350 -2.5291432000
H -0.6259960298 -0.9405830812 -2.5102853818
H -0.3383910548 -3.6154051698 0.8135750963
H 0.0864380487 -1.9837914994 1.5661644259
H -2.1795726838 -1.6290489410 1.9438802535