17

C 0.0444023661 1.2759197138 -0.3038115311
O -0.0590783710 -0.1275076177 -0.1360438326
C -1.3543920114 -0.5576039500 0.1868922808
O -2.2717579944 -0.3968499754 -0.8857858480
C -2.5520654943 -1.6540126230 -1.4841264390
C -1.9757089189 -2.6793900094 -0.5277128499
C -1.3164232762 -2.0382819773 0.4420796573
C -2.1362297448 -4.0686784159 -0.7225604531
C -2.3061856100 -5.2425030413 -0.9332920189
H 1.0961126936 1.4976126272 -0.4966665939
H -0.5618644180 1.6243736886 -1.1483133819
H -0.2737287958 1.8121715042 0.6033814803
H -1.7348173607 0.0460747452 1.0276131182
H -3.6375512664 -1.7582344451 -1.6014669244
H -2.0943636856 -1.7388561648 -2.4804321570
H -0.7719811621 -2.4820044121 1.2629606807
H -2.4439211001 -6.2813365272 -1.1055064175