13

C -0.0321532778 1.5116723177 -0.0220361464
C -0.0033032902 0.0122763996 -0.0203757198
N -0.0265801058 -0.6517532912 -1.1775733643
C 0.0005081962 -1.9668361721 -1.1221234765
F -0.0231147349 -2.6171423612 -2.2782733177
C 0.0514458440 -2.6857635724 0.0655686311
N 0.0751641208 -2.0344785449 1.2307333780
C 0.0479591693 -0.7269373071 1.1706165929
F 0.0715684074 -0.0644623558 2.3240154836
H 0.8540344313 1.9199078208 0.4751630888
H -0.0693708635 1.8760803290 -1.0488418467
H -0.9027664101 1.8861164267 0.5266578992
H 0.0726199734 -3.7699996492 0.0752141376