19

O 0.0054833911 1.3940726259 0.0946737416
C -0.0037008288 0.0031895436 -0.0060183210
C -1.3292041921 -0.6750809355 0.0450884306
C -2.6079629770 0.1615720188 0.1182967360
C -3.1980897804 0.4827103629 -1.2620597411
C -2.1324759849 1.0781718150 -2.1988333972
C -1.0042788527 0.0881873861 -2.4419611512
O -0.5292830850 -0.0962116428 -3.5433290741
C -0.5275523108 -0.6966811492 -1.2636082768
H 0.7591737602 1.7289714039 -0.4030255039
H 0.8374532931 -0.4898607124 0.4795120737
H -1.3516651369 -1.6165148786 0.5841952619
H -3.3463454506 -0.3787296661 0.7180067394
H -2.3956069976 1.0976946789 0.6452512543
H -3.6042215483 -0.4316738161 -1.7131233688
H -4.0361526044 1.1801866077 -1.1581574073
H -2.5422772825 1.3597851861 -3.1719441932
H -1.7057239519 1.9750048055 -1.7326374602
H -0.0053055807 -1.6048340836 -1.5443221029