23

C 0.1294962639 1.7150569966 0.1429519344
C -0.0663559781 0.2108652752 0.1114664148
C -1.5006185037 -0.2696367129 0.3040836895
C -2.4725123512 0.1810528942 -0.7700271909
C -2.6495431918 -0.6127889644 -2.0406204210
C -3.7494850907 -0.5843859358 -1.0072716317
C 0.8410537162 -0.5993909005 -0.8019282728
C 1.0198041951 -0.6534191499 0.6966200343
O 2.1158022972 -0.0186361415 1.2920045313
H 1.1907048704 1.9689660799 0.1618247908
H -0.3254862024 2.1933936868 -0.7306470933
H -0.3295689489 2.1481203773 1.0396994572
H -1.5133580092 -1.3665377303 0.3510505650
H -1.8582052834 0.0814858980 1.2830035645
H -2.5542275662 1.2589684024 -0.8793721077
H -2.8006390956 -0.0777559943 -2.9717689970
H -2.0843953240 -1.5326113178 -2.1487431105
H -3.9164289957 -1.4833524408 -0.4220469036
H -4.6538238667 -0.0285555753 -1.2294333840
H 0.4408127083 -1.4682899093 -1.3133991105
H 1.5929560887 -0.0522403429 -1.3619615553
H 0.6999687543 -1.5634718617 1.2065531849
H 2.9088834234 -0.5037237532 1.0422797318