22

C -0.2474573011 1.5641280524 -0.0293692591
C 0.0677085307 0.0657293668 0.0498626524
C 0.8120112247 -0.4137457248 -1.2213449860
C 0.0353676340 -0.2374084970 -2.4464805927
N -0.5950818300 -0.0942187570 -3.4046685904
C 0.9041239732 -0.3045972730 1.2901607135
C 0.2220763519 -0.0217958050 2.6125908046
C -0.7955644367 -0.9900975199 3.1652945876
C 0.5525164083 -0.8496311306 3.8284838023
H 0.6743379155 2.1586261518 -0.0377540250
H -0.8093746597 1.8012736260 -0.9372902423
H -0.8469819903 1.8868499601 0.8253944013
H -0.8793975916 -0.4856901447 0.1030447884
H 1.7578103412 0.1321218534 -1.3293451347
H 1.0703447035 -1.4750885326 -1.1304122142
H 1.1497584929 -1.3742586484 1.2453727479
H 1.8638489566 0.2310385292 1.2484312263
H 0.0252116252 1.0283114716 2.8080543122
H -1.6666562437 -0.5943275662 3.6752980889
H -0.9885518317 -1.8983239329 2.6028338418
H 1.2619084142 -1.6625352302 3.7105294921
H 0.6047739628 -0.3540194689 4.7914773451