22

C -0.0951941621 1.4971455566 0.0932174792
C 0.0897197059 0.0027985508 -0.0008165127
N -0.4987851779 -0.8455302136 1.0624843814
C 0.9866959910 -0.7693760751 0.9045506729
C 1.5123199253 -1.9188971120 0.1152956813
C 0.9871051326 -1.9134664482 -1.1099011413
C 0.0948062094 -0.7081270730 -1.3822399487
C -1.3222073091 -1.1279899232 -1.8118716097
C 0.7383431769 0.1643446300 -2.4782361481
H 0.6430020603 2.0427052218 -0.5017878561
H -1.0905240400 1.7965167694 -0.2569582661
H 0.0044906752 1.8317178468 1.1313791588
H -0.7751775482 -0.2347447011 1.8311475069
H 1.5677859521 -0.3017156530 1.6932933882
H 2.1805011597 -2.6694190073 0.5205536790
H 1.1483748790 -2.6724686061 -1.8691118479
H -1.7967329190 -1.7197243801 -1.0270585426
H -1.9453941629 -0.2477550745 -2.0089661248
H -1.2913400912 -1.7213150401 -2.7322001461
H 0.8574562532 -0.4167245695 -3.3989354032
H 0.1183533081 1.0351877664 -2.7166596141
H 1.7303315615 0.5164208351 -2.1781088164