20

C 0.1402098705 1.2663984084 0.2073454327
O -0.3059748444 0.0065702522 -0.2391834462
C 0.5013683101 -0.5433228279 -1.2445806138
C 1.8765769052 -1.1639708359 -0.8552449230
C 1.5387552065 -2.3523654474 -1.7985221854
C 1.9084970605 -3.7480911601 -1.3443385854
O 1.3927886281 -4.6688816400 -2.2954756335
C 0.0450733621 -1.9267826073 -1.7427240326
H 1.1438888504 1.2145494988 0.6561968384
H 0.1695047617 2.0018528573 -0.6125806259
H -0.5652969494 1.6130939045 0.9664259156
H 0.6183931166 0.1725308578 -2.0742521302
H 2.7871682025 -0.5929115677 -1.0499808606
H 1.8599894041 -1.4727492470 0.1957198748
H 1.9501434789 -2.1874850454 -2.7994911733
H 3.0050058332 -3.8334053082 -1.2579179045
H 1.4859619022 -3.9307891258 -0.3421641530
H 1.5914157625 -5.5594830632 -1.9922405865
H -0.4857210435 -2.4508521155 -0.9419237430
H -0.5469542477 -1.9765342275 -2.6576788046