19

C -0.2561811466 1.5125558426 0.2134572719
C 0.0426312151 0.0474999150 0.0240426921
C 1.0661458612 -0.4108260703 -1.0551111499
C 1.8159690682 -1.2694303581 0.0074763746
C 0.7776462138 -0.8857053477 1.0922272573
O 1.2845676258 -0.5030911994 2.3239457363
C -0.4850354706 -1.7302660260 1.0612494751
N -0.7879674501 -2.7754676082 1.7099662169
N -1.1085242014 -0.8691083217 0.1617565891
H 0.6732015693 2.0846103252 0.2953027850
H -0.8235256477 1.9158905968 -0.6340631605
H -0.8414529465 1.6734064550 1.1231921105
H 0.6217484949 -0.9637096836 -1.8863437081
H 1.6695888552 0.4026124830 -1.4650129672
H 1.9391128842 -2.3366843218 -0.1880260026
H 2.7872324453 -0.8441479140 0.2702834503
H 0.7203622487 -0.8881557376 3.0045538111
H -1.7279144362 -3.1081524032 1.4875724659
H -1.7463962425 -1.1450050659 -0.5742572879