23

C 0.0319204714 1.5831287938 -0.1022575976
C 0.0929062081 0.0581321662 -0.0376093517
C 0.7935694919 -0.6064847676 -1.2523994389
C 1.2007540123 -1.9932193608 -0.7627645530
C 2.5118314719 -2.0898642926 -0.0047154607
C 1.2302459768 -1.9561674183 0.7544229034
O 0.8989642708 -3.0642470537 1.5413835988
C 0.7661782446 -0.5637861587 1.2290068707
C 1.8718852943 0.2779376932 1.8795473887
H 1.0325284140 2.0273489120 -0.1210216478
H -0.4895990806 1.9101194059 -1.0084088271
H -0.5037982639 2.0036154648 0.7557522262
H -0.9392667206 -0.3180799523 -0.0405007947
H 0.1245152112 -0.6536479411 -2.1170338968
H 1.6677313468 -0.0206645577 -1.5666316521
H 0.8553443570 -2.8771225791 -1.2874446891
H 2.9738332300 -3.0698817989 0.0452304422
H 3.2108292298 -1.2611536232 -0.0553672908
H -0.0620418896 -3.1349623166 1.5638064033
H -0.0005882171 -0.7307492335 1.9955862982
H 2.6552343986 0.5582002645 1.1682792686
H 1.4701212191 1.2028722802 2.3046314891
H 2.3469736733 -0.2847678565 2.6891793812