16

O -0.0237238725 1.4264331847 0.1941144417
C -0.0579174784 0.0345432481 0.0642244941
C -1.4310483913 -0.6550388290 0.0330468366
C -2.2124080394 -0.2307858910 -1.1625017796
C -1.1089501319 -1.2481449588 -1.3665776444
C -1.3378610314 -2.5618051028 -1.8663701096
N -1.4916949336 -3.6312640645 -2.2835978157
C 0.2583055181 -0.5360107781 -1.3608431012
O 0.4452755661 0.5157157891 -2.2773445940
H 0.1180384196 1.7877105403 -0.6904422909
H 0.5908576217 -0.4127639594 0.8236182913
H -1.8878099685 -1.1807285843 0.8616724918
H -3.2177112119 -0.6291854817 -1.2359068482
H -2.0797288165 0.7604831292 -1.5822791351
H 1.0958020520 -1.2406987749 -1.3714737490
H 0.5910985178 0.1610862932 -3.1600129478