14

O -0.4320970869 0.7390982081 0.8854564703
C 0.0960965243 1.0283630583 -0.1529279024
C 1.4341234146 1.7629678605 -0.2523022404
C 1.3811722797 2.8755606857 -1.2626520995
C 1.3959286900 4.2305855865 -0.9056619297
N 1.3319603115 5.1807195451 -1.8246139123
C 1.2397119770 4.7342698384 -3.0829090527
N 1.2089535286 3.4631635370 -3.4774992403
N 1.2863842999 2.5182078929 -2.5459784330
H -0.3484431577 0.7719439576 -1.1379915809
H 1.7155442180 2.1195928895 0.7406731101
H 2.1717279109 1.0220037551 -0.5859455049
H 1.4657753008 4.5378393609 0.1359448016
H 1.1828884292 5.4757475542 -3.8740286759