19

C -0.1083730042 1.5774394090 -0.0222534403
C 0.0247455561 0.0532026699 0.0185945164
C 0.8091356122 -0.5430063930 -1.1943925813
C 1.4746591933 -1.8635408818 -0.7035252287
C 1.6356725929 -1.5986620046 0.7668293313
C 2.2918468241 -2.0253509544 1.8724727155
O 1.9230817248 -1.2633410454 2.9473489674
C 1.0138635380 -0.3411061193 2.5069393632
C 0.8062421247 -0.5059111049 1.1778335755
H 0.8776676242 2.0536637353 -0.0101293358
H -0.6317486975 1.9010755969 -0.9282086384
H -0.6725944721 1.9507958865 0.8385350992
H -0.9865140287 -0.3798028082 0.0279586169
H 0.1724650421 -0.6890339391 -2.0716545211
H 1.5954558024 0.1668681035 -1.4776877718
H 0.8115739093 -2.7211343368 -0.8768495522
H 2.4107856094 -2.0761419974 -1.2281012290
H 3.0168780502 -2.7946638785 2.0805291572
H 0.6425912889 0.3343555123 3.2597202159