18

C -0.1732293077 1.4588655467 0.1073945805
C 0.0790823497 -0.0300759511 0.0278642296
N -1.0793564799 -0.9506758596 0.2506516160
C -0.4908179437 -1.4604783141 1.5132362012
C 0.8501367920 -0.7806422135 1.1418917771
O 1.8230896204 -1.6211035114 0.5308199784
C 1.6259435457 -1.6955485215 -0.8740202435
C 0.7627673285 -0.4951888381 -1.2628905802
O 0.6344128415 -0.0230002232 -2.3609328281
H 0.7683567068 2.0172027855 0.0856646251
H -0.7659452392 1.7807969939 -0.7550493937
H -0.7079285637 1.7232606651 1.0253275962
H -1.9787744099 -0.4896277204 0.3228222331
H -0.9354856185 -1.0450801778 2.4269229614
H -0.4632857620 -2.5518249388 1.5927622551
H 1.3472965606 -0.2077575494 1.9266351903
H 2.5954896863 -1.6633228947 -1.3799229043
H 1.1128938929 -2.6235121474 -1.1668776840