19

C 0.2702930073 1.6246330013 0.3276251468
O 1.5543645676 1.4672772939 -0.3400926645
C 1.2812380393 0.0897758003 -0.5795118341
C 1.7197322447 -0.5541684837 -1.8742740460
O 1.6608789614 -1.9494933989 -1.6053019797
C 2.1274185034 -2.1506353678 -0.2637426152
C 1.6552371513 -0.9412654757 0.5448515453
C 0.1725574296 -0.9113240636 1.0325662310
C -0.1584386159 0.1790118357 -0.0155464023
H 0.3887720401 1.8447892220 1.3961460667
H -0.3190017996 2.4190673607 -0.1422471187
H 1.0662527595 -0.3487647728 -2.7261782110
H 2.7423645666 -0.2215982763 -2.1238456394
H 1.7255175942 -3.1093113162 0.0769400260
H 3.2270083058 -2.2103349165 -0.2522471534
H 2.3945707437 -0.5941508488 1.2679859743
H -0.3558168690 -1.8498607195 0.8418574954
H 0.0200671935 -0.6340629947 2.0794204225
H -1.0552617034 0.0680172607 -0.6250624337