20

C 0.5776420776 -0.2247212227 -0.4547430104
C -0.1478470180 -0.3416420059 0.8823263180
O -0.0173769604 0.8334719967 1.6717762916
C -1.6324138648 -0.6796250320 0.7189823228
O -1.7546068743 -1.9422319042 0.0934741026
C -3.0891887058 -2.3341432878 -0.1447458400
C -3.1642330781 -3.7548639104 -0.7055604280
N -1.9816367396 -4.4169085904 -0.7245277169
O -4.2247652138 -4.2170904171 -1.0771384703
H 1.6390491611 -0.0165114457 -0.2969458319
H 0.4758928685 -1.1467549659 -1.0326818450
H 0.1512955355 0.5912098767 -1.0532582648
H 0.3122394106 -1.1384580783 1.4785546310
H -0.2621221734 1.5864659260 1.1224738630
H -2.1131858686 -0.6852884645 1.7086156835
H -2.1278253185 0.0982799175 0.1111214632
H -3.6818863098 -2.3122786466 0.7829088160
H -3.5840416122 -1.6645777570 -0.8631811600
H -1.1432883469 -3.9599911677 -0.4099980184
H -1.9543799989 -5.3571453805 -1.0807448061