21

C 0.3326453163 1.3750791745 -0.8486673850
C 0.0886252457 -0.0445554649 -0.3303616211
C -1.3638746014 -0.4872862684 -0.5108509290
N -1.5174225293 -1.8720126546 -0.0521052919
C -1.8508802673 -2.1100267679 1.3358217211
C -2.8458689651 -2.4178321880 0.2619749080
C -4.0871286270 -1.5676541619 0.1968514711
N -5.1362594331 -2.1654020295 -0.4413644250
O -4.1699590388 -0.4491434602 0.6752599831
H 1.3741555460 1.6766755370 -0.7018018503
H 0.1129662879 1.4509031304 -1.9195870599
H -0.3016602056 2.1021859430 -0.3299621165
H 0.7446733359 -0.7565606361 -0.8441969696
H 0.3477979570 -0.0985835548 0.7347062062
H -2.0425440994 0.2041583095 0.0038337324
H -1.6249760934 -0.4680470352 -1.5767880221
H -1.3256515585 -2.9244371574 1.8283038318
H -2.0956437722 -1.2517900944 1.9590536516
H -2.9720211730 -3.4502644427 -0.0604206240
H -5.0408820010 -3.0365683129 -0.9322239199
H -5.9811737937 -1.6315339255 -0.5628900611