18

C -0.1922790304 1.3253424524 0.1206070003
O 0.3646914112 0.0450364396 -0.1116162656
C 0.8724725481 -0.5559659415 1.0389928110
C -0.1369067653 -1.3435438573 1.9402963353
C -0.1466023426 -2.4393097132 0.8547430231
C 1.3650337895 -2.0205563843 0.7652387824
C 1.8040358379 -2.3689793680 2.1625683435
N 2.8465466615 -2.9461983181 2.5653550333
O 0.7662994685 -1.8850734503 2.9442549457
H 0.5488110879 2.0109540278 0.5568451950
H -0.5110739720 1.7152631445 -0.8481295183
H -1.0622390625 1.2811564113 0.7911194191
H 1.5591722433 0.1109763710 1.5794041949
H -1.0167492352 -0.9263811123 2.4248757787
H -0.3794825697 -3.4567648469 1.1735426403
H -0.7047728503 -2.1527800142 -0.0344764242
H 2.0279102271 -2.2793726865 -0.0544492312
H 2.8423285829 -3.0270839341 3.5840545766