19

O 0.1279283439 1.3918933736 0.0089199083
C 0.0877717438 -0.0249327647 -0.0371312306
C -1.3455970336 -0.5711502874 -0.0030175316
C -1.3912917907 -2.0666357251 -0.0405774582
O -0.7563550819 -2.8158586652 1.0521004366
C -1.2931890158 -3.8394012302 0.1666780747
C -2.5979848558 -3.0576345606 -0.1736691357
C -2.3818025243 -3.2270358679 -1.6927804834
C -0.9433656278 -3.0862913193 -1.1505779463
H -0.1704806732 1.6664697789 0.8817432369
H 0.5683919959 -0.3059354209 -0.9801044882
H 0.6735113441 -0.4784204305 0.7743761808
H -1.8466146477 -0.2307692133 0.9133542446
H -1.9119251607 -0.1664432252 -0.8498922708
H -1.1537126717 -4.8869973901 0.4312544217
H -3.5185826316 -3.0394523173 0.4101870464
H -2.6493925375 -4.1984993338 -2.1170705257
H -2.7463141642 -2.4199834874 -2.3342074039
H 0.0114980288 -3.1035361838 -1.6763340256