17

O 0.1607836926 1.3123320825 0.0154087984
C 0.0670077382 -0.0688583088 0.0442564821
C -0.4967106555 -0.7179030918 1.2672135177
O -0.9426616532 0.1540894470 2.2736163817
C -1.3355367786 -0.7046544774 0.0135213200
C -2.6456189684 0.0291039334 -0.2967662375
C -3.0400162555 -1.1422970887 -1.2593430274
C -1.7449702160 -1.8667406839 -0.8354184945
O -1.2553928185 -2.9367729224 -1.0741347993
H -0.2645888546 1.6279730542 0.8261505493
H 0.8483010864 -0.5591226383 -0.5275614543
H -0.1225191045 -1.6845362934 1.6001200621
H -0.2302418873 0.2516254203 2.9161173099
H -3.3111511852 0.1437428034 0.5609032430
H -2.5082121152 1.0002410112 -0.7767500483
H -3.9570015310 -1.6832937084 -1.0109374693
H -3.0667643834 -0.8828998990 -2.3214889135