18

O 0.0057898678 1.4861219536 0.1432366617
C 0.0144623044 0.0684122563 0.1361097517
C -1.3885641418 -0.5379656249 0.0407360851
C -2.3223030193 0.0243847117 1.1092078790
C -3.4829554475 0.3621271924 0.5168425284
C -3.5225029823 1.8073152185 -0.0080398721
C -2.9486766389 1.1164120171 -1.3153950982
C -3.4883615650 -0.1979375242 -0.9265349859
N -2.0754505141 -0.1559311354 -1.2375291770
H -0.3351914229 1.7697163252 -0.7113650357
H 0.6194317611 -0.3246261283 -0.6938146660
H 0.4882891289 -0.2426030349 1.0729297661
H -1.2828535976 -1.6318412461 0.0034942363
H -1.9078400654 0.5868874406 1.9402661243
H -4.5044854730 2.2259929125 -0.2566233296
H -2.9136128832 2.5398838301 0.5256170485
H -2.9475651771 1.5720892911 -2.3005851264
H -4.1919205140 -0.8631208552 -1.4129207904