20

C 0.1282674889 1.6171994375 -0.2387396420
C -0.0545107614 0.1281969551 0.0683762028
N 0.4876634832 -0.7282010152 -0.9758835114
C 1.7526941616 -1.1784592423 -0.6574569076
O 2.5617215108 -1.6862765910 -1.3834547830
O 1.9536141708 -0.9633284839 0.6752008826
C 0.7443871523 -0.4406933484 1.2869740662
C 1.1648925613 0.5802050976 2.3355338419
C -0.0077229329 -1.6140749289 1.9224265301
H 1.1839462746 1.8707831194 -0.3740961743
H -0.3999281174 1.8727047856 -1.1634110716
H -0.2823386143 2.2428247199 0.5590353686
H -1.1208420760 -0.0791759243 0.2139882809
H 0.2962780177 -0.5582100111 -1.9506168880
H 1.7800167246 1.3711032993 1.9022509179
H 0.2870278879 1.0344230233 2.8051564996
H 1.7492595843 0.0853833585 3.1158525740
H 0.6404287051 -2.1325915781 2.6335973791
H -0.8946290125 -1.2578287902 2.4562018860
H -0.3265268987 -2.3282914630 1.1583969682