22

C -0.2231664845 1.5477025542 -0.0396601482
C 0.0774376058 0.0522040043 0.0023362477
C 0.9637112813 -0.4036905915 -1.1666853814
O 0.9781536700 0.0464719333 -2.2924862031
N 1.7294660682 -1.4357196403 -0.6983173500
C 1.4397118899 -1.8184858134 0.6712911280
C 0.7762271320 -0.5401653472 1.2618405425
C 1.8730252847 0.3949657321 1.8005555480
C -0.2109856315 -0.8851047867 2.3804126237
H 0.6831001477 2.1482180612 0.0745131379
H -0.6583798529 1.7977744539 -1.0104517969
H -0.9296153755 1.8384806065 0.7440311063
H -0.8701200083 -0.4918067719 -0.1328616043
H 2.2912714940 -1.9851571859 -1.3289666939
H 0.7514581796 -2.6759224531 0.7179579614
H 2.3524587317 -2.0927542725 1.2108790631
H 2.6100730024 0.6388949069 1.0289424370
H 1.4507522332 1.3327943396 2.1717577094
H 2.4019960775 -0.0817384308 2.6328167845
H 0.2973718160 -1.3755013899 3.2185785961
H -0.6917643981 0.0175484624 2.7718766364
H -0.9986131433 -1.5579690809 2.0252672060