16

C -0.3124157750 1.4608635419 0.4059879274
C -0.1776228719 -0.0343882228 0.4942399686
O 0.8765899963 -0.6475010797 -0.2575921831
C 0.9521756522 -0.7173899090 1.1690814978
C 2.0154232357 0.0664115005 1.7743983178
N 2.8603892007 0.6638502418 2.2893951544
C 0.7897561059 -2.0871088875 1.7741869486
C -0.0955940818 -2.3038941481 2.9253482673
O -0.4766390755 -2.7042778976 1.6056654708
H 0.6571971837 1.9559024408 0.4910196722
H -0.7613841440 1.7340498462 -0.5538629719
H -0.9682381336 1.8290267680 1.2014721233
H -1.1012082764 -0.6111304584 0.4786547656
H 1.6459245462 -2.7462366942 1.6326082329
H 0.1165308060 -3.1148408050 3.6184345848
H -0.6533170684 -1.4643408868 3.3361296935