21

C 0.0168793450 1.5941150503 -0.0455529827
C -0.0395450159 0.0830932751 0.1659270069
O 0.4525660000 -0.1471412779 1.4712189405
C -1.4666826551 -0.5079751882 -0.0088329757
C -2.1447910390 -0.0235126323 -1.3004822506
C -1.4265021140 -2.0662630390 -0.0014458438
O -0.5246387754 -2.6107886578 0.9389747037
C -2.8019540988 -2.6476280676 0.2740141450
O -2.9838206298 -3.4095064756 1.1946074413
H 1.0150306545 1.9447690386 0.2287537424
H -0.1743739575 1.8753087461 -1.0836215004
H -0.7066678249 2.1028854291 0.6003712845
H 0.6130510082 -0.3994005854 -0.5859610846
H 0.3590193311 -1.0975775296 1.6269881410
H -2.0434015202 -0.1691804330 0.8624018201
H -1.5087399782 -0.2186544961 -2.1719208099
H -3.1039958622 -0.5180441908 -1.4808293368
H -2.3410720492 1.0494124897 -1.2616424903
H -1.1286741705 -2.3930361593 -1.0134384874
H -1.0655656060 -3.1740227172 1.5197883714
H -3.6298609421 -2.3426555992 -0.3916491447