23

C -0.0987989044 1.4352101475 -0.2251278852
C 0.1596515758 -0.0511017961 -0.0881142465
C 1.5561936046 -0.6174195100 -0.1068598607
C 0.7218625935 -0.7300301894 1.1533422061
C 1.1231292159 0.1204738832 2.3367669210
O 2.2963659854 -0.4327930386 2.9318944022
C 0.1467997697 -2.1014820816 1.4914442446
C 1.1343663699 -3.1075175049 2.0988523576
O 0.5635404940 -4.4081378191 2.1980862248
H 0.7106965007 2.0420096669 0.1895945077
H -0.1885469914 1.7035420078 -1.2837299388
H -1.0300548405 1.7337412781 0.2700458566
H -0.5864696530 -0.6547627097 -0.5999213912
H 1.7515565512 -1.5205394667 -0.6756279823
H 2.3844663791 0.0841351629 -0.0958790887
H 1.3135865386 1.1544780333 2.0206552130
H 0.2951158257 0.1484416312 3.0642927870
H 2.4985918867 0.0779080847 3.7217641923
H -0.7046188718 -1.9769302073 2.1786694570
H -0.2584505880 -2.5589502645 0.5811451451
H 2.0042220987 -3.2135235065 1.4428174984
H 1.5066365656 -2.7527184643 3.0665891805
H -0.1475604358 -4.3645392470 2.8449093695