17

C -0.0583423485 1.5185010810 -0.0171922551
C -0.0082163866 0.0078718144 -0.0142758194
C 0.3037138649 -0.7654047262 1.2287676085
N 1.2919608859 -0.6465988534 0.1415336497
C 1.2752512347 -1.8215936790 -0.7448012848
O 2.1758821608 -2.6214938097 -0.7658808155
C 0.0287725740 -1.7948052804 -1.5035347728
C -0.7363788880 -0.7563135775 -1.0830562964
N -1.9788453801 -0.3806862113 -1.4836009275
H 0.6363628492 1.9155573320 0.7259859299
H 0.2262173853 1.9199749884 -0.9951783507
H -1.0592476665 1.8903864084 0.2329860328
H 0.5504513583 -0.2273811017 2.1410629179
H -0.1813190813 -1.7276960285 1.3704125392
H -0.2339874547 -2.5518547441 -2.2287828277
H -2.3573299561 -0.7657753385 -2.3330762891
H -2.3212074312 0.5296742561 -1.2283535891