17

C -0.0555621232 1.5174052755 0.0034233001
C 0.0277807193 0.0199143019 -0.0419679596
C 0.8470849280 -0.8010173663 -1.0414972056
C -0.0794807975 -2.0075960792 -0.7185034311
O 0.5202735421 -2.8078640211 0.3109069154
C 0.5298802350 -2.0734330395 1.4703641078
O 1.0602689380 -2.4526561799 2.4736940599
C -0.2554909091 -0.8230865640 1.2210088186
C -1.0669776528 -1.0258003612 -0.0299807445
H 0.8905894659 1.9539611684 0.3421856800
H -0.2741627246 1.9242781128 -0.9901191126
H -0.8418184579 1.8546175022 0.6860793367
H 0.6863434817 -0.4356370563 -2.0600441785
H 1.9165589961 -0.9524884707 -0.8645717215
H -0.4078159984 -2.6636299789 -1.5201777483
H -0.6524001026 -0.2947841788 2.0771213107
H -2.1442072200 -0.9609241050 -0.1074406376