21

C 0.0988555978 1.4627973416 0.1637941255
C 0.1671310740 -0.0621073221 0.0411606216
C 0.6739308206 -0.4983557714 -1.3236314505
O 0.7032701779 -1.9376042528 -1.3438667932
C 1.1331474446 -2.4995641153 -2.4915664230
O 1.4797883646 -1.8656046136 -3.4614395561
C 1.1225254192 -3.9814104111 -2.3996969103
C 0.8079969891 -4.7495294193 -3.6721923502
C 2.2081906500 -4.7275090952 -3.1567253724
H 1.0847430273 1.9191989076 0.0236148577
H -0.5749771462 1.8937988490 -0.5846144571
H -0.2673272582 1.7592762167 1.1506366417
H 0.8264179697 -0.4749566751 0.8134161311
H -0.8235533124 -0.5002042102 0.2087841449
H 0.0252241687 -0.1421806061 -2.1314764899
H 1.6810859406 -0.1169371531 -1.5247108999
H 0.7817663853 -4.3880353914 -1.4564303594
H 0.2229845290 -5.6556691239 -3.5665771721
H 0.5875014030 -4.1480640589 -4.5461052718
H 2.9258747459 -4.1113351381 -3.6852700730
H 2.6099533395 -5.6180959074 -2.6877638234