25

C 1.1072242386 1.6172459658 0.1810667017
C 0.6207291947 0.1830201635 0.0566195864
O 1.1913782836 -0.3878782343 -1.1013195871
C 0.8047017119 -1.7312195004 -1.3146478432
C 1.4175048770 -2.2212966025 -2.6065211578
C 1.0019393124 -1.4674973306 -3.8626075310
C -0.4775590847 -1.6282497877 -4.2337244606
C 2.8285940158 -2.7503499602 -2.5272362533
C 1.6752117074 -3.7063245068 -2.7127897937
H 2.1977720316 1.6460491370 0.2584711996
H 0.8115706150 2.1996574624 -0.6963030614
H 0.6822489079 2.0898189323 1.0717150635
H 0.9061716770 -0.4001114529 0.9494395401
H -0.4809621535 0.1517540750 -0.0046645910
H 1.1393086330 -2.3641867093 -0.4749594403
H -0.2959483782 -1.8048498155 -1.3504353752
H 1.2340286755 -0.4057824490 -3.7236328066
H 1.6202628245 -1.8157710707 -4.6988229914
H -0.7410203047 -2.6833381335 -4.3650835179
H -1.1368524476 -1.2141065484 -3.4642314980
H -0.7024488760 -1.1071343162 -5.1696228143
H 3.4865828759 -2.5723382948 -3.3711007472
H 3.3278950219 -2.7310727543 -1.5643330792
H 1.3983232248 -4.3453934829 -1.8804074527
H 1.5464950961 -4.1699483559 -3.6853970892