19

O 0.0954362192 1.4634489791 0.1944526920
C 0.0482463222 0.0822961039 0.4639226682
C -1.3079638517 -0.5254871666 0.1188631100
C -2.5084433421 0.3065887154 0.2545730982
O -1.9087615794 0.0867241918 -1.0370601513
C -1.3794323391 -2.0298095468 0.1848865574
C -2.6202641596 -2.7548849350 -0.3818778883
O -1.8000057790 -3.5884761362 -1.2248563830
C -0.6162621844 -2.8386584675 -0.8951713834
H -0.3027113291 1.5704904478 -0.6800737215
H 0.8307632248 -0.4639207736 -0.0901304846
H 0.2528488177 -0.0525836671 1.5322328679
H -3.4811679325 -0.1617757675 0.3917667401
H -2.4081936884 1.3191539920 0.6362950568
H -1.1286393310 -2.3551188606 1.1990401223
H -3.2136995065 -3.3425482653 0.3270392790
H -3.2809889075 -2.1102471471 -0.9737774823
H -0.2659128062 -2.2344146476 -1.7427044957
H 0.1986644426 -3.4840815790 -0.5492063217