18

N 0.1511081384 1.1574979556 0.5165954948
C 0.0987094676 -0.0333723018 0.0983131592
O 1.1651475074 -0.7325685383 -0.3839384749
C 0.7712168119 -2.0726942991 -0.7354734992
C -0.5320571193 -2.3184125393 0.0290156980
C -1.1446129430 -0.9073887843 0.0664816851
C -2.1414197324 -0.6581936323 1.2096493681
C -2.9485747566 0.6195943973 1.0463470988
O -4.1537569453 0.6463566246 1.0802935805
H 1.0973783844 1.5324325364 0.4349885422
H 0.6260770586 -2.1253540034 -1.8216446633
H 1.5870301950 -2.7435523251 -0.4581491944
H -1.1739226326 -3.0586167832 -0.4526259842
H -0.3171158790 -2.6614366951 1.0470087921
H -1.6447630550 -0.7214458145 -0.8950173663
H -2.8495818808 -1.4886954579 1.2861206952
H -1.5856910918 -0.5882628511 2.1540232258
H -2.3435058376 1.5343629116 0.8946606324