18

C -0.0045490691 1.4901899173 0.1134219728
C -0.0000944782 0.0041215534 -0.0303174355
C -0.0103153068 -0.7922846774 -1.1796112771
C -0.0350942603 -0.3062413662 -2.5991218860
C 0.0256620335 -2.1348510120 -0.7461877292
C 0.0573285772 -2.1393229379 0.6433073312
N 0.0419122401 -0.8237554917 1.0472915722
C 0.0874342329 -3.2015891075 1.6158208510
O 0.1045078845 -3.0177028579 2.8220082935
H 1.0085793998 1.8936503356 0.2362950126
H -0.4360438888 1.9607133811 -0.7734257420
H -0.5918609672 1.8074821510 0.9815098145
H 0.9588573793 -0.0052794205 -2.9528077208
H -0.3935614050 -1.0910687101 -3.2711180741
H -0.6953864344 0.5587551816 -2.7242043756
H 0.0221997011 -3.0134721835 -1.3753430513
H 0.0476886891 -0.5638613653 2.0211444446
H 0.0950151224 -4.2244394101 1.1840732794