14

N -0.0496126434 1.2991150184 0.1834851674
C 0.0425226583 -0.0451229365 -0.0261480109
O 1.0919586782 -0.6343246831 -0.2152102402
C -1.2877444908 -0.7573473791 -0.0225309079
O -2.4268639708 0.0506220891 0.1414514415
C -1.3937056104 -2.0237283574 -0.8409909579
C -1.3252030538 -2.1032886763 0.6586244266
H 0.8069202731 1.8052120244 0.3384465782
H -0.9161613328 1.6743466927 0.5322816376
H -2.6809754297 0.3805791262 -0.7278063592
H -2.3522713581 -2.2107906845 -1.3122802149
H -0.5138905313 -2.3059064619 -1.4062373181
H -0.4020497029 -2.4483864716 1.1076432205
H -2.2384618755 -2.3278845005 1.1966748974