21

C -0.0294376483 1.5387515849 0.7067115529
C 0.0426504419 0.0821316651 0.2969402013
C 0.3039415466 -0.3698453336 -1.1066158984
C 0.5105101230 0.5900203447 -2.2609369452
C 1.3021021755 -0.0772769492 -3.4090545537
C 1.4655367817 0.8052178618 -4.5618084153
N 1.5846224712 1.5199711310 -5.4620397204
N 1.2901836716 -0.6055773391 -0.0453906407
C 2.5575490127 0.1086509672 -0.0188785854
H 0.5770039071 2.2011031155 0.0868948063
H -1.0655025444 1.8887187544 0.6486927001
H 0.2990490502 1.6603475380 1.7446663360
H -0.6231410541 -0.5474078251 0.8883571941
H -0.1871240459 -1.2919379370 -1.4245967015
H -0.4678011013 0.9033287750 -2.6430468035
H 1.0287041553 1.5007722678 -1.9557682850
H 2.2941285085 -0.3829888641 -3.0592338727
H 0.7916093553 -0.9900985971 -3.7372699273
H 2.5423503867 1.1422460596 -0.3932271248
H 2.9187770910 0.1370222622 1.0140736438
H 3.2913317555 -0.4522448020 -0.6076751007