17

O 0.3804051257 1.2363504930 -0.1343877287
C 0.0548622541 -0.0919229623 0.1620519073
C 0.4663508518 -0.4623405523 1.5621183029
C 0.4948341293 -1.7185070750 2.0330971601
C 0.0311576934 -2.8715531388 1.2753427539
C -1.0204991347 -2.8601649737 0.4388689936
C -1.9867087268 -1.7173704982 0.2764079980
C -1.4346064942 -0.3462635444 -0.1022213946
O -2.1206713501 0.5284670283 -0.5741218837
H -0.4321432817 1.6252913430 -0.4966802471
H 0.5602388155 -0.7913332625 -0.5352872060
H 0.8065050187 0.3754739712 2.1624742085
H 0.9200862218 -1.9027986296 3.0167525456
H 0.5729068801 -3.8049521158 1.4135769169
H -1.2634541815 -3.7668440833 -0.1076353728
H -2.7868080161 -1.9567722167 -0.4279134770
H -2.4791347954 -1.5304698730 1.2445715931