21

C 0.2335544536 1.1180956966 0.3448015347
O -0.1440723824 -0.1670387759 -0.1201429805
C 0.6253331342 -0.6541664055 -1.2031650280
C 0.3928307667 0.0811292857 -2.5073568297
C 2.0002543607 -1.2081986001 -0.9554521158
C 2.1000157749 -1.8165747671 0.4466893346
C 0.9073241625 -2.7778253233 0.0975676399
O -0.2291669973 -2.8049663371 0.9157699686
C 0.7966621442 -2.1351079815 -1.2924367287
H 1.3116114444 1.1719279517 0.5468667991
H -0.0295678664 1.9063473312 -0.3725339278
H -0.3147840667 1.2946568488 1.2729553044
H 0.7297918688 1.1213121017 -2.4542250895
H 0.9410351748 -0.4004748795 -3.3214287252
H -0.6721764360 0.0782257686 -2.7598204682
H 2.8413025062 -0.9456344425 -1.5866897378
H 3.0351598149 -2.3533133753 0.6204187812
H 1.9219780857 -1.1362431199 1.2837646078
H 1.2587631026 -3.8101986959 0.0237402280
H -0.5819123719 -1.9054574048 0.9012762085
H 0.5635689465 -2.6650055458 -2.2098388458