17

C -1.4687854448 0.7236158580 -0.3382205396
N -0.2701327113 -0.0323486325 0.0437068794
C -0.1670919189 -0.3453592785 1.4226018065
C 1.0246054023 -1.1204541061 1.9300051287
N -1.1277485713 0.0692542379 2.1543838651
C 0.6766237223 -0.3997807980 -0.9019203294
O 1.6935628652 -1.0247159826 -0.6669603155
C 0.4065727851 0.0075800649 -2.2754715615
C 0.3211621086 0.2719221896 -3.4460325785
H -1.5003551938 1.6692486128 0.2060383166
H -1.4463745894 0.9082381230 -1.4088979414
H -2.3642462399 0.1587746132 -0.0725607651
H 1.9618607411 -0.6011852381 1.7236523483
H 0.9101569051 -1.2537051536 3.0086070670
H 1.1066517116 -2.0961143750 1.4482822569
H -0.9678532261 -0.2005969811 3.1228502791
H 0.2391301241 0.5089476461 -4.4789704665