16

C -0.2473036983 1.5848133883 0.1031103819
C 0.0347264666 0.0897684054 0.0602432907
O 1.1862302499 -0.2268776752 -0.7611595381
C 1.8476355752 -0.9650552306 0.2973378185
C 0.7514480390 -0.5570529750 1.2707772457
C 0.7714920906 -0.1624306737 2.6758063612
O 0.1536757069 -1.3835986005 2.2256805714
C -1.1524701302 -0.6652080226 -0.3754236365
N -2.0892818297 -1.2487958237 -0.7166047709
H 0.6391835980 2.1134128315 0.4612190850
H -0.4938752168 1.9459224201 -0.8987357592
H -1.0913039619 1.7997263657 0.7649895209
H 1.8814820865 -2.0414572330 0.0937143162
H 2.8570473753 -0.5875158331 0.4887264647
H 1.6834144490 -0.2888280568 3.2568354448
H 0.0832276397 0.5984961032 3.0387280135