25

C 0.1738819731 1.3454696868 0.3303420613
C -0.0995010920 -0.0925983174 -0.1165587692
C 0.7961134101 -0.5236349931 -1.2705703929
O 0.4562751802 -1.8547503001 -1.6245885336
C 1.2972671675 -2.4622697529 -2.5680783730
C 1.1439843956 -1.9423012838 -3.9816900572
C 2.6492593759 -2.9362748956 -2.0793604533
C 1.5319540359 -3.9322836081 -2.3401484906
C 0.8797282226 -4.6695167715 -1.1923885312
H 1.2090125725 1.4695745516 0.6675863585
H 0.0050766210 2.0567761568 -0.4858365424
H -0.4806255822 1.6311290210 1.1588656208
H 0.0500268923 -0.7860446865 0.7192066151
H -1.1447156295 -0.2019896587 -0.4279011937
H 0.6584332985 0.1560809414 -2.1263289290
H 1.8567751442 -0.4665593953 -0.9786442466
H 1.4543992260 -0.8952158600 -4.0670441429
H 1.7583377181 -2.5242957969 -4.6744547312
H 0.0996052912 -2.0149674661 -4.3034858657
H 3.4988500710 -2.8995188239 -2.7534139450
H 2.8900067397 -2.7395665247 -1.0394966540
H 1.6352257010 -4.5185674536 -3.2503983526
H 0.7314972032 -4.0046745941 -0.3391148000
H -0.1021249992 -5.0605510392 -1.4809469839
H 1.4964245133 -5.5160666460 -0.8711343677