17

C -0.1638350877 1.5406603138 0.2295073469
C 0.0033734070 0.0269701715 0.0281949172
C 0.8423116632 -0.4016775439 -1.2435719029
C 1.9431197552 -1.0193479225 -0.3276196483
C 1.1148273457 -0.6131105267 0.8689851941
N 1.1995919219 -0.6800270419 2.1281103643
O 2.3872725139 -1.3043333166 2.5257501935
C -1.2836016843 -0.6580941650 0.1310489350
N -2.3021262312 -1.2017403921 0.1934401981
H 0.8076663717 2.0348490055 0.1418127728
H -0.8391456026 1.9554144410 -0.5242948015
H -0.5705762886 1.7523521614 1.2210577244
H 0.3320038173 -1.1156801707 -1.8892260287
H 1.1643083228 0.4542715190 -1.8383941345
H 2.0823602120 -2.0994540163 -0.4260926095
H 2.9279883474 -0.5467293835 -0.3773959324
H 2.3111082161 -1.3002340131 3.4866772915