18

C 0.0151043612 1.5348365290 0.0625107607
C -0.0244596140 0.0387344780 -0.0156955725
C -0.8721772523 -0.8092362406 0.8507548047
N 0.5888513556 -0.8892089559 1.0278813977
C 1.0535780946 -1.7890848905 -0.0746526331
C 0.5234464096 -0.8016521337 -1.1900694707
N -0.4454293552 -1.1719399511 -2.2073963264
C 1.6523876102 -0.1429871808 -1.8554431046
N 2.5556950934 0.3571309384 -2.3744532443
H 1.0010527936 1.9218460703 -0.2104804356
H -0.7227153034 1.9698265466 -0.6205953644
H -0.2175857738 1.8681358071 1.0774262805
H -1.3778313221 -0.3054622003 1.6688870966
H -1.4046744111 -1.6789271907 0.4695801687
H 2.1383324451 -1.8984119737 -0.0575961801
H 0.5812897414 -2.7776865700 -0.0754595284
H -0.0190180910 -1.7496675446 -2.9252330260
H -1.2046280320 -1.7017293374 -1.7941615928