18

O 0.3021028561 1.1222398452 0.4614359875
C -0.0069434272 -0.1819274332 0.0254670222
C -1.5135505141 -0.4010559891 -0.0803329073
C -1.9246771127 -1.8590116141 -0.3620084658
C -2.3497925529 -2.3873225632 1.0187359238
C -2.8950595150 -1.1123874341 1.6861154910
O -2.0755966032 -0.0590710112 1.2131576773
C -4.3148424840 -0.8745892629 1.3369204251
N -5.4221299255 -0.6971260258 1.0584007375
H -0.2237025813 1.2725349944 1.2561031610
H 0.4516647920 -0.3086110572 -0.9614066994
H 0.4211899542 -0.9485278403 0.6947372424
H -1.9287980416 0.2954813176 -0.8167791680
H -2.7648821632 -1.8942520548 -1.0598249448
H -1.1057175319 -2.4393491416 -0.7946103427
H -3.0841105144 -3.1928670111 0.9722349640
H -1.4869840528 -2.7358682509 1.5928060813
H -2.8174436524 -1.1379167477 2.7774157951