21

C 0.1718811580 1.4550213063 -0.0083385728
C -0.0435889869 -0.0163346427 -0.0046653125
C -1.1488391855 -0.8105134205 -0.0336766920
C -2.5864014724 -0.3947005653 -0.0817088428
C -0.6669062162 -2.1754414926 -0.0090980168
C -1.5241169203 -3.4029021304 -0.0267502577
C 0.6915455688 -2.0985956287 0.0330955686
C 1.7831508964 -3.1075109442 0.0737529563
O 1.0845501541 -0.7884306802 0.0360746450
H 0.7638810525 1.7736711734 -0.8745393285
H -0.7855885698 1.9791193242 -0.0431191555
H 0.7067751204 1.7862253628 0.8897126373
H -3.0899724932 -0.7841477610 -0.9750859676
H -3.1450322947 -0.7705812113 0.7843155951
H -2.6932991187 0.6932719208 -0.0935295541
H -2.1493171873 -3.4464862666 -0.9270832794
H -0.9241139358 -4.3164353681 0.0000215849
H -2.2057341407 -3.4319863581 0.8322653480
H 2.4525040298 -3.0119531521 -0.7894813838
H 2.3985189602 -2.9997399313 0.9748613742
H 1.3675942613 -4.1174398645 0.0680218640