21

C -0.1356355675 1.5665174756 -0.0898764789
C -0.0064004356 0.0626732727 -0.0042666706
C 0.9171669022 -0.6780751648 -1.0120587487
C 1.6125377126 -1.4468868418 0.1451499776
C 0.7151823850 -0.7351149100 1.1965611883
C 1.3609512578 -0.0881431562 2.4007145797
C -0.6004729473 -1.4879610203 1.3927676197
O -1.6240799466 -0.5216053847 1.6618435023
C -1.2592380025 -0.7596273860 0.2964707607
H 0.8449680888 2.0542690190 -0.0551467021
H -0.6173215625 1.8648201861 -1.0295279794
H -0.7386016196 1.9508060295 0.7380613201
H 0.4006895926 -1.2901922642 -1.7575446426
H 1.5894006519 0.0003906602 -1.5435595587
H 1.5289010894 -2.5375547080 0.1199733765
H 2.6703587195 -1.1947297722 0.2553274519
H 2.1417703705 0.6205037457 2.1026697255
H 0.6177991590 0.4513987327 2.9951441989
H 1.8306565256 -0.8420273084 3.0449100503
H -0.7613671945 -2.4961911849 1.7619400491
H -2.0484266387 -1.0732116801 -0.3799533393