19

C -0.1027923085 1.5508622576 0.0199788639
C 0.0645610121 0.0324870263 0.0150152992
C 1.0093779332 -0.5518170212 -1.0932670494
C 1.9605284721 -1.3580609435 -0.1798912499
N 1.0706724941 -1.9971569249 0.8382952265
C 0.7865298918 -0.5867126448 1.2411640249
C 2.2942502526 -0.3102231160 0.9305728770
C 3.2260674819 -0.7598902955 1.9485690418
N 3.9973054636 -1.0639350010 2.7543131106
H 0.8587005198 2.0723193725 0.0752134618
H -0.6056647092 1.8905730153 -0.8910336861
H -0.7070883128 1.8772444587 0.8731703898
H -0.9298633959 -0.4237983817 -0.0542488010
H 0.4894199006 -1.1997191019 -1.8040934607
H 1.5243335947 0.2271120801 -1.6644402417
H 2.7373835900 -1.9717495103 -0.6347097943
H 0.2627546883 -2.4687740198 0.4298107924
H 0.3686858062 -0.4141210407 2.2331146089
H 2.5642178253 0.6934626209 0.5983879866