18

N 0.2050086504 1.3382803138 -0.0769069370
C -0.0103583669 -0.0855489693 -0.0536464135
C 0.2792355932 -0.9944264273 -1.2971381624
C -1.1997816147 -1.4971841160 -1.2763476784
C -1.4251813885 -0.7477443017 0.0542186890
N -0.9508144090 -1.5486957640 1.2184129017
C 0.2910020174 -0.7435942148 1.3273200085
C 1.5275263396 -1.5117913412 1.4812036725
N 2.5191280550 -2.0978065767 1.5811314843
H 1.2026921310 1.5382297835 -0.0299785787
H -0.1155550848 1.7264734157 -0.9604822992
H 0.5488291473 -0.4185232134 -2.1862839015
H 1.0410300096 -1.7615084886 -1.1399109452
H -1.7953699413 -1.0925558286 -2.0995678602
H -1.3469663773 -2.5766304335 -1.2200240043
H -2.3435438875 -0.1775946775 0.2092880691
H -1.5377536161 -1.4992696839 2.0420375333
H 0.2600369027 0.0314485134 2.1026755519