15

O -0.0471955034 -0.0873697379 0.0613947731
C -0.0302718641 1.0955522526 0.1189544947
C -0.9374241850 2.3550350967 0.0971702082
C 0.0010752840 2.9901441949 1.1495535537
C 0.9260662689 2.3301265848 0.0921055006
C 2.4090554814 2.4817465324 -0.1161371388
C 2.9044515378 1.7627052813 -1.2839292883
C 3.3116553427 1.1726158192 -2.2466776325
O -0.0080714598 2.8338569428 -0.9585744510
H -2.0026943649 2.4943937461 -0.0670930982
H 0.0117963872 4.0804633503 1.1009538656
H -0.0006369555 2.5982571460 2.1700630346
H 2.6451630118 3.5502121290 -0.2004054879
H 2.9112092086 2.1221190110 0.7915381998
H 3.6659112302 0.6457502808 -3.0978705838