16

C -0.0088537534 1.5137538784 0.0052751884
C 0.0196979285 0.0084336585 -0.0132040996
C 0.0420498494 -0.7254933472 -1.2003548474
C 0.0683544806 -2.1210811376 -1.1914733451
O 0.0905553953 -2.8620336968 -2.3386853355
C 0.0726761898 -2.8088106231 0.0214105560
C 0.0506459781 -2.0941224973 1.2137077670
C 0.0247194261 -0.7091269570 1.1803961458
F 0.0035112569 -0.0245432073 2.3380633043
H 0.8582834195 1.9205006636 0.5363168611
H -0.0096371189 1.9192400946 -1.0091935620
H -0.8978267560 1.8873338945 0.5244384058
H 0.0387689727 -0.1932052579 -2.1489759677
H 0.0847456012 -2.2681565823 -3.0960054013
H 0.0931766436 -3.8919800005 0.0160114703
H 0.0533425066 -2.5997269927 2.1723427299