15

O 0.0787722643 1.3330763675 0.2710614217
C -0.0546471949 0.0611025739 -0.3255821532
C -1.3391076391 -0.6134019504 0.0947790471
C -1.5010342314 -2.1082989181 0.1347785627
N -1.3067577854 -1.3405254086 1.3514505615
C -2.1828077342 -1.1635935027 2.3949024556
O -2.5162080501 -0.0958258975 2.8502126840
C -2.6284452723 -2.4359928362 2.9944284000
N -3.0135876707 -3.4199998601 3.4621151959
H 0.0059181726 1.2216699746 1.2261232686
H -0.0639209144 0.2273889285 -1.4078866380
H 0.7932912690 -0.6015752985 -0.0922886110
H -2.2395751125 -0.0260158011 -0.0762173544
H -2.4896775455 -2.5187748589 -0.0519371499
H -0.6711928454 -2.7498789224 -0.1474226703