17

C -0.0276589947 1.4012181939 -0.0171402124
O 0.0296933130 -0.0081183628 -0.0461071212
C 0.6346763939 -0.5853079082 1.0257580980
C 1.1986886765 0.0090327058 2.1345965372
N 1.6783582988 -1.0181340695 2.9293944050
C 1.4295514201 -2.2336679117 2.3481975227
C 1.8406930439 -3.5174185036 2.9907633301
C 0.7783892000 -1.9949887114 1.1573452955
H 0.9789651139 1.8426902918 0.0115537231
H -0.5342857346 1.7178941483 -0.9307360147
H -0.5924626642 1.7614036792 0.8547984200
H 1.3020761640 1.0392283986 2.4261926951
H 2.1437620611 -0.8874419284 3.8097065877
H 1.3709763586 -3.6586494218 3.9724612543
H 1.5458817906 -4.3595744709 2.3608722955
H 2.9265647755 -3.5785266318 3.1372654958
H 0.4382310635 -2.7364739371 0.4516837183