18

C 0.0570824319 1.4271147771 0.1640727432
O 0.0082310242 0.0009580043 0.0567584376
C -1.2415923462 -0.5159807041 0.0139429262
O -2.2497565609 0.1560059987 0.0809034584
N -1.2228849896 -1.8802016079 -0.1231026848
C -0.0086405681 -2.6831786088 -0.1142708347
C -2.4856041177 -2.5880878494 -0.0799101613
C -2.8403861780 -3.2241992671 -1.4173388228
O -3.4709903904 -4.2402153512 -1.5363316430
H 1.1168607474 1.6822846485 0.1881584908
H -0.4294448730 1.8979575140 -0.6936447228
H -0.4379865812 1.7643294865 1.0777707867
H 0.1359812058 -3.1779900428 0.8557335670
H -0.0710826501 -3.4606808368 -0.8835327717
H 0.8533308096 -2.0546153372 -0.3219572846
H -2.4892471230 -3.3625151792 0.6964542313
H -3.2660476400 -1.8558908524 0.1542011461
H -2.4750369805 -2.6462013220 -2.2980493316