22

C 0.6453943928 0.5248095553 0.6119547973
O 0.9333580101 0.4260460437 -0.7681450067
C 0.0239096853 -0.4013393066 -1.4767791060
C 0.2451508656 -1.8811743550 -1.2376097664
N -0.6757775122 -2.4362511970 -0.5410675799
O -0.4643527213 -3.8127965236 -0.3623592851
C 1.4315460922 -2.6154514984 -1.8337231463
C 1.0051019285 -3.2689723274 -3.1660156985
C 2.6798738269 -1.7412538014 -2.0184653968
H -0.3531929917 0.9553101616 0.7831047796
H 0.6882106722 -0.4487161491 1.1182239019
H 1.3978870601 1.1877472914 1.0457347268
H -1.0143256493 -0.1591866972 -1.2117079702
H 0.1769476912 -0.1667485548 -2.5359599986
H -1.2174029609 -4.0619001625 0.1836833962
H 1.6759518448 -3.4252841131 -1.1392586792
H 1.8361754172 -3.8437202330 -3.5877899842
H 0.1595740703 -3.9441254091 -3.0154506874
H 0.7168053954 -2.5118059282 -3.9041128986
H 2.9979198572 -1.2813901479 -1.0807750805
H 3.5010366132 -2.3570005574 -2.3999365627
H 2.5118983426 -0.9331371703 -2.7372604746