21

C 0.2431179405 1.5039863900 0.2398726944
C -0.1115073837 0.0377246576 -0.0417152859
C 0.4949328431 -0.4657625752 -1.3196699001
C 0.0529902563 -0.0732603226 -2.7494789740
C 0.4113888143 -1.5117911840 -3.1856921419
C -0.3049092086 -2.3498739460 -4.1653442769
N 1.1057307642 -1.9563924264 -4.3949799614
C 0.8516380152 -1.8569134849 -1.7786472974
N 1.8823793171 -0.9224845625 -1.3222494837
H 1.3274554510 1.6297997475 0.3184520685
H -0.1151345168 2.1620304855 -0.5595307860
H -0.2069092906 1.8447131024 1.1771080836
H 0.2441267791 -0.5930947150 0.7798570278
H -1.2018667603 -0.0795631316 -0.0889354857
H -1.0164105958 0.1411300046 -2.8363623087
H 0.6181342938 0.7449808088 -3.2115698176
H -0.4519575484 -3.4099884742 -3.9747965229
H -1.0841615517 -1.8869303296 -4.7662761376
H 1.1403164653 -1.1978616713 -5.0725781976
H 0.7624547287 -2.8160875150 -1.2807918179
H 2.4328789271 -0.5554967182 -2.0971246488