19

C -0.0881993386 1.5055098768 -0.1124540975
C -0.0550050185 0.0123238018 0.0782926763
O 1.2339459616 -0.6308391976 -0.0540384901
C 0.6050634299 -0.6265622439 1.2147402657
C 1.3098235537 -0.0666326840 2.4743005382
C 0.9432274181 -1.3941357720 3.1801871063
C 1.6542540052 -2.0730801350 4.3035404014
O -0.4885796253 -1.4942371507 3.1121869938
C 0.2769615184 -1.9080527597 1.9654208083
H 0.7321461249 1.9867086177 0.4260345010
H -0.0003159609 1.7615767597 -1.1734184979
H -1.0357791854 1.9132896884 0.2555769787
H -0.8624656624 -0.5399840607 -0.4058631911
H 2.3823861241 0.0505432814 2.2971837988
H 0.9009162167 0.8368658315 2.9331589773
H 1.5578867989 -1.4951109888 5.2296151176
H 1.2309478704 -3.0659781351 4.4765745959
H 2.7209161321 -2.1772453278 4.0812350928
H 0.1323220672 -2.9139344020 1.5873683142