15

C -0.0167054609 1.5171873420 0.0418327821
C 0.0000691582 0.0212837355 -0.0622117819
C -0.0503823990 -0.6643717156 -1.2404958973
C -0.0262885947 -2.0821303116 -1.1809540947
F -0.0766294928 -2.7291923022 -2.3448768806
C 0.0437319811 -2.7835492870 -0.0197622446
C 0.0983944419 -2.0875092181 1.2460904575
O 0.1627662163 -2.5793340395 2.3595210433
N 0.0704876667 -0.6777690499 1.1059094492
H 0.8883223510 1.8857130365 0.5381328737
H -0.0744730696 1.9722136106 -0.9478370197
H -0.8763612627 1.8596191989 0.6291207082
H -0.1067738157 -0.1562119589 -2.1920545517
H 0.0602366403 -3.8644100177 -0.0090645942
H 0.1083941899 -0.1846301831 1.9879216307