18

C 0.0092508334 1.5358930264 -0.0887890399
C -0.0156848949 0.0290032331 -0.0800038701
C -1.1743133248 -0.6760856571 -0.0382892128
N -2.4135725772 -0.0865607029 -0.0398343818
C -1.1474310745 -2.1800661915 -0.0058023575
C 0.1375597111 -2.6624581990 -0.6626614696
O 1.2847982962 -2.0322842390 -0.1026169540
C 1.2773228585 -0.6638111736 0.0063593263
O 2.3316181744 -0.1085831788 0.2060049272
H 1.0438638353 1.8795230252 -0.0975884627
H -0.5039278779 1.9485932999 -0.9664608638
H -0.4720929408 1.9630423019 0.8027812662
H -2.4727413999 0.8887643407 0.2078087781
H -3.1987414844 -0.6429255915 0.2570350042
H -1.2065436587 -2.5337868276 1.0324342566
H -2.0113699267 -2.5923092231 -0.5403563706
H 0.2852805392 -3.7353827234 -0.5187760289
H 0.0992845416 -2.4598152198 -1.7417332669