14

C -0.0129524126 1.4570311460 -0.0894729679
N -0.0080143155 0.0216717094 0.0595473343
N -0.0401909133 -0.7857234536 -1.0567138832
N -0.0266302889 -2.0315728695 -0.7234735167
C 0.0168099140 -2.0805158174 0.6492024208
N 0.0488177888 -3.0198763859 1.6004887661
N 0.0813172337 -2.2710503976 2.7173271825
C 0.0720004692 -0.9121622603 2.5400937692
C 0.0294308015 -0.7672339929 1.1663507657
H 0.8964887135 1.8978570817 0.3319837092
H -0.0556968500 1.6710315893 -1.1578683518
H -0.8854442060 1.8981950367 0.4034697702
H 0.1103645275 -2.7484772336 3.6041568847
H 0.0962280482 -0.2319725621 3.3737928368