21

C 0.0357815377 1.4301479737 0.0854913144
O -0.0239732060 0.0209977627 0.0208171793
C 0.7497996736 -0.5263598780 -1.0361970441
C 0.6369305966 -2.0434084939 -1.0142770988
C 1.0950790007 -2.6444931345 0.3189460996
O 0.1835240924 -2.4038296057 1.3708627817
C -0.6992373321 -2.6268120471 -1.5321061039
O -0.0387959337 -3.2720115546 -2.6445599757
C 1.2369617076 -2.7245057540 -2.2688035459
H 1.0628495176 1.7837925180 0.2608320903
H -0.3354229856 1.8876217817 -0.8433146113
H -0.5981168964 1.7470149450 0.9163307129
H 0.3964456240 -0.1282796628 -2.0014241999
H 1.8065218346 -0.2266501875 -0.9235580873
H 1.1707162108 -3.7331938658 0.2183358604
H 2.1067633606 -2.2703658777 0.5583910162
H -0.0085481674 -1.4568729389 1.3495148460
H -1.1835302778 -3.3424766048 -0.8598718336
H -1.4388960880 -1.8879946865 -1.8649309200
H 1.6349424006 -2.0409727591 -3.0319299265
H 1.9848911102 -3.5036251000 -2.0720828736