19

C -0.1284856148 1.6004294812 0.1777083274
C -0.0434111889 0.0871361701 0.1562070090
C -1.3897519720 -0.5748398098 -0.1546363750
O -1.7969428113 -0.2637235560 -1.4729930454
O 0.9101947204 -0.4101997933 -0.8620785195
C 1.5637835115 -1.2226457389 0.1165569637
C 2.2189258151 -0.3599337873 1.1638179597
C 0.7394518689 -0.6688065290 1.2432785172
O 0.1433192620 -1.3215756902 2.3045872626
H 0.8587162262 2.0591664484 0.2662896655
H -0.6023698844 1.9569279268 -0.7406890990
H -0.7434037098 1.9265463288 1.0240185911
H -1.3033459303 -1.6598591021 -0.0008317011
H -2.1668808249 -0.2019546387 0.5199133098
H -1.0533963718 -0.5157204252 -2.0357555849
H 1.8737263604 -2.2224996990 -0.1608185172
H 2.8076556281 -0.9139583656 1.8897012306
H 2.5972545994 0.6245238821 0.9055106313
H 0.2367859664 -0.7731597923 3.0913273145