21

C -0.1240065668 1.5392095114 -0.1547743155
C -0.0084347160 0.0288464602 0.0200162897
N -1.3118170090 -0.5991991561 -0.0488640974
C -1.4809471599 -1.9421357785 -0.0618673433
N -0.4856910638 -2.7569091619 -0.0621536008
C -2.9620177167 -2.3302145477 -0.0765836169
O -3.8099545759 -1.4647584816 -0.0267893055
C -3.3153658032 -3.8041834137 -0.1479970755
C -4.8213182439 -4.0559559737 -0.1728909960
H 0.8638001513 2.0042197816 -0.1007983721
H -0.5669331449 1.7914919861 -1.1235961336
H -0.7454767100 1.9833912818 0.6307906923
H 0.6295862711 -0.4074196136 -0.7574681801
H 0.4765042011 -0.2131519438 0.9765807789
H -2.1533813250 -0.0486151310 0.0213053536
H -0.8051045604 -3.7210661370 -0.0942612809
H -2.8277254819 -4.2276413172 -1.0361137225
H -2.8454082759 -4.3067228237 0.7079896505
H -5.0292052545 -5.1279756054 -0.2229808522
H -5.2997828118 -3.6505045925 0.7219815392
H -5.2840287839 -3.5718973836 -1.0365858218