20

C -0.2016284833 1.5394132994 -0.1849051608
C -0.0418734868 0.0151984913 -0.0212272315
C -1.3499159979 -0.6476868760 0.0017971485
N -2.3751691061 -1.1812425507 0.0239729984
C 0.8547041043 -0.5616037265 -1.1309866071
C 0.9214397472 -2.0839983679 -1.3630820780
C 0.4882995845 -1.7382449568 -2.8077522449
C -0.7734122460 -2.3616888675 -3.3635875181
O 0.3088916602 -0.3385031977 -2.4411547425
H 0.7774932906 2.0216632590 -0.1131351209
H -0.6300526050 1.7647880644 -1.1636467508
H -0.8508320817 1.9533083735 0.5897318105
H 0.4453306960 -0.1992675035 0.9396660914
H 1.8419555399 -0.0872404948 -1.0276334936
H 1.9019716031 -2.5457269056 -1.2426017132
H 0.1753678609 -2.6560073036 -0.8075054656
H 1.3110617672 -1.8255087395 -3.5301614567
H -1.5933284186 -2.2897258003 -2.6440549196
H -1.0734380266 -1.8543302180 -4.2859961201
H -0.5992589120 -3.4178779993 -3.5976793654