19

C 0.2119040592 1.2851372104 -0.0831063291
C -0.1082572618 -0.1641783674 0.3002423929
N -1.5115833329 -0.4761507682 0.0771840110
C -1.9246577639 -0.9779003124 -0.9949666317
C -3.3115355746 -1.4172860075 -1.4495030106
C -2.6438946514 -1.9005430147 -2.7680288392
N -1.3590217420 -1.4123715728 -2.2357999573
C -0.1718110540 -1.3191235049 -2.9141728891
O -0.0275611160 -1.7332007844 -4.0422480667
H 1.2471184209 1.5302316528 0.1731547243
H 0.0770520019 1.4514518309 -1.1569114856
H -0.4505931479 1.9731577387 0.4492065090
H 0.5640807207 -0.8535611418 -0.2324144890
H 0.0885642913 -0.3001273637 1.3691864607
H -3.7604750575 -2.1954448430 -0.8305221585
H -4.0206824962 -0.5959782054 -1.5663262306
H -2.6522851525 -2.9792223153 -2.9388845894
H -2.9473954849 -1.3841729378 -3.6809572428
H 0.6278375917 -0.8268867434 -2.3356842681