17

O -0.7781865570 1.5840560929 0.7409375383
C -0.0384872938 1.5706179422 -0.2093250832
C 1.4458959364 1.8879726177 -0.1813361508
C 1.8589352660 2.9026079819 -1.2826949271
C 2.0364414539 4.2120098187 -0.5292517863
C 0.9537458685 4.6500007288 0.3888943750
N 2.1420671664 3.9676925974 0.9218556278
C 1.9459103840 2.5225719554 1.1397623289
H -0.4172923638 1.2885771365 -1.2199485527
H 1.9325545510 0.9215831772 -0.3699867056
H 2.8087367045 2.6085677780 -1.7391157520
H 1.1212564103 2.9686469120 -2.0904329853
H 2.7192557684 4.9465826292 -0.9470492208
H 0.8753739515 5.6973882794 0.6660287529
H 0.0048489670 4.1203411392 0.3802185366
H 1.2398181721 2.3474025962 1.9554830073
H 2.9135954446 2.0983663975 1.4235885370