19

C -0.0496132744 1.6658209155 -0.0520751291
C 0.0460194204 0.1363489986 -0.0356340607
O 0.7677405364 -0.3191505955 1.1002939892
C -1.3720135218 -0.5189429932 -0.0399423530
C -2.0949917250 -0.2276283663 1.1936989707
N -2.6067626328 0.0274053731 2.1987907819
C 0.7960810146 -0.3698850427 -1.2612281710
C 2.2744770695 -0.4384611707 -1.2765570911
N 1.4663160442 -1.6751556442 -1.2332937285
H 0.9532491533 2.0950585398 0.0056010086
H -0.5268182021 2.0221694930 -0.9706020498
H -0.6370464043 2.0322712990 0.7964932133
H 0.3252691524 0.0011154295 1.8947689834
H -1.9551881226 -0.1651715592 -0.8965531040
H -1.2615888843 -1.6032798185 -0.1391650316
H 0.2764316916 -0.1606691290 -2.1948152995
H 2.8119585533 -0.2716326256 -2.2054174954
H 2.7988927164 -0.1448638159 -0.3732923252
H 1.4640590954 -2.0076518279 -0.2703341183