25

C 0.0093753517 1.5162748249 -0.0456303548
C 0.0152232394 -0.0029175212 -0.0205037908
O 0.6726354606 -0.4717585075 -1.1786382575
C 0.7334774537 -1.8786695561 -1.2561621344
C 1.4592499384 -2.2672185339 -2.5373698808
C 1.5737221431 -3.7843096966 -2.7086559810
C 2.2996728023 -4.1744080881 -3.9888690593
O 2.3581885038 -5.5822797226 -4.0638619704
C 3.0143046402 -6.0428654865 -5.2187575893
H 1.0321142065 1.9034557596 -0.0661425876
H -0.5125873832 1.8832237698 -0.9340104176
H -0.4943193789 1.9113587522 0.8417068340
H 0.5274915708 -0.3726968652 0.8846666437
H -1.0167315683 -0.3930321321 0.0163180257
H 1.2610446357 -2.2901048105 -0.3774591433
H -0.2836126005 -2.3089767461 -1.2467467946
H 0.9235615979 -1.8269158288 -3.3872616477
H 2.4556088738 -1.8086712062 -2.5249983648
H 2.1089100236 -4.2245558564 -1.8584381778
H 0.5773105676 -4.2426847618 -2.7214751499
H 1.7733681206 -3.7645647104 -4.8691710910
H 3.3179476588 -3.7467170539 -3.9987622322
H 3.0085961434 -7.1353146403 -5.1869228874
H 2.5062786640 -5.7123167429 -6.1392812811
H 4.0591060150 -5.6949282291 -5.2640389903