21

C -0.2184903126 1.5265819213 0.1022338461
C 0.0824009971 0.0338151789 0.0394798491
C 0.7368284860 -0.5516118793 -1.2184129658
C 2.1769656252 -0.1289976460 -1.3394352948
C 1.8226110694 -1.2418326302 -0.3904558385
C 2.3846032963 -2.6315774921 -0.4769899311
C 1.2193822540 -0.6250404135 0.9112738973
C 2.2056891584 0.1863300828 1.7023936295
O 2.4679664224 1.3521358537 1.5235949719
H 0.6601033451 2.1347108100 -0.1151716641
H -1.0037550135 1.7742527448 -0.6213847761
H -0.5780173104 1.8143088747 1.0957700139
H -0.8379804861 -0.5197553547 0.2537930570
H 0.1929653806 -0.9502158003 -2.0677426246
H 2.6740433934 -0.4554670068 -2.2478162984
H 2.5126608471 0.8351981924 -0.9696196933
H 2.5351744929 -2.9233809749 -1.5216851569
H 3.3557787242 -2.7084095918 0.0266188568
H 1.7128797767 -3.3665342158 -0.0181155189
H 0.8222848729 -1.4141876788 1.5583328713
H 2.7562351106 -0.3967186543 2.4789708297