19

C 0.1087456941 1.5446651878 -0.0273304800
C -0.0076001429 0.0272480248 0.0623832207
O 0.5799529927 -0.5590041969 -1.1146311224
C 1.2568111084 -1.7475268138 -0.7247207618
C 2.6702650747 -1.9888183593 -1.2104243205
C 3.4536059449 -2.3607683074 -0.1929209540
C 2.7299804964 -2.3504962142 1.1527002156
C 1.4866890686 -1.6021111325 0.7626821554
C 0.7637309097 -0.5886342829 1.2174751598
H 1.1600513163 1.8465255703 -0.0346729301
H -0.3615131547 1.9013517024 -0.9480849743
H -0.3916293308 2.0217949456 0.8218051453
H -1.0772767647 -0.2466745858 0.1020559815
H 0.6246506880 -2.6181031642 -0.9851188156
H 2.9600863628 -1.9502046632 -2.2536157354
H 4.4897436303 -2.6694638157 -0.2818818202
H 2.5269151405 -3.3766348629 1.4931453837
H 3.3001523397 -1.8614010753 1.9497930406
H 0.7639419861 -0.1643817769 2.2140331017