18

C 0.0590746626 1.4971326412 -0.0723861434
C 0.0446123050 -0.0248774544 0.0476767977
O 0.6984901598 -0.4768231910 1.2251625417
C -1.3864283748 -0.5867747771 -0.0297284073
N -1.4311313533 -2.0465993104 0.0129454572
C -1.4168900143 -2.6780056459 1.2687588479
O -1.3630227250 -3.8572564599 1.4701977436
C -1.4340346444 -2.7455282830 -1.2012612237
O -1.4295851296 -3.9349832064 -1.3461505637
H 1.0836212042 1.8693490989 0.0035600367
H -0.3588744403 1.8271482386 -1.0286052820
H -0.5343767635 1.9588525773 0.7273005555
H 0.6239145486 -0.4619524112 -0.7750639911
H 0.3880713735 0.0550979785 1.9667534540
H -1.9808184199 -0.1913484095 0.8023020974
H -1.8708811217 -0.2494081255 -0.9511219607
H -1.4805637811 -1.9254561791 2.0768505034
H -1.4540119060 -2.0337625913 -2.0525686430