20

C 0.9129440142 1.3738150770 0.1322271867
C 0.2001932767 0.0356940586 0.0838256967
O 0.5829761963 -0.6161076531 -1.1389524258
C 0.0526333037 -1.8322735484 -1.3623276760
N -0.7429617313 -2.4064027344 -0.5624650621
C 0.5578084723 -2.3759376764 -2.6809028217
C 2.0132064642 -2.9076361275 -2.7019659377
C 1.3528027668 -4.2661888903 -3.0102137944
O 0.0276023203 -3.6835884058 -2.9614784537
H 1.9984775863 1.2398583294 0.1162460752
H 0.6315563368 1.9976675426 -0.7210171248
H 0.6449298460 1.9046932797 1.0505523249
H 0.4698139329 -0.6057286084 0.9294641501
H -0.8889474725 0.1478535737 0.1000181800
H -0.9987994451 -3.3105255283 -0.9621983322
H 0.3235761281 -1.6601439521 -3.4787475412
H 2.6441451864 -2.4988375735 -3.4911973216
H 2.5375041444 -2.8430111003 -1.7481690721
H 1.5695063859 -4.6866432899 -3.9985011065
H 1.4797037273 -5.0472504925 -2.2523960636