12

O -0.0463138839 -0.0072940434 -0.4741845932
C -0.0454915333 1.1658692174 -0.2319306375
O -1.1278682540 1.9923264709 -0.1794823665
N -0.7228852454 3.3160091317 0.1362850412
C 0.5574157364 3.2507085574 0.2573617605
N 1.0464837572 1.9889319169 0.0498381838
C 2.4068506222 1.4931569125 0.0714417823
C 3.0910402732 1.7789804943 1.3366935599
N 3.6370753151 2.0319577803 2.3218120980
H 1.1709926660 4.1033368154 0.5082667912
H 2.3340024640 0.4112639850 -0.0839818476
H 2.9928891025 1.9120985414 -0.7544685521