18

N -0.0322470621 1.3815639060 -0.1962973636
C -0.0318847516 0.1344068700 0.0201635510
C -1.3310369054 -0.6385605072 0.0925195502
C -1.6277399523 -1.1941052506 1.4763703367
O -2.0265881884 -2.5681110249 1.5536117566
C -0.7459030216 -2.2039974892 2.0717927449
C 0.4946575950 -2.6543255357 1.3223453906
C 1.4711326251 -1.4948940333 1.1087866261
O 1.1422704510 -0.5803266440 0.0535333023
H 0.9315945504 1.7218534167 -0.2376351630
H -2.1279616284 0.0338619204 -0.2278515385
H -1.2847453564 -1.4754168704 -0.6106888106
H -2.1796667387 -0.5306597166 2.1409801159
H -0.6794493309 -2.2468746910 3.1596471414
H 1.0115409381 -3.4374649016 1.8884890442
H 0.2141041329 -3.0884363322 0.3586855928
H 1.5971629419 -0.9309173195 2.0443185289
H 2.4521488513 -1.8797906770 0.8194599240