16

O -0.1281378669 1.2979698285 -0.0502976878
N 0.0271156490 -0.0985071080 -0.0006535789
C -1.0975230858 -0.6782189440 -0.0609870336
C -2.5614069295 -0.2426016805 -0.0352773642
C -2.9186717718 -1.7389528173 0.0772375233
C -2.3780508760 -2.5540374361 -1.0745687304
C -2.2369756191 -2.0699562328 -2.4734675727
O -2.4871985615 -2.7525226220 -3.4366729763
C -1.4342999960 -2.1249651839 0.0559565322
H 0.7821541582 1.6059104756 0.0153225040
H -2.7790281947 0.3108375850 0.8826633960
H -2.9542732112 0.3215740222 -0.8839312754
H -3.7007079497 -2.1452023130 0.7050717356
H -2.6473942946 -3.6053626474 -1.0261710508
H -1.8663067815 -1.0298309549 -2.5903025710
H -0.8863699489 -2.8705066013 0.6171404202