19

C -0.0803736448 1.5499650036 -0.0766917835
C 0.0338018177 0.0607268861 -0.0025230629
C 0.4756225352 -0.9836989141 -0.9596419129
C 1.2819062694 -1.7118583464 0.1097371418
C 0.5077415048 -0.8656378482 1.1869402757
C 1.2479392447 -0.3150690322 2.3806237799
N -0.6725372559 -1.6841003422 1.5355991565
C -1.3985304197 -1.6657805141 0.4915791330
N -0.9927381283 -0.8213927904 -0.5900466327
H 0.8861912762 2.0281068795 0.1139648618
H -0.4254589235 1.8532126631 -1.0690247435
H -0.7954296915 1.9273220741 0.6625393325
H 0.6837557299 -0.9288111367 -2.0215444409
H 1.2107322716 -2.7995422229 0.1979264687
H 2.3295909102 -1.4045302769 0.0492820908
H 2.1192383907 0.2700918985 2.0696247535
H 0.5949425834 0.3294820751 2.9781696387
H 1.5922066415 -1.1295761214 3.0247292437
H -2.3090165516 -2.2456112847 0.3761292598