15

C -0.0616635396 1.4949954724 0.1010136901
O 1.2444949940 1.9288566707 -0.2994489611
C 2.1193004146 0.8216307474 -0.6131754246
C 1.2794409417 -0.3938511267 -0.3862194262
C 0.0417578313 0.0101436605 0.0197400746
N -0.7376524341 -1.0899483159 0.2315564082
C 0.0180715819 -2.2142520180 -0.0448488021
C 1.2807242950 -1.8144528589 -0.4327087875
H -0.2779484084 1.8720974065 1.1131967497
H -0.8144878454 1.9272953962 -0.5771216554
H 2.4674559302 0.9322323450 -1.6504259006
H 3.0034693760 0.8772011694 0.0383512024
H -1.6955621360 -1.0996431847 0.5349800551
H -0.4074600849 -3.1998342947 0.0582208832
H 2.0881780537 -2.4745982092 -0.7104015657