23

C -0.0324376378 1.5871651895 -0.2199358833
C 0.0263620974 0.0637556232 -0.1208355878
C 1.0876596822 -0.8045376780 -0.8781906668
C 2.1459324573 -0.5211710218 0.2536566605
C 2.9669753221 0.7571709317 0.4144724928
C 0.7826920413 -0.7626733207 0.9865576816
C 0.6151287772 -1.9599403267 0.0282520858
C -0.4476698637 -2.9878196390 -0.1251033605
C 1.0092586268 -3.3897730877 0.1274282240
H 0.9104959905 2.0573010278 -0.4956555876
H -0.7629674879 1.8686065339 -0.9864743922
H -0.3710127144 2.0332862367 0.7225733043
H -0.9890827558 -0.3236122970 -0.2581212982
H 1.2647619303 -0.8468031961 -1.9558145439
H 2.8237610877 -1.3746861875 0.3635676115
H 2.3890913590 1.6279948791 0.7209048371
H 3.7316155296 0.5978615045 1.1828479917
H 3.4943638605 1.0093523510 -0.5130228780
H 0.5965706925 -0.7536124904 2.0634513724
H -1.1569189399 -3.1375234164 0.6835511374
H -0.8573968117 -3.1795207118 -1.1123820640
H 1.5540045714 -3.8447042038 -0.6945554535
H 1.2544335554 -3.8028879107 1.1013738567