20

C -0.1275204577 1.5905139470 -0.0002391354
C 0.0047658182 0.0826688328 -0.0629919590
C 0.7127782270 -0.6395204902 -1.2314593630
C 1.1659213968 -1.7044637299 -0.1805354057
C 2.6594629008 -1.3873955691 -0.4039169142
C 2.3489274457 -0.1167691089 0.3339093321
N 1.0208031018 -0.5714031691 0.8570770947
C 2.1941477171 -0.1673878598 -1.1905052425
C 2.9459556132 0.6870892314 -2.1637874703
H 0.8273561717 2.0846741121 -0.2027678288
H -0.8559064588 1.9462082766 -0.7368149535
H -0.4687674490 1.9048007627 0.9916376315
H -0.9587908600 -0.3978600988 0.1472012746
H 0.2520626473 -0.8597377219 -2.1953962808
H 0.6888439991 -2.6616410304 0.0208191454
H 3.5563026767 -1.9898024229 -0.4546445665
H 2.9960342048 0.5709840456 0.8637004971
H 2.9977306525 0.2245094289 -3.1561634305
H 2.4771915416 1.6713775574 -2.2809479312
H 3.9753416011 0.8500974166 -1.8249962839