12

F 0.0909606263 0.0651986046 0.0756786283
C -0.0829655367 1.3559117007 -0.0412893937
C -1.2362668728 1.9861081283 0.1932858390
C -1.2778777916 3.4338705966 0.0200271906
O -2.2418874530 4.1448352479 0.1930698838
N -0.0490979774 3.9763344326 -0.3843532297
C 1.1287206487 3.3094073120 -0.6207404829
N 2.1890300206 3.8824057145 -0.9829129659
O 1.0640506735 1.9292445452 -0.4274497140
H -2.1215632382 1.4537423102 0.5028859204
H -0.0197492855 4.9772471285 -0.5196984961
H 2.9496312561 3.2195227191 -1.1060671499