23

C -1.6232773990 -0.3386663947 0.2716890004
C -0.1627934168 0.0975743159 0.1215827924
C 0.7391994386 -0.3872178882 1.2650014112
C 0.8588128850 -1.9354109464 1.4014006374
O 0.8058558456 -2.5933123282 0.1403344781
C 2.2309588620 -2.1458106807 2.0818218066
C 3.0036343556 -0.9258288875 1.6415739773
C 2.2017284364 0.0455586558 1.1932918306
C 2.6188275190 1.4113733208 0.7434260940
H -2.0414886535 -0.0031862504 1.2279247274
H -2.2428021277 0.0824884631 -0.5262928655
H -1.7120195216 -1.4274244654 0.2240780073
H 0.2277385583 -0.2707658169 -0.8337276707
H -0.1128782067 1.1923372591 0.0763115031
H 0.3161519170 0.0024280301 2.2066684413
H 0.0339218604 -2.3645940061 1.9748360370
H 1.5611302611 -2.2833053643 -0.3729987916
H 2.1342890047 -2.1773247201 3.1768418964
H 2.6715399779 -3.1006933521 1.7751495322
H 4.0818184141 -0.8418223400 1.7334225725
H 3.7029960838 1.5384693951 0.8089288281
H 2.3158449405 1.6097971476 -0.2916287306
H 2.1491466853 2.1912300834 1.3572458152