19

O 0.0671331559 1.4160677034 -0.0401340390
C 0.0304738527 0.0075481110 0.0254847459
C 0.8360956690 -0.5652753508 1.1956852793
C 0.7470975947 -2.0957649153 1.2240188259
N -0.6553425261 -2.4960713695 1.2894584736
C -1.4116466449 -2.0805493521 0.1213906277
C -1.4274916397 -0.5386893947 0.0401087426
C -2.1704220517 0.0643085221 1.1496313530
N -2.7300739568 0.5923085267 2.0128931025
H -0.3156553994 1.7643292714 0.7748218802
H 0.4756515209 -0.3342903447 -0.9169063819
H 1.8764937577 -0.2390120479 1.1054773959
H 0.4381600905 -0.1669843384 2.1369897599
H 1.2638042802 -2.5041482833 0.3334048562
H 1.2643984636 -2.4866416035 2.1052747859
H -0.7423009349 -3.4946633570 1.4326943913
H -0.9872324646 -2.4481030154 -0.8329794998
H -2.4331164562 -2.4638320622 0.1965040830
H -1.9157923208 -0.2255780998 -0.8892328324