17

O 0.2608776699 1.0942180562 -0.3476834905
C -0.0213095597 -0.2252782883 0.0945756859
C -1.5369180942 -0.5362428707 0.0682816425
C -2.1750342924 -0.0030222709 -1.2654436608
O -1.3845393513 -0.2881023972 -2.3893988179
C -1.7639528665 -2.0537192362 0.1425608552
O -0.8865827385 -2.8727195298 0.1327314863
C -2.2349047565 0.0819425445 1.1905503308
C -2.8140975603 0.6076181833 2.1049457812
H -0.1208552571 1.7101852278 0.2877763372
H 0.4785392805 -0.8998599630 -0.6009384738
H 0.3802074797 -0.4157618580 1.0963515706
H -3.1473985253 -0.4841365377 -1.4154892184
H -2.3527416311 1.0719096840 -1.1452399428
H -0.6307171722 0.3135801011 -2.3499164814
H -2.8369285523 -2.3402317770 0.2001759685
H -3.3245689927 1.0622736019 2.9183503374