19

C -0.0396883339 1.5585893550 -0.0295378888
C 1.4941971298 1.8789378854 -0.0197415836
C 2.0208001045 0.4568139575 0.0365340986
C 3.3995947998 -0.1660004170 0.0767791173
O 3.0450190175 -1.5669512390 0.1203669351
C 1.6152213395 -1.5400041603 0.1000093671
C 1.1131850410 -0.3964363287 1.0020919265
C -0.0140223620 0.0173068389 0.0240727368
C 1.1389197826 -0.4618792521 -0.8921190524
H -0.5594288213 1.9919297200 0.8310087107
H -0.5354347335 1.9309894804 -0.9317637782
H 1.8174385605 2.4153000285 -0.9176035476
H 1.7934258868 2.4762285295 0.8474578055
H 4.0057342401 0.0381798058 -0.8145190496
H 3.9815329835 0.0997623245 0.9679713628
H 1.2261940022 -2.5567231611 0.1298493110
H 1.1168116844 -0.3418309463 2.0929258073
H -0.9708813090 -0.5077244859 0.0292113589
H 1.1721859174 -0.4826558452 -1.9836206872