19

C 0.0507064146 1.4983330644 -0.0251886896
N 1.2702003327 0.6701968348 0.0492436097
C -0.0511839998 0.0202392434 0.0049442246
C -0.4500350635 -0.7165685310 1.2699725265
O -0.0235649683 -2.0683295115 1.2122153051
C -0.7209443451 -2.8272209807 0.2405522878
C -0.7767863684 -2.1622926190 -1.1311166752
N -1.8461625333 -1.1614934699 -1.3130212473
C -0.4435696991 -0.7156573719 -1.2403663399
H -0.1612028207 2.0794205065 0.8689183553
H -0.1879077283 2.0058857888 -0.9570181059
H 1.7196834711 0.6256264926 -0.8633617872
H 0.0532293753 -0.2660737270 2.1281962743
H -1.5399578213 -0.6576216970 1.4120016409
H -0.1866815965 -3.7795819736 0.1727852928
H -1.7504022547 -3.0304797901 0.5767130016
H -0.5371861095 -2.8010884752 -1.9776165336
H -2.1667366749 -1.1520645571 -2.2774716341
H 0.0280364396 -0.3628546065 -2.1572984257