21

C -0.1255828995 1.5001020158 0.0364921393
C 0.0892827986 -0.0118678224 0.0809340586
C 1.0076285507 -0.5884246417 -1.0657422534
C 2.0421516375 -1.3420751988 -0.2139374312
C 1.1204964046 -2.0375212153 0.8514167808
O 1.7159727659 -2.9099179317 1.7671838742
C 0.8761737900 -0.5501730675 1.2944372535
C 2.3486363972 -0.2765111045 0.8821761936
O 3.2554096927 -0.6768271349 1.9062455933
H 0.8188255365 2.0517834358 0.0888412966
H -0.6251314325 1.7928117210 -0.8936606972
H -0.7524672291 1.8344577505 0.8701624657
H -0.8926823436 -0.4971495354 0.0507177725
H 0.4662484372 -1.2496173740 -1.7478094249
H 1.4599022239 0.2103272220 -1.6633006541
H 2.8389462060 -1.8858306668 -0.7256265260
H 0.2458016972 -2.5591720493 0.4488020057
H 2.4514966977 -2.4242624444 2.1666113782
H 0.5159232494 -0.3027880132 2.2938730011
H 2.6043777310 0.7334547877 0.5372685948
H 4.1345675886 -0.7342025227 1.5169148288