21

C -0.1600863906 1.5032617498 -0.0365656691
C -0.0197174688 -0.0102563053 -0.0295204894
C 1.2944778514 -0.5960878611 -0.6444033538
O 1.9836681617 -0.2197141357 0.5941681761
C 0.7177208217 -0.6439928951 1.2147488067
C 0.5249320367 -0.2080205438 2.6399199876
C 0.6873634272 -2.1497637707 0.8325691385
C 0.2912799797 -3.2762815025 1.7204921031
C 1.0869045748 -2.1012810703 -0.4420895110
H 0.7781365701 1.9818462684 0.2536638136
H -0.4369659440 1.8608920521 -1.0344759548
H -0.9460937388 1.8286356242 0.6544076233
H -0.9457385472 -0.5073008085 -0.3331513513
H 1.7593428852 -0.2162353101 -1.5539665384
H 0.5503293095 0.8815598365 2.7236004600
H -0.4373558573 -0.5613603515 3.0249061754
H 1.3174500263 -0.6163927246 3.2754259711
H -0.7375914720 -3.1596132775 2.0853866650
H 0.3552055880 -4.2351404617 1.1985562933
H 0.9314030050 -3.3317796057 2.6102232557
H 1.2201847715 -2.8907165070 -1.1678578618