16

C 0.0394306593 1.3896480505 -0.0705153689
O 0.0463497916 -0.0354208241 0.0100681276
C -1.2016708771 -0.5915945321 0.0438098178
C -2.1947006555 -0.5293410886 1.2229699013
N -2.7380045428 -1.8704469300 0.7748705400
C -2.7871612267 -1.8321899174 -0.7294478497
C -1.5116694532 -2.1422301796 0.0191862776
C -2.1645411435 -0.5477328554 -1.1815234601
O -2.1972952110 0.1075672156 -2.1853517148
H 1.0840808915 1.7017436600 -0.1102335182
H -0.4828934040 1.7296871926 -0.9701418972
H -0.4322817276 1.8350948916 0.8166365651
H -1.7278655893 -0.6711869757 2.2002354559
H -2.9278402480 0.2834708514 1.2569118944
H -3.4778334319 -2.5029160297 -1.2217035424
H -0.9127867419 -3.0414851992 0.0391729216