17

C -0.5531698170 1.3818167120 -0.0964709784
C -0.1143167591 -0.0596998316 -0.0103366301
C 1.2481700904 -0.4694317312 -0.4578800271
N 0.8899845145 -0.5125919613 0.9623344327
C 1.4766085507 0.3539713089 1.8738104310
C 0.9732986488 1.1301426731 2.8993940156
N 2.0153684419 1.6933950047 3.5727174011
N 3.1374830226 1.3157579187 3.0407062118
N 2.8198777611 0.5022345097 2.0000496805
H 0.2904428156 2.0697223998 -0.0012773192
H -1.0365837388 1.5602557460 -1.0622791632
H -1.2755848380 1.6241598599 0.6893204535
H -0.9143980980 -0.7871434283 -0.1311050312
H 1.4186169093 -1.4353816176 -0.9240952588
H 1.9148266923 0.3264034601 -0.7859579623
H -0.0517189883 1.3023370756 3.1813766980
H 3.5519172518 0.0637051116 1.4652352662