19

O 0.0391629855 1.4298257232 0.2293568780
C 0.0004132479 0.0450471207 0.0348522437
C -0.5306277822 -0.8447596739 1.1313026190
C -1.3599093870 -0.5758992465 -0.1127933195
C -2.6029600920 0.2680232697 -0.0358893323
C -3.1939571314 0.7950823995 -1.3850831328
C -4.5696578345 0.2975806607 -0.9168345273
O -5.6924130213 0.4893568546 -1.2837558839
C -3.9523504024 -0.4636888283 0.2678781126
H 0.7433056040 1.6225771424 0.8569191914
H 0.8011749482 -0.3474861323 -0.5918209327
H -0.0923637789 -1.8264092422 1.2746603460
H -0.8475450067 -0.3494562995 2.0437455369
H -1.4221616814 -1.3952238227 -0.8265032967
H -2.4431543619 1.0972616344 0.6548967603
H -3.1063505315 1.8613395795 -1.6061446682
H -2.8410465084 0.2309057904 -2.2565620935
H -3.9091319933 -1.5411769952 0.0704202996
H -4.4211566827 -0.3097558643 1.2430627196