16

O 0.0289324529 0.1871214707 0.5910633396
C 0.0379294689 1.3301021650 0.2256053219
C -1.1534918910 2.2907586625 0.2103632505
O -0.6940334296 3.4874604504 -0.3899847850
C 0.7276986464 3.5745060182 -0.2675240166
C 1.1345826023 4.2972902026 1.0380767310
C 0.5732713765 5.6420260079 1.1315446205
N 0.1409091505 6.7108446887 1.2005683434
C 1.2332799352 2.1275477635 -0.3055297634
H -1.9847316106 1.8860398370 -0.3751857766
H -1.5102626916 2.4462486019 1.2403309477
H 1.0713901498 4.1673942573 -1.1181238011
H 0.8118871379 3.7160583894 1.9102190726
H 2.2272892991 4.3661005828 1.0892821596
H 2.1325486821 1.9289210950 0.2809944708
H 1.4262202411 1.8077165970 -1.3352814949