18

C 0.2494998104 1.5756202461 0.1056382845
C 0.0538595478 0.0435265458 0.0211079074
C 0.6965679088 -0.6386138280 1.2501701625
C -1.4659643120 -0.3268457439 -0.0645586896
C -2.2781937310 0.1849858569 1.1057585181
O -2.6527902390 -0.5011042654 2.0231023233
C 0.6966417047 -0.4532713245 -1.1994634805
C 1.2212460498 -0.8606760495 -2.2015978569
H 1.3143721094 1.8201883949 0.0741531356
H -0.2382649872 2.0838320078 -0.7311627265
H -0.1598714884 1.9707490700 1.0403977784
H 0.2157893764 -0.3019911748 2.1732239171
H 0.5956394585 -1.7252889468 1.1901142910
H 1.7613041649 -0.3965207944 1.3038257612
H -1.8739243684 0.1014284861 -0.9875814318
H -1.5689782584 -1.4142133388 -0.1040586862
H -2.5232033966 1.2708862653 1.0759821278
H 1.6884246302 -1.2210512467 -3.0846462656