21

C -0.0785361188 1.5485932360 0.0741224819
C 0.0908446603 0.0359269044 -0.0097273102
O -1.1769778830 -0.6287523556 -0.0890670061
C 1.0163554661 -0.4446661151 -1.1496319832
C 1.3921503773 -1.8860979534 -0.7512538921
C 1.5291534767 -1.8378449649 0.7789056686
C 2.7537080583 -1.0768468950 1.3271850091
O 1.9568002115 0.0917419742 1.6263728108
C 0.7396543573 -0.5830851931 1.2384770358
H 0.8757054794 2.0270974120 0.3073557269
H -0.4457797190 1.9539064772 -0.8763429246
H -0.7998647515 1.8050493820 0.8556741626
H -1.6099180050 -0.3380275397 -0.8985947358
H 0.5265769317 -0.3801381342 -2.1271050309
H 1.9048713425 0.1948188275 -1.1890966726
H 0.5781471142 -2.5653026391 -1.0202358338
H 2.3011893898 -2.2435232136 -1.2454933056
H 1.3116778513 -2.7873696880 1.2676408211
H 3.1984342704 -1.5019099394 2.2357137038
H 3.5543397797 -0.8578598742 0.6088157120
H 0.0289426808 -0.6698525981 2.0663485525