15

C -0.0686251817 1.2913304177 -0.0856937177
O 0.0315695375 -0.1327993378 0.0432282455
C 0.6848976251 -0.5664940961 1.1486815167
O 1.1596744128 0.1630709056 1.9830455766
C 0.7309852192 -2.0311217166 1.1835757418
C 1.2901336868 -2.8901697197 2.1147586599
C 1.0202696776 -4.1747253647 1.6144764166
N 0.3455503911 -4.1272636809 0.4607973412
N 0.1832623547 -2.8238666935 0.2223294043
H 0.9251446925 1.7432043127 -0.1331866570
H -0.6139459476 1.4676790937 -1.0126606218
H -0.6083834275 1.7165333640 0.7639369081
H 1.8102752638 -2.6045781625 3.0135646189
H 1.2842684602 -5.1321649997 2.0376652095
H -0.3038084147 -2.5124956920 -0.6019465827