19

C 0.0107111702 1.5355495488 -0.0660018039
C -0.0145820807 0.0074715229 0.0019129316
C -1.4451301445 -0.5350754800 -0.0488133964
N 0.8777131420 -0.4611991922 -1.1216939204
C 1.5905003238 -1.3790345179 -0.6088373086
N 2.9876472294 -1.0258544914 -0.2818354028
C 2.3109519059 -0.9730556492 1.1291661435
C 1.2229776762 -1.9196551204 0.8182425617
C 0.7735673908 -0.5610214127 1.2195282244
H 1.0404632523 1.8977995676 -0.1016436471
H -0.5098088428 1.8932047454 -0.9587006483
H -0.4824535287 1.9559827925 0.8183540282
H -1.9165708499 -0.2430106585 -0.9918039390
H -1.4549298874 -1.6268256077 0.0154332026
H -2.0507607755 -0.1367195489 0.7724689436
H 3.5572514864 -1.8759372841 -0.1969649595
H 2.9617642731 -0.9025231767 1.9955170782
H 0.9728949535 -2.9133149189 1.1649039641
H 0.4367433859 -0.3539305385 2.2339313283