21

O 0.5859990887 0.9821061456 -0.5603865810
C 0.1235646249 -0.2617294573 -0.0572472645
C 0.2178513236 -0.3745688028 1.5007934268
O 0.6253220474 0.8172060862 2.1248994547
C -1.3106162885 -0.6974955755 1.5649736223
C -2.2089585532 0.3839272541 2.1834115148
C -2.3558680863 1.4595888308 1.0889378098
C -2.3592152443 0.6591174075 -0.2299834034
C -1.4116340109 -0.5319284600 0.0048199336
H -0.1729058290 1.5460933332 -0.7388819727
H 0.6771105923 -1.0463183326 -0.5812619571
H 0.8484333638 -1.2051296580 1.8425403656
H 0.9539497846 1.3780606720 1.4055883082
H -1.5210098911 -1.6938513491 1.9586040739
H -3.1883806364 -0.0479648064 2.4194111811
H -1.7876373492 0.7890060574 3.1060921694
H -3.2538734669 2.0724238912 1.2077443329
H -1.4938574982 2.1332140091 1.1305761346
H -3.3639156962 0.2687044791 -0.4263080736
H -2.1015814943 1.2619656731 -1.1114022493
H -1.7113626607 -1.4083893676 -0.5727759259