18

C -0.6592171439 1.5444747365 -0.1880480162
C 0.2771552691 0.3774580116 0.1745540663
C 0.9922708012 -0.1661077170 -0.9746632185
C 1.5667382595 -0.6033270923 -1.9398798773
C 2.2719767576 -1.1285711128 -3.0942542631
C 3.6948765318 -1.7159311545 -2.8755239408
C 3.1031496383 -3.0015231638 -3.4817484911
O 1.7832174205 -2.4218822811 -3.5476882287
H -0.0962856960 2.3721395662 -0.6279736742
H -1.4124754329 1.2259653178 -0.9134733247
H -1.1729256168 1.9127467370 0.7049741213
H 1.0024862397 0.7079703135 0.9293835429
H -0.3019827869 -0.4257393607 0.6481256316
H 2.2302827708 -0.4015313988 -3.9173025016
H 4.4940559855 -1.2319344187 -3.4379159669
H 3.9777974425 -1.7928849472 -1.8258465496
H 3.4823863783 -3.2649652760 -4.4773904910
H 3.1256127915 -3.8942832398 -2.8464436085