21

C 0.1279066689 1.5699028535 0.1115696860
C 0.0419990014 0.0443606988 0.0979255902
O 0.7154466030 -0.5148659252 1.2209204296
C -1.4144140041 -0.4753516470 0.0217182188
C -2.1547971294 0.1215861543 -1.1551410837
O -3.2709773053 0.5773883262 -1.1107716372
C -1.4280389315 -2.0297587772 -0.0773986951
C -2.8117203832 -2.6301540436 0.1522583092
O -0.8584671208 -2.4659481895 -1.3122514206
H 1.1707799286 1.8847003462 0.2026510266
H -0.2855897392 2.0082287551 -0.8028253828
H -0.4346715053 1.9853109690 0.9574347035
H 0.5818427009 -0.3503146773 -0.7697789466
H 0.3585956940 -0.0989304263 2.0140790369
H -1.9549816462 -0.1792600209 0.9300248865
H -1.5948156501 0.0909417368 -2.1180095168
H -0.7379694415 -2.3854832476 0.6934673684
H -3.5406923723 -2.2503178624 -0.5735146538
H -2.7635689094 -3.7191310915 0.0621186637
H -3.1869006911 -2.3828426421 1.1499510260
H -1.5594593774 -2.5076893894 -1.9710563187