17

C -1.7866817185 0.7227537361 -0.9840115003
N -0.8014045388 -0.2988726678 -0.6395918584
C 0.4567866826 -0.3654908192 -1.3638646274
C 0.8140058063 0.5805887103 -2.4894360007
O 0.0601481991 0.3203139944 -3.6674097196
C 0.4303259984 0.0826499543 0.0764026213
C 0.7163111038 1.4477670969 0.4255754428
C 0.9487295022 2.5799960786 0.7609913187
H -1.3869005448 1.7420033919 -1.0538996575
H -2.2315865802 0.4575618912 -1.9458442891
H -2.5673715331 0.7186219073 -0.2177087463
H 0.7907867752 -1.3910039234 -1.5383520414
H 0.6014178847 1.6157509594 -2.2177815579
H 1.8962121650 0.5119138139 -2.6813084480
H 0.2433927963 -0.5837921979 -3.9435977842
H 0.7298542736 -0.6374266833 0.8355338464
H 1.1605075784 3.5788901274 1.0529965916