17

O -0.2589551289 1.1539211136 1.2188267444
C -0.0669710201 0.2090238364 0.1702263728
C 0.9110798959 -0.9095629000 0.5913198924
C 0.0965844315 -1.7775651046 1.5622486439
C -1.3624910129 -1.5888296803 1.1293238939
O -2.3206748664 -2.1536010672 1.5837157317
C -1.4060517376 -0.5294810986 0.0072748195
C -2.6456720622 0.3457288564 0.0579076758
O -3.3666748248 0.5292460267 -0.8876804703
H 0.5723572048 1.6147916269 1.3690878733
H 0.2415388991 0.7096339784 -0.7556931752
H 1.2084884719 -1.4839143411 -0.2931952857
H 1.8230426318 -0.4969622679 1.0332362240
H 0.3618762927 -2.8372949224 1.5633532123
H 0.1794009210 -1.4214371959 2.5944107427
H -1.4109674222 -1.0581400037 -0.9536614957
H -2.8437087534 0.8116864635 1.0422172701