26

C 1.2498252566 1.7449140806 -1.5155418455
C 0.8092790177 0.2801193475 -1.5733406368
C 1.9868025060 -0.7045900274 -1.5300188704
C 1.5170636412 -2.1476456815 -1.5099294968
C 1.3279694196 -2.9758829043 -2.7441732720
C 1.5847037413 -2.4690019411 -4.1509345060
C 1.8790832232 -3.6069538725 -5.1378855426
N 2.3848724147 -3.2977101287 -1.7767197196
C 3.7888405590 -3.1014967820 -2.1023445222
H 1.8080764181 1.9540680864 -0.5961118392
H 1.9006233596 1.9977562677 -2.3601774994
H 0.3904471931 2.4220784445 -1.5442243074
H 0.1314261320 0.0675905972 -0.7362246382
H 0.2262365440 0.1038490491 -2.4860396331
H 2.6516591708 -0.5071167380 -2.3762337948
H 2.5812703709 -0.5128182029 -0.6254744312
H 0.8252560603 -2.3378637744 -0.6865413248
H 0.5183313945 -3.7085461052 -2.7199293869
H 0.6905391676 -1.9251116831 -4.4835183917
H 2.4025132331 -1.7438463167 -4.1740526716
H 2.0078744828 -3.2246739909 -6.1552650770
H 2.7911197297 -4.1460764425 -4.8628874605
H 1.0594798897 -4.3334433040 -5.1543079089
H 4.0201622569 -2.2600948448 -2.7711254146
H 4.3460082715 -2.9480824736 -1.1720177149
H 4.1716972361 -4.0148908791 -2.5697585442