19

C -0.0450607740 1.4430243034 0.0413996769
O -0.0220945812 0.0358412846 0.0799562095
C 0.5810117389 -0.5103295409 -1.0560609203
C 0.5753353003 -2.0224925003 -0.9561873811
N 1.1577361118 -2.7176910157 -2.0433159425
C 1.7373518025 -2.2366025480 -3.1942953964
O 1.8643508498 -1.0772589288 -3.5082020638
N 0.0745998762 -2.6104796026 0.0481825331
C 0.0800921363 -4.0594832085 0.1228475401
H 0.9696292348 1.8698411101 -0.0053759143
H -0.6137684738 1.8215905554 -0.8230161177
H -0.5296356669 1.7820867032 0.9597908009
H 0.0630937509 -0.2079743681 -1.9807225754
H 1.6191626458 -0.1607673084 -1.1773205407
H 1.1456735215 -3.7234107751 -1.9612137975
H 2.0906470038 -3.0725706431 -3.8296935122
H -0.3920366149 -4.3716041720 1.0570752548
H -0.4838448025 -4.5284330690 -0.6993679636
H 1.0982537905 -4.4805455961 0.1161792501