15

N -0.0978849259 1.4541286988 -0.1980906569
C -0.0198022823 0.0552315105 -0.0811444446
C -0.3021474296 -0.8462678169 -1.2703161974
C -1.1504072886 -1.0349604131 -0.0526671041
N -0.3207903659 -1.8331183554 0.9043919815
C 0.5650750547 -0.7438327364 1.0818710835
O 1.3643702121 -0.4974485835 1.9390936026
C -2.5499861110 -0.8985216567 0.0747651989
C -3.7420727362 -0.7886004298 0.2025305911
H -0.0498431396 1.9070177473 0.7079331435
H 0.6442832056 1.8268728384 -0.7805303560
H -0.7714219418 -0.3108433758 -2.0899745173
H 0.3876565242 -1.6382787859 -1.5450499171
H -0.7524903878 -2.2550311291 1.7174463510
H -4.7941978281 -0.6911412525 0.3076261413