17

C -1.1032571492 1.0826637740 -0.6407583608
C -0.3793563359 -0.1323125558 -0.2999794182
C 0.2238281924 -1.1342299035 -0.0130164357
C 0.9177055136 -2.3775637657 0.3077303226
O 0.1182409193 -3.2826792260 1.0590007854
C 1.4612980903 -3.0846492686 -0.9673076296
N 2.2726849721 -4.2202242814 -0.5450411045
C 0.3289112038 -3.4588262484 -1.8450857242
N -0.5511754363 -3.8075459338 -2.5094298390
H -0.4184037952 1.9302309140 -0.7509837114
H -1.6486195053 0.9666975731 -1.5832140068
H -1.8287620684 1.3398281576 0.1382819831
H 1.7968695137 -2.1838853148 0.9315789165
H -0.7554374015 -3.3062785869 0.6494363258
H 2.0915055044 -2.3722530406 -1.5103265489
H 1.7008931073 -4.8201521181 0.0438824897
H 2.5676702650 -4.7684876950 -1.3463411341