20

C -0.1027237526 1.4782462913 -0.0599630445
C 0.0650849352 -0.0233673419 -0.0075987770
C 1.4289153510 -0.6551595018 -0.1821636937
C 0.7499279971 -0.6904638372 1.1542224078
C 1.1545263815 -0.0401916584 2.4841608414
C 0.2946343113 -1.1023915158 3.2255489885
C 0.2233416466 -1.9388843379 1.9040851159
C -1.0645500645 -2.4820655051 1.5073566532
N -2.0949890980 -2.8898500298 1.1754939390
H 0.7637535689 1.9929651912 0.3677697572
H -0.2110307351 1.8210191979 -1.0943947781
H -0.9917425597 1.8021109460 0.4925107094
H -0.7653519942 -0.5851375259 -0.4294123055
H 1.5053137230 -1.5804427281 -0.7450333249
H 2.2843981106 0.0058755818 -0.2914612579
H 2.2232790526 -0.1378483721 2.6981800447
H 0.8652928181 1.0027362770 2.6314009707
H 0.7437012409 -1.6080258265 4.0813533084
H -0.6870778226 -0.7209245853 3.5104452069
H 0.9629189099 -2.7465265396 1.9045920984