23

C 0.2943880166 1.5740507969 -0.1358942508
C 0.0062742467 0.0884053295 0.0890639565
O 0.4592031801 -0.6653377414 -1.0350690911
C 1.3168779880 -1.7502063190 -0.6263161172
C 0.6345159157 -3.0810766595 -0.9815528286
C 2.6551505874 -1.6129142249 -1.3655015882
C 1.4445931465 -1.5520796134 0.8644904433
C 0.7089248509 -0.5261043257 1.2809964018
C 0.5251436248 -0.0107062949 2.6722945008
H 1.3726419123 1.7543442883 -0.1848739656
H -0.1537095765 1.8990209171 -1.0789340173
H -0.1289960362 2.1824291073 0.6703471646
H -1.0869687963 -0.0375601329 0.1911799424
H 0.4672256618 -3.1410959809 -2.0614076968
H 1.2540207028 -3.9331757372 -0.6818525459
H -0.3314776925 -3.1622050372 -0.4760035421
H 3.1295943165 -0.6592262910 -1.1206114235
H 3.3389516105 -2.4231275080 -1.0908449861
H 2.4932239143 -1.6527706409 -2.4471148961
H 2.0555146030 -2.1963749760 1.4865099368
H 1.0754277024 -0.6145834616 3.3983166855
H 0.8682804834 1.0268210386 2.7650562762
H -0.5343268721 -0.0158551432 2.9590412815