20

C -0.3645141317 1.1125559988 -0.9348707984
C -0.0938440054 0.1298895736 0.2115704803
C -1.2978944427 -0.7389293649 0.4931095968
O -1.5757735756 -1.8084633101 -0.4215740905
C -1.2690559435 -2.1416324996 0.9398722482
C -0.0086965396 -2.9340028749 1.1805160016
O -0.2278945754 -4.3323187676 0.9931393188
C -0.2847760345 -4.7615446818 -0.2890352481
N -0.5144289793 -5.9789263726 -0.5265225742
H 0.5085729501 1.7425906316 -1.1264229209
H -0.6057941682 0.5727510758 -1.8552912440
H -1.2082988170 1.7703727325 -0.7006483513
H 0.7724001494 -0.4916177515 -0.0327848087
H 0.1556984019 0.6816755782 1.1270890082
H -2.1917758844 -0.1729748194 0.7682534973
H -2.1252333002 -2.5119241853 1.5063344523
H 0.8043443935 -2.5850278856 0.5353497876
H 0.3067333174 -2.8312408063 2.2229527968
H -0.1165833716 -3.9666011318 -1.0252997468
H -0.5117530932 -6.1392466092 -1.5317875550