16

N -0.0715635633 1.4540648233 0.0478225628
C -0.1169013839 0.0228867768 -0.0129286468
C -1.3740561869 -0.7767870832 0.0422472333
O -1.6624631405 -1.7446693543 0.9686723163
C -2.4793543923 -0.1618310377 -0.8096807918
N -1.5391424817 0.0085221218 -1.9707530047
C -0.5049712023 -0.7828956197 -1.2655713657
C 0.3059285062 -1.7622079908 -1.8885679617
N 0.9683315209 -2.5714093723 -2.3900489344
H 0.8693606531 1.7714258531 -0.1681826512
H -0.6697559643 1.8314855530 -0.6846511102
H 0.6922224491 -0.4588849918 0.5328856572
H -1.1347807688 -1.5961056234 1.7602570956
H -3.2636500041 -0.8986280475 -1.0044639117
H -2.9298547247 0.7699654185 -0.4524429454
H -1.8769137864 -0.4799734360 -2.7931913917