19

O -0.1285486374 1.4162333872 0.0656086333
C 0.0330210824 0.0061594198 0.0209044008
C -1.3621509823 -0.5999026157 0.0006590687
C -1.3673086855 -2.1127615872 -0.0568225583
O -0.3209860915 -2.7523892122 -0.0955878967
C -2.6801537320 -2.7848074449 -0.0285068272
C -2.8252488448 -4.1144672276 -0.7849529910
C -2.7276196417 -4.1604951247 0.6927072443
O -1.6221215690 -4.6505041562 1.3519550706
H 0.7457488212 1.8158237932 0.0837337344
H 0.5874507324 -0.3135771789 -0.8726805258
H 0.5858585030 -0.3697896153 0.8933546036
H -1.9250557230 -0.2784525228 0.8871418197
H -1.9275168459 -0.2112260478 -0.8570220243
H -3.5536152404 -2.1466408919 0.0416411738
H -3.7799280962 -4.2969520015 -1.2656045964
H -1.9497579170 -4.4230446432 -1.3469252379
H -3.6326824617 -4.3456897849 1.2622313884
H -0.8398085705 -4.2932056955 0.8956037501