23

C 0.2286272027 1.5505541595 -0.0324249220
C 0.0177542231 0.0575607989 0.2292623012
C -1.3216299458 -0.4638464189 -0.3078209936
C -1.5232582340 -1.9380464462 0.0016690188
O -1.5925413404 -2.2067975296 1.4245165766
C -2.7518870659 -3.0499947343 1.2518747466
C -2.8898123185 -2.6397163960 -0.2275625488
C -4.0942587054 -1.7711750435 -0.5406807261
O -5.2329717936 -2.6211933366 -0.4988363305
H 1.1910413628 1.8915701108 0.3617082957
H 0.2104961468 1.7741690179 -1.1053346089
H -0.5557794947 2.1507446580 0.4421874571
H 0.8361059790 -0.5159654591 -0.2258359508
H 0.0624903928 -0.1442394387 1.3052670792
H -2.1395568481 0.1214431940 0.1288899268
H -1.3686836143 -0.3216623649 -1.3966547771
H -0.6976856029 -2.5131164891 -0.4473743725
H -2.5159836696 -4.1085555528 1.4198953620
H -3.5783898167 -2.7604068307 1.9108711003
H -2.8626932459 -3.4675509946 -0.9399335718
H -4.1811190519 -0.9602579095 0.1987327412
H -3.9794449849 -1.3042124803 -1.5319953864
H -6.0178132545 -2.0809133145 -0.6283178869