14

C -0.0295430261 1.5726802160 0.0236621692
C 0.0229224867 0.0353084624 -0.0331017254
C 0.6973323127 -0.4796886145 -1.2151778256
C 1.2591871762 -0.8954637677 -2.2003070225
C 1.9266124861 -1.4110110802 -3.3698244063
O 2.0673652829 -2.5987837145 -3.5896906760
C 2.4255409581 -0.3948601107 -4.2788656975
C 2.8431788058 0.4392485813 -5.0394102389
H 0.9780174468 1.9962123402 0.0288320886
H -0.5625489983 1.9757638097 -0.8412147771
H -0.5461733796 1.8980618409 0.9308064737
H 0.5299959283 -0.3573514183 0.8578091947
H -0.9937629796 -0.3775586889 -0.0027789531
H 3.2148106899 1.1699498343 -5.7158976039