17

N -0.0742001810 1.4148852466 -0.0414981383
C -0.0002393582 -0.0256294340 0.0253771145
C 0.7703360531 -0.7369395051 -1.0656115794
C 0.0868254702 -1.7417380763 -1.6135897993
C -1.2830612541 -1.9290320823 -0.9984930219
C -1.2931433855 -0.9080274333 0.1355124505
O -0.7786445832 -1.4640412054 1.4002364577
C 0.2806443762 -0.5900116393 1.4103424166
N 1.1357108118 -0.3206888017 2.2869300119
H 0.5216501740 1.8217750593 0.6722998803
H 0.2363703505 1.7590090928 -0.9429373652
H 1.7765116710 -0.4312666834 -1.3298733108
H 0.4567398814 -2.3830575483 -2.4060663880
H -2.0880428413 -1.7543766771 -1.7234577670
H -1.4293622850 -2.9397956068 -0.5993260659
H -2.2317404281 -0.3846352203 0.3151345828
H 0.9998740680 -0.8732281253 3.1348783516