17

O 0.0345497349 1.3953091957 0.1073103167
C 0.0300944063 -0.0105001432 -0.0708184025
C -1.3647672455 -0.5625691194 -0.0031725159
O -2.1965087743 -0.0053305956 -0.9980592838
C -3.4788001766 -0.6250150479 -0.7464079239
C -3.1495903100 -1.5142455001 0.4391334793
C -1.7061269251 -2.0702485861 0.2221086298
O -1.3992602951 -1.9487141783 1.6491702901
C -2.1492456927 -0.7276956684 1.3397447017
H -0.5852625380 1.7535835187 -0.5383078542
H 0.4920393835 -0.2991563315 -1.0280966388
H 0.6178280470 -0.4472211780 0.7405650897
H -4.2254849834 0.1449498620 -0.5200884922
H -3.8007740320 -1.1783245230 -1.6360055523
H -3.9117345107 -2.1455055510 0.8911970685
H -1.3738354476 -2.9643495066 -0.3054047205
H -2.3364922606 -0.0163382674 2.1428344784