17

O -0.0631421678 1.3905860019 0.0123551713
C 0.0013464853 0.0000406971 0.0488004958
C -0.3600298589 -0.7851790940 -1.1767439198
C -1.2955994442 -0.7945722643 0.0392890759
C -1.0803199223 -1.9083159998 0.9881414923
C 0.1542793444 -1.8772362127 1.5274965406
C 0.9346105086 -0.6628378401 1.0667850797
C 0.6733344006 -2.8672458290 2.4657442195
O 1.7856137744 -2.8364668329 2.9486260174
H 0.6692146137 1.7119822231 -0.5250137302
H -0.7109389585 -0.2055915760 -2.0239798583
H 0.1786260289 -1.6953461349 -1.4202320087
H -2.2628886565 -0.3182268018 -0.0646895834
H -1.8277296005 -2.6649798921 1.2043714100
H 1.9088305862 -0.9330977260 0.6455852623
H 1.1278164583 0.0206698576 1.9021584823
H -0.0439951717 -3.6793250861 2.7230284834