21

C -0.3242582131 1.1981002662 -0.5495120749
O -0.4265035775 -0.2037017414 -0.5333673165
C -1.0983169383 -0.6875885978 0.6134809760
C -1.1676292359 -2.1882262471 0.5222331536
C -2.1501180716 -2.9640422511 1.3814610091
C -2.3450286355 -2.8603130409 -0.1154354447
O -3.3631092863 -2.0210354584 -0.5808134589
C -2.1449839999 -4.0668325267 -0.9937385965
O -3.3969874231 -4.7540527543 -1.0356117634
H 0.2085262190 1.4785931148 -1.4617314736
H -1.3141794507 1.6817728888 -0.5540781529
H 0.2367247288 1.5796861330 0.3196632591
H -0.5531631923 -0.3879768307 1.5258978265
H -2.1118790418 -0.2650692376 0.6758394221
H -0.2002186309 -2.6539623245 0.3524791908
H -1.8298200647 -3.9036526234 1.8183381979
H -2.8399005200 -2.3872471085 1.9882379059
H -4.1200075681 -2.6011460129 -0.7327657724
H -1.8482893221 -3.7357972936 -1.9990574394
H -1.3488158295 -4.7096574175 -0.5907049844
H -3.4082261264 -5.3183811765 -1.8133965235