19

C 0.0029182052 1.3609461772 0.0309103115
O -0.0631813445 -0.0509641402 -0.0863112034
C -1.3340487921 -0.5554767893 -0.0647789226
C -2.4926382918 -0.3639451110 -1.0831958347
C -2.2822976639 -0.8139914991 -2.5217040024
C -3.0575507388 -1.3713762511 -0.0547606186
C -1.6727119115 -2.0567309783 0.1843097362
O -1.7343440133 -1.9401264660 1.6346356154
C -2.3327574539 -0.7033683395 1.1509045739
H 1.0595473377 1.6328698264 -0.0023369059
H -0.5220479847 1.8619752552 -0.7938496294
H -0.4263058292 1.7041060753 0.9821402778
H -2.9728007211 0.6209213782 -1.0419111105
H -1.8094045382 -1.8006450515 -2.5703710248
H -3.2333436855 -0.8731328701 -3.0617137718
H -1.6380116961 -0.1129485548 -3.0628263653
H -4.0284104388 -1.8598093260 -0.0236200578
H -1.2414634297 -2.9573588480 -0.2492929817
H -2.7035343097 0.0240184426 1.8722409740