19

C 0.1528874066 1.4393279253 -0.2183814948
C 1.5832640963 1.5403392400 0.3557710051
C 1.3257893385 0.1069809466 0.8047374908
O 0.0275428810 0.0612268765 0.2097986975
C 2.1805683103 -1.1345627792 0.8326267651
C 3.6854020942 -0.9718896060 0.9792670450
C 3.8243110753 0.0112472774 2.1652397680
O 2.6184132634 -0.0660104303 2.9304854320
C 1.5936943749 -0.5722015064 2.1129366274
H -0.5934760568 2.0812375626 0.2628607008
H 0.0632061712 1.5322958736 -1.3060638395
H 2.3739971390 1.6660908428 -0.3871552815
H 1.7217092547 2.2608735629 1.1635805084
H 1.7762080137 -2.0299049138 0.3736484761
H 4.1303505947 -1.9434843309 1.2164181620
H 4.1824936498 -0.5878297734 0.0830765707
H 4.6591208662 -0.2289862430 2.8300795073
H 3.9684900480 1.0367098653 1.7994057539
H 0.7892268989 -1.0379707801 2.6712028957