16

C -0.9418554654 1.1222934046 0.1733398627
C 0.0188619356 -0.0423540540 -0.0304141591
C 0.9748911070 -0.0597334080 -1.2677849681
C 2.1836476145 -0.4479021316 -0.3697726481
O 2.3898962692 -1.8464434161 -0.4378254482
C 3.4223616690 0.3131259193 -0.5226036286
N 4.3982684529 0.9271096302 -0.6088450514
C 1.2653823818 -0.0919019466 0.8628803358
O 1.4937599277 0.0980809255 2.0169081701
H -0.4231852379 2.0823616043 0.0875018731
H -1.7424914305 1.0999432465 -0.5718907045
H -1.3976469019 1.0736111994 1.1662223622
H -0.5128658981 -0.9974636361 0.0557714095
H 0.7674924775 -0.7964159686 -2.0433497587
H 1.1000802723 0.9282847200 -1.7147107823
H 2.9656044663 -2.1021538487 0.2939382657