19

C -0.2755980861 1.4766016768 -0.2004930567
C 0.2500406790 0.0405258836 -0.1687686379
C 0.8355368646 -0.4627729214 -1.4696588538
N 0.6959514364 0.3044665289 -2.4861190778
O 1.2606704387 -0.2307207405 -3.6592771614
C 1.5105071773 -1.7846736143 -1.5206044584
C 2.6090629378 -2.1465422242 -0.5312731713
C 1.2886602522 -2.8513329043 -0.4665231131
H 0.5176317881 2.1808007211 -0.4641212031
H -1.0691654220 1.5891274154 -0.9423236301
H -0.6734504579 1.7522128072 0.7807647191
H 1.0095013630 -0.0559762282 0.6193767910
H -0.5588844393 -0.6414704076 0.1273491719
H 1.0436155517 0.4468559378 -4.3072107697
H 1.6678645051 -2.1429241666 -2.5286657109
H 3.4701962834 -2.6751406290 -0.9239170881
H 2.8441544396 -1.4329432732 0.2502777443
H 0.6347705424 -2.6262260110 0.3676999462
H 1.2284117960 -3.8773792005 -0.8116922700