19

C -0.1119019728 1.4907255474 0.0511295652
C 0.0412580147 -0.0100545000 -0.0048505240
O -0.1754970145 -0.6915824985 1.2437676852
C 1.1426055059 -0.6958405133 0.6873739909
C 1.6297594679 -2.0270672133 0.1490962269
O 0.5889730314 -2.7870939241 -0.4381495719
C -0.1304724226 -2.1377007449 -1.4456947778
C -1.5560024460 -1.7797316446 -1.1366680046
C -0.5060880173 -0.6928586749 -1.2331315755
H 0.3920793716 1.9672860474 -0.7965957142
H -1.1706621516 1.7691214230 0.0120936811
H 0.3134412394 1.8844206173 0.9776066013
H 1.8841271075 -0.1136915723 1.2370310047
H 2.4527389197 -1.8391315209 -0.5619098094
H 2.0236567238 -2.6487269580 0.9595177170
H 0.1286307492 -2.4677922369 -2.4504201705
H -2.2965215120 -1.8491694026 -1.9253529090
H -1.8960722016 -2.0345476280 -0.1401266772
H -0.5315081326 -0.0578691530 -2.1133627282