15

N 0.0089808160 1.4338340396 -0.0576883309
C -0.0121041733 0.0280294480 -0.0419150031
C -1.2249273990 -0.6732306827 -0.0225542322
C -1.2542731814 -2.0606347390 -0.0726741704
C -0.0664358008 -2.7874114922 -0.1441971129
O -0.1538248460 -4.1539996665 -0.1898347919
C 1.1466771347 -2.1022341566 -0.1634793162
C 1.1725600087 -0.7113031183 -0.1124631781
H 0.8573878091 1.8305741227 0.3225516916
H -0.7974828364 1.8552273824 0.3825960793
H -2.1591373397 -0.1213710239 0.0293946440
H -2.1963094392 -2.5970066409 -0.0552310421
H 0.7348229237 -4.5193457117 -0.2413211735
H 2.0815499150 -2.6547996712 -0.2160658622
H 2.1272975287 -0.1937776096 -0.1319682215