16

C -0.0447699309 1.5757039574 0.0057611827
C 0.0282780400 0.0590054876 0.0304067741
C -1.1318206641 -0.6207854178 -0.4793545142
C -2.0993951847 -1.1945831327 -0.9064964094
C 1.3234295675 -0.6955989070 -0.2393124522
O 2.5284095527 0.0446358526 -0.1176017994
C 2.5995441943 0.3920928938 1.1955814176
N 1.6782601752 0.0048136843 1.9829895484
C 0.7448409309 -0.7230094179 1.1597751347
H 0.8055019968 2.0343778043 0.5120903536
H -0.0682458412 1.9377241426 -1.0261150843
H -0.9563832415 1.9110600108 0.5073574278
H -2.9587128287 -1.6918828648 -1.2828456449
H 1.3810602559 -1.4969634503 -0.9635644612
H 3.4650922332 0.9853740264 1.4629249002
H 0.2287833546 -1.5584464794 1.6141964264