16

C -0.1954715935 1.3628756867 0.0590156202
O -0.1842615334 -0.0598941984 -0.1347267678
C 0.6759256828 -0.5076875028 -1.0588242964
O 1.3757897847 0.1954094944 -1.7431041091
C 0.6673564263 -2.0213408291 -1.1030286490
C 1.3874471643 -2.6700073433 -2.2971224208
O 2.3800478373 -3.2576080475 -1.3929893875
C 1.7881181507 -2.6790047234 -0.2969545774
N 2.0877416623 -2.6959612831 0.9172715603
H 0.7921056638 1.7128473317 0.3681279259
H -0.4799410858 1.8727838721 -0.8645568301
H -0.9301066895 1.5473433930 0.8420894298
H -0.3206334029 -2.4114559980 -0.8589092122
H 0.8370716365 -3.4472800287 -2.8300057562
H 1.8537434448 -1.9610504993 -2.9818258931
H 2.9287836918 -3.2494322242 1.0888523732