23

C -0.0158023535 1.5266470169 0.0193042416
C -0.0241329825 0.0171381131 -0.0082450904
C 0.3618129994 -0.8062937846 -1.2806215178
C -0.4195344476 -1.9413145459 -0.5555070940
C 0.4773523535 -2.2112674205 0.6708681537
C 0.7734495327 -0.7320890276 1.0867983253
C -1.3274832479 -0.8175697788 -0.0299303235
C -2.4951597803 -0.8466040119 0.8984597724
C -2.6630219425 -0.4071831270 -0.5512879022
H 1.0046041331 1.9148619099 -0.0778262823
H -0.6106204198 1.9478909377 -0.7980879974
H -0.4216490632 1.9096192994 0.9635793176
H -0.1497368218 -0.4479745735 -2.1765485618
H 1.4261807739 -0.9651890173 -1.4831280135
H -0.8210223700 -2.8012111675 -1.0931774812
H -0.0461167621 -2.7691967689 1.4523045630
H 1.3834235060 -2.7657550983 0.4087677423
H 1.8400139653 -0.4868173668 1.0547666105
H 0.4050799118 -0.4960057185 2.0899363975
H -2.9073800936 -1.8083564808 1.1890628146
H -2.5703866350 -0.0829937885 1.6673643079
H -2.8529170180 0.6457613720 -0.7380695856
H -3.1887245780 -1.0758933024 -1.2263391366