17

C 0.0023712512 1.4711033530 -0.0508293075
N 0.0406713902 0.0273872026 -0.0509404288
C -0.0600439997 -0.8073997946 -1.1821290957
C -0.0336595232 -2.0638039627 -0.6988820500
C 0.1495555456 -3.5703183943 -0.7177185016
C 0.3741363805 -3.4351441228 0.8411064085
N 0.0736706656 -2.0032520420 0.6799348626
C 0.1930469687 -0.7042325823 1.1423572674
O 0.3555531007 -0.2662443110 2.2658631404
H 0.7995425885 1.8909769721 -0.6747107865
H -0.9620862312 1.8478542718 -0.4100521474
H 0.1503042918 1.7925356958 0.9819373801
H -0.1228691665 -0.4024837602 -2.1773338584
H -0.7314997293 -4.1530355458 -0.9963533266
H 1.0129117127 -3.9389294879 -1.2754168140
H -0.3325259939 -3.9693821551 1.4801568686
H 1.3966941984 -3.6332780965 1.1726163691