13

N 0.0294934092 1.3305723295 0.0095583754
C 0.0048355537 -0.0140403445 0.0028217079
N -1.1461972636 -0.6391949476 -0.0013638169
C -1.2038280530 -2.0009905524 -0.0092728075
O -2.1882041806 -2.6809167274 -0.0138004623
O 0.0414485546 -2.7177346904 -0.0125718203
C 1.2055009591 -2.0552417941 -0.0079860886
C 1.2711118513 -0.7130812879 -0.0004412446
O 2.4020744585 0.0588162332 0.0046128310
H 0.9034460281 1.8254362322 0.0156859991
H -0.8442321331 1.8293329478 0.0142126975
H 2.0714605879 -2.7110274687 -0.0110428729
H 3.1851324478 -0.5018748897 0.0027872521