20

C -0.0971917731 1.5714604578 0.0083656378
C 0.0045932387 0.0437367324 -0.0081386503
C 0.7770674840 -0.5054742658 -1.2527689467
C 1.8776622932 -1.3798955779 -0.6448276272
C 1.3650177575 -2.5728800407 0.1712229817
C 2.1168930074 -2.1889272296 1.3861769192
C 2.2743246547 -0.7734854190 0.7431719518
C 0.8123962427 -0.5112093749 1.1703576284
N 0.6364633451 -2.0016898113 1.3648265690
H 0.8971877754 2.0337076318 0.0254662912
H -0.6152070789 1.9405360389 -0.8830242848
H -0.6456215580 1.9272723525 0.8870767854
H -1.0045191936 -0.3815882703 0.0363694447
H 0.1318942344 -1.0708347158 -1.9325167740
H 1.2096287777 0.3193617613 -1.8318012466
H 2.7130948073 -1.6340136029 -1.2992907555
H 1.0362033109 -3.5463219999 -0.1704557626
H 2.6448503975 -2.7542129202 2.1419407504
H 3.0876876596 -0.0596073777 0.8540415593
H 0.6557442372 -0.0061244990 2.1256497087