18

C -0.0335387701 1.5876403795 0.2159542113
C -0.0410857927 0.0610289972 0.0182572389
C 0.8647667150 -0.6440656104 1.0438383692
C -1.4477795754 -0.4939123198 0.0475351676
C -2.2837986552 -0.4153765360 1.1730842769
N -3.5097277574 -0.9123881344 1.1620857386
C -3.8664242486 -1.4828219720 0.0038034276
N -3.1230419395 -1.5873728690 -1.0926653047
N -1.8907403547 -1.0821077993 -1.0660199855
H 0.9862808633 1.9746873328 0.1278690466
H -0.6529562987 2.0887667333 -0.5335449699
H -0.4081116690 1.8676643812 1.2068663144
H 0.3345777925 -0.1602413500 -0.9860211046
H 0.5293249079 -0.4614660674 2.0708436572
H 0.8826823622 -1.7256643797 0.8814084449
H 1.8902344059 -0.2710068564 0.9611440721
H -1.9483472415 0.0582392417 2.0933190041
H -4.8647759639 -1.9058894115 -0.0579394747