18

C -0.0336313768 1.5336222637 0.1002813879
C 1.2145263031 0.7238356625 -0.1325383123
O 2.2574410719 0.4217424344 0.7660180740
C 2.5832475047 -0.9232090683 0.6864735452
N 1.8796626365 -1.9378078424 0.4161216258
C 0.4226408627 -1.9662670473 0.3164904568
C -0.2091737429 -0.8903526155 1.2401488186
C -0.0857286657 0.0250550946 0.0234018913
C -0.2343134021 -1.1913407743 -0.8958189106
H -0.2370320583 1.9308619098 1.0896831441
H -0.3463750878 2.1788289005 -0.7149428229
H 1.5912527391 0.7766018029 -1.1534146273
H 3.6430823186 -1.0427400416 0.9091536413
H 0.1022628279 -3.0030331325 0.4373598148
H -1.2564874693 -1.1064506470 1.4748383291
H 0.3321178942 -0.6369365252 2.1535321217
H 0.2995784414 -1.1787600151 -1.8484009004
H -1.2612733073 -1.5419087193 -1.0413023271