13

C -0.0594246207 1.4185653015 -0.0044485500
N -0.0044051023 -0.0237433706 0.0457494154
N 0.0197182682 -0.7633857488 -1.1007962263
N 0.0400833042 -2.0122847208 -0.7515782667
C 0.0478615455 -2.1068117077 0.6059525615
C 0.0212158823 -0.8316990945 1.1333548434
N -0.0703466272 -0.3293312157 2.4300812204
H 0.8928348788 1.8686070735 0.2986518150
H -0.2704218540 1.6992612835 -1.0362472191
H -0.8540097375 1.7877665400 0.6503070382
H 0.0677452008 -3.0560183363 1.1165929144
H -0.0038892040 -1.0622346177 3.1235767268
H 0.6101900858 0.3920523136 2.6389986871