14

C -0.0346009485 1.5511508062 0.0003928489
C -0.0128119804 0.0567321324 0.0296048216
C -0.0268276681 -0.7903492186 -1.0320704378
O 0.0013889508 -2.1014900317 -0.6325379574
C 0.0342611595 -2.1117683771 0.7069608958
C 0.0273760059 -0.8272421347 1.1660049132
N 0.0564454351 -0.4776052723 2.5578650694
O 0.0890808417 -1.3968240569 3.3703912380
O 0.0467379513 0.7163192533 2.8432022579
H 0.8477007740 1.9679975330 0.4932738132
H -0.0639382449 1.9110477129 -1.0312785346
H -0.9042645966 1.9432631555 0.5343675070
H -0.0550633404 -0.6300796265 -2.0968824382
H 0.0598754708 -3.0643932555 1.2062304030