19

O 0.0861620150 1.3920646425 0.0710099369
C 0.0223846589 -0.0130917507 0.0519605821
C 0.1496821707 -0.6616562737 -1.3963140285
C -1.3290316155 -1.1939446389 -1.3499260741
C -1.5620140219 -2.6442921121 -0.7727177841
C -1.0432016117 -2.0302856483 0.5131976577
C 0.1500432833 -2.1156561822 1.1121132676
C 0.7856835020 -0.7327648047 1.1987386073
C -1.3964772567 -0.6084443774 0.0940923890
H 1.0049864849 1.6525973201 -0.0561887889
H 0.2510016996 0.1342267819 -2.1378919388
H 0.9400231340 -1.4004339531 -1.5526501191
H -1.9833753505 -0.8781799019 -2.1650256693
H -2.6350937644 -2.8653851680 -0.7896482455
H -1.0060159707 -3.4897360216 -1.1868612786
H 0.7228632224 -3.0296329876 1.2300571806
H 1.8678254302 -0.7863730494 1.0206327084
H 0.6399550872 -0.1988175257 2.1476041076
H -2.2504190971 -0.0865306291 0.5257796698