17

N -0.0344293316 1.3174719609 0.1020486754
C -0.0090879263 -0.0604469083 0.0310041253
N -1.1109757313 -0.8013506614 -0.0093630758
N -0.5978405490 -2.0712954119 -0.0075733104
C -1.4802242273 -3.2164622284 0.0022059783
C -2.2400147917 -3.3538838279 1.3307316607
O -3.0962937883 -4.4805094189 1.3137409404
C 0.7430470311 -2.0121080858 0.0306744550
N 1.1629368821 -0.7591260057 0.0520832743
H 0.8070693240 1.7453077722 -0.2548626820
H -0.8769226882 1.7307822704 -0.2694787179
H -2.1929578744 -3.1144738587 -0.8240002380
H -0.8797161912 -4.1123526419 -0.1761667838
H -1.5252848010 -3.5160079734 2.1439808217
H -2.7758418215 -2.4193319724 1.5393935305
H -3.8629839562 -4.2661164305 0.7731152566
H 1.3671572507 -2.8937259883 0.0350402797