20

C -0.0051472127 1.5094550905 -0.0719520015
C 0.1368594836 0.0103366059 -0.0737541158
N -0.5848613030 -0.8116329418 0.9271366633
C 0.8962717304 -0.7627681960 0.9460707149
C 1.5754700869 -1.9623310784 0.2903923305
C 1.1580128834 -1.9218426649 -1.1824431101
C -0.3048992289 -2.0731778117 -1.5683946544
C 0.3034213887 -0.7040535481 -1.4213832764
O 0.5337355994 0.0978533459 -2.5430935452
H 0.7747270783 1.9756986531 -0.6794674887
H -0.9736903449 1.8195172333 -0.4830911801
H 0.0661996443 1.9034800353 0.9470530039
H -0.9461372889 -0.2034914460 1.6596265638
H 1.3806236181 -0.2757527268 1.7881529933
H 2.6626766214 -1.8486366360 0.3672269258
H 1.3076502152 -2.9018782955 0.7857436554
H 1.8860009293 -2.2117973434 -1.9317533228
H -0.4827046054 -2.4067900481 -2.5858900996
H -1.0216965096 -2.4010242028 -0.8262389008
H -0.3210731657 0.3425435455 -2.9136977155