17

C 0.2101725018 0.9212743075 0.4721953866
O -0.4227833137 0.1206843566 -0.5194056723
C 0.4422921561 -0.5388160259 -1.4080221752
C 0.5182798810 -2.0703068424 -1.0715891918
N -0.8142146628 -2.6737331354 -0.9217654496
C 1.2683278204 -2.7415669781 -2.1358784907
C 1.8653475877 -3.2369434701 -3.0517341665
C 1.2410277827 -2.2388354206 0.2144401574
N 1.8077488864 -2.3270861766 1.2170263606
H 0.8516153873 0.3291579963 1.1337316213
H 0.8067791642 1.7193126461 0.0094463509
H -0.5900246231 1.3745689824 1.0610272897
H 0.0218393784 -0.4633952202 -2.4175835405
H 1.4475595428 -0.1002645533 -1.4131990996
H -1.3897438648 -2.0077890124 -0.4096457062
H -1.2233675616 -2.7835387454 -1.8452656049
H 2.4011428772 -3.6955569085 -3.8466341491