16

C -0.0786785193 1.6048115472 0.2981045480
C -0.1790800581 0.0851649019 0.3123462179
C -1.3510577654 -0.5792510962 -0.3081933638
N -0.0215070627 -0.6706422137 -0.9345285395
C 1.3168031527 2.0639098262 0.0384425818
N 1.8647867869 2.3480809389 -1.1078264501
C 3.1524418353 2.6470104766 -0.7359230637
N 3.3997479190 2.5627276642 0.5414688362
O 2.1627017305 2.1681707048 1.0708616823
H -0.7110421894 2.0129742296 -0.4954009409
H -0.4230626062 2.0110992118 1.2546281597
H 0.2988237133 -0.3851241347 1.1690524154
H -1.7309933343 -1.5109655177 0.1006203537
H -2.1065047703 0.0543660690 -0.7669785260
H 0.0494813977 -0.0316061439 -1.7237768422
H 3.9220418303 2.9382201163 -1.4358808089