21

C -0.1907138809 1.4941935176 0.0779485071
O -0.0568318430 0.1000811189 0.2380445089
C -1.2460327963 -0.6340025315 -0.0379024504
C -1.4669339347 -0.8230399532 -1.5483734950
C -1.1512813909 -1.9242368004 0.6456402177
C -1.0870189201 -2.9947259084 1.1942604296
C -1.0265216121 -4.3125500579 1.8346995349
C -2.4104939110 -4.7650421816 2.3233674729
O -0.4264237901 -5.2905202719 0.9872660145
H 0.7541834199 1.9409078731 0.3962061642
H -0.3799576081 1.7890622371 -0.9646542291
H -1.0019885516 1.8993853113 0.7033351600
H -2.1084399002 -0.0846003611 0.3782595979
H -1.5712561444 0.1434207618 -2.0489586049
H -0.6177388174 -1.3565349854 -1.9823050362
H -2.3772978537 -1.4011814765 -1.7291083816
H -0.3527738024 -4.2515057890 2.6981057897
H -3.1104385796 -4.8307314193 1.4839734698
H -2.3262510502 -5.7505648347 2.7885903165
H -2.8179049917 -4.0577540813 3.0516447293
H -0.8820081516 -5.2538995677 0.1389946041