19

O 0.4802774376 0.5904606036 -0.9963065799
C 0.0739348213 -0.2701899238 0.0760894358
C 0.6231685826 0.1627053001 1.4068632569
C -0.0210769316 -0.0087155575 2.5610869183
C -1.3847487399 -0.6382071066 2.6711069705
C -2.1620273469 -0.6175217396 1.3656831756
C -2.3048787699 0.6870928884 0.6004888881
C -1.4322639232 -0.4344900475 0.0736685465
O -1.9110847400 -1.1651591454 -1.0193388778
H 0.1262675757 1.4662003328 -0.8007246159
H 0.5054679864 -1.2424347423 -0.1979012274
H 1.6165040489 0.6031440630 1.3783724617
H 0.4522936789 0.2982615961 3.4905661348
H -1.2712143747 -1.6772165937 3.0136159758
H -1.9618488616 -0.1331647333 3.4574717693
H -3.0188332216 -1.2822007018 1.3191224634
H -3.2370258232 0.8514639950 0.0729961740
H -1.8418375911 1.5752896086 1.0195194443
H -1.5461365675 -0.7386870759 -1.8051560040