19

C -0.0002372999 1.4937625371 -0.1242280227
N 0.0177626596 0.0470011867 -0.0899031912
C -1.0534768452 -0.6089042817 0.0466258479
C -2.4755168816 -0.1188367990 0.1936695356
O -1.0202451988 -1.9694121022 0.0770796785
C 0.2630067786 -2.5736565057 -0.0515524476
C 0.0152705093 -4.0847933628 0.0141753499
C 1.2558980318 -4.8448203339 -0.1057642358
N 2.2442975176 -5.4351032776 -0.2017000242
H 0.6356987643 1.8831519572 0.6794147355
H 0.4399647356 1.8392867070 -1.0669432936
H -0.9926702653 1.9538643128 -0.0245499401
H -2.7735952998 0.4736018717 -0.6760632698
H -3.1539912019 -0.9660827499 0.2910798768
H -2.5770681854 0.5178089756 1.0772069417
H 0.7280826433 -2.2842062754 -0.9985088612
H 0.9244291508 -2.2401901200 0.7535088831
H -0.4716875713 -4.3384281903 0.9617467952
H -0.6678249618 -4.3823981497 -0.7884219979