19

O 0.0473549976 -0.1358992794 0.2081264567
C -0.0644976970 1.0641484507 0.1160924930
C -1.2923089220 1.9183580597 0.4381593200
C -0.9344842016 3.3199220159 -0.0761808148
C 0.6188715436 3.3429338885 -0.1089284042
N 0.9331610469 1.9315543360 -0.2817960864
C 1.1636601390 4.2319332764 -1.2123292809
C 2.4155369702 3.9293934449 -1.9447374395
N 1.1062317291 3.8069755935 -2.6159122388
H -2.1910154562 1.4880873690 -0.0071406398
H -1.4273312595 1.8960763587 1.5257181844
H -1.3094213403 3.4585015763 -1.0946708427
H -1.3347786607 4.1289269568 0.5377505954
H 1.0082211926 3.7148336518 0.8522080609
H 1.8821931246 1.5887428693 -0.2771815561
H 0.9041276069 5.2795237666 -1.0650093285
H 3.0450408580 4.7385553285 -2.3035638510
H 2.9560720704 3.0177236072 -1.7034143602
H 0.8497306486 2.8204486098 -2.6436058275