15

N 0.0856591959 1.4304609291 0.1326374568
C -0.0047342429 0.0339801826 0.0404352559
C -1.1646786704 -0.6781960038 0.0275473854
O -2.3758454846 -0.0751629517 0.0303506701
C -1.1922902906 -2.1322564135 -0.0010777823
O -2.3002276798 -2.6941279063 -0.0180777815
C 0.1047024824 -2.7671941041 -0.0369878568
C 1.2387555660 -2.0171057652 -0.0172949082
N 1.1896702274 -0.6549712543 0.0205314625
H 0.5412849671 1.8511951977 -0.6717309239
H -0.8419372951 1.8282118382 0.2244792407
H -2.9849416509 -0.8454386082 0.0176290254
H 0.1616493816 -3.8471950164 -0.0779811123
H 2.2331755702 -2.4452221241 -0.0309582847
H 2.0329500537 -0.1228362098 0.1634656028