19

C -0.3151902351 1.4126739602 -0.0615760370
C -0.0251001181 -0.0752653998 0.1133274123
C 1.0697831793 -0.6311162354 -0.8440816934
C 2.1066818213 -0.5348837170 0.3280690826
C 0.9025323674 -0.4110176126 1.3177822135
C 3.0452343244 -1.6191389457 0.4950866207
C 3.8031523197 -2.5508388920 0.6410996519
C 4.7302937216 -3.6408657636 0.7807543416
O 4.6699654113 -4.4928488190 1.6389119793
H 0.6061550993 2.0069301275 -0.0511999712
H -0.8226731556 1.6060468851 -1.0127582780
H -0.9570948257 1.7850059216 0.7439726356
H -0.9634628238 -0.6356973057 0.0964197131
H 0.8901185930 -1.6695087175 -1.1296959432
H 1.2989554088 -0.0493733757 -1.7400817760
H 2.6549259378 0.4108790622 0.2676591912
H 0.9973447754 0.3423697806 2.1035762359
H 0.6668851197 -1.3737887148 1.7756928448
H 5.5370547692 -3.6492667383 0.0188863863