21

C 0.1458713807 1.4077577291 -0.5508888298
C 0.0898786606 -0.0184463424 -0.2617566825
C 0.0580927623 -1.1989381517 -0.0187072410
C -0.0077843106 -2.6157655538 0.2754544991
C -0.0330628492 -3.0881310140 1.7699999546
C -1.1157323385 -4.1400904638 1.3982387475
C -1.3490653182 -3.3718353503 0.0926149677
C -2.6377526012 -2.7359887651 -0.3302629577
C -1.9970409757 -3.8114495926 -1.1820015662
H 1.1130499022 1.8342182596 -0.2616404001
H 0.0065752800 1.6044046493 -1.6199245808
H -0.6322409089 1.9578534773 -0.0099199407
H 0.7874233126 -3.1459854916 -0.2636543551
H 0.9105203773 -3.4532574951 2.1798944655
H -0.4268809853 -2.3043631928 2.4199202014
H -0.6898794872 -5.1350546466 1.2308140794
H -1.9668908426 -4.2349630021 2.0771136497
H -3.5370723795 -2.9889286720 0.2228042702
H -2.5981903725 -1.7123036763 -0.6884305550
H -1.5370427401 -3.5102502534 -2.1183247962
H -2.4618050862 -4.7923943916 -1.2084399999