19

C -0.6950764215 1.2862240088 0.0110233675
C -0.0254835685 -0.0781583732 -0.0591849585
C 1.1550787322 -0.2940877026 -1.0282738509
O 1.3187230356 -0.0673719099 -2.1925972204
C 2.0481003126 -0.8942610060 0.0677889786
C 2.8266571734 0.2101934892 0.8140998127
O 1.6880942042 0.5302731364 1.6412368615
C 0.9073525865 -0.5663274833 1.0954024282
C 0.3675505144 -1.4810249455 2.1620759893
H 0.0114959881 2.0337915661 0.3795738459
H -1.0400373662 1.5888764140 -0.9819254622
H -1.5589233887 1.2733056436 0.6827459788
H -0.7614675299 -0.8668170700 -0.2754660031
H 2.5234182009 -1.8602616777 -0.0971743747
H 3.6607786347 -0.1719944644 1.4149644771
H 3.1729713002 1.0616698192 0.2180705108
H -0.3476364123 -0.9425459663 2.7936690516
H -0.1478942469 -2.3388372215 1.7186524604
H 1.1727793211 -1.8491344168 2.8042809175