18

C -0.0166692411 1.5913435325 0.0238747340
C 1.5230202615 1.6631471021 0.0193146556
O 1.8297131166 0.9671638600 1.2270493855
C 1.1272447251 -0.2808944582 1.0515606470
C 2.1118741457 -1.1898710964 0.3250750757
N 2.1292526599 -0.6760753584 -1.0540653354
C 1.8935426321 0.7836351717 -1.2093108773
C 0.7760189462 -0.2024942145 -1.3341290736
C 0.0109272986 0.0451423609 -0.0122883378
H -0.4498328850 2.0289583438 0.9275499402
H -0.4878305669 2.0185439892 -0.8652768721
H 1.9992147221 2.6428597859 0.0415004323
H 0.7715070669 -0.6312865497 2.0222608568
H 3.1022956484 -1.1431210117 0.7840660250
H 1.7831199269 -2.2349806032 0.2827733154
H 2.4084438876 1.2298966277 -2.0532081764
H 0.2815160655 -0.5039709538 -2.2511351508
H -0.9290134399 -0.4891659980 0.1169200658