15

N 0.2024669407 1.3707820678 -0.0957600889
C 0.1407102145 -0.0089328335 -0.0687786094
N -0.9992248139 -0.6999273835 -0.0554209127
N -0.5774211689 -1.9678811302 0.0378801470
N 0.7279738743 -2.1576429844 0.0812549639
C 1.2242444320 -0.9202683298 0.0220781072
C 2.6914509540 -0.6111373141 0.0347223279
C 3.0688487088 -0.0317898553 -1.3207123830
O 2.8713205133 1.1197866637 -1.6283018146
H 1.0106049296 1.7267582380 -0.5931159146
H -0.6603153276 1.8051038156 -0.3916062968
H -1.2269256119 -2.7341218540 0.0880983102
H 2.9164772670 0.1393540524 0.8013516747
H 3.2568949291 -1.5233757075 0.2379341668
H 3.4989593888 -0.7477416752 -2.0527438478