13

N -0.0993964606 -1.2278069448 -0.0086871945
C -0.0616425287 -0.0734143480 0.0227176892
C -0.0518819347 1.3779539542 0.0663345657
C -0.0932286086 1.9906873657 1.5023065872
N 1.3676411171 2.1977639625 1.4293538991
C 1.3612058294 2.0633841997 -0.0377564432
C 2.4804074732 1.3221381631 -0.6158188627
N 3.3705100973 0.7611654112 -1.0923415032
H -0.7874900817 1.7680291760 -0.6376624209
H -0.6950887432 2.9083761738 1.5219073109
H -0.4147085980 1.3258401702 2.3065456292
H 1.7271231938 3.0746233404 1.7883998644
H 1.2604184749 3.0105873359 -0.5868194111