16

C 0.0526916397 1.1968520179 0.2702095077
O -0.1130019182 -0.1484118225 -0.1212594114
C 0.5994821504 -0.5071409907 -1.2878369506
C 2.0888619720 -0.7974326243 -1.0025971100
O 2.1619399320 -2.1780839502 -0.6281975963
C 1.0483927615 -2.8560417963 -1.0305990350
O 0.9131812524 -4.0291933513 -0.8504504382
C 0.1024578814 -1.8815747033 -1.7238558252
H 1.0917368016 1.4343443667 0.5420789170
H -0.2623506065 1.8889321958 -0.5260193005
H -0.5780942215 1.3540549928 1.1476273661
H 0.4835081422 0.2670517754 -2.0589611935
H 2.7090728008 -0.6320888012 -1.8919612026
H 2.4864034798 -0.2020289159 -0.1780981733
H -0.9327830044 -2.0653334966 -1.4378032367
H 0.1958880769 -2.0212192363 -2.8057376476