20

O -0.0111290708 1.4250454167 -0.0001091526
C -0.0021213138 0.0044790479 -0.0372694588
C -1.4285498739 -0.4774936621 -0.0584424774
C -2.5017478286 -0.0242214965 1.0045914779
C -3.4609405767 -0.5873001266 -0.0845957928
C -2.4623972540 0.0063664639 -1.1128753519
N -3.1701183761 -2.0545684766 0.0631657134
C -2.4479741918 -2.6881295609 -1.0542192017
C -1.6815762653 -1.9936503891 0.0126543237
H 0.9000670255 1.7314313776 0.0126401768
H 0.5255107279 -0.3681970515 -0.9308941097
H 0.5141312927 -0.4128211308 0.8435864148
H -2.5071374734 -0.5385071441 1.9688811002
H -2.5458660353 1.0584241590 1.1282711454
H -4.5289663651 -0.3751498244 -0.1063188117
H -2.5110389752 1.0947476340 -1.1337060557
H -2.4181432096 -0.3716635684 -2.1351414993
H -2.4923648371 -3.7736967772 -1.0194704502
H -2.5089390980 -2.2825232439 -2.0573264782
H -1.1357497915 -2.5674589371 0.7588866679