17

O 0.2189231594 1.2785470900 -0.1423249918
C -0.0079572689 -0.0891332360 0.0985545921
C -0.5138498022 -0.5028531456 1.5007079506
O -1.7371602784 -1.0322321639 0.9412739857
C -1.3962640523 -0.5645106187 -0.3844820518
C -2.3462217111 0.5211543231 -0.8624574005
O -3.6402085912 -0.0412721104 -1.0977100669
C -4.5137343422 -0.0411412815 -0.0669657056
O -5.5929808472 -0.5446674327 -0.1456825544
H 1.1142037018 1.4998438725 0.1307480361
H 0.8173663067 -0.7067458250 -0.2733753940
H 0.0577437818 -1.2729010491 2.0304144018
H -0.6926254925 0.3508833748 2.1663572689
H -1.3955577789 -1.3922892209 -1.1027948160
H -2.4021490897 1.3334365292 -0.1307429090
H -2.0088671063 0.9381083984 -1.8140633657
H -4.1239572087 0.4801746759 0.8256525106