13

O -0.1016621212 -0.0387323797 0.0059478757
C 0.0217113710 1.1493851787 0.0103579272
O -1.0948810016 1.9937256855 0.0285819873
C -0.7327314365 3.3817616507 0.0297026577
C 0.7597463902 3.3284167491 0.0092213868
C 1.1931253172 2.0287177799 -0.0022906275
C 2.6048572780 2.1109274381 -0.0217986265
N 2.9975741680 3.3789476312 -0.0211445814
N 1.8456973420 4.1148522338 -0.0020245712
H -1.1683957113 3.8662980837 -0.8518870258
H -1.1443022875 3.8585482035 0.9269536272
H 3.3411861203 1.3222599702 -0.0355523121
H 1.9178722814 5.1185438453 0.0014397826