25

C 1.5795563988 -0.0890559040 0.2982258838
C 0.6188904611 -0.8338738924 -0.6441365261
C 0.9208373499 -2.3417677438 -0.7260383592
C 2.2918650527 -2.6911437978 -1.2928532949
O 2.3512857581 -4.1048343925 -1.4309725336
C -0.8191189328 -0.6120115395 -0.2028208493
C -1.5559628935 0.6666881985 -0.5249540434
C -2.0051245026 -0.6371810445 -1.1431461372
C -1.8860874579 -0.8722678305 -2.6341682053
H 2.6188943798 -0.1527009238 -0.0378702156
H 1.3135677509 0.9704647027 0.3624569214
H 1.5309087800 -0.5056906767 1.3115475540
H 0.7423827793 -0.4092301342 -1.6496739286
H 0.8274586877 -2.7931333086 0.2704915730
H 0.1687991947 -2.8281528938 -1.3572333928
H 2.4285404122 -2.1914133899 -2.2671163697
H 3.0904236967 -2.3299283386 -0.6273838889
H 3.2299682802 -4.3383886904 -1.7438123937
H -1.0196798226 -1.0227160560 0.7858481097
H -2.1689750770 1.1333232213 0.2387193741
H -1.0546966706 1.3741199178 -1.1803361149
H -2.9083608635 -1.0641081418 -0.7135298183
H -0.9971525909 -0.3946413658 -3.0564042752
H -1.8343907506 -1.9406767256 -2.8722839239
H -2.7547733699 -0.4586566001 -3.1587005453