19

C -0.0576842024 1.5165741358 -0.0491042808
C -0.0402994227 0.0027879261 0.0012870659
C -0.7606526415 -0.6941121733 1.1182646085
C 0.7637084959 -0.6699292723 1.0993601786
C 1.4861605732 -1.9572992443 0.8626324541
O 2.0126352852 -2.5918396511 1.7358235830
O 1.4923820501 -2.4356075502 -0.4127621825
C 1.3020477146 -1.5022877229 -1.4894169023
C 0.0046504627 -0.7189278453 -1.3499288219
H 0.8138827334 1.9065507607 -0.5874411087
H -0.9562207145 1.8797996814 -0.5610402270
H -0.0487324924 1.9481357343 0.9566508227
H -1.2419670000 -0.0968506831 1.8850518410
H -1.2544958254 -1.6367351578 0.9065068866
H 1.2371392632 -0.0568551242 1.8576789168
H 2.1620888860 -0.8206088946 -1.5236133707
H 1.3159021738 -2.1100812331 -2.3970133420
H -0.8451617688 -1.4007431313 -1.4607072250
H -0.0599170904 0.0058006351 -2.1685205066