14

N -0.3570637894 1.1173688218 -0.5590136642
C -0.1379409160 -0.0241769405 -0.0973752482
O 0.9951462799 -0.6001281395 0.4227816440
C 0.2981466198 -1.8662218693 0.6742981950
C -0.9999223639 -1.2719955782 0.1065108049
C -2.1508116778 -1.0921689268 1.0875207675
O -2.0700954000 -1.4196054866 2.2507324438
C -3.3405991493 -0.4885987666 0.5288046853
C -4.3240303141 0.0026228517 0.0395197349
H 0.4789127136 1.7033290516 -0.5288892279
H 0.7478488278 -2.6782647549 0.1005647759
H 0.2661447142 -2.0944595166 1.7397042104
H -1.3623158968 -1.6958337014 -0.8322352275
H -5.1947915379 0.4446306354 -0.3811275039