27

C 0.0593530024 1.5849136822 0.0802841850
C -0.0624704797 0.0573476616 0.0796434187
C -1.4954053916 -0.4789598672 -0.1003598263
C -2.0909523710 -0.1130660161 -1.4676498033
C -1.5358187845 -1.9919544995 0.1166402542
C -1.2023227346 -2.5747059462 1.5200456086
C -2.3273122663 -3.6275711989 1.3143381590
C -3.2065434989 -4.0146489485 2.4931745020
C -2.9110728436 -2.7142446295 0.2004423036
H 1.0910195486 1.8954040259 0.2743012741
H -0.2381575934 2.0210626039 -0.8782539122
H -0.5720181379 2.0308287082 0.8574292371
H 0.5749601415 -0.3609944720 -0.7121497055
H 0.3386079555 -0.3283136866 1.0251814324
H -2.1245068300 -0.0190151411 0.6783291904
H -2.1509231472 0.9695491164 -1.6113701642
H -1.4802485220 -0.5243670521 -2.2809366011
H -3.1029628393 -0.5156207394 -1.5772015216
H -0.9105442199 -2.4808221577 -0.6424124332
H -0.1879480252 -2.9378262045 1.7050590235
H -1.4671074287 -1.8655657287 2.3141261171
H -1.9016799595 -4.5295397265 0.8590434003
H -3.6425999961 -3.1267982248 2.9656970974
H -4.0321497913 -4.6635853581 2.1791073063
H -2.6349605001 -4.5517759714 3.2588030162
H -3.6821206889 -2.0466073975 0.6042041060
H -3.3039723283 -3.1910260819 -0.7014484545