19

C -0.3290408718 1.6300015190 0.1969096329
C -0.0957976420 0.1328227963 0.1281279883
C -1.3443502539 -0.6499022947 -0.2930239592
O -1.6721246695 -0.3506316142 -1.6358065187
O 0.9824362511 -0.1957896575 -0.8166993680
C 1.7270523216 -0.9354465838 0.1790288179
C 0.7184645552 -0.5306618951 1.2444832202
C 0.8703208512 -0.2057602947 2.6588185495
O 0.1826025364 -1.3932509843 2.2240343287
H 0.6078082315 2.1634045933 0.3764646935
H -0.7624915186 1.9766618330 -0.7448561091
H -1.0315432429 1.8689342267 1.0027219142
H -1.1696328297 -1.7261909647 -0.1484714136
H -2.2037130705 -0.3673359581 0.3230804528
H -0.8611404846 -0.5026561366 -2.1384182593
H 1.7554210342 -2.0125109134 -0.0265463699
H 2.7492060721 -0.5567021516 0.2908435533
H 1.8255099568 -0.3771526110 3.1532169159
H 0.2399175536 0.5561920113 3.1142489905