17

C -0.1368767199 1.4996627282 -0.0270186174
N -0.0777363354 0.0439732738 -0.0102750334
C -0.0205640742 -0.6494645699 -1.2242450414
C 0.0680502336 -1.9783863261 -1.3055730997
C 0.0567250919 -2.7678088495 -0.0570157802
C 1.2303673763 -2.8067576847 0.8768623232
N 0.0443849246 -2.0076509529 1.1992352616
C 0.1459988116 -0.5955315272 1.2043637248
O 0.3648520824 0.0140419389 2.2258541275
H 0.8258543861 1.9414104030 -0.3119448130
H -0.9019384966 1.8287537085 -0.7361974376
H -0.3899434981 1.8432263638 0.9742995138
H -0.0417070018 -0.0113046215 -2.1002263757
H 0.1010166182 -2.4745458212 -2.2666573772
H -0.6071952944 -3.6317601423 -0.0397672320
H 1.3936397105 -3.6664181072 1.5201912196
H 2.1281397350 -2.2766033336 0.5709673372