21

C 0.9376699948 0.5438977631 0.8761550207
O 0.0112165166 0.2048112852 -0.1336043676
C 0.5831272010 -0.4631977743 -1.2484711252
C 1.1180965219 -1.7825268277 -0.8978820404
C 1.5457121864 -2.8644546865 -0.5865451632
C 2.0560573134 -4.1797755074 -0.2289138014
C -0.5231514789 -0.5552191632 -2.3292430104
C -1.0644246429 0.8219065153 -2.7023743399
O -0.0518800930 -1.2663664515 -3.4620377951
H 1.4219597342 -0.3460787453 1.2989244888
H 1.7197640077 1.2196121903 0.4953061964
H 0.3781951699 1.0572490947 1.6616251784
H 1.4046537888 0.1548769186 -1.6603874278
H 1.9491066562 -4.8815822170 -1.0633071105
H 3.1176655079 -4.1402065300 0.0389940091
H 1.5123771653 -4.5971543170 0.6257121229
H -1.3279764319 -1.1720796662 -1.9162237774
H -0.2666193773 1.4498950956 -3.1211697164
H -1.8494833714 0.7204451188 -3.4563559144
H -1.4677968278 1.3321212766 -1.8258296562
H 0.5999617291 -0.7138662222 -3.9078695704