22

C -0.3619580529 1.4045536295 -0.2326222465
C 0.2592095738 0.0649690555 0.1547932169
N 0.7561439678 -0.6189075169 -1.0362964399
C 1.0352203841 -2.0325730123 -1.1025114478
C -0.0841194274 -1.4093917301 -1.9080751436
C -1.1347492167 -2.2565101630 -1.1517215507
O -1.8935319254 -3.1189837368 -1.9676141387
C 0.0301722378 -2.9119244814 -0.3179511246
C 0.2159597543 -4.4093370306 -0.5366742131
H 0.3592229594 2.0187802045 -0.7790758079
H -1.2358865554 1.2583452922 -0.8760376720
H -0.6860704786 1.9525663613 0.6573034476
H 1.1234165772 0.2271722115 0.8093785730
H -0.4676705114 -0.5242882593 0.7335940959
H 2.0266603898 -2.3493595160 -1.4152334757
H -0.1459448222 -1.1520357312 -2.9622283404
H -1.8713938852 -1.6948427369 -0.5697377203
H -1.2966116012 -3.5616053734 -2.5803982450
H -0.0096146735 -2.7075382792 0.7577954191
H 0.3698246128 -4.6576935799 -1.5933956312
H 1.0983905056 -4.7652163289 0.0049396299
H -0.6528692727 -4.9723494788 -0.1850013749