18

C -0.0791399636 1.4799331667 -0.2109353823
C -0.0331319913 0.0492269214 0.2766842374
O 0.9294156678 -0.4406297005 0.8062679837
C -1.3342009554 -0.7935455957 0.0844729780
C -1.7343460585 -0.7797635112 -1.3264237910
N -2.0269597432 -0.7674126132 -2.4448884437
C -1.1911280979 -2.2057849742 0.6209366920
C -1.5071656096 -2.4853652969 2.0649695826
C -2.4172357067 -3.0039733364 0.9797117720
H 0.8591407495 1.9793083727 0.0310437844
H -0.2462777866 1.5040254614 -1.2926728453
H -0.9161642519 2.0153961838 0.2512109367
H -2.1243141305 -0.2691873326 0.6419501430
H -0.3548746161 -2.7461348698 0.1926648873
H -0.8713803295 -3.1855830700 2.5936167001
H -1.8642386471 -1.6642241612 2.6782507863
H -3.3874912068 -2.5332687046 0.8597297092
H -2.4122320727 -4.0651021398 0.7595211900