15

C 0.3791580321 1.1268698030 -0.1184906908
O 0.0599586691 -0.2534413450 0.1126565482
C 0.5890286716 -0.7689520847 1.2353317077
O 1.2995532361 -0.1877457944 2.0113664576
N 0.1216511105 -2.0758358613 1.4172596072
C 0.1944177412 -3.1234846130 0.4300615782
C 0.9978514253 -3.1936048786 1.7100262597
C 2.4334710943 -3.0491098890 1.6269101204
N 3.5847142583 -2.9733540676 1.5605333228
H 1.4599550277 1.2621257487 -0.2012298002
H -0.1139216585 1.3881785422 -1.0544493662
H 0.0050142568 1.7478203132 0.6988479225
H -0.6885895714 -3.7472237209 0.3283488674
H 0.7443591370 -2.9272473915 -0.4856516978
H 0.6629289798 -3.8405330312 2.5157327131