21

C 0.0581446470 1.5976833265 -0.0092060746
C 0.0901829435 0.0768702114 0.0528724434
C 0.9808948462 -0.7117027219 -0.9514843375
C 1.3736845448 -1.6420550457 0.1997280183
C 1.1669332356 -3.1281089609 0.2367380222
C 2.5616570071 -2.5522603830 0.3200904288
C 0.8169297192 -0.6544705762 1.2491926957
C 1.9005830786 0.1516164864 1.9133371673
O 1.9660990486 0.3698609452 3.0975799072
H 1.0634311908 2.0311792388 -0.0167531874
H -0.4492963886 1.9320875201 -0.9206305949
H -0.4807882251 2.0193906976 0.8459665066
H -0.9326141344 -0.3094122376 0.0121069420
H 0.4799686733 -1.1617883131 -1.8131716817
H 1.8223077410 -0.1103513105 -1.3148506374
H 0.7405331388 -3.5658420937 1.1337642202
H 0.8705641670 -3.6193046704 -0.6849200944
H 3.2122797587 -2.6556694590 -0.5425763677
H 3.0770633381 -2.6045643047 1.2740376578
H 0.1653049998 -1.0634215776 2.0250591993
H 2.6857583102 0.5377523283 1.2223753067