15

O 0.0050456158 1.4305791725 0.0916206896
C 0.0229944932 0.0347691143 0.0353937163
C -0.5117219300 -0.7864653284 1.2047204795
C -1.2996870130 -0.6398865656 -0.0621741741
C -2.6581430854 -0.0000815774 -0.3074058704
C -2.8430514728 -1.1723998482 -1.2971077185
O -1.5474300234 -1.7245731888 -0.9529490615
H 0.6773733446 1.7134443647 0.7207192174
H 0.8394668822 -0.4091646859 -0.5352471217
H -0.0369168176 -1.7419694367 1.4024722196
H -0.8707531099 -0.2507863032 2.0784808569
H -3.3372389118 -0.0030785827 0.5471082442
H -2.6227373806 0.9986769055 -0.7437873741
H -3.6523519359 -1.8738758153 -1.0677213160
H -2.8938176856 -0.8934597148 -2.3555996771