14

O 0.1844539886 1.1427957194 -0.5718620134
C 0.0442501444 -0.1209770481 0.0264016915
C 0.0233287976 -0.2047617070 1.5914874779
C -1.3132343696 -0.9739021870 1.4920160248
O -1.9756252611 -1.6164828599 2.2518903681
C -1.4023064718 -0.6312805975 0.0141124366
C -2.5453726291 -0.0354638264 -0.6985180963
O -2.0543823592 -1.3371577408 -1.0146437629
H 1.1206222452 1.3596045089 -0.6183153710
H 0.7280324615 -0.8609665816 -0.4091645257
H 0.8412037385 -0.7353112004 2.0829785274
H -0.1058485257 0.7806097817 2.0497870010
H -3.5180048706 -0.0075888960 -0.2113011674
H -2.3378916588 0.7387252147 -1.4333692504