19

C 0.0446724165 1.5535579589 0.0196097787
C 0.0286022616 0.0199674526 0.0285229783
C 0.7767223145 -0.5179267968 1.2531576453
O 2.1172810176 -0.0581520721 1.1783719931
C -1.4193889964 -0.5419730497 -0.0240296895
C -2.2286844756 -0.0535185520 -1.2434514724
C -1.4142381929 -2.0108439778 -0.0081105031
N -1.4158253950 -3.1670662134 -0.0114556144
H 1.0663168050 1.9039525317 0.1768678608
H -0.3150232986 1.9655405584 -0.9262113430
H -0.5794176945 1.9574742359 0.8264738778
H 0.5629261161 -0.3453761145 -0.8577830007
H 0.2822789430 -0.1566114248 2.1717452743
H 0.7358588028 -1.6157056586 1.2633250867
H 2.6064307114 -0.4351062291 1.9150100266
H -1.9416525953 -0.2195272722 0.8878139865
H -3.2122557065 -0.5286818396 -1.2666571013
H -2.3727502443 1.0273904556 -1.1987036407
H -1.7103852494 -0.2984231927 -2.1750839230