22

C -0.6849949591 0.9850882257 -0.0838435829
O -0.5264446867 -0.3802097175 -0.4070447662
C 0.6573649302 -0.7007048473 -1.1450344525
C 1.8883382381 -0.7180601994 -0.2367653481
C 0.4345476799 -2.0505728985 -1.8321343249
C -0.7461543504 -2.0977155193 -2.8305327763
C -2.0357088750 -2.7740981423 -2.3484172360
N -2.4254446680 -2.4525674850 -1.0845855889
O -2.6580296909 -3.5407711792 -3.0609128835
H 0.0725104922 1.3356654735 0.6298809535
H -0.6374855591 1.6178843416 -0.9823614914
H -1.6706833561 1.0961627467 0.3742893633
H 0.7907200667 0.0695014638 -1.9237021962
H 2.7868105439 -0.9505755055 -0.8164723341
H 2.0494105995 0.2495918938 0.2464651694
H 1.7735923386 -1.4768484465 0.5436154608
H 1.3608361473 -2.2901676120 -2.3647284382
H 0.3146237360 -2.8229434752 -1.0637434096
H -1.0054632386 -1.0792342118 -3.1476658273
H -0.4645347162 -2.6426129004 -3.7330306182
H -1.9528904416 -1.7228555261 -0.5694537552
H -3.3044790008 -2.8202462892 -0.7605182175