21

O -0.0232110137 1.4350123009 -0.0062519448
C 0.0387252238 0.0249872516 0.0642964541
C -1.3553982488 -0.5952924175 0.0208377635
O -1.9429854178 -0.1323883679 -1.1944369774
C -3.2843109704 -0.5771120643 -1.3386789974
C -3.3474134768 -2.0830308724 -1.6172138606
C -2.3863212501 -2.8659354357 -0.7227520798
C -0.9218491720 -2.9290091674 -1.0855814491
C -1.3606939837 -2.1086096439 0.0993113167
H -0.6189517296 1.6289876034 -0.7399776972
H 0.6429668378 -0.3976605666 -0.7535864571
H 0.5266455941 -0.2332843889 1.0100516955
H -1.9393033050 -0.1880822449 0.8648932721
H -3.8489158689 -0.3343708793 -0.4239935507
H -3.7163689369 -0.0030164519 -2.1633381508
H -4.3751645870 -2.4265947048 -1.4567473992
H -3.1149340587 -2.2703684521 -2.6717585496
H -2.8009641173 -3.7578053900 -0.2645208985
H -0.3783898984 -3.8492869090 -0.9028062602
H -0.6167806465 -2.3934948801 -1.9789421317
H -1.1326876642 -2.5001601789 1.0865306522