21

C -0.1001139538 1.2015540045 0.1862554488
C 0.7838662289 2.4147406430 -0.1444509108
C 1.8432674374 2.1619458654 -1.2349991198
C 1.2792002219 1.5572949452 -2.5026007786
O 2.1262173984 0.6564053511 -3.2254728082
C 0.9213554059 0.1345240074 -2.6626624997
C 1.0294027899 -0.9517538303 -1.6017513144
O 1.5824615799 -0.5669027924 -0.3629236593
C 0.6530327856 -0.0704198972 0.5906195863
H -0.7658334377 1.4579469903 1.0203384429
H -0.7599972587 0.9792729436 -0.6604949410
H 0.1308903673 3.2437283300 -0.4459341490
H 1.2989218758 2.7518345129 0.7638505406
H 2.3287299404 3.1119049969 -1.4898273786
H 2.6151591450 1.4901297248 -0.8602959832
H 0.7408181553 2.2579578179 -3.1467395958
H 0.1639961005 -0.1038008797 -3.4158378144
H 0.0281683503 -1.3906898629 -1.4598362355
H 1.6772643856 -1.7435970441 -1.9974510471
H 1.2496926994 0.1156909570 1.4906473072
H -0.0789556874 -0.8584806636 0.8348818496