20

C -0.0828093540 1.5279656063 0.0771535327
N 0.1170622531 0.0833950067 0.1215913552
C 1.3843544256 -0.5521083128 -0.1585452393
C 2.5911533852 0.2577156254 0.3576500948
C 1.9442993253 0.1942937440 1.7529364871
C 2.5992831734 0.1212053139 3.0581045085
O 1.8417921777 1.2763500823 2.6707136738
C 0.7573938719 -0.6058516601 1.2281866577
C 0.0196719362 -1.6824171524 1.9678732325
H 0.7367849348 2.1304024999 0.4873121738
H -0.2466242262 1.8222764108 -0.9644272290
H -0.9885396437 1.7671209766 0.6421933250
H 1.4242554996 -1.3270574864 -0.9166801393
H 3.5312112520 -0.2975555337 0.3063505122
H 2.7397488781 1.2516358315 -0.0726262625
H 2.1612073864 -0.4748433851 3.8581289799
H 3.6764047289 0.2698263153 3.1290503318
H -0.5892403822 -1.2556262850 2.7736614687
H -0.6504876713 -2.2130479805 1.2872709116
H 0.7107699493 -2.4038020367 2.4165381350