16

C 0.0620449388 1.5057502508 0.0547306037
C 0.0334201592 0.0202072512 0.0183840007
C 0.8861653712 -1.0393404797 -0.6060712380
C 0.5195234064 -1.0696425175 0.9215448914
C -0.8145081420 -1.8082822419 0.8536442288
N -1.2092084724 -0.8382595937 -0.2968656392
C -0.3267748589 -1.7679214485 -1.1785942203
C -0.6473504964 -2.9106139688 -0.2031803501
O -0.8366872770 -4.0862383982 -0.2719716642
H 1.0683445861 1.8602689376 0.3025920523
H -0.2182394428 1.9277604920 -0.9164115732
H -0.6311746098 1.8935754690 0.8089227546
H 1.9116711026 -1.0078056002 -0.9496464240
H 1.2771913185 -1.0602361652 1.6939110810
H -1.4608991223 -1.9008217759 1.7235435101
H -0.5072854113 -1.8219015313 -2.2498609334