21

C -0.0732811958 1.5852816123 -0.0419832578
C 0.0385472618 0.0606192538 -0.0030265141
C 0.7711687119 -0.5492752827 -1.2274331456
C 1.3097867864 -1.9243255168 -0.7654593790
C 1.5755575776 -1.7766073455 0.7420110660
C 2.8699271947 -1.0837065028 1.2188732291
O 3.0034351424 0.1651760354 0.5269573325
C 2.1293172941 0.1087207823 1.6631221928
C 0.7811457896 -0.5058499023 1.2227181890
H 0.9198666750 2.0462659830 -0.0536386160
H -0.6061135002 1.9184490428 -0.9388906032
H -0.6162730445 1.9716634513 0.8276996413
H -0.9763370059 -0.3604510504 0.0245473316
H 0.1074444720 -0.6356603063 -2.0942801792
H 1.6039728104 0.0978993912 -1.5101250897
H 0.5497732844 -2.6991832471 -0.9196578289
H 2.1984519527 -2.2314858946 -1.3254350513
H 1.3710601157 -2.6818877417 1.3179553812
H 3.7838202968 -1.5303646572 1.5949081000
H 2.3322904920 0.8071084365 2.4673016493
H 0.1298615891 -0.6810586111 2.0826642320