18

C -0.1075170326 1.4671675861 -0.0135376602
C 0.0853863971 -0.0246925637 0.0400144402
N -0.7130741772 -0.8434930476 0.9708641791
C 0.7702126942 -0.7592605794 1.1384714176
C 1.4610182172 -1.9277060104 0.5199570679
C 1.2370790294 -1.9669885430 -0.7928035907
C 0.4165091137 -0.7715086463 -1.2734920126
C -0.7535466706 -1.1244265910 -2.0699865704
C -1.7109969865 -1.3995237905 -2.7423272445
H 0.7454451627 1.9619352379 -0.4909059690
H -1.0054577166 1.7208970056 -0.5885643803
H -0.2196010249 1.8865211950 0.9917762603
H -1.1537691519 -0.2132261680 1.6406506624
H 1.1706614541 -0.2558702962 2.0124991855
H 2.0266825278 -2.6572785842 1.0867692563
H 1.5591790273 -2.7410687645 -1.4783799452
H 1.0583471558 -0.1215092754 -1.8891482602
H -2.5628502089 -1.6521492244 -3.3233662062