21

C -0.0105170894 1.5577324074 0.0121863806
C 0.1072057089 0.0500246771 -0.0775775910
C 0.6890359841 -0.7290621342 -1.2066638791
C -0.0328945254 -1.8550374377 -1.8927424123
C 1.9234403942 -0.0303419858 -1.8011488022
C 2.6135912659 -0.0142703710 -0.4026211376
C 1.3972127462 -0.7090994011 0.2073044445
C 1.4573839929 -1.8024327090 1.1761948386
O 2.4725251353 -2.2013057319 1.7029638434
H 0.8494101288 2.0719871344 -0.4224743176
H -0.9051109550 1.9023462555 -0.5177140149
H -0.0962078849 1.8774101917 1.0558194009
H -0.7497576102 -0.4657727620 0.3569233131
H -0.5920745374 -1.4764705032 -2.7578564885
H 0.6647130998 -2.6157096771 -2.2596319893
H -0.7507889433 -2.3447708371 -1.2280314118
H 2.4492248182 -0.6693236892 -2.5142900203
H 1.7397400867 0.9371119886 -2.2790433454
H 3.4981077532 -0.6507957421 -0.3571835767
H 2.8701013045 0.9643847664 0.0127215287
H 0.4723502670 -2.2774269298 1.3989313569