16

O 0.0453861655 0.0965197735 0.8618700608
C -0.0466236865 1.0107889501 0.0881411356
O -1.2742637819 1.4651123824 -0.2629854111
C -1.5347393908 2.0696340869 -1.5289679204
O -1.0099603865 3.3405917787 -1.6926882161
C 0.2775465759 3.3785086028 -2.2747808052
C 1.3719841486 2.7941329194 -1.4112058232
N 1.3602592732 3.1203589374 0.0042662459
C 1.1994021043 1.7033310995 -0.4033302966
H -1.1956457206 1.3931357058 -2.3281243786
H -2.6216445188 2.1600003918 -1.5473015707
H 0.2736761000 2.8594202349 -3.2469631532
H 0.4896770365 4.4362391807 -2.4596356870
H 2.3340814736 2.7719864450 -1.9259052663
H 2.2967579058 3.2706568709 0.3681946699
H 2.0529742017 1.0477980302 -0.2555480239