23

C 0.2302735184 1.1119029722 -0.1508289476
O -0.3903597018 -0.0247095553 0.4145423471
C 0.4091537149 -0.6634191545 1.3604974875
C 0.0114684462 -2.0545517519 1.7420737395
C 1.2736621894 -1.8263654997 0.9469926977
C 1.5454328628 -2.2696509642 -0.4948963830
C 3.0661821670 -2.3723341641 -0.1430021889
C 3.9611427086 -1.3357478893 -0.8109312142
C 2.7267256450 -2.0917279179 1.3581258542
H 1.1659574562 0.8574799354 -0.6686957685
H -0.4715287947 1.5377919607 -0.8719844996
H 0.4558928453 1.8700773311 0.6150075867
H 0.7911429488 -0.0030144729 2.1433278175
H 0.0888575526 -2.3460633647 2.7850466337
H -0.8358660132 -2.4767817897 1.2105657740
H 1.0875749526 -3.2282360181 -0.7570514063
H 1.2860531354 -1.5452718474 -1.2727231711
H 3.4781682675 -3.3717184104 -0.3091867139
H 3.5749426741 -0.3214706200 -0.6544094433
H 4.9783663273 -1.3680411255 -0.4045637353
H 4.0255340627 -1.5036842010 -1.8918389603
H 3.2596002579 -1.2472866338 1.8092509919
H 2.8521814273 -2.9630592187 2.0086338623