17

O 0.0090129992 1.3739445433 0.0008071696
C 0.1305848502 0.0001923697 -0.0277250227
C 0.3976140188 -0.9742004076 1.1616675211
C -1.1284435797 -0.9629455113 1.5749879048
C -1.0982478012 -0.9364372453 0.0398773836
O -1.8590189175 -0.8983925955 -1.1313042732
C -0.7615677340 -0.8799818986 -2.1038891729
C 0.5202573929 -0.9210865988 -1.2127332719
C 0.1220071517 -1.8866454832 -0.0700705998
H 0.8883865194 1.7599776247 0.0732831023
H 1.2575880611 -1.0083256300 1.8273078867
H -1.5127889572 -1.8677116766 2.0534669001
H -1.4879746926 -0.0621345562 2.0777744663
H -0.8560783740 -1.7523333887 -2.7592162342
H -0.8317549552 0.0353971192 -2.7003189562
H 1.4831754723 -0.9221982387 -1.7273762755
H 0.0600749359 -2.9716858363 -0.0776616382