18

O 0.0612147694 1.4215238928 -0.1382760928
C 0.0150415228 0.0200873179 0.0143079158
C 0.6603019695 -0.5185257197 1.3371411648
C -0.4181095568 -1.4230585480 1.9580992504
C -1.2562345688 -1.8590153395 0.7495807127
C -1.4453917916 -0.4795883424 0.0950727801
N -2.2603440428 0.3711503353 0.9747025866
C -2.1084016488 0.1954045854 2.2179928393
O -1.2569171336 -0.6498334407 2.8525430135
H 0.9807508903 1.6779578526 -0.2571206498
H 0.4889766123 -0.4725585658 -0.8498873454
H 1.5743227705 -1.0866345200 1.1381693934
H 0.9113083184 0.3053434380 2.0097462577
H -0.0255691084 -2.2331715050 2.5734049050
H -0.6849800010 -2.5426856366 0.1127796147
H -2.1980894071 -2.3370552572 1.0274609746
H -1.9192542315 -0.5080851744 -0.8879216935
H -2.7012881228 0.7476078775 2.9444463331