25

C 0.2860585870 1.5079506019 0.1738334371
C 0.0075948748 -0.0029613390 0.0052266542
C 0.6281541678 -0.7335912782 1.2142330208
C -1.5220258959 -0.2043489451 0.0229051073
C 0.6081014243 -0.5622267995 -1.3270570289
C 0.3558126179 -2.0583036842 -1.5367104655
C 0.3113384063 0.2945516457 -2.5909579370
O 1.6706390434 0.7649840118 -2.6547364722
C 2.0779692144 -0.1405020670 -1.6120265254
H 1.3546008696 1.7344995421 0.2087532895
H -0.1552607105 2.1060207764 -0.6273409890
H -0.1506403595 1.8542770053 1.1163169953
H 0.2680333987 -0.2904657528 2.1485694448
H 0.3671940157 -1.7951352057 1.2360187240
H 1.7208901780 -0.6538329437 1.2145423354
H -1.9988707954 0.2615633052 -0.8465675656
H -1.8011132757 -1.2614293832 0.0348564825
H -1.9530952810 0.2564215551 0.9178356908
H -0.7117857400 -2.2927440766 -1.5806050347
H 0.7998209530 -2.3841709563 -2.4826114279
H 0.8002981595 -2.6652140650 -0.7425140646
H 0.0419508804 -0.2971953354 -3.4768554942
H -0.4044203035 1.1178164597 -2.4931825655
H 2.6260983511 0.3715180585 -0.8138880734
H 2.7072756198 -0.9535520601 -1.9999337177