18

C -0.0113129156 1.3836617175 -0.4793580107
C 0.0723955684 -0.0441807533 0.0214780396
C -1.0873836112 -0.7276929958 0.2088244234
N -1.3402234047 -1.9896590325 0.6497942770
C -0.3365447438 -2.9265408072 1.1014391781
C 0.9213416578 -2.8333160383 0.2433863575
O 1.7677915202 -1.7614311349 0.6190876218
C 1.4492371323 -0.4527444039 0.3516277274
O 2.3528035808 0.3473969801 0.4153184974
H 0.3866458649 2.0841758451 0.2609430162
H 0.5860550502 1.5233001600 -1.3865485242
H -1.0448199670 1.6624194299 -0.7045734787
H -2.0046324868 -0.1999495842 -0.0407389035
H -2.3022384614 -2.2230311408 0.8210113321
H -0.0505728792 -2.7573929954 2.1503723728
H -0.7560345011 -3.9355033512 1.0275494621
H 1.5260885928 -3.7314990485 0.3908958614
H 0.6495366934 -2.7688620065 -0.8172174398