23

C -0.1653730921 1.5141679343 0.3470606565
C 0.2038001213 0.0415386382 0.2054560927
C 1.1134152324 -0.4020208144 -0.9968295522
C 1.5982133025 0.6542151882 -1.9839059849
C 2.1489897537 -1.0012127247 0.0102608814
C 3.4462128273 -0.2215400540 0.2425639295
O 3.0901289951 0.9005698031 1.0451424981
C 2.1301605597 0.4202609200 1.9820635181
C 1.2416346142 -0.5587299920 1.2095702379
H 0.7169837000 2.1596845649 0.3583133714
H -0.8073640382 1.8366620662 -0.4795507927
H -0.7189575183 1.6879526132 1.2769040784
H -0.7191425697 -0.5470904540 0.2196034127
H 0.6290934245 -1.2045157107 -1.5624624621
H 2.1102519667 1.4802920810 -1.4831228633
H 2.2958386592 0.2178636528 -2.7079098259
H 0.7596788489 1.0725923205 -2.5507058253
H 2.3337907744 -2.0706387488 -0.1082167898
H 4.1755377073 -0.8554194925 0.7738995597
H 3.9205146555 0.1571543200 -0.6664389086
H 2.6342466234 -0.1037715431 2.8111131007
H 1.6053510434 1.2861925770 2.3936393637
H 0.8482559589 -1.3461871751 1.8553450341