23

C -0.0027855555 1.5032277180 -0.3609140065
C -0.0553951386 0.0286147030 -0.0317359325
C 1.2043983021 -0.8264112165 -0.0407851110
C 0.4827235275 -0.5242444257 1.2503410866
C 1.1186989278 0.2926079498 2.3829731649
C 0.6898975279 -0.4774604769 3.6510002083
C 0.3062706978 -1.8594385486 3.0999554746
C -0.6911150237 -2.6500176794 3.9266375869
O -0.2735478071 -1.5665354621 1.8293165058
H 0.9176168841 1.9658859846 0.0100281008
H -0.0346546927 1.6628460831 -1.4443667123
H -0.8476230018 2.0446982468 0.0799118136
H -0.9482636305 -0.4843033601 -0.3803721035
H 1.1279530357 -1.8356746717 -0.4301086864
H 2.1535767609 -0.3310614279 -0.2277386098
H 2.2074119742 0.3195982879 2.2808909976
H 0.7670988512 1.3277680946 2.3978882113
H 1.4742267481 -0.5261328880 4.4106765441
H -0.1920950192 -0.0136522734 4.1053927947
H 1.2226689328 -2.4578667105 2.9529574691
H -1.6091315041 -2.0716550718 4.0704723761
H -0.9502893533 -3.5879534250 3.4275660758
H -0.2701679337 -2.8883683201 4.9084309819