15

C -0.0175669406 1.4133215223 -0.1894319316
C -0.0325175721 -0.0614180334 0.0844724124
N -0.0869443416 -0.5365899833 1.2561406066
O 0.0207588185 -0.7477067790 -1.1013118413
C 0.0159422691 -2.1550062963 -1.0487264033
C 0.0811386394 -2.6589827923 -2.4819598424
F 1.1920699631 -2.2509050697 -3.0995657548
F 0.0782494754 -4.0007996583 -2.4728618635
F -0.9667724631 -2.2469381097 -3.1991144380
H 0.8892047090 1.6857650827 -0.7379177874
H -0.8708923851 1.6886526336 -0.8166724455
H -0.0590111211 1.9587137394 0.7518733588
H -0.0901285890 -1.5547140673 1.2875199066
H 0.8847151662 -2.5480757350 -0.5068541663
H -0.9003249582 -2.5450225937 -0.5891150503