25

C 0.1949424961 1.4460194991 0.2853957405
C -0.1934987288 0.0349541930 -0.1750670450
C 0.6029853097 -0.4774077376 -1.3676269795
C 0.4043641761 0.2888365793 -2.6630041549
C 1.9774864887 -1.0601577148 -1.0951208126
C 0.8316374530 -1.9637299413 -1.4674971423
C 0.2679154860 -3.0938379999 -0.5893661054
C 0.5382418729 -4.0792880022 -1.7639600683
C 0.7793731859 -2.8672967875 -2.7109641062
H 1.2594157119 1.4972747692 0.5383324513
H 0.0016839975 2.1942658159 -0.4896161619
H -0.3757080984 1.7381062523 1.1726850389
H -0.0668800205 -0.6594288134 0.6637024600
H -1.2641233039 0.0164606403 -0.4235287794
H 0.7377795968 1.3285452115 -2.5738926877
H 0.9658213839 -0.1646507816 -3.4850374680
H -0.6534407776 0.3047451160 -2.9539250779
H 2.7615127717 -0.8982145242 -1.8297448907
H 2.3305379873 -1.0823632160 -0.0674144018
H 0.7864241008 -3.2982821518 0.3514971182
H -0.7995790079 -2.9758201801 -0.3747231697
H 1.4447064780 -4.6691944743 -1.6082568758
H -0.2743622805 -4.7579659627 -2.0321159370
H -0.0812833596 -2.6568412119 -3.3548807114
H 1.6754198109 -2.9048862071 -3.3367461934