22

C -0.1872338559 1.5316046973 0.5938823054
C -0.1745844434 0.0273691241 0.4800966518
N 0.9259121842 -0.5705243931 -0.3039038022
C 0.8527534364 -0.8258606101 1.1294756899
C 1.8999300166 -0.4514503694 2.1837109079
C 1.3073196521 -1.5655655216 3.1045889680
C 0.3685718514 -1.0475352104 4.1899490074
C 0.5728473359 -2.1512683061 1.8480319731
O -0.7423981736 -2.6396321798 1.9435767274
H 0.8301853053 1.9184501791 0.6918436942
H -0.6343644961 1.9843435795 -0.2974941770
H -0.7686918389 1.8570020571 1.4642264458
H -1.1545325730 -0.4365096777 0.3640586810
H 0.5932645770 -1.3834664309 -0.8192165065
H 2.9187453839 -0.6636801355 1.8488824811
H 1.8648508351 0.5680935429 2.5770404924
H 2.0438012011 -2.2424869056 3.5451942074
H -0.3474198230 -0.3171882247 3.7923389870
H -0.1990102191 -1.8645684302 4.6475261643
H 0.9319699789 -0.5437007307 4.9815947840
H 1.1534483988 -2.9688460414 1.4062533952
H -1.2866389737 -1.9493844627 2.3371981125