19

C 0.0600530659 1.4943367972 -0.0464041577
C 0.0071332693 -0.0111600519 -0.0502645287
O 0.6499167180 -0.5516543875 -1.1865238927
C -0.0074458911 -1.7993023056 -1.4849470260
C -0.7340254702 -2.1431150158 -0.1858593515
C 0.3424369650 -2.2134217098 0.9407584528
C 0.2690900534 -0.7294712288 1.3351499508
O -1.1545456832 -0.5834614410 1.6261870158
C -1.3291730732 -0.7462693156 0.2040106501
H 1.0982919026 1.8401906199 -0.0234962681
H -0.4110131160 1.8992467683 -0.9469165967
H -0.4585263628 1.8809076918 0.8343107873
H -0.6944586335 -1.6640220527 -2.3339524107
H 0.7489415666 -2.5385044936 -1.7669953028
H -1.4277269221 -2.9803912095 -0.2470096120
H 0.0484019672 -2.8446523025 1.7815453415
H 1.3218210837 -2.5283456818 0.5719438622
H 0.9230668686 -0.3369777936 2.1143419257
H -2.3035593083 -0.4447761371 -0.1798028895