15

N -0.0523779223 1.1307122987 0.8259029770
C -0.0222370513 0.0988288864 0.0697439419
N 1.1613382121 -0.3634700231 -0.5457165287
C 1.5901656252 -1.6570489475 -0.8821023204
O 2.7424303806 -1.9752253718 -0.7567613619
O 0.6798228125 -2.5177486891 -1.3673681258
C -0.4843216583 -2.0294872595 -2.0547786202
C -1.5365849730 -1.4893071509 -1.1320571154
C -1.2998376277 -0.5761745643 -0.1911284199
H 0.8712429863 1.5520185262 0.9433205816
H 1.9748319958 0.1770423584 -0.2796224457
H -0.1770922505 -1.2748284766 -2.7897896854
H -0.8557077132 -2.8980968036 -2.6004692750
H -2.5443468489 -1.8733622678 -1.2568100984
H -2.0972801174 -0.2116121254 0.4454447463