17

O -0.0811473570 1.3184205158 -0.0611442459
C 0.0511540477 -0.0763097492 -0.0490880653
C 1.1638287881 -0.6523930278 -0.8110140226
C 1.2700628935 -1.9847569003 -0.8435291911
C 0.2558793684 -2.7593581563 -0.1205599225
C -0.3444359610 -2.2692449987 1.2054146990
C -1.2032414444 -2.2899214902 -0.0345862961
C -1.3133285768 -0.7541113241 0.0137406975
C -0.4481916095 -0.7347400563 1.2534611626
H 0.6474732731 1.6866097093 0.4505662690
H 1.8410416722 0.0226464226 -1.3229333606
H 2.0593669806 -2.4979975974 -1.3817004793
H 0.3428712282 -3.8406592077 -0.1625987784
H -0.3649575974 -2.9116246001 2.0757147543
H -2.0160559201 -2.9500356066 -0.3059946014
H -2.1996603424 -0.1795969524 -0.2167668820
H -0.5466806032 -0.1370123407 2.1495075328