16

N -0.1403574254 1.3225882555 -0.0847678348
C -0.0009445566 0.0828248731 0.1020784305
O 1.2098789283 -0.4950542893 0.3722059784
C 1.3350763093 -1.8889515191 0.7448062143
C 0.1432946279 -2.4102598326 1.5125235934
C -1.0185026325 -1.9422566138 1.0953606871
C -2.4455465747 -1.6475256426 1.4741197793
O -2.4342924831 -0.5059934076 0.5677385142
C -1.1489075665 -0.8975523831 0.0309296969
H 0.7543763450 1.8031673312 0.0316695314
H 1.5186665916 -2.4725175933 -0.1679480753
H 2.2440689664 -1.9319108198 1.3497964775
H 0.2922843952 -3.0521659614 2.3732882994
H -3.1886720213 -2.3958712980 1.1682763079
H -2.6299313842 -1.3567720653 2.5143910511
H -1.2503012796 -1.2696176039 -1.0002533712