21

C 0.3640541461 1.4137539962 -0.2743019558
C -0.0931015294 0.0131485974 0.0761455785
C -1.5936859531 -0.2028243093 -0.0685321014
C -2.2055417124 -1.3718887269 0.6946354992
C -1.8061266187 -2.7953449038 0.4922365288
N -1.4740195321 -2.0987843765 1.7321135692
C -0.0864666671 -1.7381471841 2.0287655698
C 0.6390977161 -0.7778221173 1.1008025688
N 0.8559648135 -1.0415798440 -0.3358014465
H 1.4529215140 1.4827735634 -0.2161463983
H 0.0649012400 1.6756452621 -1.2962323935
H -0.0725990678 2.1550179446 0.4044459610
H -2.0857291809 0.7106056844 0.2880144307
H -1.8532211256 -0.2782729790 -1.1338597334
H -3.2482782042 -1.1969275775 0.9570085545
H -2.5448638276 -3.5881098143 0.5939247772
H -1.0238243082 -3.0281098222 -0.2255478707
H -0.0897354902 -1.2745169780 3.0244093249
H 0.4869378574 -2.6686634217 2.1278191610
H 1.5046004203 -0.3163780743 1.5763326100
H 0.3726752400 -1.8821497093 -0.6329947742