19

N -0.3298467427 1.4426502389 0.0232144727
C -0.0265639141 0.0117132519 -0.0037660855
C -1.2833197456 -0.7487572756 0.1250886841
N -2.2504226488 -1.3753580653 0.2082652128
C 0.7563877015 -0.4497419914 -1.2596932025
C 0.9495146816 -1.9774586731 -1.4108122024
C -0.0088906594 -2.3488990355 -2.5583442514
C -0.0446743761 -1.0524308024 -3.3681027825
O 0.0342921151 -0.0029256390 -2.4035626982
H 0.5418082450 1.9607488337 0.0912739171
H -0.7452452914 1.6908776197 -0.8715853798
H 0.5812088100 -0.2247784254 0.8789579807
H 1.7271258976 0.0677390282 -1.2206384042
H 1.9860741255 -2.1963860598 -1.6818823954
H 0.7277827360 -2.5178000034 -0.4871675184
H 0.3382665298 -3.2047572199 -3.1416779463
H -1.0036329622 -2.5751117389 -2.1671288862
H 0.8075950364 -0.9919408175 -4.0628309820
H -0.9658147082 -0.9094706651 -3.9388165527