20

O -0.0495486165 1.4978728158 -0.0327253147
C 0.0061917774 0.1000904071 -0.2649830277
C -1.3390772889 -0.4906092629 0.1348098710
C -1.3951971315 -2.0026779825 -0.0663936896
C -2.7370239246 -2.6204479815 0.2821470472
O -3.7102994511 -1.9582523468 0.5809047231
C -2.8182210411 -4.1164968836 0.2394786902
C -3.4527690731 -4.7762256238 1.4277652640
N -4.1568978430 -4.7177450659 0.1555307867
H 0.7955767556 1.8804027910 -0.2855279688
H 0.2105862717 -0.1212755234 -1.3262745149
H 0.8123943105 -0.3704573447 0.3231286962
H -1.5390729227 -0.2454531710 1.1828735022
H -2.1308251944 -0.0092005009 -0.4468716334
H -1.1779305099 -2.2725144516 -1.1112820320
H -0.6231964780 -2.5190533173 0.5226906680
H -2.0318400697 -4.6400757972 -0.2965034424
H -3.1038439382 -5.7602553694 1.7273875712
H -3.7765614565 -4.1224370021 2.2327888769
H -4.8219149360 -3.9434612492 0.1924888169