20

C 0.4241429702 1.3445892143 0.0257444300
C -0.0267774732 -0.1207080925 0.0087367945
C 0.5270470403 -0.9425000233 -1.1990483933
C 1.5912379293 -1.8656459879 -0.6256094830
C 2.6733906246 -1.2740673713 0.2011805621
N 1.5088523330 -1.9026556552 0.8436745967
C 0.4587092092 -0.9561353918 1.2484434548
C -1.5478143787 -0.1817522147 -0.0302201836
O -2.2883655164 0.7654949287 -0.0256938332
H 1.5123802121 1.4373142597 0.0129417114
H 0.0250801988 1.8792510066 -0.8406360942
H 0.0481309940 1.8518310795 0.9184403680
H -0.2646647682 -1.5528495508 -1.6509954589
H 0.9057748766 -0.2820005547 -1.9845912372
H 1.7567339588 -2.8159284263 -1.1260235740
H 3.6055425360 -1.8145590147 0.3388973831
H 2.7737908759 -0.1935439158 0.2329764024
H 0.8131924998 -0.3043740811 2.0528399448
H -0.3671538038 -1.5530984516 1.6543631330
H -1.9484404283 -1.2235660970 -0.0615160937