19

C -0.0716737125 1.5867422443 -0.0261916310
C -0.0021763206 0.0656650290 -0.0032579734
C 0.7098113887 -0.5446821740 -1.2326585832
C 1.8031942589 -1.1257442186 -0.3714085984
C 1.1187198389 -0.5694820220 0.9148856264
C 1.9346068197 0.3787151089 1.6499354283
N 2.6003930457 1.1271593595 2.2283355730
N 0.9314183683 -1.9678055526 -1.1414917278
C -0.0161027072 -2.9098209293 -0.5681498640
H 0.9038643809 2.0318966759 -0.2433828683
H -0.7732835509 1.9143310511 -0.8004056709
H -0.4139864427 1.9851200164 0.9330987236
H -0.9957618345 -0.3475176785 0.1982625244
H 0.7704082341 -0.0680600684 -2.2059965081
H 2.8763252110 -1.1801793639 -0.5156072423
H 0.7715472203 -1.3389481840 1.6118772660
H -0.5656171354 -2.5495139261 0.3133083438
H -0.7495273402 -3.1745336533 -1.3352611435
H 0.5225579176 -3.8189438041 -0.2853422146