18

C 0.1719199619 0.9834529918 -0.3481081743
O -0.4316415709 -0.0466169139 0.4196124205
C 0.4328226068 -0.6375877651 1.3277426269
C 0.1048466195 -1.9744756178 1.8860381245
C -0.5685137102 -2.8408837991 0.8146516304
C 0.7200481506 -2.7128274153 -0.0742341446
C 0.5958385589 -2.2277306078 -1.4443537285
N 0.5163699972 -1.8593662411 -2.5377289347
C 1.3487951118 -1.7825715942 0.9784915966
H 1.0006755970 0.6004055347 -0.9555170049
H -0.6007853510 1.3773809886 -1.0105682587
H 0.5409519572 1.7935031386 0.2979746885
H 0.8775040444 0.0579672890 2.0432632164
H 0.0593016401 -2.1628257191 2.9513988276
H -0.7385849788 -3.8719821477 1.1256065843
H -1.4821207895 -2.4280607237 0.3861395870
H 1.2487428506 -3.6688014870 -0.1025332135
H 2.4027166142 -1.7836088709 1.2294372965