19

O -0.7499021436 1.3980270527 0.4758928925
C 0.3774007706 0.9788092201 0.4952111061
C 1.6177485183 1.8324240974 0.1788613898
O 2.6914841184 1.2740983826 0.2035431659
C 1.3881001010 3.2953911995 -0.1085199436
C 1.0675626484 4.0648916143 1.2174381956
C 1.6266136227 5.4715123296 0.9601653997
C 2.9403302996 5.1964032374 0.2131486462
C 2.6048595245 4.0248730761 -0.7387323897
H 0.6354098846 -0.0750189519 0.7337741952
H 0.5036349226 3.3614720910 -0.7498033046
H 0.0026948827 4.0406280891 1.4554519747
H 1.6062655163 3.6075876319 2.0567688339
H 0.9364443260 6.0341554497 0.3190940288
H 1.7621873977 6.0460878040 1.8810927982
H 3.3269521297 6.0713520306 -0.3161731960
H 3.7096248010 4.8867255646 0.9300640307
H 3.4469286583 3.3406495147 -0.8610096543
H 2.3361471011 4.3965267166 -1.7317667291