14

O -0.0793337556 0.4538996008 1.2143533302
C -0.0834034363 1.2606190912 0.3169317644
N 1.0146166409 1.6499577152 -0.4148942126
C 2.2896563860 1.0696371513 -0.3090377139
C 2.9278548973 0.6775596042 1.0283272995
C 3.6592881753 1.5874852264 0.1201704344
O 4.3066511728 0.8040227954 -0.9171674847
C 3.0717380791 0.3976195770 -1.4189102588
O 2.8535063968 -0.1918617760 -2.4239159567
H -0.9888516693 1.8079244716 -0.0097676123
H 0.8512302431 2.2877607273 -1.1800960368
H 2.4292462855 1.1284739496 1.8788103360
H 3.2805007412 -0.3367285227 1.1805258843
H 4.0224055433 2.5901232087 0.2916421571