15

N -0.1999556176 -1.0824549570 -0.2028433416
C -0.0761523000 0.0506998866 -0.0213828370
C 0.0429825261 1.4898442489 0.2275640109
O 1.2757886981 1.9456296001 -0.2793400568
C 1.4484301754 3.3351925185 -0.1328151950
C 1.9383917647 3.8624248957 1.2385568742
O 3.1201140250 4.4201772123 0.6314034049
C 2.8112817908 3.8201332397 -0.6441953152
H -0.8045345127 2.0027971114 -0.2555833345
H -0.0445285181 1.6646691937 1.3114635700
H 0.5826552776 3.8750259482 -0.5394121578
H 1.3284022445 4.6279964547 1.7310489464
H 2.1741337559 3.0604439019 1.9511836471
H 3.4852058222 2.9920161781 -0.8947564870
H 2.8054401679 4.5535592072 -1.4570315287