20

C -0.0509451532 1.5684320166 -0.1758568791
C 0.0179943770 0.0604371047 -0.0496079353
C 1.1144340959 -0.6827470330 -0.8940499703
C 1.2763056313 -1.6000814406 0.3179737131
N 2.7139398781 -2.0675206261 0.6308888049
H 3.3404119966 -1.2605987330 0.6915816226
H 2.7496275573 -2.5669477405 1.5226881105
H 3.0637876782 -2.6886117182 -0.1024985621
C 0.7022312793 -0.5230269014 1.2383907147
C -1.3888795973 -0.6646169625 -0.2671548909
O -2.3381338455 0.0853015665 -0.5072971646
O -1.3326377469 -1.9172364633 -0.1618776052
H 0.9284512359 2.0436713055 -0.0223491798
H -0.4297681281 1.8434012774 -1.1633456284
H -0.7606860432 1.9717683755 0.5506679424
H 0.8117150133 -1.1503498879 -1.8312545208
H 1.9988306881 -0.0473942761 -1.0516232030
H 0.6250188518 -2.4708691704 0.2572161056
H 1.4824446753 0.1527377831 1.6195374895
H 0.0608448760 -0.8593829164 2.0533392164