16

N -0.0627723018 1.4658863997 0.2203880382
C -0.0287265949 0.0803999821 -0.0019823487
C -1.0605740092 -0.8068917351 -0.2713760867
C -2.4684579490 -1.3688004975 -0.3340937542
O -3.2055958930 -0.9806880650 -1.4651898717
C -1.7542173324 -2.7982572960 -0.3857193900
N -0.5021973813 -2.0349767313 -0.3330467458
N 0.7995914061 -2.0918355912 -0.0912434004
C 1.0996422445 -0.7857113751 0.0800543577
H 0.8344829774 1.9020358106 0.0505767543
H -0.7627424303 1.9316918212 -0.3424079608
H -3.0488835956 -1.2325371212 0.5876135327
H -4.1094263364 -1.2959827365 -1.3615925693
H -1.9197022308 -3.4452942395 0.4805000041
H -1.9075536717 -3.3459260714 -1.3190846117
H 2.1265994383 -0.4958443939 0.2547926523