21

C 0.1061902281 1.4876955993 0.1298209614
C 0.0110538518 -0.0006247023 0.0076563377
C -0.0163274112 -0.7290739590 -1.1143152097
C -0.1423673088 -2.2124407616 -0.8485547758
C -0.1029398081 -2.3129121394 0.6814297157
C -0.9237368095 -3.3803690951 1.3563736568
O -0.4907107696 -4.6943500669 1.0252885610
C 1.1583944990 -1.8255724505 1.3611241191
C -0.0272907899 -0.8910411029 1.2125339287
H 1.0053918492 1.7852375884 0.6840182554
H 0.1325097776 1.9706836951 -0.8506509594
H -0.7490513839 1.8943026516 0.6847630329
H 0.0605912365 -0.3211180405 -2.1167317736
H -1.0863379949 -2.6171010891 -1.2402685535
H 0.6554495670 -2.7947720529 -1.3260703592
H -0.9198080510 -3.2206553056 2.4472330371
H -1.9666796590 -3.3287898420 1.0230932039
H 0.4459839604 -4.7467864786 1.2436870847
H 1.3638455153 -2.2145554406 2.3549485484
H 2.0397648821 -1.6223438087 0.7608995113
H -0.5585520009 -0.5772802289 2.1062926969