20

C -1.5187392202 -0.0275856933 0.2747118497
C 0.0107001813 -0.0389738145 0.2061142076
C 0.5581582229 -0.6388863847 -1.0978016733
C 2.0703616383 -0.3974120866 -1.2349234927
O 2.2785762195 0.9988443099 -1.3759680702
C 0.3225536401 -2.1519585020 -1.1756533568
C -0.0985779429 -2.7115387225 -2.5209648255
O 0.4887547250 -2.8623660244 -0.2097505477
H -1.9509166001 0.5481302095 -0.5518099778
H -1.9289476618 -1.0422537818 0.2293181760
H -1.8658173633 0.4241493334 1.2089524627
H 0.3993975968 0.9792849557 0.2973478281
H 0.4142070983 -0.6225152699 1.0407707141
H 0.0804389374 -0.1569437208 -1.9604873536
H 2.5744099942 -0.7973063624 -0.3425941634
H 2.4641919550 -0.9417349999 -2.1090205987
H 3.2243835532 1.1676737915 -1.3343932935
H -1.1008848411 -2.3424196427 -2.7699569655
H 0.5694283113 -2.3598644687 -3.3152314552
H -0.1080333239 -3.8018543258 -2.4924649542