18

C -0.0324601791 1.4079915557 -0.2031919261
C 1.3682583803 2.0095639484 -0.0317169823
C 2.0166855951 1.4996487197 1.2553718367
C 1.2175817092 1.4641536699 2.5588299193
C 0.2958826989 0.2901143336 2.5010486555
C 0.5553784900 -0.4229236503 1.1773425505
O -0.0541687644 -0.0038911091 -0.0173361222
C 2.0266713688 -0.0336317127 1.4258069870
N 1.7264463203 0.1061898525 2.9453425877
H -0.7264152577 1.8857037538 0.5043733471
H -0.4138215726 1.5803524938 -1.2130504539
H 2.0005728218 1.7289600646 -0.8831673123
H 1.2916999481 3.1035139677 -0.0327572843
H 3.0080988808 1.9269060671 1.4266514293
H 1.0966902950 2.2496232102 3.2963658627
H -0.5289730705 0.1607579702 3.1916988879
H 0.3880975410 -1.4984431200 1.2603164500
H 2.8533897049 -0.6527614950 1.0840561975