20

C 0.4565361495 1.1982491094 0.3014904507
O 0.8071222863 0.5935204684 -0.9241039098
C -0.1075162474 -0.3809001322 -1.3759971882
C 0.0859819818 -1.7397884531 -0.6883503558
N -0.8435309771 -2.6955082485 -1.2904663542
C -0.3511838740 -3.5997129209 -2.2972907273
C -0.7884267356 -4.1254898283 -0.9540010680
C 0.2505366289 -4.6932878926 -0.0561679106
O 0.0602637155 -5.6490386563 0.6554496423
H -0.5458973890 1.6512331567 0.2557664747
H 0.4775374051 0.4938301672 1.1460024383
H 1.1904685942 1.9851700912 0.4915591696
H -1.1480864658 -0.0482025918 -1.2443026710
H 0.0704726797 -0.4948613707 -2.4510503955
H 1.1444716152 -2.0252499293 -0.7820843967
H -0.1466212400 -1.6643340424 0.3791758330
H -0.9887502352 -3.7772561983 -3.1589362846
H 0.7195182220 -3.6047580982 -2.5055539918
H -1.7573500237 -4.6092511389 -0.8614174381
H 1.2393668494 -4.1852032314 -0.0851667270