23

C -0.0736250738 1.6017760137 0.0442556453
C 1.3569585995 2.1615459558 -0.0458776860
C 2.1908126008 1.6551661218 -1.2650833667
C 3.5210429617 1.0632987653 -0.8637418943
C 3.7253643924 -0.1870145187 -0.4435138412
C 2.6538412788 -1.2547112903 -0.3123340852
C 1.8870068905 -1.1335758864 0.9888405442
C 0.6875829971 -0.5726745297 1.1585473271
C -0.1721839662 0.0563637397 0.0938430584
H -0.5464257836 2.0192775733 0.9427671819
H -0.6706646085 1.9546434992 -0.8068203947
H 1.2983582559 3.2553824422 -0.0681673083
H 1.8885473341 1.9025470846 0.8740960104
H 1.6098939206 0.9129315093 -1.8222679967
H 2.3580944476 2.4817627499 -1.9628525274
H 4.3717502229 1.7423608487 -0.8770023610
H 4.7274727824 -0.4723952339 -0.1306530011
H 1.9668283588 -1.1955576437 -1.1614289753
H 3.1245613660 -2.2432917755 -0.3614749251
H 2.4084279539 -1.5085211039 1.8678401615
H 0.2919032889 -0.5187839102 2.1722486458
H -1.2220510944 -0.2099348656 0.2684305066
H 0.0792771344 -0.3545000156 -0.8881475781