17

C 0.1158905281 1.5012162406 0.1167841194
C 0.0585856269 0.0476528761 0.0557376870
C 0.0032708923 -1.1541213218 -0.0377008725
C -0.0281070076 -2.5877764155 -0.0713535041
C -0.4390734827 -3.3099442985 1.1845948021
O -0.7979358391 -2.5782689954 2.3060742092
C -1.3687508782 -3.3656950772 -0.0210620052
C -2.6596742147 -2.6374617839 -0.0052216587
O -3.6511456703 -3.0359342408 -0.5677238640
H 0.9097154291 1.8443146297 0.7889656675
H 0.3109120854 1.9256811823 -0.8738923423
H -0.8307387752 1.9190415391 0.4758901849
H 0.7353973965 -3.0586529278 -0.6831021656
H 0.0810116136 -4.2333519488 1.4266550810
H -0.4668027720 -1.6765461225 2.1927677860
H -1.3923371296 -4.2910338169 -0.5859918042
H -2.6623654824 -1.6908437287 0.5702501895