16

C -0.0815506150 1.5348300388 -0.0003932230
C -0.0124245577 0.0202068261 -0.0201700399
O -1.3451647919 -0.4862359217 0.0394243645
C -1.4491046750 -1.8275910307 0.0303488186
C -0.5290413952 -2.8282697006 -0.0254828035
O -1.1483328503 -4.0303173686 -0.0077494360
N -2.5254041456 -3.8306062966 0.0620508845
C -2.6916264931 -2.5335086452 0.0839492973
O -3.8975103096 -1.9513358633 0.1493872649
H 0.9269282879 1.9559991617 -0.0452620155
H -0.6517633570 1.9051362086 -0.8564645118
H -0.5649639142 1.8860010330 0.9150924881
H 0.4729694980 -0.3446860784 -0.9374663008
H 0.5596308808 -0.3639377445 0.8373651431
H 0.5462800892 -2.8494748925 -0.0785595410
H -4.5591232111 -2.6558126562 0.1744346106