21

C 0.3224864065 1.4443120214 0.1896124308
C -0.3247037545 0.1057079736 -0.1860846377
C 0.3244519133 -0.5159477216 -1.3995579650
O 1.6279790803 -1.0900724863 -1.2168961244
C 0.5413771420 -1.9577563704 -1.5739693617
C 0.1414488659 -3.0290188634 -0.5488549366
C 0.2272969423 -4.3090838191 -1.3420565650
C 0.4892301464 -4.0950709311 -2.6307989455
C 0.6296439807 -2.6289594773 -2.9525897004
H 1.3863960010 1.3069720139 0.4043144451
H 0.2361194616 2.1698767298 -0.6266809094
H -0.1521078349 1.8784232776 1.0745091513
H -0.2577558183 -0.5893134018 0.6570148805
H -1.3926577745 0.2506693608 -0.3969309452
H 0.2427897678 0.0850123014 -2.3104396286
H 0.8243158088 -3.0072048835 0.3080892812
H -0.8696958160 -2.8658810194 -0.1511465084
H 0.0781106760 -5.2819665669 -0.8874014468
H 0.5857380087 -4.8674639427 -3.3854896699
H -0.1634441985 -2.2830547060 -3.6297443259
H 1.5840339453 -2.3784067791 -3.4305056085