18

C -0.0836389448 1.4574895603 0.0036980481
C 1.2788023758 0.8183631056 0.0937660365
C 0.0412440974 -0.0475225343 0.0523581651
C -0.3784578722 -0.7713284136 1.2649423763
N -0.2078884695 -0.2080541123 2.6828931166
C -0.0833790193 -1.6248883099 3.1819145598
C -1.4262857847 -0.9948747736 3.0932167458
C -1.6183628692 -1.5417219381 1.6587730945
C -0.2260566999 -2.1949622754 1.7507538694
H -0.4583376435 1.9495522586 0.8942516506
H -0.3850477348 1.9146924035 -0.9320817304
H 1.9210915702 0.8328721472 -0.7796295641
H 1.7970187094 0.8915574281 1.0433472013
H -0.1508676322 -0.5872180571 -0.8712958916
H 0.5397114424 -1.8822699779 4.0302091461
H -2.1096795547 -0.6393343917 3.8552236761
H -2.4795022503 -1.8473494625 1.0817700630
H 0.1473733300 -3.0798301369 1.2553138569