23

C -0.1536698980 1.4009868323 0.0392879234
O 0.0148124633 -0.0031452936 0.0448838317
C 0.6983381543 -0.5574631686 1.1799869563
C 2.0852151279 0.0353394485 1.3698372060
C -0.2729176875 -0.6427965615 2.3986755090
C -0.7637341440 -2.0157103278 1.8544928419
O -1.9279287355 -1.9369331125 1.0621467343
C 0.5692951929 -2.1080447594 1.0446710935
C 0.5873023881 -2.7695093595 -0.3231575209
H 0.7943407741 1.9296528916 -0.1231834224
H -0.8265217123 1.6338576544 -0.7898484714
H -0.6035953237 1.7709262240 0.9712949568
H 2.0490261145 1.0911039979 1.6569102217
H 2.6144405154 -0.5007834617 2.1628568403
H 2.6711506133 -0.0491198441 0.4482179227
H 0.2655509962 -0.7348566511 3.3462853237
H -1.0333569614 0.1364953450 2.4927450015
H -0.9479242469 -2.8042148774 2.5881908259
H -1.7641219242 -1.2430631414 0.4099925064
H 1.3313775931 -2.5576850611 1.6917589560
H -0.1877677815 -2.3628857093 -0.9747948589
H 1.5532567323 -2.6256203059 -0.8187904352
H 0.4163650397 -3.8468066888 -0.2274908123