20

C -0.1168518329 1.6495911383 0.0367193571
C 0.0643245642 0.1413659605 0.0713302584
C 1.2351161232 -0.5901730313 -0.6515507396
C 2.4479059124 0.0830104046 0.0494615503
C 2.1192420605 0.0763176282 1.3487711768
C 0.7681468807 -0.6328303516 1.2778523247
C -0.1365543824 -1.5748359398 2.0808354794
C -0.1685664960 -2.4360079445 0.7679842434
N 1.1092449686 -1.7574590594 0.3256681857
H 0.8042841842 2.1827314805 0.2819306586
H -0.4418861865 1.9728608532 -0.9592143133
H -0.8921815083 1.9611675871 0.7462506632
H -0.8936828475 -0.3264365588 -0.1693367571
H 1.2888480692 -0.7627942902 -1.7282762667
H 3.3315293473 0.4641566096 -0.4412907736
H 2.6576611815 0.4389999400 2.2115723830
H 0.3847507707 -2.0847372468 2.8944116284
H -1.0836986821 -1.1713519360 2.4447367840
H -0.0162044316 -3.5110993760 0.8854143531
H -1.0676635051 -2.2769975276 0.1634557642