16

N 0.4718579719 0.3272419344 -0.8399614155
C -0.2198374402 0.4806473548 0.3154009832
O 0.0612368081 1.2752893017 1.1912831286
C -1.4505899626 -0.4320645734 0.4373077164
N -1.4196991403 -1.5796078716 -0.4935165866
C -1.6274195809 -2.6275816756 0.1986529494
N -1.8737232694 -2.5026791881 1.5954503349
C -0.6354275389 -2.0346762003 2.2924316319
C -1.6364835246 -1.0536839832 1.8225282041
H 1.2802101602 0.9030520651 -1.0064600807
H 0.1923619387 -0.3800748998 -1.5002769217
H -2.3160140399 0.1972338076 0.1912037893
H -1.6407138326 -3.6253605200 -0.2308885095
H -0.5892561053 -2.2951573349 3.3442950503
H 0.3014155257 -2.1228294716 1.7491532139
H -2.2866600699 -0.5680893351 2.5392785021