23

C -0.0252007637 1.5014044066 -0.3398199433
C -0.0486651701 0.0259384858 0.0785923554
C -1.4373874788 -0.5582617538 0.1537195050
C -1.7173277406 -2.0782966461 0.2281648814
C -2.9956560402 -1.5842746006 -0.4900963047
C -3.7990825644 -2.4153431582 -1.4499718472
C -3.7212189304 -0.7794374832 0.6155076923
C -2.4918273747 0.0307810247 1.1264217804
O -2.1789893122 -0.5368567978 -1.1167317339
H 1.0034931288 1.8539045314 -0.4590670249
H -0.5457631027 1.6370475064 -1.2919827738
H -0.5109386998 2.1412896747 0.4033425968
H 0.5342349069 -0.5663920512 -0.6361766838
H 0.4326282125 -0.1002116119 1.0572771958
H -1.0663295890 -2.6434987111 -0.4414581025
H -1.8041337687 -2.5613270211 1.2057701723
H -4.3413057396 -3.2006316315 -0.9127652464
H -4.5328934326 -1.7942161779 -1.9745503467
H -3.1527913867 -2.8873028932 -2.1951837516
H -4.5006473694 -0.1427140526 0.1898084293
H -4.1734429857 -1.4196301446 1.3786212979
H -2.2480806030 -0.1574967398 2.1761341245
H -2.6116201061 1.1065250650 0.9856058875