16

O -0.0713945426 1.3270517230 -0.2443777445
N 0.0089093844 -0.0731854749 -0.2583130169
C -1.1028694454 -0.6054869261 0.0783928181
C -2.3297870904 0.1636417927 0.5077979254
N -3.4399348877 -0.6075777424 1.0458383586
C -3.3715086356 -1.8703851487 1.1009464067
N -2.2887781343 -2.7285202838 0.7725993648
C -2.0723126657 -2.9117639791 -0.6760444564
C -1.1303312118 -2.0868985510 0.1411280246
H 0.8246970194 1.5858677625 -0.4837564883
H -2.0268076100 0.9126306121 1.2498645527
H -2.7082190167 0.7563992238 -0.3353832726
H -4.2370102359 -2.4240941873 1.4662201929
H -1.7724911395 -3.9089554306 -0.9835089622
H -2.7528545004 -2.3970044334 -1.3486303817
H -0.1786072876 -2.5423546266 0.3987325489