17

O -0.3292692338 0.4474223593 0.7494850591
C 0.1205183570 0.9482521345 -0.2478733286
C 1.3980013104 1.7555195711 -0.3097350822
C 1.1688772726 3.1449246866 -0.9323888914
C 2.4687658667 3.8963608218 -1.0988421758
N 3.3225823030 3.4869530818 -2.2130217781
C 2.7230582545 4.8373400699 -2.2379040055
C 1.7283327906 5.0863864857 -3.2538571531
N 0.9204863466 5.3090403655 -4.0502811232
H -0.4008266059 0.8440530531 -1.2284067581
H 1.8168194312 1.8224152331 0.6988434556
H 2.1082130529 1.2089886603 -0.9462811109
H 0.6885973866 3.0377679083 -1.9107320912
H 0.4916527725 3.7344515684 -0.3032926430
H 2.9624346104 4.1758661562 -0.1685380105
H 4.3091402252 3.5580846432 -1.9792581721
H 3.3639866693 5.6920486513 -2.0390608611