19

O -0.1122831911 1.4833382462 0.1295076763
C 0.0434414384 0.0751730301 0.0777854114
C 0.6211753743 -0.5623675837 1.3543162043
C 0.1167831857 -2.0049212088 1.2670020644
C -1.3670675541 -1.8286487436 0.8366989343
O -2.1648229604 -1.4600142734 1.9698321799
C -1.3447266596 -0.5792406408 -0.0908977479
C -1.9136703525 -3.0310346995 0.2039210170
C -2.3556196900 -4.0395661345 -0.2796356886
H 0.7633338760 1.8773165112 0.1949941150
H 0.6822735383 -0.2012517791 -0.7765259731
H 1.7105179934 -0.4843997643 1.4218347282
H 0.1802828847 -0.0621905306 2.2224913283
H 0.6588914625 -2.5608021603 0.4935921270
H 0.1954486353 -2.5704057586 2.1997335203
H -2.2648771760 -2.2447061235 2.5206817820
H -2.1168480559 0.1134803811 0.2494546223
H -1.5539036301 -0.8435749605 -1.1279163395
H -2.7539195787 -4.9210676775 -0.7182198713