19

C 0.1159095968 1.4827617288 -0.4060684778
C 0.1772450954 -0.0115212079 -0.1894993508
C 1.4849921214 -0.7224263711 -0.0565198299
C 0.5937144707 -0.5619094449 1.1626405917
C 0.8689895748 0.1599576337 2.4971462696
C 0.3532706302 -1.0988570540 3.2603465286
O -0.6650673188 -0.8609271692 4.1999245651
C -0.0826761565 -1.6782185865 1.8927526410
O -0.7818974187 -2.6046344954 1.5803516937
H 0.9407926972 1.9921090332 0.1019238467
H 0.1817084695 1.7229240290 -1.4726628464
H -0.8216885973 1.9018370792 -0.0260203811
H -0.6217024108 -0.5823999954 -0.6570558980
H 1.5875616651 -1.7222607239 -0.4651235229
H 2.3931174376 -0.1268107831 -0.0664783268
H 1.9038448147 0.4398206302 2.7017266772
H 0.2148085046 1.0175969799 2.6714608983
H 1.1823801165 -1.6850338041 3.6889777832
H -1.2168646326 -1.6514394485 4.2273665087