19

C 0.1308020151 1.2232830065 0.5207717601
C -0.4042437454 -0.0847431762 -0.0709434444
O -1.7793973712 -0.0156733642 -0.4054599720
C 0.4014929556 -0.5159310281 -1.2945619754
O 1.7446709249 -0.9897219809 -1.0890961660
C 0.7886725940 -1.9237380212 -1.5805885413
C 0.4089435120 -3.0978650047 -0.7172802589
C 0.2903893194 0.3505921913 -2.5124157879
O -0.5840155437 1.1643053057 -2.7029394624
H 1.1796023107 1.1128085103 0.8136808670
H 0.0553959221 2.0419821342 -0.2010460823
H -0.4554377932 1.4894990538 1.4039622340
H -0.3223146745 -0.8655290999 0.6899046235
H -1.8532478978 0.6384528687 -1.1144377034
H 0.9424548947 -2.1769604420 -2.6328392942
H 0.3246367102 -2.8234713969 0.3347819310
H -0.5458263818 -3.5159432881 -1.0509318824
H 1.1709779852 -3.8789015869 -0.8053857033
H 1.1033361539 0.1823401087 -3.2515501418