21

C -0.3509638044 1.4802025538 -0.1698278352
C -0.0612592149 -0.0012346590 -0.0727580248
C 1.3305155403 -0.5545156952 -0.3490465262
O 2.3680151561 0.3471970485 -0.6073442253
C 3.2441802450 0.4407523158 0.5088745107
C 2.4933436522 1.0072796904 1.7013791530
O 1.3268002996 0.2567876743 2.0276875606
C 0.7724458850 -0.5925686162 1.0509273027
C 0.3637784161 -1.9042636941 1.6754978964
H 0.5680777765 2.0687175907 -0.1543979190
H -0.8669102990 1.7075282152 -1.1081509278
H -0.9872980929 1.8153124084 0.6554457551
H -0.8712196845 -0.6438991961 -0.4094178985
H 1.4269003703 -1.4881401902 -0.9034763676
H 3.6702764589 -0.5458490675 0.7458137649
H 4.0582116728 1.1124401223 0.2220370044
H 3.1321312885 1.0099030115 2.5925370888
H 2.2109499343 2.0470555642 1.4832997392
H -0.3700289205 -1.7351903908 2.4706825828
H -0.0855955104 -2.5687528588 0.9320256601
H 1.2299138010 -2.4100130172 2.1151896156