17

C -0.0686052106 1.6189157394 0.1287676111
C -0.0608663854 0.0938129370 0.0321638747
O 0.6694481888 -0.4994256702 1.1032034414
C -1.4454471585 -0.4834111732 0.0228195925
O -2.4037378395 -0.2460762829 -1.0468263545
C -3.1496476658 -1.1093819125 -0.1370351448
C -1.9070821540 -1.9564767051 0.2733506041
O -2.0951644587 -1.7627595666 1.7102737250
C -2.5375537889 -0.4880197558 1.1517139743
H 0.9580328208 1.9934294895 0.1316830942
H -0.6039031306 2.0569021134 -0.7194494213
H -0.5551142411 1.9428100985 1.0545167406
H 0.4384196090 -0.2042873220 -0.9002602386
H 0.0435687384 -0.8385115280 1.7553200695
H -4.1696994488 -1.3910731869 -0.3929186830
H -1.5214140942 -2.9078267497 -0.0893693108
H -2.9000036809 0.2901938852 1.8221778857