19

C 0.2232057403 0.8149224065 -0.4920773776
N 1.1310451989 -0.0486417246 0.2330565669
C 0.6400720202 -0.7833555622 1.1263418870
O 1.4297277496 -1.5855154312 1.8724170816
C 0.7743543912 -2.5189297066 2.7270572911
C 0.5621518742 -3.8765781769 2.0416097588
C 1.8708492293 -4.5123998875 1.5861268936
O -0.1836326070 -4.7197915206 2.9112631379
H 0.5263881840 1.8602253480 -0.3624352539
H 0.2861625025 0.5973342130 -1.5644213698
H -0.8307905296 0.7214125872 -0.1818926735
H -0.4289563962 -0.8291460267 1.3914531513
H 1.4223648467 -2.6372872493 3.6029602133
H -0.1927781060 -2.1294591057 3.0680985310
H -0.0872064785 -3.7192365605 1.1710190307
H 2.5219281780 -4.7115625049 2.4477365587
H 1.6787366627 -5.4584802499 1.0733919067
H 2.4104494784 -3.8429767431 0.9113969014
H 0.4198657712 -5.0610508650 3.5804726149