21

C 0.1715577877 1.5852948339 -0.2904179110
C -0.0316200099 0.0889950196 -0.1794863515
C -1.4571885055 -0.4255770425 -0.2792122919
C -2.3305433492 -0.0248467401 0.9213244034
C -3.7170060798 -0.6116961462 0.8301599948
C -4.9115299211 0.1101326091 1.2828169078
O -4.6077773331 0.0019126086 -0.1093094889
C 1.0817412141 -0.8111578561 -0.5169565578
O 0.7484239728 -0.5486591944 0.8486600621
H 1.2293851377 1.8362782545 -0.1821711195
H -0.1776889485 1.9519221641 -1.2616499305
H -0.3821371644 2.1198475484 0.4877643312
H -1.9181900719 -0.0553169079 -1.2027668437
H -1.4300029681 -1.5189259917 -0.3501087477
H -1.8496861245 -0.3716365845 1.8442415077
H -2.4173762831 1.0651571556 0.9864604485
H -3.7622122394 -1.7031831928 0.8223233156
H -5.7893516894 -0.4422886235 1.6155904164
H -4.8039717100 1.1073490162 1.7083575951
H 0.8752169530 -1.8232657221 -0.8638351121
H 2.0309645326 -0.3950683284 -0.8537839780