18

N -0.1252803634 1.2407359743 0.3878192059
C -0.0202640989 0.0579444302 -0.0388601661
O 1.1797757161 -0.5283462354 -0.3008553102
C 1.2708615054 -1.7221413910 -1.0902213548
C 0.1089462847 -2.6590720347 -0.8014993314
C -1.1484121164 -1.8499339098 -0.9620147852
C -1.8466448265 -1.7149928101 -2.2907514189
C -2.5029861630 -2.4466306574 -1.1318971354
O -1.1421713421 -0.6919296838 -0.1457723514
H 0.8019082934 1.6532992073 0.4677666200
H 1.2826058350 -1.4446333854 -2.1524711501
H 2.2377351668 -2.1629731953 -0.8372641110
H 0.1226177946 -3.5051592589 -1.4941122576
H 0.1794829730 -3.0489484438 0.2203745690
H -2.2372127066 -0.7360338282 -2.5418101766
H -1.4799509186 -2.2939332831 -3.1320699595
H -2.5848159177 -3.5272089017 -1.1744186324
H -3.3193331860 -1.9436886833 -0.6268273244