18

N 0.1988282275 1.3351915518 0.1996369626
C -0.0475880510 -0.1144243603 0.0248834241
C -1.5297846086 -0.4008676621 0.1268124495
C -2.4384813560 0.0702294883 -0.7224849190
C -2.0654654469 0.8494320104 -1.9584212105
C -1.1831474261 0.0292429789 -2.8950421606
O 0.1797460108 -0.1962955545 -2.4988056552
C 0.6689689357 -0.5128751204 -1.2823163157
O 1.7642823501 -1.0094762570 -1.2241619612
H -0.2475483996 1.6415440781 1.0590431801
H 1.1976490325 1.4902134829 0.3120983587
H 0.4734961829 -0.7217107817 0.7754708426
H -1.8407776754 -0.9923479016 0.9830805898
H -3.4905487397 -0.1428435129 -0.5518797626
H -2.9623019537 1.1239782511 -2.5235104086
H -1.5439289326 1.7729307749 -1.6879819367
H -1.6422192890 -0.9498133670 -3.0809619546
H -1.0821624910 0.5418226512 -3.8558600826