19

C -0.3559184271 1.5528192488 -0.2081999555
C 0.1013141855 0.0950091459 -0.0166536991
C 0.9123307944 -0.4378798280 -1.1425750373
C 2.1792338043 -0.9208814215 -1.2722190078
N 3.1446810053 -1.1189274017 -0.2691321558
C 2.3521648661 -1.3043270967 -2.6514207795
C 1.1676988764 -1.0207244933 -3.2604958703
N 0.7347919076 -1.0848250056 -4.5793171419
O 0.2810934935 -0.5064495013 -2.3866739894
H 0.5040228193 2.2242899687 -0.2944831005
H -0.9477746303 1.6513984856 -1.1224865772
H -0.9713489482 1.8857504150 0.6339904803
H 0.6973249748 0.0118075123 0.9001899499
H -0.7840635526 -0.5362394778 0.1494254321
H 2.9564540584 -0.5745324340 0.5632128661
H 4.0784858463 -0.8990420458 -0.5937984828
H 3.2296297218 -1.7400428876 -3.1023325258
H 1.2387932635 -1.7734677810 -5.1209465570
H -0.2632232589 -1.2417385822 -4.6461893987