19

C -0.2169350486 1.5285318884 0.0053575871
C 0.0740620320 0.0232266625 -0.0684690272
C 0.7600908506 -0.5113502251 1.1695046096
C 0.9423775254 -2.0388478725 1.4737492456
C 1.2009874833 -1.5810135975 2.9426851624
C 2.3931756743 -0.6598101233 2.7540210532
C 2.1146143858 0.0200583069 1.6264108218
C 0.0897662627 -0.5010376958 2.6136754044
O -0.8392573339 0.0091756787 3.1467308340
H 0.7048871627 2.1124020942 0.0953420915
H -0.7369361631 1.8685375434 -0.8949957200
H -0.8455440914 1.7581351017 0.8703693195
H -0.8680836487 -0.5202635526 -0.2095707900
H 0.6907264268 -0.1982027843 -0.9492989878
H 0.0208200785 -2.6174933306 1.3476513949
H 1.7911455083 -2.5164636002 0.9769861291
H 1.1560107806 -2.2511170524 3.7973999391
H 3.2010013892 -0.5171579810 3.4575303426
H 2.6430513456 0.8535231696 1.1850961903