17

C 0.0367532178 1.5046174016 0.4171193524
C -0.0219729369 0.0466306868 0.0642142937
C -1.1439582644 -0.6778989517 0.0110240244
C -1.1986620470 -2.1308093521 -0.3410520100
C 0.1327857547 -2.7849848097 -0.6516584715
N 0.1651767646 -4.0194503033 -0.9601248641
N 1.2419188911 -1.9478061274 -0.5690333340
C 1.2814629254 -0.5964824643 -0.2400710079
O 2.3428014385 -0.0046302599 -0.2127393213
H 0.6724423257 1.6679729607 1.2930792110
H 0.4828645897 2.0846810427 -0.3968924294
H -0.9614869326 1.8966893127 0.6257527239
H -2.0977384818 -0.2052245789 0.2342377172
H -1.6704900299 -2.6984757717 0.4709441296
H -1.8583978602 -2.2855496842 -1.2041773899
H 1.1170064420 -4.3416726988 -1.1462057317
H 2.1514686733 -2.3445017925 -0.7686684223