15

C 0.0220802210 1.5230404159 -0.0195180194
C 0.0101118927 0.0170927142 -0.0230775871
C 0.1329924351 -0.7267299792 -1.2026429278
O 0.2702604018 -0.1391660493 -2.4140955452
C 0.1159915381 -2.1233387958 -1.1522233116
C -0.0242303225 -2.7260443992 0.0845544888
N -0.1445048186 -2.0488327160 1.2354004627
C -0.1234961273 -0.7409156490 1.1416611859
F -0.2442732479 -0.0773678346 2.2959117787
H 0.9611575643 1.9249116674 -0.4222172924
H -0.8011377769 1.9393774801 -0.6149285394
H -0.0859012280 1.9021156548 0.9964862095
H 0.2669813918 0.8188237333 -2.3120814178
H 0.2109264039 -2.6998123838 -2.0636082985
H -0.0420981474 -3.8091554387 0.1665946837