23

C -0.0319880293 1.4675636073 -0.2407673200
C 0.0479047630 -0.0153873869 0.0534484702
O -1.0977722339 -0.7056872604 -0.3881155984
C 1.3649594047 -0.7553103300 -0.0197058432
C 0.6640586904 -0.5677763971 1.3235570055
C 1.2797543713 0.3959633302 2.3255547508
C 0.0109504700 -1.7913626492 1.9550250830
C 1.0052939183 -2.7871121030 2.5462400146
O 0.2564641244 -3.8843362153 3.0525743859
H 0.8610336005 2.0095220849 0.0765563863
H -0.1414328072 1.6272538368 -1.3209302135
H -0.9035360301 1.9118731988 0.2508493215
H -1.0844248025 -0.7067882891 -1.3514709292
H 1.3438781469 -1.7465044318 -0.4616666075
H 2.2727654931 -0.1919989008 -0.2144688223
H 1.8022633067 1.2252784414 1.8435600489
H 0.5128019303 0.8198788994 2.9842686101
H 2.0111425649 -0.1154346376 2.9601298278
H -0.6745963128 -1.4733559635 2.7507585107
H -0.5952942927 -2.3141256942 1.2132586892
H 1.7111448298 -3.1127545491 1.7650971642
H 1.6003090224 -2.3191398948 3.3460835140
H 0.8716470219 -4.5112180861 3.4436313614