19

C 0.3288984705 1.4733092435 0.1934020967
C 0.0972957489 -0.0004439493 0.0139110026
C -0.0807468012 -0.5721466144 -1.1778610514
C -0.3551971391 -2.0399214735 -1.3527586028
O -0.6561162267 -2.7026325861 -0.1360765843
C 0.2089748931 -2.3272335576 0.9169042767
C 0.0657493685 -0.8445647123 1.2674966049
C -0.0916844578 -3.2582038108 2.0802578970
O 0.1553541111 -3.0007330313 3.2291892885
H 1.2943287103 1.6664313475 0.6783335127
H 0.3123853024 2.0049627359 -0.7617297180
H -0.4377196796 1.9152316838 0.8429806912
H -0.0354095941 0.0181882171 -2.0900637254
H -1.2260331956 -2.1944282773 -2.0007734435
H 0.5015390969 -2.5313735667 -1.8504766389
H 1.2600513011 -2.5237729142 0.6262910659
H 0.8710213193 -0.5565914527 1.9526562300
H -0.8701153447 -0.6798520731 1.8181970883
H -0.5569963334 -4.2191688085 1.7690666299