21

C -0.0287256210 1.5470273469 0.0222771990
C -0.0298002518 0.0163690523 0.0056128441
C 0.7741566842 -0.5907856822 1.1642137456
C 0.7784444254 -2.0903027366 1.1720002447
N 1.3875514256 -2.9500038690 0.0938265953
C 0.8504425169 -3.9394116438 1.0824237015
C 1.2756541410 -3.0552991303 2.2933789854
N -0.0618661510 -3.0545316836 2.9728909894
C -0.3915728075 -3.0869947962 1.5106618731
H 0.9905516248 1.9419820655 -0.0511495520
H -0.6055366872 1.9556855930 -0.8131814163
H -0.4657594623 1.9320859211 0.9502218509
H -1.0628247167 -0.3517176213 0.0508045172
H 0.3833085746 -0.3383965166 -0.9472372537
H 1.8126336123 -0.2378272289 1.1172818645
H 0.3637701588 -0.2535049622 2.1244165017
H 0.7965119846 -2.9371354473 -0.7422517128
H 0.9370797260 -5.0210486097 0.9600181573
H 2.2287406532 -3.0349140272 2.8224134455
H -0.2406376137 -3.9700297238 3.3944503459
H -1.4126411163 -3.1076966700 1.1222248436