18

C -0.1479680396 1.5576937836 0.1000558721
C -0.0416375159 0.0517738751 0.0367449847
C 0.4002055112 -0.6394439258 -1.2112041430
O 0.6997660561 0.1769426362 -2.3046627775
C 1.6950698174 -0.2511714109 -3.1208995251
N 1.9213709672 0.3652316162 -4.1963230682
C 1.3254657012 -0.6459466075 0.0095174448
C 2.5409800454 0.1083799479 0.0029653454
C 3.5741600354 0.7250075509 -0.0021865350
H 0.6180017166 2.0364731610 -0.5108796574
H -1.1264899541 1.8847667717 -0.2650542125
H -0.0338795122 1.9060039547 1.1310977568
H -0.7937705695 -0.4838339731 0.6091794257
H -0.0636733428 -1.5852826876 -1.4825796176
H 2.2234944270 -1.1311774567 -2.7357768911
H 2.7014483607 -0.0688762945 -4.6854757236
H 1.3830029217 -1.5952526675 0.5350920395
H 4.4818309044 1.2759190962 -0.0067953279