19

C -0.0738501882 1.5967694748 0.0516515911
C 0.0351937651 0.0613059228 0.0232140624
C 0.8812787421 -0.4730800918 -1.1327650569
C 1.6565111633 -1.4886594877 -0.7563847137
C 1.4688202627 -1.8203602092 0.7067975120
C 0.8155491634 -0.5348038459 1.2632699422
O 1.7915346562 0.3624976968 1.7593506136
C -1.3051034890 -0.5293058733 -0.0418668964
C -2.4043500901 -1.0164335614 -0.0835856535
H 0.9162879929 2.0540835785 0.0983726470
H -0.5865640976 1.9529275322 -0.8463667142
H -0.6434077176 1.9279121990 0.9238324921
H 0.7924287024 -0.0699173410 -2.1350244731
H 2.3134141370 -2.0494650103 -1.4119656410
H 0.8079985404 -2.6891256058 0.8246729298
H 2.3962640242 -2.0441523912 1.2437375215
H 0.1374906621 -0.7197071896 2.0981224551
H 2.4663759057 0.4632766365 1.0774584176
H -3.3747488751 -1.4454149435 -0.1258668356