17

N -0.0111037547 1.2501049813 0.0720625229
C 0.0292052853 -0.0917071871 -0.0114880274
O 1.0286951285 -0.7855733019 -0.1005264705
C -1.3899569799 -0.6996249915 0.0177608063
O -2.3918333818 -0.0032808933 0.1068727976
N -1.3453001356 -2.0406243221 -0.0659265436
C -2.5065724744 -2.8723266827 -0.0626236693
C -2.5456914104 -4.1235875807 -0.8987542942
C -2.4732023706 -4.2184319825 0.6104210177
H 0.8371837677 1.7894184050 0.0646174311
H -0.9170840878 1.6878871573 0.1405577472
H -0.4127848335 -2.4298551981 -0.1333116093
H -3.4039336512 -2.2718684047 0.0180867467
H -3.4746817877 -4.3763020382 -1.3973492883
H -1.6534398412 -4.3796795744 -1.4604549687
H -1.5329543525 -4.5373634498 1.0479529025
H -3.3518124302 -4.5370625166 1.1599661292