16

O -0.0264610582 1.4413588302 0.0508294538
C 0.0284663804 0.0549656837 0.0438384827
C 0.1685135743 -0.5341998629 1.4790078472
C -1.3636074179 -0.7563336414 1.5364269320
C -1.4059985090 -0.6439550314 -0.0175650245
C -2.4738894358 0.1045162280 -0.6484866468
N -3.3259525459 0.7046013552 -1.1487437510
C 0.9837500471 -0.4359334934 -1.0193886118
O 1.5164020433 0.3205821376 -1.7925813521
H 0.4074691113 1.7346775665 -0.7665691579
H 0.7327011751 -1.4714581502 1.4896014016
H 0.6055519035 0.1626554565 2.1941444039
H -1.7305645296 -1.6921873547 1.9594603490
H -1.8810114754 0.0804538878 2.0069778406
H -1.3308673973 -1.6330729411 -0.4808885368
H 1.1516069841 -1.5322735004 -1.0600432000