16

O -0.0029681415 1.4373989052 0.0069266969
C -0.0058511142 0.0175408801 0.0021784743
C -1.4184049046 -0.4836772889 0.0122905706
C -2.4793465832 0.3572796982 0.0233349200
N -3.7645420690 -0.1210293504 0.0324723918
C -4.0146167313 -1.4645195098 0.0307969292
C -3.0010067300 -2.3633163919 0.0199942372
C -1.6045147101 -1.9400505196 0.0096037527
O -0.6497008622 -2.7183167072 -0.0001678336
H 0.9113932342 1.7317446197 0.0008502060
H 0.5068683766 -0.3916709591 -0.8821477424
H 0.5215361984 -0.3976744306 0.8749863717
H -2.3628103217 1.4327960588 0.0254773315
H -4.5322245315 0.5285742866 0.0406499266
H -5.0608766811 -1.7466899794 0.0386041003
H -3.2112192990 -3.4256769516 0.0188137871