18

C -0.0547265572 1.3415475878 -0.0118672772
N -0.0449686356 -0.0767034859 0.2483788618
C -1.1930019188 -0.9982490716 0.1497236566
C -0.7537226113 -2.1257672642 1.1204459684
C 0.3832607561 -2.2793748472 0.0569935353
C -0.7306662325 -1.9218553659 -1.0167272672
O -1.6628853409 -2.9280653520 -1.3076281782
C 1.0586323845 -0.9003823365 0.1273982863
O 2.2222885668 -0.5804199631 0.0414283709
H 0.9851889994 1.6757756681 -0.0184074723
H -0.5066382345 1.5828026682 -0.9837324462
H -0.5980255247 1.8879107894 0.7671977200
H -2.1657163972 -0.5099646296 0.1769511519
H -0.4702796384 -1.8262693358 2.1309369740
H -1.4363426293 -2.9741576145 1.1221307801
H 1.0406865414 -3.1423543403 -0.0201300639
H -0.3819254399 -1.4092090438 -1.9233485585
H -1.2480081081 -3.5658193531 -1.8975371017