16

C 0.0893853012 1.4477762141 -0.0190621197
C -0.0661400412 -0.0304425858 -0.0091334000
C -1.1490864059 -0.8519818230 0.0690433349
C -0.6338600348 -2.1904177914 0.0300894845
O -1.3283064959 -3.3646521427 0.0812739402
C 0.7209863295 -2.1012313715 -0.0686375866
C 1.8009495695 -3.1144988026 -0.1483888234
O 1.0704687108 -0.7702129658 -0.0924496769
H 0.7015910005 1.7939401850 0.8217765499
H 0.5736654491 1.7955733116 -0.9389409534
H -0.8901477541 1.9258588045 0.0525048651
H -2.1824843078 -0.5474133754 0.1447908742
H -2.2664930519 -3.1645788532 0.1352564125
H 2.3819149369 -3.0246827686 -1.0744021045
H 2.5048332731 -3.0334483126 0.6889667173
H 1.3552302710 -4.1117077925 -0.1221230341