25

C -1.0892344938 1.3677582297 -0.3791424445
C -0.7470937075 -0.1247446173 -0.4350619209
C 0.4304738976 -0.4832449697 -1.3652281017
C 1.7498990283 0.1359518679 -0.8784448941
C 0.5554954359 -2.0029211948 -1.4838506854
C -0.6174496860 -2.8125797916 -2.0763708144
O 0.2588151150 -3.5199524150 -2.9726824647
C 1.3866629575 -2.6789818154 -2.6205810232
C 1.8518730494 -1.8631793059 -3.8157006765
H -0.2711571583 1.9624628891 0.0381678072
H -1.3090602683 1.7599852913 -1.3786091812
H -1.9709507365 1.5416531048 0.2455625397
H -0.5226294575 -0.4890141677 0.5772357269
H -1.6377543749 -0.6749884433 -0.7634174608
H 0.2014412602 -0.0738792813 -2.3595565619
H 1.9844773295 -0.2047908154 0.1374682965
H 2.5882690664 -0.1447975961 -1.5222837760
H 1.7040667856 1.2282740179 -0.8604940351
H 0.8545375398 -2.4069664063 -0.5103043228
H -1.1488191855 -3.4891790572 -1.3970815959
H -1.3589088083 -2.2109097454 -2.6226236361
H 2.2183551757 -3.2937709185 -2.2516019126
H 1.0602054978 -1.2105062252 -4.1946003957
H 2.7246336675 -1.2497011210 -3.5698594944
H 2.1364688906 -2.5465726636 -4.6220706422