19

C 0.0109768485 1.5353559973 -0.2107260950
C 0.0541766264 0.0258910687 0.0478266884
C -1.3427781356 -0.5709880771 0.0967981344
N -2.0998571463 -0.5459830480 -1.1811683764
C -2.5913567664 -1.9231700914 -0.9693698915
C -1.4898776835 -2.1304412026 0.1157283013
O -0.3118337998 -2.7504457749 -0.3418714626
C -1.9386976573 -2.7260462872 1.3788017955
N -2.2957697913 -3.2175364675 2.3626128084
H 1.0205538259 1.9531781260 -0.2592395697
H -0.4851849144 1.7502356532 -1.1626686885
H -0.5307475535 2.0641107922 0.5820174775
H 0.6218228534 -0.4766258622 -0.7392104619
H 0.5605414859 -0.1832850395 0.9980997220
H -1.9066602543 -0.1441942712 0.9392230120
H -2.8254945201 0.1588154642 -1.2358021690
H -3.6050450812 -2.0054487111 -0.5576811014
H -2.4971722813 -2.5795182379 -1.8413071596
H -0.4793214650 -3.6945316809 -0.4408963538