20

C -0.1138371489 1.4480094729 -0.0661126720
C 0.0769531246 -0.0520108744 -0.0402362761
C 1.4788477191 -0.6531351766 -0.0677754374
C 0.6492645041 -0.7113298618 1.1753731885
O 0.9890936687 0.0328216726 2.3488842451
C 0.5389516513 -1.0424001753 3.2148244135
C 0.1785482138 -1.8880104753 1.9982655967
C -0.9008226745 -2.8580868593 1.7393427871
N 0.5103736252 -3.2940988160 1.8410870769
H 0.6312714588 1.9445768925 0.5611164221
H -0.0249810178 1.8412569671 -1.0843595800
H -1.1016501024 1.7242632146 0.3177325604
H -0.6853526194 -0.6233144334 -0.5669267891
H 1.6505400850 -1.5648228288 -0.6334314971
H 2.3190938982 0.0343178768 -0.0545842550
H 1.3514507771 -1.4441521037 3.8294726484
H -0.2952713977 -0.7270446381 3.8518545865
H -1.5420377280 -3.1971915501 2.5488069064
H -1.3778353314 -2.8403270021 0.7619359595
H 0.9005454842 -3.4641674817 0.9161401755