17

C -0.3046577701 1.4758924154 0.8411529271
C -0.0618128396 0.2147381098 -0.0117023711
C 0.9745886919 -0.7194887229 0.6445010584
C -1.3153576433 -0.4951087555 -0.2689838348
C -2.3474697883 -1.0830060804 -0.4600232262
C -3.5999253437 -1.7954677080 -0.7016997816
C -3.9461908202 -2.7344231973 0.3746245245
N -4.2292699020 -3.4752858322 1.2137143858
H 0.6347810259 2.0179377451 0.9874623240
H -1.0197947847 2.1473041394 0.3588146543
H -0.7018834544 1.2052223587 1.8240937311
H 0.3416633565 0.5365451009 -0.9819127013
H 1.9199368163 -0.1879296153 0.7911249936
H 0.6188699007 -1.0646035959 1.6199067914
H 1.1638218775 -1.5979627705 0.0223778174
H -4.4321411185 -1.0886409072 -0.8160405225
H -3.5494586341 -2.3602841744 -1.6417524602