13

O 0.1006760534 1.4927033966 -0.1133880491
C 0.0471073546 0.1062263217 -0.0322269059
C 0.6938162486 -0.5472604593 -1.2828990840
C -0.0223593710 -0.1831771527 -2.5012264718
N -0.5955856789 0.0892971519 -3.4658610654
C 0.7406368262 -0.3707228022 1.2405429017
O 1.2504268066 0.4040886655 2.0121623463
C 0.7394624958 -1.8168034941 1.4906084463
N 0.7263357711 -2.9615781276 1.6532956066
H 0.5700902900 1.8099410599 0.6734755984
H -0.9977390185 -0.2434719588 0.0291839602
H 1.7329599584 -0.2108983405 -1.3626878950
H 0.6953498837 -1.6386245504 -1.1866777782