18

O -0.0090736368 1.4293683195 0.0806918834
C 0.0211089994 0.0144112716 -0.0001789801
C -1.4296981471 -0.4493010319 0.1468934672
N -1.6480068978 -1.8886219344 -0.0923774065
C -1.9434616774 -2.3064004862 -1.4445208814
C -0.6237942915 -2.6600848966 -0.8248753236
C 0.6215912535 -2.0085632818 -1.3365398257
O 1.5866258847 -2.6641586635 -1.6596313620
C 0.6170057837 -0.4867306127 -1.3267847171
H 0.8974957590 1.7499458113 0.1235964062
H 0.6140388692 -0.4051701620 0.8285954972
H -1.7730157212 -0.2221924854 1.1604477616
H -2.0421358056 0.1448913380 -0.5417776846
H -2.6917192167 -3.0868382461 -1.5551262097
H -1.9490115210 -1.5553934319 -2.2331755337
H -0.4682166199 -3.6767666863 -0.4751877413
H 0.0143790667 -0.0930794656 -2.1549121632
H 1.6462774189 -0.1446885061 -1.4678764368