19

C -0.2455825515 1.6311936286 -0.0104512456
C -0.2464291851 0.1698921791 0.3722925280
C -1.2404030043 -0.7789056358 -0.1409657015
O 0.0888866702 -0.7598327872 -0.6653892808
C 1.1671992493 2.1579188614 -0.1677622339
C 1.5563053178 3.6258110000 -0.2241055857
C 0.7646974488 4.4227074695 0.8067101208
O 1.1055218462 3.4809652800 1.8603635400
C 1.9535773550 2.7629571198 0.9559258438
H -0.8019896089 1.7559171862 -0.9466383485
H -0.7668171482 2.1970496355 0.7689247004
H 0.2237183598 -0.0580476079 1.3305738343
H -1.5027069691 -1.6619729883 0.4402618670
H -2.0155590071 -0.4261110397 -0.8207106648
H 1.7883241830 1.5593550865 -0.8316382544
H 2.1520004267 4.0459656897 -1.0231496427
H 1.2015388432 5.4044359717 1.0206593912
H -0.3182042469 4.5246093761 0.6677876004
H 2.9095919310 2.4163506350 1.3318677319