17

C -0.4439291204 1.5997009683 -0.4309801642
C -0.0594823405 0.1354182292 -0.1267599810
C -1.2382288467 -0.6485819059 0.2324825880
C -2.2204134745 -1.2647358696 0.5493115241
C 0.7156644777 -0.4668235330 -1.3138106138
C 0.4778982849 -1.8422841877 -1.7956438042
O -0.0616213729 -0.7202554709 -2.4927694361
C 2.0133588664 0.1313387249 -1.5383169121
C 3.0923535505 0.6396691364 -1.6877527853
H 0.4520831118 2.1861749008 -0.6491752092
H -1.1102474422 1.6384153499 -1.2960534715
H -0.9572439386 2.0428798483 0.4251251740
H 0.6308580822 0.1286391888 0.7273244766
H -3.0878851633 -1.8103473186 0.8281143601
H 1.2850411064 -2.3644945646 -2.3056649771
H -0.2486639302 -2.4593930373 -1.2732438174
H 4.0465467892 1.0823019811 -1.8360446010