20

C -0.2970359471 1.4945565198 -0.2121650658
C -0.0474819988 0.0138118901 0.0067463594
O 1.0004970778 -0.5341279705 -0.2614101902
N -1.0977040307 -0.6658333866 0.6170912310
C -2.4773648911 -0.7485049237 0.1650568783
C -1.5917882474 -1.9580136796 0.2392595020
C -1.1501292863 -2.8365613946 -0.9390659217
C -1.6566091933 -4.0685224833 -0.1303356056
C -1.7342337376 -3.1816760293 1.1497906166
H 0.6558975563 1.9958588719 -0.3819191966
H -0.9306082953 1.6416199324 -1.0943733269
H -0.8142555623 1.9391056675 0.6420309748
H -3.2392747803 -0.5777292244 0.9226757465
H -2.7172439477 -0.3586454675 -0.8230730555
H -1.6153911038 -2.6420698893 -1.9086986064
H -0.0646328572 -2.8190809445 -1.0552632020
H -2.6414048659 -4.4070893374 -0.4607014829
H -0.9879336638 -4.9293919142 -0.0855522492
H -0.8613309338 -3.3003410467 1.7971892645
H -2.6390246315 -3.2495749501 1.7586106899