22

C -0.0527944295 1.2050560103 -0.3910414580
N 0.3328125507 -0.1686274666 -0.0980565373
C 1.7531475045 -0.4125995839 0.1794123151
C 0.7402237658 -0.4809755927 1.2573337919
C 0.7133513722 0.3586625522 2.5436459868
C 0.7056724870 -0.9834908371 3.3353180491
C 0.3150699167 -1.7426793678 2.0381838234
C -1.1739710680 -2.0455364472 1.9079906524
O 1.0956256698 -2.9064755698 1.8447312014
H 0.5304748562 1.9586971504 0.1626130915
H 0.0754181261 1.3940963957 -1.4616021699
H -1.1109476280 1.3456974237 -0.1470346581
H 2.1720797136 -1.3243812451 -0.2377295541
H 2.4264502096 0.4448095016 0.1818544461
H 1.5526096321 1.0329081600 2.7245596282
H -0.2176732906 0.9217306308 2.6634071878
H 1.7085538174 -1.2770223090 3.6513124814
H 0.0195148875 -1.0661705810 4.1809041008
H -1.7831106955 -1.1671986954 2.1432014200
H -1.4134250627 -2.3387730114 0.8794790027
H -1.4557188456 -2.8553210029 2.5882200153
H 0.7332446008 -3.3872432948 1.0926666633