23

C -0.1233729059 1.5631809357 0.0583749949
C 0.0249636529 0.0652643006 -0.0191288830
C 0.0710133616 -0.5484685692 -1.2152048039
C 0.1451624692 -1.9583896357 -1.5847129399
C 0.1902400810 -3.0798894958 -0.8433714499
C 0.1917046329 -4.4305396655 -1.5123349850
C 0.2286570706 -3.1320925972 0.6651205358
C 0.8766139038 -1.9416405646 1.3802466287
C 0.0970228868 -0.6235661602 1.3225342636
H 0.7418124481 2.0241583740 0.5541602626
H -0.2308183545 2.0160505152 -0.9304950402
H -1.0016818182 1.8419789419 0.6568539751
H 0.0103308876 0.1088271245 -2.0815161286
H 0.1271526040 -2.1101994519 -2.6630639652
H 0.1039242297 -4.3498432249 -2.5987416325
H 1.1103497528 -4.9877087003 -1.2832323920
H -0.6394039243 -5.0510468778 -1.1496080050
H -0.7938698470 -3.2805016947 1.0458081599
H 0.7700009856 -4.0417855182 0.9580427629
H 1.0063583207 -2.2112544081 2.4350570880
H 1.8827410640 -1.7825562687 0.9746856201
H 0.5541373470 0.0746139114 2.0366726403
H -0.9249455984 -0.7813006306 1.7009525832