21

O -0.0990436308 1.4659087412 0.0641590431
C 0.0075384693 0.0474472855 -0.0205492045
C 0.7789158471 -0.4980355264 1.1930387989
C 1.0432202698 -2.0128565816 1.2415547472
C -0.2253084412 -2.8821524474 1.3257400825
C -0.9119033746 -3.0270348835 -0.0196089867
O -2.3294960875 -2.8415431722 -0.0857384734
C -1.4883368903 -1.8686270721 -0.7169744676
C -1.4314085520 -0.4757946103 -0.1246651095
H 0.7845393787 1.8240284095 0.1974743106
H 0.5497919157 -0.2329319685 -0.9414176108
H 1.7492808859 0.0178667998 1.2290909599
H 0.2343697445 -0.1915045540 2.0960053363
H 1.6369685213 -2.3167399027 0.3685671127
H 1.6717599895 -2.2141479221 2.1164663482
H 0.0324574051 -3.8771226296 1.7050507313
H -0.9322441209 -2.4488819579 2.0408839969
H -0.5495514167 -3.8512437811 -0.6370603430
H -1.5203824895 -1.9077360540 -1.8070567070
H -1.9027787145 -0.4752627710 0.8627563519
H -1.9977351587 0.2208879984 -0.7502168470