16

C 0.1233485901 1.5598867610 -0.1033410376
C -0.0164114427 0.0507335141 0.0737413593
O 0.4973911114 -0.6292581860 -1.0736576271
C 1.4389406731 -1.6254534395 -0.6949507017
C 1.6031166821 -1.4716908916 0.7861787354
C 0.7758030911 -0.5247866286 1.2403637316
C 0.5904302841 -0.0874076357 2.5703889062
C 0.3906733743 0.3195567345 3.6869899933
H 1.1764803113 1.8366476094 -0.2077542729
H -0.4127849078 1.8809855764 -1.0004540267
H -0.2950909205 2.0845804697 0.7607981232
H -1.0840631348 -0.1977014593 0.1926458766
H 1.0679825272 -2.6290983258 -0.9636292757
H 2.3806167196 -1.4752267752 -1.2452303230
H 2.2866476680 -2.0631465772 1.3807309029
H 0.2274276634 0.6669727936 4.6770542963