15

N 0.0542197440 0.6477822134 -1.1283798837
C -0.0346589924 -0.0385697231 -0.0780286883
C -1.3423156020 -0.6015701064 0.4175921473
C -1.1640125882 -2.0020783293 0.9523289901
N -0.1909950110 -2.8096068018 0.2233175268
C 0.1490534678 -2.3188412280 1.5813796773
C 1.1832251374 -1.2472735200 1.6562355728
O 2.0732187086 -1.2238208340 2.4557273100
O 1.0750810414 -0.2295599086 0.7393255292
H 1.0150273560 0.9646549679 -1.2715172597
H -1.7280463878 0.0452697117 1.2167259002
H -2.0503808436 -0.5673926299 -0.4122894760
H -2.0442396862 -2.4828105111 1.3705795313
H -0.4168971388 -3.7992190055 0.2763785812
H 0.2069152749 -3.0252408254 2.4012781515