21

C 0.6241560677 0.8068414310 -0.9021683791
C -0.0357393272 0.1000341581 0.2841090193
C 0.8054526255 -1.0573356513 0.8204104935
C 0.1898976800 -1.7591464893 2.0137499976
O -0.8227881192 -1.3753972399 2.5501130198
C 0.8631239446 -3.0523898181 2.5409619389
C 0.0266430800 -4.2638441317 2.0561482955
C 2.2710666422 -3.1963453687 2.1913071186
C 3.4303585549 -3.3376663671 1.9047525385
H 0.7857123057 0.1183272596 -1.7394100055
H 0.0025822582 1.6307568693 -1.2657261804
H 1.5996494444 1.2229941266 -0.6262311412
H -0.2178880555 0.8119895417 1.0958768747
H -1.0234701684 -0.2774004126 -0.0032132812
H 1.0020454886 -1.8099832007 0.0434889649
H 1.8061794264 -0.7174929949 1.1218649338
H 0.7662392194 -2.9963737219 3.6316409863
H 0.0648654891 -4.3541324407 0.9666423521
H 0.4181591400 -5.1883115426 2.4866181503
H -1.0127250311 -4.1343832346 2.3659517809
H 4.4565351944 -3.4534687522 1.6569498625