18

C -0.6711696942 1.4914493633 0.9193771920
O -0.6143006915 0.0837574424 1.1549339033
C 0.6123367363 -0.4197988249 1.4154682419
N 1.6429851412 0.3089087486 1.4672175793
C 0.4794015855 -1.9259681418 1.5822285675
C 1.6225835330 -2.5985616802 2.3126870112
O 2.7836079220 -2.2685978456 2.2756838289
O 1.1769621524 -3.6620738664 3.0023081463
C 2.1851408780 -4.4141270105 3.6946235625
H -0.0417223132 1.7685752508 0.0692659775
H -1.7188050189 1.7141729336 0.7122948243
H -0.3258762352 2.0456934060 1.7964289472
H 2.4630950372 -0.2618554365 1.6679159160
H -0.4658381886 -2.1627455156 2.0729717823
H 0.4235953882 -2.3762165435 0.5819884547
H 2.9251873660 -4.8031858183 2.9911397002
H 2.6937402953 -3.7861930218 4.4298360229
H 1.6571169764 -5.2303539297 4.1867895920