17

O 0.1530477468 1.4119172262 -0.1131822493
C 0.0306554086 0.0263549195 -0.0351254675
C 0.1279136852 -0.6448945880 1.3556871079
O -0.8537794383 0.1291130307 2.0902845434
C -2.0307644554 -0.1409566500 1.2865221699
O -2.7179581998 -1.2261164050 1.8385418952
C -1.8054685044 -2.3379309656 1.7346418453
C -0.7178007709 -1.8278589029 0.7894691528
C -1.3677640208 -0.6531698807 -0.0146594697
H -0.1923656945 1.7541298707 0.7229815078
H 0.6883268612 -0.4216759160 -0.7834879886
H 1.0396632647 -0.7480289846 1.9417710190
H -2.6882761583 0.7261264833 1.2688647240
H -1.4162306130 -2.5930878674 2.7270936109
H -2.3456264423 -3.2022276842 1.3339982082
H -0.1629178413 -2.5753541404 0.2256302439
H -2.0071361777 -0.7875527355 -0.8843052234