18

C -0.2560219077 1.5769109748 0.0151230656
C 0.0097871506 0.0715484658 -0.0151868899
N 0.6709658365 -0.3769438250 -1.2755230457
C 2.0250707404 0.1300067548 -1.4867199518
C 1.8240387558 -1.2247936845 -0.8831822711
C 1.8669020326 -1.2458236779 0.5957973435
C 0.8854651580 -0.4811059322 1.1043233807
C 0.6644790539 -0.2693165507 2.5335395315
O -0.2155078932 0.4214674109 3.0032604514
H 0.6728292485 2.1546427065 -0.0082521077
H -0.8616116102 1.8643119796 -0.8487268862
H -0.7911931371 1.8320392406 0.9314259550
H -0.9636421249 -0.4354833058 0.0213627806
H 2.3138661916 0.2124194335 -2.5309493327
H 2.4205053672 0.9045101074 -0.8348830170
H 2.0248654716 -2.1254363828 -1.4559304748
H 2.5975867563 -1.8021197115 1.1725859888
H 1.3736050000 -0.8173863934 3.1936342299