21

C 0.2706972095 1.5644705942 0.1815412556
C 0.0668358037 0.0425364816 0.0685051038
O 0.7501934626 -0.6386147481 1.1179360062
C -1.4161830695 -0.3699958312 -0.0114077814
C -2.2593308560 0.0294014557 1.2021416483
C -3.6817439563 -0.5109788715 1.1200199826
O -4.3750954313 -0.0841561823 2.2825430279
C 0.7876062032 -0.4093022098 -1.2043743632
O 0.3378089983 -0.2952716080 -2.3139424186
H 1.3379055763 1.8059661137 0.1770533589
H -0.2094185577 2.0828318359 -0.6527740573
H -0.1564702983 1.9432475084 1.1158789612
H 0.4912103506 -0.2427440172 1.9555985574
H -1.8338611088 0.0531403421 -0.9312084746
H -1.4436666428 -1.4604093370 -0.1278318581
H -1.8082794926 -0.3543069777 2.1260089101
H -2.3177942633 1.1188311815 1.3032855381
H -4.1678080818 -0.1372188238 0.2039950572
H -3.6573753736 -1.6106290725 1.0493662690
H -5.2741747622 -0.4221155598 2.2382633854
H 1.7947514301 -0.8386259745 -1.0081089886