14

O -0.0025975019 -0.0455119721 -0.0901305724
C -0.0910974608 1.1537490687 -0.0136230616
C 1.1098018969 2.0096985456 0.0396322520
N 2.0624052081 2.6638219861 0.0713335578
C -1.3981273419 1.8799601886 0.0008475160
C -2.2683275837 2.3033264406 -1.2238921971
C -2.8371078791 2.9262506984 0.0729887793
C -2.6893398505 1.5653373918 0.7973294307
O -1.4466510474 3.2692274628 0.4839031096
H -1.7841394319 3.0037668670 -1.9038984291
H -2.8450543181 1.5256829061 -1.7276295035
H -3.5937050198 3.6984853973 0.1961569972
H -3.3038194711 0.7286766753 0.4620891475
H -2.5805524589 1.6223387237 1.8800760138