22

C 0.0732705751 1.5656664407 -0.0704486925
C -0.0493046118 0.0535416011 0.1485123340
C -1.4833639526 -0.4957273797 0.0606346121
C -2.4141766381 0.1330999162 1.0922389758
C -2.0144761214 -0.5481899772 -1.4103925954
C -1.6032004456 -2.0380092731 -1.5078892987
C -1.5078903370 -2.0791543803 0.0469403717
C -0.4140523529 -2.8128904565 0.6589433401
N 0.4684066488 -3.3864172556 1.1394557371
H 1.1259225925 1.8632614653 -0.0791841235
H -0.3635817505 1.8756119061 -1.0260278700
H -0.4209186770 2.1350753555 0.7219681516
H 0.5770287140 -0.4649255113 -0.5877738100
H 0.3674480041 -0.2085026356 1.1286166420
H -2.5366686735 1.2062117795 0.9159473065
H -3.4101096524 -0.3204994630 1.0522696625
H -2.0250485631 0.0031145755 2.1088124155
H -3.0987183293 -0.4138251323 -1.4584211219
H -1.5503747397 0.1379221637 -2.1217338853
H -2.3111013378 -2.7334108590 -1.9613800383
H -0.6277221865 -2.1777697740 -1.9767147740
H -2.4475253752 -2.4365193661 0.4791208307