14

O -0.0259380270 0.0466299026 0.2101137187
C -0.0110392972 1.2333218935 0.0246950348
C -1.2401173700 2.1121004153 -0.2489362493
O -0.7752712059 3.4051934055 -0.6238347192
C 0.6262865687 3.4672223785 -0.5031281276
C 1.1878371449 3.3370124648 0.8816209955
C 1.1871228076 2.1302386135 -0.0513047236
C 1.2665341959 4.2833570962 -1.5002569285
N 1.8022370528 4.9382037775 -2.2875501244
H -1.8329708323 1.6813414782 -1.0628217532
H -1.8748702888 2.1721807749 0.6440187633
H 2.1587767487 3.7731926866 1.0836964009
H 0.4794913566 3.3741734562 1.7019331655
H 2.1276214761 1.7250567768 -0.3993219829