16

N 0.0183905712 -1.1002151208 -0.1252170507
C 0.0213336760 0.0545786114 -0.0547188457
C 0.0105391820 1.4858258512 0.0213962540
C 0.5820607019 2.1849480601 1.2676319025
C 1.3147961101 2.2610358438 -0.0170273566
O 2.5724115799 1.6118209355 -0.1911399895
C 3.0469432543 2.7533072008 -0.9278398601
C 2.2549062952 2.9476410111 -2.1765867241
C 1.7063568355 3.4515400287 -0.8508664348
H -0.8439040873 1.9551833812 -0.4557066116
H 0.0484876673 3.0569953093 1.6297320453
H 1.0029065511 1.5420426379 2.0321394356
H 4.0598620601 3.0842653208 -0.7386509672
H 2.6111192178 3.7311930030 -2.8381244853
H 1.8085594666 2.0884403768 -2.6682403679
H 1.4506704683 4.4822995191 -0.6494726541