21

C 0.0681690709 1.4917972661 0.4923273228
C 0.0056436301 0.1045384153 -0.1509698167
C -1.3730122564 -0.5420384866 -0.0168047296
C -1.4948118002 -1.8916313987 -0.6951191639
O -0.6575918292 -2.3452144425 -1.4380306256
C -2.7800085538 -2.6926929477 -0.3678723470
C -3.0967785493 -3.7294010428 -1.4444800421
C -2.5608174176 -3.3474695166 0.9957803863
O -2.6357884548 -2.7717702671 2.0502536463
H 1.0656594344 1.9293507033 0.3886330019
H -0.6463621886 2.1799587011 0.0264615858
H -0.1665977044 1.4473269372 1.5615954528
H 0.2695013150 0.1645535292 -1.2118568813
H 0.7539905048 -0.5539996879 0.3044128822
H -1.6719207936 -0.6635460921 1.0329507760
H -2.1500929993 0.1031064388 -0.4560216495
H -3.5936499124 -1.9717948933 -0.2314001881
H -3.9599538511 -4.3390246199 -1.1606855183
H -3.3193890614 -3.2435529511 -2.3975324357
H -2.2372692348 -4.3848334291 -1.6044062675
H -2.2956497882 -4.4272307156 0.9450539311