21

C -0.0203990574 1.5700326408 -0.0116273329
C 0.0238249004 0.0407463889 0.0244625779
O -1.3208109169 -0.4758085333 -0.0068621800
C 0.7615218051 -0.5935242154 -1.1792558616
C 1.5405533611 -1.8111706334 -0.6246277668
C 2.9202393189 -1.9789625476 -1.2560457087
O 3.5242707382 -3.1323810640 -0.6883844152
C 1.5817291787 -1.5346029035 0.8608128282
C 0.7864968314 -0.5260443811 1.2079879605
H 0.9874452235 1.9973528214 -0.0111725241
H -0.5495275430 1.9138184944 -0.9056831520
H -0.5501294952 1.9619011898 0.8650339063
H -1.7409807944 -0.2506078217 0.8302202120
H 0.0479286244 -0.8560558769 -1.9629305689
H 1.4664684357 0.1339588146 -1.5971306321
H 0.9938415228 -2.7468136278 -0.8051844413
H 2.8153034448 -2.0801430088 -2.3485367335
H 3.5226308658 -1.0758924780 -1.0631529897
H 4.4090693268 -3.2216319876 -1.0537171085
H 2.1894095817 -2.1294990358 1.5327924056
H 0.6344461677 -0.1568561549 2.2183395550