20

C -0.1655571337 1.4138130366 0.2997103623
C -0.1497059856 -0.1071522276 0.3287432274
O 0.5385365309 -0.7319756868 1.1153592686
N -0.9634102058 -0.7139448177 -0.5888627420
C -1.1228055849 -2.1550315575 -0.6562911853
C -2.4548212469 -2.6389101846 -0.0705478996
C -2.5951263573 -4.1715351932 -0.1582961261
C -3.8650417754 -4.6555785014 0.3679201412
C -4.9203102244 -5.0286991715 0.8058975713
H -0.6229105077 1.7794787524 1.2238217992
H 0.8656427369 1.7733701369 0.2815869746
H -0.7081539691 1.8337415540 -0.5514864230
H -1.5417537252 -0.1389713437 -1.1787213028
H -1.0297204816 -2.4814932126 -1.7002824806
H -0.2853723488 -2.5782227534 -0.0957944837
H -2.5254156828 -2.3234754853 0.9752409022
H -3.2921230319 -2.1705380256 -0.6016075049
H -2.4888117746 -4.4908689624 -1.2039521959
H -1.7681057639 -4.6442819112 0.3875093603
H -5.8477558481 -5.3708210352 1.1930213067