14

C -0.3971819174 -1.1718567429 -0.4731794931
C -0.1736831745 -0.0213599668 -0.2010536339
C 0.1150288628 1.3532832981 0.1488306656
C -0.0251825895 1.8074331338 1.6394582406
C 1.2411122644 2.6830729964 1.4504051755
C 1.6041120830 1.8298818722 0.2069024143
H -0.5988271094 -2.1848988538 -0.7182615271
H -0.4595229458 2.0295033845 -0.4940397666
H -0.9591709688 2.2966722289 1.9235104338
H 0.1566365357 0.9687007230 2.3157705327
H 0.9865697867 3.7112077983 1.1770133126
H 1.9615437167 2.7111451845 2.2702094530
H 2.2645847979 0.9977472952 0.4623599096
H 1.9976211881 2.3374111886 -0.6762397369