13

N 0.0907628224 1.3790445568 0.1511137853
C -0.0310853644 -0.0000272668 0.0503714313
C -1.2104097408 -0.6886745559 0.0210334823
C -1.2082640787 -2.1335836582 -0.0091655424
O -2.2024878318 -2.8510961213 -0.0356301391
C 0.1596156131 -2.7032635233 -0.0250638893
N 1.2635215272 -2.0308521441 0.0006704782
N 1.1517359415 -0.6853501617 0.0338677805
H 0.8204722233 1.7890313524 -0.4173847461
H -0.7847285628 1.8664658420 0.0243303000
H -2.1556846489 -0.1593983865 0.0074703037
H 0.2573306573 -3.7842722771 -0.0571473522
H 2.0263247925 -0.2021848762 0.1603298877