15

C 0.0162676384 1.4883616030 0.1003576297
C 1.3174890684 0.7359614649 -0.0131084462
N 2.0732673347 0.3914584692 1.1919480150
C 1.2183420080 -0.3840741164 1.9878859624
C 1.1149745257 -1.0459041900 3.1636401784
O -0.0553375364 -1.7507228770 3.1658663390
N -0.7394855362 -1.5450318380 1.9634711502
C 0.0261632883 -0.7283381893 1.2958447236
C -0.0054510379 -0.0316323670 -0.0083333881
H -0.2549480163 1.9346077068 1.0509908056
H -0.3118556782 2.0391964039 -0.7741710123
H 1.9119234811 0.8339260667 -0.9142622295
H 2.5304898271 1.1732889618 1.6431959202
H 1.7137972896 -1.1381678172 4.0540864207
H -0.4096533063 -0.5036068615 -0.8939654887