21

C 0.4774955232 1.8313528342 -0.3432150620
C 0.3948351563 0.3050582853 -0.2284489433
C 0.9399389927 -0.4124421209 -1.4396433619
C 0.4438673426 -0.3127502553 -2.9189345491
C 1.6060475295 -1.3425833680 -2.9387499792
C 2.3901130091 -0.3622293014 -2.0234474131
C 0.9523558222 -1.9788580205 -1.6645452494
C 1.7394883922 -2.8779980257 -0.7613371206
O 1.2741617914 -3.8695307888 -0.2507986558
H 1.5134344559 2.1648344570 -0.4640257069
H -0.0926228391 2.1960447538 -1.2039021744
H 0.0740649356 2.3124393305 0.5524859181
H 0.9423587366 -0.0295417023 0.6621599188
H -0.6485735826 -0.0004729563 -0.0777496867
H -0.5590612288 -0.6957968990 -3.1260012778
H 0.6286486263 0.6349858288 -3.4322400579
H 1.9868007205 -1.8897920526 -3.8012573778
H 2.6847320306 0.5831259679 -2.4871297866
H 3.2036388898 -0.7583179901 -1.4146389280
H -0.0357950199 -2.4233481223 -1.8164275575
H 2.7983917959 -2.5995176344 -0.5710570188