23

C 0.0287843303 1.3858042377 0.0555625819
O -0.0390688443 -0.0291659140 0.0439920379
C -1.3445892414 -0.5894223463 -0.0163678377
C -2.1058799267 -0.1650688601 -1.2679706386
C -1.1389552715 -2.1169917276 0.1445031723
C -1.7711856058 -2.4603973543 1.5125327535
C -1.0247954716 -3.5205200548 2.3192206964
C -1.8304227146 -1.0766040273 2.1748689459
O -2.1142586424 -0.1801673707 1.1064802492
H 1.0506166948 1.6463169991 0.3428023238
H -0.1738422056 1.8198360731 -0.9333317576
H -0.6695950857 1.8142139636 0.7831546719
H -1.5095270439 -0.3720850378 -2.1607540169
H -3.0467820806 -0.7170248090 -1.3323738080
H -2.3445553430 0.9007266052 -1.2391630394
H -1.5965735899 -2.6743507058 -0.6759733362
H -0.0660722686 -2.3225410643 0.1370047626
H -2.8031394370 -2.7943618080 1.3504695775
H 0.0117900787 -3.2154305973 2.5015771631
H -1.5011870208 -3.6916748931 3.2907990284
H -1.0018055202 -4.4786208479 1.7902346520
H -2.6231154205 -0.9717145732 2.9202928148
H -0.8674781194 -0.8294836872 2.6476608732