19

C -0.0453103396 1.5638484520 -0.0840652402
C 1.5054456882 1.5914407521 0.0122761234
C 2.0650977938 1.7197321957 1.4392570491
C 1.9044713940 0.2902287526 1.9875449850
O 2.2338857965 -0.5409197604 0.8957216371
C 1.5257413297 0.0403959219 -0.1948520326
C -0.0193833039 0.0135932315 0.0368195843
C -0.2767719327 -0.5315068886 1.4412109881
O 0.5643752133 0.0747078558 2.4217967296
H -0.5901183671 2.1048883350 0.6947037606
H -0.4077488482 1.8961965774 -1.0598998443
H 2.0299297655 2.2185875676 -0.7089818308
H 3.1281438836 1.9780095310 1.4139026903
H 1.5383545157 2.4498265291 2.0573377721
H 2.5628011084 0.0417110447 2.8236191530
H 1.9085530826 -0.3762874932 -1.1258477350
H -0.6206522352 -0.5379159036 -0.6910699690
H -1.3035284969 -0.3321768806 1.7642326165
H -0.1249869279 -1.6199607301 1.4370873929