21

C 0.0655672719 1.4739222036 0.0051390715
C -0.0560073182 -0.0169640360 -0.0347540379
C -0.1509885949 -0.8060404151 -1.1128024010
C -0.0489355432 -2.2524586883 -0.6915844176
C 1.4296223017 -2.4801147803 -0.1770879737
C 0.9585927240 -2.0784208367 1.2143175422
C -0.4891580038 -2.2571636332 0.8092958595
C -0.0337733211 -0.8781823466 1.1995577497
C -0.4028402648 -0.3085708924 2.5495293044
H 1.0148224560 1.7853587050 0.4603405227
H 0.0191430650 1.9015905975 -1.0000688036
H -0.7304967474 1.9326112797 0.6047174883
H -0.1096280097 -0.4768649479 -2.1449824250
H -0.4471176650 -3.0004007432 -1.3756319200
H 1.6859660123 -3.5431160042 -0.1930351322
H 2.2215864110 -1.9016871149 -0.6653738772
H 1.4436559760 -2.3405797416 2.1481140321
H -1.2982987531 -2.8079428854 1.2756850119
H -0.4051238402 -1.0899960180 3.3162839805
H 0.3040938710 0.4647125509 2.8708266525
H -1.4025847676 0.1404699169 2.5330264328