18

O 0.2321044946 1.3827942503 -0.0658091666
C 0.1002407121 -0.0094425894 0.0087589549
C -0.3932059800 -0.7164443789 1.2586333996
C -1.2225566972 -0.6926373321 0.0032001039
C -2.6317321060 -0.1957979831 -0.2638595972
C -2.6504988780 -0.7457176285 -1.7245192333
C -3.9403793874 -1.4920811749 -1.4101405822
N -3.2121107268 -1.6332448144 -0.0753865008
C -1.8618945200 -1.7713052895 -0.8488232155
H -0.4619276230 1.7856208949 0.4655417672
H 0.9187099132 -0.4725126326 -0.5343785248
H 0.0898065233 -1.6394710675 1.5644109657
H -0.7252183027 -0.0956844404 2.0873146016
H -3.1682117307 0.6689498163 0.1322106100
H -2.3101791050 -0.2399785689 -2.6337270817
H -4.8691501716 -0.9161821626 -1.3401674442
H -4.1203435738 -2.4491878410 -1.9105723879
H -1.4886834510 -2.7549405576 -1.1385066587