17

N -0.1742392200 1.4637250323 0.0432294691
C -0.0782423361 0.0403616356 0.0220987120
C -0.4841143767 -0.7261683130 1.2434087553
O -1.1041952097 -0.0030538936 2.2594901771
C -2.5020202650 0.1488429316 1.9554876984
C -2.6554650647 -0.0104275255 0.4290993082
C -1.3987738976 -0.7877746291 0.0297246722
C -1.4918409614 -1.9524604275 -0.7917817128
N -1.5510510871 -2.8915064611 -1.4671524097
H 0.2757856803 1.8515005293 0.8639556881
H 0.2237835295 1.8807705957 -0.7875078464
H 0.7111469963 -0.4211527146 -0.5695931586
H 0.0895219237 -1.5861105543 1.5751011028
H -3.0714124717 -0.6199721963 2.4952394100
H -2.8123597591 1.1327076724 2.3156049343
H -3.5589878140 -0.5620916262 0.1643056697
H -2.6682247767 0.9619543043 -0.0675215795