18

C 0.0688486635 1.5216378885 0.1712710536
C -0.0966269732 0.0112389069 -0.0688306101
C 0.6448155857 -0.4852879083 -1.2723899414
C 0.1328063944 -0.9610487792 -2.4351692184
O 1.1393815381 -1.3260289814 -3.3022938782
C 2.3102489684 -1.0810296459 -2.6721973195
N 3.4801215599 -1.3195947649 -3.3822857827
C 2.0769959967 -0.5651077361 -1.4323602471
O 3.0512739413 -0.2867948949 -0.4965277195
H 1.1187843044 1.7809753762 0.3438718900
H -0.2802537080 2.0965159443 -0.6918268314
H -0.4980470944 1.8431259584 1.0506315048
H 0.2522169464 -0.5293001264 0.8200463543
H -1.1605963361 -0.2255236076 -0.1788631690
H -0.8687653625 -1.1166728680 -2.7982103960
H 3.4614096301 -2.2037394900 -3.8783715647
H 4.2777983024 -1.2901604710 -2.7587197725
H 3.1662805028 0.6680730094 -0.4375319121