21

C -0.0252250595 1.5885077931 -0.1245535667
C 0.0228841591 0.0620582197 0.0099214118
C 0.7666520120 -0.3454385505 1.2753915298
O 1.3374476859 -1.3972562905 1.4216494239
C -1.3943228625 -0.5477417082 0.0414872746
C -1.4790511554 -2.0749876947 -0.0651990418
C -2.7879781015 -2.3692594121 0.6815199905
C -2.7579691016 -1.3189739996 1.7992230327
O -2.0119491048 -0.2076851003 1.2912573905
H 0.9791948713 2.0239254111 -0.1197394529
H -0.5114133517 1.8788142844 -1.0605951270
H -0.5942706428 2.0271736030 0.7006658442
H 0.5552618960 -0.3844992791 -0.8382178176
H 0.7460575799 0.4093543436 2.0924927071
H -1.9746884852 -0.0871911002 -0.7754281651
H -1.4853532226 -2.4143408728 -1.1039619775
H -0.6261283651 -2.5367366946 0.4402856083
H -3.6494267738 -2.2045768564 0.0254890224
H -2.8483656088 -3.3898566538 1.0664474792
H -3.7558499263 -0.9724176228 2.0898065983
H -2.2572624525 -1.7063694191 2.6973076352