18

C 0.0145889258 1.5057310194 0.0763435455
C -0.0129129380 0.0130416960 -0.0085723291
C 0.0342446925 -0.7527852868 -1.1035793159
C -0.0216902566 -2.2335521514 -0.8015659858
C -0.0575292527 -2.2752258549 0.7307254610
N 1.1644083601 -1.6911409085 1.3558162374
C -0.0515988132 -0.8532981697 1.2126202007
C -0.7532586129 -3.3220493657 1.4131153400
C -1.3254819379 -4.2216044930 1.9717521917
H 0.8971276340 1.8542005403 0.6272295035
H 0.0301751444 1.9624565897 -0.9167684025
H -0.8624685933 1.8902531798 0.6123645157
H 0.1313962423 -0.3753337799 -2.1159420149
H -0.9157766626 -2.7082917914 -1.2238951127
H 0.8480145407 -2.7750385758 -1.1908296727
H 1.2086782021 -2.0403718412 2.3129849945
H -0.5842822758 -0.5485184761 2.1079799562
H -1.8338070788 -5.0106107208 2.4680085874