18

C -0.0964318675 1.6415159966 0.1016824429
C 0.0001742485 0.1209754037 0.0364611294
C -1.3897769580 -0.5095687210 -0.1873539652
C -1.9786667250 -0.1170973797 -1.4657577348
N -2.4227575646 0.2039017251 -2.4837283752
C 1.1696220300 -0.5892499598 -0.7287514994
C 2.1789039189 -0.1401478602 0.3540916197
C 0.9019967702 -0.6778001412 1.0406880836
O 0.9252264014 -1.8082336559 0.0831034892
H 0.8660078753 2.1346914183 0.2377743502
H -0.5445739430 2.0314340849 -0.8176412849
H -0.7442099077 1.9421240639 0.9330192516
H -1.2983634567 -1.5974541849 -0.1581459221
H -2.0717607147 -0.2042609188 0.6152070779
H 1.3087661338 -0.7209150623 -1.8021019068
H 3.0397599457 -0.8006152585 0.4520901505
H 2.4456737197 0.9116791381 0.4470099683
H 0.7222097135 -0.9140802484 2.0908328153