21

C 0.0234299237 1.5094841505 0.0259334021
C -0.0260852771 0.0161087546 0.0259918165
C -1.1005317255 -0.7862021566 -0.0134189072
C -2.6045812485 -0.6702256117 -0.0693464147
C -3.0915868452 -2.1610472951 -0.0858679329
C -1.8165549296 -2.9858438114 -0.0366947321
C -0.7379610617 -2.1944350583 0.0021934405
C 0.7650056463 -2.3094178027 0.0592340882
C 1.2458911957 -0.8210134861 0.0747292673
H 0.5933425178 1.8916881822 -0.8320602141
H -0.9771568518 1.9490314029 -0.0122624837
H 0.5271896108 1.8939476314 0.9234093443
H -3.0064001948 -0.1276161293 0.7929500810
H -2.9419115714 -0.1291088554 -0.9597440770
H -3.7498666426 -2.3797099060 0.7652015755
H -3.6836863560 -2.3818926978 -0.9837236304
H -1.8277856600 -4.0697453625 -0.0355240085
H 1.0986732456 -2.8506726835 0.9504614753
H 1.1654031458 -2.8540432848 -0.8019411416
H 1.9029667212 -0.5959931295 -0.7767239557
H 1.8379407876 -0.5931312011 0.9718708971