15

C -0.6193153305 0.4179388283 0.2567112258
N 0.6668355253 -0.1606425374 -0.0727069945
C 0.7214458963 -0.9489907965 -1.0441329123
O 1.9137241777 -1.4960753507 -1.4093541411
C 1.8616133488 -2.4456229959 -2.4643943625
C 1.3591676021 -3.7493097913 -2.0359249199
C 0.9393290398 -4.8212286658 -1.6720313514
C 0.4627734524 -6.0351056210 -1.2662286573
N 0.0553833326 -7.0676344259 -0.9248440776
H -0.5516439694 1.5099720842 0.2031609244
H -1.4411831036 0.0871467036 -0.3982508639
H -0.8768885238 0.1645716810 1.2906948644
H -0.1294166610 -1.2538687346 -1.6726299825
H 1.2532025039 -2.0751679507 -3.3018628351
H 2.8895207393 -2.5463697474 -2.8251534363