15

C 0.0412226437 1.5236209596 0.0362284744
C 0.0433875751 0.0347958266 -0.0541768744
C 0.0302999694 -0.8304015745 -1.1321040294
O 0.0043398083 -0.5594075984 -2.4621744837
C 0.0458090063 -2.1426257875 -0.5853048589
C 0.0391374392 -3.4053913199 -1.3330502778
O 0.0528921449 -4.5107226228 -0.8429216908
N 0.0680603201 -2.0892226447 0.7554690225
N 0.0671790183 -0.7916198158 1.0385256482
H 0.9869153391 1.9202396313 0.4240187938
H -0.1132008444 1.9675594591 -0.9523101063
H -0.7656095598 1.8933681268 0.6789374074
H 0.0271108891 0.3928753528 -2.6000758865
H 0.0199913053 -3.2614176931 -2.4347031081
H 0.0803903956 -0.5087735395 2.0055862797