21

C 0.5880936221 1.1250201479 -0.4072724887
C -0.4073845310 0.4240611675 0.5131573082
C -1.4132738047 -0.4328857310 -0.2566523507
O -1.4030800326 -0.5312609213 -1.4677615892
N -2.3178106770 -1.0704417072 0.5663274479
C -3.3856115547 -1.9351056660 0.2626773222
C -3.6313011303 -2.2550330676 -1.1877291745
N -4.0277180026 -2.3496760355 1.2810142584
C -5.1563791631 -3.2492922520 1.1234943973
H 1.2903102269 1.7269859656 0.1761198140
H 1.1554064718 0.3980338414 -0.9931455132
H 0.0715760851 1.7791606744 -1.1136123445
H 0.1135836673 -0.2194618300 1.2342811135
H -0.9648827623 1.1544142869 1.1142583677
H -2.2373165670 -0.9197322421 1.5629838585
H -4.4801276719 -2.9305874536 -1.2889708313
H -3.8188486290 -1.3421134730 -1.7573819976
H -2.7454547974 -2.7086166146 -1.6378572516
H -4.8781863992 -4.2018569840 0.6516928698
H -5.5601271621 -3.4798812397 2.1129148446
H -5.9704359983 -2.8101632963 0.5303204291