17

C -0.0143034116 1.4888866172 -0.3629428943
C 0.0078813534 0.0120970634 -0.0453644249
O -1.1666658974 -0.6681268406 -0.3661548001
C 1.2988388690 -0.8173498645 -0.2035676927
C 2.5782774421 -0.2198074428 -0.6369921119
O 3.0556824256 0.8194600324 -0.2365376630
C 0.6605751914 -0.5426642732 1.1822670632
C 1.3123566719 0.3181789591 2.2131673950
O 1.2724012515 0.0389905279 3.3874195391
H 0.9425779927 1.9680165198 -0.1565656916
H -0.2358572255 1.6366288236 -1.4270476435
H -0.8000740846 1.9805889939 0.2178382579
H -1.3975027563 -0.4562048205 -1.2782374424
H 1.1188171942 -1.8217306245 -0.5716706186
H 3.0997036384 -0.8099307755 -1.4222328849
H 0.1631461702 -1.4070084147 1.6094158564
H 1.8272513050 1.2234365692 1.8480663165