14

N 0.1785936362 1.4538620702 -0.1484673444
C 0.0040269702 0.0207584531 -0.0055762986
C 0.5915970037 -0.4983830941 1.3353268491
O 1.6624507253 -0.2667173019 1.8260856539
N -0.3940474256 -1.3207342036 1.8861139903
C -1.5540702367 -1.3103076053 1.1316590587
C -1.4142855196 -0.5583218211 0.0213325946
C -2.3795988512 -0.3231489538 -0.9756947930
N -3.1365308810 -0.0884945786 -1.8235483406
H -0.1209458424 1.7496174488 -1.0721811188
H -0.3959520968 1.9537882809 0.5234276833
H 0.5813112695 -0.4648657152 -0.8037173875
H -0.2896911883 -1.7575845571 2.7876657230
H -2.4206461332 -1.8656125824 1.4617897798