16

C -0.1231024174 1.5098381848 0.2123501294
C -0.0374735667 0.0105178955 -0.0620052374
C 0.7767336468 -0.3299258791 -1.2999490600
O 1.2211759711 0.4980068673 -2.0503847129
C 1.0019791775 -1.8462036932 -1.5252018603
C 1.6429071251 -2.1693169436 -2.7825413630
C 2.1744926989 -2.4367910166 -3.8325175607
C 2.7749979402 -2.7466711296 -5.0187316140
N 3.2852200639 -3.0164019801 -6.0268472514
H 0.8703641959 1.9338408292 0.3788579613
H -0.5640009294 2.0357093217 -0.6375890023
H -0.7347058798 1.7028682052 1.0975197645
H 0.3917521856 -0.5311822899 0.7920593989
H -1.0381335893 -0.4239982844 -0.1994031168
H 1.6061474446 -2.2195470230 -0.6863985924
H 0.0369776931 -2.3635794041 -1.4434169228