18

O -0.0461103964 1.4234257787 -0.0251749984
C -0.0115135227 0.0149256954 0.0454746423
C 0.4664287716 -0.5856620209 1.4160435788
C -0.8346078222 -1.3327225399 1.7686769547
O -1.1820209763 -1.9370052631 0.4775187713
C -1.4457198621 -0.5582961012 0.0610165204
C -1.9310775578 -0.3010384971 1.4894404801
C -3.2843273015 -0.2348029395 2.0543137855
N -2.3456821447 0.9162087680 2.1418217023
H 0.8577619165 1.7450941329 -0.0909284413
H 0.5491868954 -0.4146268049 -0.7943085917
H 1.3114764332 -1.2702481695 1.3171862099
H 0.7185740291 0.2065370151 2.1274943218
H -0.8529430029 -2.0230317672 2.6127079809
H -2.0645431327 -0.4542375451 -0.8284066043
H -4.1455601777 -0.0658132515 1.4139064961
H -3.4929488609 -0.8118108285 2.9521642191
H -1.9454682675 0.9882952183 3.0746937825