21

C -0.3782631745 1.4864330093 -0.1578818957
C 0.1031199449 0.0512072828 0.0942559354
C 0.9151611604 -0.4975236870 -1.0498684552
O 0.1655584249 -0.8151473463 -2.2581770520
C 0.8542515647 -1.8712977811 -1.5793726308
C 2.2075332458 -2.2355966725 -2.1928538081
C 2.1154176763 -2.6945004437 -3.6560747074
C 2.9953570971 -0.9491534659 -2.0043851554
C 2.2976463837 -0.0056902212 -1.3695774368
H 0.4619165621 2.1777657060 -0.2814082711
H -0.9854037131 1.5306660417 -1.0665923037
H -0.9848263658 1.8472417285 0.6779057360
H 0.7086806331 0.0115303309 1.0086591341
H -0.7607044088 -0.6029659367 0.2537254703
H 0.2152229815 -2.6431974728 -1.1556603392
H 2.6622250584 -3.0412592611 -1.5980778207
H 1.5863510844 -1.9442300291 -4.2490986140
H 3.1113724235 -2.8392573038 -4.0864411701
H 1.5744849739 -3.6428259178 -3.7366332182
H 3.9990368556 -0.8306516187 -2.3996197598
H 2.6474001721 0.9902537783 -1.1258196976