15

N 0.1667889863 1.3819587249 0.1124489791
C -0.0026454060 -0.0112365707 0.0200299607
C -1.1510799414 -0.7855456193 -0.0216541614
C -0.6824450648 -2.1313860016 -0.0106112978
C 0.7003470609 -2.1271614485 0.0237095303
N 1.1260570810 -0.8152458647 0.0301099645
N 1.2520858491 -3.3716071263 0.0110804349
C 0.1934520388 -4.1623161228 -0.0252885496
N -1.0033500461 -3.4734611533 -0.0429494045
H 0.5680725404 1.7829346201 -0.7307744548
H -0.7184411482 1.8403513421 0.2873978541
H -2.1589924328 -0.4065834616 -0.0810949917
H 2.0488368899 -0.4801758429 0.2451819294
H 0.2223150542 -5.2410213914 -0.0378065846
H -1.9176469513 -3.8881977739 -0.0804390786