18

C -0.2685392852 1.5333022229 -0.0969705306
C 0.0485159655 0.0589624359 0.0102959904
O 1.2049494663 -0.3139542829 -0.8217836090
C 1.9043621224 -0.7705140778 0.2706079153
N 3.0690795331 -1.2263246233 0.3702037454
C 0.7907606693 -0.4948663439 1.2629998732
C 1.1111866951 0.4261948492 2.4442865421
C 1.9969683530 -0.2631199795 3.4706578160
O 1.7413658435 -0.3095405247 4.6468058972
H 0.5969499867 2.1510791475 0.1563360513
H -0.5723647900 1.7757888477 -1.1193624738
H -1.0933895653 1.7941823951 0.5740372521
H -0.8118548330 -0.5494894993 -0.2836977437
H 3.5431655262 -1.2544340108 -0.5340193236
H 0.3350411978 -1.4209128777 1.6259232042
H 1.6539857458 1.3118737985 2.0891127961
H 0.1996584039 0.7608025427 2.9480052897
H 2.9135548547 -0.7267578694 3.0509233975