21

C -0.0988733273 1.5756177609 -0.0835836826
C 0.0492672340 0.0552231944 -0.0153767205
C 0.9536054796 -0.5208047759 -1.1206547889
O 1.4159500037 -1.7632106373 -0.6233943731
C 1.7563348283 -1.5258006044 0.7329432615
C 0.6976786469 -0.5379675498 1.2884200358
C 1.2494431130 0.4927634552 2.2510159693
C 2.4272965057 0.2762828232 3.1014650159
O 2.5035628549 1.1098174124 1.9416099595
H 0.8616950488 2.0789148940 0.0611550116
H -0.4923892573 1.8748557992 -1.0610297096
H -0.7950055793 1.9514666882 0.6730679628
H -0.9413415260 -0.3979791273 -0.1273718119
H 0.4314909272 -0.7049235036 -2.0634048556
H 1.7980796809 0.1626088887 -1.3156956730
H 1.7687520161 -2.4892027173 1.2484105751
H 2.7558039697 -1.0708080795 0.7972728203
H -0.0710193060 -1.0906417502 1.8398432229
H 0.5069459065 1.1982376002 2.6270893881
H 2.5066063857 0.7968405298 4.0546626083
H 2.9813105749 -0.6590661611 3.0401258842