18

C -0.5391587797 0.7858997741 -0.0068448662
O 0.7034419554 0.1165487701 -0.2028504498
C 0.6933886007 -0.8646141731 -1.1206965646
N 1.7454238846 -1.5242817780 -1.3428231877
C 1.7362839011 -2.6000274483 -2.3332372514
C 2.3717746913 -3.8379005612 -1.6529048369
O 1.6668027928 -4.2290307314 -0.4994737744
C 0.4371880234 -2.9210127691 -2.9353610936
C -0.6263751027 -3.1767438049 -3.4353880916
H -0.8976711644 1.2445679682 -0.9357529053
H -1.3043704833 0.1026189788 0.3796438243
H -0.3519364617 1.5679331022 0.7295362122
H -0.2656255015 -1.0189824867 -1.6302391508
H 2.4219839054 -2.3007836612 -3.1396082143
H 2.3565757055 -4.6860375209 -2.3427389772
H 3.4179828075 -3.5844006178 -1.4267159425
H 1.6762714155 -3.4669597442 0.0921281481
H -1.5584920301 -3.4234018066 -3.8809802083