20

C 0.2162872489 1.5336738398 -0.1534082247
C 0.1345336091 0.0243433220 0.0094204435
O 0.6108481746 -0.5427354550 -1.2285874989
C 0.9278126729 -1.8697523109 -1.3177985373
N 0.8080848100 -2.5039905488 -2.4075790097
C 1.5385198048 -2.5122699052 -0.0967927932
C 0.8880260382 -2.0354700497 1.2056015291
C 0.8797449027 -0.5044387286 1.2374369980
O 2.1958118116 0.0328276763 1.2220170370
H 1.2583140716 1.8468290905 -0.2355185447
H -0.3228547937 1.8415845488 -1.0524920220
H -0.2326138972 2.0323025890 0.7110568268
H -0.9171015779 -0.2782660222 0.1263867851
H 0.4137237018 -1.8870916775 -3.1218108836
H 1.4870707173 -3.5945359928 -0.2185486152
H 2.5967948504 -2.2263955489 -0.0805398455
H -0.1433558550 -2.4012546857 1.2832185366
H 1.4283646202 -2.4323686781 2.0732969943
H 0.3277581320 -0.1488533780 2.1222328947
H 2.6635463577 -0.2981007150 1.9951312597