19

O 0.0444345692 1.4320526256 -0.1928406314
C 0.0378990349 0.0827622767 0.2624332058
C -1.3273901328 -0.5535749206 0.1062456959
C -1.8286007315 -1.2204721511 -1.1721223361
C -0.8127253504 -1.7313062718 -2.1757137259
O 0.1458128806 -2.4835156427 -1.4276727510
C -0.4820423372 -2.9969286570 -0.2597773707
C -1.6158708117 -2.0349114925 0.0762694491
O -2.7048978076 -2.5555921957 0.7733214765
H -0.1914972577 1.4209439207 -1.1260416301
H 0.8079341274 -0.5149219445 -0.2394045067
H 0.3007056076 0.1384469546 1.3247823702
H -2.1138659282 0.0080932273 0.6060285605
H -2.8330808166 -0.9956955446 -1.5102251422
H -1.3151421462 -2.3629847482 -2.9249693424
H -0.2570298812 -0.9521065426 -2.7099760209
H -0.9255346886 -3.9902183786 -0.4314365759
H 0.2910594583 -3.0896404445 0.5112098482
H -2.5173483782 -2.4928733104 1.7158572969