17

C -0.0807423289 1.6054876065 -0.1674056206
C -0.0532416387 0.0959169447 0.0394502848
C 0.8032544664 -0.6458080490 -1.0685641222
N 1.9336543234 -0.7924989664 -0.0692479502
C 0.9630180401 -0.4875968594 0.9468442170
C 0.3956908491 -1.0384729464 2.0226796075
C -1.0634800172 -0.8753009868 1.8336402482
N -1.9789784886 -1.2423936950 2.6244926374
O -1.3031092239 -0.3389898473 0.5594026493
H 0.9025432572 1.9784693890 -0.4695063193
H -0.8003307019 1.8596475111 -0.9516469689
H -0.3794029544 2.1088606679 0.7556155309
H 0.4166411992 -1.6329823317 -1.3277531383
H 1.0378591406 -0.0698912115 -1.9672838750
H 2.6732846140 -0.1076488564 -0.1939106139
H 0.8060126067 -1.6627841857 2.8009131566
H -2.8971174431 -1.1010022536 2.2016194966