19

C -0.0161266959 1.4803964717 0.0848902523
C -0.0109424720 -0.0256538204 -0.0209397930
C 0.7612527899 -0.6690372185 -1.2109212094
C 1.1085079079 -2.0786355016 -0.6380228372
C 0.4662652247 -1.9869441142 0.7725242462
O 0.6532426729 -0.6142036654 1.1084597760
C -1.0511299234 -2.0701358984 0.5503253490
O -1.8043555611 -1.1260397091 1.3129488875
C -1.3718321540 -0.7507444110 0.0046566123
H 1.0065499618 1.8643246962 0.1427130908
H -0.5026889631 1.9252273381 -0.7887522046
H -0.5571865841 1.7951501955 0.9813262830
H 0.1579688411 -0.7162210019 -2.1224005709
H 1.6611488670 -0.0902769502 -1.4328360494
H 0.6969778282 -2.8972989965 -1.2356295009
H 2.1873812940 -2.2272896076 -0.5591799141
H 0.8943872290 -2.6228681491 1.5468783161
H -1.5477118342 -2.9938674269 0.2699869752
H -2.1408261586 -0.5555477307 -0.7369377890