14

O -1.3320148936 -0.3728502677 -0.5507453898
C -0.0026519449 -0.5315173379 -0.1498038380
C 0.8263877344 0.6890818293 -0.5329819551
O 0.3400443366 1.5554481663 -1.2167766287
C 0.0275702230 -0.9340697146 1.3170418062
O 1.2855219222 -0.9569897030 1.9805784130
C 0.2909783849 -0.0470531259 2.4698079437
C 0.5708630105 1.3646955187 2.3352469725
N 0.7881110994 2.4977405812 2.2634500784
H -1.3542724079 0.4730130515 -1.0297151840
H 0.4759526162 -1.3703942068 -0.6950584836
H 1.8817426197 0.7049582715 -0.2099864443
H -0.6137122914 -1.7918076052 1.5230405028
H -0.1398243889 -0.3177257977 3.4321533070