20

C 0.0817821806 1.5002376895 0.0618670622
C 0.0192278558 -0.0241113593 -0.0888414002
C 0.6699198313 -0.5428905287 -1.3397598998
N 2.1383884754 -0.2718793051 -1.6924142033
C 1.6206987598 -1.1389860470 -2.8263326144
C 0.9904034586 -2.0319192815 -1.7195364102
O 1.8262972630 -2.7587121114 -0.8812993992
C 0.3108878301 -0.2964414054 -2.8250755190
O -0.9111069195 -0.8302388394 -3.2646881213
H 1.1181455241 1.8520445597 0.0991336585
H -0.4166062916 2.0049424797 -0.7724430034
H -0.4093693527 1.8209721932 0.9851656874
H 0.4998295344 -0.5082697455 0.7700808886
H -1.0252610010 -0.3594597414 -0.0923358602
H 2.2544525269 0.6954876830 -2.0106702140
H 2.2623587686 -1.4233346133 -3.6621582919
H 0.1450759710 -2.6518807419 -2.0086857598
H 2.5575794617 -2.1578948068 -0.6742764715
H 0.4583910045 0.7416899702 -3.1572196484
H -0.9451697209 -0.7696694988 -4.2245637600