16

N -0.2772442479 1.1988996070 0.3063153679
C -0.4045581178 0.0410690369 -0.1732111167
O -0.7539733554 -0.9815505227 0.6443861449
C -0.8742006862 -2.2762832019 0.0755032032
C -2.3239575234 -2.6882556635 -0.0290736612
C -2.7260786285 -4.0926991385 0.2222372256
O -2.9824928767 -3.0847321172 1.1805105330
C -3.2022087768 -1.9085659969 -0.9612563340
O -2.7824886569 -1.1834534281 -1.8267586915
H -0.0110703958 1.8497677427 -0.4294664371
H -0.2663459757 -0.2626842609 -1.2172333069
H -0.4133445572 -2.3138729220 -0.9189962907
H -0.3470475849 -2.9704714392 0.7360179968
H -3.5993501420 -4.5040151198 -0.2825481906
H -1.9494933290 -4.8122791921 0.4780359299
H -4.2877758659 -2.0693755637 -0.7859604526