21

C 0.0666240513 1.5009115126 -0.0027615549
C -0.0196730386 -0.0264888054 0.0106036798
C -1.4846334582 -0.4948096291 0.0461278193
O 0.6128040446 -0.4369696221 -1.2090964102
C 0.9514940676 -1.8082128133 -1.2933054273
C 2.0519068676 -2.1861646887 -0.2971936030
C 1.7331656409 -1.6367302353 1.0811017842
O 2.1113081542 -0.2742928686 1.3159992158
C 0.7215466218 -0.5751250861 1.2261430861
H 1.1145394405 1.8071422720 -0.0121510602
H -0.4247021577 1.8931130085 -0.8975559940
H -0.4197834344 1.9279047354 0.8795851993
H -2.0041416162 -0.1389392149 -0.8474653224
H -1.5688900103 -1.5851837969 0.0816845498
H -1.9979821470 -0.0953365131 0.9262310933
H 0.0685340890 -2.4442026792 -1.1274331289
H 1.2815227968 -1.9715225980 -2.3233359022
H 2.1515426940 -3.2764252453 -0.2542462238
H 3.0154959119 -1.7790306610 -0.6208783584
H 1.9228696863 -2.2932360084 1.9301936124
H 0.1774835158 -0.4851685032 2.1678131453