20

C -0.2054551972 1.4860372470 -0.0822578485
O -0.1977885485 0.0874360961 -0.2641685118
C -1.3993684749 -0.5403989531 0.1308099094
C -1.1728605995 -2.0339013023 0.1181068600
C -0.1522419900 -2.5406726418 1.1238691205
C 1.2588517710 -2.0418979654 0.8595598258
O 2.0127823131 -1.6677385009 1.7212623133
C -2.3050882110 -2.8984824583 -0.3054411416
N -1.1394223957 -2.7231963501 -1.1848245054
H 0.7711839895 1.8591902634 -0.3970869104
H -0.9862638446 1.9693313627 -0.6898450612
H -0.3692394972 1.7561755563 0.9717402538
H -1.6912111007 -0.2095800577 1.1421086451
H -2.2218602786 -0.2687574898 -0.5532226714
H -0.4288680182 -2.2788428514 2.1501637562
H -0.1150733018 -3.6353372280 1.0504832644
H 1.5671536509 -2.0918768024 -0.2054091387
H -2.4123128596 -3.8904622213 0.1245960600
H -3.2435824026 -2.4208729759 -0.5758541680
H -1.3518852245 -2.0690689571 -1.9340415615