15

C 0.0488935302 1.3795714183 -0.1937067633
C 1.4811470608 1.8514196606 0.1644853437
C 2.1050621116 0.5698582061 0.6622345136
N 3.3574246058 0.3519064194 1.0223477736
C 3.6027810998 -0.9003335140 1.4473126588
N 2.7325565483 -1.9016943135 1.5406693495
C 1.4643250790 -1.6654165385 1.1730914746
C 1.1121630296 -0.4073668805 0.7150965512
O -0.1034560492 0.0177771337 0.3069810229
H -0.7354123293 1.9833979496 0.2664397587
H -0.1173008232 1.3515116729 -1.2748868206
H 2.0137178541 2.2643547044 -0.6958024986
H 1.4845061504 2.6156070525 0.9485969503
H 4.6246122692 -1.1140102943 1.7471632742
H 0.7501890330 -2.4803740266 1.2488468014