17

C -0.1624758136 1.4607386730 0.6584669944
C 0.0806386655 0.0240467645 0.2538396819
C 0.3860118460 -0.3709961228 -1.1721337860
C 0.5137190158 0.6669912930 -2.1651042874
N 0.6237078970 1.4971891558 -2.9637329711
N 1.3844471149 -0.5161744763 -0.1032756911
C 2.5709577507 0.3501468698 -0.1033749883
C 3.6586462861 -0.2657266612 -0.8557019957
C 4.5563842105 -0.7580372695 -1.4826693642
H 0.1954488557 1.6352630027 1.6785082941
H 0.3183471852 2.1793220086 -0.0075427818
H -1.2372135471 1.6659547391 0.6452870562
H -0.5189803574 -0.6956283979 0.8097934619
H 0.0062319032 -1.3084601932 -1.5691858293
H 2.3841073722 1.3556446961 -0.5075490031
H 2.8689749071 0.4751840742 0.9443717335
H 5.3505776283 -1.1913775061 -2.0388044239