20

O 0.1258273807 1.3666798430 -0.0977013832
C 0.0328996849 -0.0458941054 -0.0832904708
C -1.4179067475 -0.5553037633 -0.0662213704
C -2.1974333581 -0.0661248353 -1.3023790390
O -3.5980529103 -0.1102496250 -1.1434657335
C -1.4152384952 -2.0764882866 0.0557765379
O -2.7725393159 -2.5414669726 0.0497059058
C -2.9671624581 -3.8591570536 0.2680981823
N -4.1250986561 -4.3449474563 0.1627703317
H -0.2811555967 1.7010078126 0.7084103092
H 0.5368657673 -0.3805809168 -0.9980565392
H 0.5903476246 -0.4734720867 0.7660745168
H -1.9227436564 -0.1435555937 0.8195220808
H -1.9354105615 0.9801487584 -1.4809303989
H -1.8637847113 -0.6409013142 -2.1854782852
H -3.8306388624 -1.0144921895 -0.9011602367
H -0.8772788321 -2.5244696598 -0.7920542356
H -0.9210252431 -2.3974458511 0.9828223578
H -2.0476039056 -4.3959632105 0.5381841253
H -4.1107868773 -5.3401769736 0.3747587649