19

C -0.0378972610 1.4509619956 -0.0513948128
C 1.3520998271 0.8236514225 -0.0211432417
C 2.1506503329 0.3950219449 -1.2367195333
O 2.2199198246 -1.0441920677 -1.2835935635
C 0.9639722878 -1.6763367126 -1.0379888904
C 0.8350905065 -2.1971631116 0.4280498916
C -0.0047720894 -1.0833480498 1.1344366629
C 0.0990426535 -0.0205245995 0.0671819236
O -0.0787396277 -0.7305622384 -1.1552802499
H -0.3270238988 2.0227059803 0.8234436377
H -0.4313173219 1.8266919043 -0.9902807233
H 1.9120330204 0.9623232403 0.8985827435
H 1.7075387801 0.7826467955 -2.1611770841
H 3.1898870310 0.7271165503 -1.1893746624
H 0.8310819809 -2.4495715228 -1.7988395008
H 0.3288248721 -3.1651601830 0.4513653202
H 1.8272960666 -2.3163266393 0.8665257927
H -1.0384953114 -1.4057371630 1.2915734605
H 0.4134219666 -0.7712620961 2.0933971596