23

C 0.3659068501 1.5224587439 -0.3314560114
C 0.0649816617 0.0417995451 -0.0429043067
C -1.4322985956 -0.1387718345 0.2219082750
C 0.5801431976 -0.8561533137 -1.1913050992
C 2.1025727749 -1.0163147866 -0.9623094620
C 2.3434801686 -0.7034878935 0.5407338902
C 0.9284031549 -0.4979864083 1.1458988316
C 0.9039845829 0.3094624217 2.3554758915
C 0.8856688582 0.9810114743 3.3536724085
H 1.4212846594 1.6936055622 -0.5649802632
H -0.2217520634 1.8661551067 -1.1893559413
H 0.1114429676 2.1480574667 0.5287649228
H -2.0260553944 0.1869022806 -0.6391437902
H -1.6764614562 -1.1886954260 0.4188811377
H -1.7500719002 0.4495133229 1.0891451056
H 0.0866543781 -1.8336175639 -1.1297391393
H 0.3406221681 -0.4417751443 -2.1754215209
H 2.4388657375 -2.0220885997 -1.2279998974
H 2.6701620689 -0.3248862901 -1.5912753085
H 2.8815255736 -1.4994910750 1.0611348457
H 2.9331786540 0.2082904157 0.6650237311
H 0.5217383830 -1.4883709187 1.3955365379
H 0.8715459109 1.5687695346 4.2377286726