20

C 0.0461322054 1.5919668007 -0.0330198020
C 0.0542117778 0.0697332045 0.0087093682
C 0.6439690472 -0.6228792402 -1.2425743554
C 1.2101030247 -1.9245259790 -0.6839951667
C 0.8552897290 -3.2575453160 -1.1852187183
O 2.1347730730 -2.6779056509 -1.4663287582
C 1.5088347295 -1.6622949283 0.7679051325
C 2.2523085401 -0.4096498787 1.0662558474
N 0.7904152334 -0.4484920766 1.1961892808
H 1.0575992465 1.9909013773 -0.1657465296
H -0.5683772540 1.9515528723 -0.8642812283
H -0.3606907672 1.9985458049 0.8971498384
H -0.9757914696 -0.2823361047 0.1455304381
H -0.1025383547 -0.7855887745 -2.0229471887
H 1.4532264342 -0.0331690640 -1.6874454356
H 0.8694035744 -4.1144449615 -0.5119188331
H 0.1856828300 -3.3516137707 -2.0398119833
H 1.5350165930 -2.5020013188 1.4561948747
H 2.7841323982 -0.3163210402 2.0081617417
H 2.7063096390 0.1293834742 0.2390541973