18

C 0.1575681850 1.5512069235 -0.1353178242
C 0.0052516088 0.0424526880 0.0532183078
O 0.5779799517 -0.6483568544 -1.0594384463
C 1.4346174513 -1.7081868828 -0.6363264338
C 2.7632421656 -1.6424664492 -1.3815555066
C 1.5332656047 -1.5080368465 0.8692251250
C 0.7204631190 -0.5202746579 1.2492820082
C 2.3634551331 -2.3032642970 1.6996730062
N 3.0541667470 -2.9737911599 2.3443402485
H 1.2145589937 1.8295068699 -0.1650745739
H -0.3094232698 1.8536539926 -1.0762564567
H -0.3298698891 2.0930316936 0.6814330449
H -1.0708384355 -0.1979133174 0.1182687926
H 0.9522011848 -2.6771988665 -0.8464882224
H 3.2735273750 -0.6981840391 -1.1722552732
H 3.4124797274 -2.4706914813 -1.0816288541
H 2.5860659655 -1.7130296064 -2.4578669384
H 0.5694795618 -0.1666856090 2.2608361366