18

C 0.1855728935 1.4381869189 0.1995859503
C -0.0622230127 -0.0209984392 0.5356673985
O 1.2041993252 -0.6620188383 0.6879298096
C 1.1071679607 -1.9987864133 1.0104053585
C 2.1599679546 -2.5940100170 1.8912716485
O 2.9083661090 -1.6732867859 2.6650093974
C 2.0035436377 -1.0564507511 3.4677799808
N 0.7920370140 -1.4448719715 3.4442686232
C 0.7209307585 -2.4530336127 2.4168555095
H 0.7600102262 1.5305423652 -0.7265714442
H -0.7653823108 1.9640894103 0.0730196822
H 0.7469489675 1.9250290457 1.0019809939
H -0.6363016813 -0.1216748071 1.4665020848
H -0.6323587480 -0.5146597716 -0.2671474820
H 0.7484882753 -2.6549316862 0.2149261701
H 2.7107522219 -3.4936050996 1.6493171515
H 2.4124112880 -0.2733533712 4.0932774012
H 0.0138820606 -3.2610171353 2.5615192063