23

C 0.0362635172 1.5159506624 0.0180696748
C -0.0454047028 -0.0174653682 0.0128513442
C -1.5204891303 -0.4563561386 -0.0437849272
C 0.7002791153 -0.5596818963 -1.2231325709
O 0.7872653130 -1.9755320379 -1.2300064515
C 1.5328765847 -2.4594163642 -0.1290243212
C 0.8729381055 -2.0897773159 1.2064752820
O 1.7035411564 -2.4493116162 2.3039330921
C 0.6602237645 -0.5783694745 1.2704028678
H 1.0753028768 1.8616405496 0.0516968140
H -0.4322426687 1.9406748850 -0.8769651444
H -0.4806285930 1.9299856292 0.8905539393
H -2.0352601260 0.0331881350 -0.8780758455
H -1.6123955816 -1.5353894308 -0.1891973317
H -2.0473828146 -0.1858801994 0.8775970120
H 0.1748187287 -0.2842400452 -2.1433896492
H 1.7132624209 -0.1230177908 -1.2652161043
H 1.5985670901 -3.5465391570 -0.2500954279
H 2.5582048433 -2.0511759104 -0.1351690667
H -0.0967135138 -2.6054740290 1.2736773631
H 1.7544903426 -3.4099255994 2.3396380801
H 1.6514256140 -0.1158269323 1.3686080668
H 0.1004722878 -0.3198637250 2.1763990143