20

O 0.1145070431 1.4283362497 0.0822463620
C 0.0767050238 0.0101922257 0.0438205371
C -1.3553533476 -0.5328223133 0.0212637771
C -1.4348138291 -2.0527284531 0.0645147840
C -2.8558671015 -2.6071269998 0.1194167514
C -2.8046806742 -4.1352001322 0.0210809867
N -1.9243046231 -4.6138482720 -1.0418773665
C -1.0565319708 -3.8163342195 -1.4963242123
O -0.7625066152 -2.5473924208 -1.1164765011
H -0.2096015257 1.7544851638 -0.7631691003
H 0.6428085927 -0.3881383439 -0.8087835730
H 0.5850142404 -0.3238107271 0.9556922228
H -1.8991856417 -0.1265655170 0.8818406359
H -1.8702161951 -0.1809334539 -0.8828104175
H -0.8695826831 -2.4262896386 0.9319557273
H -3.3465543673 -2.2837060353 1.0432172689
H -3.4301549490 -2.1966480978 -0.7199042090
H -2.4696859228 -4.5711187522 0.9720515034
H -3.8051838634 -4.5421771504 -0.1614642534
H -0.4069627904 -4.1102107320 -2.3194071636