17

C -0.0300360583 1.5079650181 -0.0267629630
C 0.0030547726 0.0566875114 -0.0158264764
C 0.0310668479 -1.1532717786 -0.0060193536
C 0.0615360879 -2.5129048228 0.0054936131
C 0.0923299395 -3.7231843774 0.0152319002
C 0.1024126826 -5.1766735940 0.0311850763
C -1.3136023225 -5.7826808113 0.1885211462
C -1.2897619165 -7.2916252500 0.0813389386
O -1.7946988906 -8.0466214169 0.8697211594
H 0.9822349381 1.9272742799 -0.0049009751
H -0.5278324632 1.8865900298 -0.9266625395
H -0.5709808272 1.8986774945 0.8425433238
H 0.5571091803 -5.5525035028 -0.8959572099
H 0.7422986924 -5.5326222527 0.8493235207
H -1.7670833469 -5.4960394395 1.1398552531
H -1.9492675944 -5.4006157901 -0.6215355093
H -0.7540448717 -7.6773847676 -0.8191956847