11

O -0.0411757117 1.3261023072 0.0103723631
C 0.0596256959 -0.0091030204 0.0026146234
N 1.1982773494 -0.6034171430 -0.0079768146
C 1.2322851967 -1.9829897539 -0.0155143266
C 0.0818291082 -2.6735024440 -0.0116550175
F -0.0199582224 -3.9807083222 -0.0179170121
O -1.1209803914 -2.0905469223 -0.0007054174
C -1.2521400226 -0.6981752849 0.0075228570
O -2.3393367479 -0.2093583623 0.0172405255
H 0.8627360557 1.6734224099 0.0063192480
H 2.1923109500 -2.4779711840 -0.0244115689