23

C -0.2834657352 1.5331317719 0.0637421052
C 0.0456104841 0.0418825493 0.0884278901
C 0.7867572964 -0.4952543478 -1.1543398991
C 1.3763100872 -1.8666292122 -0.7330541677
C 2.7527700295 -2.1513585704 -1.3352011081
C 1.3618560697 -1.8553821426 0.8446285467
O 2.5672298959 -2.2443373507 1.4614316389
C 0.9511185068 -0.4156406293 1.2400822130
O 2.1249052564 0.3942083297 1.3974317679
H 0.6260429193 2.1405747501 0.0198297548
H -0.8961419599 1.7837378617 -0.8081910629
H -0.8351917418 1.8338230567 0.9602289162
H -0.8911024900 -0.5234844868 0.1933983429
H 0.1352866130 -0.5598225721 -2.0306588011
H 1.5963624612 0.1959862083 -1.4357402294
H 0.6930669397 -2.6559075109 -1.0659793025
H 3.4816274860 -1.3852655361 -1.0469966807
H 3.1442304937 -3.1119256744 -0.9927478556
H 2.6999324589 -2.1651718777 -2.4290940674
H 0.5886795582 -2.5501134591 1.1935102483
H 3.0304935310 -1.4169641646 1.6575442407
H 0.4584899188 -0.3805439704 2.2156166110
H 2.4473163209 0.6395222775 0.5228146289