15

C -0.0948570376 1.4868053235 0.0527741205
C 0.0474510286 0.0044577188 0.0884033994
O -1.1571041303 -0.7936382425 -0.0337558265
C -0.6742691036 -1.6822470207 0.9363063137
N -1.2253904288 -2.6442943486 1.5098607538
C 0.6464941187 -0.9939183816 1.0532478949
C 1.2242584887 -0.8170348671 -0.3682457662
C 1.1349125490 -1.8279478780 -1.3885263979
N 1.0758210324 -2.6299383489 -2.2188236506
H 0.8691532542 1.9676819159 0.2384843255
H -0.4565198649 1.8101106935 -0.9285023433
H -0.8079763010 1.8204706776 0.8116112742
H -2.1770092170 -2.7922864441 1.1704308893
H 1.2613409798 -0.8894214411 1.9350249333
H 2.1676486218 -0.2770917765 -0.3614771501