18

C -0.2137480357 1.5240628523 -0.0162183483
C 0.0360292532 0.0378264461 -0.0303137582
O -1.0190298410 -0.7370433795 -0.5291132138
C 1.3725572233 -0.5365490186 -0.3377751939
O 2.4779842253 0.2441556544 -0.6044258443
C 0.8372063286 -0.6677540246 1.1059562885
C 1.5314545156 0.0947871842 2.1676884875
N 1.3838026733 -0.3731386962 3.4368877417
O 2.2145786751 1.0965863989 1.9406553876
H 0.6435509044 2.0729881952 0.3717022626
H -0.4245406498 1.8638386107 -1.0347265582
H -1.0808986538 1.7642127300 0.6115809237
H -1.8003034115 -0.5559652011 0.0066389784
H 1.3642978918 -1.4574959849 -0.9142257836
H 2.6414100097 0.7860357645 0.1922304531
H 0.4377792974 -1.6388295231 1.3788509315
H 0.8964995186 -1.2276941572 3.6393299380
H 1.9121065954 0.0723376390 4.1693916677