18

C -0.1485372709 1.5437103845 0.0416176102
N 0.0952720641 0.1037360489 0.0578302282
C 1.3400513171 -0.5247561892 -0.3240828671
C 2.6454237994 0.2529340885 -0.3291847886
N 2.6429870355 0.9821039392 0.9441270126
C 1.8786467426 0.2216012074 1.9376356869
C 0.8606878686 -0.5592154941 1.1069415200
C 0.2490370538 -1.7113014177 1.7254717833
N -0.2240238559 -2.6317283844 2.2411215010
H 0.7106258702 2.1528559776 0.3410071225
H -0.4509198407 1.8181233477 -0.9735366951
H -0.9926690931 1.7519469636 0.7054155618
H 1.2534682557 -1.3839349093 -0.9832664492
H 3.4686799978 -0.4734938923 -0.4353999956
H 2.7172359623 0.9554743101 -1.1690019499
H 3.5729910132 1.2158064105 1.2655721282
H 2.4738719397 -0.5061171706 2.5123249264
H 1.4021522508 0.8994838396 2.6560581145