22

C -0.0315491941 1.6472452156 0.0528572271
C -0.0386273642 0.1166333632 -0.0487310150
C -1.4847300466 -0.4379073764 0.0134186926
C -2.0996418717 -0.2424638402 1.3227599960
N -2.5667600626 -0.0803517949 2.3677935162
C 0.7156468507 -0.4651890653 -1.2834180230
C 0.0657009890 -0.0978388858 -2.6210265793
C 2.1897933320 -0.0361096848 -1.2728352783
O 0.6460310542 -1.8984289288 -1.2267012962
H 0.9839366111 2.0448161393 0.1182076059
H -0.5223171648 2.1094069573 -0.8101807402
H -0.5690529181 1.9687224684 0.9499045028
H 0.4884618533 -0.2797147696 0.8307621487
H -2.1168632116 0.0491929314 -0.7375304639
H -1.4682914245 -1.5067526716 -0.2182456264
H 0.0366847737 0.9846150362 -2.7681167537
H 0.6418283694 -0.5396641533 -3.4381300786
H -0.9528004384 -0.4883378046 -2.6883459002
H 2.6584825737 -0.2612036908 -0.3069486368
H 2.7303045447 -0.5819671788 -2.0509274170
H 2.3097500055 1.0339725406 -1.4599699154
H 1.1804647492 -2.1927087971 -0.4805286051