20

C 0.0335164964 1.5243319326 0.0003195078
C -0.0658846200 -0.0052773326 -0.0197710024
C -1.4879174014 -0.5057929856 0.0022775291
C -2.5714103181 -0.3130917778 1.1131853519
C -3.2555112984 -1.1820667637 0.0230436244
C -2.6290418802 -0.2315743595 -1.0334957094
C -1.9350650388 -2.0181604960 -0.0167379921
C -1.6338686806 -2.8205685356 -1.1908637836
N -1.3797194813 -3.4649733683 -2.1173735114
H 1.0784443992 1.8465337087 -0.0189750461
H -0.4682333190 1.9648337315 -0.8672541661
H -0.4283162677 1.9413128910 0.9013045861
H 0.4310189353 -0.3992323152 -0.9152762291
H 0.4712583755 -0.4242904295 0.8410586554
H -2.3778708974 -0.7872433009 2.0797608970
H -2.9633421742 0.6990618906 1.2339789133
H -4.2644629986 -1.5923176689 0.0344540038
H -3.0248824569 0.7862950890 -1.0559181064
H -2.4888790900 -0.6299494253 -2.0405718979
H -1.7074880738 -2.5831285345 0.8917918557