16

O 0.0795720463 -0.0206600245 0.1024871753
C 0.0081944600 1.1748370853 -0.0044432901
C -1.2745410290 2.0115600550 -0.1557988658
C -0.8235238431 3.2511054866 -0.9286654535
C -1.4021918078 3.6148177401 -2.2469607147
N -1.6260248858 4.4669337007 -1.0635971337
C 0.6479714811 3.4000547797 -0.6523136992
O 0.9601500579 3.2864960595 0.7337781667
C 1.1720481897 2.1324612733 -0.1026662239
H -2.0546924249 1.4297845173 -0.6495995121
H -1.6278729957 2.2836997152 0.8458040696
H -0.7804607540 4.0618212856 -3.0185790856
H -2.2192256473 3.0040374881 -2.6220183170
H -2.5595899472 4.3145855299 -0.6890519615
H 1.2596869070 4.0892026584 -1.2273558275
H 2.1919115627 1.7775201699 -0.2071634070