14

C 0.0632027176 1.5067299702 0.0879567906
C -0.0450671248 0.0246504165 0.0826243249
C -1.1010299395 -0.8432152644 -0.0469279396
C -2.5166566156 -0.6554052985 -0.2283167522
O -3.2886949396 -1.6017077061 -0.3212953928
C -0.4784595266 -2.1403823388 0.0398288307
O -1.1185585521 -3.2999914512 -0.0350421365
N 0.8169926649 -2.0651326364 0.2044127941
O 1.0791247068 -0.6666396723 0.2297940262
H 0.7193183093 1.8444450324 -0.7204349247
H -0.9174604017 1.9678225119 -0.0397200179
H 0.4958884569 1.8544614298 1.0313090744
H -2.8959104627 0.3831725833 -0.2825146957
H -2.0641005128 -3.0761961563 -0.1568456216