21

C 0.1397918562 1.3715717931 0.0515684629
O -0.2958251404 0.0566825897 -0.2107723257
C 0.4690768149 -0.5912473813 -1.1981683363
C 1.8875335974 -1.1561155429 -0.8218227713
C 1.3952434656 -2.5393357458 -1.2680109353
O 2.1402439535 -3.3799662077 -2.0800628246
C 0.2154144981 -3.0112277466 -0.4711548719
C -0.0290009002 -2.8088964101 1.0104457725
C -0.0018911121 -1.9882295099 -1.5751284396
H 1.1691048091 1.3973062613 0.4403377805
H 0.0995943382 1.9990431465 -0.8529815041
H -0.5304697811 1.7940148548 0.8040534706
H 0.5429379844 0.0517628565 -2.0879263373
H 2.6768554359 -0.7718919683 -1.4711639426
H 2.1946791534 -1.0519489656 0.2235292098
H 2.6145986461 -4.0012776221 -1.5171577198
H -0.0958886242 -3.9915658983 -0.8314755592
H 0.2471654155 -1.8069039852 1.3389039871
H -1.0910925735 -2.9417864974 1.2426530989
H 0.5341391618 -3.5406156602 1.6019432823
H -0.6555337885 -2.2065581505 -2.4109617369