25

C -0.1080708194 1.3162257240 0.1235989729
O 0.2224326410 -0.0531997776 0.0099504101
C 0.7514740922 -0.5323253512 -1.2521085482
C -0.0110607747 0.0268054612 -2.4566282363
C 2.2271826116 -0.0901445888 -1.3091357472
O 2.9579574728 -0.5436769137 -0.1883436145
C 0.6228552678 -2.0768168360 -1.1139225359
C -0.8412198042 -2.5330525712 -1.0262320969
C 1.3760663689 -2.8648108816 -2.1949690110
H 0.7346756497 1.9829735077 -0.1066711163
H -0.9553859678 1.5965428984 -0.5150798052
H -0.3952009487 1.4757927774 1.1663933630
H 0.1751148657 1.0962198274 -2.5930440084
H 0.3088913747 -0.4776700190 -3.3724121300
H -1.0882685779 -0.1209698409 -2.3486691482
H 2.7152352395 -0.4899128619 -2.2022342577
H 2.2675353174 1.0085885333 -1.3910998279
H 2.3841977884 -0.3830678762 0.5719865725
H 1.0997156711 -2.3082416834 -0.1555666693
H -0.8902968081 -3.5823337826 -0.7178961441
H -1.3946581479 -1.9377654890 -0.2968619879
H -1.3508584678 -2.4575991901 -1.9934109349
H 2.4529360579 -2.6828946845 -2.1601969774
H 1.2220947628 -3.9377410786 -2.0414599883
H 1.0174735750 -2.6316437931 -3.2041174227