21

C 0.1550899127 1.6648627584 -0.2941212213
C -0.0687836684 0.1557141075 -0.1254464581
N 0.5549956750 -0.6750459767 -1.1551598713
C 2.0099114887 -0.7045055199 -1.1594015480
C -0.0736715596 -0.8241995235 -2.3832778421
C -1.5768597742 -0.9972461509 -2.2970762096
O -2.3592218915 -0.5905695802 -3.1187654404
N 0.6152054305 -0.9506014056 -3.4519090969
C 0.0364494866 -1.2386759870 -4.7474811600
H 1.2188568080 1.9175452530 -0.2618142753
H -0.2490683770 2.0153553577 -1.2488880274
H -0.3449706073 2.2126828502 0.5109186378
H 0.3185392234 -0.1732390632 0.8458418223
H -1.1443586398 -0.0471069736 -0.1110911226
H 2.3520205090 -1.5977084839 -1.6842206422
H 2.4542738281 0.1608418408 -1.6689521258
H 2.3610959800 -0.7288824397 -0.1238105797
H -1.9186026400 -1.6035795277 -1.4283663995
H 0.6600693038 -1.9868927479 -5.2498454686
H -1.0026794585 -1.5844169262 -4.7410671872
H 0.0750813407 -0.3322951417 -5.3651122542