17

C -0.3656898267 1.4671819273 -0.0293660888
C 0.1260646312 0.0398189526 -0.0445355383
O 1.3981422476 -0.1065588968 -0.7638810971
C 2.0139002951 -0.6941433279 0.3116567439
N 3.1725287929 -1.1298248511 0.4808678902
C 0.7960360605 -0.5829052510 1.2349502060
C 1.0154860079 0.3071753599 2.4650136818
C 0.2155612082 -1.8656121483 1.6175116688
N -0.2736045472 -2.8674771713 1.9217515438
H 0.3830849885 2.1519755382 0.3745870054
H -0.6015950003 1.7823628796 -1.0499122726
H -1.2783559325 1.5463101957 0.5695001323
H -0.6141751466 -0.6307038700 -0.4884043037
H 3.7480079469 -1.0281343970 -0.3562980978
H 1.4701373387 1.2575039000 2.1791218274
H 0.0711299626 0.5016900879 2.9797666006
H 1.6930718432 -0.1973783780 3.1571548678