14

C 0.0175783118 -1.1751247096 -0.0195841947
C -0.0008029862 0.0266302568 0.0220344837
C 0.0027136712 1.4581169750 0.0584179158
C 0.3753821093 2.2489352245 -1.1911653333
C 1.2889699321 2.3435583621 -0.0113709456
N 0.9945624516 3.4123580800 0.9049074387
C -0.2625939629 3.1559153922 1.4301958030
N -0.8787688121 2.1176560719 0.9973143316
H 0.0228260977 -2.2363281028 -0.0498982583
H 0.7266185583 1.6607720133 -2.0305310772
H -0.2443890997 3.1041252721 -1.4405020337
H 2.3010058714 1.9607341039 -0.0377712519
H 1.7222129807 3.7751899697 1.5022252240
H -0.6910266832 3.8485161308 2.1471554380