16

C 0.0237349387 1.5758290179 0.1208370127
C -0.0220593055 0.0553491951 -0.0466265119
N -1.3709646332 -0.4845843110 -0.0023369822
C -2.1410306220 -0.7609896122 1.1234229884
N -3.3139955531 -1.2233821598 0.9183742319
C -3.4487932823 -1.3031090815 -0.5393171221
C -2.1279506458 -0.8008694104 -1.1304585046
O -1.7683805008 -0.6872942483 -2.2781826959
H 1.0583360840 1.9285180439 0.0714558693
H -0.5447067338 2.0669768553 -0.6735910653
H -0.3941705670 1.8843877719 1.0843541086
H 0.3842102301 -0.2315286938 -1.0204728540
H 0.5776119635 -0.4384441049 0.7258677215
H -1.7204585534 -0.5830605540 2.1088116977
H -3.6489085171 -2.3315289141 -0.8589125970
H -4.2867437324 -0.6909699439 -0.8902457770