16

O -0.0589352604 0.0352250262 -0.0298032723
C -0.0099445338 1.2236661179 0.0080193238
O -1.1195540101 2.0095947278 0.1757577341
C -0.7703996645 3.3842459604 0.1107760408
C -1.6475166853 4.2838009104 -0.7012802742
C -1.6589129464 4.3556941206 0.8179261438
C 0.7295218521 3.4202397183 0.0669992805
C 1.4654046919 2.7408276048 1.1565684681
N 1.1725357974 2.0267171803 -0.1187188429
H -1.1796088651 5.0887653158 -1.2586734810
H -2.5027328470 3.8261691875 -1.1847420030
H -2.5231415497 3.9463991415 1.3282696312
H -1.1996377201 5.2084888215 1.3060475222
H 1.2137152091 4.1716374738 -0.5479549889
H 2.5191301605 2.9458690470 1.3108290632
H 0.9142545815 2.4365569962 2.0420940047