21

C 0.6057494814 1.3725518281 -0.5019394615
C 0.0783237469 0.0687971448 0.0960568116
O 0.0144973076 -0.9520914326 -0.9204715831
C 0.9339548813 -1.9702672467 -0.6473138445
C 2.3980730178 -1.6212838251 -0.5592411672
C 1.5539925183 -1.7761350036 0.6997609009
C 0.8863835698 -0.5432235868 1.2908758530
C 1.8371531200 0.4043021781 2.0126505315
O 1.0585170603 1.4227234927 2.6318102433
H 1.6332245278 1.2818650776 -0.8656710471
H -0.0219747473 1.6556083110 -1.3512836142
H 0.5682353096 2.1671224321 0.2475529692
H -0.9546543785 0.2477521547 0.4149771821
H 0.6143432727 -2.9316593604 -1.0335842826
H 3.1130645733 -2.4121917552 -0.7623342912
H 2.7196842400 -0.6372377259 -0.8792169254
H 1.7599773643 -2.6106624347 1.3605222270
H 0.1660525306 -0.8877453011 2.0422603499
H 2.4039951553 -0.1668332524 2.7642438142
H 2.5669455257 0.8305667186 1.3097951372
H 1.6564202833 2.0346023570 3.0710133469