25

C 0.0851972175 0.8809210871 1.6741484527
C -0.5265926413 -0.5264926587 1.7492144486
C -1.2932826663 -0.7239448022 3.0654786293
C -1.4258933095 -0.7801441137 0.5504805988
C -0.8712083054 -1.1747952532 -0.7978154920
C -1.7179823880 -2.1559320480 -0.0172467407
C -1.0679299685 -3.4051590096 0.5487815601
C -3.1287776565 -2.3818808944 -0.5139981981
O -3.0932608283 -3.3305230296 -1.5751750987
H 0.7605638120 1.0640382642 2.5166675140
H 0.6510121900 1.0182353573 0.7475353489
H -0.6973214135 1.6487770299 1.7034844630
H 0.2994385452 -1.2481948923 1.7248521304
H -2.1335709115 -0.0224536064 3.1343014857
H -1.6989998558 -1.7371505720 3.1433266158
H -0.6460850210 -0.5501765804 3.9317944465
H -2.2696927155 -0.0904000389 0.5147603238
H -1.2873388675 -0.7243245463 -1.6928017010
H 0.1933626801 -1.3803238525 -0.8613568866
H -1.1018433911 -4.2052115403 -0.1958885140
H -0.0226249109 -3.2407546548 0.8205583712
H -1.5955645772 -3.7602434670 1.4427013163
H -3.7572420797 -2.7482973649 0.3149867873
H -3.5592971915 -1.4272436610 -0.8559999785
H -3.9985702055 -3.5721664422 -1.7908500927