21

C 0.3690212723 1.2330887306 0.6179267270
C -0.0343018944 0.1515977323 -0.3948322065
C -1.4277870280 -0.3686744686 -0.1743989854
C -1.8251605948 -1.3941192909 0.8918585834
O -2.7970722814 -2.0109414437 0.0058393682
C -2.3852215322 -1.1431816314 -1.0569609483
C -2.6833688755 0.2936519643 -0.7306656645
C -3.8973077589 0.7239562212 0.0610089202
O -5.0594243694 0.7996505873 -0.7541502083
H 1.3883201425 1.5854044290 0.4332194264
H -0.3032079784 2.0951803466 0.5593264422
H 0.3298609321 0.8508409505 1.6436538323
H 0.0412246486 0.5562024543 -1.4114716582
H 0.6771855086 -0.6834637787 -0.3437064951
H -1.0137065542 -2.0984299401 1.1135519966
H -2.2716567786 -1.0441437727 1.8293765968
H -2.2915014082 -1.5693171258 -2.0501966936
H -2.4472255534 0.9604068219 -1.5590951267
H -4.0590542092 0.0516930283 0.9133079363
H -3.7489969438 1.7332114880 0.4593130721
H -5.2345751037 -0.0910945323 -1.0757532850