19

O 0.2463876604 0.7413453684 0.5845326897
C -0.0458566773 -0.0995548015 -0.5193884912
C -1.4639197964 -0.6803094215 -0.4622047700
O -1.7243054443 -1.4529997483 -1.6373959612
C -1.7307279085 -1.4533947496 0.8409179368
C -2.9441080475 -2.4121054929 0.7268410506
O -4.0383566898 -1.8199710546 0.0452575050
C -2.5455058529 -3.6920895043 0.1158339839
C -2.1979326271 -4.7249350061 -0.3952684423
H -0.2748858848 1.5451792396 0.4912437148
H 0.0879770264 0.4149263095 -1.4816460722
H 0.6843510671 -0.9171319110 -0.4793982404
H -2.1805975116 0.1482866712 -0.5244189790
H -1.3342647640 -2.3291719274 -1.5254678479
H -0.8469154684 -2.0333938301 1.1317627573
H -1.9104385378 -0.7301412879 1.6403009402
H -3.3117629422 -2.6259214947 1.7369256836
H -3.7429663591 -1.7067911034 -0.8695857571
H -1.9189673920 -5.6527796955 -0.8312038803