18

O 0.1314333020 1.3785980701 -0.2348789857
C 0.0928920764 0.0110858839 0.0848924022
C -0.1830798123 -0.3830050930 1.5549807790
O -1.3847179061 -1.0889893849 1.1766532131
C -1.2764512690 -0.6506345194 -0.2008198575
C -2.4157229536 0.2728611583 -0.6059192891
C -3.7684022282 -0.4463805574 -0.4372421199
C -4.9046895586 0.4089176855 -0.7681598998
N -5.7944480943 1.0964178019 -1.0351116307
H 1.0260546535 1.7048111008 -0.0999507799
H 0.9340335465 -0.5309403249 -0.3629168663
H 0.5442201593 -1.0442876549 2.0396075934
H -0.3911101211 0.4777917900 2.2026738036
H -1.2324432924 -1.5182215609 -0.8734996174
H -2.3976393941 1.1772089550 0.0068239880
H -2.2781115427 0.5868991471 -1.6456161539
H -3.8107018340 -1.3405105417 -1.0709112431
H -3.8671113513 -0.7870655253 0.5987955041