23

C -0.1367415883 1.5572077139 0.2156897843
C -0.0813713101 0.0407246930 0.0146808560
C -1.4562477125 -0.6298638336 0.0832482509
O -2.3357004337 -0.0939264011 -0.9277242358
C -1.3845066128 -2.1553563686 -0.0219982347
C -0.9301734977 -2.8550450122 1.2957589116
C -2.4194704250 -3.1196343068 1.6431173895
C -2.7603925241 -2.8814080508 0.1475620927
O -3.9538355462 -2.2213210618 -0.1744605692
H 0.8543848880 2.0068940871 0.1058340499
H -0.8079065188 2.0200187294 -0.5125006652
H -0.5084334520 1.8075972075 1.2153551832
H 0.3696843350 -0.1947168973 -0.9605634837
H 0.5714532424 -0.4170015073 0.7672192284
H -1.9456933881 -0.3478459161 1.0236406189
H -1.9743966189 -0.3398755310 -1.7878682543
H -0.8228552751 -2.4184748997 -0.9275691407
H -0.3747119230 -3.7746463574 1.0974138871
H -0.3520348690 -2.2519293282 2.0003210182
H -2.6833907446 -4.0867090335 2.0762650053
H -2.8446519097 -2.3269181985 2.2646371903
H -2.7268570130 -3.8403029413 -0.3892034233
H -3.7155340726 -1.3463554159 -0.5146598595