19

C 0.0144628753 1.4679642966 0.0116057656
C 0.0160316305 -0.0338921342 0.0260585808
C 0.5679523941 -1.0198945477 -1.0698609007
C 0.0069267798 -1.9651091670 0.0437636537
C 0.6518976368 -0.9997881368 1.0934615884
O 2.0297441647 -0.9978714287 1.3329321589
C -1.1795838824 -0.9983852726 0.0907869511
C -2.5035798530 -0.9830604412 0.6921881841
O -2.3070762496 -0.9943685880 -0.7469878832
H 1.0368791501 1.8594172754 -0.0130217473
H -0.5194219116 1.8535718320 -0.8631652831
H -0.4720648268 1.8674117196 0.9083115207
H 0.0367860607 -1.0260746149 -2.0231358367
H 1.6485318122 -1.0254665766 -1.2428189882
H -0.0109339421 -3.0540109089 0.0522333845
H 0.1782766439 -0.9855213101 2.0786098982
H 2.5011680112 -1.0578782126 0.4959827243
H -2.9326240667 -1.8960401885 1.1022570927
H -2.9191309671 -0.0577855261 1.0886696161