19

C 0.2607588643 0.9661517598 -0.8879496184
C -0.1148949810 -0.2218809428 -0.0074037887
C 0.4605253859 -0.1337500417 1.3986820506
O -1.5519031125 -0.2820901024 0.1413728691
C -2.2336375131 -0.9358186700 -0.8039678317
N -3.4972866294 -0.9275464013 -0.7906957297
C -4.2305992374 -1.6689436491 -1.7958637870
C -3.4349270534 -2.3837959955 -2.8127928734
N -2.7683426870 -2.9253630484 -3.5866568371
H 1.3474896140 1.0276606446 -1.0003856609
H -0.1787887936 0.8723648958 -1.8854808560
H -0.0967235807 1.8984049821 -0.4403608849
H 0.2195814715 -1.1545409252 -0.4824651068
H 0.1094699106 0.7741417448 1.8981540625
H 0.1545494311 -0.9960530766 1.9962516864
H 1.5530992184 -0.1063558145 1.3578824227
H -1.6149054437 -1.4644162662 -1.5418017020
H -4.8772572134 -2.4022213368 -1.2974710982
H -4.9077636906 -0.9826088768 -2.3197005865