26

C 4.4866797471 -3.8409316348 -0.1194699015
C 3.0254270619 -3.8686179262 -0.5852966557
C 2.8528295680 -4.8038854430 -1.7898103120
C 2.0895145140 -4.2440563328 0.5808895192
C 0.6186341977 -4.0935509870 0.2326944134
C -0.3170428232 -5.2386736092 -0.0211198586
C 0.0944084356 -6.6945328333 0.0313806722
N -0.4674289969 -4.3990592102 1.1704449844
C -0.1655132131 -4.9304625810 2.4911767792
H 5.1551695691 -3.5353204257 -0.9311702102
H 4.6286479756 -3.1436984800 0.7130183979
H 4.8097039545 -4.8330121511 0.2185862839
H 2.7562979873 -2.8519485948 -0.9072173919
H 1.8237070581 -4.8014340850 -2.1603827149
H 3.5075318233 -4.5053425566 -2.6152506746
H 3.1093039541 -5.8359984649 -1.5210418684
H 2.3273276594 -5.2608198447 0.9121219718
H 2.3150771970 -3.5867964740 1.4322525224
H 0.4256635522 -3.1755683300 -0.3266888637
H -1.1123557746 -5.0626828221 -0.7470115762
H 0.9415234606 -6.8869857762 0.6919739728
H -0.7408340516 -7.3163323039 0.3732325375
H 0.3714193541 -7.0403618239 -0.9702126690
H 0.6980381926 -5.6073295364 2.5541297710
H 0.0188236175 -4.0925490445 3.1717451365
H -1.0431837105 -5.4701035189 2.8620527742