22

C 0.4705978340 0.5069635622 -0.7598871662
C -0.4394895390 0.0422406994 0.3847139795
C 0.3623151241 -0.5144619502 1.5487556381
N -0.3987063647 -1.0520886015 2.7874246746
C -0.5879384280 -2.3473729019 1.9724467733
C 0.8803952284 -1.9825435338 1.6538028904
C 1.8783694100 -2.7176357781 0.7981629040
O 1.3587343261 -2.7928255530 -0.5246929026
C 0.9582835772 -1.6737858791 3.1644589711
H 1.0317245140 -0.3400697846 -1.1643026300
H -0.1157718654 0.9490290258 -1.5710993743
H 1.1863894596 1.2634847072 -0.4180856702
H -1.0279284240 0.8871509680 0.7652031003
H -1.1571972468 -0.6861820164 -0.0021476562
H 1.0994118599 0.2383743389 1.8589967090
H -0.7642544819 -3.2255987562 2.6006297874
H -1.3363029086 -2.2821226547 1.1841020442
H 2.8438368965 -2.1865930398 0.8214433309
H 2.0459282531 -3.7238436815 1.2159439699
H 1.9978315262 -3.2557457410 -1.0743336465
H 1.6958232332 -0.9415914951 3.5068701229
H 0.8707102059 -2.5100716647 3.8639295904