21

C -0.1288360345 1.5295057586 0.0000993427
C 0.0534910837 0.0128048485 0.0067766957
O -1.2261822467 -0.6184751720 -0.0258275557
C 1.0167290028 -0.5368066770 -1.1057626013
C 2.0224596687 -1.2925938325 -0.2094581686
O 3.0310074074 -2.0344432103 -0.8215428604
C 1.0958531865 -2.0062643695 0.8038538176
C 0.7987632154 -0.5421601504 1.2422252216
C 2.2903036714 -0.2439950949 0.9176689083
H 0.8212921857 2.0626013079 0.0899186681
H -0.5985094061 1.8559086708 -0.9364872088
H -0.7778038002 1.8316898736 0.8278538124
H -1.7038605277 -0.2806041250 -0.7906176802
H 0.4888151432 -1.2076536832 -1.7888622132
H 1.4969076335 0.2581051493 -1.6887909435
H 3.4618117406 -1.4782160587 -1.4794340242
H 0.2673567557 -2.6027093748 0.4214633553
H 1.6674037720 -2.5580865244 1.5528178248
H 0.3596834377 -0.3097909797 2.2113744371
H 2.9650136617 -0.6341994832 1.6821750625
H 2.5834252992 0.7716551268 0.6362003797