21

C -0.0615962473 1.6276020801 0.2921238809
O 0.1482813094 0.2733315417 -0.0277834615
C 0.5993334784 -0.5292690734 1.0500760604
C -0.5379764962 -0.8860810496 2.0149400481
C 1.2525656798 -1.7973900421 0.5103469523
O 0.3410410233 -2.7219448254 -0.1499127500
C 1.2727616738 -2.8815054898 -1.2266425874
C 1.4388355193 -1.6101523423 -1.9870012648
C 2.2009354909 -1.8152873051 -0.6891293645
H 0.8405550693 2.0861000788 0.7277258428
H -0.3018842490 2.1444020668 -0.6404724324
H -0.8951196473 1.7757724905 0.9940332407
H 1.3889282195 0.0168726514 1.5979407357
H -0.1620047379 -1.4876600287 2.8486748620
H -1.0010035448 0.0105248235 2.4351113053
H -1.2989524877 -1.4629624046 1.4839279696
H 1.7133788082 -2.3126851016 1.3658462156
H 1.4451332626 -3.8846573180 -1.5982657506
H 2.0647782102 -1.6850519594 -2.8716862685
H 0.6224785142 -0.9016644274 -2.0397627809
H 3.2802983013 -1.7938041455 -0.6267680430