12

O -0.0490650488 -0.0414006810 -0.0008580792
C -0.0222760012 1.1490760034 0.0087754056
N 1.1687460695 1.9200693849 0.0026898204
C 1.2750312275 3.2755442604 0.0128745856
C 2.6239328125 3.5209337313 0.0005861565
C 3.3045065468 4.8251916187 0.0041122422
O 4.4988231364 4.9796268298 -0.0074386191
N 3.2790866753 2.3017096667 -0.0164451930
N 2.4271684185 1.3479938261 -0.0150479288
H -0.9093681675 1.8067528393 0.0233858036
H 0.4163512484 3.9268101671 0.0273291192
H 2.6023029924 5.6883245031 0.0184668872