21

C 0.0216259002 1.5101658898 -0.2224255532
C -0.0055916413 0.0032972011 -0.0358098782
O -1.3545028654 -0.4238537798 -0.0463483863
C -1.4787346319 -1.8209716490 0.1245225006
C -2.8817476494 -2.2121384923 0.1019598752
C -4.0377682506 -2.5491312853 0.0769911722
C -5.4370110802 -2.9868512208 0.0850060750
C -5.5621430428 -4.4684663719 -0.3010806297
O -6.0745199612 -2.7156339768 1.3315658799
H 1.0528869342 1.8755498619 -0.2196483637
H -0.4435783957 1.7866548821 -1.1726248940
H -0.5260189894 2.0056856162 0.5839631726
H 0.5585265576 -0.4986611313 -0.8407878209
H 0.4754440975 -0.2792606038 0.9165542210
H -0.9321482519 -2.3572203479 -0.6715219367
H -1.0211478800 -2.1349462445 1.0795862113
H -5.9969223426 -2.3868511010 -0.6426812993
H -5.0066515990 -5.0958078229 0.4035443109
H -6.6150730885 -4.7608601968 -0.2777681506
H -5.1620230134 -4.6457586271 -1.3035932305
H -5.5120852464 -3.0756852700 2.0261964342