22

C -0.0541919383 1.5589934563 0.0990311363
C -0.0103359755 0.0399433733 -0.0190002906
C 0.6040884309 -0.6190116100 1.2193367929
O -1.3537634917 -0.3836221673 -0.2446863164
C -1.5165805605 -1.7035366473 -0.6908378076
C -1.8095746018 -2.8538802341 0.3227479205
N -3.0983692296 -3.2031494547 -0.3723581501
C -3.9316818962 -1.9960890383 -0.2494914861
C -2.8817961257 -2.0003609333 -1.2867097128
H 0.9535294548 1.9661552462 0.2236801805
H -0.5020729957 1.9984423563 -0.7958933257
H -0.6562048403 1.8554087210 0.9639311500
H 0.5938648908 -0.2348556725 -0.9007541820
H 0.6563742365 -1.7065704849 1.1137926890
H 1.6226088445 -0.2513654853 1.3809366350
H 0.0083427848 -0.3871642440 2.1082060564
H -0.7028731034 -1.9786198267 -1.3759255191
H -1.1072474325 -3.6886235654 0.2695324742
H -1.9416867690 -2.5489820864 1.3653886932
H -4.9531499069 -2.1499808664 -0.5832229411
H -3.8244166483 -1.3609350377 0.6264834073
H -3.1099997070 -2.0369945887 -2.3468582539