23

C -0.1305835220 1.4549215755 0.1819130037
C 0.0059168669 -0.0289550946 0.0373240061
C -0.0160389895 -0.7260803078 -1.1004456814
C 0.0727493964 -2.2156967124 -0.8807382331
C 0.4988523736 -2.3157697045 0.6037087144
C 0.1239014919 -0.9520940338 1.2460070231
C 1.1084812380 -0.4981711815 2.3063735206
C 0.6845362875 0.4060852228 3.4374499872
C 1.0182936933 -1.0392177356 3.7119738787
H 0.7270578043 1.8889217964 0.7087854084
H -0.2191446659 1.9449238649 -0.7917731174
H -1.0178283315 1.7155600402 0.7740947147
H -0.1351675741 -0.2861581052 -2.0859624803
H -0.9014870611 -2.6941278518 -1.0591333398
H 0.7809543516 -2.7108263693 -1.5554442619
H 0.0496273301 -3.1644593061 1.1259098476
H 1.5856723830 -2.4424063883 0.6625155730
H -0.8656327298 -1.0213390114 1.7285293325
H 2.1163044575 -0.3400811822 1.9274167743
H 1.3758845427 1.1690261598 3.7782859792
H -0.3585976065 0.7014999117 3.4876885288
H 0.1978478718 -1.7116671523 3.9419936625
H 1.9372217617 -1.2654807648 4.2412128994