21

C 0.0337584914 1.5420629012 -0.0040265770
C 0.0075540742 0.0205562053 0.0127300918
C 0.3251312385 -0.6606096092 -1.3671481539
C -0.9454717301 -1.5151505015 -1.2313408262
O -0.7370752903 -2.6721741869 -0.3884902567
C -1.2042575586 -1.9662711051 0.7968471701
C -0.0946048374 -1.7218478238 1.8120870772
C 0.7874855277 -0.5956222822 1.2103983513
C -1.4032056629 -0.6761216697 -0.0139515867
H 1.0576811013 1.9157551446 -0.1236177854
H -0.5636101512 1.9451049564 -0.8291892821
H -0.3628334213 1.9557504271 0.9306692831
H 0.2476399680 0.0526117827 -2.1951403945
H 1.2652742497 -1.2121813939 -1.4553144173
H -1.5386520737 -1.7527364929 -2.1177318871
H -2.0884863299 -2.4607414717 1.2147326806
H -0.5459048016 -1.3974688481 2.7574957982
H 0.4599482867 -2.6421219325 2.0174204420
H 1.7560024882 -0.9791625981 0.8766816481
H 0.9994962453 0.1689539818 1.9646829425
H -2.3123825741 -0.0819148734 0.0575403221