19

C -0.0061965402 1.4760712798 -0.0333622593
C 0.0275163027 -0.0249427578 -0.0319434794
C 0.5833866328 -0.9644603566 -1.1291353616
C 0.0457447637 -1.9024843247 -0.0242124763
O -0.0187496916 -3.2787008702 -0.0311939439
C 0.6450113872 -0.9460303185 1.0958983102
C -0.3351623246 -0.9442523464 2.2472018424
C -1.5337928491 -0.9763217787 1.6548924245
C -1.2121597938 -0.9933180465 0.1747604970
H 1.0047500607 1.8932244560 -0.0971490141
H -0.5791228009 1.8573479107 -0.8855637398
H -0.4719650569 1.8483951741 0.8853972375
H 0.0495567103 -0.9754773832 -2.0844386398
H 1.6679504259 -0.9484471403 -1.2820194853
H 0.8445526283 -3.6256010123 -0.2806192182
H 1.7219947389 -0.9213048390 1.2738110176
H -0.0895311901 -0.9354969728 3.2997954637
H -2.5199976743 -0.9935090687 2.0964840325
H -2.0072546088 -1.0101916247 -0.5723902279