18

C -0.3984019739 1.4699643642 0.2450195574
C 0.0579622850 0.0481190624 0.0467894774
C -0.7069417781 -0.8212691125 -0.9447556270
O -1.5207003631 -1.8030464485 -0.2790125330
C -0.9453917322 -2.5721310187 0.6916341026
N -1.5813291403 -3.5011920467 1.2702696444
C 0.4856897019 -2.2426436584 1.0598873264
C 0.7073340937 -0.7387178726 1.1052925382
O 1.4788283156 -0.1683764456 0.0428373469
H 0.1982163390 1.9614265205 1.0170716615
H -0.2962380764 2.0428561394 -0.6833697428
H -1.4518415955 1.4970314521 0.5432955888
H -1.4095339456 -0.2393795001 -1.5444688576
H 0.0049584161 -1.3130617072 -1.6170839430
H -2.5225149559 -3.5792957800 0.8784301588
H 0.7059885422 -2.7308699047 2.0087244343
H 1.1603630434 -2.6615820849 0.3036297211
H 0.8765836640 -0.2845465786 2.0798008458