16

C 0.0655478505 1.4672835021 -0.1840305486
C 0.0673111363 0.0178310450 0.2526459578
O 0.9455314176 -0.4720978285 0.9171720315
C -1.1613112426 -0.7894191362 -0.1914221623
N -1.0002522284 -2.2172844929 -0.0848790684
C -0.6801563787 -2.9864237804 0.9829044864
C -0.6820443681 -4.2663874073 0.4856904538
N -0.9938929802 -4.2208859975 -0.8395807407
N -1.1870462931 -2.9843370782 -1.1873686565
H 0.8449688931 2.0149640956 0.3461072173
H 0.2563186901 1.5210123802 -1.2625038984
H -0.9100871860 1.9332959325 -0.0087767799
H -2.0137768162 -0.4480214438 0.4124915992
H -1.4047584752 -0.5799653031 -1.2361383271
H -0.4635154164 -2.5701753263 1.9503586552
H -0.4762637326 -5.1965448112 0.9895456307