16

C 0.0284412582 1.5106010217 -0.2964570550
C 0.0390219431 0.0303072637 0.1172638961
O 0.6345646765 -0.1303397143 1.3818918597
C -1.3633689369 -0.5449233726 0.0826456483
N -1.9925241965 -0.6188402341 -1.1016989184
C -3.2123185419 -1.1260379239 -1.0528197353
C -3.7706409422 -1.5383608739 0.1614595692
N -3.0981990434 -1.4376494257 1.3012481928
N -1.8692127993 -0.9320864548 1.2532172686
H 1.0525243449 1.8908769271 -0.2782070866
H -0.3815459797 1.6326579461 -1.3024018041
H -0.5688956682 2.0959410810 0.4094275189
H 0.6243878759 -0.5296595982 -0.6283155054
H -0.0610280366 -0.4465692278 1.9775960340
H -3.7627907175 -1.2110706607 -1.9870996382
H -4.7698145862 -1.9561305136 0.2261781755