16

O -0.2423749005 0.3284978445 -0.8438209199
C 0.0201019179 1.0725762895 0.0666474560
C 1.2502269077 1.8882092360 0.1621572758
O 2.0850317171 2.0443075077 -0.9922484729
C 2.6716507448 1.4172961753 0.1310161537
C 3.1119537734 2.5063927583 1.1226479529
C 1.6450973857 2.9966345237 1.1371357155
C 1.0589116257 4.3440249705 1.2669821172
N 0.9628144125 3.3620568736 2.3723002360
H -0.6601174345 1.1821550965 0.9417197932
H 3.0378842180 0.4046143852 0.0059497546
H 3.4069123279 2.1131934252 2.0980678694
H 3.8725618058 3.1923566548 0.7435370044
H 1.7007726804 5.1952468920 1.4749532610
H 0.1683841596 4.5748209934 0.6880651939
H 0.0273875285 2.9647166037 2.4129774492