20

C 0.0398659307 1.5792787172 0.2572662994
C -0.0082658510 0.0593170566 0.0141678577
C -1.3990298746 -0.4820294621 -0.1076828972
C -2.2005302810 -0.7233048574 -1.2116818104
C -1.8880997698 -0.5333898914 -2.6628043577
C -3.4250497094 -1.1875630860 -0.6576714692
N -4.5876271995 -1.4999240099 -1.3687548510
N -3.3955344505 -1.2384740031 0.6685209935
N -2.1513061992 -0.7895487153 0.9794494885
H 1.0737722444 1.9273773172 0.3461159359
H -0.4349432877 2.1201657607 -0.5664404450
H -0.4894872582 1.8474788725 1.1767880107
H 0.5451747190 -0.1820313544 -0.8991197491
H 0.5148681145 -0.4571332402 0.8292433331
H -1.9214383690 -1.4782964934 -3.2219785951
H -2.6033121063 0.1449604674 -3.1435593050
H -0.8886672133 -0.1128658795 -2.8072014196
H -4.4067000106 -2.0447913792 -2.2022641608
H -5.2574973473 -1.9792737221 -0.7797286745
H -1.8775624512 -0.7511095474 1.9453017558