20

N 0.0579095371 1.2256028217 0.2540852905
C 0.1671569957 -0.0939082558 -0.0860320439
O 1.2431284242 -0.6213944950 -0.2901368058
C -1.1656880214 -0.8392114836 -0.1966510075
C -0.9945244733 -2.3318700398 0.0480530009
C -0.9773288228 -2.9353547110 1.4914829417
C -2.5223263746 -2.7437234520 1.5498500734
C -2.2198066810 -3.2980037816 0.1258469947
C -1.2608163970 -4.3100051364 0.8190457343
H 0.8923282623 1.7891804251 0.2355798897
H -0.8317738172 1.6857740537 0.3319177614
H -1.9054686565 -0.3808854062 0.4662634848
H -1.5317766110 -0.6818149073 -1.2213943393
H -0.1764404968 -2.6934963373 -0.5799114764
H -0.2535284977 -2.7275325505 2.2807330072
H -3.0648644382 -3.4143644604 2.2221704931
H -2.9117749342 -1.7270848860 1.6313672704
H -2.9407230853 -3.5117857305 -0.6660148804
H -0.4609757294 -4.7308453124 0.2039770287
H -1.7309044728 -5.0712514346 1.4472258224