17

O 0.6268106430 0.3145358764 -0.8001521373
C -0.1504102752 0.3215238828 0.3844903019
C -1.4417756769 -0.4196874804 0.1631381504
C -1.5934491481 -1.9204295287 -0.2353489740
C -3.0505531431 -1.4750376265 -0.6252076801
C -3.5495121123 -0.9956013648 0.7481369574
O -2.3823731662 -0.2756595892 1.2374823179
C -2.3280085287 -0.1908810048 -1.0844737635
O -2.2973726042 0.5105349773 -2.0533768458
H 0.1217791949 0.7818714923 -1.4767119141
H 0.4487838924 -0.1601557377 1.1635544633
H -0.3837093562 1.3397738449 0.7295117186
H -0.9747380866 -2.2126340616 -1.0839812466
H -1.5136619928 -2.6269831417 0.5935925849
H -3.7185608724 -2.0532044681 -1.2580544055
H -4.4079456501 -0.3177890432 0.6864382876
H -3.7877574975 -1.8172129372 1.4325199147