22

C 0.0483401252 1.5475966990 -0.0412190308
C -0.0095476621 0.0216273299 0.0302091221
N -1.3696882244 -0.5163072972 0.0190652874
C -1.3877338408 -1.9532676398 -0.2355650017
C -2.8176855314 -2.4418573299 -0.4675282185
C -3.7038284006 -2.1408078109 0.7510108581
C -3.5453917834 -0.7040094983 1.2146988266
O -4.4700476405 -0.0264327177 1.5957121775
C -2.1109959620 -0.1769145640 1.2322132095
H 1.0852143335 1.8730926720 -0.1689632472
H -0.5373286043 1.9126471904 -0.8899297300
H -0.3312826072 2.0243410133 0.8666563429
H 0.5033139142 -0.3901047493 -0.8462641173
H 0.5540158353 -0.3316043048 0.9172847404
H -0.7806375234 -2.1488976045 -1.1253832554
H -0.9283582556 -2.5256222800 0.5982634001
H -3.2213533443 -1.9358582085 -1.3513645055
H -2.8160523865 -3.5166851163 -0.6760139523
H -4.7623296681 -2.3414816814 0.5703724381
H -3.3862362811 -2.7767464491 1.5911210886
H -1.6213124269 -0.5934855386 2.1419446563
H -2.1665365956 0.9048322458 1.3586701610