24

C 0.2558099296 1.6110561218 0.0354012437
C 0.1461454369 0.0844683794 -0.0347289956
C 0.6443587038 -0.5969777406 1.2453803488
C 0.6245465155 -2.1441471161 1.2396632884
C -0.7985493438 -2.7135107536 1.1573587760
O 1.4189659507 -2.6451844629 0.1569058540
C 1.2993932778 -2.6425769258 2.5148187076
C 1.9358352168 -3.9775843281 2.5816804238
N 2.7612102840 -2.7510626608 2.5892043828
H 1.2925845400 1.9250047474 0.1974901195
H -0.0946531891 2.0789081109 -0.8897931379
H -0.3429572766 2.0125380330 0.8602980331
H -0.8969557785 -0.1909738962 -0.2332021449
H 0.7334439508 -0.2739954585 -0.8904644182
H 1.6773930634 -0.2817190677 1.4362576680
H 0.0504363621 -0.2454651686 2.0993318797
H -1.3122261170 -2.3821052062 0.2483108709
H -0.7629011929 -3.8058868433 1.1521995627
H -1.4010746339 -2.3913490095 2.0128574876
H 0.9535714056 -2.4667674549 -0.6650905888
H 0.8438011144 -2.2408175631 3.4183583706
H 1.9321422622 -4.5358165582 3.5137790577
H 1.9330667328 -4.5786239813 1.6780745732
H 3.1287042553 -2.6212794570 1.6482092074