21

C 0.0160910561 1.5331263562 0.0558908791
C 0.0229386368 0.0127726462 0.0130586910
C 0.6884531315 -0.5493672862 -1.2561750565
C 0.7929712092 -2.0585472313 -1.1686881300
C -0.1451620331 -2.9207191628 -1.9044685709
O 1.2003159987 -2.7376905610 -2.3589818603
C 1.4208360176 -2.5255716321 0.1280853149
C 0.7109154792 -1.8468187981 1.3075745922
O 0.7104521304 -0.4373107672 1.1758882462
H 1.0396919188 1.9191902408 0.0262896614
H -0.5340205616 1.9398595947 -0.7978534684
H -0.4564324969 1.8849871493 0.9766589520
H -1.0173313416 -0.3585295757 0.0527689721
H 0.1275190298 -0.2527147939 -2.1480377550
H 1.6970976530 -0.1247557361 -1.3401666551
H -0.3789919358 -3.9164080353 -1.5285821501
H -0.9147221977 -2.4745633454 -2.5338101712
H 1.3675410380 -3.6149503389 0.2192522329
H 2.4798777539 -2.2403952781 0.1357543541
H -0.3246317582 -2.2208483493 1.3847429222
H 1.2185042117 -2.0682721859 2.2505018995