15

O 0.0091083251 -0.0282733784 0.1974013920
C -0.0085096055 1.1526121177 0.0186322310
C -1.0809695144 2.2582756137 -0.0047979823
C -0.0437246985 2.9770384078 0.9514208875
C 1.0104352240 2.3075442566 0.0062738951
N 0.7539656995 3.0569025402 -1.2633542213
C 0.0889748040 2.2672260445 -2.3241186895
C -0.7420680557 2.9742603117 -1.3148626570
H -2.1207483957 2.0828818016 0.2586969337
H -0.0504227577 4.0679036915 0.9255562039
H -0.0385692466 2.5950948090 1.9740312165
H 2.0642084449 2.1997999485 0.2513497693
H 0.1938412961 2.7044911678 -3.3127429367
H 0.1518017620 1.1820793088 -2.3036336067
H -1.2774551016 3.8836852590 -1.5733417855