17

O -0.0670691562 1.4542417061 -0.0231800285
C 0.0331225921 0.0400845093 0.0369499373
C -1.3832411139 -0.5190739676 -0.0262300005
C -1.4057184241 -2.0572231097 0.0320064498
O -0.7752037504 -2.5619534226 1.2087538759
C -2.7684652565 -2.5724745698 -0.1111021530
C -3.9037423294 -2.9850544285 -0.1930525824
C -5.1785041677 -3.4508926919 -0.2887552434
C -6.3099263247 -3.8640532496 -0.3731146075
H 0.8158711075 1.8214622435 0.0770974119
H 0.6239803185 -0.3562018837 -0.8060563523
H 0.5192973499 -0.2961014554 0.9628746941
H -1.9722036515 -0.1141667232 0.8052027304
H -1.8665510395 -0.1848437282 -0.9505120133
H -0.7949752025 -2.4495917802 -0.7920599120
H -1.3593218130 -2.3760410636 1.9530412131
H -7.3047689986 -4.2272443149 -0.4487447397