16

C -0.0269605821 1.5101651054 0.0930095815
O 1.3064377842 1.9344299546 -0.1820314191
C 2.1175795832 0.8388731504 -0.6109351731
C 1.2796319675 -0.3878438688 -0.3734323434
C 1.5545599102 -1.7417866600 -0.5053511672
N 0.6438634666 -2.6866474766 -0.2443348475
C -0.5688828209 -2.2893922182 0.1530971033
C -0.9460913739 -0.9552106926 0.3136290990
C 0.0131158602 0.0080422201 0.0417919306
H -0.3305322227 1.8954544421 1.0755547378
H -0.7247589920 1.9224461556 -0.6532143946
H 2.3847306145 0.9561313791 -1.6728739650
H 3.0513333344 0.8423643342 -0.0334666807
H 2.5326557540 -2.0928816129 -0.8276055687
H -1.2840938577 -3.0824613501 0.3577205262
H -1.9489064854 -0.7012953721 0.6402096111