21

C -0.0596956343 1.4909115150 -0.1052831427
C -0.0379650925 -0.0374684277 -0.0514062825
C -1.3936938497 -0.5878292010 -0.4928535654
C 1.2966359708 -0.6955527001 -0.5297424397
O 1.9879859012 -0.0854648613 0.6255671453
C 0.7255746164 -0.6420552626 1.1940232686
C 0.4613829093 -0.4672284281 2.6564512810
C 1.0973172495 -1.9298592680 0.4110840546
O 0.1440796315 -2.9419645664 0.2301184208
H 0.8946265154 1.9183123028 0.2013408563
H -0.2860377382 1.8310293242 -1.1223786207
H -0.8490923291 1.8847212179 0.5457093040
H -2.1809038085 -0.2052049385 0.1677617978
H -1.6251807753 -0.2256781361 -1.5016335453
H -1.4420327320 -1.6732659052 -0.4938519854
H 1.7979061086 -0.6260395863 -1.4971988811
H 0.3375730182 0.5901609841 2.9091794390
H -0.4537135988 -0.9998702716 2.9340729108
H 1.2887044449 -0.8719041101 3.2476820606
H 2.0622651253 -2.3290684810 0.7410424338
H 0.5712518374 -3.6778377798 -0.2184704398