17

O 0.0094764012 -0.0200734379 -0.1029989570
C 0.0118647303 1.1886000988 -0.0329415719
N -1.0876449588 2.0014078060 0.0984049393
C -0.8217498676 3.4164149181 0.0652271473
C -1.7029484035 4.3639331655 -0.7055043628
C -1.6751129484 4.3987019197 0.8116992210
C 0.6809202917 3.5061817558 0.0055484177
N 1.3330875387 2.8983564063 1.1793935574
C 1.2042148803 2.1213836189 -0.0844566602
H -1.9953353820 1.6097993450 0.2922435470
H -1.2310584294 5.1751485232 -1.2511024636
H -2.5828827668 3.9530200264 -1.1888529982
H -2.5405750628 4.0142578637 1.3415025261
H -1.1844616944 5.2283251941 1.3089591916
H 1.1439335929 4.3440678879 -0.5030941420
H 2.2893937384 3.2440567618 1.2381387929
H 2.0860198902 1.8251278768 -0.6379425045