16

N 0.2608870765 1.0893778889 -0.7855641677
C 0.0345429177 0.2609955723 0.2755858944
O 0.8483966991 0.1024226274 1.1651473778
C -1.3256595992 -0.3946205737 0.2606180180
N -1.3970735785 -1.7668820270 0.7911038831
C -2.0784028380 -0.7071208830 1.5178460557
C -1.5407782964 -0.3761226318 2.9023761333
C -2.1454638230 -1.2338622382 3.9200027714
N -2.6436663712 -1.9114860663 4.7124712024
H 1.1727401425 1.5105799668 -0.8626217692
H -0.3459331075 1.1175344049 -1.5859897497
H -1.9456771356 -0.1565979335 -0.6022580893
H -2.0481195663 -2.3254929820 0.2466955792
H -3.1622009554 -0.6465762526 1.4326392476
H -0.4549572611 -0.4955776637 2.8978045468
H -1.7582052036 0.6689765214 3.1515470864