20

C -0.1415790699 1.5394207171 0.0274215426
C -0.0113199249 0.0370381016 -0.0079358175
O -1.1531908461 -0.6538106263 -0.4563243003
C 1.3218098523 -0.6270158493 -0.2981784999
O 2.4806618547 0.1327191306 -0.4328653605
C 0.7003985780 -0.7349401511 1.0846537404
N 1.4052629737 -0.0049250292 2.1025653436
C 0.7282967177 0.2052783622 3.3816501807
C 1.8556882243 -0.7601152580 3.2707310449
H 0.7743456769 2.0095151897 0.3876852305
H -0.3401739667 1.9238859287 -0.9803228120
H -0.9718658522 1.8393108144 0.6744752925
H -1.2362380300 -0.4937445936 -1.4036670596
H 1.3084423964 -1.5069020768 -0.9361376004
H 2.6833373446 0.4558625883 0.4584696524
H 0.2322265710 -1.6778804025 1.3708164654
H 0.8797728567 1.1778480445 3.8406195448
H -0.2733840965 -0.2035037608 3.4904850524
H 1.6155890595 -1.8205827671 3.3063968670
H 2.8401531205 -0.5018841625 3.6493847632