14

O 0.0588166046 -0.1198736214 -0.1892157902
C 0.0394020313 1.0725271152 -0.1301357975
O -1.1824143914 1.7331003112 -0.0000200730
C -1.2657244970 3.0873904084 -0.4186743406
C -0.5855344023 4.4306575903 0.0341328609
N 0.8000336384 4.3893747051 0.6650040595
C 0.9717021741 3.2836787608 -0.2960981204
C 1.1602943762 2.0293726606 0.1120106436
C -0.1780750172 3.6756862441 -1.2156938818
H -2.2899527797 3.2686400420 -0.7345330843
H -1.2016681487 5.3147257013 0.1662436250
H 1.2498138997 5.2378211485 0.3082874499
H 1.7640353885 1.8099180189 0.9875895084
H -0.1442312364 3.9213194049 -2.2709757795