21

C -0.0702107266 1.5426983705 -0.0960042867
C 0.0238774979 0.0247600693 -0.0178529653
O 0.6586416241 -0.4295641569 -1.2064761501
C 0.7084671067 -1.8443962318 -1.2700128251
C 1.6953368023 -2.4085109916 -0.2455799491
C 1.4188055058 -1.8760420662 1.1729185343
O 2.6189584224 -1.3476992331 1.7915509958
C 2.1811733433 0.0095152706 1.5621845521
C 0.7544397903 -0.4715916502 1.2287255108
H 0.9270371903 1.9913232119 -0.1308060530
H -0.6086723218 1.8407197802 -0.9993228388
H -0.6005621512 1.9400678665 0.7747246239
H -0.9989719905 -0.3942347502 0.0060592532
H -0.3010866987 -2.2623634075 -1.1141462176
H 1.0187495671 -2.1006015201 -2.2871870547
H 1.6760438759 -3.5034970993 -0.2666463356
H 2.7064709064 -2.0948910325 -0.5221223869
H 0.9599953104 -2.6425042541 1.8065139271
H 2.3078715404 0.6387738647 2.4490615315
H 2.7083368647 0.4678961654 0.7142484308
H 0.0973497011 -0.3791609957 2.0977774532