21

C -0.0793662507 1.5419316573 -0.0035159482
C 0.0641317563 0.0226999186 0.0249505432
C 0.8337041601 -0.5764987941 -1.1677290020
C 1.3347172873 -1.9321218676 -0.6671897467
O 1.7067276660 -2.8597552241 -1.3462166944
C 1.2704533760 -1.9137210432 0.8336107953
C 0.7766909245 -3.1910385945 1.5033707881
C 2.2150823105 -2.8038847037 1.6083957047
C 0.8326387250 -0.5209438898 1.2566773564
H 0.9034564830 2.0276190224 -0.0193053977
H -0.6297812261 1.8747549530 -0.8896171703
H -0.6167507706 1.9059648121 0.8788789667
H -0.9385873890 -0.4257760359 0.0352282062
H 0.2600481613 -0.6761479182 -2.0920677021
H 1.7176104378 0.0368310116 -1.3981123945
H 0.1388972125 -3.0717517881 2.3729181079
H 0.5216475306 -4.0134608212 0.8440830102
H 2.9310326124 -3.3659233256 1.0180141407
H 2.5835211511 -2.4248912002 2.5558102190
H 1.7084633662 0.1140292775 1.4496449706
H 0.2218908560 -0.5139301063 2.1643850170