16

O 0.0221235891 1.2506922320 0.3982776937
N -0.0150287027 -0.1199579181 0.2620322170
C -1.1584742018 -0.6169032307 0.0063994158
C -1.2663028335 -2.1273834420 -0.1102700240
O -0.3627713689 -2.8433102329 0.6886762829
C -2.7331420080 -2.3719221097 0.2923446051
N -3.3738868210 -1.1336247089 -0.1406589352
C -2.5237930440 -0.0334580146 -0.1284616846
N -2.7931037963 1.2093083314 -0.2287555902
H 0.9507258732 1.4145531116 0.6014504740
H -1.1464445975 -2.4011960614 -1.1723304683
H 0.4027230319 -2.2671427828 0.8130256689
H -3.1708856422 -3.2398368081 -0.2072101207
H -2.7799296921 -2.5271952152 1.3791327136
H -4.3590996417 -0.9906716650 0.0178527708
H -3.8032389944 1.3592998945 -0.2916184792