16

C 0.0961058709 1.4914851383 0.0209077712
C -0.0469170684 -0.0018218595 0.0187830839
C -0.0309330457 -0.7082323859 -1.1206962670
C -0.0470186175 -2.1712479358 -1.2631707002
O 0.4261214670 -2.7459443564 -2.2029187980
O -0.6520858842 -2.9558221797 -0.2852585909
C -1.4881914368 -2.5048047026 0.7087254716
N -1.3676565590 -1.5225951801 1.4812722501
C -0.1866350092 -0.6681894795 1.3715108695
H 0.9600582650 1.7949505813 0.6255389478
H 0.2184079737 1.8951633154 -0.9862683547
H -0.7836855548 1.9563928410 0.4830396926
H 0.1248838437 -0.2076862120 -2.0707759797
H -2.3273899674 -3.1895707200 0.8124795093
H 0.7180535785 -1.2577755798 1.5828176699
H -0.2568949759 0.0941711852 2.1510620747