18

C -0.0622509363 -1.1756200188 -0.0971680536
C -0.0118518257 0.0248800685 -0.0524756964
C 0.0108434166 1.4706444070 0.0447503237
C -0.1362506974 2.0691642526 1.4801278743
C 1.3985550869 1.9351169918 1.5415730970
N 1.4245651579 2.0512427302 0.0325128886
C 1.2811408388 3.4814335861 -0.3103087653
C 0.4144323801 4.2543243050 0.7206966265
O -0.5505984944 3.4174499988 1.3648214090
H -0.0997218228 -2.2355127135 -0.1518522194
H -0.6547255360 1.9232116405 -0.6966664844
H -0.7869771094 1.5863349375 2.2122187495
H 1.9755442297 2.6830955825 2.0891188546
H 1.7198545403 0.9344650756 1.8362744894
H 2.2775762008 3.9353744829 -0.3553831811
H 0.8525587404 3.5372772586 -1.3160489433
H 1.0612653720 4.7070430705 1.4843446527
H -0.1424636616 5.0669130543 0.2456769582