15

O 0.0824237008 0.1677265795 -0.8391079534
C 0.0324803114 1.2018334232 -0.2484265004
C -1.0762826138 1.9924289881 0.4590875098
C -0.0662138265 3.1714747592 0.6306495815
O 0.2844832431 3.5005512899 1.9697722272
C 1.3527709335 2.6926387665 2.4199653508
C 2.0058427920 2.0506725185 1.1907074798
O 3.0388151262 1.4423818549 1.1733902253
C 1.0748031267 2.3279099271 0.0075081468
H -1.9491720217 2.1900730650 -0.1692082225
H -1.4175684323 1.5532991882 1.4018290155
H -0.3517283357 4.0930687230 0.1231873304
H 2.0764901355 3.3061500898 2.9661451656
H 1.0121771932 1.8917976262 3.0955001239
H 1.6340140476 2.6624132908 -0.8666194201