23

C -0.1621942566 1.5050871483 0.0111850359
C 0.0579065096 -0.0058112546 0.0092813615
C 1.0545153634 -0.5779262913 -1.0317296293
C 2.4148821058 -0.0334818497 -0.5385414097
C 2.2630954196 -0.0826184730 1.0152663500
C 0.8218501478 -0.6085281617 1.2159197276
C 0.8144330043 -2.1054434532 0.8584965984
O -0.4380078200 -2.6512241507 1.2577727277
C 1.0040185921 -2.0865530443 -0.6957806188
H 0.7686073035 2.0714594634 0.1088891293
H -0.6470802483 1.8287344132 -0.9164591518
H -0.8139204874 1.7989153930 0.8410699764
H -0.9141892267 -0.5009674307 -0.0849738642
H 0.8380064967 -0.3518260958 -2.0784494367
H 3.2497881650 -0.6406296213 -0.9009078453
H 2.5876078126 0.9873478156 -0.8904872914
H 3.0021947897 -0.7358841404 1.4893365948
H 2.3845130541 0.9079801220 1.4607606340
H 0.4026370641 -0.4168013790 2.2053475466
H 1.6318322239 -2.6399288135 1.3640988160
H -0.4949979559 -3.5466970241 0.9098321990
H 0.1393428366 -2.5669348208 -1.1658470015
H 1.9031616763 -2.6192784712 -1.0211605983