20

C -0.6017776038 1.6343419168 -0.0748444272
C 0.0816747712 0.2813873532 0.0350216460
C 1.3621144721 0.0394326266 -0.8517484620
C 2.0742227988 -0.5109861034 0.3853532389
C 2.8144682910 -1.7890105953 0.4794636191
N 3.4962419835 -0.4939845241 0.6928372678
C 0.9752852858 0.0169487643 1.3060919212
C -0.8867370990 -0.8620003714 -0.1531258787
O -2.0683801174 -0.7454737512 -0.3562754251
H 0.1200311436 2.4443802237 0.0667512608
H -1.0733825501 1.7563428655 -1.0544710039
H -1.3882676319 1.7358273641 0.6786225683
H 1.2552309825 -0.6253110274 -1.7145654832
H 1.7773427281 0.9932290875 -1.1928835658
H 2.7269909477 -2.4077545818 1.3688872972
H 3.0073203030 -2.3384784241 -0.4390938792
H 4.0333596277 -0.2405033707 -0.1337492666
H 1.2533404846 0.9546514393 1.7950047715
H 0.5779539932 -0.6690957029 2.0595261414
H -0.4156428607 -1.8716097587 -0.0881500504