20

C 0.2619298886 1.4983391879 0.1510492144
C 0.0676591002 -0.0126818098 0.0165382062
O 0.8260608141 -0.7225790066 0.9844127989
C -1.4064988769 -0.4351113648 0.0690792664
C -1.6697076139 -1.9702989015 0.0616051369
C -2.2937524643 -1.8290333245 1.4759850105
N -1.9971609843 -0.3870725058 1.4294098588
C -2.7269244240 0.5889937958 2.0347046534
O -3.4917457923 0.3986847791 2.9560342362
H 1.3264492358 1.7414818845 0.1071465713
H -0.2534549621 2.0403137703 -0.6489051306
H -0.1270917857 1.8584665054 1.1104342355
H 0.4611137611 -0.3414448899 -0.9538997192
H 0.4450184349 -0.5076162064 1.8451767211
H -1.9866916046 0.1306320973 -0.6696818139
H -2.3607385841 -2.3089092978 -0.7103339048
H -0.7554245926 -2.5618614410 0.0305137437
H -3.3662090745 -2.0293599681 1.5521092374
H -1.7768139680 -2.3581737799 2.2811058190
H -2.5336493874 1.5903499359 1.5984815987