15

O -0.6977416381 0.7238012724 0.5111053896
C 0.2091219822 0.8909318974 -0.2577480216
C 1.3489173848 1.8867635376 -0.0208926781
C 1.3963027176 2.7614212586 -1.1897370822
N 1.3649696889 3.4295411387 -2.1331401509
C 1.6117477556 2.4792186811 1.3896342903
C 2.0800905206 1.0561991435 1.7632065121
N 2.7274522975 1.2440371871 0.3693767904
C 3.0658662807 2.6586791119 0.8984186476
H 0.2842524839 0.3425072899 -1.2193792579
H 0.9689149517 3.1694475507 1.9400000408
H 2.8284894729 0.9723600571 2.5524081986
H 1.3471592892 0.2542879961 1.8236663178
H 3.2753092626 3.3869665126 0.1135895346
H 3.8550059498 2.6411082252 1.6518228789