19

C -0.0850400499 1.5508760574 -0.1094760341
C 1.4349070609 1.3322278093 -0.0513276593
C 1.1549009734 0.2038351617 1.0021194421
C -0.0578492257 -0.0075932425 0.0516788292
C -1.3101832971 -0.8427036952 -0.0581418822
C -1.5411859825 -0.7643439091 -1.6063366880
O -0.3004114358 -0.3664655596 -2.2315284433
C 0.6892879049 -0.3780171755 -1.2277704961
O 1.6874825966 0.6259625518 -1.2933746891
H -0.4973579598 2.0413245916 0.7749181007
H -0.4853679137 1.9734518607 -1.0316242251
H 2.1740450455 2.1193155419 0.0843973810
H 1.8880898352 -0.6021649026 1.0882400055
H 0.8973806759 0.6046636685 1.9840253351
H -1.1362205404 -1.8770147131 0.2567236092
H -2.1649880407 -0.4563388769 0.5014487836
H -1.8616000040 -1.7287432470 -2.0159751432
H -2.3007604774 -0.0178254822 -1.8615681550
H 1.1850770645 -1.3611906393 -1.2107557709