16

C -0.0636401875 1.5687250518 -0.0098099889
C 1.4818912846 1.4771844984 0.0080109410
O 1.3840541493 0.1117852714 0.5033835595
C 0.0155435679 0.0226019793 0.0149576903
C -0.0465022096 -0.6345823964 -1.3429895451
C 0.7716489134 -0.3247174407 -2.3606027660
C 1.8116971139 0.7070698150 -2.3655575257
C 2.1329882219 1.5275232553 -1.3533565992
H -0.4541545290 1.9668553697 0.9274925703
H -0.5429973686 2.0478916526 -0.8635823158
H 2.0106776732 2.1134693065 0.7232989933
H -0.6215455244 -0.4976076710 0.7357963366
H -0.7911041111 -1.4135236847 -1.4824161807
H 0.6565744840 -0.8743262497 -3.2913908374
H 2.3576926022 0.8133513996 -3.2995122632
H 2.9171291397 2.2652342628 -1.5000827390