21

O 0.0258884367 1.4501457365 -0.0231410293
C 0.0502882876 0.0452946620 0.0704926194
C -1.3547736724 -0.5579906737 0.0560246598
O -2.0376137586 -0.1609307969 1.2127952945
C -3.0204085906 -1.0438813418 1.7369327140
C -4.0047536338 -1.6170841693 0.7031215319
C -4.2964936727 -0.6732147606 -0.4729013415
C -3.1772768117 -0.6569647653 -1.5200422907
O -1.9675595888 -0.0417354365 -1.1076127598
H -0.6160899694 1.6572159109 -0.7127704153
H 0.6214687235 -0.4117839087 -0.7541268596
H 0.5386800615 -0.2155897740 1.0139345088
H -1.2922170206 -1.6593020401 -0.0038934139
H -2.5386136804 -1.8674099041 2.2865182244
H -3.5600662394 -0.4374663199 2.4710447770
H -3.6259109283 -2.5658054280 0.3027672131
H -4.9326764822 -1.8655398653 1.2309011821
H -5.2073153485 -1.0083471669 -0.9840175774
H -4.4814654487 0.3470068797 -0.1188448327
H -2.9733026500 -1.6917636627 -1.8441590777
H -3.4951553232 -0.0928194452 -2.4020335871