22

C 0.0946211585 1.5312725833 0.0897983482
C -0.0093436197 0.0082167972 -0.0057994706
C -1.4495194434 -0.4661856523 -0.1628612485
O 0.7039585508 -0.4816157821 -1.1474628309
C 2.0986892851 -0.6544643374 -0.9881743481
C 2.4288947003 -2.0600164559 -0.4815929442
C 2.7268219840 -0.4036386788 -2.3731016862
C 2.5456693752 0.9742525748 -2.8226339968
N 2.4156551811 2.0706965138 -3.1630050793
H 1.1328788413 1.8623860608 0.1841904547
H -0.3243650852 1.9945881820 -0.8082110120
H -0.4535617994 1.8981105032 0.9636871753
H 0.4157755954 -0.4429190075 0.9046718922
H -1.8802450504 -0.0616179940 -1.0841278706
H -1.4924353602 -1.5572886398 -0.2153591540
H -2.0604608259 -0.1307613601 0.6803192273
H 2.5019018431 0.0908434710 -0.2880152809
H 3.5078451362 -2.1923086536 -0.3506957883
H 1.9492915505 -2.2387049923 0.4847434318
H 2.0640016937 -2.8136309310 -1.1864322091
H 3.7974819356 -0.6325888209 -2.3513331187
H 2.2583745632 -1.0792207902 -3.0973233714