19

C -0.0712196609 1.5608237488 0.0185082788
C 0.0881838188 0.0434429225 0.0266509510
C 0.7687723240 -0.4991867163 -1.2634234317
O 1.9491147862 0.2262238721 -1.6066112093
C 1.0545717842 -1.9768396032 -1.1696507550
C 1.1368586800 -2.6362909496 -0.0142838446
C 0.9375047340 -1.9896164007 1.3328390588
C 0.8480102374 -0.4705180224 1.2409061459
O 1.3621313097 0.2534378925 2.0615335495
H 0.9032154139 2.0471446846 -0.0462803794
H -0.6694048879 1.8783756999 -0.8411726479
H -0.5625774273 1.9046801403 0.9316133273
H -0.8984088646 -0.4436208033 0.0579935646
H 0.0888203026 -0.3049820469 -2.1009778536
H 2.6475523721 -0.0423760732 -0.9987630654
H 1.2443527562 -2.4908125860 -2.1078694292
H 1.3704833280 -3.6984025519 -0.0100108118
H 0.0075934228 -2.3604914791 1.7923209314
H 1.7417015006 -2.2495453382 2.0290675906