19

O 0.1068619490 1.3502282572 0.0614908134
C 0.0742323853 -0.0299576410 -0.0182189986
C 0.6806733595 -0.9740928104 -1.0916264544
C 0.0514116184 -1.8993135626 -0.0202347461
C 0.5994966398 -0.9632307202 1.1037769004
C -0.3844713981 -0.9413420599 2.2784247844
C -1.7261735976 -0.9191600218 1.4999582030
C -1.1898603805 -0.9405251601 0.0666285608
O -2.1012312089 -0.8248027077 -0.9860233302
H -0.4437562847 1.7010417337 -0.6478821496
H 0.2019905143 -0.9735806149 -2.0724941954
H 1.7709061734 -0.9868566093 -1.1679518029
H 0.0402389277 -2.9879380403 -0.0043944132
H 1.6708254553 -0.9741113057 1.3055717176
H -0.2799595131 -1.8220080478 2.9192062952
H -0.2505424617 -0.0552765293 2.9051258362
H -2.3639204549 -1.7841246386 1.7161382835
H -2.3147232847 -0.0155639066 1.6847172524
H -2.7690614286 -1.5115095447 -0.8899759866