12

C -0.1368839592 1.4485797930 0.0113689408
C 0.0643577292 -0.0437325952 0.0018179710
O 1.1144245759 -0.6293408886 -0.0123038710
O -1.1352486963 -0.6867439856 0.0097637825
C -1.0331521985 -2.1133875853 0.0006572060
C -2.3874383647 -2.6628371332 0.0107377995
N -3.4413377943 -3.1336288078 0.0177157792
H 0.8335563940 1.9427302058 0.0054114452
H -0.7194541284 1.7521856376 -0.8628146294
H -0.7041666362 1.7430412767 0.8986116138
H -0.4933108397 -2.4545651796 -0.8887531552
H -0.4764895317 -2.4646068978 0.8756543676