16

C 0.1099446611 1.4239011057 0.3531768260
N 1.0868412987 2.1089579679 -0.5045780236
C 2.2033847131 1.4040993517 -0.9111550947
C 3.4652495105 1.7465180170 -1.3538590931
C 4.0416079537 0.5067203706 -1.7351780341
N 3.2309280550 -0.5232813546 -1.5526871248
N 2.0997361297 0.0488963873 -1.0386805788
C 0.9398086330 -0.6455269175 -0.7173816555
C -0.0484111589 -0.0135568163 -0.0824653159
H 0.3975414562 1.4608220503 1.4214444362
H -0.8440969985 1.9556280968 0.2685139635
H 1.2750798153 3.0653449647 -0.2457232334
H 3.9011241636 2.7305459223 -1.4033794125
H 5.0316366430 0.3379917072 -2.1344093006
H 0.9288362943 -1.6802996837 -1.0317056281
H -0.9613050699 -0.5360022295 0.1707888493