17

C 0.0997927263 1.3685224266 0.0436167803
O -0.0519465886 -0.0554229205 0.0629172049
C -1.3111363363 -0.5018619364 -0.1529172413
O -2.2504961859 0.2327828359 -0.3389855442
C -1.3294410235 -1.9889499223 -0.1342591047
C -2.5761366446 -2.8417795868 0.0500697286
C -3.7498591248 -2.2662092249 -0.7453409152
O -2.9447033644 -2.2314949143 -1.9619470457
C -1.8693385099 -2.8397283413 -1.2749692640
H 1.1545818862 1.5574594705 0.2440252299
H -0.1829164422 1.7741785454 -0.9312074445
H -0.5250601266 1.8346818654 0.8098113751
H -0.4428056573 -2.4303888992 0.3092278351
H -2.6370409046 -3.5925505641 0.8260836515
H -4.5653199873 -2.9873567234 -0.8609530108
H -4.1232452399 -1.2802584053 -0.4699929594
H -1.2591669164 -3.5618536052 -1.8057131054