16

C -0.1521642106 1.4791468801 0.0192331016
C 0.1457561688 0.0170104950 0.0114299193
O -0.7164603671 -0.8709929026 0.7251729575
C 0.6806152637 -0.9326881708 1.0131507811
C 1.3526058777 -1.8090372098 -0.0829819648
C 0.7976873401 -0.8275197545 -1.1348270081
O -0.0433209952 -1.8732172487 -1.6951695553
C 0.4320944583 -2.8024470498 -0.7734603161
N 0.1807990921 -4.0205648443 -0.6437373666
H 0.7127166156 2.0550669024 -0.3252215266
H -0.9944116449 1.7029764658 -0.6448404047
H -0.4146735273 1.8089258079 1.0277390812
H 0.9888800380 -0.7984132675 2.0432162681
H 2.4076485033 -2.0454024914 0.0283763438
H 1.3952062849 -0.3105112928 -1.8844399721
H -0.5099737273 -4.3362368988 -1.3266646384