23

C -0.2589625733 1.6326508004 -0.3079442716
O -0.2152918891 0.2428221578 -0.0789192805
C 0.6652393345 -0.5136127308 -0.9082082194
C 0.2998423923 -0.3884620327 -2.3929082280
C 2.1735648956 -0.1703199908 -0.6806409207
C 2.8343750084 -1.5224825837 -0.6176772848
C 1.9571014440 -2.5206657091 -0.4894165690
C 2.2544764679 -3.9803589528 -0.3558302002
C 0.5424069969 -1.9902389283 -0.4502944050
H 0.7351810971 2.0995420646 -0.2468413888
H -0.7008013516 1.8891956954 -1.2810410545
H -0.8883110903 2.0596194195 0.4774558028
H 0.4778962591 0.6199720498 -2.7780743209
H 0.9142295141 -1.0779985821 -2.9800439971
H -0.7534358559 -0.6416480729 -2.5495887627
H 2.5836690340 0.4728030225 -1.4686947015
H 2.2934759201 0.3729165670 0.2669046735
H 3.9124632000 -1.6477145044 -0.6399241327
H 3.3293337446 -4.1785358673 -0.3926936489
H 1.8674432523 -4.3788004244 0.5910490379
H 1.7722455801 -4.5593411024 -1.1540254675
H 0.1338935187 -2.0198125201 0.5681225989
H -0.1476952894 -2.5627677352 -1.0825830794