15

N 0.0052959056 1.4163154758 0.1417500120
C -0.0147651530 0.0279491542 0.0464549395
C -1.1763789957 -0.6885113697 0.0376120360
O -2.3912506818 -0.1115756199 0.0555495702
C -1.1636671314 -2.1327297146 0.0026706836
N -2.3065993024 -2.7381712226 -0.0083284648
N 0.1031625842 -2.6840480879 -0.0258548579
N 1.2799673623 -2.0210648838 -0.0222432672
C 1.2062461737 -0.7243598831 0.0162695791
H 0.7760132879 1.8630920523 -0.3344553664
H -0.8798114055 1.8462501370 -0.0895007186
H -3.0089529813 -0.8740867170 0.0329621534
H -2.2387286054 -3.7518107578 -0.0445954692
H 0.2014673504 -3.6873049836 -0.0534327987
H 2.1592136724 -0.2035972593 0.0284649090