12

F 0.0765292697 0.0310874234 0.0025037496
C -0.0633874090 1.3472334302 0.0112457895
C -1.2683993486 1.9693676968 0.0307342173
C -1.2407745678 3.3931490090 0.0378043050
C -0.0779569273 4.1041052274 0.0258346957
C 1.2143481794 3.4505879810 0.0049349071
O 2.3178890539 3.9616664778 -0.0071843577
N 1.1014991024 2.0303460499 -0.0009049275
H -2.1822414804 1.3948676239 0.0400588329
H -2.1883490450 3.9223345892 0.0533665615
H -0.0643756616 5.1861823941 0.0313333162
H 1.9748926443 1.5200250871 -0.0153350298