16

N -0.0126940624 1.3386192139 0.0098125657
C 1.1267115219 2.1143376477 0.0028843666
C 2.3590318863 1.5269669327 -0.0122514714
C 2.4670716930 0.1181958387 -0.0208476224
C 3.5197673270 -0.7808466118 -0.0358445353
C 2.9676744625 -2.0955918387 -0.0376417743
C 1.5817746434 -2.0487198366 -0.0238550742
C 1.2167601019 -0.6759286807 -0.0129406695
C 0.0159454149 -0.0205042977 0.0022516658
H -0.9067312417 1.8010991796 0.0209957060
H 0.9642036496 3.1828667322 0.0102011793
H 3.2404200117 2.1589173060 -0.0174186014
H 4.5730159360 -0.5366798032 -0.0447285046
H 3.5561999685 -3.0054110647 -0.0482777529
H 0.9031016756 -2.8896096299 -0.0217665251
H -0.9484791781 -0.5148300675 0.0089779776