21

C 0.0895497324 1.5469457515 -0.3750286206
C 0.1968793689 0.0331006282 -0.2661844570
C 1.1643693966 -0.7435977428 -1.1869462925
O 2.5187066015 -0.2374375907 -1.0943143759
C 2.7825773362 -1.0324977165 0.0877520352
C 2.2760754055 -0.3381489991 1.3716518715
C 2.7296268090 1.0754914728 1.7047743936
C 0.8141061904 -0.7132706843 0.9618218703
C 1.4227624509 -1.7666161861 -0.0496038092
H 1.0731988030 2.0058371336 -0.4908001202
H -0.5113132052 1.8271182506 -1.2476187912
H -0.3902925666 1.9804372502 0.5090680824
H -0.7947074461 -0.4179209126 -0.4127564866
H 0.8828433461 -0.9589821612 -2.2206368870
H 3.7808244477 -1.4763577917 0.0621498710
H 2.5269517164 -1.0110771403 2.2037494404
H 2.7314939415 1.7099494781 0.8165194399
H 2.0818500141 1.5386470898 2.4568828809
H 3.7488549414 1.0664064858 2.1073229114
H 0.1297409080 -0.9612838629 1.7743827412
H 1.2457479782 -2.8381142124 -0.0677227377