16

O 0.2059965813 1.3377244866 -0.0628088711
C 0.0393487966 -0.0443528522 -0.0606623673
C -0.4784491078 -0.6738468360 1.2259856808
O -0.7655884335 0.2643351257 2.2306278699
C -2.1661658832 0.5322924132 2.3331171873
C -2.7033585991 1.0545118426 1.0110143292
O -2.5270243694 0.1095622930 -0.0397410108
C -1.3541545918 -0.6441825096 -0.0071063569
H 0.2316421790 1.6064128775 0.8667978695
H 0.7942286848 -0.5800416026 -0.6323413996
H -0.0711155053 -1.6066087812 1.6093812630
H -2.7006763354 -0.3805913782 2.6314740874
H -2.2803470407 1.2832558661 3.1194295429
H -3.7810177905 1.2330247871 1.0833705931
H -2.2067377828 1.9990955013 0.7555199483
H -1.5011870323 -1.5817843133 -0.5347642259