18

N -0.2601246172 1.4369108804 -0.1153146148
C -0.1283735471 0.0041130352 -0.0694439565
C -0.4539294302 -0.6607575884 1.2424207866
N -0.8485557191 0.1338927432 2.3664894253
C -1.4372834053 -0.7871009325 0.0520012081
C -2.7535926567 -0.0219418910 0.0669704524
O -2.9831690306 0.6884445023 -1.1459648749
C -1.4797702204 -2.0436878643 -0.6416974117
N -1.5289322018 -3.0522055205 -1.2100180961
H 0.6403101130 1.8772614382 -0.2606409206
H -0.8880007372 1.7131297196 -0.8637005353
H 0.6335596083 -0.4661723598 -0.6898208132
H 0.0762318080 -1.5750204645 1.4855074496
H -0.3091411217 -0.1171388125 3.1848882939
H -0.6817582433 1.1145126593 2.1498764507
H -3.5759753188 -0.7156563701 0.2832952200
H -2.7293990359 0.7222589963 0.8625832445
H -3.0951922238 0.0417841889 -1.8513659583