21

C 0.0819097638 1.3998315030 -0.1715971277
C 0.0372152681 -0.0546073424 -0.1108182793
C 0.0145080765 -1.2578155323 -0.0586509450
C -0.0475670972 -2.7145976590 0.0060975980
C -1.4881400252 -3.2277469758 0.1826975036
C -2.3689659927 -3.0920241572 -1.0936695528
C -2.0736281042 -4.5815223827 -1.4285322147
C -1.6221786642 -4.7681031996 0.0454974214
O -0.4394545554 -5.4827856208 0.3241845497
H 0.4859047948 1.7485930401 -1.1287631949
H -0.9172543327 1.8355117180 -0.0581402347
H 0.7131457670 1.8140368052 0.6227318451
H 0.3940006735 -3.1463870592 -0.9005184029
H 0.5661648273 -3.0847830108 0.8354606717
H -1.9042210784 -2.8005340539 1.0985079006
H -3.4214811698 -2.9188816339 -0.8563677488
H -2.0498624030 -2.3419529976 -1.8201281889
H -2.8976555374 -5.2007646163 -1.7919013772
H -1.2233862107 -4.6894578892 -2.1077366871
H -2.4559356918 -5.1331398313 0.6632388041
H -0.5999817083 -6.4161410242 0.1540733499