15

N 0.0132191559 1.2917584830 -0.1603389867
C -0.0545359661 -0.0496424788 -0.0691876774
N -1.1084610097 -0.7916916616 -0.1344650247
C -0.6857056525 -2.1790403190 -0.0208744552
C -0.0126752820 -2.7137153118 -1.2344390801
O -0.0436078458 -2.0581526706 -2.4471163477
C 0.8408745035 -2.2436924542 -0.0030982491
C 1.2518864388 -0.8247719001 0.0521334547
O 2.3388630006 -0.3126157945 0.1874238985
H 0.9065632215 1.7145543896 0.0362925433
H -0.8203374507 1.8517852276 -0.1078731698
H -1.3033791916 -2.8098686420 0.6091319705
H 0.0315370368 -3.7915122269 -1.3664483890
H -0.5988842209 -1.2743238662 -2.3354289650
H 1.4321314520 -2.9940454443 0.5038492375