19

O -0.1079904180 1.4168244128 -0.1051416292
C 0.0106388743 0.0089223868 0.0315669625
C -1.3911436420 -0.5776181182 0.0265421705
C -1.4147793696 -2.1229958738 0.1262615537
C -2.8539908139 -2.4204924454 0.5609230491
O -3.0822106602 -3.6866059332 1.1087741627
C -3.1322160065 -1.2991325500 1.5624557009
O -3.8553586122 -1.4441608953 2.5181863073
C -2.2711829027 -0.0961092258 1.2059421377
H 0.7728264922 1.8013124643 -0.0740301476
H 0.5980149697 -0.4266447711 -0.7926974864
H 0.5163545877 -0.2602259251 0.9742043052
H -1.8677647621 -0.2783363313 -0.9148540080
H -1.1361431708 -2.6153346308 -0.8080277526
H -0.7315468814 -2.4738170642 0.9105298638
H -3.5201384995 -2.2377466507 -0.3055575608
H -3.6468274062 -3.5341062563 1.8822388443
H -1.6678381782 0.1611647934 2.0851324772
H -2.8776572509 0.7846038439 0.9810732897