21

C 0.0099996612 1.5566930773 0.1696359910
C 0.0045719256 0.0617748077 0.0182959298
C 0.0033216140 -0.5562458918 -1.1815577415
C 0.0276318877 -2.0711439823 -1.3334768385
C 0.4172908692 -2.7940351814 -0.0402752768
C -0.3366193480 -2.2002799289 1.1513106501
C 0.0097179292 -0.7164438644 1.3141978925
C -0.0320617868 0.1672604353 -2.4087696194
C -0.0631965191 0.7081552476 -3.4864956424
H 0.8530381589 1.8774280411 0.7958269793
H 0.0778174686 2.0671882323 -0.7919563203
H -0.9002631335 1.8976865768 0.6801583091
H -0.9626278462 -2.4084558129 -1.6712697016
H 0.7183513493 -2.3333830281 -2.1425341510
H 0.2149177083 -3.8659830680 -0.1373782843
H 1.4974350782 -2.6899510055 0.1264393653
H -1.4164960459 -2.3067126580 0.9853963515
H -0.1044344850 -2.7432962381 2.0735897018
H 1.0021242627 -0.6108097774 1.7803170963
H -0.6855489988 -0.2382277945 2.0171039317
H -0.0925960697 1.2019375030 -4.4257602427