18

C 0.2037274592 0.0531744874 0.6526626210
N 0.6890107628 -0.8398982698 -0.3833251995
C 0.2497744877 -0.6808604018 -1.5573996665
O 0.5722399100 -1.4079838773 -2.6309499944
C 1.3345027647 -2.6486618251 -2.5145734216
C 2.7633612908 -2.4719219781 -1.9465131849
O 2.8720717632 -2.5344192704 -0.5581432986
C 0.5593900158 -3.6781233413 -1.8319684517
C -0.0782181074 -4.5490067924 -1.3058993351
H 1.0490279653 0.5717433965 1.1175729228
H -0.5059302372 0.8064102726 0.2801450703
H -0.2907717846 -0.5292137170 1.4373938179
H -0.4583506822 0.1029125324 -1.8487888418
H 1.4416815376 -2.9225267499 -3.5696695324
H 3.3649695397 -3.2916217863 -2.3572424780
H 3.1548211555 -1.5324007109 -2.3746420118
H 2.1704629668 -1.9469757580 -0.2123031615
H -0.6331590077 -5.3168357606 -0.8257034542