20

C -0.0444061766 1.4733164891 0.0760279494
C -0.0204332622 -0.0333121012 -0.0053638409
C -0.6016412809 -0.8941264983 1.0561547226
N 0.8562715538 -0.7688768878 0.9435506520
C 1.5249482824 -1.8740325208 0.2241560183
C 1.0831098418 -1.8577494396 -1.2553963013
C -0.1030313288 -2.7343831922 -1.7076911388
O -0.9983321105 -1.6021780815 -1.7290685354
C 0.0736929034 -0.6884742782 -1.3808454794
H 0.7986978456 1.9137139643 -0.4687749677
H -0.9689447264 1.8719452184 -0.3563425745
H 0.0197357298 1.8018007834 1.1162140162
H -1.0271676643 -0.4362212636 1.9458472295
H -1.0861878514 -1.8162357927 0.7469914618
H 2.6040711610 -1.7068479238 0.2987218148
H 1.3100163020 -2.8303802872 0.7145183087
H 1.9323884757 -1.8539296971 -1.9396339195
H 0.0048753474 -3.1780024204 -2.7050177236
H -0.4293108157 -3.5123507431 -1.0053808039
H 0.2292222437 0.0505952622 -2.1740143584