20

C -0.0621292575 1.6325005679 -0.0467952978
C 0.1151931586 0.1197494094 0.1350920665
C -1.2217026588 -0.5963472635 0.1679089465
O -1.9737258440 -0.5099941543 -1.1327529696
C -1.8393772759 -1.9404901024 -1.2063753479
C -2.4076660928 -3.4007391822 -1.2374511172
N -1.0323277609 -3.5183959073 -0.5009169785
C -0.5006007060 -2.5999735264 -1.5993663787
C -1.5138224596 -2.1592511808 0.2153632746
H 0.9069722877 2.1388202795 -0.0775966249
H -0.5909756037 1.8438906549 -0.9801953063
H -0.6421399610 2.0661632107 0.7751449559
H 0.7469597844 -0.2689527588 -0.6665555006
H 0.6291287623 -0.0936569282 1.0809754772
H -1.8495181506 -0.1491920498 0.9475689458
H -3.2687200369 -3.6218809372 -0.6047295705
H -2.4176948526 -3.9652595264 -2.1739625164
H -0.4298633053 -3.0829279426 -2.5767949226
H 0.4342264547 -2.1126291621 -1.3297526488
H -2.3016492520 -2.3907452503 0.9312466132