23

C 0.0563915256 1.5847446666 -0.0021481806
C 0.0210055120 0.0539859424 -0.0190029138
C 0.7440848503 -0.5051873090 -1.2508202679
O 0.7682671688 -1.9230860165 -1.2626687884
C 1.4565734821 -2.4443800155 -0.1414322726
C 0.7684072154 -2.0765282553 1.1888036068
C -0.5835630518 -2.7840195526 1.3183966375
O 1.6267503078 -2.4369256441 2.2735065026
C 0.6422473176 -0.5466613577 1.2533673334
H 1.0867574758 1.9554511616 0.0493816453
H -0.4061655881 2.0052074530 -0.9015720452
H -0.4808013951 1.9800634115 0.8658376635
H -1.0270986158 -0.2665425255 -0.0848382774
H 0.2401215293 -0.2010213083 -2.1734886193
H 1.7761375910 -0.1110976816 -1.2832148218
H 1.4881505338 -3.5320017106 -0.2743578154
H 2.4934563925 -2.0718580404 -0.1072060985
H -0.4412687659 -3.8714448539 1.3591051970
H -1.0974848614 -2.4726128247 2.2325012464
H -1.2248300348 -2.5746707827 0.4587389503
H 1.6171554834 -3.3969691852 2.3531118816
H 1.6544152491 -0.1430517038 1.3883267626
H 0.0681842684 -0.2591665178 2.1415401336