19

C 0.0609911873 1.6494922901 0.1421021733
C 0.0136795743 0.1119359033 0.0990061476
C 0.6711909762 -0.4822670944 -1.1653965099
O 1.3459994278 -1.6617489377 -0.7466416021
C 1.9014502240 -1.3547233231 0.5130145311
C 0.8104884501 -0.5634238366 1.2669660302
O 1.3194619696 0.4049295712 2.1647661334
C -1.4510867713 -0.2965356701 0.2121318939
O -2.1127065409 -0.7971959353 -0.6581835101
H 1.0937721929 2.0005547963 0.1818786239
H -0.4180315011 2.0637002677 -0.7506971518
H -0.4530225317 2.0403070633 1.0242738113
H -0.0666616163 -0.7595728111 -1.9197389032
H 1.3845850268 0.2372771433 -1.5965364380
H 2.1881202925 -2.2916774768 0.9988403988
H 2.7915279330 -0.7081544965 0.4260593845
H 0.1502644773 -1.2614589236 1.8040929300
H 1.6759243406 -0.0529458688 2.9320075607
H -1.8968833710 -0.0659681812 1.2087929866