18

C -0.0636270320 1.5448873818 -0.0482714414
C 0.0686505215 0.0586184092 -0.0767603764
C -0.1523336896 -0.8599416849 -1.1008285344
C 0.1075611274 -2.1864571732 -0.6363013093
C 0.5096709114 -2.0291087982 0.6721994053
C 0.8181028619 -2.4363570014 2.1055322975
O 2.0093196035 -3.1242820848 2.3830596721
C 0.7735717034 -0.8752172167 2.4130175533
N 0.4955555627 -0.6970474934 0.9781914314
H 0.8915749092 2.0426259959 0.1595494564
H -0.4210146153 1.9043483790 -1.0160857009
H -0.7770123882 1.8820091296 0.7139117711
H -0.4578551532 -0.5911962525 -2.1023232480
H 0.0069877555 -3.0993912768 -1.2016547829
H 0.0268743428 -2.9874902880 2.6213875773
H 2.6718114579 -2.8257841125 1.7497238460
H -0.0344625965 -0.5430260941 3.0720487479
H 1.7266557578 -0.4529062288 2.7451027748