21

C 0.9931270608 -0.1381910624 -0.1863403659
O 0.1681731924 -0.5397532073 -1.2657499713
C -1.1429780042 -0.8745304879 -0.9166520870
C -1.9643985401 0.2438710796 -0.2752421142
C -2.0505592844 1.4465006447 -1.0974171809
C -2.1146318934 2.4363389501 -1.7756275409
C -1.8087441641 -1.7979779858 -1.8886150501
C -1.4307878942 -2.3083194140 -0.5076728031
C -0.3231180288 -3.3276750837 -0.3603266387
H 2.0113053295 -0.0761036645 -0.5775213990
H 0.7104532310 0.8498288727 0.2013058463
H 0.9720537581 -0.8632584869 0.6386153551
H -2.9711792328 -0.1414153670 -0.0763587660
H -1.5456157033 0.5009952078 0.7063670964
H -2.1726908612 3.3081513461 -2.3786787543
H -2.8530380886 -1.6348213572 -2.1317091084
H -1.1952528316 -2.1319783623 -2.7184183929
H -2.2582880251 -2.4359866982 0.1869305844
H 0.5196712472 -3.0794633132 -1.0105410679
H 0.0465032316 -3.3756355920 0.6700223361
H -0.6763461790 -4.3286734584 -0.6311470377