21

C -0.6095991516 -0.7929005712 -0.7889898505
C 0.7155667282 -0.3499856198 -0.1566883391
C 0.8399677840 -0.6594743654 1.3276737107
C -0.2276017478 -0.0648645489 2.2396693493
C -0.2013915526 1.4653521745 2.2246095714
N 0.9272555075 1.9918234160 2.7854631070
O -1.1029806819 2.1409657904 1.7655115857
C 1.5115857308 -1.9168981674 1.7458521865
N 2.1947686300 -0.6175697147 1.9238508196
H -1.4493443159 -0.2217844427 -0.3840790983
H -0.5906826465 -0.6283104557 -1.8703030504
H -0.7997757654 -1.8571699289 -0.6138229227
H 1.5521707563 -0.8329015423 -0.6783621070
H 0.8390372331 0.7307258857 -0.3044365097
H -1.2256726293 -0.3796493872 1.9312519391
H -0.0544976124 -0.4185425948 3.2606822366
H 1.7204158930 1.3865059559 2.9465345613
H 1.0762114494 2.9837498925 2.6907421670
H 1.2212637853 -2.4123295892 2.6681054107
H 1.8793790759 -2.5852846233 0.9716451861
H 2.8893778001 -0.4964518036 1.1901656368