19

O 1.3644746929 -0.3564859125 -0.2380886525
C 0.6862686148 0.6233041588 -0.0678684112
C 1.1992258211 2.0271378083 0.0783658649
C 0.5407290218 3.1131363772 -0.8306733443
C 0.4698661255 4.0627721959 0.3871539587
C 1.4297344613 5.2692132740 0.4786932040
O 0.3342926373 6.1854405105 0.6677406876
C -0.6298511966 5.1161553015 0.5943087079
C 0.6811313628 2.8390469782 1.3078807520
H -0.4276578424 0.5472545421 -0.0043567669
H 2.2884366116 2.0232101351 0.0063207843
H 1.1116564320 3.4423721512 -1.7021389191
H -0.4582653401 2.8063638840 -1.1615167578
H 2.1157949824 5.2650149321 1.3364923522
H 1.9998696398 5.4915957793 -0.4334483646
H -1.3250284571 5.2434560182 -0.2467351760
H -1.2085945067 5.0169564392 1.5227777366
H -0.2719650160 2.4426044545 1.6766782451
H 1.3646862756 2.9482237522 2.1532450492