19

C 0.0125447594 1.5492420788 -0.0468660794
C 0.0261184507 0.0145203424 0.0086744366
C 0.7595757654 -0.5552214957 -1.1952145619
O 0.3162131818 -1.4181311015 -1.9101240477
C 0.6615184456 -0.4893309870 1.3207642894
C 0.8231756145 -2.0252136637 1.4085474262
O 2.1861910236 -2.2283462785 1.0596509184
C 2.8486946814 -1.1275688996 1.6185200862
O 2.0059150539 -0.0055733352 1.4303492886
H 1.0304635716 1.9462166294 -0.0046564572
H -0.4640018911 1.9080712070 -0.9638805260
H -0.5422010334 1.9575952591 0.8038093164
H -0.9966733348 -0.3776088814 -0.0320572077
H 1.7587612216 -0.1062341250 -1.3856945348
H 0.0703092841 -0.1040316667 2.1622414805
H 0.6228191008 -2.3840944893 2.4285928093
H 0.2016860667 -2.5730515755 0.6984242614
H 3.0335110189 -1.2829956952 2.6970759569
H 3.7930484191 -0.9699269223 1.0899577348