20

C 0.0712369432 1.2104166912 -0.2957125990
O -0.1216261363 -0.0710539321 0.2845221462
C -1.4082406504 -0.5367319138 0.1855081268
C -2.6268982639 -0.2261437877 1.0382831106
N -3.2500122417 -1.5045257807 0.5063205550
C -3.4680704191 -1.1592137739 -0.9585438170
C -1.9667977029 -1.1374971987 -1.1413868011
C -1.8169335708 -1.9695623492 0.1124302551
C -1.1893326542 -3.2714286469 0.4620238622
H 1.1265176707 1.4613043517 -0.1696729982
H -0.1773043431 1.2056708662 -1.3655944383
H -0.5395224176 1.9756626832 0.2025210669
H -2.4269859699 -0.3347918790 2.1077331141
H -3.2213245118 0.6771910290 0.8603614909
H -3.9587435495 -1.9983888094 -1.4601739479
H -4.0507741331 -0.2454676970 -1.1247883227
H -1.3528066164 -1.1623570065 -2.0342422822
H -0.1536083871 -3.2916771253 0.1082202478
H -1.1795992661 -3.4252124901 1.5465073151
H -1.7242802601 -4.1110541709 0.0055153755