19

C 0.6398074138 1.2104753175 -0.9178951550
C -0.0607323316 0.0681854592 -0.2181627819
C 0.6490259320 -1.2322546961 0.0420310365
C 0.2973528491 -0.3250133158 1.2058708576
N 1.3640801844 0.3574075557 1.8467212150
C 1.2955731622 0.5364604036 3.0986708405
N 2.3156179839 1.2024682764 3.7704017140
C 2.3228471943 1.4374442724 5.1241688440
O 1.4513708241 1.0972699370 5.8895268363
H 1.6866037061 1.2715649790 -0.6128489725
H 0.6037521521 1.0798566913 -2.0049737508
H 0.1672468309 2.1699289494 -0.6800984624
H -1.1214658149 -0.0150925254 -0.4413781306
H 0.1084280011 -2.1670790983 -0.0566847499
H 1.7014473071 -1.2840988686 -0.2148299691
H -0.5293866979 -0.6446675927 1.8434510299
H 0.4871941206 0.2121692755 3.7580587470
H 3.0890219831 1.5239928180 3.2055096484
H 3.2332020294 1.9828656721 5.4368215530