13

O -0.0984972749 1.3292743531 0.0108915842
C 0.0248086287 -0.0012703405 0.0028899783
C 1.2119282197 -0.6822281747 -0.0071897188
F 2.3670128837 0.0184395540 -0.0094614524
C 1.1632037313 -2.0894368207 -0.0147021641
N 0.0607779786 -2.7886403197 -0.0126812694
C -1.1624458768 -2.1277546528 -0.0025646764
N -2.3219970767 -2.6615103686 0.0009265983
N -1.1191793258 -0.7083729334 0.0050502039
H 0.7901254279 1.7106729643 0.0082999955
H 2.1076927475 -2.6341171112 -0.0227386417
H -2.2114217752 -3.6735805533 -0.0051031665
H -2.0074236782 -0.2261209764 0.0124749293