16

O 0.3382956881 1.3376975985 0.2052246302
C 0.1483484472 0.0021489599 -0.1757361095
C -1.3382207653 -0.4644052470 -0.0871947926
C -2.1799475713 -0.1836514644 -1.3556312796
C -2.3644773294 1.2433611082 -1.8000834438
O -1.7770747982 2.2162209328 -1.3874922893
C -1.4081411746 -1.8952736065 0.1986195274
C -1.4423965238 -3.0796951027 0.4022046489
H -0.2700549653 1.8798120780 -0.3196438639
H 0.5234219244 -0.2078573437 -1.1925791913
H 0.7376729280 -0.6062932073 0.5154123894
H -1.7742393930 0.0882319940 0.7551782130
H -1.7511378108 -0.7200401564 -2.2164371462
H -3.1849069966 -0.6123084801 -1.2435776689
H -3.1260214619 1.3613349438 -2.6013350175
H -1.4747733473 -4.1214151372 0.6057133235