13

C 0.0914316413 1.4566360633 -0.1412271105
N -0.0607053153 0.0127465416 -0.0844314859
C -1.3019740946 -0.5384726321 0.1356816834
O -2.2952611922 0.0964760466 0.3900352674
N -1.2616924868 -1.9544729482 0.0783830650
C -2.3447058269 -2.8210301634 0.0526645748
O -3.5054548306 -2.5268747619 -0.0167990888
H 1.0827008320 1.7395342471 0.2227985049
H -0.0425533574 1.8529082051 -1.1555994917
H -0.6705614331 1.8991450120 0.5004269180
H 0.6265442973 -0.5400452885 -0.5714117105
H -0.3554511154 -2.3960847974 0.1251884425
H -1.9833649683 -3.8702720443 0.0918766914