22

C 0.1671563213 1.5462486085 0.1740301482
C -0.0928268293 0.0479037776 -0.0200231267
C 0.6689721454 -0.5369979475 -1.2065654476
C 2.2262726399 -0.6516495722 -1.2139952862
C 2.5223567135 -1.5933043215 -0.0377744875
N 1.8173745882 -2.7033133848 -0.7590504638
C 2.0495783185 -1.9786750015 -2.0462267609
C 0.6726557717 -2.0436423656 -1.5021050172
C -0.4849251132 -2.9136996725 -1.8791510434
H 1.2247977105 1.7433384166 0.3803588468
H -0.1044877067 2.1139510694 -0.7230267300
H -0.4137683348 1.9466748196 1.0104240577
H 0.1555841397 -0.4929133804 0.8998701449
H -1.1660814131 -0.1181915656 -0.1818973320
H 0.3617863759 -0.0209684880 -2.1258008542
H 2.8509781757 0.2069270304 -1.4547847650
H 3.5806204010 -1.8583962934 0.0376022432
H 2.1373504159 -1.3498235497 0.9588854716
H 2.5329814021 -2.4098060650 -2.9136603549
H -0.1389487876 -3.9144065107 -2.1514933532
H -1.1871868943 -3.0191154672 -1.0445847515
H -1.0315313301 -2.4909141964 -2.7293263781