23

C -0.7080468982 1.0812698858 0.1943254168
O 0.4230311319 0.2896986952 -0.0798704540
C 0.9557241949 -0.3986960576 1.0494002500
C 0.0854827010 -1.5973271352 1.4515483530
C 0.8205055366 -2.4983662662 2.4474231054
C 2.1051803241 -3.0550729351 1.8212846326
C 2.8655575189 -1.9988379081 1.0641174205
C 2.3765918655 -0.8087810383 0.7047535769
C 3.2029549720 0.2163137453 -0.0241824904
H -0.5154470524 1.7961131962 1.0105578945
H -0.9363402824 1.6419903648 -0.7159454644
H -1.5914634884 0.4842568363 0.4636171995
H 0.9986379006 0.3158178212 1.8947018714
H -0.8630780579 -1.2517457966 1.8755074648
H -0.1517572478 -2.1584010417 0.5390251768
H 1.0762017142 -1.9162839034 3.3426438715
H 0.1697737814 -3.3140199780 2.7799278495
H 2.7493013010 -3.4908694734 2.5956653674
H 1.8627112921 -3.8877449965 1.1431731531
H 3.8944167529 -2.2390340158 0.8008058073
H 4.2228756389 -0.1425984942 -0.1856072829
H 2.7559817912 0.4660549099 -0.9906671330
H 3.2564443199 1.1550870954 0.5429785438