21

C -0.1319347300 1.4942415511 -0.0054215340
C 0.0043150363 -0.0238689700 -0.0048749349
C 1.1915038778 -0.6098341617 -0.8456002734
C 2.0731111941 -0.4525914848 0.4345111241
C 0.7475101380 -0.6267286199 1.2297519825
C 0.4201874443 -2.1266463006 1.3669450902
O -0.8746327414 -2.3482062237 1.9260219182
C 0.5765136819 -2.8108119278 0.0238135049
C 0.9331758278 -2.0878724655 -1.0404215695
H 0.8125667187 1.9992373136 0.2200729853
H -0.4754945956 1.8555140632 -0.9810936493
H -0.8633792120 1.8155029284 0.7445230922
H -0.9688210046 -0.4718124340 -0.2378218133
H 1.4878509332 -0.0960216574 -1.7622401883
H 2.8602444681 -1.1957704319 0.5836123930
H 2.4953356969 0.5485100986 0.5445570491
H 0.6364993211 -0.1227511855 2.1933868037
H 1.1043301792 -2.5750962791 2.0994764748
H -1.5211920798 -2.0965998109 1.2573332426
H 0.3696462547 -3.8755745999 -0.0273576158
H 1.0505232812 -2.5310932521 -2.0249386720