20

C -0.0448903745 1.3756183549 -0.0135061229
N -0.0196580351 -0.0638975917 0.0008033385
C -1.1917281215 -0.9022380647 0.0289105685
C -0.6239311533 -2.3048894220 0.0336928178
C -1.5270485353 -3.4944221531 0.0609455559
C 0.7157167658 -2.2438623628 0.0106400964
C 1.7492222871 -3.3202793664 0.0043368834
C 1.1391081970 -0.8091974411 -0.0110605507
O 2.2742763998 -0.3695955374 -0.0346213660
H 0.9923669792 1.7165590411 -0.0341403939
H -0.5662133095 1.7635872683 -0.8983442078
H -0.5368291494 1.7817548801 0.8799559295
H -1.8099440509 -0.7130633115 0.9210573554
H -1.8394765383 -0.7310089867 -0.8457353274
H -2.1977966598 -3.5028208958 -0.8074245013
H -0.9654139615 -4.4309286668 0.0608364015
H -2.1679577970 -3.4851763124 0.9515624302
H 2.3862338523 -3.2334413950 -0.8826372694
H 2.4145072355 -3.2166148679 0.8684802018
H 1.3101411893 -4.3204559992 0.0211296404