19

C 0.2142071939 1.4840487045 0.0417430594
C -0.0391173286 -0.0313771759 0.0056931000
C -1.5360677555 -0.3341897114 -0.0765632839
C 0.7531908221 -0.6891272660 -1.1491406402
O 2.1037124796 -0.8793149734 -0.6603656827
C 2.0977953686 -0.8496128862 0.6872142892
O 3.0832138058 -0.8826326168 1.3715735462
C 0.6638162562 -0.7284622850 1.1900167139
O 0.5985268266 -0.0684070235 2.4218668881
H 1.2834357458 1.7177465079 0.0144213848
H -0.2589676401 1.9685695171 -0.8181458814
H -0.1958228747 1.9159417261 0.9567879004
H -1.9755058816 0.0899329302 -0.9860721901
H -1.7266146457 -1.4126921632 -0.0797583936
H -2.0612168692 0.0989890001 0.7799812896
H 0.3428795391 -1.6678976939 -1.4235225592
H 0.8159311613 -0.0660750994 -2.0436055277
H 0.2650396841 -1.7563388698 1.2760918546
H 1.4839502025 -0.1364536713 2.8085237824