15

C -0.0022398759 1.5109309852 0.0818701048
C 0.0124019639 0.0238238879 0.0187077235
C -0.0054498914 -0.7571307425 -1.0809728717
N 0.0179435321 -2.1273198562 -0.7486754767
C 0.0524568923 -2.3114816686 0.6228330658
O 0.0776299818 -3.3704418100 1.1988889264
C 0.0511604435 -0.8909437871 1.2157421188
C -0.0425547575 -0.3452908746 -2.4382796700
N -0.0727547587 -0.0195687071 -3.5494605108
H 0.8866573617 1.8925383857 0.5993786347
H -0.0321301819 1.9530241634 -0.9170387438
H -0.8721478021 1.8732900414 0.6435655006
H 0.0096713708 -2.8852752851 -1.4114363655
H 0.9431927764 -0.7470957120 1.8368176025
H -0.8128688451 -0.7662897802 1.8791096413