21

C -0.6045432631 1.2716006360 0.0297963244
C -0.1502167271 -0.1893003473 -0.0538294383
C 0.9596661408 -0.4150069018 -1.0779173295
C 1.3436424586 -1.8921071047 -1.3593278318
C 0.7276211434 -1.7008270149 -2.7847616128
C -0.5823992858 -2.4552566026 -3.0373182074
N 0.5990029844 -0.2471504891 -2.5132845266
C 1.6653593613 -1.9720753077 -3.8890530904
N 2.4023427488 -2.2065711488 -4.7480938411
H 0.2284129145 1.9273456780 0.3045179969
H -1.0010222518 1.6283854148 -0.9273318354
H -1.3924971954 1.3976920913 0.7779689620
H 0.2217647145 -0.5150618054 0.9266640289
H -1.0065922383 -0.8352359087 -0.2883897990
H 1.8144758805 0.2203036368 -0.8139159955
H 2.4140352572 -2.0965908696 -1.3586713694
H 0.8315900301 -2.6393485070 -0.7493802432
H -1.2686890971 -2.3078363002 -2.1989563983
H -1.0630381289 -2.0951003967 -3.9525200024
H -0.3979320822 -3.5276850713 -3.1525402628
H -0.3234455845 0.1330419190 -2.6992493182