18

C 0.1024523814 1.5755447770 -0.5352885454
C 0.5776424607 0.1484623275 -0.3556598217
O 1.7584792854 -0.1294367167 -0.3528953596
C -0.5199185281 -0.8884451411 -0.1402697177
C -0.2525868837 -2.3297329577 -0.5824247034
C 0.5944355275 -2.6286277160 -1.7789504251
N 1.0826130000 -2.9513028623 -0.4356556771
C -1.3694359366 -3.1988692576 -0.2890233166
C -2.3312421103 -3.8766799406 -0.0419073846
H 0.9521614411 2.2585236309 -0.5130668708
H -0.4182735405 1.6697089885 -1.4957093283
H -0.6203527645 1.8442656006 0.2428329087
H -0.7248579746 -0.8856728947 0.9411070798
H -1.4467423548 -0.5379802258 -0.6077522736
H 0.3397759373 -3.4815479649 -2.4004541093
H 1.0415643554 -1.7885601005 -2.3030033228
H 1.7326564040 -2.2179554589 -0.1561034781
H -3.1650413697 -4.4973459178 0.1749987057