16

O 1.1684576860 0.2812614181 -0.3481644393
C 0.6292030026 1.3482277427 -0.3979546305
C -0.8573237349 1.7678261335 -0.5764375200
C -0.4452253101 3.1213022398 0.0318024063
C 1.0433050593 2.7284876620 0.0867176622
N 0.5399881064 3.8107580677 -0.7385789946
C 0.5727213294 3.8824027912 -2.2131739296
C 0.9615878267 2.6909880792 -2.9624082687
C 1.3195113294 1.7276527638 -3.5859218389
H -1.2774288366 1.7868030900 -1.5830238910
H -1.4930929045 1.1587988149 0.0723166212
H -0.9956336632 3.6679637700 0.7897013619
H 1.8181122258 2.9423439688 0.8158592785
H -0.4162342313 4.2266857061 -2.5377742269
H 1.2731782824 4.6882725165 -2.4631473410
H 1.6270417424 0.8603721856 -4.1168235796