21

O -0.1877941016 0.0062700540 -0.1767920548
C -0.0381185124 1.2074893421 -0.1658494177
C 1.2564744319 1.9027021887 0.0004678833
C 1.2230566379 3.2449720957 -0.0181527609
C 2.3959684788 4.1759553616 0.1200768600
C 3.2651660706 3.9545299759 1.3753344231
C 4.1153925915 2.6770677494 1.3651698913
C 3.3379180018 1.3542438786 1.4101098327
C 2.4906829874 1.0498806151 0.1625230318
H -0.9081654330 1.8923496857 -0.2861390588
H 0.2479787435 3.7125561591 -0.1555470627
H 3.0365039171 4.0785909196 -0.7700003632
H 2.0325494695 5.2083067802 0.1166800417
H 3.9358067906 4.8165791185 1.4714818358
H 2.6206832660 3.9631824671 2.2635187248
H 4.7582305191 2.6835135717 0.4729513935
H 4.7947046063 2.7108505281 2.2255466000
H 4.0582923236 0.5373550275 1.5360357238
H 2.6929032750 1.3347761889 2.2979758695
H 2.1608489049 0.0074930746 0.1863489507
H 3.1230978814 1.1539074078 -0.7312147138