19

C -0.1699174355 1.4576734787 0.4058227954
C 0.0202682386 0.0177288480 -0.0488877653
C 1.4194739796 -0.4324576649 -0.4516309647
C 0.8291724488 -0.9184693139 0.8397201867
C -1.0891008830 -0.5509231706 -0.7665653501
C -2.0334494222 -1.0105930573 -1.3606228421
C -3.1575202658 -1.5314183073 -2.0869447842
C -3.3156447152 -2.9753106073 -2.3533666808
O -4.1138105064 -2.3350778761 -1.3682747040
H 0.7163656371 1.8116569732 0.9415030951
H -0.3376570531 2.1192448419 -0.4497786832
H -1.0313315715 1.5453317814 1.0750024849
H 1.5037950666 -1.1337170985 -1.2729963562
H 2.2028991334 0.3168385363 -0.4124665955
H 1.2053356335 -0.5040847750 1.7689063423
H 0.5093518009 -1.9515688547 0.9013442553
H -3.6197017026 -0.8411512664 -2.7922548183
H -3.8378765981 -3.2954704353 -3.2545594671
H -2.5626663851 -3.6641039421 -1.9746273582