11

O -0.0426667837 -0.0300877580 -0.0013772518
C 0.0011745637 1.1800919901 0.0075285948
C 1.2356733173 1.9671096964 -0.0002790205
C 2.5110109895 1.4687531986 -0.0182552410
O 3.4100179793 2.4691560201 -0.0211346830
C 2.7104488885 3.6445483109 -0.0040544724
C 1.3788700173 3.4000242486 0.0092039933
H -0.9308886919 1.7874845687 0.0225392740
H 2.8999860353 0.4644591036 -0.0302561658
H 3.3090360765 4.5397575847 -0.0040063286
H 0.5872768682 4.1330705663 0.0238027410