18

C -0.0303718612 1.5600288210 -0.0693125716
C -0.2406620176 0.0590211999 -0.2353799721
N 0.8755242241 -0.5384379514 -0.9708061753
C 0.7899691464 -1.9590494972 -1.1654575068
C -0.2293817369 -2.5949663436 -2.1178119689
C 1.2274918685 -2.5541779611 -2.4849407838
C 1.1022497837 -2.7211166051 0.0276841216
N 1.3281278991 -3.3333504806 0.9826160647
H 0.9096069810 1.7632348681 0.4508841826
H 0.0040180589 2.0654777214 -1.0418518765
H -0.8505003304 2.0021548453 0.5033282490
H -0.2809568021 -0.4219441271 0.7488786308
H -1.2141455720 -0.1354688040 -0.7191927899
H 1.0143768089 -0.0711842703 -1.8592910928
H -0.6684981692 -3.5478675563 -1.8467528593
H -0.9018490309 -1.9048733210 -2.6151676008
H 1.5524047843 -1.8506832269 -3.2447154236
H 1.7962457554 -3.4756656713 -2.4582775373