17

C -0.0932206808 1.5146711858 0.0969746623
N -0.0489940221 0.0687875590 0.1480422625
C -1.3263046731 -0.6211381066 -0.0235205341
C -1.0746377061 -2.0028854373 0.5381113052
O 0.1442420255 -2.6034839663 0.0863533970
C 0.1442186081 -1.9480653265 1.3474950800
C 0.6480089264 -0.5070190095 1.2964910937
C 2.1071800483 -0.3853954909 1.1555654916
N 3.2545695059 -0.2786200924 1.0773227212
H 0.9230767240 1.9172992254 0.1417512185
H -0.5376790237 1.8320868747 -0.8510097524
H -0.6817438987 1.9638137594 0.9193551253
H -2.1523876806 -0.1591274713 0.5501824029
H -1.6144044592 -0.6256320543 -1.0810907034
H -1.8986284714 -2.6804371063 0.7391928241
H 0.3456510635 -2.5571096215 2.2229053616
H 0.3738050141 -0.0328803615 2.2603923541