15

N 0.2711154174 0.9521919784 -0.3276844271
C -0.0615746509 -0.1885771665 0.3217292917
O 0.3573064841 -0.5535462106 1.3902523541
O -0.9620353577 -0.8879185012 -0.4596043090
C -1.3971594902 -2.0921058499 0.0247265497
N -2.2210744563 -2.7354765108 -0.6708396641
C -2.7055192157 -4.0240673415 -0.1857083782
C -2.2010815758 -4.5050524084 1.1027994537
C -1.7735673694 -4.8795283814 2.1622273087
H 0.8444222443 1.6194031670 0.1564152782
H -0.2093331729 1.2179376559 -1.1689672704
H -0.9671073228 -2.3653211201 0.9875092003
H -3.8010995998 -3.9655887190 -0.1470846051
H -2.4837073513 -4.7676941734 -0.9622575784
H -1.4025679129 -5.2206215087 3.0972588159