18

O -0.0068088474 1.3925618330 -0.3713984135
C -0.0378827402 0.0371367321 0.0609951044
C -1.4960903142 -0.3876927203 0.1162959651
N -2.0799315276 -0.2892704667 -1.2093191470
C -3.4191818570 -0.6050468646 -1.3804679349
N -4.1171511434 -0.0523036739 -2.3732037440
N -5.3415304063 -0.6295849904 -2.2781295454
C -5.4353451162 -1.5081404898 -1.2589204877
C -4.2036434017 -1.5286104169 -0.6386937941
H 0.8993700216 1.6215021713 -0.5951121703
H 0.5022698098 -0.6142855390 -0.6410791012
H 0.4146246029 -0.0754990091 1.0577865605
H -1.5416152438 -1.4267770286 0.4627415478
H -2.0230881004 0.2313124602 0.8621493621
H -1.8323527551 0.5809845188 -1.6628420504
H -6.0536455845 -0.3615204612 -2.9334638786
H -6.3482274407 -2.0443192061 -1.0512698133
H -3.9161866656 -2.1208934492 0.2135227905