21

C -0.1285370094 1.5573946038 -0.0338554696
C 0.0030992651 0.0576241448 -0.0288440358
C 0.0442894558 -0.6656406174 -1.1500545720
C 0.0896656653 -2.1697698452 -1.1525600763
C -0.3390352119 -2.6943604724 0.2163454858
O 0.3553284493 -2.0100603115 1.2448242095
C 0.0504193283 -0.6208526564 1.3244156961
C 1.1248768918 -0.0542107734 2.2622080099
O 1.1480943520 -0.7544112176 3.4865833114
H 0.7603665774 2.0503620189 0.3777265687
H -0.2794692934 1.9328500841 -1.0492456122
H -0.9791993059 1.8845559273 0.5777972604
H 0.0199522646 -0.1603109358 -2.1132074678
H -0.5738396179 -2.5711099354 -1.9292152074
H 1.0995003297 -2.5288836210 -1.3945032853
H -1.4262569269 -2.5687431114 0.3435388146
H -0.1028499255 -3.7550025665 0.3395343076
H -0.9283877411 -0.4963962155 1.8253320363
H 2.0974121285 -0.0995035172 1.7453749030
H 0.9103199210 0.9922261010 2.4958058657
H 1.1444110333 -1.6897500132 3.2490641575