21

C -0.0107018449 1.5074563464 0.0592188494
C 0.0168374495 0.0037011725 0.0288616068
C 0.6001914911 -0.9291628708 -1.0777550746
C 0.0435962472 -1.9181404449 -0.0018117819
C 0.0625330669 -3.4218127194 -0.0190058246
C 0.6604803670 -0.9628058502 1.0785886086
O 2.0395478421 -0.9459064469 1.3342349724
C -1.1939929381 -0.9880682301 0.0327251973
O -2.0094409020 -1.1057103579 1.1738295193
H 1.0020505872 1.9152218364 0.1494310301
H -0.4616074811 1.9234957722 -0.8487225577
H -0.5860854312 1.8683937124 0.9197389915
H 0.0894290881 -0.9227790458 -2.0462621642
H 1.6819724264 -0.9109494771 -1.2374457001
H 1.0876707002 -3.7990172735 0.0628818964
H -0.5104017262 -3.8220480660 0.8238451050
H -0.3715876813 -3.8191358688 -0.9430476239
H 0.1754793681 -0.9854212773 2.0531542943
H 2.5210994759 -0.9385167974 0.5011216687
H -1.7916172139 -0.9826906055 -0.8894695140
H -2.6477720410 -0.3860877084 1.1644171810