19

O 0.0131854219 1.3014903818 0.3042530953
C -0.0525996178 -0.0286604083 -0.1829387938
C -1.4441218942 -0.6152265894 -0.0861065034
C -1.5508988272 -2.1132127671 -0.0327655324
C -1.8145916603 -1.2621730053 1.2234639284
C -3.2854550245 -1.7330034155 1.2070055115
O -4.2266880202 -0.9181839176 0.4639612533
C -4.1057878863 -1.7732692045 -0.7054396475
C -3.0137901656 -2.6198118481 -0.0207844386
H -0.3654677331 1.3025370359 1.1897135012
H 0.2616145883 0.0264489144 -1.2307372525
H 0.6652958238 -0.6851477898 0.3375239661
H -2.2022270825 -0.0294163868 -0.5967584896
H -0.6952095067 -2.7418736223 -0.2501900054
H -1.2061433777 -1.1508120805 2.1149267040
H -3.6927144864 -2.0975800747 2.1529080919
H -5.0407649600 -2.3155897502 -0.8919429306
H -3.8267243240 -1.2138352980 -1.6056609149
H -3.1328272776 -3.7015292840 0.0036374070