23

C -0.2999960496 1.4880047158 0.0657207288
C 0.1378119802 0.0199497430 -0.0334031870
C 0.8395211433 -0.4693003508 1.2048675941
C 2.2573896777 -0.0636795235 1.6281179792
C 2.3755401480 -1.4133375603 2.4086997811
C 1.9957720159 -1.2285803813 3.8846241300
C 0.5497668047 -0.6607972079 3.8238923208
C 0.0786259417 -1.0095876183 2.4112640080
C 1.0752047440 -1.8885842182 1.7021099285
H 0.5589209706 2.1449726226 0.2397937036
H -0.7908729823 1.8191105788 -0.8547857796
H -1.0009078625 1.6332286115 0.8943674562
H -0.7378231378 -0.6125188615 -0.2288867395
H 0.8027921715 -0.1037635375 -0.8994716463
H 2.9272687579 -0.0371085359 0.7630068918
H 2.3901759488 0.8612560924 2.2032332914
H 3.2909595004 -1.9810749697 2.2405812814
H 2.0046466051 -2.1968479904 4.3983705213
H 2.6893126877 -0.5674484472 4.4148653058
H -0.0970495541 -1.1204309764 4.5776429634
H 0.5288983342 0.4193136495 4.0060843905
H -0.9776095921 -1.1871941627 2.2352686547
H 0.8671405067 -2.8448479720 1.2388628619