21

C -0.0208287656 1.4549466264 -0.1502101913
C 0.0179743230 -0.0628261925 0.0961550379
C 0.7313365657 -0.4059530659 1.4131427123
C -1.3703599433 -0.6337083232 0.0735357072
C -2.1771974360 -1.0254893093 -1.1438552090
C -1.9631726731 -2.0174000566 -0.0166448017
O -1.3366050237 -3.2385432692 -0.1659574232
C -2.8135681433 -1.6110457691 1.1824358496
O -2.2754919949 -0.2608987094 1.1309929875
H 0.9902195697 1.8741719447 -0.1457834865
H -0.4844182315 1.6892132856 -1.1134459221
H -0.5992216792 1.9562537043 0.6324490567
H 0.5622829597 -0.5369836212 -0.7311474136
H 1.7412505139 0.0156247029 1.4290854998
H 0.1766855849 0.0011365684 2.2636016342
H 0.8104440436 -1.4892302047 1.5455246574
H -3.1500409708 -0.5760502009 -1.3278881776
H -1.5813221004 -1.2395966416 -2.0267273435
H -1.8505044777 -3.7734666456 -0.7810330092
H -3.9056007310 -1.6290737751 1.0826055317
H -2.5089416701 -2.1174001479 2.1054288637