15

C -0.0211596116 1.4256875790 0.0524351159
O -0.0222958087 0.0046613065 -0.0038494588
C 0.5770796400 -0.6274647415 -1.0292611115
C 0.6328381329 -1.9733783634 -1.0975712718
C 1.2871682607 -2.5882990185 -2.2300694292
N 1.3927344532 -3.8541429001 -2.3822806647
N 1.8412521282 -1.7002420414 -3.2226555580
N 1.7728418516 -0.4548585777 -3.1287999060
N 1.1496679084 0.1062784622 -2.0428600742
H 0.9979731398 1.8293341440 0.0958379033
H -0.5642872380 1.8660943973 -0.7931759904
H -0.5412524737 1.6842292801 0.9746719033
H 0.1970192463 -2.5849334355 -0.3209283636
H 1.8930036023 -4.0388025176 -3.2538984908
H 1.1455812886 1.1102454966 -2.0750878735