23

C -0.1275786265 1.6624713780 -0.2995358471
C -0.0120669790 0.1589887228 -0.0770247121
C 1.0108177200 -0.5667823555 -0.9939826560
C 1.8368020181 -0.7440238533 0.2917275193
O 0.8173653774 -0.1185767898 1.0958413828
C -1.3771070528 -0.4991558751 0.0503463642
C -1.4719660896 -1.9955326866 0.4650136206
C -2.6932592839 -1.6323716607 1.3516481926
C -2.2487187213 -0.1474958940 1.2924106360
H 0.8628888546 2.1226504565 -0.3619193736
H -0.6671669467 1.8764040600 -1.2289705616
H -0.6687934860 2.1325732318 0.5273300992
H 0.6447103939 -1.4942311447 -1.4378308715
H 1.4617365662 0.0511957675 -1.7724925152
H 2.0267971160 -1.7784184532 0.6023530560
H 2.7819045613 -0.1873809535 0.3270866170
H -1.9371971902 -0.3219721966 -0.8761561476
H -1.6159028125 -2.7391155483 -0.3229267127
H -0.6110608556 -2.2792192112 1.0761791339
H -3.6387955131 -1.7933292018 0.8254260099
H -2.7598797446 -2.1016502255 2.3359157901
H -1.6116518033 0.1141097337 2.1419069249
H -3.0222906225 0.6155539397 1.1776337409