20

C -0.3106261192 1.5117991680 -0.0332352877
N 0.0834164999 0.1214593279 0.0108787226
C 1.0478561197 -0.4522810400 -0.9466524620
C 2.3992094435 0.3041645790 -1.0318419258
C 3.0466246718 -0.1451604009 0.2984198685
C 2.1568202947 0.3150644535 1.4761624881
C 0.8461608779 -0.4432120568 1.1402822851
C 1.4092841172 -1.5199639152 0.1461522599
O 2.8085776597 -1.5632934317 0.2815770140
H 0.5141845632 2.2417041363 0.0432373076
H -0.8376037732 1.7067581675 -0.9737613059
H -1.0076716692 1.7144264697 0.7873572971
H 0.6279516602 -0.7433268015 -1.9127790692
H 2.9938286025 -0.0585237998 -1.8754149428
H 2.2861484514 1.3869682223 -1.1266927997
H 4.1153783507 0.0429820744 0.4008934960
H 2.5785903051 -0.0398448428 2.4210855300
H 2.0285831936 1.3985498801 1.5382732283
H 0.2487716605 -0.7262765938 2.0105861061
H 0.9694432001 -2.5120754362 0.1079538399