19

C 0.0360685443 1.5208087384 -0.0006602313
C -0.0070553718 -0.0101810308 0.0388887094
N -1.3526794217 -0.5530575210 0.0159034663
C -2.0977953211 -0.8709403530 1.1183510818
C -3.3635594448 -1.2302769465 0.6940221284
N -4.5256638043 -1.6766138518 1.3949740493
C -3.3716388153 -1.1138057162 -0.7238242298
O -4.4455791501 -1.4015544674 -1.5022194699
C -2.1269971969 -0.6903690068 -1.1254232795
H 1.0726864393 1.8726213422 0.0166711667
H -0.4406057352 1.8999771741 -0.9089123437
H -0.4876912623 1.9456965906 0.8605594319
H 0.5425166451 -0.4250247973 -0.8133526899
H 0.4844946677 -0.3798476182 0.9444518569
H -1.6709517148 -0.8185361782 2.1081916172
H -4.8656084725 -0.9835189013 2.0536162375
H -4.3535209058 -2.5286324419 1.9185996101
H -5.1321089269 -1.6790903048 -0.8763017189
H -1.7247975429 -0.4880166501 -2.1037415324