20

O 0.0130192249 1.3374654564 0.1742365882
C -0.0465502950 -0.0815704767 0.1516726171
C -1.4493254741 -0.6043015423 -0.1677767491
C -1.5100250032 -2.1156868412 -0.2205165426
O -1.1138468440 -2.7604399796 1.0323878885
C -2.2824703145 -3.5985567453 1.0345293146
C -3.4527010127 -3.0389821561 1.8687239789
N -3.8524921737 -2.1693414010 0.7212175211
C -2.8760770869 -2.8378370982 -0.1747911186
H -0.5545398697 1.6391468601 0.8906634735
H 0.6610436957 -0.3921536911 -0.6256168354
H 0.3003209939 -0.5165829529 1.0998325828
H -2.1659190238 -0.2563679591 0.5847987311
H -1.7710795650 -0.2004054961 -1.1363169022
H -0.8800889037 -2.5039653791 -1.0355468110
H -2.0432046369 -4.6625129886 1.0953193062
H -4.1910499254 -3.8088003149 2.1271879224
H -3.1708840270 -2.4890209987 2.7721968353
H -4.8150638087 -2.2918822839 0.4336652325
H -3.2657690900 -3.2791093517 -1.0931192633