18

C 0.7070351500 1.5646028920 -0.0370537345
C 0.1182344303 0.1623232491 0.0416851099
C 0.7669470132 -0.8903098558 -0.9267922910
O 1.4748617074 -0.4542700306 -2.0438300677
C 1.6004999388 -1.4641789929 0.2538475141
O 2.8782731469 -0.8731513061 0.1939023803
C 0.6156339516 -0.7356784727 1.2353951019
C 1.2401674578 -0.1136044345 2.3853109126
N 1.8050375885 0.3649848620 3.2747792220
H 1.7930183821 1.5559428731 0.0831789063
H 0.4766452701 2.0065522394 -1.0103484022
H 0.2878741510 2.2075999473 0.7425335745
H -0.9717181048 0.2114960912 -0.0208607914
H 0.0202801529 -1.6128908360 -1.2692322080
H 2.3324609729 -0.1451120846 -1.7239240135
H 1.6666040167 -2.5531843456 0.3638545043
H 3.2691964001 -0.8547760758 1.0754795898
H -0.1671816055 -1.4202047498 1.5729921727