13

N 0.1706763127 1.4513508698 0.0783585831
C 0.0239603310 0.0687988023 -0.0055410092
C -1.0676221051 -0.7121144988 -0.0050006029
N -2.4130947127 -0.3723172647 -0.0001568954
O -0.6535039743 -2.0636811595 0.0171231330
C 0.7164193261 -2.1013085113 0.0224626931
O 1.3828876362 -3.1003717445 0.0596105406
N 1.1312872996 -0.7808461978 -0.0261694375
H 0.7010680993 1.8365139358 -0.6975979833
H -0.7433692512 1.8895545095 0.1025707492
H -2.8963057244 -0.6766457133 0.8403326257
H -2.9165793763 -0.7423757579 -0.8011473861
H 2.0832506090 -0.5143806096 0.1575173697