19

C -0.0031933814 1.6916704335 -0.0476719880
C 0.0075981066 0.1669787373 -0.0542263697
O -1.2994506634 -0.1644557789 -0.4350658002
C 1.2245562050 -0.6092992319 -0.6939898418
C 2.0671243484 -0.1777092439 0.5413410310
C 0.6955014186 -0.6195726946 1.1292260692
C 0.8341236501 -1.8658345124 0.1740379039
C -0.2771668420 -2.7382118907 -0.1534667496
C -1.1559270191 -3.5209722795 -0.4131635302
H -0.2812279328 2.0473228384 -1.0440324480
H -0.7748798554 2.0355710681 0.6473385890
H 0.9430175614 2.1521568059 0.2319907969
H -1.4094948881 -1.1229889204 -0.4740970343
H 1.5353971413 -0.6286218502 -1.7400334537
H 2.9113781853 -0.8265872931 0.7826461770
H 2.3482127923 0.8682818974 0.6287840321
H 0.3981795624 -0.6506493581 2.1789054431
H 1.6983797721 -2.4903337466 0.4213193079
H -1.9403243112 -4.1989595904 -0.6447569845