18

C -0.5088973245 -1.0504007615 -0.8209667957
C -0.2734693055 0.0346082942 -0.3615224790
C 0.0139365088 1.3427118802 0.2008904894
C -0.2431818827 1.4765693089 1.7224495490
C 0.5644169806 2.7254112601 2.1627740406
C 1.5178769375 3.0681007642 0.9849604446
C 1.4901023116 1.8290919157 0.0535037400
C 2.4494312596 0.8111791418 0.4870370227
N 3.2206272790 0.0296020911 0.8482421421
H -0.7092166072 -2.0125491459 -1.2234277635
H -0.5938390783 2.0932432910 -0.3221394228
H -1.3103625096 1.5533880945 1.9403743607
H 0.1276257806 0.5776926428 2.2221374365
H -0.0911746314 3.5720870556 2.3815556363
H 1.1259310604 2.5165940891 3.0761375212
H 1.1397785576 3.9242586270 0.4182882458
H 2.5302684534 3.3138829398 1.3095889770
H 1.7201818703 2.0859751215 -0.9842999149