21

C -0.0971675425 1.4509054767 -0.0092412618
C 0.1210918101 -0.0433444366 0.0727709248
C 1.4316794280 -0.7351434736 -0.1966032639
C 2.6541350457 0.0369824531 0.3407499021
C 2.0222000583 0.0230568031 1.7686302172
C 0.8080344373 -0.7488908337 1.2125512941
C 0.4290466005 -2.1884344694 1.4702852178
O 0.4128467828 -2.8107064849 0.1748935530
C 1.3779680229 -2.1675162288 -0.6738540187
H 0.7522702286 2.0231485387 0.3722465980
H -0.2629603166 1.7603657073 -1.0467883906
H -0.9787512357 1.7445895909 0.5706871016
H -0.7179494976 -0.6244282652 -0.3042283398
H 3.5716526723 -0.5535058817 0.2825185754
H 2.8492713817 1.0136050172 -0.1119534214
H 2.6003536022 -0.5749084398 2.4772075393
H 1.8113199765 0.9907320930 2.2333283566
H 1.1739180199 -2.6610075249 2.1318353519
H -0.5650056580 -2.3548827595 1.8984886890
H 1.0276250614 -2.3197736316 -1.7001485717
H 2.3718873220 -2.6346010502 -0.5750435427