17

O -0.2181416273 0.3946430203 -0.8681708101
C 0.0791971617 1.0308673111 0.1203082655
C 1.2615314447 1.8794083444 0.2199273537
C 2.6711902080 1.6276143676 -0.3389872541
C 1.8767649414 2.7945716328 -0.8510179159
C 2.2713794175 3.8851069933 0.1775929591
C 3.7832904248 3.7001296398 0.4569862209
C 3.3704584170 2.2705720545 0.8860247343
C 1.9347523026 2.7997366863 1.2728156559
H -0.5559299404 1.0001022871 1.0351735252
H 2.9687822905 0.7869782017 -0.9502073600
H 1.5370946806 2.8899861943 -1.8729474088
H 1.7864213722 4.8576988694 0.1164779089
H 4.4883175279 3.8165031978 -0.3715869413
H 4.1098525176 4.2982537506 1.3135164744
H 3.9786160677 1.6373800340 1.5295052006
H 1.6041112535 3.0187724550 2.2849669618