18

O 0.0424018245 1.4017860266 -0.2468942784
C 0.0188754613 0.0130700006 0.0579407334
C -1.4384271111 -0.4156735327 0.1077674683
N -2.0401634031 -0.2417016727 -1.2134503131
C -3.4331475755 -0.6302316550 -1.3009954013
C -4.4305524309 0.3124378632 -0.5830708341
O -4.1077258871 1.3501216547 -0.0734340292
C -3.8950884671 -0.7366493956 -2.6881318265
C -4.3238986291 -0.7661722949 -3.8103930226
H 0.9448256416 1.6515227982 -0.4631553549
H 0.5395153842 -0.5719134119 -0.7138362312
H 0.4942204516 -0.1916411613 1.0298781813
H -1.4821844864 -1.4787111421 0.3777839151
H -1.9490991856 0.1550555727 0.8984448494
H -1.9373996179 0.7317138701 -1.4844446929
H -3.5491868434 -1.6174630696 -0.8253611569
H -5.4860506547 -0.0400123113 -0.5949407433
H -4.6798660713 -0.8140662588 -4.8100012029