17

C 0.1682622464 1.5759801584 0.0045423857
C -0.0056962397 0.0518351155 -0.0058411431
O 0.6388725112 -0.4250629167 1.1702184257
C -1.4891055184 -0.3941566734 -0.0471939616
C -2.2727574681 0.0672393925 1.1975072862
C -3.5991337937 -0.5399442916 1.2590266901
N -4.6450378408 -1.0294891067 1.2949845502
C 0.6674147902 -0.5089101017 -1.2025690843
N 1.1865760883 -0.9757145212 -2.1232924814
H 1.2299228349 1.8262866855 -0.0306739961
H -0.3327920289 2.0302930098 -0.8532507768
H -0.2484344332 1.9864420738 0.9267985625
H 0.6934445394 -1.3871972434 1.1280448410
H -1.9610116449 -0.0154030336 -0.9586192580
H -1.5205034906 -1.4870315757 -0.1085425856
H -1.7133811832 -0.2000841557 2.0997373079
H -2.3922509091 1.1552617542 1.2052049976