14

O -0.0647567222 1.3482080568 0.0113412401
C 0.0263940337 -0.0082081074 0.0029815916
C 1.2104830094 -0.6807682297 -0.0079366505
N 1.2420021961 -2.0496064838 -0.0160952346
C 0.0850042234 -2.7818132582 -0.0134057705
C -1.1309689054 -2.1687745621 -0.0026339802
O -2.3106663543 -2.8444578968 0.0004369845
C -1.2669239808 -0.7056947621 0.0066761098
O -2.3454325359 -0.1279894208 0.0163849591
H 0.8187130581 1.7314980274 0.0081098333
H 2.1730575102 -0.1821062047 -0.0107794860
H 2.1273157623 -2.5238270276 -0.0238352734
H 0.2032189289 -3.8594024572 -0.0203565948
H -2.1402360734 -3.7922715038 -0.0061540884