19

N -0.2113755831 1.4407969166 0.1873973143
C -0.0542243014 0.0003323122 -0.0275117645
C -1.3853596018 -0.6302958612 -0.0102415816
N -2.4192651871 -1.1459429180 -0.0176203363
C 0.7444921198 -0.4222271879 -1.3020872945
C 0.8723177248 -1.9638790915 -1.4796623054
C -0.0388867336 -2.3403218159 -2.6796513114
C -0.3364053110 -1.0092081258 -3.3219382547
C 0.0917541660 0.0191734659 -2.5926730036
H 0.7064052875 1.8760804375 0.2054400592
H -0.7214025451 1.8542421818 -0.5876106675
H 0.4869915269 -0.3964164217 0.8416856313
H 1.7318050245 0.0416991327 -1.1725854686
H 1.9115873131 -2.2166935570 -1.7053423175
H 0.6026366669 -2.5074743647 -0.5697199592
H 0.4538721983 -3.0356135363 -3.3686944325
H -0.9666292158 -2.8279076165 -2.3567865601
H -0.8624100798 -0.9237655281 -4.2666360329
H -0.0257583790 1.0636560778 -2.8599672747