16

C -0.0036547321 1.5366890263 -0.0963695616
C -0.0302200759 0.0412699977 0.0610892126
O 1.2497482829 -0.6550820060 -0.0813458455
C 0.6169065858 -0.6548075394 1.1576371755
C 1.1746621432 -0.2363268729 2.5306410163
N -0.1522832744 -0.7790015472 3.0719186923
C 0.2475020170 -1.8516128934 2.0522387808
C 1.6750420607 -1.7068838752 2.6575203603
O 2.5413726612 -2.3508975371 3.1558365669
H 0.8471429332 1.9703646507 0.4345430136
H 0.0715607375 1.8102545581 -1.1535345365
H -0.9256136798 1.9727669281 0.3020976474
H -0.8461550457 -0.4743985152 -0.4458012031
H 1.5976337155 0.7080538907 2.8641258236
H -0.0200907207 -1.1361884560 4.0221935066
H -0.3731825185 -2.7196810593 1.8442565509