17

O 0.0124851873 1.4228372486 -0.1555206167
C 0.0737525372 0.0361741676 0.1023010947
C -1.3203130235 -0.5780441976 0.1226778402
O -1.9667901918 -0.2823343965 -1.1524684373
C -2.2819772853 -1.5570936913 -1.6482642614
C -2.7588094698 -2.5021426498 -0.5058462711
O -2.1569738350 -3.6556411638 -1.1768346176
C -1.1618717865 -2.5923505585 -1.3311855678
C -1.3937155063 -2.0965228924 0.1339018387
H -0.5216462897 1.5206019375 -0.9531706077
H 0.6924745575 -0.4886839530 -0.6444075720
H 0.5528820474 -0.0887336025 1.0796062633
H -1.9135801862 -0.1130577261 0.9197376430
H -2.7787017910 -1.5238540748 -2.6151286625
H -3.7368291347 -2.6223784264 -0.0412771593
H -0.2357121355 -2.8259916193 -1.8546078322
H -0.9960989641 -2.6659072217 0.9716032957