16

C 0.1391768338 1.4547529587 -0.2374877115
O 1.4888966317 1.3656919761 0.3152955020
C 1.1512927479 0.1563169413 1.0572004920
C 1.5236125315 -1.2241200249 0.5124626294
C 0.3228185950 -2.1414855203 0.8893085767
C -0.2055606700 -2.0638624834 -0.5092070044
C -0.8964773843 -1.2161665581 0.5034454919
C -0.0584628750 -0.0036008754 0.1407596582
N 0.7696845405 -0.9357524743 -0.7943871373
H -0.4710510327 2.1768727467 0.3207112097
H 0.1428055125 1.6876879033 -1.3054173184
H 1.1142182820 0.3265722793 2.1369051046
H 2.5241739941 -1.6568640886 0.4723383600
H 0.2346643956 -2.9267982677 1.6297144097
H -0.5421852935 -2.8007901620 -1.2275412839
H -1.8610169290 -1.3224054609 0.9812526713