18

N -0.0530763021 1.3667367554 0.0352693854
C 0.0226295070 -0.0251118744 0.0058618096
O 1.0899333343 -0.6149366658 -0.0244436833
N -1.1862629434 -0.6727589758 -0.0213134208
C -2.4859347749 -0.0355100392 -0.2339757796
C -3.3271056880 -1.1276931637 -0.8644883642
N -2.7220666281 -1.6585364956 -2.1006435777
C -2.5559749814 -2.3930166048 -0.8302566487
C -1.2195436417 -2.1303020623 -0.1709478338
H 0.8419339349 1.7766292078 0.2572109574
H -0.8252462353 1.7897880890 0.5274044360
H -2.9492358454 0.2929954009 0.7098394790
H -2.3815343512 0.8339711435 -0.8916680490
H -4.4058702525 -1.0950584313 -0.7587227420
H -3.4425421249 -2.1108282376 -2.6584132880
H -3.0342115376 -3.3574324248 -0.7001019103
H -0.3636164285 -2.4530105831 -0.7676270770
H -1.1687008612 -2.6383971283 0.8020347668