20

C -0.1321557371 1.5290004332 0.0287459088
C 0.0697683921 0.0205907890 -0.0024396097
C 1.0144665750 -0.5590146814 -1.0959200924
C 2.3992693288 -0.0602603264 -0.5962611858
C 2.1836646812 -0.0488692880 0.9547235420
N 0.7971449637 -0.5396936135 1.1770941884
C 0.7915867788 -1.9815726115 0.8436617972
C 0.9686746601 -2.0317135246 -0.6944828969
O 1.0520704626 -3.0104014947 -1.3876978146
H 0.8059052042 2.0876637226 -0.0164032785
H -0.7446092703 1.8416076322 -0.8224479671
H -0.6521411526 1.8142960015 0.9479825871
H -0.9162147567 -0.4563827152 -0.0449261846
H 0.7952278754 -0.3737437947 -2.1462249629
H 3.2106996624 -0.7217796864 -0.9090189575
H 2.6201203215 0.9349258413 -0.9909934249
H 2.8891617264 -0.6874531455 1.4905123908
H 2.2787951417 0.9583235598 1.3661912211
H 1.5767686622 -2.5333572445 1.3665346995
H -0.1703970892 -2.4295468933 1.1184640800