17

C -0.6880214972 1.8292499402 -0.7900651591
N -0.8777636563 0.4085590044 -0.5753434921
C 0.0481631791 -0.4449275760 -0.7309868033
N -0.2934045086 -1.7956750961 -0.5408126139
C 0.6047438779 -2.7968049665 -0.2357821136
C -0.0292741512 -4.1386961697 0.0732670485
O 1.8055265535 -2.6036324788 -0.2266424836
C 1.4609380196 -0.1841939247 -1.2249803251
O 2.0948499293 0.7853774515 -0.8944833625
H -0.6504639559 2.3262968281 0.1867552421
H 0.2176928238 2.1043750384 -1.3374564171
H -1.5695929152 2.2183099116 -1.3100676355
H -1.2811595108 -1.9490236551 -0.3887925830
H -0.6824528887 -4.4624200746 -0.7430051747
H 0.7608307673 -4.8731017899 0.2234955201
H -0.6375976578 -4.0738077100 0.9818598316
H 1.8281588112 -0.9054026127 -1.9769711189