21

O 0.1780618140 1.3479699462 -0.2065305082
C 0.0081313650 -0.0326284498 0.0213259364
C 0.5025889184 -0.5890011538 1.3863101975
C -0.1522600835 0.2387069580 2.5205689841
C -1.6962773511 0.1624432827 2.4740836901
C -2.2760666040 0.2562972701 1.0433487142
C -1.4497275631 -0.5728272009 0.0283676838
C -1.1863413536 -1.9760948560 0.5450968422
C -0.0891189729 -1.9851852497 1.3082703170
H -0.2908289259 1.8408863546 0.4733175765
H 0.5640389302 -0.5216237492 -0.7837288428
H 1.5921487539 -0.5694995309 1.4818848088
H 0.2030035708 -0.1032770613 3.4987063032
H 0.1885961780 1.2795666351 2.4287320671
H -2.0058857113 -0.7927915107 2.9078328420
H -2.1306517758 0.9431201950 3.1078805224
H -3.3204494205 -0.0740987993 1.0479544227
H -2.2969247225 1.3001550592 0.6999330635
H -1.9180963289 -0.5404213650 -0.9596788843
H -1.8323374253 -2.8232018794 0.3441514198
H 0.3145056281 -2.8409889447 1.8373900541