16

C -0.0677980289 0.7401500335 1.2185710092
C -0.3877275002 -0.1500663882 0.0471013395
O -0.7268905487 0.2098603417 -1.0506969790
O -0.2438898168 -1.4583337601 0.3896847666
C -0.4853101241 -2.4098729493 -0.6471037673
C -1.9895252175 -2.6382809563 -0.8982478478
O -2.1844880107 -3.6173804095 -1.8973947387
C -2.6927471044 -2.9824348604 0.3529193462
N -3.2342373104 -3.2928934891 1.3252399974
H 0.9591012542 0.5652363680 1.5514040494
H -0.1951449670 1.7818934583 0.9279479612
H -0.7265664323 0.4999334702 2.0577525155
H -0.0371726615 -2.0807435822 -1.5867467863
H -0.0162310106 -3.3370052641 -0.3087930120
H -2.4148335715 -1.7113010386 -1.2919740761
H -1.9556560298 -4.4807806738 -1.5335739778