19

C 0.0283977674 1.4915993798 -0.0691719514
C 0.0047620521 -0.0150672499 -0.0497179239
C 0.5068717173 -0.9416597828 -1.1798541558
O 1.8564179570 -0.8925231564 -1.5690657016
C 0.0412707649 -1.9272913899 -0.0985470314
C 0.5481009256 -1.0041641352 1.0691827200
C -0.8275804107 -1.1016746372 1.7648270894
O -1.2623461844 -0.1272477230 2.6749014304
C -1.1808225154 -1.0128521497 0.2662371080
H 1.0314895317 1.8431966033 -0.3357494942
H -0.6679772169 1.8842773959 -0.8182949209
H -0.2260969563 1.9463239604 0.8946625867
H -0.0750427896 -0.9275729647 -2.1075711245
H 2.4019810308 -0.9666127359 -0.7780690670
H 0.0399613969 -3.0176393513 -0.0943037574
H 1.5420831790 -1.0029171037 1.5223120873
H -1.0375607970 -2.0656082838 2.2393235776
H -1.1844558902 0.7381234860 2.2624897140
H -2.1557306521 -1.0274985719 -0.2244885351