18

C 0.0189188025 1.5504200551 -0.0535582601
C 0.0301572525 0.0184386904 -0.0022103042
C -1.4172799226 -0.5250585490 0.0719891865
C 0.7588708249 -0.5646535810 -1.2331127473
N 1.0546225273 -1.9873068484 -1.1323873918
C 1.2367291713 -2.4439571717 0.0245101292
O 1.2129752803 -1.7569079247 1.2192984183
C 0.7540150704 -0.4494262613 1.2539139893
O 0.9132077256 0.1788269365 2.2569451270
H 1.0354176759 1.9541606626 -0.0669807979
H -0.4980622822 1.8888362215 -0.9572947536
H -0.4930598297 1.9659918267 0.8165178340
H -1.9798252663 -0.1757375463 -0.7996136296
H -1.4477629462 -1.6176816464 0.0753822600
H -1.9206662111 -0.1625635875 0.9725325255
H 0.1486276029 -0.3980908190 -2.1272756390
H 1.7053981407 -0.0313510585 -1.4010441361
H 1.4750319737 -3.4878645888 0.2089305298