20

C -0.4239347394 1.5722946956 -0.0441006496
O -0.3454844713 0.3145324691 0.5889066094
C -1.2112137407 -0.6379027910 0.0404489750
C -0.8154159855 -1.2760056440 -1.3350684923
C -0.9804380385 -2.6245620708 -0.6667236564
N -1.0739836670 -3.8268556566 -1.0513323419
O -0.9237083715 -3.9230925415 -2.4493706932
C -1.1146025638 -2.0415150699 0.7289707609
C 0.0965434395 -2.2515912108 1.6410513626
H 0.2690649858 2.2399072967 0.4730842639
H -0.1384574564 1.5180645112 -1.1052704649
H -1.4396549556 1.9934667049 0.0178835294
H -2.2429357835 -0.2560132612 0.0248258704
H -1.4530880713 -1.0831976271 -2.2009722152
H 0.2244687576 -1.0628548149 -1.6063296041
H -1.0310488163 -4.8685578083 -2.5984916620
H -2.0286368580 -2.3385860930 1.2522454999
H 1.0268370320 -1.9669113216 1.1432415372
H 0.0046850549 -1.6462569324 2.5468070687
H 0.1663959889 -3.3049355244 1.9262816523