21

C 0.1902767591 1.5577805595 0.0527202931
C 0.0736191242 0.0461785831 -0.0250048003
C 0.7782387873 -0.6083585489 -1.2661433932
C 1.5619871371 -1.7091847243 -0.6199679856
C 2.6714988230 -2.4109069297 -0.8284209623
C 3.0807373385 -3.1557078372 0.4319470661
C 2.2759871727 -2.4208863060 1.5474847189
C 1.0689056605 -1.8468029380 0.7975510209
O 0.6835262202 -0.5204240737 1.1438120003
H 1.2426572959 1.8587536391 0.0486776443
H -0.3116088084 2.0264754177 -0.7997676878
H -0.2706188864 1.9308248465 0.9716735301
H -0.9910143365 -0.2394710880 -0.0383559520
H 0.0376542922 -0.9660655882 -1.9899381841
H 1.4246971704 0.1052344691 -1.7870532313
H 3.2523896163 -2.4420114335 -1.7438668563
H 2.8140530512 -4.2209553513 0.3827645074
H 4.1621558199 -3.1204567254 0.6046314627
H 2.0102782464 -3.0682654350 2.3866585168
H 2.8614153580 -1.5805910975 1.9334597565
H 0.1903080584 -2.5147506281 0.8677361260