15

C -0.0871358357 1.3113357492 -0.1448027725
C -0.0657913862 -0.2009733686 -0.0238540410
O 0.8782750257 -0.8899909733 -0.3255588948
N -1.2207360866 -0.7378567411 0.5574593699
C -2.5872456812 -0.5495449639 0.1419195094
C -1.9364717670 -1.9189998249 0.1101393930
C -1.6433449212 -2.5329611938 -1.1565507682
C -1.4261249755 -3.0701131790 -2.2090990369
H 0.9307439378 1.6693403673 -0.2981822849
H -0.6968596928 1.6080665926 -1.0057710865
H -0.5229332724 1.7746385499 0.7442821107
H -3.3057995856 -0.3171430900 0.9240622928
H -2.7770585757 -0.0835071524 -0.8220112862
H -2.1877738243 -2.6127590316 0.9095229081
H -1.2121163293 -3.5413618405 -3.1364870028