16

C -0.0654752392 -1.2151578333 -0.2706386815
C -0.0257252138 -0.0243681706 -0.1068432146
C 0.0240791690 1.4079823153 0.1101357068
C -0.2412508533 1.9528112722 1.5477293043
C 1.1730759308 2.5392991347 1.5022329813
C 2.1598693865 1.4783754912 1.1824614483
N 1.4060737461 2.0465999766 0.0568278330
C 1.5273681070 3.8413464145 1.9581746491
C 1.7976675162 4.9376597077 2.3738350441
H -0.1043684250 -2.2646553560 -0.4293743749
H -0.5960556064 1.9187228271 -0.6302352447
H -1.0209459179 2.7142403655 1.5629116039
H -0.4304171643 1.2192339338 2.3341773669
H 3.2044795738 1.7705946702 1.1696947559
H 1.9686033797 0.4520505248 1.4873341265
H 2.0453760509 5.9064554263 2.7311355556