17

C 0.1855195047 1.4123577033 -0.2941791409
C -0.0550107721 -0.0527400777 0.0116236658
C -1.5187759835 -0.4514266302 -0.0197201223
O 0.7183007537 -0.8989759396 -0.9353716037
C 1.5148339879 -1.4032696314 0.0453884695
O 2.4257259059 -2.1570321702 -0.0570928495
C 0.7792864159 -0.6640840258 1.1887816465
C 1.5542634844 0.1907942548 2.0559122087
C 2.2013657407 0.9053636119 2.7733548910
H 1.2519501041 1.6466798902 -0.2817450545
H -0.2174825134 1.6582159430 -1.2808002604
H -0.3110221434 2.0408920696 0.4509105354
H -1.9565518370 -0.2174020359 -0.9945286450
H -1.6377307644 -1.5233679439 0.1610782146
H -2.0763493946 0.0959980117 0.7467746544
H 0.1889410873 -1.3776287485 1.7741509149
H 2.7796433638 1.5311368587 3.4073152155