19

O -0.1912501969 0.3881168701 0.8950594043
C 0.2783208979 0.7259703202 -0.1626291319
C 1.4358507419 1.6552683632 -0.2916572692
N 2.1652368519 1.5962140962 -1.5769599968
C 1.4376620048 2.8148806166 -1.2496157932
C 0.2653162320 3.1934445906 -2.1261202047
N 0.7311061462 4.0376622037 -3.2198696835
C 1.1636947744 3.3388158217 -4.4290377444
C -0.1230870695 4.0865513309 -4.4020672393
H -0.1186426025 0.3523621543 -1.1312491752
H 1.9895778974 1.7950512319 0.6336537145
H 3.1630037037 1.7027063799 -1.4178820703
H 2.0183001890 3.6744000549 -0.9181225215
H -0.2444712243 2.2835406782 -2.4841757231
H -0.4582135748 3.7704211017 -1.5370943639
H 2.0320474847 3.7580682081 -4.9288724655
H 1.1153384122 2.2522621363 -4.4305742981
H -1.0400373266 3.4992951943 -4.3930827862
H -0.2101232116 5.0573672470 -4.8811808221