20

C 0.0008872172 1.4386080219 -0.0022482827
C 0.0327506115 -0.0698965142 0.0227655041
C -0.3144825779 -0.7919804478 -1.2823864671
C -0.0586702180 -2.2826662344 -1.1463038067
N -0.7666737265 -2.2775782337 0.1945537526
C 0.2325103681 -2.1091159450 1.2651406935
C 0.9919417169 -0.7819556085 0.9690550676
O 2.2562046940 -0.9542341031 0.3290089915
C -1.2294014571 -0.8818141310 -0.0844132296
H 0.9616608281 1.8424303230 -0.3389032792
H -0.7729246030 1.8102940009 -0.6819141958
H -0.2048870811 1.8486950058 0.9933066608
H -0.4457220467 -0.2303029498 -2.2001533312
H -0.6300886361 -2.8804115515 -1.8628362295
H 0.9800843002 -2.6216091800 -1.1179421631
H -0.2988115176 -2.0329178295 2.2210708364
H 0.9047412247 -2.9720743032 1.3115884794
H 1.1235906994 -0.1888097657 1.8873539137
H 2.8704540908 -1.3110993533 0.9781418863
H -2.2428717369 -0.5494304508 0.1062107789