21

C -0.1863780226 1.3656614848 0.0738840810
O -0.1140627339 -0.0374891779 -0.0067486471
C 0.6734808764 -0.4861022538 -1.0867796311
C 0.6979884195 -2.0108087555 -1.0430063377
C 1.3757538171 -2.6589743894 -2.2698468211
C 2.8870560298 -2.3320961941 -2.3687425385
O 3.5000813524 -2.9385905300 -3.4834670154
C 1.2072114916 -4.1117687775 -2.2525322597
C 1.1249337706 -5.3121226695 -2.2321338425
H 0.8076610386 1.8195144080 0.2145121881
H -0.6374919430 1.8053103165 -0.8300657399
H -0.8116104278 1.6120933837 0.9353912582
H 0.2489544004 -0.1371227367 -2.0454992873
H 1.6895838246 -0.0637283585 -1.0139622226
H 1.1987475979 -2.3417145860 -0.1265042729
H -0.3363015750 -2.3620331419 -0.9790567550
H 0.9022986524 -2.2739730661 -3.1838301419
H 3.0221009221 -1.2546069966 -2.4978021265
H 3.3729618591 -2.6222126433 -1.4229733716
H 3.3268444064 -3.8860053697 -3.4199222749
H 1.0193289534 -6.3688815366 -2.2151679217