14

N -0.0536441025 1.3670543309 -0.0674815025
C 0.0724310578 0.0297148318 0.0703916195
O 1.1138237350 -0.5616117384 0.2783453726
C -1.2603717149 -0.7365982031 -0.0183948734
O -2.2709651266 0.0595108998 -0.5844044113
C -1.0761762716 -2.1918051566 -0.5075908599
O -1.3489168168 -2.6881973161 0.8509224015
C -1.6245463181 -1.4427901824 1.3152526897
O -2.0733058196 -1.1104206815 2.3643012359
H 0.7722483261 1.9398733083 -0.0208903211
H -0.9455425575 1.7669834874 -0.3032809746
H -3.0877436553 -0.0666370293 -0.0889161686
H -1.8446285829 -2.5321729615 -1.2029334736
H -0.0687279332 -2.4606850292 -0.8181388141