11

F -0.0067421118 0.0524078646 0.0035421608
C -0.0217022898 1.3729891887 0.0107398477
N -1.1913370066 1.9577990039 0.0296462322
C -1.1676357647 3.3007089310 0.0364061342
C 0.0308545278 4.0174390488 0.0239731182
N 1.2113176781 3.3934953537 0.0047024305
C 1.1952527295 2.0670360587 -0.0020795056
C -2.4252586674 3.9952913177 0.0570900671
N -3.4159746227 4.5914760615 0.0736422397
H 0.0316509650 5.1021060818 0.0296865197
H 2.1403555227 1.5333766796 -0.0176970544