15

O -0.6372395697 0.2114703355 1.1991892007
C -0.0013838564 1.0254360526 0.5796241610
C 1.4112735617 1.4604876017 0.9037523818
C 2.3993844225 0.9782868996 -0.1473891476
C 2.6498342890 1.7753755150 -1.4055619746
C 3.7085013965 1.7041332065 -0.3368056098
C -0.6018079449 1.6682851887 -0.6150963307
N -1.0817054856 2.1885213620 -1.5297076440
H 1.4378069051 2.5561931809 0.9560884596
H 1.6519897984 1.0569588163 1.8915943880
H 2.4338217779 -0.1027040152 -0.2490600120
H 2.8067744310 1.2305054004 -2.3291306831
H 2.1151297196 2.7101150190 -1.5320170572
H 3.8863404307 2.5903827674 0.2633412435
H 4.5951623741 1.1088439997 -0.5222980457