17

C -0.0873952700 1.4211741057 -0.0195936562
N -0.0941608496 -0.0277003055 -0.0098676222
C 0.5353340275 -0.6161880060 -0.9379432834
N 0.5728372844 -2.0098332737 -0.9935840612
C -0.1352133093 -2.7473860237 0.0499463505
C 1.2676956505 -2.6252308794 -2.0178805243
N 1.8865214675 -1.9731339433 -2.9293957534
C 1.2607306660 -4.0796451609 -2.0084744629
N 1.3133880102 -5.2325089153 -2.0867755804
H 0.4794312311 1.8591764830 -0.8555273612
H -1.1182618443 1.7904432311 -0.0665121190
H 0.3378467779 1.7902608058 0.9207245858
H 1.0852337556 -0.1350462492 -1.7485116175
H -1.1946026434 -2.4803805650 0.0391463661
H -0.0241625594 -3.8179299378 -0.1143113746
H 0.2666766587 -2.4808560286 1.0303318039
H 2.3348494165 -2.6011145073 -3.5905363199