14

N -0.0821224102 0.9406292062 -0.6952692955
C -0.0089462245 -0.1182337422 -0.0309246271
O 1.1317934364 -0.7667884168 0.3830582470
C 0.7730481950 -1.9278282946 1.0847726832
C -0.7145901077 -1.9477078125 1.0846518610
O -1.1134330772 -0.7989047909 0.3894101740
C 0.0445094048 -3.0147255985 0.2898325447
C 0.0476925830 -3.0390651099 -1.1388629338
C 0.0502623490 -3.0498376291 -2.3405864174
H 0.8476577031 1.2905615488 -0.9108409306
H 1.4311381582 -2.1619083540 1.9110900865
H -1.3650215359 -2.2044641552 1.9100613495
H 0.0561724206 -3.9821733330 0.7867996046
H 0.0476513853 -3.0543490682 -3.4024798362