16

O 0.2685933827 1.2007774442 -0.3793553466
C 0.0502893280 -0.1186162125 0.0709838384
C 0.4061361645 -0.1593016930 1.5773181274
O -0.5070385457 -1.0440432109 2.2167556973
C -1.6756345666 -1.0963379887 1.4614046185
C -2.3367107311 0.1645737544 1.0051383042
C -1.4096129417 -0.5913473548 0.0486479960
C -1.9196110192 -1.2228907507 -1.1270683006
N -2.3168954596 -1.7242505448 -2.0923683276
H 0.1492710067 1.2220447118 -1.3346524800
H 0.6554711927 -0.8346401506 -0.4997063672
H 1.4165918939 -0.5242350192 1.7708581060
H 0.3215321351 0.8617190444 1.9707763795
H -2.2602396555 -1.9866101926 1.6579705214
H -3.3975016190 0.1142974977 0.7896524530
H -1.9834968752 1.1256282653 1.3605598804