17

C -0.2478987691 0.9740018652 0.3355253502
C 0.9587759472 1.1927902573 -0.5954027760
C 1.7569349993 0.4421643517 0.5067506844
O 0.5386818107 0.1722587977 1.2436480041
C 2.4786841528 -0.8075282888 0.1438641324
C 2.0264120294 -2.0964823599 0.2559698778
N 3.0565017056 -2.8815090481 -0.2157177621
C 4.0662605257 -2.0450466735 -0.5867152057
N 3.7537727612 -0.7868392127 -0.3811416003
H -0.6289995167 1.8808516412 0.8226064034
H -1.0944893991 0.4123745892 -0.0760942126
H 0.9092773048 0.6538353349 -1.5421540970
H 1.2532481434 2.2267310558 -0.7778317113
H 2.4266328209 1.1062274647 1.0698272330
H 1.1062408666 -2.5067740581 0.6327719084
H 3.0653440867 -3.8864778094 -0.2589704766
H 4.9976822005 -2.4097866271 -0.9937504420