15

O 0.1981960195 1.2770273961 0.3732293723
C 0.0136999008 -0.0684424487 0.0466175097
C -1.4672641871 -0.4096199063 -0.0819835935
O -1.6103798585 -1.7920993446 -0.4472093901
C -0.9167117529 -2.2545240839 -1.5142138412
N -1.1708998429 -3.3326531986 -2.1220369169
N 0.1618622868 -1.4682273716 -1.9371903465
C 0.6833523435 -0.3832463936 -1.2858290394
O 1.5864961480 0.2992421684 -1.7250269383
H 0.9351608602 1.5786869867 -0.1818361797
H 0.4567751141 -0.7365300966 0.8059421227
H -1.9912019992 -0.2981294011 0.8675908961
H -1.9430252409 0.2359261853 -0.8299304362
H -2.0042361881 -3.7698952670 -1.7342082908
H 0.6049375166 -1.7705484045 -2.7945204781