20

C -0.0392686162 1.5108372589 -0.5259243093
C 0.0222989257 0.1227681853 0.1241221426
C -1.3513335669 -0.5116823349 0.2241304143
C -1.8961354407 -1.3705033659 -0.8840470731
O -1.0298734084 -1.6255408822 -1.9503191863
C -1.5860700338 -1.9967708073 0.4608590106
C -0.4338656266 -2.9884703542 0.5687943945
C -0.6981773694 -4.1971504190 -0.2172876424
N -0.9353161078 -5.1225174881 -0.8687781881
H 0.9550444253 1.9645886277 -0.5779162365
H -0.4343639337 1.4428799096 -1.5439939440
H -0.6863406200 2.1883585372 0.0420781149
H 0.6855178299 -0.5114091188 -0.4699964256
H 0.4625457534 0.2018988448 1.1264508822
H -2.0875722644 0.1286124726 0.7049327723
H -2.9431123439 -1.2562575382 -1.1619999277
H -1.1992627524 -2.5200059753 -2.2693174808
H -2.4411568117 -2.2592585513 1.0763440818
H 0.5020678930 -2.5559464864 0.2078506397
H -0.2685577113 -3.2743069944 1.6129705710