20

C -0.0582447627 1.5271110124 -0.0018173914
C -0.0245688098 -0.0024803461 -0.0304707562
C 0.7530330493 -0.5339421364 -1.2393039298
N 0.7939669296 -1.9861140879 -1.2836374119
N 1.7608575843 -2.6845764125 -0.7017673518
C 1.3891813356 -3.9512198282 -0.8941123890
C 0.1733926866 -3.9728001164 -1.5997806083
C -0.6534671300 -5.1252503123 -2.0703151090
N -0.1836809611 -2.7044886985 -1.8298121140
H 0.9518554988 1.9475521305 0.0550296419
H -0.5369299846 1.9327631802 -0.8999669711
H -0.6178302493 1.8898397765 0.8649545021
H 0.4411464105 -0.3899328849 0.8825595763
H -1.0427684245 -0.4053724708 -0.0656974455
H 0.2937568315 -0.1990723893 -2.1729386572
H 1.7904933794 -0.1919028402 -1.2156484415
H 1.9968052983 -4.7674150506 -0.5356277255
H -0.9612369453 -5.7644748203 -1.2360292455
H -1.5518643353 -4.7590178541 -2.5712022155
H -0.1004497312 -5.7549403411 -2.7755537870