11

O 0.0316948683 -0.0020979968 0.0030834236
C -0.0206036227 1.1884098571 0.0095519582
N -1.1699562383 2.0020309303 0.0295208326
C -0.7530228131 3.3137315269 0.0313537967
C 0.6088744929 3.3102785166 0.0125547431
O 1.0947093889 2.0299503782 -0.0011189178
N 1.1029430168 4.5527841851 0.0121912694
N 0.0764473358 5.3718438771 0.0304611493
N -1.0815800419 4.6128855133 0.0424763018
H -2.0931502787 1.6054571353 0.0419997676
H -1.9710440478 5.0828280368 0.0573721055