20

C -0.0121878168 1.5597249664 0.0176073377
C 0.0729845516 0.0349990376 0.0006289249
C 0.9084330749 -0.5542016058 -1.1695150813
C 1.5143345194 -1.7961268992 -0.5782610234
C 1.4064666597 -1.8286054887 0.7541145081
C 0.6990467551 -0.5922432435 1.2776719633
C 1.9715981715 -2.9353992282 1.5742755215
N 1.8442920372 -2.7782902529 2.9313891053
O 2.4922112831 -3.9245931833 1.0873883688
H 0.9844681877 2.0075304766 0.1072918548
H -0.4667975815 1.9421599440 -0.9024450405
H -0.6155701193 1.9175154697 0.8587683997
H -0.9418391075 -0.3706373899 -0.0916865558
H 0.3038165765 -0.7514738537 -2.0620359183
H 1.7008411350 0.1412108576 -1.4872311450
H 2.0157709997 -2.5657721631 -1.1528304456
H 1.4162749531 0.1005326827 1.7451550181
H -0.0612658027 -0.8147812595 2.0356971794
H 1.5799593093 -1.8990687471 3.3399583387
H 2.3146745140 -3.4508206598 3.5151121396