20

C 0.5440203448 1.6279301119 0.0332198371
C -0.1004562433 0.2331436374 -0.0895132418
C 0.4253495389 -0.4904996754 -1.3410515353
N -0.0777155397 -1.8329060544 -1.5734014246
C 0.6221158906 -2.9012747088 -0.8923864294
C 0.6887339541 -2.9447666656 0.6424031091
O 1.0366014144 -3.9831818342 1.1743334235
C 0.3497963004 -1.7827486815 1.4997811216
C 0.0279480090 -0.5135376500 1.2099094697
H 1.6215156097 1.5449221592 0.2112106291
H 0.3964787372 2.2025354110 -0.8864395017
H 0.1103049459 2.1983908891 0.8599489557
H -1.1826771487 0.3951407125 -0.2362168878
H 0.1868337518 0.1374453911 -2.2100857384
H 1.5205457991 -0.5476391734 -1.2946799978
H -1.0773249576 -1.8844628235 -1.4143719623
H 0.2047819373 -3.8655037581 -1.2004443611
H 1.6657958304 -2.9106971489 -1.2374907617
H 0.3835357373 -2.0664063008 2.5493246813
H -0.1915250716 0.1166436724 2.0730637749