15

O -0.0406078231 1.4656918111 -0.0987078467
C 0.0486662730 0.0677773964 -0.0441296703
C 0.0520757097 -0.6096153506 1.3421609583
C -1.4832538574 -0.3417404723 1.5480128724
N -1.8528033262 -1.7664762204 1.8185031102
C -0.7523997472 -1.8436509030 0.8057991529
C -1.3256902342 -0.6200855091 0.0077111320
C -2.3626302785 -0.6411105021 -0.9861733540
N -3.1777897009 -0.6483409297 -1.8060909691
H 0.8481620202 1.8328371042 -0.1255527943
H 0.7488340594 -0.3375973779 -0.7859253058
H 0.8194129560 -0.6215536226 2.1156396215
H -1.9754976460 0.5121258522 2.0081255272
H -1.5045235266 -2.0515691229 2.7379001079
H -0.3798465681 -2.7761419234 0.3832685278