19

C -0.5078425806 1.6586932057 -0.0771079242
C 0.0917823147 0.2529900020 0.0230670243
C 1.3707893839 -0.0182531965 -0.8607534324
C 2.0324615694 -0.6269397409 0.3733820460
C 2.7540165721 -1.8925747380 0.4969535652
O 3.4217651217 -0.6264099429 0.6286476895
C 0.9737876017 -0.0336289266 1.2999757590
C -0.9271412841 -0.7691049088 -0.1714204604
C -1.7729967604 -1.6089484390 -0.3327706317
H 0.2689414396 2.4154446550 0.0710054037
H -0.9627094370 1.8183312857 -1.0594175486
H -1.2825831310 1.8059420220 0.6814538621
H 1.2391132519 -0.6515598448 -1.7393412037
H 1.8526596704 0.9194168663 -1.1537387120
H 2.6741473044 -2.4746045886 1.4141927119
H 3.0068654743 -2.4617214386 -0.3966935622
H 1.3176860636 0.8986916192 1.7579906859
H 0.5400114369 -0.6786329731 2.0655729793
H -2.5204519815 -2.3495165681 -0.4754597017