16

C 0.0989895867 1.3278482082 0.7432755108
C -0.1141565401 -0.0339096779 0.1146868886
C -1.3656414278 -0.3930780222 -0.5611920674
O -0.2029215033 -0.0404527608 -1.3182510949
C 1.4267855045 1.9123249912 0.3732490924
N 2.3011748995 2.4918449089 1.1792368818
C 3.3034439042 2.8533692280 0.3291761313
N 3.1112595740 2.5353625013 -0.9400716223
N 1.8986754226 1.9354556388 -0.8922271814
H -0.7053193901 2.0013402410 0.4228189101
H 0.0520095523 1.2580096338 1.8332253904
H 0.5043571496 -0.8370457863 0.5154281769
H -1.6639083732 -1.4371262930 -0.6332649274
H -2.1807707306 0.3281481690 -0.5943155778
H 4.1980196463 3.3617023863 0.6563950816
H 1.4727173754 1.5425704538 -1.7177315927