18

C -0.0889358793 1.4801336668 -0.0109377376
N 0.0171574612 0.0369288828 0.0100620106
C 0.1771306296 -0.7890662445 -1.0467809035
O 0.2536456521 -0.2707601654 -2.2885054737
N 0.2425252421 -2.0550600091 -0.7306635148
C 0.1158093536 -2.0791038803 0.6523666342
C 0.1408727353 -3.3613525177 1.4157465444
C -0.0245972453 -0.8068659964 1.1389396431
N -0.1855530269 -0.2454324155 2.4216043915
H 0.8107892721 1.9324204625 -0.4390133036
H -0.9528530771 1.8005396696 -0.6011341356
H -0.2087149783 1.8133794954 1.0205764297
H 0.3651781559 -1.0246785069 -2.8813711534
H 1.0825270053 -3.9001819078 1.2601798393
H 0.0275153490 -3.1779512573 2.4883854947
H -0.6663727193 -4.0310091949 1.0977184676
H -1.0325921793 -0.5557212242 2.8836043656
H 0.5978820493 -0.4359837271 3.0356753013