15

C 0.1244346217 1.3757485924 0.1420477421
C -0.0052475793 -0.1428036134 0.0511100137
O -1.3451550485 -0.6185465561 0.0403903874
C -2.0042980144 -0.5266362800 1.2804158479
C -3.2805682976 -1.2430799906 1.1943075172
N -4.2917092333 -1.7985372341 1.1568199398
C 0.6264189605 -0.6974887584 -1.2254119336
O 1.6262524750 -0.2523681071 -1.7206199232
H 1.1634672450 1.6505641699 -0.0538879598
H -0.5085529060 1.8530941914 -0.6113142548
H -0.1549082878 1.7517461073 1.1295789252
H 0.5418392702 -0.6130741488 0.8898435829
H -1.4037043758 -0.9758714606 2.0881890908
H -2.2101553133 0.5153087653 1.5660702780
H 0.0813422135 -1.5688298072 -1.6463836136