20

C -0.0520194249 1.6643587396 0.0918785400
C -0.0037669670 0.1457842860 -0.0802572893
N -1.3383264062 -0.4591966007 -0.1449944659
C -2.0831341806 -0.1160258646 -1.3563950523
C -1.3843138297 -1.8626446041 0.1953614681
C -2.7710039429 -2.2584525494 0.7191538556
O -3.1365678347 -3.3936977807 0.8733294932
C -0.8944207667 -2.8716418312 -0.8531919707
O -0.2549283100 -2.5617725778 -1.8246544700
H 0.9591275565 2.0523002409 0.2486213468
H -0.4590568883 2.1669001943 -0.7901970297
H -0.6670892173 1.9357541514 0.9551108155
H 0.6001522614 -0.1131055066 -0.9642302407
H 0.5063723248 -0.2878820098 0.7878940399
H -1.5604027506 -0.3932555928 -2.2828605932
H -3.0539601777 -0.6227666002 -1.3495508088
H -2.2839023613 0.9580492385 -1.3750444948
H -0.7271525622 -2.0317730329 1.0662091157
H -3.4048558764 -1.3818239303 0.9752293155
H -1.1785623264 -3.9235841997 -0.6419741050