17

N 0.2666426267 1.5134585084 -0.0445750927
C 0.0375374922 0.1062336405 0.0175429803
C 0.0350705843 -0.6422114375 1.3707055343
C -1.0372707667 0.0772790106 2.2114432470
C -2.1617414863 0.1222542147 1.1283906083
C -1.3804082725 -0.6075534462 0.0093529205
O -0.7463447791 -1.7011397218 0.7268762196
C -2.0689170571 -0.9663011647 -1.2095267664
N -2.6070059543 -1.1965867485 -2.2066649904
H 0.2841200031 1.8524863796 -0.9990525465
H -0.4153255050 2.0553844449 0.4723902054
H 0.6837094932 -0.4148391206 -0.6895683817
H 0.9450677821 -0.9933865729 1.8535719901
H -1.3212003137 -0.5178917266 3.0804681885
H -0.7162274867 1.0639589735 2.5564851804
H -3.0532461475 -0.4383197387 1.4110580786
H -2.4640049826 1.1316410151 0.8363156650