14

O 0.0341438030 1.4562064015 0.0994448380
C 0.0591599715 0.0757161355 0.0282561061
C -0.1093638852 -0.6548182025 1.3793323959
O -1.5418293992 -0.2672235854 1.4058808063
C -1.3111487508 -0.7071082698 0.0221727041
C -2.3850293370 -0.6735457696 -0.9306723864
N -3.2060618465 -0.6689710382 -1.7454082833
C -0.5435365023 -1.9390066792 0.6377843018
O 0.4215428505 -2.6298760093 -0.0824384707
H 0.1716334844 1.8157490261 -0.7822129397
H 0.8198566107 -0.3257985492 -0.6466852875
H 0.4581852285 -0.5428754597 2.3004287427
H -1.2113605592 -2.5660722350 1.2342306284
H 0.0103623618 -3.3909164852 -0.5049523755