15

O 0.0261307078 0.0052608333 -0.2948374411
C -0.0018367942 1.1555793018 0.0333743372
O -1.1789173648 1.7593357247 0.3473707872
C -1.1867135146 3.0626058131 0.9630702068
C 0.1170083235 3.8125305545 0.7376306782
C 0.4474876622 4.0350650762 -0.7554553977
O 1.2200558037 2.8811582794 -1.1025191522
C 1.2378315853 2.0674603992 0.0555676943
O 1.1803928003 2.9453654804 1.1532540360
H -2.0398226307 3.6023363143 0.5408512363
H -1.3537452811 2.9228905703 2.0367483478
H 0.1497228278 4.7241975865 1.3367898332
H -0.4494650643 4.0977113722 -1.3805914117
H 1.0584874919 4.9294659707 -0.9091782227
H 2.1483599971 1.4693197333 0.0830923583