19

C -0.1485608376 1.5939017681 0.0538269070
C 0.0893640092 0.0883698648 0.0289694216
C 1.1771472436 -0.5137759896 -0.9272334617
C 1.8321701518 -1.2509670986 0.2367012250
C 2.2278532551 -0.2534242394 1.3182372662
C 0.7902078469 -0.5597093746 1.2279728675
O 0.1524822913 -1.0589972321 2.3356288096
C 2.2617085193 -2.6434062931 0.2380120934
O 2.2165781003 -3.3785704058 -0.7254897639
H 0.7850455889 2.1435925027 0.2114688112
H -0.5792843773 1.9350626733 -0.8933315510
H -0.8400635351 1.8705031787 0.8565572729
H -0.8611728327 -0.4312091057 -0.1454811912
H 0.7753168596 -1.1922565358 -1.6804322137
H 1.8154464998 0.2275725938 -1.4193317979
H 2.7120216527 -0.6958951761 2.1843086693
H 2.6378076972 0.7073700499 1.0143706273
H -0.6291964499 -1.5452177030 2.0480537773
H 2.6192278170 -3.0128857876 1.2269206412