19

N -0.0843800193 1.3237924432 0.1082863339
C -0.1403624942 -0.0510845526 0.0650000548
N -1.2431864531 -0.6828409298 0.0014940617
C -1.2377983678 -2.1427657344 -0.0320580579
C -2.3774516316 -2.5687740200 -0.9680581576
O -3.5893751342 -1.9574687053 -0.5913453093
C 0.1220488507 -2.7092551067 -0.4449168173
C 1.2082035973 -1.9800562896 0.3329352978
O 1.1171753228 -0.5608887463 0.1385225153
H 0.7897960663 1.7274470607 -0.1902156443
H -0.9120460501 1.7782298182 -0.2436438936
H -1.4946464104 -2.5114264953 0.9730264465
H -2.0975748105 -2.3095679321 -2.0046450357
H -2.5236987441 -3.6542877177 -0.9224582996
H -3.3401855645 -1.0444997676 -0.3848732396
H 0.1842352926 -3.7844447024 -0.2473515211
H 0.2822685698 -2.5577551767 -1.5194320050
H 1.1261900041 -2.1900195953 1.4072814690
H 2.2138139763 -2.2530541005 0.0050644120