21

O -0.0446943670 1.3418495706 0.3784047802
C 0.0372585726 -0.0341750754 0.0914169330
C 1.0489286065 -0.5203917883 -0.9120939890
C 1.2294787043 -0.8189061241 0.5707140970
C -1.3430147765 -0.6485141655 0.1358052924
C -2.0485622133 -0.5187647165 1.5177516850
C -3.4970769919 -0.3116779670 1.1499760582
C -3.6549274019 -0.0506902912 -0.1464218453
C -2.3415943633 -0.0342733953 -0.8888678183
H 0.8385810745 1.7207417609 0.3471483883
H 0.7829455730 -1.3350733663 -1.5773646733
H 1.7098935652 0.2159775880 -1.3596072490
H 2.0093413296 -0.2791215849 1.0997035315
H 1.0866405070 -1.8371848459 0.9167542766
H -1.2345104693 -1.7142411633 -0.0919544981
H -1.8855841613 -1.4000378137 2.1489632707
H -1.6591063909 0.3437263377 2.0737251274
H -4.2942385813 -0.3356989677 1.8853155457
H -4.6004863879 0.1706462229 -0.6298432060
H -2.0513049052 0.9921772064 -1.1473337158
H -2.3697848927 -0.5994733616 -1.8276897312