16

O -0.1282477193 1.5080758293 -0.1627526220
C 0.1091399666 0.1153440056 0.0092123719
C -1.1998918239 -0.7556314606 0.1465050122
C -1.4030579301 -1.6062911293 -1.1599828411
C -0.0721421486 -1.4364624651 -1.8210150224
C 0.7130855295 -0.5544848185 -1.1743025173
O 1.8940389717 -0.4431975816 -1.8475342663
C 1.7294835047 -1.3062215234 -2.8913269919
N 0.5894419288 -1.9252101241 -2.9376366197
H -0.5524069163 1.6292527536 -1.0200140524
H 0.7142437517 0.0585023348 0.9184005139
H -1.0932668914 -1.4257544201 1.0035874897
H -2.0437030265 -0.0939551446 0.3556124911
H -1.6381877174 -2.6486131445 -0.9245148591
H -2.2245961601 -1.2323115519 -1.7818570586
H 2.5617592206 -1.3913178395 -3.5728980281