15

O -0.0238941523 -0.0256768225 -0.0873933773
C -0.0035920274 1.1766470523 0.0042433532
N -1.0785027483 2.0054990193 0.2067664524
C -0.8290067134 3.4256885917 0.0262289101
C 0.6935142413 3.5160098677 0.0153088864
C 1.4232438145 2.9446827029 1.1845977963
C 1.2190895793 2.0844071929 -0.0630258273
C 2.3407243438 1.6907060348 -0.8591026615
N 3.2557379258 1.3966103673 -1.5018256148
H -2.0049228430 1.6128507469 0.2552392191
H -1.2442312285 3.7935105293 -0.9211717989
H -1.2660272653 4.0165974839 0.8399860660
H 1.1597285701 4.3003680834 -0.5661584450
H 2.4351325614 3.2907794662 1.3581755861
H 0.8718530320 2.6577722440 2.0737055952