16

C -0.0336336792 1.5551339205 0.0224122987
C -0.0023443975 0.0149769417 0.0390804670
C 0.7448621099 -0.5207877987 1.2751669329
C -1.3861048546 -0.5491744125 -0.0359671102
C -2.0273748203 -1.3372782364 -0.9435955297
N -3.3053107778 -1.5358032836 -0.4795622576
N -3.4821593983 -0.9440950195 0.6118436501
O -2.2449221476 -0.2783524297 0.9474552335
H 0.9859804041 1.9509981115 0.0376680563
H -0.5352780594 1.9333231649 -0.8728186870
H -0.5644879724 1.9403703568 0.8976729699
H 0.5191986194 -0.3322556882 -0.8603808782
H 0.2426614271 -0.2092760921 2.1955142745
H 0.7938509870 -1.6133392134 1.2679644025
H 1.7669609443 -0.1315055295 1.2932386122
H -1.6799758947 -1.7648874219 -1.8682254949