15

C 0.0498650362 1.4805986013 0.1414493987
C 0.0330797574 -0.0563514199 0.1331650465
C 0.7463084989 -0.6492847554 1.3445908547
O -1.2956571945 -0.5619718144 0.1418089631
C 0.7212648011 -0.5356485894 -1.1591766792
O 1.8626685589 -0.8965004449 -1.2625335985
C -0.1673054340 -0.5051920711 -2.3511715371
N -0.8518171225 -0.4306346645 -3.2805205829
H 1.0732218843 1.8641971491 0.1787619958
H -0.4340758523 1.8887515123 -0.7534210224
H -0.4941775852 1.8362351715 1.0209332691
H 0.3081590583 -0.2440669516 2.2595379330
H 0.6290118972 -1.7354565472 1.3533472207
H 1.8115092881 -0.4147115871 1.3155021216
H -1.8398051317 -0.0425435488 -0.4615338330