19

C 0.1211694574 1.4177907149 0.3184220083
C -0.3510847230 0.1033573536 -0.3226261472
C 0.5020482742 -0.3190889140 -1.4774813254
C 0.1380877672 -0.4923090025 -2.7883894953
N 1.2872628877 -0.8692046828 -3.4631362494
C 2.2890547488 -0.8958151677 -2.5377354722
N 1.8542877846 -0.5780438241 -1.3424551857
O -1.0349957438 -0.3210196292 -3.4423192382
C -1.8610162692 -1.4861654022 -3.5134289457
H 1.1614561168 1.3287425394 0.6424946289
H 0.0616239149 2.2448149088 -0.3962625179
H -0.4926227347 1.6725883012 1.1882377346
H -0.3484221482 -0.6865577386 0.4394951602
H -1.3858614444 0.2060397251 -0.6684928191
H 1.3601519051 -1.0193095865 -4.4555049481
H 3.3058824264 -1.1522419860 -2.7961246960
H -2.7729852260 -1.1893427186 -4.0350887685
H -1.3678011014 -2.2911430857 -4.0731703405
H -2.1109721425 -1.8514213752 -2.5110009628