13

N -0.0445602045 1.3681269299 0.1584542329
C 0.0234240957 0.0124791749 0.0572628041
N -1.0561001293 -0.7668626549 0.0341183921
N -0.5567085889 -2.0380221931 -0.0109678574
C 0.7753379296 -2.1062472510 -0.0218496362
C 1.2065109472 -0.7883793495 0.0180391874
N 2.5504886453 -0.3496954186 -0.0113203581
O 3.4392518590 -1.1975597132 -0.0289213847
O 2.7500771735 0.8720292480 -0.0240115343
H 0.8061818008 1.8557061260 -0.0774454083
H -0.9183277150 1.7943006266 -0.1045529381
H -1.2086676118 -2.8038687345 -0.0305622677
H 1.3336118485 -3.0262446907 -0.0591942517