18

C -0.1396125277 1.5686439958 0.0201225121
C -0.0032888961 0.0516298221 -0.0246300668
C 0.8016911315 -0.5850492059 -1.2004940381
N 1.7385981928 -1.1230084384 -0.1997353290
C 2.8811924840 -1.8959087723 -0.3929500724
C 3.6198712415 -2.2779793253 0.8680828959
O 3.2104468001 -2.2129406225 -1.5142121588
C 1.0725761610 -0.5573265591 0.8972795212
O 1.3128497558 -0.5672119310 2.0719065275
H 0.8240903877 2.0583349399 -0.1535777718
H -0.8420783395 1.9209685984 -0.7411301301
H -0.5077806458 1.8882696522 0.9990932714
H -0.9721734030 -0.4319127082 0.1317177809
H 0.2909159105 -1.3613977177 -1.7734638099
H 1.2712365765 0.1285526084 -1.8818817521
H 2.9770740647 -2.8780832834 1.5189176144
H 4.5089579752 -2.8444096349 0.5923874828
H 3.8936041410 -1.3878842981 1.4409552526