23

C 0.1594397749 1.3710110000 -0.3520491008
C 0.0304005007 -0.0706064916 0.1048955929
C -1.0670831194 -0.8165746519 -0.6320798331
O 1.2667864455 -0.7945110846 0.2401916286
C 0.5131490639 -0.5134321342 1.4403689420
C 1.1768374516 0.4598532540 2.4009412223
C -0.0767325670 -1.7325271629 2.1432109440
C 0.9642172677 -2.8246453811 2.3813174946
O 0.3209894481 -3.8766937518 3.0871920057
H 0.9535424241 1.9098137349 0.1633984700
H 0.3759546354 1.3991611320 -1.4255726663
H -0.7825379816 1.9072912756 -0.1914452292
H -0.9586970659 -0.6601966922 -1.7109309164
H -1.0249816216 -1.8901214119 -0.4489014258
H -2.0569457204 -0.4468008915 -0.3422318455
H 0.4233180063 1.0129181692 2.9725849602
H 1.8004241098 -0.0822993167 3.1195461745
H 1.8177560700 1.1717293603 1.8813947513
H -0.4868208443 -1.4221717484 3.1110646804
H -0.9022578196 -2.1736143087 1.5816559906
H 1.3548982670 -3.1635650748 1.4119546542
H 1.8155923075 -2.4257924532 2.9557402610
H 0.9496548272 -4.5974786306 3.1855554250