17

C -0.1213772669 1.5118946499 -0.0260212283
C 0.0581949669 0.0141011907 -0.0195972413
O 1.1297475122 -0.5430038059 -0.0358534692
N -1.1393495931 -0.7363939131 0.0073672491
N -2.3468024323 -0.0910912270 0.0255264486
C -3.2398363389 -1.0582625757 0.0482119818
C -2.6359222792 -2.3417083744 0.0453218741
C -1.2832197341 -2.1152153564 0.0188368511
C -0.1533166342 -3.0890876846 0.0041921296
H 0.8683170231 1.9671109686 -0.0467238031
H -0.7072007355 1.8255297229 -0.8931853225
H -0.6759360384 1.8368981832 0.8573427217
H -4.2924953241 -0.8132278967 0.0660885149
H -3.1220656739 -3.3042519414 0.0604897318
H 0.4730153866 -2.9670748863 -0.8833399852
H 0.5051013390 -2.9561417325 0.8665824589
H -0.5579937772 -4.1039594212 0.0179694780