21

C 0.0361579682 1.4016694755 0.6198557221
C -0.0132923321 -0.0068228886 0.0530319840
C 0.9065059121 -0.3503463235 -1.0916236842
C 1.1731173957 -0.9161696867 0.2824444528
C -1.3821275507 -0.6408911715 0.0757352190
C -2.0043970274 -0.8565322046 1.4535954829
O -3.1816597041 -1.6291293619 1.3883440784
C -2.2689493690 -0.5595160376 -1.0919603826
O -1.5674185882 -1.7807762711 -0.7824103707
H 1.0469391067 1.8119635644 0.5385118500
H -0.6407991337 2.0721557371 0.0777694070
H -0.2432709387 1.4285631906 1.6787323642
H 0.5395897019 -1.0394236791 -1.8427810037
H 1.5585908984 0.4327359460 -1.4636187293
H 2.0100796011 -0.5283527425 0.8533598328
H 0.9816070033 -1.9741785693 0.4249926930
H -1.2469608412 -1.3232092519 2.1050255135
H -2.2734388540 0.1058495533 1.9011893593
H -2.9758194361 -2.3608168140 0.7909778517
H -3.3453384825 -0.6092743807 -0.9503233610
H -1.9214451394 -0.0529487040 -1.9898577093