19

C 0.0289359234 1.5558280344 -0.1551422866
C 0.0530880170 0.0558050776 0.0613687631
O 0.9316430612 -0.6538379193 -0.8598017664
C 1.5694778209 -1.3633422864 0.2085488460
C 2.9819979706 -0.8618168461 0.5832019557
C 2.9727124289 -1.0303806308 2.1246596901
C 1.9681658084 0.1376745982 1.9310645290
O 2.7678234812 0.5658203990 0.7865650115
C 0.7663733116 -0.5812993136 1.2827767391
H 1.0296737728 1.9791933238 -0.0702744796
H -0.3634253822 1.7775374659 -1.1529582472
H -0.6338994035 2.0302960164 0.5775067305
H -0.9649692028 -0.3475189867 -0.0383929565
H 1.4858894139 -2.4506175326 0.1156887449
H 3.8299077918 -1.0988810130 -0.0578775726
H 2.6237236604 -1.9704107898 2.5621657292
H 3.9077432734 -0.6987438680 2.5761718385
H 1.8009959007 0.9202676895 2.6704895526
H 0.1389468123 -1.1155401984 1.9962665889