16

C -0.0332868174 1.4178942026 0.1074789835
N -0.0666475375 -0.0192750370 -0.0758762900
C 0.6002311825 -0.6142000666 -1.1007470557
C 1.2152255264 -0.0685743012 -2.1735622460
C 1.7509196764 -1.1440501655 -3.0261709873
O 2.2880389173 -1.0734335387 -4.1119998259
N 1.5318273960 -2.3359064693 -2.3239438353
C 0.6921754023 -2.1270188927 -1.1668332089
H 0.9863601318 1.7979026069 0.2636001176
H -0.4496557061 1.9170783746 -0.7738654371
H -0.6458362702 1.6851346447 0.9706313113
H -0.2348613284 -0.5781533437 0.7444794269
H 1.3228249039 0.9749317679 -2.4234863528
H 1.5148087884 -3.2007652409 -2.8392500712
H 1.1340088433 -2.5406239663 -0.2479757544
H -0.3097153087 -2.5679342348 -1.2769803449