21

C -0.1652257524 1.5052876312 -0.0314041944
C -0.0383826978 0.0230515282 0.1019776053
O -0.8276286813 -0.7846667241 -0.7922466916
C -1.1201990022 -1.7184931896 0.2822162501
C -0.2041817310 -0.9714405439 1.2393188628
C 1.1547123817 -0.7557722109 0.5784635884
C 1.8710622230 -1.7703959945 -0.2549028021
C 3.3415687353 -1.6015993788 -0.5520604769
C 2.8804654052 -2.7032628725 0.3696844307
H 0.4133766887 2.0104279911 0.7473539637
H 0.2167784137 1.8359341737 -1.0040883770
H -1.2105838286 1.8205049498 0.0468909129
H -2.1799073928 -1.6642424979 0.5560991847
H -0.8601663803 -2.7510860422 0.0211249929
H -0.3789790579 -0.8161230220 2.2960678427
H 1.8054340983 -0.1606717662 1.2183456957
H 1.2717574924 -2.1748142624 -1.0635735275
H 3.7015352300 -1.8690040251 -1.5394578142
H 3.8543539916 -0.7528720444 -0.1103869202
H 3.0810706246 -2.5920629643 1.4305252249
H 2.9271092496 -3.7275407454 0.0158300392