19

C 0.2256037554 1.3512612926 0.1024179062
N -0.0481334405 -0.0630276748 -0.0316649648
C -0.4297343737 -0.7106471208 -1.1892753779
C -0.5488551955 -2.0497932039 -0.9126766734
C -0.2581849059 -2.2343137388 0.4712036236
C -0.2645909438 -3.5001516003 1.2685740815
O 0.9112190034 -3.6524063702 2.0810493036
C 0.0440664509 -0.9837223520 0.9844188294
N 0.4991657503 -0.6069144304 2.2623380928
H 0.6475300557 1.7335787851 -0.8301076432
H -0.6790410692 1.9263027679 0.3362766081
H 0.9479733307 1.4928645824 0.9093001442
H -0.5792790598 -0.1547449537 -2.1008423426
H -0.8251670578 -2.8205038543 -1.6171815766
H -1.0908490133 -3.5279366330 1.9898961714
H -0.3935921107 -4.3648004063 0.6011359447
H 1.6658727141 -3.5465610509 1.4906765949
H -0.2082154101 -0.1277209040 2.8120972122
H 0.7861605698 -1.4437177147 2.7612516458