22

C 0.4427988369 0.0054125078 1.6622827061
C 0.0614885951 -0.1903611074 0.1847865463
C -1.3822319143 -0.6121134723 0.0214999520
O -1.4960327264 -1.9249534619 0.3730233765
C -2.7845132200 -2.4929245431 0.3294786517
C -3.1724284552 -3.2845497087 -0.8822392233
C -2.8200598149 -3.9833340977 0.4187103614
N -2.4029758707 0.0426979311 -0.3360928831
C -2.3419654620 1.4437823892 -0.6818951783
H 1.5003097146 0.2688554597 1.7566225261
H -0.1475821991 0.8059777829 2.1187354157
H 0.2647851287 -0.9119179871 2.2291319651
H 0.2513869998 0.7254089429 -0.3786975937
H 0.6863744819 -0.9761430047 -0.2515469460
H -3.5386464213 -1.8946860444 0.8266976401
H -4.2069358980 -3.2563179932 -1.2053274039
H -2.4452995643 -3.3408915265 -1.6841577296
H -1.8646635340 -4.4938242354 0.4634458959
H -3.6097879175 -4.4454700592 1.0002507601
H -1.3484619588 1.9094993041 -0.6213630166
H -2.7181562022 1.5820566375 -1.7026923679
H -3.0138503383 2.0076796264 -0.0234632746