19

C 0.1432943474 1.3138005686 -0.6573814186
C -0.0394775333 -0.0928329666 -0.1311843098
C 1.0859154186 -1.0347604742 -0.1751078928
O 0.7184551099 -0.4002210569 1.0543029208
C -1.4524132869 -0.6575597803 -0.0865349861
C -2.3999964204 0.1622829356 0.8236385301
O -3.6285766281 -0.5034665851 1.0594684236
C -2.0762477229 -0.8577710330 -1.4559205745
O -1.5046689122 -0.6953114955 -2.5057890497
H 1.1956432117 1.6005770886 -0.5964829743
H -0.1811807228 1.3718846859 -1.6992380510
H -0.4338463231 2.0366264546 -0.0711575533
H 0.8986255445 -2.1067384136 -0.2248156176
H 2.0351225428 -0.7140501011 -0.6013298241
H -1.3934264087 -1.6585373642 0.3687148914
H -1.8711664439 0.3935476772 1.7579137364
H -2.6643941897 1.1119127276 0.3482642628
H -3.4570827669 -1.2476592966 1.6456615588
H -3.1389672559 -1.1769389914 -1.4198036821