20

C -0.0432349684 1.5276554093 0.3358385361
C -0.0197311755 0.0370037869 0.0433443103
C 1.2906706053 -0.5785668970 -0.3940088649
C 0.7559860218 -0.8465578039 0.9909859464
C -1.2790326736 -0.5652553657 -0.5593647167
O -2.4113093009 -0.4902965497 0.3200787072
C -1.6791805093 0.0128165833 -1.9211486847
O -2.8471435766 -0.6181801119 -2.4027200315
H 0.8932478275 1.8401558677 0.8070809114
H -0.1711690289 2.1281192007 -0.5708660372
H -0.8487141700 1.7939230978 1.0324832956
H 1.2635200241 -1.3868030095 -1.1176741410
H 2.1496000172 0.0759987868 -0.4973029071
H 1.2547535398 -0.3746989246 1.8309212996
H 0.3594223153 -1.8324276341 1.2077436164
H -1.1227519343 -1.6417139385 -0.6947902359
H -2.5373199905 0.4346763072 0.5607263497
H -1.8242615500 1.1042560172 -1.8350767205
H -0.8826208597 -0.1544020621 -2.6540012411
H -3.4183733833 -0.7122889200 -1.6288896219