18

C -0.2875646372 1.6380385866 0.1057506800
C -0.0821535649 0.1367956983 0.1148984179
C -1.3312144100 -0.6505781884 -0.2655393146
O -1.7841369470 -0.3288671201 -1.5644024602
O 1.0054979212 -0.2518458793 -0.8262149604
C 1.8154368164 -0.6865034307 0.1935254923
O 2.9436171491 -1.0559914228 0.1196675155
C 0.7531818610 -0.4495959239 1.2887507302
N 1.0208516856 0.3786117121 2.4386841654
H 0.6664987435 2.1693378130 0.1573654827
H -0.8046231428 1.9353050347 -0.8090054047
H -0.8930880449 1.9320097652 0.9678695644
H -1.1196808794 -1.7271535520 -0.1687443749
H -2.1454762710 -0.4049654915 0.4247802142
H -1.0608236654 -0.5322229445 -2.1694930041
H 0.3423738565 -1.4053572076 1.6302847726
H 1.4654987183 -0.1645599041 3.1703255504
H 1.6545832009 1.1373056853 2.2101000733