19

C 0.0809767243 1.5318034427 0.0320309276
C 0.0325225923 -0.0009818406 -0.0139648292
C -1.3612022201 -0.5601877486 0.0017204643
C -1.8096862730 -2.0597292887 -0.0345429366
C -3.0580407175 -1.6087833959 -0.7557352851
C -3.0215037490 -1.6566368379 0.7722315844
C -2.5063010418 -0.2143806304 1.0224468774
O -3.1650668127 0.6635661753 0.0830971982
C -2.5531610937 -0.1529519773 -0.9396302358
H 1.1160241956 1.8858493945 0.0187602544
H -0.4376001593 1.9722031643 -0.8247550881
H -0.3965144184 1.9180624629 0.9374353274
H 0.5492252861 -0.3609816143 -0.9142255602
H 0.5905145368 -0.4148464629 0.8371604801
H -1.2599997739 -2.9889679216 -0.0768002947
H -3.7606220049 -2.1798685143 -1.3466140511
H -3.6959134322 -2.2646079603 1.3591203094
H -2.4056727136 0.1928586055 2.0279179349
H -2.5000263450 0.3164775878 -1.9213387973