20

C -0.0201690544 1.4869192877 -0.0280356739
C -0.0463518071 -0.0268992683 0.0959266910
O -0.0574380325 -0.5778405917 1.1730507422
C -0.0439266340 -0.7999480601 -1.2146492179
C 1.1794726407 -0.5445183752 -2.0782924830
C -0.6955971370 -2.1148308618 -1.3613053328
C -1.9219814889 -2.3074380504 -0.4739412988
C -2.4535943607 -0.9865395521 -1.0814665607
N -1.2836674459 -0.8665490252 -2.0357942340
H 0.9880296359 1.8188161645 -0.3012678939
H -0.6962037843 1.8304403872 -0.8170806266
H -0.2862172334 1.9351972074 0.9300961379
H 2.0951753607 -0.8480931003 -1.5598962386
H 1.0982353229 -1.1144865392 -3.0071887928
H 1.2644808987 0.5124914691 -2.3462279049
H -0.2263834664 -2.8985988911 -1.9497433976
H -2.5189505606 -3.1695909884 -0.7761740462
H -1.7386099842 -2.3441178872 0.5997728874
H -3.3727052460 -1.0991532845 -1.6586148827
H -2.5720477036 -0.1350192006 -0.4034262940