19

C -0.1069415539 1.3966008346 0.0830954134
N -0.0677843482 -0.0527471883 0.0973248908
N -0.0767641232 -0.7333438892 -1.0619415615
C 0.0069059378 -2.0124987688 -0.7055962807
C 0.0672154813 -2.1743365290 0.6949648402
C 0.1761039155 -3.4573464580 1.4626589296
C 0.0207439460 -0.8746407763 1.1842133317
C 0.0199907160 -0.3555318066 2.5859990716
O -1.1638650720 0.3711002337 2.9220652100
H 0.9017047431 1.8217097525 0.1433495918
H -0.5640516848 1.7080548696 -0.8560349714
H -0.6996795839 1.7488488315 0.9285387686
H 0.0086646336 -2.7811266858 -1.4657222651
H 1.2154374576 -3.7948225847 1.5574182508
H -0.2256976546 -3.3642952865 2.4763793791
H -0.3771543520 -4.2595378868 0.9643761103
H 0.1800005878 -1.1962833181 3.2745398026
H 0.8404671232 0.3519286036 2.7505001053
H -1.9151013893 -0.1914392174 2.7041734029