21

C 0.0409739595 0.9537411931 -0.5745179861
O 0.6376971208 -0.3094160720 -0.3148442136
C 0.9769979361 -0.5561037678 1.0187557154
C 2.1877868714 0.1941308664 1.5375830685
O 1.9377619106 1.5794576814 1.7676040242
C -0.1715167794 -0.8614577304 1.9816766191
C 0.7238085553 -1.9723170859 1.4617020583
C 0.1802890559 -2.9912539308 0.4871329455
O 1.6819340539 -2.4884776316 2.3530436898
H 0.7294247464 1.7796687549 -0.3737700675
H -0.2383652404 0.9504874625 -1.6310104632
H -0.8647627109 1.1002867103 0.0321043420
H 2.5654898986 -0.3005865488 2.4388885541
H 2.9724777670 0.1604124935 0.7757507088
H 1.2383745909 1.6385120038 2.4271375022
H -0.0535310616 -0.5778405796 3.0231935461
H -1.1824357154 -0.7955495223 1.5944374929
H -0.4800555232 -2.5242122753 -0.2437847425
H 1.0037501854 -3.4733607081 -0.0484931923
H -0.3810579045 -3.7677093693 1.0212317380
H 1.2321595739 -3.1127519541 2.9332210004