15

C 0.0250110966 1.4995105832 -0.0678701557
C -0.0060677236 -0.0129485874 0.0177830938
O 0.6667585030 -0.5168800129 -1.1629227471
C 0.7698412030 -1.8215251089 -1.3194121904
N 1.3985444814 -2.2244465598 -2.4258946321
C 1.4638268336 -3.5398447079 -2.5175596336
N 0.9744387246 -4.4246438331 -1.6336870764
N 0.3680971035 -3.9399470119 -0.5690214878
N 0.2511030523 -2.6392929784 -0.3861653694
H 1.0538566288 1.8683117937 -0.0929425270
H -0.4908208828 1.8506416050 -0.9655284006
H -0.4743310406 1.9245200766 0.8074800670
H 0.5110862597 -0.3888978947 0.9050043778
H -1.0262197345 -0.4064978542 0.0365270914
H 1.9598913551 -3.9633578392 -3.3871187999