17

C -0.2830018367 1.5157104921 0.1586101336
N -0.0121530342 0.0822489090 0.0448849965
C -0.0453351934 -0.6888651425 1.2121059087
O -0.2844684454 -0.2331253589 2.3032140119
C 0.3016907504 -0.5414440665 -1.1659866102
O 0.6187829822 -1.7153114992 -1.2267106538
C 0.2354563705 0.2995582640 -2.4038516796
C 1.4575484344 0.2653352889 -3.2745719583
N 0.2441154477 -0.4292477574 -3.6767775745
H 0.5106030648 2.0988682570 -0.3133918584
H -1.2442579847 1.7786698968 -0.2925576780
H -0.3197285675 1.7444809345 1.2231675575
H 0.1692146088 -1.7447002359 1.0076158831
H -0.3770116178 1.1926947173 -2.3880376879
H 1.7094849828 1.1490462105 -3.8534242848
H 2.2988579403 -0.3203754325 -2.9148240163
H 0.3426762276 -1.4191622471 -3.4471881895