14

O 0.4236706462 1.0151812795 -0.5754426695
C 0.1584090441 -0.1435089916 0.1374430967
C 0.0379338743 -0.0743094078 1.6965904068
C -1.2477577922 -0.8929140324 1.6037939665
O -1.9538824094 -1.4731069269 2.3684932669
C -1.3221836872 -0.6893286813 0.0451978490
O -2.1477498061 0.4227719989 -0.2518286497
C -1.5968664358 -1.8479506389 -0.7931892674
N -1.8108800683 -2.7910386738 -1.4270877077
H -0.3789370564 1.5531866607 -0.5648925187
H 0.8737541293 -0.9065643227 -0.1760201519
H 0.8433725004 -0.5124843777 2.2891726469
H -0.1517541748 0.9428243360 2.0555972224
H -3.0618209940 0.2012262279 -0.0370146503