25

C 1.0317490829 1.5662454110 0.2867891952
C 0.1777124469 0.3443304478 -0.0782359811
C 0.6484177039 -0.3861493976 -1.3340256679
C 1.9287772344 -1.1882316160 -1.2526591122
C 0.6088747752 -1.9081547795 -1.3863155511
C 0.0630447264 -2.7886622868 -0.2810113671
C 0.2721669859 0.3639229311 -2.6173058204
C 0.9824055977 -0.0640960870 -3.9038080543
O -1.1482182197 0.3324593582 -2.7934191482
H 2.0737808417 1.2813415615 0.4674320866
H 1.0285156400 2.3226749227 -0.5044581865
H 0.6528569692 2.0451357190 1.1952483186
H 0.1722955061 -0.3400378718 0.7750980210
H -0.8620673978 0.6532619408 -0.2346236973
H 2.6166448320 -1.1962684274 -2.0902115079
H 2.4189193023 -1.2294251870 -0.2837874432
H 0.4224701236 -2.3203683029 -2.3762853269
H 0.3611619621 -2.4420239280 0.7117469714
H -1.0319107849 -2.8356468253 -0.3013108208
H 0.4394539073 -3.8118627962 -0.3909718686
H 0.4898725991 1.4275625133 -2.4649787573
H 0.5669640729 0.5077683864 -4.7374874124
H 2.0574178012 0.1324680227 -3.8561446928
H 0.8383640475 -1.1271081587 -4.1271442388
H -1.4092054659 -0.5954456499 -2.7957285377