15

O -0.0202290814 0.0031053386 -0.2904295007
C 0.0100601857 1.1614709796 0.0087993298
O -1.1282810175 1.8309020596 0.3527860912
C -0.9816385548 3.1997052783 0.6777731179
C 0.0192769532 4.0600255950 -0.0712300676
C 1.0042680829 3.2524538869 -0.8969458817
C 1.2367472722 2.0613272838 0.0586090692
O 1.2811472285 2.6431314994 1.3719813643
C 0.2835071602 3.6329390322 1.3619489020
H -1.9382489073 3.6176589202 0.9632893044
H -0.2410552528 5.0732424377 -0.3495615701
H 0.6150818586 2.9273959131 -1.8656841826
H 1.9310552524 3.8108219054 -1.0565053371
H 2.1434737356 1.4824472448 -0.1034224045
H 0.3083731744 4.2753000255 2.2322116056