17

C -0.0011348635 1.4510614640 0.0110049540
N 0.0112139182 -0.0003102571 0.0048362607
C -0.0025804040 -0.8114279333 -1.0949045852
C 0.0174062110 -2.1047185232 -0.6162105255
C 0.0121299298 -3.3100706686 -1.4413095250
O 0.0293325033 -4.4502661453 -1.0403895244
N 0.0432695400 -2.0931417020 0.7646472059
C 0.0390558751 -0.8306675841 1.1113480782
C 0.0609149113 -0.3111773345 2.5088998294
H 0.8935514957 1.8471848844 0.5007360656
H -0.0231435008 1.8122495274 -1.0178226495
H -0.8838884501 1.8319457513 0.5333975044
H -0.0248022774 -0.4122928965 -2.0965797806
H -0.0103219754 -3.0845330379 -2.5343212514
H 0.9431458359 0.3102321612 2.7027457832
H -0.8238609492 0.2951680510 2.7359966250
H 0.0809793704 -1.1626010367 3.1894398151