19

C -0.0496243008 1.6087172901 -0.0305030945
C 0.0247785181 0.0872571261 0.0225619927
O -1.3349947555 -0.3569577503 0.1164720691
C 0.7565156106 -0.5390847495 -1.1943875702
C 1.4539886128 -1.8215551157 -0.6488218282
C 1.5810174916 -1.5030201964 0.8382704127
C 0.8267144566 -0.4652885998 1.1892526810
C 0.6713477058 -3.0408244923 -0.8546881027
C 0.0014689325 -4.0296473662 -1.0010850591
H 0.9512164704 2.0485183873 -0.0541335775
H -0.5967865009 1.9288959383 -0.9223006408
H -0.5809343497 1.9896718047 0.8464257053
H -1.3214343857 -1.3196077441 0.1769719203
H 0.0638134157 -0.7405359432 -2.0130204108
H 1.5279595481 0.1479019321 -1.5544838403
H 2.4367666371 -1.9571036776 -1.1162852131
H 2.1802500566 -2.1165804564 1.5009072058
H 0.7084091791 -0.0795294109 2.1959459060
H -0.5777923222 -4.9087320759 -1.1406629558