16

C 0.0082904613 1.5152696185 0.0495555421
C 0.0471187122 0.0164885153 0.0643925982
N 0.8710723337 -0.7272740753 -0.9601886788
C 0.8198644214 -1.8709416985 -0.0250276865
C -0.6675792355 -2.1278755950 0.4638508091
O -0.3286559644 -1.6763032829 1.8148467031
C 0.7092030241 -0.9122059902 1.1703564285
C -1.2576922167 -0.8005495166 -0.0532896497
O -2.3426878868 -0.4960243777 -0.4577167776
H 1.0169607415 1.9327850114 -0.0072017685
H -0.5690217798 1.8761831500 -0.8080256322
H -0.4789581677 1.8898480715 0.9552767634
H 0.3990199229 -0.8656991328 -1.8555860486
H 1.5133688478 -2.7010012791 -0.1460172011
H -1.2247811478 -3.0594086911 0.4135667961
H 1.4996019538 -0.5388625876 1.8178988623