21

C 0.0902003876 1.3631600503 0.1310129390
O 0.1554155164 -0.0394437382 0.0673757290
C 0.5314746327 -0.5099138224 -1.2124605328
C 0.5795368148 -2.0126271452 -1.1544559884
C 1.1785462496 -2.8775455792 -2.2533326117
C 2.1334055119 -2.2467353285 -3.2701821508
C 3.4391690780 -2.0970646972 -2.4590350432
O 3.0540215545 -2.0321297299 -1.0820436296
C 1.8659201491 -2.7642740047 -0.9191479117
H 1.0644074609 1.8300144514 -0.0861849322
H -0.6489091821 1.7731136900 -0.5770407791
H -0.2100322550 1.6320895327 1.1468925379
H -0.2009581073 -0.1741708403 -1.9681915326
H 1.5121310814 -0.0998834135 -1.4956254541
H -0.2981606906 -2.4405312370 -0.6764648151
H 0.6415658478 -3.7744411363 -2.5381361690
H 2.2709738359 -2.8985735821 -4.1369848261
H 1.7769399377 -1.2815164328 -3.6432380435
H 4.0979113069 -2.9634053392 -2.6227332030
H 4.0022020090 -1.1880633997 -2.6895679360
H 1.9266345606 -3.5710791882 -0.1952573570