19

C -0.1491977629 1.3969323161 0.0873845913
N 0.3477846631 0.0463114633 -0.0662639249
C 0.6757532323 -0.7363400662 1.0014126551
O 0.5249106941 -0.4110432573 2.1641702662
N 1.2593899435 -1.9655563715 0.5706273413
C 0.3103668277 -3.1005973560 0.4121344297
C 1.1054769824 -4.2449448231 -0.2238928071
C 2.0903266467 -4.1785652489 1.0006243135
C 1.2430603411 -3.0360214225 1.5750753447
H 0.6083589088 2.1466223717 -0.1734463646
H -1.0329022413 1.5625743922 -0.5379673414
H -0.4208778200 1.5292253469 1.1352596924
H 0.6614335663 -0.2685313813 -0.9693040308
H -0.7528927227 -2.8985378266 0.3628894721
H 0.5458651414 -5.1824320113 -0.2573463916
H 1.5261531059 -4.0356314718 -1.2103257050
H 2.0523936190 -5.0833924249 1.6104522775
H 3.1305233179 -3.9258241207 0.7838550199
H 1.0470468767 -2.7687718181 2.6040459418