18

O -0.0311882047 -0.0740053930 0.1844760814
C -0.0136328039 1.1415580242 0.0750925383
N -1.1688580984 1.8892719032 0.1984232276
C -1.4931200220 3.2298369096 -0.2970997798
C -0.5537848137 3.7502779071 -1.3905785888
C 0.8203407262 4.1932864820 -0.8598164487
C 1.3582316101 3.2287621050 0.2057611698
N 1.1599029505 1.8332188665 -0.1662882334
H -1.9537824452 1.2788536873 0.3607924426
H -2.5097303046 3.1795468258 -0.7012784525
H -1.5270290802 3.9524241400 0.5325249441
H -0.4287602238 2.9667275198 -2.1444876793
H -1.0403423141 4.5943983469 -1.8908777111
H 1.5245722136 4.2603509061 -1.6962091220
H 0.7522546140 5.1955968720 -0.4193208326
H 2.4291714126 3.3898448413 0.3556568503
H 0.8737050869 3.4329483853 1.1703460609
H 1.9537794368 1.2162640710 -0.1015092968