14

O 0.0413909915 1.5005190801 -0.0104742654
C 0.0253364718 0.1133731695 0.0768969084
C 0.7699164353 -0.4932984100 -1.1159411749
O 1.2404398921 0.2090493338 -1.9742089340
C 0.5758256446 -0.4721628449 1.3589018381
C -0.3148512349 -1.3351013590 1.8571680464
N -1.4742991486 -1.4116268005 1.0683537087
C -1.4344145779 -0.4823140429 0.0412695755
O -2.3203259371 -0.2018563620 -0.7206954430
H 0.4096491676 1.7043692805 -0.8864790988
H 0.8535231583 -1.5961285847 -1.1317680635
H 1.5501991655 -0.2400176562 1.7588705141
H -0.2439523805 -1.9467339706 2.7455116876
H -2.3436587277 -1.8211965031 1.3733297608