20

C -0.7515454290 1.2478822107 -0.1402448443
C 0.0773020228 -0.0218368341 -0.0261428242
C 1.4310096115 -0.0991331242 -0.8049282551
C 2.1349489284 -0.6302416918 0.4721478512
C 2.7152456517 -2.0240141357 0.4481916706
O 3.1273031750 0.3007567284 0.9921807025
C 2.4439588552 1.0962579950 1.8499419520
N 1.2153115410 0.8829932801 2.0893393253
C 0.8511078261 -0.3013826507 1.2998639278
H -0.1656985203 2.1254230239 0.1474486648
H -1.1020956819 1.3885333473 -1.1686308007
H -1.6290556125 1.2092353230 0.5132525166
H -0.5434480298 -0.8921885080 -0.2657506295
H 1.4554902287 -0.7605642334 -1.6745981226
H 1.8179687124 0.8796497395 -1.0995886625
H 3.5776616112 -2.0769997934 -0.2241698049
H 3.0373362460 -2.3275327645 1.4488226904
H 1.9653474609 -2.7388163909 0.0949728432
H 3.0379630736 1.8884445331 2.2937581483
H 0.4238700289 -1.0680190243 1.9537005311