21

C 0.0028890557 1.4895456106 0.0071038954
C 0.0002054630 -0.0167722913 -0.0002539899
C 0.9872963250 -0.8687873034 -0.7823203646
C 0.2598183818 -2.0177427809 -1.4658017964
C -1.0805291127 -2.0874143799 -0.7460447836
C -1.0505567178 -2.0950085218 0.7668138058
C 0.3172622495 -2.0323221878 1.4336089072
C 1.0173459804 -0.8764401047 0.7334452884
C -1.3072986018 -0.7980638828 0.0216641812
H 1.0254033508 1.8802020884 -0.0081190841
H -0.5189677161 1.8972784234 -0.8668587880
H -0.4892166135 1.8884578349 0.9021368522
H 1.8225115082 -0.4015565734 -1.2948415942
H 0.1093226348 -1.7944151338 -2.5289816686
H 0.8161618258 -2.9624038761 -1.4105065696
H -1.9088423843 -2.5920881861 -1.2321104212
H -1.8590911525 -2.6046726569 1.2802058954
H 0.2090410564 -1.8197590430 2.5041145414
H 0.8707739675 -2.9762722717 1.3467887889
H 1.8723211472 -0.4142454543 1.2171437920
H -2.2592331473 -0.2822464793 0.0431180424