20

C -0.1704234569 1.5412153148 -0.0548863238
C 0.0052007715 0.0308574021 -0.0345678801
O -1.2307295475 -0.6359347656 -0.2083181889
C 1.2080160831 -0.4784018897 -0.8785777697
N 2.0108296224 -0.5897117312 0.3686469375
C 0.7864271703 -0.5563078508 1.1947389032
C 0.8801217093 0.2493916671 2.4899981892
C 0.2703807728 -1.9540151638 1.5324153360
O 0.8792198968 -2.9623376354 1.2759064975
H 0.7842563058 2.0522942905 0.0936670296
H -0.5626792005 1.8538990053 -1.0311942652
H -0.8743625238 1.8675793048 0.7161934237
H -1.6659544251 -0.2792445428 -0.9901001399
H 0.9724924554 -1.4377350694 -1.3535015870
H 1.6265748971 0.2094460550 -1.6213803094
H 2.4860940540 -1.4853172867 0.4567446265
H 1.2447141216 1.2581837361 2.2881600138
H -0.0935067447 0.3185714658 2.9874752233
H 1.5817261571 -0.2266086268 3.1836080310
H -0.6947593086 -1.9843131495 2.0784917928