21

C -0.0332057577 1.5323583014 0.2353889155
C 1.4144647460 2.0202045772 0.0280962980
C 2.2445495120 0.8219581143 0.5022322416
C 1.4873824345 -0.4014414956 -0.0546561486
C 0.0062903524 0.0441332315 -0.1749398208
O 1.9591775098 -0.7771915126 -1.3453890195
C 2.8717842241 -1.8455046273 -1.1563143717
C 2.2453498566 -2.5897198207 0.0205933682
O 1.6776616809 -1.5384420906 0.7884704260
H -0.3021079205 1.6274355218 1.2938617376
H -0.7660295833 2.1085013883 -0.3355676197
H 1.6013884260 2.2035498291 -1.0367288905
H 1.6391914284 2.9441287073 0.5677427847
H 3.2871370721 0.8314462221 0.1740027148
H 2.2317930396 0.7586310397 1.5960868760
H -0.6216014548 -0.5920602471 0.4518007785
H -0.3030604211 -0.0937029028 -1.2139511361
H 2.9241643849 -2.4257394350 -2.0804441307
H 3.8782536548 -1.4776348899 -0.9044431068
H 1.4694034911 -3.2904576564 -0.3202663859
H 2.9683171841 -3.1316479749 0.6373510094