10

F 0.0084381156 0.0656863713 0.0034414686
C -0.0234469540 1.3796199370 0.0105729191
C -1.2540954020 2.0478745800 0.0304753705
N -1.2663707959 3.3654974280 0.0373632062
C -0.0540185927 3.9468158140 0.0240822240
N 1.1294447855 3.3295605704 0.0050837933
N 1.1346304973 2.0007778024 -0.0017676666
C -0.0148499667 5.3869872548 0.0309213149
N 0.0071714705 6.5420158984 0.0365321490
H -2.1970604475 1.5088171237 0.0403547610