19

C 0.1607735938 1.2592377041 0.3420681920
O 0.0114384129 -0.1187874898 0.0877803974
C 0.5647516653 -0.5607653965 -1.1387633582
C 2.0941637250 -0.5715524499 -1.1495099982
C -0.0077369872 -1.9552650192 -1.3810299123
C -1.2535166354 -2.0914200569 -2.1585336756
O 0.0106591443 -2.3518071403 -2.7650306635
C 0.3480776362 -2.9798560926 -0.4283631549
C 0.6548749899 -3.8257435196 0.3680706260
H 1.2070319090 1.5486523243 0.5136022690
H -0.2352651271 1.8699946789 -0.4849080871
H -0.4115233762 1.4794142934 1.2464689696
H 0.2018653798 0.0734754784 -1.9642503499
H 2.4746705994 -1.1804692367 -0.3250479130
H 2.4513159635 -0.9933008589 -2.0935839484
H 2.5002066180 0.4390986338 -1.0579329787
H -1.8846265624 -2.9630744349 -2.0001831968
H -1.7629244689 -1.1893459897 -2.4946690199
H 0.9225800501 -4.5750465280 1.0715743427