18

C 0.0270550517 1.5857710192 -0.0936426302
C 0.0321152895 0.0560634372 -0.0696921546
C -1.3602816664 -0.5473374893 0.1216076362
C -1.3982349397 -2.1026289945 0.0644833617
N -2.3922547394 -2.4085807984 1.1040826433
C -2.4610928689 -1.2668701952 1.8909652936
N -1.9445684570 -0.1904912230 1.4339369637
C -3.1453459307 -1.3352610998 3.1553484191
N -3.6877018860 -1.4333476483 4.1709393247
H 1.0413172075 1.9795394248 -0.2071609027
H -0.5737926190 1.9653506383 -0.9275425511
H -0.3966785898 1.9832031227 0.8319199982
H 0.4501775552 -0.3354021495 -1.0064374796
H 0.6800385253 -0.3065690504 0.7381285342
H -2.0318646234 -0.1339958535 -0.6451571573
H -1.7121188677 -2.4867866579 -0.9085275612
H -0.4169797644 -2.5333853039 0.3108322717
H -2.3594641967 -3.3049689185 1.5686021404