18

N -0.0170772683 1.2948753859 -0.2473983821
C -0.0417510288 0.0387234565 -0.0872280066
O 1.0685258398 -0.7433894545 0.1595517045
C 0.6715055361 -2.1068606751 0.2850969614
C -0.8272013440 -2.1094151828 0.0893747383
C -1.2075590540 -0.8426742050 -0.1249933990
C -1.6672382388 -3.3118826066 0.1357610171
C -1.1701979166 -4.6520944283 -0.3874932055
C -1.3617049613 -4.4617874818 1.0850854604
H 0.9384536831 1.6456459881 -0.1681574556
H 1.1993984606 -2.7048762293 -0.4698878117
H 0.9710841149 -2.4777668932 1.2745399287
H -2.2060811217 -0.4719720401 -0.3037097177
H -2.7212449477 -3.1123821951 -0.0270752398
H -1.8816351429 -5.2618880650 -0.9323134359
H -0.1574860174 -4.7031771895 -0.7708906287
H -0.4803257638 -4.3824469607 1.7112417368
H -2.2067424892 -4.9389298534 1.5678673256