17

C -0.1029932368 1.3677423287 -0.0744849062
O -0.0498339506 -0.0519620664 -0.1691915156
C 0.7512572977 -0.5857982958 -1.1819196457
C 2.2209387100 -0.2052718356 -1.0806850005
C 0.4597211275 -2.0971170082 -1.2033526204
O -0.5008293186 -2.2527887131 -2.2466695667
C -0.5635499438 -1.1218525566 -2.9902878544
O -1.2267048571 -0.9834803942 -3.9660793458
O 0.2606199467 -0.1698208984 -2.4690923486
H 0.8312920224 1.7866718909 0.3188505860
H -0.3284958873 1.8231696962 -1.0439486419
H -0.9097714809 1.5930654285 0.6249977062
H 2.6144850073 -0.5107363754 -0.1072152809
H 2.7925848525 -0.6990630925 -1.8692807076
H 2.3543418173 0.8725839783 -1.1913671081
H 1.3481128957 -2.6908744475 -1.4380872881
H 0.0233954181 -2.4224476388 -0.2589003218