19

C -0.0370081718 1.5493097677 0.0297047174
C 1.4522127864 2.0214460862 0.0164912757
C 2.2881157319 0.7343410603 -0.0124690790
C 2.3715614006 -0.0414079658 1.3496266302
O 1.2206862776 0.2274277694 2.1829683707
C 0.4216337491 -0.6596064041 1.3669227146
C 0.0209459683 0.0155669841 0.0076417503
C 1.3994162670 -0.4134369832 -0.5732179037
C 1.6841007521 -1.2757192927 0.7018326654
H -0.5652976606 1.9121567257 0.9160303382
H -0.5726834404 1.9255260475 -0.8478544647
H 1.6590767212 2.6330688959 -0.8676593199
H 1.6891817841 2.6269131799 0.8960231988
H 3.2711492663 0.8357670004 -0.4790463575
H 3.3044422447 -0.0232473860 1.9160134745
H -0.3420554535 -1.1793198541 1.9483582883
H -0.8483487043 -0.4702629881 -0.4425054617
H 1.4954168010 -0.7451515604 -1.6062541952
H 2.0124896102 -2.3098093927 0.7633617076