19

C -0.2319767370 1.5343604054 0.0915702774
C 0.0927960575 0.0415593082 -0.0608942552
C 0.7931621202 -0.5302087334 1.1390145298
C 2.2638366660 -0.3253568337 1.5128019099
O 2.3635166577 -1.6856738988 2.0218327177
C 1.0177003500 -1.9304392909 1.6444517752
C 0.0538340298 -1.0248981716 2.3921793052
C 0.3024285924 -0.5318161634 3.7139543036
C 0.5122446081 -0.1041856808 4.8187549327
H 0.6789142099 2.1251448539 0.2347907041
H -0.7414812803 1.9177183270 -0.7974496589
H -0.8788970779 1.7083799113 0.9570252214
H -0.8322492043 -0.5207571976 -0.2381093333
H 0.7185737109 -0.1119196952 -0.9500874620
H 2.9138570881 -0.1976503972 0.6396345648
H 2.4983612618 0.4213834105 2.2779315563
H 0.7569866575 -2.9147534002 1.2702646104
H -0.9864510508 -1.2584969973 2.1718079297
H 0.6989230404 0.2594486537 5.7984665312