14

N -0.0130094868 1.2697038341 -0.1042861881
C 0.0526679351 -0.0701823740 0.1454318672
O 1.0718189931 -0.6513978586 0.4362425296
C -1.3170584038 -0.7541334459 0.0865574842
O -1.0925974474 -2.1527277621 -0.0604218935
C -2.1824292558 -2.9229684285 -0.0086798641
N -3.3595621579 -2.4772450281 0.1483777034
C -1.8403304143 -4.3266764357 -0.1589299846
N -1.6497790858 -5.4603769809 -0.2751735973
H 0.8449713296 1.7962997663 -0.0801783374
H -0.8395038278 1.7162199640 -0.4619795675
H -1.8725083693 -0.5586367869 1.0108557328
H -1.9292527510 -0.3856272133 -0.7443154428
H -4.0453907980 -3.2283826004 0.1657502979