19

C -0.5208529845 1.4415306724 0.0048517693
C -0.3075120592 -0.0654813030 -0.0144782697
O -0.4653297774 -0.7299539353 0.9851411338
N 0.0896267322 -0.6610675154 -1.2228150250
C 0.0473963913 0.0218352628 -2.4366151612
N 0.1810191451 -0.5711081738 -3.5534830219
C 0.3214589674 -2.0904765993 -1.2433606203
C 1.6260864720 -2.6078062692 -1.7821111897
C 1.3341259110 -2.6869036511 -0.3086907325
H 0.3507616968 1.9912001371 -0.3619907919
H -1.3848747043 1.7356167363 -0.5992962892
H -0.7105971135 1.7177725252 1.0415062096
H -0.1118897513 1.0941935047 -2.3205668479
H 0.1260430108 0.1077184017 -4.3109042648
H -0.5707609224 -2.6701622032 -1.4575366038
H 1.5907707798 -3.5068822854 -2.3858968768
H 2.3480613632 -1.8739671094 -2.1180665653
H 1.8618248403 -2.0123655230 0.3536164023
H 1.0895394826 -3.6440983021 0.1369918949