18

C -0.1401542585 1.4946582104 -0.0149864956
C -0.0413801042 0.0103573118 -0.0441530646
C -0.0129414327 -1.0542159197 -1.0780808183
C 1.2569757566 -1.5996981413 -0.4516910777
N 0.9110189099 -0.8528601920 0.8240956043
C -0.3084837323 -1.6273226674 1.2910489428
C -1.0670648195 -1.1223517489 0.0809158349
C -2.5040265829 -1.0469262722 -0.1717665026
O -3.3472753986 -1.5423533888 0.5415051560
H 0.8170819045 1.9496073923 -0.2916750929
H -0.8995875596 1.8452102505 -0.7207259272
H -0.4082900773 1.8534813373 0.9838723531
H -0.3324739713 -1.0071641993 -2.1124509604
H 1.3835882460 -2.6800395995 -0.3289973595
H 2.1577064835 -1.1671742668 -0.8944245497
H -0.1412733152 -2.7013398436 1.4183414621
H -0.6855633272 -1.2009711958 2.2227644785
H -2.7893294813 -0.4722983171 -1.0844639433