25

C 0.2064606430 1.5461017993 0.2137159972
C -0.1963570226 0.1112733285 -0.1523065126
C 0.6066721849 -0.4851326139 -1.3010783831
C 0.4321092270 0.2211357885 -2.6349451906
C 1.9742580331 -1.0609460320 -0.9968011571
C 0.8335138382 -1.9863682568 -1.3622392475
C 0.2742017301 -2.9645489059 -0.3763924150
C -0.9210458763 -3.8137628260 -0.7391508125
C 0.4425384331 -4.4469523072 -0.6128701397
H 1.2708730616 1.6024867380 0.4658862383
H 0.0229203666 2.2445609081 -0.6084098306
H -0.3629313298 1.9013891352 1.0784359602
H -0.0888000070 -0.5186049132 0.7363755716
H -1.2639257891 0.0872096460 -0.4108207965
H 0.7767937315 1.2602615723 -2.5947055351
H 1.0014182389 -0.2799205332 -3.4242291312
H -0.6214144923 0.2321945143 -2.9404205433
H 2.7791950326 -0.9120986525 -1.7096633828
H 2.2997477483 -1.0650290754 0.0396374586
H 0.8688680479 -2.3876734787 -2.3739403319
H 0.3321777728 -2.6558412545 0.6629615113
H -1.6606809043 -4.0220480414 0.0262520645
H -1.3354465138 -3.6991456492 -1.7355437325
H 0.9442247722 -4.7574940002 -1.5237630019
H 0.6378875534 -5.0879353800 0.2398901320