12

O 0.0825725835 1.2929967291 0.1535630279
C 0.0712001851 -0.0370565066 0.0114702860
N 0.0966231859 -0.7104622294 -1.1017829008
C 0.0679690913 -2.0277858025 -0.6618613395
C 0.0259514940 -2.0940391513 0.7149088360
N 0.0016680704 -3.4016501212 1.0132079400
N 0.0287255625 -4.1235808020 -0.1726321772
N 0.0683871128 -3.2859390371 -1.1690763047
N 0.0273674718 -0.7990493652 1.1765416468
H 0.1134485887 1.6637994592 -0.7382477175
H -0.0303741168 -3.9004587546 1.8852959345
H 0.0034256808 -0.4375171884 2.1138890385