12

F 0.0088278784 0.0213066189 0.0033118101
C -0.0178177129 1.3566950289 0.0106166226
C -1.2392184270 2.0129093905 0.0307285701
C -1.2534753448 3.4068080645 0.0381664349
C -0.0620835643 4.1127605426 0.0255418990
F -0.0569859294 5.4459747603 0.0324012043
C 1.1539520353 3.4311026847 0.0053678816
F 2.2866279896 4.1291059644 -0.0064932571
C 1.1890483423 2.0460570071 -0.0023079089
H -2.1574371838 1.4395984531 0.0403062142
H -2.1859461988 3.9581460040 0.0537829813
H 2.1351149754 1.5206059810 -0.0179767523