19

C -0.0238797057 1.4315741898 0.0752742568
N -0.1040526094 -0.0170843727 0.0079133809
C 0.5685562694 -0.6325602258 -1.0564518374
C 1.1431242616 -0.0974239200 -2.1932191576
N 1.6028632628 -1.1458582656 -2.9358150813
C 2.4109889791 -1.0915946702 -4.1278264730
N 1.3764740757 -2.3364555977 -2.3318076787
C 0.7451267649 -2.0323347496 -1.2041423517
N 0.3625610550 -2.9954545029 -0.2592624682
H 1.0089619305 1.8199179535 0.0804562913
H -0.5388288009 1.8662958443 -0.7889100206
H -0.5318411258 1.7820291676 0.9771695078
H 0.1475202807 -0.4540890855 0.8870625909
H 1.2540760226 0.9210442046 -2.5277446288
H 3.4842615250 -1.1049494238 -3.8986235248
H 2.1773074728 -1.9557956543 -4.7528934155
H 2.1794929180 -0.1772765799 -4.6797401198
H 0.5312917820 -3.9291607857 -0.6153869124
H -0.6167473983 -2.9057872060 -0.0085596178