14

C 0.0274466105 1.4811713337 0.0256573046
N 0.1896937506 0.0387930811 -0.0045091374
C 0.6227064318 -0.7203976188 -1.0258648501
N 0.7140233207 -2.0041103665 -0.8991404466
C 1.1616524417 -2.7160408649 -1.9771792007
N 1.3001423701 -3.9699173938 -1.9960057306
O 1.4891468813 -1.9772932439 -3.1493986017
N 1.3595446927 -0.5935212970 -3.1958372857
N 0.9509649156 0.0147880113 -2.1992152615
H 0.6571645990 1.9226642464 0.8054091029
H 0.3171112046 1.8945493537 -0.9381665571
H -1.0158502795 1.7465626969 0.2270808633
H -0.0403616890 -0.4926878821 0.8227772708
H 1.6462875599 -4.2804613061 -2.9027012700