18

O 0.1314596274 1.3660781175 -0.1761822826
C 0.0676984852 -0.0233836475 -0.0830153003
C 1.1326339231 -0.7334249923 -0.8516383627
C 1.2112233571 -0.7188751988 0.6749651718
C 2.1817527973 0.0946293043 1.3434330969
N 2.9334055734 0.7723651774 1.9053881469
C -1.3092629899 -0.6084022528 0.0273451866
C -2.4003478352 0.1154738501 0.7774172502
C -2.4552395518 0.0179917851 -0.7263049226
H 0.1026477304 1.7421996267 0.7113251514
H 0.9030253817 -1.6855994516 -1.3157787386
H 1.8417992993 -0.1097286380 -1.3814905591
H 0.9661037445 -1.6411032079 1.1910600760
H -1.3139808873 -1.6921925168 0.1017289512
H -3.0904010024 -0.4769289483 1.3671550815
H -2.1721738284 1.0869609850 1.2019168643
H -2.2393855787 0.9203390152 -1.2860572170
H -3.1881630156 -0.6393356672 -1.1798445539