12

O -0.0190180924 0.0095284858 0.0604932900
C -0.0076730556 1.1983711868 0.1104929661
C -1.0660484168 2.3124381199 0.0033789131
N 0.0205369839 3.3420825289 -0.1853989373
C 0.7870119998 3.3161094492 1.0453340162
C 1.0872495521 2.2485459208 0.0293792450
C 2.3243845103 2.1565144735 -0.6755373435
N 3.3272729001 2.0476493809 -1.2410998053
H -1.6587806706 2.2008111614 -0.9077927451
H -1.7224683359 2.5031793486 0.8560840019
H 1.5275763789 4.1054301310 1.1261308123
H 0.3055806763 3.0299130634 1.9783407566