11

N 0.1453122111 -1.1367469262 -0.0052955677
C 0.0426881733 0.0164144336 0.0024007921
C -0.1068322931 1.4199516106 0.0119086524
C -1.2096364648 2.2210703115 0.0311139676
C -0.7156217686 3.5661743055 0.0317981156
C 0.6519393793 3.4666137837 0.0122727142
O 1.0330488410 2.1820061409 0.0003058900
C -1.4756259091 4.7626565143 0.0487408395
N -2.1013107247 5.7358682815 0.0625900123
H -2.2393334240 1.9044032159 0.0434462879
H 1.4365261698 4.2049882787 0.0054125561