19

C 0.0536104236 1.6094502405 -0.1640568515
C -0.0220392969 0.0996132355 0.0254879225
C 0.8545699557 -0.7441452532 -0.9604742957
N 1.6957719456 -1.0960032298 0.1874339549
C 0.9584678410 -0.4317737994 1.1313631772
O 1.0511385586 -0.3296659892 2.3287612663
N -1.4128512887 -0.3175527840 0.0687816732
C -1.7680695436 -1.5434764080 0.7830811689
C -2.1133582345 -0.2111225268 1.3508728556
H 1.0884469262 1.9392726523 -0.2942785939
H -0.5294449226 1.9066396172 -1.0405101910
H -0.3563328348 2.1192553825 0.7127034537
H 0.3239142821 -1.5908684826 -1.4048127693
H 1.3689857697 -0.1726231870 -1.7389764504
H 2.5235794640 -1.6679629906 0.2662235951
H -2.5279654759 -2.1521047763 0.3016806134
H -0.9855406457 -2.1041261066 1.2891237108
H -1.5401736492 0.1082524947 2.2170189539
H -3.1309894445 0.1646832408 1.2936154663