16

N -0.1215884398 -1.1737854800 -0.2294104949
C -0.0679831676 -0.0250771230 -0.1141650609
C -0.0175130093 1.4232825682 0.0223725108
C -0.5799190131 1.9740111419 1.3815022870
C 0.6491246175 2.7534712660 1.8956335350
C 1.7485529251 1.7593050513 2.3095789501
O 2.1885933509 1.2692510633 1.0267943770
C 1.4332038551 2.0061406181 0.0873483177
O 1.2167263054 3.2666936481 0.6740684536
H -0.5459348525 1.8711240710 -0.8237593699
H -1.4236102920 2.6424511527 1.2052667540
H -0.8975284250 1.1793447994 2.0582850861
H 0.4491351990 3.5654882348 2.5918482587
H 2.5846057940 2.2497214174 2.8187916137
H 1.3786101143 0.9317055331 2.9221712071
H 1.9689650980 2.0822268075 -0.8572193351