19

C -0.0662351528 1.4145123255 -0.1188751811
N 0.0212487902 -0.0272371583 0.0602202113
C -1.2173041376 -0.7612860245 0.0870189666
C -1.5077503109 -1.8271391974 -0.9598635652
C -1.1516641506 -2.2207299246 0.4515115027
N 0.1250242680 -2.8104318713 0.7744323327
C 1.2519056841 -2.1648566224 0.0988258343
C 1.2520393499 -0.6322694403 0.0511479432
O 2.3013306256 -0.0120449008 -0.0188994241
H 0.9450435502 1.8171049429 -0.0930649626
H -0.5335337897 1.6640435867 -1.0794425680
H -0.6625913615 1.8638781453 0.6835186037
H -2.0421074649 -0.1553579339 0.4479898609
H -2.5336431029 -1.9729668185 -1.2797416869
H -0.7737992984 -1.9599974474 -1.7462134330
H -1.9546506964 -2.6208790289 1.0618672118
H 0.2599347740 -2.7218141960 1.7771422635
H 2.1828087303 -2.4633020093 0.5839198185
H 1.3161631535 -2.5284490969 -0.9346581084