17

C -0.6940589603 -1.0055130067 -0.7812715386
C -0.3023435054 0.0453107750 -0.3476741107
C 0.1766867669 1.3093911044 0.1897356433
C -0.4244961718 1.6919926327 1.5781081159
C 0.6862540314 2.4771723953 2.2196232952
C 1.8589381610 2.3165661208 1.5870102325
C 1.7189202578 1.3781044795 0.3977826530
C 3.1056737078 2.8748563176 1.9561090611
C 4.1891586241 3.3288833960 2.2254404042
H -1.0413668798 -1.9310652331 -1.1685563752
H -0.0920786005 2.1105515249 -0.5095908836
H -1.3575861923 2.2558310361 1.4781884295
H -0.6623231301 0.7947221366 2.1655762428
H 0.5508496672 3.0679768507 3.1176467486
H 2.1333053689 0.3915323506 0.6372890938
H 2.2410046598 1.7371933972 -0.4931469893
H 5.1369301654 3.7355045725 2.4776845475