14

C -0.0229757279 1.4591908761 0.0067561476
C -0.0014278988 -0.0280882082 -0.0229142155
N -0.0498474443 -0.7404112998 -1.1219285111
N -0.0032663691 -2.0374651839 -0.6551437113
C -0.0046131045 -3.3440177956 -1.0706836288
N 0.0648551845 -4.1222306600 -0.0131926744
N 0.1152428591 -3.3459798786 1.1433064895
C 0.0715139023 -2.1161309173 0.7004193792
N 0.0728655994 -0.8041394990 1.1194616103
H 0.8862305861 1.8588376049 0.4682334312
H -0.0911540499 1.8314790638 -1.0156119400
H -0.8812022956 1.8310889993 0.5762963396
H -0.0552570081 -3.6578742589 -2.0989569774
H 0.1197404269 -0.4801903429 2.0690947010