23

C -0.1556746568 1.3389366054 0.1266908521
O 0.0225986414 -0.0473083137 -0.0533544049
C 0.7050937963 -0.4891400658 -1.2354552643
C 0.0139488938 0.0064880310 -2.5136681179
C 2.1746213965 -0.0448621251 -1.2035439223
C 0.6215164309 -2.0470111746 -1.1019566810
C -0.8252694444 -2.5777033168 -1.0228750630
C 1.3608353408 -2.7335620873 -2.1592042089
C 1.9406639446 -3.3177381280 -3.0365354299
H 0.7952693883 1.8865413347 0.1854113182
H -0.7693447862 1.7930593767 -0.6632799251
H -0.6784496402 1.4599025216 1.0792060825
H 0.1804523571 1.0761354457 -2.6684969329
H 0.4177390631 -0.5210759408 -3.3819094330
H -1.0640869822 -0.1688669786 -2.4716364366
H 2.6430666549 -0.3524368408 -0.2635782449
H 2.7280520817 -0.4955359270 -2.0304726548
H 2.2645171721 1.0412347153 -1.2946496606
H 1.1073299843 -2.2727948455 -0.1434908171
H -0.8178511392 -3.6434475420 -0.7801324692
H -1.3735367180 -2.0390520442 -0.2488928968
H -1.3456817835 -2.4593721319 -1.9768755885
H 2.4624051147 -3.8347351884 -3.8033375211