23

C -0.1985878024 1.4088873254 -0.1933620747
C 1.2411330434 1.0495418735 0.0870462336
C 0.1909935715 -0.0309023223 0.0277663895
C -0.2363260745 -0.7634787045 1.2829773016
C -1.6675416373 -1.3192018407 1.1746806736
C -2.0314816311 -2.1288557869 2.4215195283
O -1.1070391828 -3.1757982445 2.6620493901
C 0.2091456159 -2.6881184894 2.8579130542
C 0.7203087290 -1.9152161109 1.6397445110
H -0.7557306599 1.9086684774 0.5928606618
H -0.4649036970 1.7277254462 -1.1950091459
H 1.9582167785 1.1229309150 -0.7230670271
H 1.6451605302 1.3094184484 1.0604740344
H 0.2079584432 -0.6573117155 -0.8620850128
H -0.2185569069 -0.0424591387 2.1157863000
H -2.3878112007 -0.5047555712 1.0346404056
H -1.7397982576 -1.9719760554 0.2949811670
H -2.0781436707 -1.4594007200 3.2994402078
H -3.0105800018 -2.6052382797 2.3135865980
H 0.2402317584 -2.0380653136 3.7509735262
H 0.8319142435 -3.5643276328 3.0619719613
H 0.7946609567 -2.6045905024 0.7886032310
H 1.7284590127 -1.5321903176 1.8363304757