18

O -0.0941003229 0.0203144035 0.6634095946
C -0.0695152549 1.1459123126 0.2111178428
N 1.0283418222 1.7732686775 -0.2881430835
C 2.3588128462 1.1773141744 -0.2977453906
C 2.9726482088 1.0763869073 -1.6863419257
C 4.2084411209 1.5760338340 -1.7257040063
C 4.6096269218 2.1628696568 -0.4105347986
C 3.7775580078 3.3549561313 0.0210279595
C 3.4097298483 1.9672767938 0.4914044926
H -0.9687979876 1.7914845650 0.1533748515
H 0.9315216619 2.7260366103 -0.6032308358
H 2.2146152626 0.1836577863 0.1391481977
H 2.4243766063 0.6503991510 -2.5182919354
H 4.8502281023 1.6007719898 -2.5991695749
H 5.6278917384 2.0680396941 -0.0519713188
H 4.1959509742 4.0221548419 0.7673320885
H 3.1787526157 3.8480491800 -0.7388733161
H 3.5268820680 1.7457708202 1.5448471785