17

C 0.0642890378 1.3874167011 0.4409703111
C -0.0363943331 -0.0168677288 -0.1809270367
C -1.4259134497 -0.5544392918 -0.1589586773
N -2.2218355068 -0.7735976906 -1.1624393663
C -3.3468056644 -1.2378421406 -0.5283244730
O -4.4096758542 -1.5790375629 -1.2413762032
C -5.5316134774 -2.0529895216 -0.4890038838
N -3.2762136632 -1.3092010045 0.7805526849
O -1.9691346976 -0.8446031206 1.0315394554
H 1.0991847023 1.7381647799 0.4108674777
H -0.5554024306 2.1023735535 -0.1075265732
H -0.2654419527 1.3779191441 1.4829926213
H 0.2889282028 -0.0046802745 -1.2233400694
H 0.6144842384 -0.7095037149 0.3643764452
H -5.8828217876 -1.2834917225 0.2049810018
H -6.3030562914 -2.2849022228 -1.2228727795
H -5.2633869126 -2.9481713525 0.0799921248