19

C 0.1157130430 1.5017283593 0.3265041312
N 0.0235942368 0.0925992621 -0.0159195526
C -1.2178954915 -0.5091751671 -0.0289368052
O -2.2504109290 0.1327039601 0.1046321521
N -1.2109578633 -1.8777261181 -0.2390317198
C -0.0065218417 -2.6556401895 -0.4537526153
C -2.4840453027 -2.5811406012 -0.1336918258
C -2.8151387412 -3.3572571646 -1.3286718054
C -3.0739112355 -4.0163968449 -2.2998608886
H 1.0785197146 1.8908067147 -0.0147560232
H -0.6886232191 2.0367257378 -0.1783086190
H 0.0189539567 1.6873744318 1.4045887345
H 0.8244817575 -0.4742843347 0.2051438755
H 0.5201867750 -2.9012497382 0.4815368065
H -0.2767913883 -3.5922496305 -0.9467242747
H 0.6816864253 -2.1275736841 -1.1201009534
H -2.4812323930 -3.2512520560 0.7393879479
H -3.2393290839 -1.8114922974 0.0439356075
H -3.3201520798 -4.5836506694 -3.1631969021