12

N -0.0123767065 1.3638836926 0.0091094996
C -0.0541749817 0.0342161348 0.0013848894
C -1.1336620525 -0.8409526036 0.0024411256
C -0.5422166370 -2.1283050548 -0.0080149949
N 0.7579185370 -2.0750155185 -0.0153885348
O 1.0724923572 -0.6674311579 -0.0089329938
N -2.4910274882 -0.4772911019 0.0117240418
O -3.3348940460 -1.3672380912 0.0113527492
O -2.7506775903 0.7388444692 0.0197397032
H 0.8639817889 1.8554091769 0.0046028791
H -0.9020105319 1.8414328605 0.0152037746
H -1.0435619592 -3.0848579462 -0.0106215589