20

C -0.3284570096 1.4333254123 -0.0531758382
N 0.1329374990 0.0669140247 0.0169187699
C 1.2027883724 -0.3983212982 -0.9070159643
C 1.9796654350 -0.8772441475 0.3076507918
O 2.7795974447 -2.0322143031 0.4523340214
C 3.6040999603 -1.3399932596 1.4359165147
C 2.9109456649 0.0181854907 1.1501685780
C 1.7335972223 0.4355674619 2.0693937965
C 0.7809192833 -0.4778520283 1.2342143926
H 0.4681076171 2.1954947192 0.0391699048
H -0.8321280054 1.6004491061 -1.0116210327
H -1.0600534559 1.6149926629 0.7412976063
H 0.8540104768 -1.1796964329 -1.5941653062
H 1.7044104900 0.3860052244 -1.4930060923
H 3.4536988351 -1.7416623119 2.4457586717
H 4.6642603459 -1.4033892170 1.1718688160
H 3.5474897067 0.7884973108 0.7121716932
H 1.8355638903 0.1372628594 3.1174850475
H 1.4927136393 1.5014443366 2.0409878079
H 0.1461327479 -1.1774363907 1.7860867111