16

C 0.0430327105 1.5783116441 0.0374014701
C -0.1506704557 0.0598306468 -0.0550059280
C 0.7287864013 -0.5324939692 -1.1500920055
O 0.3748314897 -1.8904806934 -1.4558444877
C 0.7182061703 -2.8973782248 -0.6502837574
O 0.6738891801 -4.0361801181 -0.9900491222
O 1.1753565367 -2.5750865147 0.6135843638
C 0.6631128008 -1.6074565122 1.4665179306
N 0.0851953091 -0.5158496565 1.2599291723
H 1.0862557715 1.8243866281 0.2610750587
H -0.2368331620 2.0680348829 -0.8999678514
H -0.5754942475 1.9783761415 0.8430664668
H -1.1969666443 -0.1431627122 -0.3204283130
H 0.5807433266 -0.0009467617 -2.0919259008
H 1.7883139856 -0.4731065084 -0.8776839968
H 0.8614005574 -1.9442489823 2.4815722205