20

C -0.1612150261 1.5911012282 -0.0306486330
C 0.0401074198 0.0735464474 -0.0090944805
C 0.8594549243 -0.4875285889 -1.1506397049
C 1.6317389751 -1.5022846207 -0.7725677595
C 1.4810038200 -1.8066901991 0.6970362709
C 0.7884526464 -0.5153240333 1.2514981267
C 1.8626349747 0.4439964877 1.8077599459
C -0.1661060754 -0.8284426027 2.3179277772
N -0.9225002636 -1.0672381345 3.1594698606
H 0.7879634621 2.1327684036 -0.0670537501
H -0.7377976329 1.8748953918 -0.9167608006
H -0.7198409114 1.9301782833 0.8474366288
H -0.9582666492 -0.3865192805 -0.0429095359
H 0.7667235104 -0.1056708722 -2.1615337766
H 2.2705050443 -2.0879259909 -1.4235955334
H 0.8540380695 -2.6940874171 0.8521872213
H 2.4299155561 -1.9995099620 1.2084111497
H 2.5888880663 0.6800778515 1.0251569372
H 1.4251976694 1.3754165614 2.1726685580
H 2.3916051801 -0.0289114632 2.6394089782