19

C -0.1683464214 1.5036423895 -0.7135762145
C -0.1560370860 -0.0015388115 -0.5903491050
C -0.6713342959 -0.6908145766 0.6007156742
O -1.4290260945 -0.6494927251 -0.6091340382
C 1.1393340052 2.1248510660 -0.2540570602
O 2.2232677465 1.6409732480 -1.0369974526
C 3.1234373202 2.7237681535 -1.2602907043
C 2.4689503120 3.9073962240 -0.5224899514
O 1.1070144604 3.5189925159 -0.4362991329
H -0.3307366089 1.7961491947 -1.7564223055
H -0.9872873693 1.9148205357 -0.1151395493
H 0.6104474138 -0.5071945491 -1.1765936662
H -0.2788571137 -1.6687330340 0.8758275018
H -1.0785055345 -0.1064628056 1.4255579676
H 1.3373704112 1.8908568659 0.8099422229
H 4.1172848841 2.4831628811 -0.8656426370
H 3.2065088613 2.9032091500 -2.3384864130
H 2.9022689426 4.0398178614 0.4802745750
H 2.5278534970 4.8539673660 -1.0631475414