21

C 0.1447537711 1.2766233039 -0.3825879167
C 0.3059882704 -0.1673246806 0.0158670733
O 1.6249605957 -0.6122640669 0.3845428455
C 0.5885301586 -0.6622890583 1.3759047664
C 0.7553821854 0.2619447373 2.5627680091
C 0.1421525415 -2.0628508512 1.7386788455
O -1.1160329821 -2.1032471433 2.3674534025
C 0.4397936768 -3.2108707048 0.8279602990
C 1.1735299463 -3.0831735968 2.1495497464
H 0.6746707649 1.9537967550 0.2894023477
H 0.5355987625 1.4321951843 -1.3938129305
H -0.9162229899 1.5490368146 -0.3904064854
H -0.2099165049 -0.8701186508 -0.6411153635
H 1.1366989162 1.2391213237 2.2651627835
H -0.2027859860 0.4059094986 3.0726448247
H 1.4626708870 -0.1715192447 3.2785751920
H -0.9904611484 -1.8943151815 3.2990731019
H -0.3276898588 -3.9719498133 0.7525012723
H 1.0030671972 -3.0092194236 -0.0748804423
H 2.2187598726 -2.7954184460 2.1197515506
H 0.9017204337 -3.7701932455 2.9436948180