19

C -0.0846390416 1.6516649217 0.0569581320
C 1.4521556412 1.4384078229 0.1032329151
O 1.1402595478 0.1943998750 0.8668811048
C -0.0229510148 0.0980505519 -0.0242888904
C 0.6284163289 -0.0836214294 -1.4175040674
C 1.4289059507 -0.9826936093 -2.4179556726
C 1.8422421786 0.5182073893 -2.7236324387
C 0.3473999144 0.8578032930 -2.6487342775
C 1.9577207888 0.6654300592 -1.1564411943
H -0.4335125707 1.9524635554 1.0455637749
H -0.5651349682 2.2482064801 -0.7147694088
H 2.1211464783 2.1095246414 0.6405996156
H -0.8102363893 -0.5546848840 0.3496033087
H 2.1968062535 -1.6312376062 -1.9916542153
H 0.8617271469 -1.4853994021 -3.2068288154
H 2.5570157868 0.8431295640 -3.4820217899
H -0.2871569569 0.4370386942 -3.4337426259
H 0.1013583855 1.9031730092 -2.4747584363
H 2.7606802500 0.0323415338 -0.7684150584