19

C -0.2837260412 1.2074926873 0.1019313986
O 0.5134204167 0.0772322313 -0.1869064725
C 0.9051375170 -0.5955695031 0.9579252950
C 0.0754431808 -1.6590406882 1.6377661281
C -1.0684323386 -2.3689045574 0.8967289274
C -0.4232860286 -3.2003955951 -0.2082208843
O 0.1938366767 -2.4378353791 -1.2457121248
C 1.0290069551 -2.9575136890 -0.2063168280
C 1.3896244387 -2.0192164043 0.9227627376
H 0.2590868637 1.9380854435 0.7225359885
H -0.5367407218 1.6726415401 -0.8532154332
H -1.2101238834 0.9330868021 0.6266506393
H 1.4570978081 0.0407675641 1.6569035672
H 0.0191694987 -1.6277417309 2.7212531325
H -1.5970985390 -3.0299545798 1.5914579154
H -1.8055712337 -1.6738209723 0.4808037414
H -0.8839106589 -4.1326380603 -0.5296789573
H 1.7604120774 -3.6960816088 -0.5242522941
H 2.2947665722 -2.2565173804 1.4712345732