21

C -0.1124226875 1.1095357337 0.3546461003
O -0.2121695597 -0.0046350466 -0.5141867402
C -1.3778627632 -0.7341980107 -0.3256705172
C -1.3959667488 -2.1214807748 -0.8639805527
C -1.3914130139 -1.9170151683 0.6556726759
C -0.1105447558 -2.2551822820 1.4034755175
C -2.6198937969 -2.1603995927 1.3633941506
C -3.6452380937 -2.3554042965 1.9674263824
C -4.8833582532 -2.5957409504 2.6952251326
H 0.8173646283 1.6265183979 0.1070558816
H -0.9550783662 1.8025557898 0.2140085019
H -0.0868402326 0.8035064405 1.4091802194
H -2.2945113426 -0.1458686062 -0.3790867263
H -2.3013472546 -2.4873339716 -1.3329176407
H -0.4694846048 -2.4815589060 -1.2983550915
H 0.7599159785 -1.9074894046 0.8424097148
H -0.0988142188 -1.7811335517 2.3898050600
H -0.0227227750 -3.3360718603 1.5515385281
H -4.8148993086 -3.5004720301 3.3099483679
H -5.1286150945 -1.7614995232 3.3625286430
H -5.7281468564 -2.7286478164 2.0098536026