16

O 0.1379089870 1.4178049489 0.0992741456
C 0.0492333493 0.0170305107 0.0847896416
C 0.2597592581 -0.6286001283 1.4791082514
C -1.1302226143 -1.3045287340 1.3819974587
N -2.2375165642 -0.4650358265 1.8492971910
C -2.4733730654 0.1753177397 0.6466844453
O -3.2594152192 1.0169996414 0.3031410263
C -1.3598718843 -0.6395752859 -0.0465695956
O -1.5859396853 -1.2461352316 -1.2685745673
H -0.1760278563 1.7543270538 -0.7473241390
H 0.7005145076 -0.4329852934 -0.6783502114
H 1.0981726935 -1.3266896005 1.5120754098
H 0.3589783484 0.0965197883 2.2890175489
H -1.2358180672 -2.3694815929 1.5855431042
H -2.4148053842 -0.1115549353 2.7802371966
H -2.5315912535 -1.3989001942 -1.3737086459