24

C -0.0828597335 1.5620448834 -0.0008171697
C -0.1640941026 0.0375349632 -0.1129196533
C 0.7876270618 -0.5172207395 -1.1834206876
O 2.1393749617 -0.1848404684 -0.8967429820
C 0.6673803381 -2.0448510258 -1.3994473039
C 1.4188699026 -2.4728857022 -2.6617181654
N 1.2594946433 -2.7059395205 -0.2271990349
C 0.3665422054 -3.1524572969 0.8388452428
C 1.0245567850 -4.1350147717 -0.0628914569
H 0.9452500132 1.8709461095 0.2045552770
H -0.3960673262 2.0440370582 -0.9341033128
H -0.7255057440 1.9384207416 0.8009393920
H 0.0826345647 -0.4151912955 0.8546927629
H -1.1909173560 -0.2690512249 -0.3540617573
H 0.5511364680 -0.0252068714 -2.1369878271
H 2.4436049544 -0.8839678338 -0.2990791785
H -0.3997175521 -2.3102463170 -1.5046333218
H 0.9602991291 -2.0214035008 -3.5465844478
H 2.4591712391 -2.1429328737 -2.6081733246
H 1.4004755005 -3.5591511783 -2.7878207064
H 0.7253467142 -3.0043070223 1.8534109714
H -0.7017163861 -2.9937124331 0.7061246681
H 0.3916084118 -4.6341894623 -0.7944692419
H 1.8727981477 -4.7216305976 0.2782778978