18

C 0.0776240951 1.5531328234 0.0576183107
C 0.0345536156 0.0590416005 0.0386266447
C -0.0128840067 -0.7259648958 -1.0673558898
N -0.0347634182 -0.4222192461 -2.4263751281
O -0.0424638446 -2.0728262987 -0.6751483027
C -0.0116990108 -2.0697062637 0.6745634015
O -0.0326512238 -3.2705417128 1.2867852092
C 0.0358006400 -0.8172695909 1.1941148808
C 0.0796005002 -0.4333861627 2.6394434565
H 0.9802559128 1.9234547974 0.5585419059
H 0.0660498515 1.9446363670 -0.9620216765
H -0.7792156351 1.9736713257 0.5977840943
H -0.8762494506 -0.7477068491 -2.8922275736
H 0.7655136262 -0.7937215564 -2.9289769343
H -0.0626866008 -3.9509818319 0.6049393747
H 0.9820659803 0.1404989175 2.8835830351
H -0.7790894461 0.1867819661 2.9248763696
H 0.0710877248 -1.3227180694 3.2749993321