16

C -0.0123926752 1.4966707146 -0.1235084193
C 0.0994352585 0.0036022519 0.0651945995
N 1.4381727023 -0.5927092965 0.0929475368
C 0.6026871487 -0.6599791537 1.3191779184
C 1.1938263535 0.0866336834 2.5080358079
O 2.3756119913 -0.5369823618 2.9575649813
C 0.0137795258 -1.9426751814 1.6388141140
N -0.4590204698 -2.9693549208 1.8850003281
H 0.8235454432 2.0284357196 0.3333873040
H -0.0092914279 1.7304579312 -1.1931286438
H -0.9484194415 1.8734026418 0.3006481912
H -0.6706804824 -0.5675643199 -0.4507619285
H 1.4515099527 -1.4925820221 -0.3802457493
H 1.3675038210 1.1322311622 2.2247976122
H 0.4919364845 0.0739045123 3.3467922012
H 2.9790231953 -0.5555435208 2.2048536262