21

C 0.3432199032 1.4500575373 0.1485707293
C 0.1136082047 -0.0624039497 0.0593094931
C 0.5365357003 -0.6189166128 -1.2888182437
O 1.9622326512 -0.4710377750 -1.5298173851
C 2.1162919647 -1.8727687676 -1.8170259648
C 2.8687936403 -2.6319057340 -0.7278718664
O 1.9334987628 -2.8199145309 0.3288154062
C 0.6677054504 -3.0551047497 -0.2803113782
C 0.6211017172 -2.1525444481 -1.5145308499
H 1.3974741494 1.6851648196 -0.0226880803
H -0.2473757916 1.9882157964 -0.6013359179
H 0.0635467522 1.8339535741 1.1339836403
H 0.6804748300 -0.5726381808 0.8445814390
H -0.9488878385 -0.2941127320 0.2146106162
H -0.0259562920 -0.1170868371 -2.0902312418
H 2.5056677206 -2.0478734827 -2.8251768075
H 3.2168958548 -3.6020379353 -1.1214269410
H 3.7228682155 -2.0747353682 -0.3354939045
H 0.5726547051 -4.1100656972 -0.5863415491
H -0.1034456733 -2.8430051503 0.4646879817
H -0.0057909170 -2.5456270860 -2.3145606155