23

C -0.6522750129 1.2881107892 0.1743258881
C 0.1324969008 0.0013704279 0.0058121069
C 0.9024155374 -0.2072184721 -1.3178241466
C 2.1657642869 -0.2104071021 -0.4270692192
O 1.3677379418 0.0058582738 0.7649104558
C 2.9746971405 -1.4846457050 -0.3589631844
C 3.9660315787 -1.7919820992 -1.5198415021
C 4.9811840096 -2.3091515903 -0.4643906178
C 4.1764685720 -1.5520104334 0.6263875181
H -0.0555936419 2.1517174648 -0.1365302210
H -1.5677615869 1.2615964611 -0.4275522926
H -0.9357664893 1.4272593391 1.2223866011
H -0.4897520652 -0.8564922435 0.2965052875
H 0.7016138484 -1.1444708726 -1.8408212752
H 0.8289694630 0.6216428727 -2.0247144233
H 2.8395380107 0.6429593584 -0.5958386085
H 2.2993064330 -2.3320407302 -0.1934637260
H 3.6388995791 -2.4822391756 -2.3011181203
H 4.3159204178 -0.8701452329 -1.9974195567
H 4.9148471771 -3.3936525876 -0.3381259886
H 6.0318916362 -2.0419507133 -0.5995408343
H 4.5880190270 -0.5551503367 0.8160613486
H 4.0163545563 -2.0473293327 1.5860001006