14

N 0.0283934415 1.4107049029 0.1679947802
C -0.0043778481 0.0285572091 0.0627210248
C -1.1418660611 -0.7066621643 0.0373708090
O -2.3667516251 -0.1497563416 0.0481149611
O -1.1939513127 -2.0587276276 -0.0067195063
N -0.0281588890 -2.8114850176 -0.0288343826
C 1.0732754174 -2.1426967603 -0.0169056124
C 1.2464071418 -0.6933050830 0.0145584150
N 2.3666390963 -0.0508887718 -0.0055950327
H 0.9328479997 1.7715068829 -0.1113548507
H -0.7535073135 1.8974977690 -0.2446118395
H -3.0241448129 -0.8563933279 0.0168782743
H 1.9569955558 -2.7767750541 -0.0424058702
H 3.1596306200 -0.6913245858 -0.0496527199