19

O -0.0157130675 1.5149269371 -0.0120550759
C -0.0246684578 0.1219631985 -0.0386010512
C 0.1485673356 -0.6260169793 1.2814955248
O -0.9232926747 0.0107453786 2.0678880186
C -2.0831756625 0.0154370522 1.1552852015
C -1.4151503413 -0.6779273792 -0.0063372206
C -1.7055371742 -1.5651808346 -1.2222910007
C -0.5100966856 -2.4706902082 -0.7402374267
C -0.6114991742 -1.8194265246 0.6851057140
H -0.2648887632 1.7666174357 0.8873851456
H 0.6202517467 -0.2043513935 -0.8525007882
H 1.0436911762 -0.6388377137 1.9046862741
H -2.9055921373 -0.5485098516 1.6049063602
H -2.3954332043 1.0504829945 0.9795679671
H -2.6612744907 -2.0933045000 -1.1517617461
H -1.6313124449 -1.1010023924 -2.2093091466
H -0.7052366641 -3.5442761622 -0.7424816572
H 0.4234332437 -2.2963097299 -1.2776067294
H -1.1175883100 -2.4491223576 1.4185247967