25

C 0.0825400339 1.6006040403 0.1776357096
C 0.0077062191 0.0784240540 0.0151469826
C -1.4178995244 -0.5100427252 -0.0570735182
C -2.1487647747 -0.0498673005 -1.3315979652
C -3.6562818553 -0.3660885305 -1.3952234539
C -4.0123159883 -1.8154402347 -1.6248010432
C -3.5986764834 -2.8457309824 -0.8878682664
C -2.6943406960 -2.7608573790 0.3181787538
C -1.3505162281 -2.0411587350 0.0949357300
H 1.1199207596 1.9257357981 0.3062717061
H -0.3178139401 2.1338208112 -0.6896164220
H -0.4792588649 1.9311830207 1.0588441455
H 0.5661202665 -0.2236159425 -0.8819094642
H 0.5289515298 -0.3860608826 0.8619086091
H -1.9782602271 -0.1177680367 0.8075046145
H -2.0398671967 1.0364231280 -1.4228135038
H -1.6518694116 -0.4856299605 -2.2088968704
H -4.1263367003 -0.0122155528 -0.4647072774
H -4.1002248128 0.2355200795 -2.1953935683
H -4.6739960070 -2.0190334807 -2.4640268362
H -3.9421609900 -3.8413438051 -1.1604974091
H -3.2242050674 -2.2622618611 1.1444119501
H -2.4854049441 -3.7755227478 0.6734935685
H -0.8524563526 -2.4728060127 -0.7835570335
H -0.7064334342 -2.2653552520 0.9547646423