17

O 0.0070202911 1.4061878722 0.0979108318
C 0.0240790377 0.0121039915 0.0083510337
C -1.4094933543 -0.5688456563 0.0278484597
C -1.4224008985 -2.0727042118 -0.2208461757
O -1.9878876292 -2.8513740504 0.5074232420
C -0.6679866069 -2.5212211953 -1.4708534319
C 0.7626233186 -1.9332566961 -1.5216150981
C 0.7479322689 -0.4420250474 -1.2591077096
O 1.2514266663 0.3812426309 -1.9915764170
H 0.5176621781 1.7174727918 -0.6677873002
H 0.5775496277 -0.4183423129 0.8622030005
H -1.8993709687 -0.3500909651 0.9779658298
H -1.9775054961 -0.0755448955 -0.7721543161
H -0.6508101890 -3.6121126028 -1.5014367155
H -1.2295683447 -2.1680739515 -2.3460781396
H 1.3740575906 -2.4070026611 -0.7423680506
H 1.2419405586 -2.1212384203 -2.4843827332