21

C 0.3912004318 1.5529953140 -0.2296953700
C 0.0726548183 0.0897533439 0.0441571196
C 0.5549422662 -0.9896094174 -0.9780460346
C 1.1669688067 -1.8188222794 0.1812955865
C 2.6650568891 -1.5259062145 0.4643611558
C 2.2702593748 -0.4946839469 1.5591504869
C 2.8727144763 0.8883057225 1.5294791063
O 2.7874544111 1.6849972464 2.4299289462
C 0.7501829684 -0.7034374020 1.2054513036
H 1.4420294035 1.7011339228 -0.4995396519
H -0.2095572516 1.9225817097 -1.0683044889
H 0.1790726731 2.1833305536 0.6398988678
H -1.0097527497 -0.0041727070 0.1849848477
H -0.2517409827 -1.4834550924 -1.5253075510
H 1.2899585127 -0.6352879215 -1.7087319723
H 0.8443855749 -2.8555743951 0.2790167873
H 3.2445720581 -2.3720804194 0.8401947545
H 3.2053767386 -1.0994475835 -0.3886548240
H 2.4382727622 -0.8830522283 2.5677987831
H 3.4335978473 1.1399656310 0.5973718241
H 0.1182064209 -0.8833506567 2.0756012134