14

N -0.1481615511 1.4322373144 -0.2048151057
C -0.0642927066 0.0032083734 -0.0512000172
C 1.0007444984 -0.6067365550 -0.8065407545
C 1.9044589784 -1.1143140679 -1.4145499011
C -0.4469872768 -0.7388511231 1.2051865500
O -1.4524586644 0.0279901598 1.9113444005
C -2.3577327224 -0.1762586962 0.8593635879
O -3.5020245925 0.1285060570 0.8316968485
C -1.3473951019 -0.8800141480 -0.0031211879
H -0.7157379992 1.8236200641 0.5425406773
H 0.7815613186 1.8307685246 -0.1149998337
H 2.7003027410 -1.5584444989 -1.9606242324
H 0.1237343901 -1.4614346927 1.7717688793
H -1.5245162516 -1.6849321315 -0.7001270011