21

C 0.5263490443 1.5812264283 0.0991819170
C 0.0370458492 0.1514633668 -0.1456463643
C 0.7587908166 -0.5378995790 -1.3078983090
O 2.1690137811 -0.5880602378 -1.1052709589
C 0.1954330443 -1.9498595593 -1.5863263535
C 0.8206875790 -2.5377342347 -2.8357517779
O 0.4913312216 -2.1826196202 -3.9488567840
C 1.9243216060 -3.5664149830 -2.6765029488
O 2.4073896711 -4.0015021813 -3.9101478472
H 1.6042131106 1.5991031844 0.2799664876
H 0.3268374162 2.2170322826 -0.7699044200
H 0.0240059713 2.0261886976 0.9628747542
H 0.1740654670 -0.4556834377 0.7620369959
H -1.0402819816 0.1510594552 -0.3503444377
H 0.6317957068 0.0578667147 -2.2194146811
H 2.3293077626 -0.9701530160 -0.2344354553
H 0.3761613124 -2.5936950587 -0.7165280113
H -0.8849571449 -1.8826895081 -1.7483882119
H 2.7115965026 -3.0900664033 -2.0670078298
H 1.5323489490 -4.4083634442 -2.0807982877
H 1.9176209448 -3.4795761964 -4.5664694766