18

C -0.0320649474 1.4324705041 0.1831601876
N -0.0348373200 0.0176338289 -0.0977554366
C -1.1082734815 -0.9698448256 -0.0750064783
C -1.4411737896 -1.5350486327 1.3207831157
O -0.3443790860 -2.4727247516 1.2543074754
C -0.0086016193 -2.0777275176 -0.1048375936
C 0.1631136265 -3.2245296982 -1.0549748284
C 1.0045632681 -0.8944111022 -0.0809120250
O 2.1969395934 -0.7537807536 -0.0200692744
H 1.0097184964 1.7616544389 0.1995972945
H -0.5698690333 1.9936166952 -0.5890712299
H -0.4861119585 1.6559523176 1.1569468251
H -1.8995315493 -0.8358144309 -0.8131298065
H -1.3545440216 -0.8406443112 2.1638819823
H -2.4035260322 -2.0585274371 1.3715712724
H -0.7091206956 -3.8836952243 -1.0373296422
H 0.3200425510 -2.8613003113 -2.0751702717
H 1.0436127690 -3.8065496085 -0.7643567261