20

O 0.4957626112 1.1755154230 -0.5526285912
C 0.2950352557 -0.1726779464 -0.1891446421
C -1.1676425599 -0.4347531175 0.1725473963
N -1.9886532938 -0.0257795628 -0.9677698384
C -2.5153901346 -1.0514040389 -1.8643404458
C -3.4264486466 -0.2634765618 -0.9863175643
C -4.1623446029 -0.9385533559 0.1661674741
C -4.4558165565 -0.0222507811 1.2643798129
C -4.6911175728 0.7499087517 2.1546756324
H -0.2619683405 1.3950886610 -1.1122992968
H 0.5954663989 -0.8586728935 -1.0003633094
H 0.9366207454 -0.3834790384 0.6733878752
H -1.3001536894 -1.4916839009 0.4547591629
H -1.4484147966 0.1865468196 1.0295107045
H -2.4493938204 -0.8466427860 -2.9293820869
H -2.3450190287 -2.0929937762 -1.5916054089
H -3.9901267282 0.5564989716 -1.4278566505
H -5.1009778477 -1.3534060450 -0.2239890912
H -3.5872584430 -1.7930998567 0.5392023061
H -4.8991118094 1.4260868841 2.9465781911