17

C -0.0928719547 1.4689903321 0.0240195684
C -0.0145909448 0.0169375234 0.0061833732
C 0.0604494986 -1.1888459274 -0.0111646694
C 0.1372290416 -2.5949653483 -0.0294270466
C 1.2338120330 -3.4477846510 -0.0713069221
C 0.7499862492 -4.7808015691 -0.0698698222
N 1.5377650792 -5.9431373101 -0.1794553658
C -0.6313374531 -4.7144789880 -0.0272764598
N -0.9869663535 -3.3868255334 -0.0080492743
H 0.9087129334 1.9133421696 0.0170216732
H -0.6300137355 1.8561271782 -0.8498734516
H -0.6085875166 1.8355911010 0.9194009975
H 2.2654732471 -3.1335637985 -0.1064389747
H 2.4315578362 -5.8405647426 0.2843736710
H 1.0734689348 -6.7613589099 0.1939268011
H -1.3742213275 -5.4954649040 -0.0183227938
H -1.9251294773 -3.0307830320 0.0310824759