18

N 0.2683507892 0.8718804965 -0.7686277342
C -0.0001148024 0.0386703380 0.2685807378
O 0.6812022332 -0.0470828605 1.2760107200
C -1.2232762171 -0.8046915781 0.0762742658
C -1.9835312997 -1.3066722410 1.2814196409
C -1.2291062107 -2.2797436267 0.4084609798
C -1.9728299582 -2.9393137737 -0.7412454283
C -2.6868826589 -1.7546479937 -1.4301070547
O -1.9347646397 -0.5768341390 -1.1174688922
H 1.0744543721 1.4706403029 -0.7147715696
H -0.3390057257 0.8940980328 -1.5695094047
H -1.5361173887 -1.0692215404 2.2390659090
H -3.0675791782 -1.2807959112 1.2481191738
H -0.3340374978 -2.7420578695 0.8052953520
H -1.2520711317 -3.4107848838 -1.4169328590
H -2.6866898612 -3.7059133659 -0.4252279226
H -2.7341099898 -1.8448903068 -2.5186104943
H -3.7128379647 -1.6445702900 -1.0556841994