19

C 0.0284948943 1.5448737068 -0.1940904004
C 0.0368497536 0.0404383828 -0.0473173159
O -1.1040941502 -0.5969578517 -0.5630383442
C 1.3432035672 -0.7265932360 -0.1004149805
C 0.5679184146 -0.6138367185 1.1894048346
C 1.0057073134 0.0687123265 2.4992892918
C 0.3071421293 -1.0866244344 3.2484341343
O 0.1698967920 -1.3529524246 4.4059748351
C -0.1263671153 -1.7659887156 1.9369598362
H 0.9137222698 1.9969392330 0.2616080600
H 0.0200589061 1.8301982835 -1.2532254057
H -0.8626010290 1.9735361949 0.2762335412
H -1.0870003999 -0.5108696936 -1.5227162779
H 1.3327736709 -1.6887548709 -0.6029809478
H 2.2696485154 -0.1678555307 -0.1975296502
H 2.0848236306 0.1172592131 2.6799828735
H 0.5747492659 1.0546923411 2.7022471012
H -1.2092925436 -1.8290067432 1.7944911273
H 0.2999962649 -2.7647303827 1.7965664974