20

N 0.0685146454 1.1736128423 -0.1906481731
C -0.2777660714 0.0640822927 0.5247479023
O 0.2463763181 -0.2138578419 1.5892839591
C -1.3689137943 -0.7982890436 -0.0816672645
C -1.6164591620 -0.8652411421 -1.6191608043
C -1.8144481440 -2.4038504239 -1.4875472412
C -1.1707203014 -2.3262031763 -0.0963595638
C 0.0645098504 -3.0693080395 0.3274398304
C -1.2513046478 -3.2933593561 1.0406135813
H 0.7285248661 1.8156445099 0.2172979242
H -0.4184382905 1.4442596265 -1.0264745685
H -2.2972570823 -0.5455192460 0.4468749123
H -2.4523268750 -0.2851144260 -2.0177187546
H -0.7130640425 -0.6253167340 -2.1871484052
H -2.8729805499 -2.6810160123 -1.4477290204
H -1.3163645434 -3.0294683577 -2.2327204813
H 0.4270270573 -3.8506019591 -0.3338184475
H 0.8301814146 -2.5204729047 0.8615773784
H -1.3467856516 -2.8821478773 2.0400353795
H -1.7762972457 -4.2302290310 0.8802329570