19

O -0.9108909741 0.2932487356 1.4353044769
C -0.5878921334 0.4696736758 0.0725939967
C -1.3763883911 -0.4558941969 -0.8721012732
O -0.9186272483 -0.2991544399 -2.2114342005
C -1.3319587539 -1.9087525170 -0.4531560528
C -1.5847552938 -3.1330800108 -1.3490323731
C -2.0744740533 -3.9098967888 -0.0753502912
C -1.7891324711 -2.6455039187 0.7394912593
O -0.3890625207 -2.3407696304 0.5641481994
H -0.5294328404 -0.5612377426 1.6761767141
H -0.8106329297 1.5079175117 -0.1895381312
H 0.4875248307 0.3075572370 -0.1116340527
H -2.4254987730 -0.1402918624 -0.8983195634
H 0.0239228214 -0.5023906934 -2.2264896341
H -2.3821223924 -2.9648428144 -2.0753829344
H -0.7027928537 -3.5220638175 -1.8619105207
H -3.1362446037 -4.1621923109 -0.1201206602
H -1.5011866987 -4.7905550287 0.2221877971
H -2.2561347407 -2.2868747675 1.6493723639