22

C 0.7950534954 -0.6938267342 1.4037557704
C 0.2112749243 -0.1897596294 0.0795761882
C -1.2456167787 -0.6469160585 -0.1014104483
N -1.9555896048 -0.3207924067 -1.3722261913
C -1.5247310812 0.7819460343 -2.2107251889
C -2.5034412848 1.0188532776 -3.3605490228
C -1.8592956942 -1.6979959918 -1.8964745238
C -1.3702585441 -2.1259243078 -0.5060795188
O -1.1462165076 -3.1705031546 0.0297907118
H 1.8389203148 -0.3859377657 1.5133728933
H 0.2360776598 -0.2928812217 2.2562887021
H 0.7503160494 -1.7850609596 1.4614224981
H 0.2474581486 0.9056028138 0.0457355437
H 0.8222424069 -0.5469210850 -0.7586655916
H -1.8257109097 -0.3650598991 0.7883738718
H -1.4742201640 1.6805475995 -1.5849462616
H -0.5098550233 0.6257109126 -2.6246992040
H -2.1833421574 1.8698315575 -3.9695433902
H -2.5616858312 0.1440883722 -4.0169741751
H -3.5071951001 1.2187651289 -2.9751149935
H -2.7954412067 -2.1409023170 -2.2536758083
H -1.0820030115 -1.8525664753 -2.6656413212