15

O -0.1353107513 0.0484276611 -0.0014400548
C -0.0111363828 1.2458552848 0.0098536365
C 1.3323925427 1.9599395404 -0.0017927349
C 1.4878553125 2.9004879612 -1.2065888490
O 0.5132623470 3.9404915689 -1.2958202118
C 1.7857312260 4.2666617910 -0.7368855707
C 1.8091725562 4.2463087867 0.7806828134
O 0.5544221328 3.9048119766 1.3697074633
C 1.5252959184 2.8679400145 1.2225662645
H -0.8828591565 1.9294960132 0.0301715603
H 2.1202492027 1.2004272426 -0.0239444770
H 1.8267343873 2.4956216006 -2.1570260818
H 2.3879018536 4.9801405365 -1.2908694568
H 2.4285162316 4.9448898882 1.3347241610
H 1.8930710797 2.4376900236 2.1508453378