21

C 0.1126709864 1.5501632474 0.0954968867
C 0.0732997302 0.0593474667 -0.0353672007
C -0.0547676084 -0.6989776337 -1.1336226474
C -0.1660470507 -0.2522998800 -2.5602260977
O 0.8290394871 -0.8502934703 -3.3932189451
C -0.1190157461 -2.1767321777 -0.7962796367
C 0.3358846385 -2.2299243917 0.6761882919
C 0.1152332202 -0.8003148270 1.2209195590
O 1.0763763946 -0.3838966273 2.1844708611
H 0.2366140522 2.0586176760 -0.8634959374
H -0.8121419173 1.9240919437 0.5548744314
H 0.9265865563 1.8511958902 0.7631681372
H -1.1220042166 -0.5814069349 -2.9865167551
H -0.1393787177 0.8436134259 -2.6367326689
H 1.6861276818 -0.5962201766 -3.0352361454
H -1.1484011779 -2.5456622777 -0.9114797385
H 0.4983916243 -2.7803865443 -1.4683650518
H -0.1734386130 -2.9941822164 1.2676047437
H 1.4101595410 -2.4472257247 0.7273030066
H -0.8400740405 -0.7207624249 1.7587146283
H 1.9464411457 -0.4747558726 1.7791909690