13

N -0.0927489046 1.2769959885 0.1721310416
C -0.0431122247 0.0449187183 -0.0427131686
O 1.1103915622 -0.7353466112 -0.0815847105
C 0.7075358617 -2.0318232842 -0.4559409640
C -0.6605789408 -2.0035428132 -0.9660166408
C -0.4084607407 -2.7563207596 0.3563447479
C -1.2149978137 -1.6978395161 1.0151488147
O -1.7754228208 -1.5249662062 2.0439624267
N -1.1795437136 -0.8213927227 -0.2135196322
H 0.8421309503 1.6552767836 0.3251329961
H 1.5101897567 -2.6379183799 -0.8536705997
H -1.1042044554 -2.3333098540 -1.8939091309
H -0.3589729965 -3.8147931932 0.5763810097