20

C -0.0779070437 1.5130097637 -0.0051858964
C 0.0233928547 -0.0155565102 0.0246774308
C -1.3518617719 -0.5632025926 -0.3575035562
N 1.2371683211 -0.6263392253 -0.7542643987
C 2.1007465096 -0.1249370340 0.4145525244
C 0.8695860417 -0.7124107244 1.1596466892
C 1.0557602194 -1.8662348994 0.1398899192
C 0.5965517813 -0.7742656359 2.5716983309
C 0.3530865277 -0.8164486533 3.7495532444
H -0.0507901109 1.8570115398 -1.0449261136
H -1.0354429203 1.8254711455 0.4210658303
H 0.7031704920 2.0366622019 0.5452444467
H -1.6811614644 -0.0935848053 -1.2903324118
H -1.4014722952 -1.6413945844 -0.4994658675
H -2.0761568577 -0.2964218098 0.4192220293
H 3.0393506859 -0.6735988134 0.5173675489
H 2.2799293239 0.9470331910 0.4311129278
H 0.2120303336 -2.5056812267 -0.1057693062
H 1.9693682087 -2.4572275999 0.2327240677
H 0.1408698443 -0.8552179174 4.7894176607