18

N -0.0429127035 1.3460372829 -0.1383161672
C 0.0219581673 0.0935603725 0.0099390226
C -1.2080883390 -0.7768171397 0.0425293379
C -1.3461543885 -1.7002953631 1.2608328348
O -0.2971008347 -2.6564437602 1.3386263605
C 0.8453868905 -2.1608876591 1.9558916167
C 2.1637829287 -2.4864436681 1.3109062224
C 1.6444304559 -1.0764342699 1.2690595495
O 1.2296375704 -0.5943373457 0.0158147449
H 0.9013851873 1.7362537454 -0.1890611011
H -2.0827976718 -0.1249495436 -0.0245369363
H -1.1837835537 -1.4122751207 -0.8514712526
H -1.4052299832 -1.1156461547 2.1899124508
H -2.2733027464 -2.2733380598 1.1649105912
H 0.7914171767 -2.1216178588 3.0449750957
H 3.0199334692 -2.7178115492 1.9336384951
H 2.0993265632 -3.0313573131 0.3762470649
H 2.1177706617 -0.3178903048 1.8898648302