14

C -0.0146341292 1.4888009008 0.0013665867
N -0.0076566430 0.0417158010 0.0364888457
C -0.0390567753 -0.8306340136 -1.0615613816
N -0.0231838485 -2.1012488106 -0.7545567036
C 0.0212747868 -2.0921003123 0.6218736559
C 0.0311953012 -0.7986493581 1.1103758579
N 0.0745357251 -0.9202436211 2.4477748280
N 0.0909593235 -2.2763432068 2.7646222464
N 0.0586998402 -2.9644806931 1.6661148661
H 0.8907210142 1.8991910568 0.4603867631
H -0.0505231679 1.8120596336 -1.0405144295
H -0.8908848338 1.8919535445 0.5194681873
H -0.0732722245 -0.4236904298 -2.0626613620
H 0.0962448912 -0.2488695712 3.1954018198