18

N -0.0964173456 0.5637045881 -0.3992007776
C -0.5510317919 -0.7156891324 -0.3497090478
N 0.4519678384 -1.7089838094 -0.2830742494
C 1.8041480898 -1.5690932131 -0.3836904848
O 2.4100014093 -0.5249312514 -0.5339957064
N -1.7570102264 -1.1386218999 -0.3262950984
C -2.8336042756 -0.1647805339 -0.3667832618
C -4.1605328634 -0.9258426255 -0.3477850692
O -4.2236325104 -1.7986754521 0.7597967991
H 0.8937006203 0.7109129239 -0.5486519378
H -0.7517884428 1.2931309874 -0.6151441145
H 0.0668980466 -2.6376327181 -0.1905234858
H 2.3168353793 -2.5447851233 -0.3111147382
H -2.7926458699 0.5046521566 0.5081845375
H -2.7907423539 0.4698955284 -1.2696184749
H -5.0001491818 -0.2275649328 -0.2646912016
H -4.2688894484 -1.4743614811 -1.2980613113
H -3.3653118736 -2.2438960113 0.7652606030