17

O 0.0811490475 1.3891228609 -0.0865256916
C 0.0144980942 -0.0054513066 -0.0537864194
C 0.3156556606 -0.7916889965 -1.3698940668
C -0.9676452655 -1.6377034323 -1.1433369402
C -1.3597034914 -0.7130500934 0.0489228599
O -1.4630325504 -1.3430487634 1.3258216038
C -0.1617193562 -1.5963982392 1.8251333956
C 0.7393901826 -0.5458662157 1.1822418950
O 1.7861038267 -0.1150206989 1.5940585635
H 0.9263735266 1.6355913980 0.3164368861
H 0.2361773692 -0.1078656835 -2.2177088927
H 1.2704158092 -1.3199430161 -1.4304614906
H -1.6759276134 -1.6540342837 -1.9729159600
H -0.7849935578 -2.6667561315 -0.8261582518
H -2.2475549582 -0.0973576155 -0.0960762206
H -0.1626552484 -1.5047706265 2.9143997001
H 0.2002757847 -2.6062104960 1.5674009698