16

O -0.1103767275 1.3492401004 0.5161986769
C -0.0433446444 0.0493223924 -0.0579806350
C -1.4122657862 -0.5416061595 0.0127744729
N -1.7219589678 -1.8135964514 0.0177800582
N -3.1031415098 -1.9002371089 0.0193808525
C -3.5693547845 -0.6769645361 0.0312522743
C -5.0013618463 -0.2621265587 0.1047832331
O -5.0975313079 1.0390178908 -0.4624365810
N -2.5428411584 0.2202058752 0.0242986855
H 0.7272864408 1.7924122840 0.3542514575
H 0.2861703821 0.1000591610 -1.1077535180
H 0.6516426283 -0.6135129046 0.4740976582
H -5.6082727855 -1.0037792108 -0.4310100146
H -5.3342215163 -0.2585523976 1.1547217947
H -5.9839392246 1.3731733670 -0.2983337433
H -2.6058515822 1.2247675568 0.0270435881