18

O 0.0451556018 1.4733164823 -0.1234784415
C 0.0620353597 0.0633410695 0.0557361944
C -1.3314385334 -0.5219940868 0.0656732032
C -2.2631861040 -0.2982215813 1.2940297072
C -2.5765826429 -1.8236866324 1.3327847926
C -1.6531894960 -2.0587422234 0.0958963221
C -2.4082842939 -1.8100393160 -1.2214685856
O -3.1120459157 -2.4516347240 -1.9521853591
N -2.0295726455 -0.4719470049 -1.2331281043
H -0.1889885544 1.6430348345 -1.0417942594
H 0.6625255474 -0.4348125813 -0.7196984072
H 0.5458853471 -0.1143111967 1.0219220368
H -1.7291194648 0.0591680301 2.1772343826
H -3.1088477526 0.3676304910 1.1108504837
H -2.1984568591 -2.3130803063 2.2320102613
H -3.6181068487 -2.1197523607 1.1930184966
H -0.9073966029 -2.8509773231 0.1302856997
H -2.5540416623 0.2959065092 -1.6346880231