16

C -0.0195061204 1.4590868106 -0.1574388559
N 0.0258949127 0.0055758134 0.0223376023
C -0.9007767812 -0.5463258620 1.0815278599
C -0.6342723908 -2.0500189760 0.9216274716
C 0.9061156949 -1.9901953274 0.8225537034
O 1.6923647360 -2.8909004806 0.7401705775
C 1.1635931011 -0.4905018190 0.9021160624
C 0.1946531278 -0.0801718224 2.0677405074
O 0.2660820741 0.6265825675 3.0242379176
H 0.7965882575 1.7530665498 -0.8224928339
H -0.9638448884 1.7134183013 -0.6468363170
H 0.0609218607 2.0389578521 0.7751035371
H -1.9252793396 -0.1794758858 1.1071780049
H -0.9575171826 -2.6650216110 1.7653991546
H -1.0703707415 -2.4424897509 -0.0010180239
H 2.1680325797 -0.1032508895 0.7584398122