23

C 0.1523834456 1.4393260234 0.2999726661
C 0.0186084253 -0.0473053778 -0.0487904702
C 0.6607531490 -0.4608647801 -1.3773268752
C 0.0210694877 0.2328444681 -2.5830698666
C 2.2296999730 -0.3895186922 -1.4233586331
C 2.2258412434 -1.8102968332 -1.9841473306
C 2.9619030796 -2.3513582756 -3.1282210150
O 3.2547161206 -2.7617320224 -1.7845944414
C 0.7615994372 -2.0118122119 -1.5987312167
H 1.2019939508 1.7535267311 0.3058923726
H -0.3817743770 2.0768325959 -0.4108904910
H -0.2583094899 1.6422752472 1.2938027362
H 0.4728751152 -0.6426530203 0.7535994247
H -1.0444016931 -0.3250710491 -0.0675743258
H 0.1531605066 1.3186732731 -2.5433671669
H 0.4668734117 -0.1174229483 -3.5200954194
H -1.0543635015 0.0250059046 -2.6287173961
H 2.6812524278 0.3957313645 -2.0355855940
H 2.6733235482 -0.3590958382 -0.4230512665
H 2.5035438883 -3.1130530045 -3.7586498668
H 3.7333302756 -1.7517282103 -3.6110067883
H 0.6685387737 -2.5737929869 -0.6639571363
H 0.0966816922 -2.4538827673 -2.3459074799