17

C -0.0800506982 1.5423580637 -0.0083799757
C -0.0093395914 0.0892397334 -0.0200033168
C 0.0473701172 -1.1113212363 -0.0394761525
C 0.1268245884 -2.5683060945 -0.0617351586
C -1.1749555656 -3.2050048151 0.1640614842
C -2.2376589176 -3.7424894964 0.3227033181
C 0.7438026574 -3.1160729040 -1.3996941720
C 1.0807787350 -4.5925727881 -1.3895116870
O 0.9464931252 -2.3953811072 -2.3376799338
H 0.5488578270 1.9659956821 0.7821900956
H 0.2578367195 1.9591141422 -0.9632759498
H -1.1059296583 1.8867899187 0.1614706816
H 0.8071829853 -2.9075910761 0.7357916761
H -3.1829997194 -4.2027599683 0.4725488017
H 0.2362174670 -5.1826732206 -1.0244862612
H 1.3641479491 -4.9103693769 -2.3931115223
H 1.9202098693 -4.7685065767 -0.7058674778