20

C 0.3585057358 0.9108200560 0.7590669857
C -0.3697875549 0.3626449590 -0.4791137342
C 0.5691563616 -0.1527607803 -1.5198808193
N 0.7036532975 0.2814514763 -2.7083824598
C 1.7288610361 -0.5296081815 -3.3256002469
C 1.6025932899 -0.8815904462 -4.7833313136
C 2.6576216214 0.1002167294 -4.3274164699
C 2.1922213875 -1.5227950235 -2.2521188670
O 1.3586051458 -1.1966381803 -1.1212833061
H 0.9804473421 0.1385050177 1.2183904582
H 1.0036177170 1.7530131947 0.4911462653
H -0.3636045722 1.2592677124 1.5025872012
H -1.0331429580 -0.4572283173 -0.1773520839
H -0.9850624858 1.1342877030 -0.9462972969
H 1.9208331100 -1.8718218971 -5.0949599622
H 0.7383844169 -0.4916857504 -5.3084741343
H 2.5035685889 1.1505216385 -4.5461754546
H 3.6948056791 -0.2211512703 -4.3285087862
H 2.0222968864 -2.5714529565 -2.5181064138
H 3.2404097748 -1.3952622138 -1.9597884116