18

O -0.9129979888 1.3374282382 -1.0527346546
C -0.5035975347 0.2756139982 -0.2160401803
C -1.6534560546 -0.6227534667 0.2321917656
O -2.1966568364 -1.3155458154 -0.8935244232
C -3.4932694533 -1.0149716112 -1.3069483099
C -3.9776004006 0.4105328611 -1.4571976172
C -3.5822585026 -0.3810595820 -2.6746710145
O -2.3563099630 -0.0350650595 -3.2692832746
H -1.2460252608 0.9616173681 -1.8828352438
H 0.2628304786 -0.3499117245 -0.7010674065
H -0.0427070177 0.7280936102 0.6701694945
H -1.2816740077 -1.3735242872 0.9422614161
H -2.4292256566 -0.0296921741 0.7278160910
H -4.2267436573 -1.7719988824 -1.0349322207
H -5.0314545850 0.5988341666 -1.2840927926
H -3.3048524520 1.2074838118 -1.1637640274
H -4.3425323828 -0.7112197821 -3.3786267984
H -1.7890652648 -0.8137886792 -3.1964265434