18

O 0.4079106331 1.1676841811 -0.5305804239
C 0.1235444603 -0.1235155517 -0.0449091786
C 0.1843604813 -0.3524845689 1.4926561317
C -1.3544442782 -0.6349429232 1.5245910573
N -2.0774469792 0.4014383447 2.2409100633
C -2.5022341787 1.4018193541 1.5978034768
O -2.4528903978 1.6318636517 0.2543724233
C -2.3887297819 0.4429817533 -0.5646448799
C -1.3816277256 -0.5569492803 -0.0360828097
H -0.2040041199 1.7909752168 -0.1204632801
H 0.7688159893 -0.7939001044 -0.6174797871
H 0.8001581013 -1.2036452374 1.7927362857
H 0.4841438810 0.5225954272 2.0737523272
H -1.6283183796 -1.6023175898 1.9502742534
H -2.9610603655 2.2460955602 2.1099243333
H -3.3928230082 0.0021757503 -0.5905767499
H -2.1288308880 0.7959378198 -1.5647337960
H -1.5446016336 -1.5241146136 -0.5200998268