19

C 0.0019916973 1.5210005536 0.0186783112
C -0.0210587365 -0.0140262278 0.0051441994
C 0.6884492791 -0.5634847051 -1.2598118899
O 0.8036825935 -1.9661701779 -1.2311869410
C 1.5293309584 -2.4222155558 -0.0967791460
C 0.8467741806 -1.9714844201 1.1944231578
N 0.6178874687 -0.5206934402 1.2337570359
C -1.4274290825 -0.4739314837 0.0000626760
N -2.5318660712 -0.8114532845 -0.0266256197
H 1.0379533934 1.8748466615 -0.0097225641
H -0.5248160285 1.9279121024 -0.8477480023
H -0.4713432714 1.8944734870 0.9288767315
H 0.1337125797 -0.3102361258 -2.1677681520
H 1.6845832818 -0.0887543980 -1.3101268489
H 1.5660094479 -3.5127528884 -0.1730570723
H 2.5637775029 -2.0365527927 -0.1335383205
H -0.1250572979 -2.4700989931 1.2825537029
H 1.4440207943 -2.2522072396 2.0677325405
H 1.5051301305 -0.0359364819 1.3421855416