19

C 0.0471940510 1.4882873886 0.0096552196
C -0.0139880344 -0.0337148815 0.0020173983
O 0.6430638966 -0.4603625061 -1.1762840967
C 0.8160545087 -1.8741249048 -1.2560806850
C 1.5636267361 -2.3870132813 -0.0257141226
C 0.8396405669 -1.8875387221 1.2241194358
O 0.6653256561 -0.4730094557 1.1629105821
C -1.4199218830 -0.5119791036 0.0128137850
C -2.5661709712 -0.8741453360 0.0217167876
H 1.0963044026 1.7908344313 0.0013515261
H -0.4546203588 1.8835563199 -0.8751028871
H -0.4377296651 1.8739359144 0.9079734118
H -0.1635216827 -2.3670793262 -1.3442028293
H 1.3730374154 -2.0527488997 -2.1791250389
H 1.6093206962 -3.4816363723 -0.0320733746
H 2.5879421000 -1.9996631864 -0.0333571013
H -0.1381369493 -2.3815128386 1.3255209337
H 1.4140566141 -2.0760722482 2.1344204345
H -3.5802751891 -1.1907612515 0.0297584709