20

C 0.0423981692 1.3961533980 -0.1668239141
N 0.0310768008 -0.0578605353 -0.0377269228
C -1.1721168318 -0.6996634255 0.6184554403
C -0.8726822015 -2.1812675638 0.3344235403
C 0.6729567532 -2.1508980925 0.6484350825
O 1.4803202990 -2.3764253280 -0.4793129679
C 0.7567353346 -0.6823728936 1.1296400219
C -0.4975736478 -0.5408103087 2.0203411907
O -0.5728845110 0.7131305676 2.6561802321
H 1.0471108518 1.7095348756 -0.4705706035
H -0.6440267791 1.6766280696 -0.9739244367
H -0.2337030988 1.9438856481 0.7406630499
H -2.1590045549 -0.2969844291 0.3829303668
H -1.4347290742 -2.8630916016 0.9785889401
H -1.0423685897 -2.4562008267 -0.7079731562
H 0.9746022238 -2.8740546751 1.4094572573
H 1.2630562573 -1.6390256672 -1.0705074035
H 1.7329757653 -0.2879648160 1.4110428200
H -0.6879359571 -1.3547037646 2.7382933049
H -1.4610627992 0.8134989588 3.0142732680