19

O -0.0906536163 1.4441143854 -0.1513832784
C -0.0352795015 0.0618999436 -0.0091853834
C -1.3366192399 -0.7275563521 0.0812052449
C -2.6679900293 0.0047934414 0.1087762809
C -3.6075450193 -0.3495455026 -1.0468921172
O -3.2015635696 0.2143395200 -2.2910883442
C -2.0928454574 -0.3716797067 -2.8892819965
O -0.8571957571 -0.0098233114 -2.2932802857
C -0.4835835296 -0.7704185338 -1.1762564798
H -0.3199822021 1.6116102160 -1.0767187370
H 0.8160284631 -0.2634182655 0.5814539924
H -1.2918982900 -1.6380468794 0.6729639636
H -3.1775935455 -0.2206482157 1.0529352176
H -2.4927174581 1.0854761024 0.0950711180
H -3.7047290548 -1.4426554801 -1.1483405281
H -4.6046339490 0.0610900864 -0.8597944623
H -2.1823168764 -1.4708299828 -2.8964924891
H -2.0521253334 0.0163314515 -3.9096367656
H 0.0419968162 -1.6909950665 -1.4249980701