16

C -0.6849277394 1.0195983088 0.0038196588
N 0.6948761670 0.5762418684 0.0397066916
C 1.2949578246 -0.0218259973 -1.0128249506
N 0.6608878009 -0.2723112592 -2.0976733029
C 1.3446838308 -0.9106659749 -3.2029025503
C 1.1274911906 -0.0423240213 -4.4621148409
O 1.9304403838 0.1181323913 -5.3356111204
C 2.7693940414 -1.2244495431 -3.0073640656
N 3.8760824481 -1.4528485317 -2.7657710721
H -0.8393908685 1.7793510251 -0.7707764655
H -1.3521346366 0.1803692304 -0.2159393070
H -0.9475144384 1.4402530869 0.9758383920
H 1.2596083211 0.7964467178 0.8399500187
H 2.3473474946 -0.2722814671 -0.8417340104
H 0.8316543052 -1.8617671050 -3.4294176067
H 0.1193952748 0.4207620210 -4.4640175487