17

N 0.3377340079 0.1799026182 -1.1369950330
C -0.2235811723 0.2375122816 0.1061066740
O 0.0755589995 1.0716433673 0.9385896419
C -1.2140082467 -0.8028111593 0.3478593598
C -2.0452130230 -1.6389995790 0.5983927405
C -3.0478145446 -2.6602157332 0.8827760670
C -3.2018457944 -3.6781881763 -0.2375534011
C -4.5249959447 -4.2918585010 -0.5009403148
N -3.9388566058 -3.3356551805 -1.4590512251
H 1.0030525298 0.8906615747 -1.3935025233
H 0.0318925759 -0.4879341665 -1.8227707981
H -2.7816183527 -3.1773112288 1.8145547042
H -4.0151239189 -2.1747862194 1.0721800440
H -2.3069957178 -4.2674910794 -0.4253529267
H -4.5938717792 -5.3154057583 -0.8573491373
H -5.3637151145 -3.9702557561 0.1121309102
H -4.3801826187 -2.4243177139 -1.3556611123