20

O -0.1347614271 1.1929174736 -0.7923891574
C -0.0261208011 0.0237488997 0.0192678556
C -1.4131542516 -0.6129723590 0.0171152338
O -1.8409767559 -0.8355072378 -1.3134922634
C -1.4325644958 -1.9598673261 0.7515081303
O -0.9061766234 -1.8188088557 2.0716074350
C -2.8116450814 -2.5756580262 0.7617106928
C -3.1886695798 -3.6006874058 -0.2375263582
N -2.9810205510 -3.9789864471 1.1696543824
H 0.7490302306 1.5167545028 -0.9855164739
H 0.6981354993 -0.6859272481 -0.4081451836
H 0.2820910425 0.2641202148 1.0432257032
H -2.1034553147 0.0796603741 0.5339998991
H -1.5711299247 -0.0472863563 -1.8026414642
H -0.7411481754 -2.6394317019 0.2361975510
H -1.6014110723 -1.4534007595 2.6299407817
H -3.5920431014 -1.9150599759 1.1427521398
H -4.2155733840 -3.6650542903 -0.5843185916
H -2.4430863819 -3.8776920374 -0.9773323856
H -2.0657241210 -4.4080810079 1.2891930833