18

C 0.0621185193 1.4444230198 -0.0229758297
N 0.2117896388 -0.0042517009 -0.0176091618
C -0.0558251849 -0.6806589833 1.2381016791
C 0.0433901504 -0.6470625611 -1.2135331174
N -0.0717008387 -0.0681586613 -2.3586080621
C -0.1538953454 -1.1316173898 -3.3521666351
C -0.0979856115 -2.4582226208 -2.5864105463
O -0.1427689478 -3.5980724569 -2.9770521535
N 0.0254080476 -2.0476591414 -1.2631130325
H 0.6564529593 1.8688854881 0.7913617608
H 0.4163345459 1.8288233863 -0.9783133192
H -0.9851485937 1.7536349696 0.1061792203
H -1.1287574595 -0.8358990980 1.4295365366
H 0.4526629002 -1.6476110935 1.2855253886
H 0.3466730217 -0.0725746126 2.0519840853
H -1.0814988813 -1.0739402353 -3.9348087934
H 0.6725103001 -1.0868055648 -4.0729309120
H 0.0918869893 -2.6944359440 -0.4964888077