17

O 0.0623951925 1.3759175892 0.1269093673
C -0.0512291941 -0.0107390279 0.0477769390
C -1.4368967853 -0.6619647057 0.0525050921
C -2.2394945698 -0.1862536051 -1.1167435472
C -1.1925703050 -1.2380703495 -1.3549498672
C 0.1898229812 -0.5886450221 -1.4264435705
O 0.3710080051 0.4113821217 -2.3892403544
C 1.3412718895 -1.5517898730 -1.4556116026
O 2.2907279802 -1.3879060541 -2.1862384798
H 0.1722886975 1.6844437165 -0.7857822813
H 0.6125641817 -0.4711098504 0.7894722098
H -1.8862478903 -1.1494510718 0.9081762167
H -3.2600201185 -0.5514451846 -1.1584665092
H -2.1073971441 0.8184020958 -1.5033420391
H -1.4392351813 -2.2166938570 -1.7488362366
H 1.2529503628 0.2555874632 -2.7686969661
H 1.2806578679 -2.4081001451 -0.7551286908