19

C -0.0395291048 1.4161628108 0.0609040446
C -0.4620281493 0.0242983798 -0.4248148712
C 0.5617345169 -0.5810754912 -1.3519725233
O 1.7778370823 -1.0446875263 -0.7684096881
C 0.9048948378 -2.0229860314 -1.3644857200
C 0.2721213687 -2.9768446677 -0.4953878396
C -0.2465044573 -3.8022815734 0.2142391355
C -0.9220424190 -4.7870686061 1.0577330526
O -2.2081077765 -4.3743763986 1.4977861111
H 0.9117295291 1.3619475094 0.5983553794
H 0.0865974781 2.1107702161 -0.7768996240
H -0.7892312010 1.8389533215 0.7356965249
H -0.6122812368 -0.6463551456 0.4263497501
H -1.4188017874 0.0853557175 -0.9596069681
H 0.7078512025 -0.0484306122 -2.2954904379
H 1.2896729025 -2.4373192813 -2.2965647712
H -0.9685534180 -5.7491953308 0.5228307278
H -0.3374165676 -4.9611234988 1.9679109510
H -2.7139494500 -4.1242778917 0.7175555862