17

C 0.1867011811 1.5139958344 0.1075044954
N -0.1193439549 0.1127045981 -0.1657872449
C 0.6446689765 -0.4958744694 -1.2392932739
C 2.1148929178 -0.4360919744 -1.0541614293
N 3.2534827279 -0.3439141081 -0.8780092729
C 0.1733196478 -1.9567445936 -1.3914970115
O 0.4135581111 -2.6732487667 -0.2151499978
C -1.3164727757 -1.9666192127 -1.7123850949
O -2.0792686853 -2.6657315578 -1.0951956412
H 1.2444153638 1.7005502321 0.3479400375
H -0.0766478180 2.1227016461 -0.7644073116
H -0.4263485369 1.8505198243 0.9469853625
H 0.0030628966 -0.4569400436 0.6655152937
H 0.4198660800 0.0334623469 -2.1757513135
H 0.7017333973 -2.4077111972 -2.2500175127
H -0.4277503860 -3.1104362826 -0.0013019367
H -1.6483754630 -1.3284908157 -2.5548167883