27

C -0.1919935255 1.5743587250 0.0961254547
C -0.0381567574 0.0546460234 -0.0254144944
C 0.8043964661 -0.4241325537 -1.2245189740
C 2.2585186799 0.0611726400 -1.1308660395
C 0.7083131703 -1.9569949681 -1.3560189066
C 1.2959828584 -2.5711856301 -2.6241487307
C 2.8258887084 -2.8447421996 -2.7625405926
C 2.4892229276 -4.1875546879 -3.4618779494
C 1.0614518095 -4.0913777035 -2.8630983891
H 0.7629346993 2.0722549855 0.2891620801
H -0.6104979318 2.0037151844 -0.8214758835
H -0.8658684032 1.8329525917 0.9191646325
H 0.4009060458 -0.3440596931 0.9001024228
H -1.0368312170 -0.3942340977 -0.1020567340
H 0.3604943256 0.0120486569 -2.1330986929
H 2.8424032630 -0.2452518579 -2.0021544163
H 2.3169033478 1.1515367636 -1.0674415729
H 2.7489758440 -0.3504064306 -0.2400468953
H 1.1761860203 -2.4275062473 -0.4780294671
H -0.3540532792 -2.2370023267 -1.3135464177
H 0.9460291210 -2.0090037445 -3.4996436128
H 3.4321318686 -2.1225656660 -3.3153229330
H 3.2877760241 -3.0044337273 -1.7825147531
H 2.4790199941 -4.0852713320 -4.5510772180
H 3.0921913880 -5.0614607768 -3.2037771776
H 0.9888526099 -4.6294318833 -1.9115547740
H 0.2160019324 -4.3853430545 -3.4909190654