13

N 0.0225236950 1.3190030120 0.0094911343
C 1.2416726000 1.8898484641 0.0005613786
C 2.1365263899 0.8208702408 -0.0140976834
C 3.5279542887 0.6006204536 -0.0290343142
N 4.0114763226 -0.6205738470 -0.0405006070
C 3.1124806495 -1.6551250631 -0.0372878526
N 1.8018723099 -1.6047586387 -0.0240631739
C 1.3026300312 -0.3466919293 -0.0122501958
N -0.0013391863 -0.0274578802 0.0023895929
H -0.8622784814 1.8027035482 0.0208658699
H 1.3728850085 2.9600209855 0.0051116418
H 4.2414117167 1.4236302154 -0.0315892968
H 3.5630352558 -2.6445411414 -0.0471359337