16

C -0.0340237167 1.5334684606 0.0119693521
C 1.3015832763 0.8079835680 0.0014807353
C 2.1637877519 0.7552570030 1.1970421495
C 1.8404859405 0.1025214867 2.3211942286
C 0.5745239176 -0.6469247637 2.4571715613
O -0.6675528307 0.1019823231 2.4533531222
C -0.3578054716 -0.6876194439 1.3089025171
C -0.0147934351 0.0330109673 0.0383134888
H -0.3231090552 2.0286447357 0.9307635942
H -0.3384886643 2.0245796239 -0.9052500477
H 1.8308904291 0.8327407819 -0.9465262236
H 3.1223824886 1.2639289714 1.1320417241
H 2.5264657340 0.0867883627 3.1624108078
H 0.5686753421 -1.4682614887 3.1718030631
H -0.9863340816 -1.5694159900 1.1886318067
H -0.2955283349 -0.4925760581 -0.8677620794