20

C 0.1254615049 1.1564260280 0.0195210148
C 0.6316169253 -0.2753863507 0.1858493753
O 1.2511479574 -0.8001443642 -0.9765844798
C 0.3611291906 -1.1676068276 -2.0100073290
C 1.1851741406 -1.8614926438 -3.0903255144
C 1.8502122886 -3.1776146567 -2.6088921999
O 1.2896717659 -4.1937421565 -3.4823834108
C 0.4570773039 -3.5286276028 -4.3129534806
N 0.3184072853 -2.2728761279 -4.2122472074
H 0.9378653487 1.8128672174 -0.3060472929
H -0.6844034445 1.2219401704 -0.7129146124
H -0.2592341345 1.5300338387 0.9741706318
H 1.4005557627 -0.3101470945 0.9647344186
H -0.1913132805 -0.9360048158 0.5043397492
H -0.4129453976 -1.8567231046 -1.6306173190
H -0.1516981151 -0.3000990080 -2.4475915822
H 1.9318398830 -1.1467328718 -3.4527598440
H 2.9359268488 -3.1914470487 -2.7259372606
H 1.5991341193 -3.4302656085 -1.5756629143
H -0.0485704028 -4.1591208225 -5.0364483724