15

N 0.0308731727 1.3924298419 0.1369651288
C -0.0290140618 0.0133527987 0.0505408680
C -1.2370606348 -0.6233241361 0.0296353074
C -1.5654653390 -2.0414369878 0.0125778185
O -2.7411729136 -2.3990832916 0.0183041576
C -0.5063262098 -3.0627249715 -0.0285933415
C 0.8407509351 -2.9460048360 -0.0383037013
N 1.6637745532 -1.8428134494 -0.0029857570
C 1.2898971439 -0.6157614448 0.0398883118
H 0.8686509615 1.8430503891 -0.1959987937
H -0.8150858867 1.9022206545 -0.0636178300
H -2.1296394256 -0.0004226033 0.0360049552
H -0.9132327721 -4.0704563571 -0.0571993865
H 1.4109665874 -3.8722096266 -0.0753056443
H 2.1115973396 0.1076423699 0.0764310370