18

O -0.7349947231 1.3100419935 0.8069056068
C 0.0838866506 2.0479313603 0.3314475400
C 1.2680462940 1.5707546635 -0.5132867691
C 1.5472158678 2.4677079949 -1.6251714714
C 1.7275244596 3.2376446438 -2.5332520243
C 1.9778807970 4.1772321375 -3.6237501282
C 2.5794816098 5.4926682986 -3.1514710225
C 2.2768049222 6.7469002024 -3.8812185843
N 1.7342445587 6.5175369868 -2.5287813613
H 0.0479368301 3.1484090653 0.4839719323
H 2.1366604097 1.5222912610 0.1617382600
H 1.0632044145 0.5464559043 -0.8414090411
H 2.6526355548 3.7141635268 -4.3565935339
H 1.0414975049 4.3816426772 -4.1613290425
H 3.5514330866 5.3886526398 -2.6742188615
H 3.0201493116 7.5357901376 -3.9499586169
H 1.6024581302 6.6877982201 -4.7324928064
H 0.7559420911 6.2431223566 -2.5883376157