20

C 0.0814360259 1.5249925908 -0.0300818428
C 0.0002800476 -0.0035206588 0.0276224046
C -1.4323416101 -0.5507007536 0.0128763975
C -2.2353110319 -0.2319155989 -1.2789450958
C -3.2521969062 -1.3866060889 -1.4504726974
C -2.5795080098 -2.5626572217 -0.7711153171
O -1.2010154804 -2.7273149895 -1.1392984088
C -1.5095675230 -2.0662898809 0.0996155192
H 1.1205232189 1.8662455807 0.0093148767
H -0.3600949397 1.9167071809 -0.9520689624
H -0.4504134719 1.9822767156 0.8122608966
H 0.5458487563 -0.4398771475 -0.8182293745
H 0.5066134384 -0.3576692435 0.9351945426
H -1.9718920627 -0.1517465149 0.8856547433
H -2.7217510460 0.7451561945 -1.2379926509
H -1.5498942450 -0.2208219089 -2.1308611329
H -4.1945444503 -1.1729283272 -0.9304327336
H -3.4950082562 -1.5811441615 -2.4998610183
H -3.1203100391 -3.4854981008 -0.5751902901
H -1.1840758448 -2.5895084759 0.9964624941