20

O 0.7464032313 -0.6109399707 -1.1047626661
C 0.1164500666 -0.0247357879 0.0193199846
C -1.3474230491 -0.4450624412 0.0833435400
C -2.2856414159 0.1801726388 1.1383459888
C -2.4080746877 1.6329828668 0.6262569411
C -2.7158970666 1.2690521059 -0.8213690077
C -3.4874262752 -0.0066788316 -0.8017991308
C -3.6297040488 -0.4214880622 0.6610798766
N -2.0478632525 -0.0183208573 -1.1622256293
H 0.1329260387 -0.4818495073 -1.8398542064
H 0.6496468607 -0.3796847786 0.9084262838
H 0.2075689988 1.0720480149 -0.0053036811
H -1.3760555348 -1.5402290392 0.1270826553
H -2.0290885964 0.0414081660 2.1872837612
H -3.2356041271 2.1714138732 1.0994339495
H -1.4992198982 2.2269759883 0.7459390403
H -2.7965725555 2.0029697805 -1.6133776148
H -4.1961001262 -0.2928130038 -1.5693475300
H -3.6857262904 -1.5057374155 0.7972341948
H -4.4998621115 0.0376339609 1.1412377101