17

N 0.8235894794 -0.1989714828 0.6049132131
C -0.2561001231 0.2991936707 -0.0391991535
O -0.3871066055 1.4491323277 -0.4107268031
C -1.3501868230 -0.7498161526 -0.3342502857
C -1.3443896583 -0.9862897645 -1.8473740388
O -1.3780211459 -2.0699703478 -2.3646275935
N -1.1739987834 -1.9759605822 0.4135320169
C -1.9741486285 -2.1385215004 1.6313682629
C -2.2817688633 -2.9259985099 0.4084079646
H 1.6109852533 0.4023170758 0.7801879024
H 0.8588975464 -1.1842298133 0.8139240222
H -2.3038071067 -0.2295946151 -0.1266201347
H -1.3175125199 -0.0425490840 -2.4295123332
H -1.4603105389 -2.5978465893 2.4701662773
H -2.6562076037 -1.3341391111 1.9002562919
H -3.1753753915 -2.6575138901 -0.1488707508
H -1.9987351276 -3.9706691009 0.3332282021