18

C -0.7910822335 0.4681977770 0.4573178691
O 0.1891615786 0.8224779308 -0.5069441178
C 0.5789392134 -0.1743565721 -1.3231318571
C 0.2081224324 -1.5021307052 -1.4351999015
C 1.0146862790 -1.9761064594 -2.5019449596
N 1.0845492727 -3.2877083214 -2.9758825939
N 1.7992570749 -1.0329213060 -3.0050717222
N 1.5248317172 0.0815085825 -2.2531233961
C 2.2017666369 1.3252292879 -2.5219689435
H -1.7125394885 0.1240712933 -0.0276744983
H -0.4197730385 -0.3194616778 1.1238450779
H -0.9960358830 1.3706545001 1.0344557992
H -0.5007549326 -2.0477520986 -0.8369089833
H 0.1782625811 -3.7293008076 -3.0568667466
H 1.5744546752 -3.3276395909 -3.8611950674
H 1.9862966291 1.6689585095 -3.5388473346
H 1.8544137489 2.0715664501 -1.8071464570
H 3.2837298868 1.1984146776 -2.4184334575