15

O -0.1288043682 1.4443121606 -0.1398003995
C 0.0133847474 0.0344479492 0.0410129687
C -1.4053231756 -0.5057709263 0.0518574764
O -2.1965543340 0.1440889462 0.9947399171
C -2.0375692881 -0.8179010389 -1.3565230885
O -1.1393442963 -1.9974127207 -1.4270101902
C -1.5897148449 -2.0422431957 -0.0122729322
C -3.0071137131 -1.7841824531 -0.6199214881
O -4.1095610783 -2.2112270186 -0.6427039100
H 0.7153332934 1.8660775136 0.0428348687
H 0.5968893645 -0.4281352349 -0.7606981931
H 0.4861767336 -0.1894886234 1.0079648078
H -1.9352870902 1.0748763221 0.9649060575
H -2.1396644360 -0.2020499359 -2.2473258295
H -1.1911229941 -2.8284127642 0.6260360249