16

C -0.0255105313 1.3955293200 0.0522641024
N -0.0066030787 -0.0480499168 0.0136691567
N -0.0303587574 -0.6949188204 -1.1807807797
C -0.0039729263 -1.9836818887 -0.8621449653
C 0.0369890227 -2.1990918977 0.5300542212
C 0.0338382561 -0.9215385264 1.0571451145
N 0.0633648342 -0.4543327799 2.3706579145
C 0.1043833035 -1.2424505523 3.4942223429
O 0.1210903210 -2.4500804695 3.5031545189
H 0.8763643034 1.7971393136 0.5295914967
H -0.0585762231 1.7393341481 -0.9806689526
H -0.9106596147 1.7724172165 0.5785535075
H -0.0152531903 -2.7248172654 -1.6479523131
H 0.0647634598 -3.1182580412 1.0852611198
H 0.0532212634 0.5433451604 2.5150868632
H 0.1206934177 -0.6221480804 4.4105768825