19

O -0.1673093122 1.3733628807 -0.0172517480
C 0.0266573787 0.0048509064 0.0134771819
C 0.5473392035 -0.9707957237 -1.0751042742
N 0.1555273991 -1.9071439994 0.0764573360
C 0.8387752611 -0.8767070711 0.9956826892
C -1.1092257944 -1.0171096399 0.1984313215
C -1.8880010809 -1.1257803410 1.4916378385
C -2.9313811965 -2.1719206333 1.6308402545
N -1.6746213299 -2.2809695645 2.3870764080
H 0.6890076959 1.8102372289 -0.0839433045
H -0.0530974729 -1.1087483059 -1.9777066602
H 1.6186891663 -0.9849622537 -1.2909418929
H 1.9282075183 -0.8806410192 0.9020399487
H 0.5242303498 -0.9331783782 2.0375301684
H -1.7585948019 -1.1415774289 -0.6745176934
H -2.0299053835 -0.1854347595 2.0203021875
H -3.8171568360 -1.9842474350 2.2313126452
H -3.0880477070 -2.8404289562 0.7871230183
H -1.0572742176 -2.9364300166 1.9096669254