16

O 0.0630329478 1.4006540406 0.1187837110
C 0.0394708977 0.0017207306 0.0328457745
C -1.3586751014 -0.5736468771 -0.2379552194
C -1.4880893489 -0.6074984394 -1.7226173235
N -0.2486327677 -0.0301441175 -2.2678736613
C 0.6968215186 -0.5673964837 -1.2562853909
C 0.3040990071 -2.0583393660 -1.1293192308
O 0.9996728219 -3.0384003187 -1.1289350578
C -1.1800998237 -1.9125815771 -0.9855509213
H -0.1590445118 1.7206397060 -0.7671725585
H 0.5025565616 -0.3924893968 0.9408021297
H -2.1973387362 -0.4018392373 0.4224614139
H -2.4137312076 -0.4414706683 -2.2558005540
H -0.0407697677 -0.4169157928 -3.1861663962
H 1.7419162572 -0.3345037089 -1.4376722177
H -1.8644416268 -2.7438028135 -0.9000696178