18

O 0.0296219363 1.4009244539 0.0642833543
C 0.0515111695 -0.0126227858 -0.0087157703
C -1.3535396576 -0.6132801341 0.0348047052
N -2.2841703811 -0.0550457459 -0.9689705977
C -1.7599718117 -1.4287827228 -1.1367909216
C -0.6348874811 -1.6271973618 -2.1490514503
C -0.0008106917 -0.2895097534 -2.5682489786
C 0.7960895078 -0.5122198608 -1.2679715427
O 0.5732552043 -1.9488018478 -1.3871560639
H -0.7103576455 1.6794092640 -0.4910293390
H 0.6076470809 -0.3654039013 0.8665940387
H -1.7552650444 -0.8509037760 1.0151620989
H -3.2369983777 -0.0858256313 -0.6163084546
H -2.4463873713 -2.2570245666 -0.9869960007
H -0.8572286254 -2.3861512863 -2.9020865477
H 0.6344553169 -0.4086908655 -3.4467757564
H -0.6429336409 0.5836733017 -2.6625394873
H 1.8552675226 -0.2466061900 -1.2373370663