16

C 0.0940925936 1.4527811896 0.0702508302
O -0.0616281115 0.0326742755 -0.0097392302
C 0.5669843571 -0.5327111705 -1.0850103715
C 0.0137984270 -0.9382274170 -2.2664327952
N -1.2604140429 -0.8232497732 -2.7716170391
O 0.9427095076 -1.4972446514 -3.0452129202
N 2.1977868744 -1.4822866986 -2.3613415038
C 1.9385690962 -0.9007511155 -1.2106956856
N 2.9257362410 -0.6436106902 -0.2749169484
H 1.1523718866 1.7298258298 0.1423083713
H -0.3432272889 1.9468690238 -0.8059717830
H -0.4310928929 1.7749327687 0.9723266153
H -1.9620430570 -0.7340659140 -2.0494826628
H -1.4951220089 -1.5353975679 -3.4499589115
H 3.7667112822 -1.1837953513 -0.4308767608
H 2.5963818266 -0.7276822679 0.6774249855