21

O -0.2963799556 1.4490372873 0.2389604919
C -0.1336312385 0.0795894425 -0.1055257045
C -1.4779550597 -0.6016366196 0.0797250238
C -1.4454527044 -2.1638418763 0.0551277165
C -1.1666684035 -2.1230052575 1.5860972559
C -1.9310178936 -0.7735867853 1.5616690170
O -3.3281748366 -1.0184035821 1.6637249312
C -3.8777461551 -1.7177913523 0.5469754177
C -2.8801056142 -2.6827396579 -0.1402782626
H 0.5487202055 1.8924664762 0.1210522290
H 0.1837301082 -0.0327317542 -1.1554875082
H 0.6405423751 -0.3940016817 0.5171178623
H -2.1976093181 -0.1078834988 -0.5796556567
H -0.7282010109 -2.6664408915 -0.6000375147
H -1.6056793497 -2.9112319258 2.2028716199
H -0.1080206667 -2.0141755296 1.8299023134
H -1.6925329703 0.0093722607 2.2825643257
H -4.7556355924 -2.2530045105 0.9207558315
H -4.2384998057 -0.9875700852 -0.1908702640
H -3.1363384244 -2.7521705595 -1.2038556625
H -2.9558688297 -3.6933287290 0.2771342573