22

C -0.7438632075 0.9352920250 -0.1135689726
C 0.1938969142 -0.2603527775 0.0478688048
N 0.8228126354 -0.6772363269 -1.2080416742
C 1.7384993580 0.3255573844 -1.7424058645
C 1.4815794572 -1.9692630817 -1.0965255219
C 1.6251686345 -2.6863853764 -2.4328491040
O 2.5678019589 -3.4104050012 -2.6745213402
C 0.5088748535 -2.5475261048 -3.4584285351
O 0.7551341595 -3.3468007786 -4.5779236481
H -0.2064108470 1.8566054994 -0.3545178859
H -1.4731052692 0.7454130033 -0.9067222239
H -1.2852242773 1.1102062981 0.8210077501
H 0.9518025852 -0.0347546423 0.8234423108
H -0.3859978037 -1.1135653397 0.4170070273
H 2.5657517566 0.5591439407 -1.0463216470
H 2.1817670881 -0.0337666485 -2.6760358240
H 1.2056442396 1.2517346334 -1.9668142659
H 2.4775177784 -1.9314052668 -0.6212265203
H 0.8598484110 -2.6274729879 -0.4745188790
H -0.4403266418 -2.8169335011 -2.9654151437
H 0.4076140436 -1.4875174787 -3.7321249621
H 1.5976602228 -3.7908082922 -4.3893652104