21

C 0.0459118623 1.7077345445 -0.0825805307
C 0.0399847919 0.1763380813 -0.0123922948
C 0.6928116048 -0.4714384458 -1.2323866532
C 0.7165152447 -2.0532841633 -1.2334059632
C 0.6789955982 -2.8693404298 0.0490054737
C -0.5589288599 -1.9431144431 -2.0669700172
O -1.6111139297 -2.5257214656 -2.0611616136
C -0.2371416651 -0.5220527733 -2.5154254600
O -1.3227848688 0.3423141639 -2.6724145828
H 1.0699285351 2.0926329299 -0.1478528652
H -0.5056664520 2.0554765566 -0.9588441064
H -0.4150235031 2.1421023255 0.8099625407
H 0.5669877702 -0.1526320357 0.8913327839
H -0.9931712434 -0.1802874951 0.0899844309
H 1.6693130518 -0.0201603698 -1.4247320843
H 1.5405638891 -2.3859811575 -1.8758177657
H -0.1611216038 -2.5787093640 0.6848521035
H 0.5641448298 -3.9322912974 -0.1828248214
H 1.6028597702 -2.7470107002 0.6228007546
H 0.3879814603 -0.5064228453 -3.4173679876
H -2.1172008824 -0.1732219158 -2.4796996812