17

O 0.3778912227 2.5218053015 -1.0242619368
C 0.0675088114 1.7653674148 -0.1320605187
N 0.8965200553 0.8787700325 0.5029554813
C 2.2641272592 0.6319481620 0.2961784865
N 2.7756326948 -0.2837348217 1.0146741982
C 4.1827753235 -0.6073466122 0.8106663358
C 4.7175353162 -0.1083736739 -0.5261929490
O 4.3844400887 1.2610740030 -0.6862764903
C 2.9913794790 1.4622429667 -0.7453540454
H -0.9584595208 1.7069111528 0.2789032242
H 0.4967635267 0.2858746378 1.2192233933
H 4.7623236499 -0.1698532588 1.6343961204
H 4.2988891734 -1.6951860042 0.8892166827
H 5.8077287739 -0.1752713544 -0.5746285044
H 4.2979580346 -0.7053562337 -1.3530932220
H 2.5850367658 1.2270650680 -1.7423024323
H 2.8047201257 2.5246512399 -0.5797860135