19

O -0.0772411795 1.4283467953 -0.0090749740
C 0.0363397458 0.0083527634 0.0915973351
C -1.3815741758 -0.5340171773 -0.0277943482
O -2.1803836153 0.0442420805 0.9838948778
C -2.0671098550 -0.4729451655 -1.4468154789
C -2.2684776275 -1.9934187939 -1.3692374497
O -3.4297787821 -2.6472824794 -1.7385769940
C -0.9531800066 -2.7002187802 -1.2338931109
C -1.5810840787 -2.0497593350 -0.0142607291
H 0.7549090038 1.8250022916 0.2622300405
H 0.6864760469 -0.3912868490 -0.6980089750
H 0.4496910634 -0.2875032293 1.0667037478
H -1.9541640297 0.9839736466 0.9832228756
H -3.0111605659 0.0669795919 -1.3640555209
H -1.4843816322 -0.0871509180 -2.2901471571
H -3.3484845468 -2.9101081534 -2.6619884291
H -1.0312558850 -3.7830775500 -1.2294450394
H -0.0422375651 -2.3170247822 -1.6877312963
H -1.8359022747 -2.6123548762 0.8750923356