14

N -0.0696277954 1.3096893938 -0.2454646972
C -0.0240480337 0.0597867727 -0.0078570734
N -1.1593301534 -0.7025180118 0.1268310920
C -1.1913492963 -1.9553926001 0.8521796882
C 0.0886154313 -2.7645610682 0.7267298278
O 0.1455184369 -3.9412443795 0.9851059740
N 1.2151748289 -2.0448617625 0.3496480168
C 1.2941884021 -0.6928330174 0.0499062806
O 2.3511983967 -0.1514358704 -0.1693738785
H 0.8833194630 1.6473859715 -0.3906664914
H -2.0086558816 -0.1546715616 0.1345894595
H -1.3625819930 -1.8202336503 1.9333598456
H -2.0023458401 -2.5856880063 0.4791274592
H 2.0884100247 -2.5605800599 0.3331950370