20

C -0.2087813323 1.5533743605 -0.0059306598
C 0.0291562501 0.0510685290 0.0099935449
C 1.1256936470 -0.5393852093 -0.9339111153
C 1.7781510832 -1.2770610793 0.2758706335
C 0.7504945259 -0.5972478435 1.2371571567
N 1.8759080370 0.1481529697 1.8028308924
C 1.9767529290 1.1792622559 2.8055814590
C 2.8396046440 -0.4240839730 0.9991474591
O 4.0285097446 -0.2468172680 0.9235617304
H 0.7242269292 2.1037790404 0.1519419510
H -0.6166553354 1.8702951816 -0.9718962866
H -0.9202841920 1.8571363678 0.7701184189
H -0.9182044087 -0.4754794608 -0.1494227624
H 0.7359309342 -1.2067781015 -1.7046834935
H 1.7787792277 0.1944069516 -1.4132662116
H 1.9391717765 -2.3513113769 0.2190716627
H 0.1458802888 -1.1340794484 1.9720204254
H 1.6064426885 0.8283312534 3.7763779380
H 3.0350244417 1.4339915781 2.9049276114
H 1.4211361011 2.0822190625 2.5285263659