17

C 0.1267817965 -1.1341766808 0.2423630488
C 0.0375387492 0.0615041380 0.1212194457
C -0.0085598563 1.4680218686 -0.0371079501
C -1.0918952692 2.2506771722 0.1028201446
C -0.7726020800 3.6995762092 -0.1197443677
O -0.6496897758 4.4678956330 1.1086187744
C 0.7920178129 4.4286328289 1.0262121971
C 0.7614652395 3.7240029674 -0.3489269732
C 1.2362068375 2.2638194755 -0.4179784551
H 0.1869527061 -2.1883764958 0.3542062962
H -2.0797670085 1.8936238398 0.3668960378
H -1.4433248270 4.2036444728 -0.8244404254
H 1.2221410028 5.4366458619 1.0414670544
H 1.2381538274 3.8378398350 1.8376351944
H 1.1211478944 4.3383861782 -1.1738633812
H 2.0676041119 2.0549900262 0.2656465561
H 1.5811096185 1.9835834301 -1.4202079869