14

C -0.0024181349 1.4070497370 0.0397430173
N 0.0256896640 -0.0406380875 0.0263510856
N 0.0543224809 -0.7475555911 -1.1415390108
C 0.0726848418 -1.9963213341 -0.7183340532
N 0.0591329857 -2.1584118686 0.6374965216
C 0.0295523901 -0.9113302320 1.0510615855
O 0.0061109236 -0.4456144376 2.3206081151
C -0.0224961699 -1.3647254315 3.3553826257
O -0.0391653689 -0.9918485904 4.4822095549
H 0.8866602379 1.8009504783 -0.4580588454
H -0.8935459742 1.7666054378 -0.4799240637
H -0.0215676843 1.7416052078 1.0769949691
H 0.0975054927 -2.8292614368 -1.4044585652
H -0.0266636446 -2.3985052814 2.9882022533