18

C -0.0107130992 1.5250864190 0.1093979357
C 0.0506685852 0.0277562030 0.0224032675
C 0.9032353767 -0.7704582989 -1.0076807111
C 0.7886120538 -1.8555606827 0.0670540981
C -0.7276293000 -2.1055875807 0.4459512432
C -0.3233480106 -1.5766085513 1.8436581266
N 0.7535253913 -0.7790308595 1.1445482844
C -1.2510788652 -0.7807268547 -0.1036991119
O -2.3339300066 -0.4517097973 -0.5013496971
H 0.9914246322 1.9610748158 0.1318189677
H -0.5544476120 1.9273747840 -0.7511346383
H -0.5422032439 1.8394044777 1.0135915841
H 0.4869142558 -0.9393100375 -2.0037090488
H 1.9243481007 -0.3870453210 -1.0714630433
H 1.4912726012 -2.6815877112 0.1823303719
H -1.2983639006 -3.0132110048 0.2583018735
H -1.0576729559 -1.0045657278 2.4207278541
H 0.1533243170 -2.3213136122 2.4863699936