19

C 0.0412120062 1.2129211158 0.1852347141
C 0.0353022893 -0.2844063227 0.0534337034
C 0.6712242416 -1.1473897242 -1.0829060899
C 0.0143340435 -2.1540817387 -0.0900620336
O -0.1183833080 -3.5232204336 -0.2030629649
C 0.6281141739 -1.3191869910 1.0691956941
C -1.2268381504 -1.2012577474 -0.0717902714
C -2.2335235097 -1.2976147008 1.0374842068
O -2.1914754884 -0.6865177848 2.0790516214
H 1.0651264832 1.5928948629 0.2671407855
H -0.4249512879 1.6883299186 -0.6845864855
H -0.5114243074 1.5177265460 1.0785263079
H 0.2227273573 -1.0693330027 -2.0771318642
H 1.7645132103 -1.1509360768 -1.1267291030
H 0.7546125442 -3.9232156286 -0.1242381878
H 1.7199799634 -1.3351204244 1.1413095566
H 0.1536533894 -1.3763144921 2.0473850441
H -1.7529964458 -1.1676705206 -1.0344670617
H -3.0772784846 -1.9938108651 0.8252544483