19

C -0.2142114318 1.5259146184 -0.0140935571
C -0.0020460250 0.0187922579 -0.0053622616
C 1.1592834916 -0.5932092450 -0.8367949212
C 2.1337572795 -0.2134782222 0.3022305001
C 0.8933384004 -0.6015828280 1.1584911432
C 0.7606169225 -2.0902105103 0.7780685371
O 0.9683436102 -2.0061885419 -0.6492473781
C 0.6951916444 -0.1981053857 2.5772772580
O 1.4598242983 0.4893707749 3.2090782950
H 0.7002926800 2.0930015900 0.1742182844
H -0.6090584377 1.8422878955 -0.9856174551
H -0.9450472529 1.8193886321 0.7464783404
H -0.9545013705 -0.4977415850 -0.1616888175
H 1.3260665004 -0.3793077722 -1.8916270824
H 3.0313106403 -0.8262227542 0.4044531720
H 2.3824499984 0.8436245014 0.3646433222
H 1.5317946747 -2.7203263803 1.2356192603
H -0.2269132949 -2.5135159310 0.9972697906
H -0.2545943879 -0.5635241444 3.0346383999