16

C 0.0255298581 1.3729590293 -0.3025198845
C -0.0285523936 -0.0430771156 0.1996410372
O 0.9043548313 -0.6323897439 0.6965142242
C -1.3969048955 -0.7494992966 0.0443382705
O -2.3577496409 -0.1866379439 -0.4519923173
N -1.3751065413 -2.0152367534 0.5162501554
C -2.5240321299 -2.9015630887 0.4279561847
C -2.1875451898 -4.1912504114 -0.1671746354
C -1.8980696198 -5.2587982655 -0.6351455397
H 1.0236840823 1.7842180229 -0.1526606878
H -0.2494758387 1.3995650729 -1.3617082704
H -0.7247427041 1.9778374857 0.2165547084
H -0.4909173482 -2.3512160015 0.8715329011
H -2.9632296925 -3.0584478435 1.4226730939
H -3.2731246828 -2.3735749970 -0.1720386245
H -1.6514173747 -6.2003116298 -1.0601149558