18

C 0.1353374984 1.2700508761 0.1440633870
O -0.2931668907 -0.0227933760 -0.2169427403
C 0.4799557581 -0.5975401073 -1.2397943879
C 1.9035587681 -1.1609003778 -0.8671380971
C 1.4029528408 -2.5477952441 -1.2866529074
O 2.1435206751 -3.4481053156 -2.0316889160
C 0.2065653597 -2.9467486941 -0.4747624351
C 0.0284249217 -1.9944874656 -1.6409380020
H 1.1648717770 1.2716079703 0.5333540081
H 0.0912032034 1.9659616848 -0.7088856484
H -0.5364198079 1.6298752144 0.9271948861
H 0.5396907516 0.0859685567 -2.0992196909
H 2.6869950245 -0.7816799924 -1.5269496019
H 2.2136088815 -1.0466989997 0.1769905443
H 2.6149084270 -4.0276335037 -1.4232644104
H -0.1511063500 -3.9515318007 -0.6756801702
H 0.0632417132 -2.5979953769 0.5439000566
H -0.6223024116 -2.2318209283 -2.4728097246