17

C 0.2253267839 1.5848159487 0.2890827836
C -0.0938325329 0.1171034833 -0.0377191681
C 0.5656260863 -0.3529696866 -1.2950498298
C 0.0221288542 -0.7748142740 -2.4676197872
C -1.3557902091 -0.9577658650 -2.9886107538
O 1.0598611617 -1.0890997479 -3.3166873398
C 2.1747506009 -0.8337413801 -2.5978128873
N 1.9596235463 -0.3988516614 -1.4034460688
H 1.3061285689 1.7305992738 0.3644072539
H -0.1503937611 2.2518054390 -0.4934108653
H -0.2307667086 1.8810155538 1.2386535647
H 0.2401618484 -0.5156756297 0.7939659705
H -1.1772178329 -0.0227336702 -0.1198022619
H -1.5378412405 -0.3356578242 -3.8722894990
H -1.5423273740 -1.9987953543 -3.2757762704
H -2.0842041903 -0.6811183800 -2.2233828703
H 3.1193924087 -1.0180226351 -3.0855966110