19

O 0.0762512750 1.3670553047 0.0933674623
C 0.0471918313 -0.0448838773 0.0492698241
C -1.3630414784 -0.6277220418 0.0153652826
C -1.2425473557 -0.9032840785 -1.4894336491
C 0.2900049375 -0.6539757280 -1.3748736717
C 0.9340159950 -2.0471162206 -1.2907148139
C -0.0915091935 -2.8848451637 -0.4806933773
C -1.3732352726 -2.0502851951 -0.5411557216
O -2.6046082902 -2.7047570885 -0.5141018569
H -0.5770592034 1.6890597582 -0.5390274556
H 0.7286820426 -0.3707605964 0.8433772621
H -2.2187664340 -0.2616337441 0.5735853234
H -1.9232929941 -0.6971864350 -2.3044175497
H 0.7637420375 0.0393812837 -2.0705523688
H 1.0550301234 -2.4658873166 -2.2951286221
H 1.9239146842 -2.0148509441 -0.8249862716
H -0.2784590160 -3.8613978204 -0.9363901085
H 0.2377834978 -3.0622430460 0.5494466704
H -2.7727424563 -2.9890269907 0.3908338122