15

C 0.3777473284 1.3571085609 -0.0544708794
N 0.0279280061 -0.0500407091 -0.0816838445
C 0.6453313497 -1.0737792295 -0.7171325144
C -0.1124614160 -2.1748911431 -0.3963387444
C 0.0438622936 -3.6175563869 -0.7877338704
C 1.2031567734 -3.8398946540 -1.6494011408
N 2.1241346758 -3.9937496417 -2.3294342222
N -1.1371314402 -1.7758939153 0.4050998858
N -1.0506696880 -0.4903281034 0.5943792483
H 1.3726657980 1.4973876476 0.3760396634
H 0.3568710787 1.7777421024 -1.0631873145
H -0.3632857381 1.8598048721 0.5664682170
H 1.5302299232 -0.9474982007 -1.3176440435
H 0.1424611255 -4.2432197320 0.1072693246
H -0.8560727302 -3.9676748474 -1.3070886449