18

C 0.2557145219 1.5889984032 -0.2803114422
C -0.0412500559 0.1308830317 0.0691122530
O 0.4263226625 -0.7270800908 -0.9805168152
C 1.2698087026 -1.7439262825 -0.4598330195
C 1.4064459301 -1.4309726946 1.0092655361
C 2.2879459849 -2.2249606642 1.9354591888
C 1.9266814907 -3.6462363245 1.9821441162
N 1.6370898914 -4.7643317806 2.0068267223
C 0.6540612649 -0.3769955701 1.3038654364
H 1.3344692889 1.7553725388 -0.3526373374
H -0.2007141649 1.8412921995 -1.2412988231
H -0.1541515639 2.2601433096 0.4818492278
H -1.1336159930 0.0081100037 0.1654885031
H 0.8260998673 -2.7385961811 -0.6260249762
H 2.2394457362 -1.7325279216 -0.9829806521
H 3.3372088392 -2.1596436242 1.6162180277
H 2.2393723827 -1.8179906554 2.9503874052
H 0.5317890644 0.0777023831 2.2794981591