21

C -0.0290824401 1.5542474555 0.0450112527
C 0.0401726606 0.0494966633 0.0572293842
C -1.2434453916 -0.8139854678 0.2612131017
C -0.3156104197 -1.8837865927 0.8277038942
C 1.0011959196 -1.8324388576 0.0325080186
C 0.7432003057 -0.8616694374 1.1568640961
C 0.8723413005 -0.7276552436 -1.0187483323
C 0.3141072621 -1.0234614282 -2.4056867123
O 1.2466029576 -1.7377606092 -3.2110494549
H 0.9709725853 2.0001104833 0.0102878875
H -0.5844144112 1.9153011593 -0.8290388361
H -0.5363157560 1.9355384243 0.9381792754
H -1.8700076726 -0.3859651879 1.0501235127
H -1.8678657886 -1.0385902232 -0.6107444509
H -0.5806674422 -2.7637874464 1.3999301344
H 1.6879661578 -2.6703117139 0.0460584255
H 1.2911799148 -0.6429457005 2.0619832911
H 1.8431202160 -0.2315177988 -1.1383246054
H -0.6392972829 -1.5669545792 -2.3411444541
H 0.1207297131 -0.0870089867 -2.9420368354
H 1.4103189818 -2.5822641926 -2.7790849026