21

C 0.5020468445 1.3311421478 0.3251121001
C -0.0297936267 -0.0561851381 -0.0162275373
O -1.4206000535 -0.0067192596 -0.2919720743
C 0.8191998537 -0.8517735880 -1.0628709667
C 1.2250510788 -1.8707352976 0.0429057549
C 2.7130509006 -1.8516999304 0.4274666849
C 3.0091242812 -2.6880477523 1.5847872937
C 3.2234061784 -3.3848773020 2.5406736467
C 0.2595955254 -1.1606147508 1.0353870584
H 1.5634688998 1.3036055786 0.5911602283
H 0.3961223529 2.0097178852 -0.5314789255
H -0.0537521221 1.7523661286 1.1688651221
H -1.5645733908 0.6526593038 -0.9800511822
H 0.1931746826 -1.2856535248 -1.8456242474
H 1.6423881467 -0.3017747741 -1.5302575768
H 0.9386503227 -2.9008183775 -0.1804105955
H 3.3129479674 -2.1840678773 -0.4306180977
H 3.0298362334 -0.8202585853 0.6342106386
H 3.4234915598 -3.9978939896 3.3839175686
H 0.7073572596 -0.8218088414 1.9734201878
H -0.6396985644 -1.7354612251 1.2622072993