17

O -0.1675206625 1.4324154135 0.3832696220
C 0.0364278811 0.0849555373 -0.0393877979
C 0.9943628138 -0.6228401085 0.8831330154
C 0.7931159049 -1.8193543722 1.4304071332
C -0.4226637901 -2.6709174584 1.1925268046
C -1.5352885125 -1.9453382787 0.4675180403
N -2.0431618105 -0.7129211936 1.0983757208
C -1.2977110961 -0.6260971215 -0.1735280110
H -0.6863916924 1.3610534049 1.1954940467
H 0.4912261441 0.1705061056 -1.0350771463
H 1.8980850351 -0.0615664746 1.1061705981
H 1.5463892895 -2.2369201542 2.0946346571
H -0.1388065582 -3.5590047494 0.6091968611
H -0.8003648020 -3.0549726689 2.1500014224
H -2.2742961268 -2.5915822854 -0.0017894455
H -3.0399992679 -0.6181005052 0.9267629861
H -1.8637865994 -0.3787921509 -1.0680507570