23

C 0.7722851199 1.1732845461 0.0061271981
C -0.2645229578 0.0670834894 0.0755233828
O -0.9386094083 -0.1082281976 1.0656767391
C -0.4215067949 -0.8028348516 -1.1722501682
C -0.0323792931 -2.2955423556 -0.9686857179
C 1.3881212661 -2.4143426002 -0.3852266117
C -1.0434728396 -3.0087193273 -0.0539858229
C -0.0601727129 -2.9452833970 -2.3646458811
O 0.2708996011 -4.3200463575 -2.2422573464
H 1.7583308609 0.7535803939 -0.2237501453
H 0.5281158952 1.8650107559 -0.8089571961
H 0.8087669649 1.7156469347 0.9516709266
H -1.4748068014 -0.7477386165 -1.4734863596
H 0.1775253215 -0.3807124229 -1.9876177232
H 1.4318601988 -2.0196444484 0.6346493557
H 1.6958770226 -3.4618039469 -0.3584664335
H 2.1171673821 -1.8677526494 -0.9956464430
H -2.0535866825 -2.9539716317 -0.4761279364
H -0.7776116362 -4.0634000066 0.0465201823
H -1.0738180749 -2.5461027090 0.9336076041
H -1.0638206824 -2.8186770331 -2.8025024635
H 0.6569195942 -2.4275694094 -3.0232320739
H 0.2399933669 -4.7175636293 -3.1166782761