17

C -0.0194846678 1.4583408021 0.0143348648
C -0.0004066770 -0.0356597528 -0.0174435637
C -0.0370834105 -0.8317687526 -1.1073564080
C 0.0015414677 -2.2213541678 -0.6716766305
N -0.0063363362 -3.4221919755 -1.2346363119
N 0.0524773236 -4.2506215256 -0.1594588982
C 0.0962159304 -3.6012720323 1.0453236148
C 0.0642022263 -2.2651169521 0.7425372425
C 0.0677442882 -0.8624775624 1.2727458741
H 0.8785524000 1.8613158208 0.5006430338
H -0.0736971522 1.8777831686 -0.9938005157
H -0.8773155595 1.8371544862 0.5852086397
H -0.0870012098 -0.4943947327 -2.1345726809
H 0.0595994206 -5.2436619251 -0.3153352658
H 0.1445557783 -4.1535040153 1.9708171682
H 0.9682526344 -0.6143945252 1.8505101210
H -0.7854968266 -0.6389881882 1.9271954358