13

N -0.0768189854 1.3058847545 0.0104124013
C 0.0007411404 0.0348867764 0.0032985779
N 1.1148033766 -0.8085571408 -0.0067374827
C 0.7588474952 -2.1568137492 -0.0121169009
N 1.4696889409 -3.2085469696 -0.0212523711
C -0.7321887192 -2.1448772676 -0.0045738391
C -1.1638908708 -0.8698518765 0.0043240800
C -1.5141208559 -3.3279788484 -0.0069194016
N -2.1683992567 -4.2821368292 -0.0086949212
H 0.8439563842 1.7483262441 0.0081495307
H 2.0671958007 -0.4834521548 -0.0098152517
H 2.4697605027 -3.0032236849 -0.0251667823
H -2.1804141525 -0.5075516539 0.0113270307