17

C -0.2156831397 1.4552623042 -0.0282001218
N -0.0537072267 0.0189945048 0.0216300662
N 0.1777230712 -0.7069577082 -1.0630995215
C 0.2248365217 -1.9585109380 -0.6057895728
C 0.0155252201 -1.9327224009 0.7860452514
N -0.1580430652 -0.6631249442 1.1639205048
N -0.0860015217 -3.0135068653 1.6632263435
C 1.1398424270 -3.6826720175 2.1126511941
C 0.3460477213 -2.8329013330 3.0432664713
H 0.4923957294 1.9357635828 0.6515220954
H -0.0223612045 1.7690708184 -1.0529371108
H -1.2327126762 1.7341802100 0.2613264151
H 0.3993708009 -2.7938856894 -1.2637284718
H 1.0816777592 -4.7654072942 2.1667072888
H 2.0869620641 -3.2845265317 1.7569592842
H 0.7532976268 -1.8630520496 3.3129139442
H -0.2943270477 -3.2921939683 3.7899777898