19

C -0.0074539377 1.4544457540 0.0288198427
C -0.0382402044 -0.0615199447 -0.0179313934
C -1.2517966875 -0.6788604916 -0.5778135127
C -1.3195432470 -2.0117025296 -0.6373004033
C -0.1686323439 -2.7695895546 -0.1353523466
C 1.2647673620 -2.2545237694 -0.3053177142
C 0.6457729912 -2.2842351782 1.0688004882
C 0.7144673944 -0.7452426188 1.1339499851
C 1.3339872026 -0.7154781313 -0.2419658720
H 0.9292372984 1.8231246833 0.4586849438
H -0.1037523648 1.8786486871 -0.9767712754
H -0.8309308055 1.8436582768 0.6377859147
H -2.0531540124 -0.0340525295 -0.9247086771
H -2.1790416109 -2.5393272377 -1.0358471190
H -0.2319894607 -3.8522644569 -0.1873741466
H 2.0368219878 -2.8808392333 -0.7318544588
H 0.8482428610 -2.9378989925 1.9066565868
H 0.9813176952 -0.1877192182 2.0224048463
H 2.1668254222 -0.1307538950 -0.6105723986