21

C -0.3055627086 1.4698315494 0.0474241888
C -0.0031592469 -0.0235205885 -0.0287720570
C 0.6975376759 -0.3777043199 -1.3469506942
O 0.8055570562 -1.7636502484 -1.5941985585
C 1.7032038075 -2.5251712786 -0.8382453522
C 2.8867699094 -1.9976038271 -0.0674022038
C 1.6965907258 -2.5987328347 0.6640859097
C 0.8086802328 -1.6953137069 1.5025475619
O 0.7980469808 -0.3378566633 1.1055949512
H 0.6192311368 2.0519979686 -0.0192625776
H -0.9689207809 1.7775506173 -0.7660430462
H -0.7860518322 1.7059817225 0.9996089092
H -0.9407280231 -0.6011684527 0.0202716456
H 0.1035358547 0.0121520029 -2.1805914995
H 1.6814669185 0.1124144461 -1.3775887817
H 1.8567646350 -3.4639335049 -1.3612733099
H 3.8201031239 -2.5469059403 -0.1240628341
H 3.0017527306 -0.9268718363 0.0465695686
H 1.8151862093 -3.5892138852 1.0981953097
H -0.2200210927 -2.0926942386 1.5149165340
H 1.1725182473 -1.6930711415 2.5364665060