20

C -0.0885659743 1.5816443022 0.1438097980
C -0.0310974005 0.0620858822 -0.0063401654
C -1.3998101413 -0.5774203880 0.2270866290
C 0.7477133861 -0.5249993153 -1.2439741403
C 1.3401191881 0.4075964458 -2.2832288472
O 2.1335709325 -0.4014578319 -3.1423027315
N 1.7165852982 -1.0687055467 -0.2889552545
C 1.0925324885 -0.6065807857 0.8404116394
O 1.3331442152 -0.7025856261 2.0153446971
H 0.8900648659 2.0513197220 0.0132905309
H -0.7841711692 2.0272540975 -0.5759025729
H -0.4390801852 1.8337255587 1.1493174323
H -2.1401099941 -0.1910011833 -0.4823200326
H -1.3582881428 -1.6656123560 0.1177293421
H -1.7509761959 -0.3558947287 1.2396239499
H 0.1848472673 -1.3082729905 -1.7665195401
H 0.5273291507 0.9065235857 -2.8350099621
H 1.9481793926 1.1820357099 -1.7956158638
H 2.5741382327 0.1708628681 -3.7772010476
H 2.5245945255 -1.6572289399 -0.4274431306