22

C 0.2659517660 1.4593933123 0.2511026830
C -0.0894335289 -0.0025109530 -0.0535381812
C 0.5093976771 -0.5067760061 -1.3254101816
C 0.4294560779 -0.0686727891 -2.8498141248
C 1.9494151146 0.1106582108 -2.7451013937
N 1.9667096494 -0.7858235364 -1.5440863056
C 0.9169235583 -1.8443295053 -1.8318897780
C 1.0627215922 -3.1584714157 -1.1316833634
C 0.3074024394 -1.5717373009 -3.2082232610
H 1.3499869373 1.5825781509 0.3328380137
H -0.0921339698 2.1280193933 -0.5389849813
H -0.1859513709 1.7844193686 1.1930920536
H 0.2585500623 -0.6443185938 0.7651618658
H -1.1805832210 -0.1191567242 -0.0975511030
H -0.2272074294 0.6733007648 -3.3020119195
H 2.5680148025 -0.2201055282 -3.5888250943
H 2.2572263638 1.1124122785 -2.4338680462
H 1.4362636009 -3.0166135680 -0.1140625339
H 0.1037617186 -3.6858465476 -1.0804702775
H 1.7745316417 -3.8037272249 -1.6593540701
H -0.7334126673 -1.9067682571 -3.2375701186
H 0.8328717055 -1.9223861186 -4.1048599124