17

O 0.0824213867 1.4822670874 -0.0258083722
C 0.1053003336 0.0740619489 0.0335868777
C -1.3053460703 -0.5238471504 0.0341648784
C -2.1494776428 -0.0279612014 1.2138464224
C -3.5705020732 -0.5511525506 1.1978756822
O -4.0450710006 -1.2334795425 2.0695111426
O -1.9472201640 -0.0994573440 -1.1906076275
C -2.1256170531 -1.0030104387 -2.1806470062
O -2.5709837626 -0.7056893897 -3.2456398403
H -0.3674080889 1.7249812606 -0.8438230685
H 0.6708747217 -0.3614524078 -0.8050482150
H 0.6185150725 -0.1986833993 0.9613067840
H -1.2371706994 -1.6201690041 0.0457881136
H -1.6788541081 -0.3338724046 2.1521527394
H -2.1665816103 1.0677155319 1.1715771501
H -4.1682927931 -0.2571778657 0.3085404417
H -1.8253948381 -2.0268837900 -1.8860743824