22

C -0.1578797005 1.5942300111 0.2856416050
C -0.2534740008 0.0837787665 0.5076829066
C -1.0889634233 -0.6189558182 -0.5822977979
C -1.1916487980 -2.0618093465 -0.3948713314
C -1.2562441008 -3.2517986507 -0.2076892632
C -1.3470145433 -4.6809090689 -0.0329484090
C -0.8644365167 -5.5229503217 -1.1991024984
C -1.2493342004 -5.2125264110 1.3619323719
N -2.5433133808 -5.2203475954 0.6674837840
H 0.4368772292 2.0718904477 1.0699164909
H 0.3127443546 1.8258083979 -0.6764738161
H -1.1494051486 2.0607978476 0.2891305299
H 0.7481560925 -0.3600033984 0.5255133434
H -0.7006011190 -0.1263369831 1.4858666365
H -2.0950041075 -0.1778914442 -0.6080671607
H -0.6479612812 -0.4110567024 -1.5667645167
H 0.1961722859 -5.3394297862 -1.3966565241
H -1.0071851988 -6.5832944786 -0.9768107819
H -1.4278243067 -5.2822762575 -2.1056052779
H -0.8091036387 -6.1936996795 1.5205265081
H -1.0856851454 -4.5005334146 2.1652670772
H -3.1118222317 -4.4448145337 0.9988573841