18

C -0.2083812044 1.5982331031 0.0306142892
C 0.0447077736 0.1048116748 0.0795070101
C 1.3435285351 -0.5979397902 -0.2363420281
C 2.7022390801 0.1123626043 -0.1305730108
C 2.9226418126 0.4046305407 1.3509138359
O 2.0089595848 1.3473664334 1.9235211047
C 1.7452992562 -0.0534053125 2.1086457010
C 0.7488729256 -0.6880633149 1.1684625177
H 0.6714668044 2.1827943245 0.2867624966
H -0.5423253545 1.8781559390 -0.9753990600
H -1.0040357766 1.8775269145 0.7301434171
H -0.8061659337 -0.4547126132 -0.3080241188
H 1.2958912161 -1.4467223424 -0.9108766212
H 3.4920964961 -0.5598741983 -0.4832170541
H 2.7667332475 1.0259172478 -0.7323988215
H 3.9313544266 0.4436452051 1.7571618681
H 1.7967538567 -0.3935690286 3.1395238204
H 0.2739654939 -1.5956676670 1.5253779536