19

O 0.1609447552 1.3112371538 -0.0108752827
C -0.0399578434 -0.0646351912 0.2769026977
C -1.4646354330 -0.4988213903 0.0519584511
C -2.5901392612 0.1397553966 0.8701618143
C -3.3631538214 -1.0806669599 1.4019382697
O -3.1434453921 -2.1367018662 0.4463086209
C -1.8646322883 -1.9487699458 -0.1145714988
C -1.8877925602 -1.0439107259 -1.3161895197
O -3.1142581359 -0.7101716675 -1.8761399212
H -0.1474095287 1.4655452121 -0.9105242542
H 0.6411212345 -0.7024266716 -0.3109524338
H 0.2372117557 -0.1848387609 1.3310005482
H -2.1882409304 0.7601633872 1.6743385556
H -3.2266941371 0.7664164396 0.2390938267
H -2.9790770022 -1.3944851204 2.3829123051
H -4.4430039346 -0.9309776250 1.4817559653
H -1.1877277465 -2.7918896029 -0.0124423083
H -1.1013567951 -1.1621246069 -2.0591703009
H -3.7688742755 -1.2602327349 -1.4212152050