19

C 0.0452595125 1.4935161538 -0.1988273739
C 0.0448264600 0.0004785552 0.0150167055
N 1.3603074698 -0.6761977354 -0.0254047566
C 0.6130229492 -0.6497450875 1.2210996204
C 1.0950499270 0.0001752678 2.5221616762
C 0.1261211372 -0.9644627945 3.2882376492
C 0.0044818640 -1.8297968048 1.9875742391
C 0.6210566240 -1.6150248294 4.4878522301
N 1.0286126018 -2.1413469952 5.4335631770
H 0.9153202843 1.9527504351 0.2776601985
H 0.0861237578 1.7309881830 -1.2669836537
H -0.8613381960 1.9500249931 0.2136254926
H -0.7900091084 -0.5279964307 -0.4461223689
H 1.2902469937 -1.5895154459 -0.4683952024
H 2.1440729357 -0.2242580870 2.7287676880
H 0.9197227972 1.0683056001 2.6616241450
H -0.8205573000 -0.4680945417 3.5147645748
H -0.9994551784 -2.1628204342 1.7150605289
H 0.6744207787 -2.6938973917 2.0222091801