17

O 2.3202670198 0.7658452448 -1.9237182066
C 2.0950531136 1.8513150855 -1.4820593805
O 1.4339431057 2.0379258741 -0.3178415523
C 1.1842278054 3.3783760757 0.0768098192
C -0.0347318603 3.9935434782 -0.5982044811
C -1.2774691400 3.2911343881 -0.2959076777
C -2.2980494103 2.7115592583 -0.0416804776
C 1.4696924153 3.6565334415 1.5163568225
C 2.3695315614 4.2348514690 0.4429746100
H 2.4056786234 2.8003036716 -1.9574854791
H -0.1120819294 5.0399411162 -0.2793712606
H 0.1219293837 4.0183407246 -1.6848903824
H -3.1984777740 2.1937437144 0.1792525786
H 0.7953273506 4.3182015271 2.0477124172
H 1.8576117141 2.8313782556 2.1012557414
H 3.3559251249 3.7989832483 0.3336838962
H 2.3202542361 5.2977510573 0.2329291128