21

C 0.0400206579 1.4418785380 -0.2430964423
C -0.0955200711 -0.0442839689 0.1152947486
C -1.5206933385 -0.5220562741 0.1118209745
C -2.6279543197 -0.1446379288 1.1054308862
C -3.4189850938 -1.3403486551 0.5202935287
C -2.0458638740 -1.9332060162 -0.0114530101
C -2.2245784147 -0.9721775859 -1.1784807549
C -3.7320326403 -0.9032217307 -0.9401440540
O -4.4781457958 -1.8355266561 -1.6915852733
H 1.0861203709 1.7615561886 -0.2143507619
H -0.3481622978 1.6415354881 -1.2471604761
H -0.5197350803 2.0687625300 0.4589125297
H 0.4906483596 -0.6494427177 -0.5884049473
H 0.3403637605 -0.2227471795 1.1075294614
H -2.3042155848 -0.3252484224 2.1355709713
H -3.0930336267 0.8468039977 1.0377408511
H -4.1770316280 -1.8684373814 1.0956094257
H -1.5472318770 -2.8881736289 0.0758141549
H -1.7049110187 -0.9697388991 -2.1296347243
H -4.2453842251 0.0559357662 -1.0696009312
H -3.9895605926 -2.6676828439 -1.6825644567