14

C -0.0224398771 1.5019557844 0.0092948632
C -0.0062132389 0.0023248461 -0.0109586098
C -0.0353717522 -0.7059010183 -1.1569215749
O -0.0224404936 -2.0568822363 -1.2262828718
C 0.0228099995 -2.7548988373 -0.0713746681
C 0.0550548299 -2.1546690563 1.1320629034
F 0.0990926282 -2.8943104378 2.2333718587
C 0.0435692446 -0.6969255313 1.2830245639
O 0.0721994461 -0.1284133343 2.3638690095
H 0.8662335327 1.8842635873 0.5213438814
H -0.0598285534 1.9210865886 -0.9991723075
H -0.8844801865 1.8645625834 0.5780637994
H -0.0723820235 -0.2704677954 -2.1478701806
H 0.0300065342 -3.8259267828 -0.2212220069