23

C -0.2271207027 1.5971720668 -0.0248105257
C 0.0535145319 0.1011339421 0.0078783734
C 1.0576683363 -0.5751777139 -0.9666836759
C 2.4284136336 0.1505437180 -1.0170623159
C 3.0965857955 -0.2905021849 0.3064738640
C 2.1852501185 0.1593304660 1.4725967346
C 0.8496620045 -0.5676632324 1.1630190818
C 1.3104511303 -1.6697132613 0.1368903221
C 2.8234642381 -1.8096098866 0.2851576472
H 0.6791760576 2.2031366515 0.0615706751
H -0.7206148043 1.8788466724 -0.9621692026
H -0.8924704730 1.8850562516 0.7973514686
H -0.9022970226 -0.4307192094 -0.0835975879
H 0.6875650059 -0.8710400033 -1.9508452503
H 3.0157265139 -0.2027549414 -1.8718713895
H 2.3376150938 1.2365578993 -1.1152729232
H 4.1414224583 0.0112307916 0.4074567914
H 2.5958243213 -0.1875837625 2.4273395340
H 2.0779038434 1.2459419893 1.5437878552
H 0.2959259047 -0.8568911601 2.0590149370
H 0.7004570594 -2.5704538591 0.0804915317
H 3.2958122883 -2.3201892811 -0.5609443879
H 3.1228257073 -2.3139409125 1.2102119928