18

O -0.0678390118 1.4296922227 -0.0104876479
C 0.0660654484 0.0555655106 0.0180825111
C 1.3274579881 -0.7291050706 0.3513101578
N 0.7555415243 -1.9162503614 -0.3823002320
C -0.0210661467 -2.7955251675 0.5153633487
C -0.3204372341 -2.4193831741 1.9537680194
C -1.3127066460 -2.0917805324 0.8702577977
C -1.2101521364 -0.7890427047 0.1046689480
C -0.2457633229 -0.9930637189 -1.0336842532
H 0.6245896239 1.7891986881 -0.5774434549
H 2.1836890152 -0.3419504182 -0.2154258396
H 1.6460678730 -0.8950865651 1.3824276910
H 0.0112034568 -3.8484850971 0.2576577873
H -0.5664779419 -3.2498073572 2.6091981874
H 0.2016833528 -1.6157408577 2.4549079002
H -2.2743596852 -2.5948013750 0.8519428279
H -2.1024325753 -0.1969158545 -0.0674715951
H -0.4203644724 -0.9688346768 -2.1019228538