21

C -0.1819242663 1.4617003402 -0.0881653615
C 0.0320133169 -0.0491490184 0.0291660772
C 0.8471069735 -0.4019926483 1.2785529947
O -1.2728465540 -0.6321921414 0.0975041104
C 0.7239741789 -0.5608509671 -1.2190169634
C 0.0836339236 -0.8436308907 -2.5390444188
C 0.8834171191 -1.9330273717 -1.8437133702
C 2.3626226701 -1.5783973639 -1.9228765788
O 2.1151444240 -0.2437119575 -1.3992887833
H 0.7737179430 1.9689578258 -0.2459855295
H -0.8380983911 1.6813384206 -0.9342501750
H -0.6455160460 1.8514663252 0.8223497660
H 0.3419721759 -0.0293157338 2.1738919233
H 0.9600302032 -1.4892077959 1.3696466356
H 1.8483123939 0.0311124178 1.2230506824
H -1.1651818702 -1.5543397014 0.3552378987
H -0.9905556987 -0.9848616515 -2.4998654589
H 0.4693769583 -0.3693899428 -3.4378502000
H 0.4688236820 -2.8963928335 -1.5772565915
H 2.9950507701 -2.1487597751 -1.2331504563
H 2.8279370938 -1.5527875766 -2.9156588111