23

C 0.2451494782 0.8122018964 0.9674390944
C 0.3770679134 -0.5844867830 0.3410395895
C 0.5745901979 -0.5797035913 -1.1703949219
C 1.7813430895 0.2054802127 -1.6754125724
O 1.5277373872 1.5856195172 -1.9114780434
C 0.1876535948 -1.8226990145 -1.9759727192
C -0.3738696532 -3.0802705778 -1.3465234495
C -0.6343966288 -0.5540060190 -2.0674077307
O -1.8815154803 -0.4869620190 -1.4303509660
H 1.1659565970 1.3997792767 0.8674368015
H -0.5791256932 1.3685420383 0.5096400021
H 0.0405459408 0.7373748503 2.0401044600
H 1.2231717888 -1.1094510429 0.8046624293
H -0.5192074664 -1.1541821971 0.5914710055
H 2.6216337071 0.0718627483 -0.9745187711
H 2.1091887229 -0.1856382483 -2.6436954942
H 1.1835889170 1.9681708387 -1.0995209928
H 0.8284766424 -2.0146758448 -2.8340428345
H -1.2011888647 -2.8608990196 -0.6681599232
H -0.7553242978 -3.7537124293 -2.1223900706
H 0.3898622217 -3.6290284688 -0.7850758725
H -0.5619808094 0.0468278788 -2.9729378940
H -2.5227531848 -0.9474310021 -1.9817946462