21

C -0.0573972739 1.2855755417 -0.0033702327
C -0.2990167467 -0.1774033387 -0.3274058022
O -1.3582186533 -0.6513260903 0.5011265734
C -1.6277193425 -1.9936664032 0.3398854761
C -2.9104272749 -2.5074408373 0.8574529068
C -2.7440057967 -2.4295224442 -0.6597973297
C -3.4922410782 -1.3705768297 -1.4387260214
C -2.4423954694 -3.7067107893 -1.3428055526
O -1.9774615464 -4.6848304390 -0.7993941238
H 0.7596007445 1.6781625947 -0.6157792592
H -0.9545306978 1.8790302216 -0.2012276800
H 0.2085221530 1.4065890300 1.0503721981
H -0.5655701563 -0.3083439018 -1.3866343218
H 0.6071191583 -0.7740501574 -0.1409421573
H -0.7623248729 -2.6556923202 0.3687031810
H -2.9185410075 -3.5026274685 1.2875656187
H -3.5877975091 -1.7840329922 1.2979307530
H -3.3764903636 -0.3939066732 -0.9631043044
H -3.1130377665 -1.2919393458 -2.4640957471
H -4.5629383761 -1.5945237607 -1.4967568492
H -2.6459348541 -3.7076365567 -2.4382016356