18

C 0.4654496362 0.6371204864 1.2871295163
C -0.0308935172 0.1676962311 -0.0651754618
O 0.4857183686 0.4993224541 -1.1094527308
C -1.2729607102 -0.7242283424 -0.0520637360
O -2.3720563708 0.0584718638 0.3842871904
C -1.5190639851 -1.7514797011 -1.1992866908
C -0.3705604642 -2.6088312637 -0.6156346608
C -1.2530769288 -2.1523977799 0.5724305454
N -2.4501990319 -2.5359029780 -0.2802920995
H 1.2227364321 1.4118995228 1.1612019536
H -0.3688861998 1.0046297722 1.8908463923
H 0.9039039811 -0.2107714903 1.8277100175
H -2.5316201172 0.7439620758 -0.2748699866
H -1.7580361322 -1.5560351749 -2.2446998707
H -0.4458131804 -3.6716918613 -0.8403080957
H 0.6456787741 -2.2230075574 -0.6923846810
H -1.1814139234 -2.4228436201 1.6270883908
H -3.2320799911 -1.9285206671 -0.0198564325