16

O -0.0099588743 1.2998452227 -0.0151532821
C 0.0256444160 -0.0497874278 -0.0713217347
C -0.0889241729 -0.8291412361 -1.1931038499
N -0.0729017173 -2.1339603968 -0.6796848412
C 0.1323720868 -3.4924931563 -1.1395295553
C -0.0376934263 -4.2608400761 0.2004848684
N 0.3810609449 -3.2750262770 1.2191662616
C 0.1314780722 -2.0278268913 0.6512690374
N 0.1750840870 -0.7900716474 1.0868246077
H 0.1207214214 1.5292453130 0.9126814305
H -0.2574147952 -0.5991755344 -2.2287601547
H -0.6002570737 -3.8010099520 -1.8895470239
H 1.1394496627 -3.6234891315 -1.5579726771
H -1.0892816596 -4.5535786442 0.3257450709
H 0.5824145445 -5.1586190445 0.2430003144
H 0.0004224336 -3.4125941404 2.1455144880