18

C 0.0795362668 1.5196768255 0.0031873650
C -0.0484882524 0.0331759005 0.0311781193
C -1.1180431865 -0.7652487001 -0.0099386937
C -2.6123184716 -0.8314974995 -0.0923534598
C -2.8462682845 -2.3972410589 -0.0690431322
N -1.5379333649 -3.0793635082 0.0200625461
C -0.6722559574 -2.1495728518 0.0472600046
O 0.6728910840 -2.2298102155 0.1245953720
C 1.1699336869 -0.8758336154 0.1207471699
H 0.6812424423 1.8513507031 -0.8525584400
H -0.8985179731 2.0017851073 -0.0626620488
H 0.5834850793 1.8930715183 0.9037160496
H -3.1037089632 -0.3341772333 0.7498962237
H -3.0049329933 -0.3749460134 -1.0064649419
H -3.4681668750 -2.6931186946 0.7833042575
H -3.3699638199 -2.7339866455 -0.9707724286
H 1.8514747900 -0.7555543321 -0.7324606382
H 1.7523752224 -0.7141750965 1.0381147054