21

C -0.2615761569 1.5178419826 0.1015770574
C -0.0165268380 0.0289083188 -0.0037654423
C 0.7077662409 -0.6043705454 -1.1787449545
C 1.3678813542 0.2049678321 -2.2809572151
O 2.3213231071 1.1429419962 -1.7885454864
C 3.1614494733 0.5784822451 -0.8113974120
C 4.2507365682 1.5733858396 -0.4770518356
O 2.4413527899 0.3049994932 0.3742057012
C 1.3592435843 -0.5665399614 0.1853733119
H 0.5789722764 2.0872617864 -0.2960397882
H -1.1616896688 1.8023499809 -0.4542597019
H -0.4092630185 1.8109743901 1.1464738899
H -0.8198807293 -0.5847344418 0.3978635183
H 0.3364778865 -1.5676084526 -1.5160350356
H 1.8671180205 -0.4888326703 -2.9767253002
H 0.6416216683 0.7892069709 -2.8548165091
H 3.5813787567 -0.3666720333 -1.2040218959
H 3.8007698495 2.4972251363 -0.1054400429
H 4.9065382885 1.1628780952 0.2939596026
H 4.8381510014 1.7973869645 -1.3702013717
H 1.4616015260 -1.4856092871 0.7579671300