23

C -0.2352904809 1.5856698662 0.1371148794
C -0.0334878283 0.0992063404 -0.0213061213
C 0.0470944361 -0.4592456717 -1.2327591158
C 0.2880193616 -1.9153874875 -1.5213926887
C 1.7946521074 -2.2456729338 -1.6201614392
C 2.5994061770 -1.7188625905 -0.4114209650
C 2.0622188884 -2.1903923938 0.9179461231
C 0.9857075706 -1.7624004625 1.5815555290
C -0.0250011938 -0.6744958428 1.2909714888
H 0.5876267803 2.0394607473 0.7051102919
H -0.3031231519 2.0924673462 -0.8291298810
H -1.1533222146 1.8034778350 0.6994518873
H 0.0037151815 0.2005245985 -2.0986599302
H -0.1550229134 -2.5358247392 -0.7367776098
H -0.2009748898 -2.1983156487 -2.4605772914
H 1.9146527447 -3.3322056111 -1.7080034887
H 2.2138051166 -1.8073490425 -2.5344089852
H 3.6409404949 -2.0415918590 -0.5139618356
H 2.6069085272 -0.6264655844 -0.4493735655
H 2.6105350940 -3.0118421079 1.3763903420
H 0.7724524035 -2.2600963347 2.5280985803
H 0.0460435431 0.0510291952 2.1145383302
H -1.0241993643 -1.1204135588 1.4286450755