15

N 0.0014651172 -1.1207210720 0.0299262172
C -0.0130898273 0.0354736498 0.0380157105
C -0.0136204025 1.4776338903 0.0249108341
C -0.8404020078 2.2377005599 -1.0467849956
C -0.0522681534 3.5405941171 -0.8421177618
O 1.2781400552 3.1363894184 -1.2869590540
C 1.3344037528 2.3920966913 -0.0892948821
C 0.4062440005 3.3334537686 0.6851154654
N -0.2903708359 2.2016415643 1.2962237194
H -0.7199843895 1.8618096855 -2.0637203652
H -1.8994384378 2.2786423576 -0.7792753457
H -0.3995726035 4.4771937774 -1.2718937377
H 2.2956314239 1.9793734769 0.2041892412
H 0.7085524090 4.1859346967 1.2886931595
H -1.2834891109 2.3328163381 1.4866886548