15

C -0.1239269366 1.4276895061 0.0165170003
N -0.0505314455 -0.0228466790 0.0031270207
C 0.6120293938 -0.5993696270 -0.9334060578
C 1.3383836250 0.0374184241 -2.0425697554
C 1.9906670306 -0.6922400823 -2.9539026252
O 2.0417360661 -2.0575305181 -2.9400917031
C 1.3853044507 -2.6677588907 -1.9354891169
F 1.5210450354 -3.9696479497 -2.0500595832
C 0.6990951564 -2.0566564896 -0.9665072547
H 0.8645491361 1.9028565289 0.1110222693
H -0.6005259261 1.8380763614 -0.8869433958
H -0.7222691698 1.7457402880 0.8742984122
H 1.3583380798 1.1141413061 -2.1419136349
H 2.5459475917 -0.3008114838 -3.7955780263
H 0.2047430824 -2.6392260443 -0.2017937192