20

C -0.0298469549 1.6124667966 0.0004190561
C 0.0746731878 0.0968806057 0.0110987603
C 1.1338883418 -0.6052408391 -0.9084284647
O 2.2951228757 0.1549283240 -1.1752628844
C 1.3239845461 -1.6170411466 0.2310560126
C 1.1405614945 -3.0810989259 0.1423777298
N 2.4546750269 -2.4970941065 0.4680480721
C 0.7389607933 -0.6230064343 1.2336493217
O 1.8213418761 0.1245168740 1.7823365901
H 0.9470906254 2.0810017567 0.1443645242
H -0.4206046453 1.9673610293 -0.9582388647
H -0.7054444006 1.9705713729 0.7860195368
H -0.9039550554 -0.3605580549 -0.1723162240
H 0.7820118756 -0.9790825821 -1.8739741144
H 2.6645272722 0.4015823598 -0.3160583138
H 0.6728016365 -3.6259157162 0.9585501018
H 0.9798203085 -3.5122969285 -0.8431839323
H 3.0610115969 -2.4885215864 -0.3501383098
H 0.0811936589 -1.0051523551 2.0240692371
H 1.4537920901 0.8920907365 2.2339492754