20

C -0.0791583423 1.5449916018 0.0569475605
C 0.1232738160 0.0276857042 -0.0260728334
C 0.6980759167 -0.5685145228 1.2304337605
C 0.0611473086 -0.5079052263 2.6458199884
C 1.1969448007 -1.5487452180 2.9359368792
C 0.9331258039 -2.0798196077 1.4845226211
C 2.3954217407 -0.6778948875 2.6565468602
N 3.4708495990 -0.5579093447 3.3002679511
O 2.0404779264 -0.0217688790 1.4967965451
H 0.8674769196 2.0506375855 0.2635511841
H -0.4787456603 1.9350908483 -0.8832939190
H -0.7825021336 1.8083207525 0.8537763662
H -0.8307001370 -0.4729142391 -0.2304114079
H 0.7917453183 -0.2177067085 -0.8602751541
H 0.0909617921 0.4473570247 3.1737753856
H -0.9356384925 -0.9512004660 2.6861380490
H 1.2334060142 -2.1799228930 3.8186256368
H 0.0199241287 -2.6737120993 1.4134511044
H 1.7577755897 -2.5559586070 0.9495395211
H 4.0874487609 0.1179641719 2.8447043514