18

N -0.0690752347 1.3255266120 -0.1749263908
C 0.0332457200 0.0871496237 0.0691721831
O 1.2309018429 -0.4883875952 0.3820122841
C 1.3338079021 -1.8846488588 0.7438593587
C 0.1311381376 -2.4047917651 1.4925869237
C -1.0358893978 -1.9266815470 1.0941563747
C -2.4781262543 -1.7807115111 1.5261826187
C -2.4980355338 -0.4229705416 0.7378150965
C -1.1548317023 -0.8360680943 0.0576683187
H 0.8445396075 1.7772386437 -0.0959291943
H 1.5187349565 -2.4615640632 -0.1738488928
H 2.2391783301 -1.9447468104 1.3535541749
H 0.2750880025 -3.0842472262 2.3258987578
H -3.1361340224 -2.5301966748 1.0728275049
H -2.6791932953 -1.7509340355 2.6000018826
H -3.3474184498 -0.2502375683 0.0761567974
H -2.3631592221 0.4449351880 1.3841405853
H -1.3088815867 -1.2213588561 -0.9584803232