23

C 0.0878734016 1.6390411711 -0.1026761964
C 0.0316025986 0.1060734384 -0.0602390739
C 0.7069242563 -0.4930057972 -1.2962685531
O 0.0112202999 -0.0478768803 -2.4515985919
C 0.6577082083 -0.4860870209 1.2141897762
C -0.0680742679 -0.1123302719 2.5122667419
C 0.5522230028 -0.7858013232 3.7496018195
C -0.2299421813 -0.4841785270 5.0065634426
O 0.2236314350 0.0132239066 6.0046790704
H 1.1200629523 1.9934605671 0.0120810490
H -0.2886115183 2.0014243761 -1.0614915232
H -0.5113463623 2.0928741042 0.6915718007
H -1.0226953737 -0.2028889525 -0.1024716603
H 1.7647570227 -0.1810491032 -1.3242495821
H 0.6909815258 -1.5928005106 -1.2280482262
H 0.4842076639 -0.3594911870 -3.2281958486
H 0.6764046715 -1.5814460199 1.1285293335
H 1.7077275219 -0.1682835600 1.2842494641
H -0.0526716882 0.9738825189 2.6547890493
H -1.1255786105 -0.3990543930 2.4335471550
H 0.5410840845 -1.8768677872 3.6076635484
H 1.5902905839 -0.4749124330 3.9009338563
H -1.3107561070 -0.7582462554 4.9462426588