23

C -0.0586427795 1.4010623861 -0.0717521255
O -0.0286186309 0.0018107686 0.0926236533
C -1.2918471725 -0.6418013736 0.0059067202
C -1.7727142249 -0.7454876537 -1.4452395658
C -1.1465822500 -2.0176276660 0.7205579110
C -0.1560665816 -2.9455162809 0.0082976999
C -0.7118299576 -1.7727738460 2.1842798461
C -2.5310644845 -2.6476193609 0.7906121048
O -2.8289087658 -3.7384772140 0.3779350703
H 0.9527290049 1.7671943566 0.1217192197
H -0.3480592769 1.7023078912 -1.0884450612
H -0.7502886661 1.8779268994 0.6402937442
H -2.0293185070 -0.0506659824 0.5781405718
H -1.0280952088 -1.2509885183 -2.0649082393
H -2.7115436765 -1.3046292287 -1.5092695141
H -1.9523268856 0.2464563616 -1.8687013174
H 0.8046497680 -2.4412179477 -0.1182632938
H -0.0011190556 -3.8559119432 0.5929901918
H -0.5268312012 -3.2547269944 -0.9713094455
H -1.4458437278 -1.1637881253 2.7245758019
H -0.5970943048 -2.7202916643 2.7190220114
H 0.2411339044 -1.2413799599 2.1968609456
H -3.2910774198 -2.0064251440 1.3002427205