16

O -0.0444376702 1.4172263887 0.0080661991
C -0.0571912357 0.0336516485 -0.0039185086
C -0.4213823670 -0.7294425401 -1.2593631785
C -1.2929868162 -0.8250696776 -0.0245921796
C -1.0311626529 -1.9481869115 0.9656255278
C 0.0102734976 -2.9822480578 0.7362464682
N 0.3132361683 -1.7836371215 1.5560882441
C 0.9241183524 -0.6609253577 0.9175182892
O 2.0317363286 -0.2517236065 1.1501700326
H 0.8783550149 1.6705935049 0.1509853980
H -0.8082308493 -0.0938903212 -2.0490918092
H 0.1595315788 -1.5748533492 -1.6100720080
H -2.2866544588 -0.3967641709 -0.0539983920
H -1.8211014135 -2.1586114951 1.6805196118
H -0.0159849292 -3.9083990920 1.3029615985
H 0.4799480121 -3.0684883309 -0.2374733133