19

C 0.0167453253 1.6817984750 0.0912838434
C 0.1316881114 0.1809754819 -0.0330027802
C 1.4423882043 -0.5602585629 -0.2286891771
O 2.6389852381 0.1298370354 0.0701966791
C 2.8081420859 0.0200492577 1.4817872994
C 3.5885773876 1.2265795922 1.9863669066
O 3.1145203010 2.4446634715 1.4607752612
O 1.5021338332 -0.0357060884 2.0300176975
C 0.7040784062 -0.6911216721 1.0689457942
H 0.0984385368 2.1625219192 -0.8894566824
H -0.9567331631 1.9503808079 0.5141953070
H 0.7880196340 2.0879172733 0.7462098313
H -0.6888447698 -0.2994183089 -0.5643725180
H 1.5521470494 -1.3504481158 -0.9634775589
H 3.3488904412 -0.9139845874 1.7184577521
H 3.4942256015 1.2727117259 3.0751162457
H 4.6508876550 1.0646048469 1.7441578066
H 3.0386304534 2.3091355731 0.5081402883
H 0.2126453488 -1.5926121344 1.4194485841