18

O -0.0699874767 0.0912699903 -0.4333738897
C 0.0059177869 1.2714079720 -0.1727080688
N 1.1350518069 1.8810479992 0.2852828341
C 2.5305369284 1.3695802962 0.4061321863
C 2.9340461977 2.8198551981 0.8665803063
C 3.8166617649 3.8710348913 0.1768009361
C 2.8444811072 5.1029772524 0.0952289193
C 1.4607414547 4.4608491104 -0.0628540128
C 1.5686084011 3.2156164732 0.3932871736
H -0.8402351174 1.9811564040 -0.2576131554
H 2.6466271237 0.5652609708 1.1340697455
H 2.9289790243 1.0613691750 -0.5651499487
H 3.0377332027 2.8477659987 1.9571470094
H 4.7465557260 4.0939051474 0.7068989073
H 4.0718672756 3.5507919971 -0.8393530841
H 2.9233768523 5.7253299460 0.9981003930
H 3.0843076943 5.7539537024 -0.7518897586
H 0.6255513275 4.9348992354 -0.5587629327