23

C -0.3419121330 1.5402054096 -0.0276981619
C 0.0315974613 0.0542746762 -0.0192068688
C 0.7608721270 -0.4541558457 1.2479067780
C 0.7401190247 -1.9902296310 1.1902762017
O 1.6844525167 -2.5109853120 2.1292601195
C 2.2332852561 0.0303707988 1.2714417629
O 3.0715240937 -0.6790261018 0.3738644506
C 0.0904585546 0.0370488426 2.5476144386
O -1.3222874559 -0.1249833661 2.5727965461
H 0.5258536060 2.1893053186 0.1313089251
H -0.7739317876 1.8135062769 -0.9954363054
H -1.0840063914 1.7642636475 0.7428771921
H -0.8863195934 -0.5300887880 -0.1570798786
H 0.6782873308 -0.1709049388 -0.8758943909
H -0.2738098807 -2.3593907974 1.4114294964
H 0.9901156158 -2.3181695935 0.1727091078
H 1.6249493590 -3.4708395728 2.1191120236
H 2.2780617614 1.0814414002 0.9701496104
H 2.6241900409 -0.0304267987 2.2965830191
H 3.1955776255 -1.5481993924 0.7739040288
H 0.5618208397 -0.4660555545 3.4034880091
H 0.2626706562 1.1119012667 2.6655733754
H -1.5160521874 -1.0588731644 2.6929187903