15

C -0.0070545682 1.4363509566 0.0097126157
N -0.0518625874 -0.0151345451 -0.0545470364
C 0.4774578289 -0.6350018142 -1.0037315709
C 0.4875095811 -2.1367629690 -1.2011325813
C 1.5105069967 -2.3510281571 -2.3212368673
C 1.7407806560 -0.9606500205 -2.8949843433
O 2.3346009322 -0.6391974598 -3.8764757870
O 1.1484656262 -0.0290296691 -2.0682904085
H 0.5710779407 1.9073121206 -0.7919537449
H -1.0323268886 1.8214675536 -0.0192997700
H 0.4139542939 1.7312864464 0.9766543179
H 0.7293207136 -2.6418404556 -0.2654991739
H -0.5135875327 -2.4638908994 -1.4984339326
H 2.4720025463 -2.7216389977 -1.9517394900
H 1.1886921013 -3.0262160198 -3.1155478276