18

C -0.9974705931 1.0634898451 0.3467898897
C -0.1242672783 -0.1218230043 -0.0487694594
C 0.8393657959 0.0372858128 -1.2695973869
C 2.0376726058 -0.5139811816 -0.4103532310
C 3.2693856620 0.2493062830 -0.4080730438
C 4.2737798745 0.9086883821 -0.4449647738
C 1.0984316746 -0.4208542346 0.7986921159
N 1.2111813396 -0.4909883461 2.0557320581
O 2.5274283089 -0.7716310929 2.4491958304
H -0.3965860576 1.9718911581 0.4553107061
H -1.7658227433 1.2490425937 -0.4110025640
H -1.4964380287 0.8756256615 1.3018580685
H -0.7450673214 -1.0204079845 -0.1542053722
H 0.5984668414 -0.5382400965 -2.1642182119
H 0.9945273350 1.0824515609 -1.5433022741
H 2.2484424456 -1.5654044757 -0.6427139037
H 5.1673855206 1.4816760972 -0.4591643852
H 2.4606599785 -0.7590562781 3.4101238774