17

C -0.1036034781 1.5836672081 -0.0350288731
C 0.0295329000 0.0834497013 0.1066757161
N 1.1969773253 -0.7176699282 -0.2880416658
C 2.4345946149 0.0657003096 0.0724493001
C 2.1013302752 0.0379128280 1.5758591552
O 2.0931324528 1.2886689867 2.2105640175
C 0.7628057286 -0.6302871778 1.1933260259
C 0.1992858783 -1.7278727985 1.9173763520
N -0.2446521924 -2.5872066364 2.5536872708
H 0.6957257732 2.1357772946 0.4556426067
H -0.1357420192 1.8550486290 -1.0959207289
H -1.0497251337 1.8994721174 0.4153677402
H -0.8702890503 -0.4536044901 -0.1889505460
H 3.3228102262 -0.5062298593 -0.1961189908
H 2.4882940207 1.0579451982 -0.3797528525
H 2.7311134389 -0.6811158255 2.1123567686
H 1.9021750197 1.1638703726 3.1463692741