15

O -0.2218663103 0.4664145311 0.5152722881
C 0.2480412605 1.5059140190 0.1447471070
C 1.4359366165 1.5977930848 -0.8197374088
C 1.2987536935 2.6918916340 -1.7677880940
C 1.1353731743 3.6083436941 -2.5311425620
C 0.9703033492 4.7169470111 -3.4608391269
O 1.8139110469 5.8374873866 -3.1378226495
C 3.0719790629 5.8075609651 -3.6278650133
O 3.8728772585 6.6575377763 -3.3876755219
H -0.1377250358 2.4889307625 0.4901166927
H 2.3336316237 1.7542825489 -0.2022645622
H 1.5540250180 0.6289275899 -1.3153232986
H 1.1630282013 4.3877685935 -4.4904930224
H -0.0498497539 5.1081699388 -3.4267758922
H 3.2629846945 4.9283191946 -4.2736543559