17

C 0.0139650971 1.3700338110 0.0181298575
O -0.0307367174 -0.0428444780 0.1358560706
C 0.6264247138 -0.5339925470 1.2256680087
C 0.3376438457 -0.3094643250 2.7334845884
C 1.5133950332 -1.3152132717 2.7132734626
O 2.2230386085 -1.8409815215 3.7624622939
C 0.9986277216 -2.0327978858 1.4032902317
O 2.2781802469 -1.9312059339 0.7197107402
C 2.1843889183 -0.6829666193 1.4602225269
H 1.0477536874 1.7309147901 -0.0691559589
H -0.5331657825 1.6286290608 -0.8901987563
H -0.4618258709 1.8619525938 0.8774235663
H 0.5582196627 0.6799223863 3.1430019762
H -0.6230802463 -0.6814385869 3.1022499858
H 1.6168828126 -2.3156308156 4.3415891612
H 0.3869823244 -2.9238280812 1.2645239136
H 2.9976495149 0.0387452339 1.3957261916