16

C -0.1795449892 1.4968421323 -0.0540555923
C 0.0358282101 -0.0176134331 0.0184769376
C 0.8677742736 -0.5400025784 -1.1391990816
C 0.9345131331 -2.0671241978 -1.3677323715
C 0.3466369981 -1.7412431680 -2.7544747949
O 0.2174701130 -0.3441437489 -2.4227818701
H 0.7727719365 2.0354937149 0.0056777755
H -0.6588431408 1.7669500154 -0.9992649592
H -0.8144019555 1.8477777820 0.7648542963
H 0.5401614114 -0.2894328487 0.9557877906
H -0.9316652781 -0.5352386071 0.0148391265
H 1.8555995658 -0.0542149358 -1.1386649687
H 1.9292223476 -2.5149100840 -1.3573557654
H 0.2741192644 -2.6425957633 -0.7150788329
H 1.0318414739 -1.8987671110 -3.5976960750
H -0.6204230739 -2.1970282985 -2.9979208647