17

C 0.0184098920 -1.1891678665 -0.0290374495
C 0.0381579474 0.0113538380 -0.0077151680
C 0.0069858454 1.4658762529 0.0473436371
C -0.7884240237 1.9598731989 1.2638569846
O -0.8841936700 3.3738992020 1.2687032807
C 0.2753018588 4.0624768223 0.8993131679
C 1.5964294099 3.9291238691 1.6184379381
C 1.4147174024 3.3500987331 0.2269116973
O 1.3502144999 1.9516807154 0.1320069107
H 0.0119745511 -2.2509239286 -0.0596668330
H -0.4740474315 1.8611369009 -0.8617674686
H -1.8132269500 1.5821364502 1.2335864964
H -0.3014947247 1.5832750336 2.1749246323
H 0.0046416403 5.0478218120 0.5351245979
H 2.1977140703 4.8224068327 1.7474824190
H 1.6824934889 3.1988012246 2.4148325419
H 1.9178779436 3.8097888593 -0.6208854348