14

N -0.3183634885 1.2634408359 0.3346679752
C -0.1736778072 -0.0764433411 0.1002728334
C -1.0696731362 -1.0449806685 -0.2742541624
O -2.3756930859 -0.8307605579 -0.6432609015
C -3.3374577395 -1.1911003224 0.2572678659
N -4.5475350779 -1.0263473835 -0.0405922167
C -0.3006974543 -2.2328090919 -0.2924506257
N 0.9464966297 -2.0254231188 0.0500120608
O 1.0235784732 -0.6289361497 0.2996751708
H 0.5279378274 1.8057875060 0.2346062949
H -1.1161522841 1.6765326378 -0.1273022366
H -2.9148006367 -1.6022294100 1.1818262936
H -5.1424377053 -1.3378692329 0.7242113447
H -0.6200558949 -3.2339768631 -0.5470774162