25

C -0.0844026073 1.5690117299 -0.0945662562
C -0.0038931020 0.0433000627 0.0280493688
C 0.7258422993 -0.4718439175 1.2858135252
C -0.0071310049 -0.0501847304 2.5684983627
C 0.9137593621 -2.0064242821 1.2183490980
C 1.7315024662 -2.4961820622 -0.0134609515
C 2.5752583347 -3.7007644303 0.4741464521
C 2.5767937913 -3.5244282745 1.9722987439
C 1.6824735688 -2.6228647159 2.3716917949
H 0.9131144013 2.0214508771 -0.0536383512
H -0.5392063374 1.8584894238 -1.0473328671
H -0.6846862755 2.0184399120 0.7019395522
H -1.0181644733 -0.3806673039 0.0104653445
H 0.5009721531 -0.3475231967 -0.8623527575
H 1.7303001740 -0.0214304652 1.3014139723
H -0.1271552847 1.0351295337 2.6254551852
H -1.0084146632 -0.4967498143 2.6103403562
H 0.5331960401 -0.3599669009 3.4668936772
H -0.0969072694 -2.4486440537 1.1948678117
H 1.1008136307 -2.7452425831 -0.8700824863
H 2.4053451516 -1.6924251863 -0.3327598543
H 2.1143790066 -4.6604905806 0.1993159984
H 3.5816470989 -3.7122534401 0.0398235522
H 3.2095078195 -4.1100049497 2.6309633708
H 1.4795404794 -2.3770894015 3.4076333778