20

C 0.1315398219 1.5674229424 -0.0089734136
C -0.0015682618 0.0448674647 -0.0112301307
C 0.4143699124 -0.5511702084 -1.3795732717
C 0.5280300413 -2.0644301764 -1.3547870330
O 1.8444415522 -2.5996886329 -1.1751194717
C 0.9154269855 -2.7230669937 -0.0925679428
C 1.1297061570 -1.8935454815 1.1417967267
C 2.1143084830 -0.7724195231 1.1226495844
N 0.6837873167 -0.4920707746 1.1697805748
H 1.1775841061 1.8633450466 -0.1451366545
H -0.4528482929 2.0100031348 -0.8219649596
H -0.2181200818 1.9813350520 0.9400504114
H -1.0592736064 -0.2100789145 0.1434497687
H -0.3290541474 -0.2451858772 -2.1228197292
H 1.3721719590 -0.1318220474 -1.7078897273
H -0.0765116720 -2.6204203129 -2.0701973747
H 0.5859089958 -3.7444811183 0.0920796752
H 0.9548335502 -2.4263482291 2.0737425720
H 2.6668892950 -0.5227269196 2.0244371281
H 2.6623280662 -0.6335837708 0.1950239774