20

C -0.1012212418 1.4976199994 0.0100240725
C 0.0767842339 0.0081536576 -0.0214547033
C -0.1554849941 -0.8143349501 -1.2411771301
C 0.6123791151 -2.0987630956 -1.4705738494
C 0.8334204743 -2.6104813286 -0.0436826339
C 1.8980195068 -1.7412093530 0.6912751187
C 0.7540756992 -0.7985626016 1.1113779536
C -0.2978955624 -1.8805738639 0.7850491247
N -1.1044329226 -0.9538266963 -0.1071735059
H 0.8489512752 2.0072866123 -0.1907672293
H -0.8260807269 1.8197524811 -0.7434562957
H -0.4615813928 1.8300145681 0.9897543514
H -0.5752077483 -0.2955172697 -2.0993334177
H -0.0091958726 -2.7876712072 -2.0546548890
H 1.5525478111 -1.9521993664 -2.0126014701
H 0.9272627435 -3.6940116414 0.0324803691
H 2.3222662143 -2.2564444400 1.5579572656
H 2.7134254695 -1.3342536319 0.0843416990
H 0.7881398076 -0.2708380543 2.0653576822
H -0.8811755293 -2.4307349482 1.5202069878