20

C 0.1205525989 1.3681150389 -0.2155111834
C 0.0879599279 -0.1123000054 0.1712147189
C 0.6831815272 -0.3756628457 1.5502976884
O 0.6178714995 -1.7379079333 1.9189372859
C 1.8868510058 -2.3188514763 1.6667384554
C 2.8338108650 -1.1403605138 1.6058587927
O 2.0659568312 -0.0059648416 1.5872441225
N 4.0869743720 -1.2031841542 1.5779369057
C 4.8748341922 0.0157130479 1.4953653766
H 1.1476524939 1.7419050745 -0.2411288146
H -0.3245100059 1.5235171980 -1.2020145888
H -0.4402201363 1.9773469168 0.5021102423
H -0.9420358004 -0.4860430735 0.1889001365
H 0.6350241335 -0.7153824081 -0.5636032771
H 0.1653542508 0.2101732115 2.3200233002
H 2.1422659205 -3.0036439932 2.4788243558
H 1.9019843392 -2.8782763661 0.7207219419
H 5.4932077116 0.1041918482 2.3960503939
H 5.5631527355 -0.0627601130 0.6465724366
H 4.2826731779 0.9315195385 1.3868593107