17

N -0.1172246147 -1.1212874460 -0.0714257652
C -0.0611612861 0.0327898581 -0.0205712836
C 0.0223147708 1.4712794550 -0.0073862007
N 0.6209253415 2.0902412924 1.2050821493
C 1.3424946134 2.1769424057 -0.0478113016
C 2.7704390378 1.6246279490 -0.2107327688
C 3.1253025693 2.9124823797 -0.9760368048
C 2.2304783482 3.0739966485 -2.1679174487
C 1.6918320402 3.4381222484 -0.8063339581
H -0.8189082963 1.9704278906 -0.4810694628
H 0.1317681114 2.9596714506 1.4097406630
H 3.2616322009 1.5416569127 0.7608014253
H 2.8842745563 0.6839120743 -0.7571710130
H 4.0520718405 3.4613587179 -0.8720368851
H 2.4523106573 3.9193813102 -2.8113508370
H 1.8474574374 2.2020018947 -2.6926473712
H 1.3415902920 4.4345967981 -0.5622143272