19

C 0.0877557163 1.5689542361 0.0000700472
C 0.0115735400 0.0281998179 0.0343415512
C 0.7142147779 -0.4841375401 1.2091618143
C 1.2850777071 -0.8696077678 2.1940108734
C -1.4582884363 -0.4989716563 0.0018645440
C -2.2531603925 0.0297473085 -1.2200241621
O -3.5603501209 -0.4915188558 -1.2733434626
C -1.4996461996 -1.9599529932 -0.0148539599
C -1.5744958951 -3.1574340745 -0.1049724555
H 1.1253922940 1.8917521332 0.1118209612
H -0.2909441219 1.9673014996 -0.9442359618
H -0.4905438966 2.0041640162 0.8209446751
H 0.5132668519 -0.3628292536 -0.8612006638
H 1.7923857618 -1.2277297913 3.0553170606
H -1.9658757017 -0.1454220522 0.9085308117
H -2.3634500735 1.1141424888 -1.1472188403
H -1.6832486997 -0.1935132805 -2.1373029063
H -3.4830486333 -1.4536659162 -1.2491883127
H -1.6162579678 -4.2181327891 -0.1433085637