21

C 0.3185432899 1.5759477124 0.1865067481
C 0.1237331760 0.0613889099 0.0544067527
C 0.6350809246 -0.7311824381 1.2593185006
C -0.1175548397 -0.4569927639 2.5765353643
O -0.1161180025 -1.6711563960 3.3349927892
C 0.5548387721 -2.7029291782 2.6072248474
C 0.4890784687 -2.2563123293 1.1356791885
C 1.9339315558 -2.8837603752 3.0795527051
C 3.0648806887 -3.0317570141 3.4595905448
H 1.3759107923 1.8269059265 0.3256333506
H -0.0324124765 2.0981680811 -0.7087219553
H -0.2328861969 1.9813955739 1.0415256422
H -0.9413090974 -0.1629304991 -0.0945215590
H 0.6394986861 -0.2915616701 -0.8473916478
H 1.6975301413 -0.5022846329 1.4105309534
H 0.3455026858 0.3388657520 3.1702862366
H -1.1620476452 -0.1719783048 2.3824978782
H -0.0014870418 -3.6315035205 2.7785968953
H -0.4939445625 -2.5147752811 0.7259689437
H 1.2587141684 -2.7199625137 0.5159923547
H 4.0600745729 -3.1656152287 3.8054328768