19

C 0.2571667745 1.5172852764 0.0872208408
N 0.1667078532 0.0579304258 -0.0097755331
C -0.9586390305 -0.7749454018 0.5612528115
C -0.0128755984 -1.9833417488 0.3275985400
C 0.8125920618 -0.8525506293 1.0002338013
C -0.3841344320 -0.6606059005 2.0333252604
C -0.6043065444 0.6092259397 2.8711012735
C -0.6125375902 -1.8074322927 2.9178250134
N -0.7941669340 -2.6853205366 3.6495919904
H 0.7129024940 1.8991540935 1.0073118290
H 0.8677277667 1.8730095845 -0.7503387919
H -0.7345133197 1.9697228444 -0.0203812806
H -1.9970901655 -0.6437587471 0.2513540627
H -0.1968697763 -2.8924546852 0.8964952088
H 0.2408622086 -2.1594005670 -0.7152351811
H 1.8808551184 -0.8216158184 1.2224417370
H -0.8329819637 1.4810739261 2.2654991605
H -1.4457398690 0.4513174218 3.5513401997
H 0.2741693165 0.8294535552 3.4858845677