20

C -0.0197879151 1.5164229366 0.1111886644
C 0.0595518933 0.0299188164 -0.0172180706
C 0.0888625509 -0.7263996575 -1.1317963098
C 0.1154544681 -2.2108275693 -0.7970324129
C 0.4644754753 -2.2342910981 0.7087243130
C 0.0626744327 -0.8362520010 1.2246277230
C 0.0443778182 -0.2139231799 -2.5274455767
N -0.0752038593 -1.1864217058 -3.4921260826
O 0.1315847273 0.9644654887 -2.8405000469
H 0.8642312169 1.8947992183 0.6413609743
H -0.0846424458 2.0000004403 -0.8610897441
H -0.8855330857 1.7951463478 0.7264955789
H -0.8667527163 -2.6718488742 -0.9846218827
H 0.8431472274 -2.7701883128 -1.3959676325
H -0.0259152120 -3.0490185849 1.2469275684
H 1.5439431977 -2.3698159788 0.8278813007
H 0.7392590404 -0.4522152584 1.9969557275
H -0.9414479764 -0.8348908821 1.6747231371
H -0.3504046788 -2.1259706120 -3.2655870224
H -0.2335009489 -0.8631133634 -4.4329388162