18

C 0.6687733296 0.3932294284 1.2215308285
C 0.0440804899 0.0695983022 -0.1233924284
O 0.3712395828 0.6268229182 -1.1450663659
C -1.1735541740 -0.8412004378 -0.1000501250
C -1.3993092742 -2.0443039585 -0.9664115116
C -0.1477766649 -2.9602734769 -1.0521250050
N 0.9416135403 -2.3398810041 -0.2614884635
C -0.1214247575 -3.1128479004 0.4164977364
C -1.3616493299 -2.1846128771 0.5608910950
H 1.5673613425 0.9946272258 1.0749430515
H -0.0487672284 0.9688104479 1.8206774743
H 0.9058498499 -0.5160875772 1.7768366493
H -2.0803335991 -0.2402905861 -0.0193414416
H -2.2477701074 -2.1460378006 -1.6299235003
H 0.0673439368 -3.6677209316 -1.8413061510
H 1.7704727279 -2.9262735048 -0.3450916196
H 0.1051769249 -3.9692655753 1.0375641449
H -2.1808618591 -2.3977241320 1.2354361119