22

C -0.5006345090 1.4625858884 0.2573075797
C -0.0612638697 0.0408805734 0.0075738920
C -0.8238955214 -1.1099837875 0.5620819750
N 0.4758510290 -0.7303784333 1.1541829533
C 1.6092474142 -1.5185678352 0.6536150828
C 1.6023015962 -1.5103609861 -0.9026409319
C 3.0063289271 -1.5166898287 -1.5090742203
O 0.8519057763 -2.6172056945 -1.4298685586
C 0.7866038315 -0.2411815750 -1.2289999720
H 0.3573328171 2.1449936511 0.2622775898
H -1.1925614080 1.8002011389 -0.5228898798
H -1.0059920509 1.5469950488 1.2227226135
H -1.6744473733 -0.9165741631 1.2111614500
H -0.8809912166 -2.0205703436 -0.0244933703
H 2.5275498304 -1.0498199651 1.0268717620
H 1.5770093271 -2.5412441749 1.0478807400
H 3.5535780675 -2.4199774236 -1.2119743084
H 2.9474102945 -1.5030207091 -2.6011974894
H 3.5895999988 -0.6521316376 -1.1779101232
H 1.3036891285 -3.4272668826 -1.1691501251
H 0.1955796468 -0.3943752546 -2.1359532066
H 1.4595556741 0.6050798138 -1.4074234924