17

O -0.0567944152 1.8761311111 -2.0815783167
C 0.4061339579 1.2410538094 -1.1712347244
C 1.1484604806 1.8616735018 0.0252795096
O 1.5146593242 1.1037172311 0.8979600416
C 1.3345410196 3.3479653252 -0.0013068382
C 1.9963260433 4.0998831683 1.1905704714
C 3.3731823766 3.5031846068 0.7622084149
C 2.6849078903 3.9580157797 -0.5553303831
C 2.2804917586 5.2606943405 0.1910155222
H 0.3379925990 0.1343833789 -1.0969407034
H 0.4491352276 3.8143096232 -0.4426645714
H 1.5944268982 4.1764028795 2.2007659087
H 4.2537193840 4.0800085928 1.0562511989
H 3.5223346879 2.4366265353 0.9201927727
H 3.0533966631 3.8629430325 -1.5770305702
H 1.4165671295 5.8064523433 -0.1973772560
H 3.0993324050 5.9343389505 0.4552737332