17

O 0.1273678560 1.3938863460 -0.1256734221
C 0.1287688005 -0.0036064817 -0.0743200663
C 0.1551364799 -0.6132129209 1.3492919730
O -1.2919704453 -0.3357004184 1.4338142224
C -1.2787831289 -0.6540780814 0.0005874376
C -1.0056261992 -2.1617411087 0.0362565386
O -0.5231267631 -2.6221166772 -1.2204088954
C 0.1415519854 -2.1384587838 1.1300681784
O 1.3472958216 -2.6881560931 0.6691792175
H -0.4986298083 1.6922910821 0.5471305102
H 0.8402435212 -0.3645247200 -0.8171383634
H 0.7473613311 -0.1928187141 2.1614195903
H -2.1355595836 -0.2796563535 -0.5590628796
H -1.8866574836 -2.7249431335 0.3540092365
H -0.7513567814 -3.5514036004 -1.3159292800
H -0.1581712407 -2.6507115033 2.0491221313
H 1.2443718784 -2.7802371681 -0.2898576791