18

C -0.0917774880 1.5557804683 0.0286352166
C 0.0443747582 0.0371053223 0.0188632378
O -1.2344823964 -0.5916511009 -0.0253597648
C 1.0103931025 -0.5372004121 -1.0879382271
C 1.9679250149 -1.3529874529 -0.1805680995
N 1.0823957333 -1.9629001297 0.8676623757
C 0.7592942822 -0.5532476986 1.2645707723
C 2.2404462341 -0.2919164730 0.9079876642
O 3.1505519011 0.3574087597 1.3142252943
H 0.8814321635 2.0427535717 0.1438844816
H -0.5358207080 1.9138338469 -0.9077592538
H -0.7382534976 1.8715356804 0.8527383396
H -1.6671892256 -0.3329521330 -0.8466375626
H 0.4636160270 -1.1845643237 -1.7799637290
H 1.5207366740 0.2406732176 -1.6639992452
H 2.7385973506 -1.9723333554 -0.6362109561
H 0.2588639501 -2.4118424670 0.4650297027
H 0.3155348841 -0.3685518806 2.2410821433