21

C -0.0581798026 1.5921228714 -0.0727881032
C -0.0296154684 0.0622305746 -0.0836305230
C -1.4310651272 -0.5589547368 0.0888846042
C -1.4338330292 -2.0559393425 0.1065783457
C -1.3843206167 -2.9445016802 1.1667529653
C -1.3771604258 -4.2205236146 0.5738572363
N -1.4201211766 -4.1475033431 -0.7529038609
N -1.4528152377 -2.8219536603 -1.0213869912
C -1.5102405743 -2.3875073932 -2.4007987254
H 0.9459684285 2.0088967433 -0.1962662495
H -0.6835052628 1.9841037706 -0.8829241000
H -0.4638304534 1.9741476858 0.8706409062
H 0.4150275432 -0.2932419383 -1.0213272085
H 0.6194257926 -0.3085529565 0.7180503674
H -1.8633469373 -0.2047043390 1.0313629146
H -2.0899506056 -0.1863021389 -0.7062017409
H -1.3650702236 -2.6930206298 2.2154414912
H -1.3488853264 -5.1880435802 1.0536778691
H -2.3562254951 -1.7128769557 -2.5649511444
H -0.5890483344 -1.8771265219 -2.7011067649
H -1.6394447273 -3.2801441147 -3.0114789080