18

C -0.0119586831 1.3699772642 0.1328379423
C 1.3757175569 1.9912365111 -0.0417728879
C 2.0940852939 1.3916271420 -1.2698312472
C 2.1291750671 -0.1328472474 -1.1121766415
C 0.6692521961 -0.5690850191 -1.0800662839
O -0.0045151474 -0.0595454540 0.0331799715
O 0.0265763196 -0.1692332005 -2.3093367344
C 0.4812547094 0.9712885729 -2.8927643661
N 1.3969783425 1.7556769548 -2.5080504500
H -0.4171752368 1.5858207015 1.1243364446
H -0.7099645326 1.7809759330 -0.6081425050
H 1.2747557640 3.0752797545 -0.1531268541
H 1.9891510936 1.7994349531 0.8462946922
H 3.1051071616 1.8045989341 -1.3285696686
H 2.6466360408 -0.6045453385 -1.9531247736
H 2.6175601226 -0.4391001655 -0.1829104958
H 0.5350944779 -1.6511630939 -1.0350836754
H -0.0726327062 1.1602167878 -3.8106861571