17

O -0.0299229803 1.4747420783 -0.0141895478
C 0.0369682590 0.0659151542 0.0167986362
C 0.2929250952 -0.5038544906 1.4477806356
C -1.2307177205 -0.6751233917 1.5697968598
O -1.9889983597 -0.7832956257 2.4887043337
C -1.4189701371 -0.5030869116 0.0498325334
C -2.5777465642 0.3383312914 -0.4882828257
C -3.9237623740 -0.2916644918 -0.1839303660
O -4.7523869900 -0.5451323846 -1.0212087090
H 0.8556906525 1.8259529269 0.1218800413
H 0.6771993098 -0.3283593951 -0.7799611020
H 0.8104217475 -1.4688023924 1.4483376761
H 0.7694136776 0.1644160905 2.1689311232
H -1.4199139344 -1.5015773696 -0.4064511336
H -2.5437216706 1.3246034460 -0.0101479615
H -2.4941471231 0.4804352078 -1.5693556748
H -4.0992996076 -0.5084732821 0.8909916813