19

C -0.1132689094 1.4707077701 -0.1308115900
C -0.0226064496 -0.0329538384 0.0012397663
O -0.0127132523 -0.6101213776 1.0601640661
C 0.0507323401 -0.8162300076 -1.3335764041
C 0.6307487813 -2.2183864777 -1.1432334365
C 0.8939943254 -2.9249334212 -2.4678209220
O 1.4084715628 -4.2104888562 -2.1719944924
C -1.3735223253 -0.8579135672 -1.8864069672
O -1.8866013620 0.0248431174 -2.5237745509
H 0.8649551968 1.8610534572 -0.4373679263
H -0.8255301767 1.7463011132 -0.9143039914
H -0.3911250289 1.9157919381 0.8252239565
H 0.6376969208 -0.2144146411 -2.0375829798
H 1.5629729006 -2.1616881531 -0.5743780416
H -0.0553106415 -2.8212633284 -0.5392029383
H -0.0383317301 -2.9930030772 -3.0549294683
H 1.6057983034 -2.3337895010 -3.0681608439
H 1.5922350989 -4.6625502602 -3.0006146537
H -1.9357034145 -1.7797749693 -1.6161722025