16

C 0.1391103364 1.5101395039 0.0913712950
C -0.0597248789 -0.0172761489 0.0113177318
C 0.7604088112 -0.6239510376 -1.1659499985
O 2.0642827904 -0.8687088439 -0.6354207511
C 2.0297756499 -0.9868539137 0.7247675154
O 2.9965500756 -1.2500413038 1.3717207044
C 0.6041726051 -0.7344411700 1.2071599461
C -1.4812669417 -0.3350210233 -0.1226524372
N -2.6043096939 -0.5827218866 -0.2364425850
H 1.2067316750 1.7414639745 0.1497656952
H -0.2753804796 2.0026975559 -0.7917307913
H -0.3539572552 1.9184700242 0.9768758201
H 0.3248877189 -1.5654430306 -1.5164529842
H 0.8563776980 0.0646473163 -2.0072992823
H 0.6039146108 -0.1540958304 2.1300809024
H 0.1336023381 -1.7009645160 1.4137646492