21

C -0.0623226703 1.5345617842 -0.0581409641
C 0.0213077913 0.0272684491 -0.0034180834
C -0.8032506451 -0.7563829187 1.0027445602
C 0.6995152249 -0.7561675448 1.1416207054
C 1.5331620404 -1.8401461356 0.4855066307
C 1.2252202747 -3.3826048082 0.3563708406
C 1.3674456330 -3.2508745838 -1.2062583895
C 1.1430786416 -1.7729344481 -0.9701426753
C 0.2917281900 -0.7837800163 -1.2445496695
H 0.8642523158 1.9718543755 -0.4466240749
H -0.8814667749 1.8623789106 -0.7097386309
H -0.2447066788 1.9588532008 0.9344169617
H -1.3484235423 -0.1857036082 1.7490262828
H -1.3140556957 -1.6536140954 0.6678661416
H 1.1129248442 -0.2096672602 1.9818747203
H 2.6040249516 -1.6953696037 0.6724148367
H 1.9164844335 -4.0639691043 0.8576459597
H 0.1994282251 -3.6202335215 0.6457273645
H 2.3848940051 -3.4934171203 -1.5312693494
H 0.6547724284 -3.7854111500 -1.8382239141
H -0.2810364525 -0.6508106112 -2.1566880530