16

O -0.4839884762 0.5120142082 0.7184712233
C 0.0289652152 1.0883068750 -0.2058839142
C 1.2715441633 1.9101891983 -0.0751639715
C 1.6604402005 2.7029063510 1.2028180770
C 2.4953522976 3.4877338334 0.1590772687
C 3.5815994443 2.4737590997 -0.2500666732
C 2.6350064989 1.2639723955 -0.4391185540
O 2.8753809233 0.1496483345 -0.8054827320
N 1.3712459239 3.2244936968 -0.8082027424
H -0.3922455292 1.0390376840 -1.2344227041
H 0.8099863243 3.2697747414 1.5801479959
H 2.1820219790 2.1762287741 2.0024264359
H 2.7852217073 4.5269131282 0.3080262484
H 4.0932081378 2.7369743034 -1.1808819467
H 4.3399049396 2.2650470819 0.5108823160
H 1.6847473505 3.1311536248 -1.7767221671