14

O 0.2140392088 -0.1731277578 -0.4348068422
C 0.0712475539 0.9986863661 -0.2114074825
C 1.2275894531 1.9739393752 0.0026534213
C 1.2801014807 2.9761031998 -1.0993355831
C 1.0561723418 4.2980676046 -1.1182488912
O 1.1996917707 4.7908839795 -2.3946346824
C 1.5243350424 3.7390719232 -3.2386934066
O 1.7152909875 3.8437347310 -4.4165559959
N 1.5663286984 2.6269089873 -2.4244629194
H -0.9350433425 1.4711779883 -0.1725685093
H 1.0691800338 2.5035829487 0.9488268675
H 2.1549286874 1.3955881417 0.0720767142
H 0.8075265119 5.0032133654 -0.3445037198
H 1.7819047421 1.7095692170 -2.7754264105