20

C -0.0283592057 1.4933533135 0.0127910339
C -0.0060643836 0.0014252990 -0.0398562270
C -0.0166224245 -0.7940057994 -1.1126468902
C 0.0149008621 -2.1950945907 -0.6888217535
N 0.0151287216 -3.2210061350 -1.4335557265
O 0.0448919381 -2.2162045306 0.6837604251
C 0.0347081712 -0.8669365240 1.2085200337
C 1.3178364515 -0.6720437346 2.0255580048
C -1.2175642015 -0.7125267970 2.0802610449
H 0.8574516089 1.8873588598 0.5253202499
H -0.0588087961 1.9228557872 -0.9911104893
H -0.9008258644 1.8597669527 0.5669442435
H -0.0437775340 -0.5049596171 -2.1535531060
H 0.0409249707 -4.0700495668 -0.8666819333
H 2.1990408539 -0.8101668696 1.3937115525
H 1.3534328776 0.3300463253 2.4633027788
H 1.3549949657 -1.4023263119 2.8385263259
H -1.1963933946 -1.4432630025 2.8933952378
H -1.2661019338 0.2881075025 2.5200817319
H -2.1203515232 -0.8788916409 1.4868610131