22

C -0.0822805350 1.5791483608 0.0102924946
C -0.0363919283 0.0965776363 0.3991302350
C -1.3706905955 -0.5878098433 0.1812145621
C -1.7755989510 -1.1290836941 -1.1546571072
C -1.5158984531 -2.0970890247 -0.0179569802
C -0.3059334270 -2.9746613674 -0.1096888549
O 0.6683149082 -2.7049177199 -0.7986658422
N -0.3795828879 -4.1145178120 0.6415188216
C 0.6946219539 -5.0849347439 0.6959666704
H 0.8842166279 2.0615062088 0.1864432481
H -0.3298132799 1.7003042507 -1.0495135810
H -0.8364580875 2.1236038900 0.5903192245
H 0.7335466717 -0.4230118632 -0.1759902114
H 0.2465977904 0.0053379032 1.4562781756
H -2.1815348828 -0.1637366242 0.7710368897
H -2.7973726766 -1.0082321425 -1.4964730259
H -1.0191485955 -1.1369915410 -1.9321987686
H -2.3839358007 -2.5478598438 0.4545749730
H -1.1990860015 -4.2679359521 1.2042866105
H 0.3499410409 -6.0785594816 0.3883519748
H 1.4699194851 -4.7461279569 0.0079770128
H 1.1207280541 -5.1593886190 1.7034020888