22

C -0.1468492891 1.6634723026 0.0997421718
C -0.0164951239 0.1363185616 0.1494440945
C -1.3486649359 -0.5903906850 -0.0462308270
C -1.9958579974 -0.3941853840 -1.4265450337
O -2.9004155976 -1.4973625506 -1.5876609851
C -2.5540948244 -2.5223539342 -0.7511391327
N -3.1536737939 -3.6321047599 -0.6936808860
C -1.3374658014 -2.1346731699 0.0708751673
C -0.0848064710 -2.8375830528 -0.4803824177
H 0.8179289413 2.1457898112 0.2824907207
H -0.5060324361 2.0074108192 -0.8760618786
H -0.8497121185 2.0260845939 0.8579829571
H 0.7004358798 -0.1928237720 -0.6120966654
H 0.4083213885 -0.1583016493 1.1170140608
H -2.0587856464 -0.2130749158 0.7018297104
H -2.5754811625 0.5268948217 -1.5191114123
H -1.2502265235 -0.4181563585 -2.2335814478
H -3.9215281337 -3.6604972961 -1.3670812248
H -1.4898773331 -2.4581194732 1.1031294678
H 0.1196212912 -2.5565290186 -1.5191202041
H 0.7993689745 -2.5957336992 0.1160693086
H -0.2367167469 -3.9192180911 -0.4522999236