14

N -0.2036329681 1.3186375659 0.3365953026
C -0.0628756294 0.0951360946 0.1050616764
O -1.0865174755 -0.7900884595 0.2244487379
C -0.6649739976 -2.1028846839 -0.1174855439
C -1.0607926509 -2.5294959324 -1.5552161108
C 0.3877837858 -2.2350549631 -2.0024841838
O 0.9622498252 -2.2440129237 -3.0458565611
C 0.8192681070 -1.9075456224 -0.5338839011
O 1.0924357651 -0.5412243924 -0.2790106457
H 0.6723878935 1.8126866323 0.1872377536
H -0.9106559699 -2.7857137177 0.6950847135
H -1.3270852169 -3.5860668154 -1.6592925340
H -1.8374277655 -1.9196702099 -2.0232747590
H 1.6007277373 -2.5356806323 -0.1018188845