23

C 0.8325744629 -0.7506441917 -1.0234703575
C 0.0025650124 -0.0567342636 0.0611209927
C -1.4908608468 -0.4120126055 0.0263344653
C -1.8029222363 -1.8958273437 0.2938892044
C -3.2506367544 -1.8316047462 0.7771868257
O -3.3462980811 -0.6279840015 1.5371579884
C -2.3028303702 0.2617453918 1.1571648082
O -2.0825065967 -0.1598325776 -1.2577304606
C -2.0047827665 1.1503522174 -1.7728362380
H 1.8731649139 -0.4144289969 -0.9909857304
H 0.8306451287 -1.8371066944 -0.8910505267
H 0.4363160920 -0.5415376912 -2.0206826591
H 0.3880782058 -0.3224089318 1.0522064419
H 0.1206802313 1.0311962242 -0.0206353868
H -1.6717198167 -2.5025961488 -0.6032424058
H -1.1478366080 -2.2767075372 1.0841376588
H -3.9410756148 -1.7999034175 -0.0769683990
H -3.5343162617 -2.6677989076 1.4240242203
H -1.6635703589 0.4628819705 2.0282870457
H -2.7337669262 1.2169440526 0.8352726022
H -2.4117144277 1.9062640563 -1.0867817302
H -0.9781546106 1.4418544001 -2.0353154732
H -2.6078198504 1.1588754325 -2.6845961864