15

O -0.1012676032 1.4081830862 -0.2929875245
C 0.0247152362 0.0098582391 -0.1510068589
C -1.3019097579 -0.6014430877 0.2549380813
O -2.3022500837 -0.4091534398 -0.8069386303
C -2.4568846520 -1.7651878354 -0.9898750101
N -3.1515637408 -2.4298144041 -1.7839919793
C -1.4959415718 -2.1426181999 0.1402976479
C -0.3446553122 -2.9606356768 -0.1992300115
N 0.5827182532 -3.5988551595 -0.4589375009
H -0.7338273797 1.5679433242 -1.0028614133
H 0.3895624907 -0.4714857869 -1.0702148742
H 0.7657903911 -0.1697001330 0.6347591248
H -1.6697755871 -0.1656926244 1.1863981681
H -3.6962024774 -1.8375338711 -2.4122280854
H -2.0195042254 -2.5769888006 0.9953978963