17

C -0.0854125424 1.3933407360 0.0879851194
O 0.0501453062 -0.0172747423 0.0266473593
C 0.6492344950 -0.5451720416 -1.0670358936
C 1.1564783216 0.1554241040 -2.1579407121
N 1.7320545248 -0.4685683363 -3.1917746561
C 1.8074402917 -1.7985830420 -3.1476590284
C 2.4523977652 -2.5103683671 -4.3046733912
N 1.3474568597 -2.5621400335 -2.1399099002
C 0.7791260619 -1.9385091356 -1.1202413927
H 0.8918643761 1.8922084966 0.0730849253
H -0.6956307962 1.7750158690 -0.7403366808
H -0.5855047458 1.6088700798 1.0329405593
H 1.1068208804 1.2386039836 -2.2167013594
H 3.3097408436 -3.0983410487 -3.9615869613
H 1.7481222168 -3.2131538221 -4.7614207010
H 2.7832360602 -1.7910893332 -5.0542285570
H 0.4015240611 -2.5408481266 -0.2963737595