19

O 0.2570014335 0.0798994238 -0.2519845699
C 0.0621214398 1.2470279389 -0.0699076049
C -1.1908730834 2.1023612952 0.1738090822
C -0.2456122446 3.2106607355 0.7316024934
C 1.0022065644 2.4442770569 0.1793194748
C 2.2153907052 2.2024344062 1.0563897776
C 3.3738808466 1.4067057137 0.4090892416
O 4.2624098008 2.5415226059 0.4947265421
C 3.2600930643 3.3405302245 1.1505481847
H -1.6783410746 2.3792607602 -0.7667925498
H -1.9436845467 1.6753281978 0.8406765971
H -0.4011786119 4.2176660924 0.3437637548
H -0.2525189358 3.2476743778 1.8238209086
H 1.3165460368 2.8608409350 -0.7874571195
H 1.9027930385 1.8089851768 2.0275093623
H 3.7401104973 0.5513609940 0.9888304921
H 3.2072836330 1.0870064203 -0.6260613119
H 3.0220364893 4.2511878783 0.5847549550
H 3.5596066173 3.6249076468 2.1674322996