19

C -0.0963269278 1.6056208794 0.0647031291
C 1.4120744454 1.2963210117 0.0126757888
C 1.2567520367 -0.0164866197 0.8790154948
C 2.0245531860 -0.8776319334 -0.1420428715
C 1.2113082499 0.1121004932 -1.0016179046
C 0.5914288213 -0.0737202147 -2.3612920794
O -0.6257575721 -0.8203108857 -2.1187493226
C -0.9512753457 -0.9031916968 -0.7098797825
C -0.0179326491 0.0683259774 -0.0372072690
H -0.4855281104 2.0190888660 1.0003063765
H -0.5173780090 2.1398224492 -0.7929210018
H 2.2603259623 1.9825790965 0.0489453400
H 1.2698259822 -0.0609449165 1.9697252018
H 3.1134682590 -0.7697076459 -0.1621192765
H 1.7446262741 -1.9341674388 -0.2016130930
H 0.3418793896 0.8828773279 -2.8406343864
H 1.2126175355 -0.6535453322 -3.0522081579
H -2.0100968713 -0.6496807286 -0.5913176533
H -0.8018160466 -1.9346223988 -0.3621040923