19

C -0.1874600049 1.5684586461 0.0077269643
C 0.0256629001 0.0531420440 -0.0076627276
C 0.8360683151 -0.4746028700 -1.1891325493
C 2.2745573528 -0.1379819546 -1.2914571953
N 1.8463044299 -1.4262928638 -0.6922271264
C 1.7995281985 -1.3317261658 0.7493144206
O 2.5255625350 -1.9391196810 1.4964253040
N 0.8045815372 -0.4517583377 1.1133325277
C 0.4159027729 -0.2723478204 2.4932600972
H 0.7676137089 2.1008164609 0.0278823784
H -0.7355819915 1.8754927237 -0.8884063294
H -0.7748487906 1.8785503995 0.8771983818
H -0.9638955112 -0.4326926949 -0.0193140146
H 0.2915766690 -0.7772229280 -2.0774594143
H 2.7821548009 -0.2335309858 -2.2459873073
H 2.6899622528 0.6097879104 -0.6216401823
H 1.1042364408 -0.8592591840 3.1037113266
H 0.4748571968 0.7784040206 2.7977944184
H -0.6093825324 -0.6263008190 2.6663938475