16

O -0.6629474033 0.7030445825 0.6739053952
C 0.0935900013 0.9588587853 -0.2247539619
C 1.2621017157 1.9201135803 -0.1273363660
C 1.2388203048 2.9677874495 -1.2067451288
N 0.2478246387 4.0920334558 -1.2949270323
C 1.1294132394 4.3235151482 -2.4845224947
C 2.3998789863 3.8901853980 -1.7011882444
O 2.8720082488 2.9607755516 -2.7160135946
C 1.4242134900 2.8143053405 -2.7655706361
H -0.0199297131 0.4807540216 -1.2260967845
H 1.2694701225 2.3772885348 0.8658973181
H 2.1858378856 1.3378909412 -0.2604018874
H -0.6686086807 3.7453439381 -1.5900913089
H 1.0025083155 5.1478247135 -3.1851508865
H 3.1204510971 4.4778863122 -1.1349581999
H 0.9882342115 2.1173641770 -3.4832569472