21

C -0.3004327298 1.3154822588 -0.0852931552
O 0.1645590598 -0.0120955276 0.0906937893
C 0.7919855502 -0.5230565697 -1.0242830223
C 0.0236270571 -1.0538057861 -2.2045617460
C 0.9171805777 -1.9869595538 -1.4064660575
C 2.3634982223 -1.7486449705 -1.7973118534
C 3.5160899553 -2.6647931238 -1.5295106043
C 3.1111912759 -2.3435619390 -2.9549524869
C 2.2672218397 -0.2619692600 -1.3823151765
H 0.5257357102 2.0136686555 -0.2815841984
H -1.0183035318 1.3825320654 -0.9147182249
H -0.7952494649 1.6065242575 0.8439862632
H -1.0376918098 -1.1811815569 -2.0145363254
H 0.2798591165 -0.7867056808 -3.2273813659
H 0.5287847571 -2.8637767038 -0.9022489074
H 4.4375452895 -2.2347661287 -1.1491905676
H 3.3012406394 -3.6595043564 -1.1514768870
H 2.6259637645 -3.1212933958 -3.5360846395
H 3.7631555210 -1.6959194384 -3.5326269719
H 2.4675729475 0.4909936485 -2.1522096389
H 2.8640129326 -0.0426815040 -0.4924521534