23

C -0.1518250216 1.5592508077 -0.0977764440
C 0.0548773810 0.0425812349 -0.0288048932
C 0.7597884389 -0.4645784205 1.2463181264
O -0.0337951711 -0.1500775797 2.3991624762
C 0.8437260853 -1.9986906742 1.2300869852
C 1.4780167784 -2.5506054145 2.5130387628
C 2.7356285991 -1.8113747857 2.8783040696
C 3.0458493790 -0.6181158674 2.3762389793
C 2.1788704088 0.1256047612 1.3930224601
H 0.7959852178 2.1064640119 -0.1251601081
H -0.7117529429 1.8317017948 -0.9972680936
H -0.7281347944 1.9190609009 0.7615189331
H -0.9216023020 -0.4531356510 -0.0799975033
H 0.6249757037 -0.2915362807 -0.9048744000
H 0.0685680809 0.7873385830 2.5886283993
H -0.1622548921 -2.4104237182 1.0965520860
H 1.4382532403 -2.3028921063 0.3604969835
H 0.7593956581 -2.4723967356 3.3391227559
H 1.6903899274 -3.6202318403 2.3939481452
H 3.4009312663 -2.2832421798 3.5976112531
H 3.9708500500 -0.1280818126 2.6718116030
H 2.6703442418 0.1490411321 0.4091285075
H 2.1032467673 1.1803624402 1.6947325760