20

C -0.1196968105 1.4507605409 0.1614854673
C 0.0528540299 -0.0718135089 -0.0260821705
C 0.7879389291 -0.4018028541 -1.3258449494
C 0.7767993232 -0.6464772783 1.1924489638
O 1.9374122032 -1.0023442265 1.1433408290
C -0.0079982771 -0.7344540024 2.4605321456
C 0.3210048239 -1.8877474797 3.3992698323
C 0.7410615228 -0.5077288048 3.7669637442
H 0.8565138522 1.9461338340 0.1885366893
H -0.6898357364 1.8727097506 -0.6716582059
H -0.6470273779 1.6943215741 1.0885636890
H -0.9506350022 -0.5201485963 -0.0452050712
H 1.8035234231 0.0018173508 -1.3053660461
H 0.8697716105 -1.4822991690 -1.4723118854
H 0.2594368786 0.0239519307 -2.1844440409
H -1.0416509494 -0.4105457547 2.4174951186
H -0.5064936525 -2.3457583475 3.9286988111
H 1.0906830197 -2.5657004087 3.0488011299
H 1.7919438410 -0.2629212219 3.6640976313
H 0.2115123589 0.0122515119 4.5569896681