18

C 0.1118843738 1.6028290537 -0.0361765948
C 0.2205600800 0.0825537967 -0.0052240883
C 0.9652755514 -0.5287961747 -1.2280242410
N 1.7658782520 -1.5837868295 -0.5884230692
C 2.9191026340 -2.1425909108 -1.2536102954
C 3.9579950759 -1.1475636393 -1.6024919898
N 4.7420136105 -0.3410103183 -1.8671178865
C 1.7870334536 -1.2700543681 0.7692467248
N 0.9680995458 -0.3903399008 1.1832394221
H 1.1059388069 2.0586761511 -0.0835543715
H -0.4627959334 1.9360667618 -0.9068958992
H -0.3864036202 1.9649526288 0.8666807851
H -0.7895852192 -0.3444519463 0.0597842582
H 0.2947917721 -0.9447261594 -1.9850315863
H 1.6191392327 0.2137948585 -1.7097552829
H 3.3695777746 -2.9052183356 -0.6097368633
H 2.6102309389 -2.6486909941 -2.1750147007
H 2.4659852508 -1.8194468436 1.4171132989