18

O -0.2229310122 1.4956842442 -0.2366193512
C -0.0349833357 0.1114823996 0.0173113979
C -1.4246698786 -0.5107158303 0.0738159357
C -1.4087517568 -2.0214937213 0.2635895758
O -0.9627358547 -2.7510192096 -0.8928409540
C 0.3665275065 -2.9838412972 -1.0717754612
O 0.7668798934 -4.0607258566 -1.4326241012
N 1.1953556962 -1.9090807105 -0.8168157136
C 0.8320664551 -0.5170941434 -1.0827474771
H 0.6299042720 1.9373637906 -0.1703914965
H 0.4711877631 -0.0496822066 0.9832275958
H -1.9822085816 -0.0573372362 0.9009219892
H -1.9614243141 -0.2660082386 -0.8501105094
H -0.7992644970 -2.3055146578 1.1297222626
H -2.4253263694 -2.3836908458 0.4341857859
H 2.1522370892 -2.1529316749 -1.0243408709
H 0.3183759059 -0.4054779483 -2.0469042884
H 1.7695662989 0.0445208725 -1.1493258592