13

F 0.0337482854 0.0585124389 0.1960124350
C -0.0322354250 1.3894917575 0.0820905341
F 1.2137661133 1.8594015370 -0.0095611906
F -0.6708120166 1.6771762232 -1.0638158687
C -0.7873751551 2.0118500767 1.2510886555
C -2.2121275650 1.4226591895 1.4481825413
N -2.1501963768 0.7346425466 2.7468486146
C -0.9843165279 0.9315754331 3.1907086993
O -0.0986736486 1.6745150468 2.4669114924
H -0.7652621518 3.0966354213 1.1223793063
H -2.9792551368 2.2013541626 1.4726953715
H -2.4808626075 0.7165468463 0.6579587609
H -0.5895665475 0.5684733406 4.1320376885