16

C -0.0840627533 1.5604705686 0.0665607900
C 1.4568169588 1.4696673981 0.0029502472
C 2.0945877800 1.2669216410 1.3870308605
C 1.4103933037 0.1154897895 2.1127646105
O 0.0487759099 0.3015479392 2.5233369226
C 0.3106751638 -0.5529245564 1.4013882511
C 0.0454695725 0.0274257354 0.0116944872
O 1.3419944004 0.1685280647 -0.6485380396
H -0.5508383226 2.0068340314 0.9424996463
H -0.5023157060 1.9583973925 -0.8587243432
H 2.0092287287 2.1875830439 -0.6086290550
H 3.1517703748 1.0110161737 1.2543556125
H 2.0495820230 2.1879181674 1.9806699218
H 2.0116224315 -0.4442518934 2.8269843194
H 0.0962161858 -1.6063354164 1.5682328948
H -0.6565856511 -0.5615252390 -0.5820847761