17

O -0.0380879093 1.2979392554 0.0602728191
C 0.0688248690 -0.0737870632 0.0358868899
C -1.0538533602 -1.0685244496 0.1267726613
C -0.2701029395 -0.9499474310 -1.1752928189
C 0.6356857162 -2.1643938605 -0.8891150400
O 0.5252117625 -3.2097004719 -1.7923034751
C 1.9886885001 -1.6206266209 -0.3539795537
C 1.1115540601 -0.9770924389 0.7470795377
C 0.0192441440 -2.1037141357 0.5751922605
H 0.5936097093 1.6672272873 -0.5674428480
H -2.1087985896 -0.9454303553 0.3286351081
H -0.5821366912 -0.5426009411 -2.1281850116
H 1.0775931996 -3.9359578264 -1.4838568559
H 2.6137789699 -2.4272329207 0.0477747369
H 2.5894967847 -0.9740556320 -1.0027037803
H 1.5029582205 -0.6679551179 1.7144835845
H -0.1024596260 -2.9483905976 1.2489875455