22

C -0.8610675198 1.0921194398 -0.0171334493
C 0.1209969036 -0.0703009236 -0.0094752728
C 1.4986084499 0.1162514284 -0.7206805178
C 2.1469094954 -0.6125100010 0.4582399967
C 3.0751790261 -1.7604161730 0.3885256243
N 3.5069367350 -0.4731767771 0.9755755208
C 0.8760380576 -0.4696719672 1.3093224698
C 0.9975979612 0.5918738860 2.3893101060
O -0.2625894634 0.7060913732 3.0394892876
H -0.3977253839 2.0171674975 0.3407108439
H -1.2247795367 1.2782306500 -1.0342173960
H -1.7213462514 0.8871381061 0.6254807817
H -0.3733548413 -0.9620996250 -0.4080100882
H 1.6191964628 -0.3213012269 -1.7157346850
H 1.7927428857 1.1716891732 -0.7660633499
H 2.9915798231 -2.5792529441 1.0989395035
H 3.4636688803 -2.0448008910 -0.5867765685
H 4.0825926664 0.0365788198 0.3088075721
H 0.5136199073 -1.3904074854 1.7765821793
H 1.7893060754 0.2890470714 3.0897668231
H 1.3104600361 1.5538477882 1.9522714948
H -0.1823905894 1.3673618308 3.7330379339