23

C -0.6022870650 -0.3720519083 0.5841677543
C 0.9158633395 -0.5916586678 0.5481349748
C 1.4838340778 -0.8783872544 -0.8377058152
C 1.4145122234 0.2969066026 -1.7931932589
O 2.1610351250 1.3683185087 -1.2182425006
C 2.7324930710 -1.7458632537 -0.9385536142
C 1.4045617295 -2.2658757774 -1.4373157061
C 0.7160882508 -3.4192670079 -0.7394705061
O 1.2046839321 -2.2906651815 -2.8344598263
H -0.9008236044 0.4881750806 -0.0229432627
H -1.1452033873 -1.2460572379 0.2101705541
H -0.9404671055 -0.1806580991 1.6075909994
H 1.4228748398 0.3013206749 0.9288228109
H 1.1796699749 -1.4056961967 1.2313896635
H 1.8172293883 0.0057241254 -2.7689814978
H 0.3657501251 0.5939498435 -1.9483805573
H 2.0670552194 2.1331350593 -1.7932338619
H 3.4711419849 -1.4673801663 -1.6826609416
H 3.1432143438 -2.1603634273 -0.0229988816
H 0.8359674051 -3.3809925809 0.3451403829
H -0.3528384569 -3.4296921060 -0.9743904013
H 1.1422088941 -4.3707892237 -1.0823271681
H 1.6944811445 -3.0432108561 -3.1843712801