16

C -0.0687412795 1.5249758561 0.0776331836
C -0.0759124340 0.0017287789 -0.0187883174
N 0.6371167043 -0.4675256473 -1.1939858517
C 0.0130160921 -0.2384469375 -2.5201351285
C 0.3597708052 -1.6930909977 -2.8699917865
O 0.3607654006 -2.3514209925 -3.8647576502
C 0.7233970784 -1.9322000752 -1.3976154775
H 0.9570614679 1.9031600417 0.1055791788
H -0.5734176495 1.9787865855 -0.7820173950
H -0.5896073659 1.8559693603 0.9810138244
H 0.4180207540 -0.4261228582 0.8616609983
H -1.1218358858 -0.3682961266 -0.0066365492
H -1.0798738643 -0.0862645485 -2.4908369839
H 0.4644293531 0.5497252974 -3.1311167735
H 1.6976198667 -2.3836182688 -1.1818801763
H -0.0615590233 -2.5128835876 -0.8835581056