14

O 0.0076927797 0.0511723536 -0.4316131199
C -0.0022263235 1.1898304212 -0.0945072045
C -1.1199808194 2.1812529436 0.4071618087
C 0.0050066363 3.1429045264 0.8236491156
O 0.6609234848 2.9489801369 2.1207883741
C 1.7709769004 3.0930283181 1.2017601461
C 1.0600966539 4.1666491855 0.2785275426
N 1.3715093727 3.3986232639 -0.9733356532
C 1.0697651826 2.3258177714 0.0438860271
H -1.7524482271 2.5335928069 -0.4133844011
H -1.7589705765 1.8183714933 1.2147771482
H 2.7898633250 3.0626095570 1.5916783505
H 1.0944270978 5.2575424343 0.3339481642
H 0.5955759932 3.4909394081 -1.6358362985