14

N -0.0780405753 1.2751804392 -0.0629621030
C -0.0277652680 0.0216596296 -0.0112545344
O 1.1067247911 -0.7643290959 0.0215559248
C 0.6405152782 -2.1455556637 0.0396674038
C -0.6115530268 -2.0880813659 -0.8448396967
C -1.1834228561 -0.9592200596 0.0317303502
O -1.1476700935 -1.5530027415 1.3649706141
C -0.0164335218 -2.3290959125 1.4178315002
O 0.3160422957 -2.9643817424 2.3686856477
H 0.8583429008 1.6841699702 -0.0744065476
H 1.4663206621 -2.8109629032 -0.1891060227
H -0.3970803461 -1.7876030804 -1.8718990075
H -1.2178246840 -2.9952896683 -0.8192279720
H -2.1709794763 -0.5524473955 -0.1552964567