16

C -0.1198730950 1.5737825864 -0.0028721872
C 0.0629019025 0.0580039678 0.0130819034
N 0.8686039980 -0.4193228904 -1.1248316443
C 1.7826391173 -1.1743846298 -0.6752839903
N 1.8589961237 -1.4248675462 0.7367217370
C 2.2258813436 -0.1857469156 1.4602107565
C 0.7882029082 -0.5233250252 1.2505275695
C -0.0090495371 -0.9858090558 2.3556652030
N -0.6840577429 -1.3100953437 3.2364553414
H 0.8411826577 2.0913273201 0.0639896278
H -0.6054463968 1.8778895139 -0.9330767465
H -0.7452095213 1.8914002009 0.8365432289
H -0.9249038432 -0.4137439357 -0.0557317996
H 2.5175052506 -1.6690763501 -1.3032437883
H 2.6671804706 -0.3465140248 2.4378486070
H 2.6439730442 0.6307312581 0.8784904317