17

F 0.2044187609 0.0533056428 0.0139392980
C -0.0464457526 1.3747788159 0.0458003592
F 1.1227944063 2.0029216353 -0.1689582240
F -0.8471162749 1.6528168156 -0.9944505321
C -0.6780389807 1.7941336946 1.3542539725
C 0.2214695482 1.5176769881 2.5611159184
N -0.4460577377 1.9494425674 3.7818298175
C -1.2661377729 0.9447871255 4.4563949568
C 0.0464279349 1.3610645338 5.0219300874
H -0.9078799397 2.8610535002 1.2935029914
H -1.6254474575 1.2548828122 1.4491413789
H 0.4905293126 0.4473315461 2.5840210965
H 1.1524313023 2.0852857954 2.4603406441
H -2.1948249930 1.3039154768 4.8896274510
H -1.3213910737 -0.0490791560 4.0138636329
H 0.8634208997 0.6440605117 4.9574522539
H 0.0943480176 2.0311182246 5.8752070677