19

O -0.0072973441 1.1686799312 -0.4795688801
C -0.1809757807 -0.2288884410 -0.2563998860
C -1.5925194591 -0.3973292664 0.2887797962
O -1.7537684278 0.3752043524 1.4527294355
C -2.6973243365 -0.2491301530 -0.8170397315
C -2.8014313537 -1.7751390540 -0.8283637311
C -3.7585767061 -2.6827987730 -1.4535143786
O -2.4292749546 -2.5316822300 -1.9760793207
C -2.0046391632 -1.8818254445 0.4746807431
H 0.9193444419 1.3398998308 -0.6680103985
H -0.0551875658 -0.8057418530 -1.1835624385
H 0.5359514340 -0.6024587972 0.4896729659
H -1.3240593829 1.2211167615 1.2687091370
H -3.5885211730 0.2323368610 -0.4064538561
H -2.4116677532 0.2296135246 -1.7557935599
H -3.9718573173 -3.6481409714 -0.9950096326
H -4.5544574364 -2.2836793035 -2.0817192551
H -1.2080018774 -2.6303103801 0.4994919980
H -2.6409996841 -1.9908105842 1.3567457433