15

O 0.1254564959 1.4264362600 0.1086725966
C 0.0552115499 0.0685592176 0.0016694810
C 0.3410198401 -0.8059077081 1.2753556588
C -1.1688112673 -0.8783902937 1.5765104681
C -1.2883177870 -0.8921508603 0.0440260782
C -0.2394322041 -1.9452262660 -0.4810653878
O 0.6051219607 -2.0896020448 0.6739775397
C 0.4303691056 -0.7571893511 -1.2061657300
O 0.7515829443 -0.4736338875 -2.3263028046
H 0.0742478632 1.7986319216 -0.7815321812
H 1.1060783626 -0.5442027562 2.0030752186
H -1.5242987561 -1.7356754587 2.1519893379
H -1.5499435646 0.0604883372 1.9838093760
H -2.1899052267 -0.7135670936 -0.5359823093
H -0.4885391166 -2.8940296463 -0.9457065719