19

C -0.1022203332 1.5988671036 -0.0320409603
C 0.0381064819 0.0745956431 -0.0124766857
N 0.7188871805 -0.4498769481 -1.1874869517
C 0.1361469982 -0.6581552079 -2.4152772239
O -1.1895171663 -0.3866090491 -2.5417080439
C 1.1144414895 -1.1190189016 -3.2505359071
N 2.3066813597 -1.1977442755 -2.5550986264
C 2.0508646273 -0.7926020942 -1.3345060622
C 3.0452837895 -0.7130983375 -0.2254815476
H 0.8776996898 2.0831225163 -0.0776605258
H -0.6852300530 1.9179883808 -0.8997395809
H -0.6143258303 1.9420882470 0.8722498371
H 0.5998085312 -0.2499209106 0.8670896280
H -0.9495849309 -0.3927686663 0.0401582258
H -1.4642665497 -0.6331651382 -3.4300405787
H 1.0363208867 -1.3966131615 -4.2904598089
H 3.1548999080 0.3039613343 0.1699096391
H 2.7873596448 -1.3666206197 0.6172374766
H 4.0108507065 -1.0328626948 -0.6199075534