18

C -0.0098945011 1.3224585051 -0.1227923847
O -0.0516956270 0.0062276918 0.3864125469
C -1.2575768694 -0.6429518349 0.1286404791
C -1.5663846035 -1.1888494019 -1.3203308216
C -1.7429959760 -2.5705647751 -0.6993077151
N -0.4410373631 -2.9197025982 -0.0785887115
C -1.3407749574 -2.0648022415 0.6810411756
C -2.7843941456 -3.5699328652 -0.9400022036
O -3.6380898708 -3.4872503988 -1.7908657435
H 0.9591759126 1.7439369470 0.1524963930
H -0.1070931354 1.3419395579 -1.2181517089
H -0.8074000252 1.9490578725 0.3067394833
H -2.1115671156 -0.0499703514 0.4909310456
H -2.4791251319 -0.7860227802 -1.7592791835
H -0.7363162075 -1.1254838084 -2.0256638565
H -0.5058480153 -3.8632474982 0.3070622232
H -1.7196310071 -2.3676587655 1.6502368619
H -2.7395810507 -4.4381595249 -0.2381546794