21

C -0.0878465881 1.5194197471 -0.0094639718
C -0.0213608423 -0.0157187425 -0.0051188118
C 1.1554378744 -0.5604627672 -0.8932199457
C 2.0309719955 -0.6983390327 0.3796705569
C 0.7505255026 -0.5719753654 1.2458952539
C -1.3322731077 -0.5914913549 -0.2559316239
C -2.4104952117 -1.0890261531 -0.4619597231
C -3.7223290614 -1.6703781801 -0.7128213862
O -3.6344468207 -3.0916581274 -0.6769846363
H 0.9017691811 1.9478405362 0.1800630523
H -0.4415617161 1.8900178159 -0.9763984238
H -0.7711294579 1.8806495891 0.7651612102
H 0.9064682671 -1.5277845853 -1.3339747829
H 1.5056067106 0.1082188003 -1.6839905483
H 2.6043650163 -1.6214959661 0.4832365057
H 2.7147594721 0.1438236209 0.5136357051
H 0.7861462697 0.0878290944 2.1167748524
H 0.3596191424 -1.5433360606 1.5550457250
H -4.4333224584 -1.2989135224 0.0437123663
H -4.0914462452 -1.3215222791 -1.6915210985
H -4.5167794621 -3.4359596270 -0.8495019455