21

C -0.0899117225 1.4611999309 0.1231824111
C -0.0270129573 -0.0669673947 0.0243937482
C 1.2685164914 -0.4365939057 -0.7682919374
O 2.0053783560 -0.5294544431 0.5036350183
C 0.7420349898 -0.7678936737 1.1408022623
C -0.0798426465 -0.4612101690 2.4110112759
C -1.0931064056 -1.4062430650 1.6194262521
C 0.1621834287 -2.2052071246 1.1989846778
C -1.4196196067 -0.7264482632 0.2425595768
H 0.8943597384 1.8823428082 0.3504618922
H -0.4248263452 1.8777022180 -0.8343375867
H -0.7935300919 1.8040717952 0.8868271024
H 1.2638621975 -1.3999164879 -1.2896393553
H 1.6895874850 0.3395283167 -1.4127177156
H 0.2554507105 -0.9596480386 3.3230485896
H -0.3532076656 0.5735778724 2.6193871566
H -1.9138474990 -1.8756048857 2.1600107662
H 0.1076886275 -2.7984224636 0.2830286041
H 0.6066125907 -2.7886428535 2.0079240587
H -2.2192470240 0.0177487181 0.2850323103
H -1.7083285813 -1.4846311113 -0.4912931874