18

C 0.1151603833 1.4983681533 -0.0184308625
C 0.0747959440 0.0439318672 -0.0104419539
C 0.0256439975 -1.1586461966 0.0146003168
C 0.0064457972 -2.5999105157 -0.0103035677
C 1.1466811861 -3.2391519372 -0.7856990691
N -0.4626750704 -3.2554070066 1.2290281695
C -1.3152194546 -3.3363950199 0.0229964333
C -2.5852932307 -2.6696347102 0.0472604420
C -3.6605010424 -2.1329179161 0.0305654331
H 1.1445710506 1.8687944042 -0.0775178501
H -0.4349952032 1.9070838817 -0.8732398945
H -0.3340219171 1.9087813171 0.8925255703
H 2.1062143583 -2.9951357569 -0.3188742774
H 1.0403666895 -4.3287229747 -0.8115797632
H 1.1710582237 -2.8703468469 -1.8151460276
H 0.0296060788 -4.1388852629 1.3494128086
H -1.3161582113 -4.2795736637 -0.5210829063
H -4.6049144292 -1.6479014960 0.0268175788