21

C -0.3902424193 1.3838428840 0.1537522447
N 0.0082382690 -0.0143601958 0.1166712059
C 1.3762713937 -0.3176949642 -0.2830798136
C 0.9283032129 -0.5586919840 1.1190012607
C 1.4974124240 0.2374976556 2.2767391520
C 0.5478156177 0.2927210688 3.4809360325
C 1.1772300055 1.0378973162 4.6745299421
C 0.2907112645 1.0974560806 5.8345327446
N -0.4232424533 1.1354397998 6.7423769698
H 0.4035540025 2.0868970321 0.4527450824
H -0.7263582457 1.6736317425 -0.8469101940
H -1.2359486247 1.5059849480 0.8384907727
H 1.5051380345 -1.1403814808 -0.9819798096
H 2.0562185818 0.5202767055 -0.4416829719
H 0.6738655400 -1.5832902217 1.3929089174
H 2.4409622328 -0.2352503063 2.5824301682
H 1.7587329327 1.2531437079 1.9601517395
H -0.3889416231 0.7860162871 3.2021256825
H 0.2822293070 -0.7235872982 3.7927041509
H 2.1114228741 0.5493795866 4.9764796424
H 1.4402239133 2.0628704563 4.3869077508