17

C -0.7218314803 1.4177048918 0.1039600540
C -0.0810753197 0.0716266083 -0.0781253177
N -0.0126270168 -0.4874118217 -1.2171963966
C 0.6893421996 -1.7659987591 -1.2986285338
C 0.5169806352 -2.6243681642 -0.0416818581
O 1.3052288301 -3.7811327767 -0.0880520901
C 0.8664799445 -1.7953463138 1.1867677635
O 1.4374112877 -2.2628259746 2.1516766289
N 0.4461138763 -0.4907436958 1.1043223597
H -0.0036193059 2.1390658016 0.5118106865
H -1.0765023778 1.7765119475 -0.8611129533
H -1.5627832623 1.3599497057 0.8039801879
H 0.3308067554 -2.3152469217 -2.1727201127
H 1.7616297715 -1.5804032993 -1.4593380920
H -0.5555245381 -2.8775852700 0.0575615798
H 1.6643498900 -3.8866745293 0.8064143397
H 0.5539690807 0.0777580311 1.9329818841