19

C -0.1792319402 1.6132275304 0.1253975178
C -0.2116947519 0.1034885543 0.1409690533
C -1.4084624220 -0.5458982899 -0.5273973297
O -1.4221141846 -0.2763192960 -1.9183691753
O 1.0379978781 -0.5466112116 -0.2380464265
C 0.5920758623 -0.6609693541 1.0967494408
C 1.3937296790 -0.2272406532 2.3210950277
O 1.0462620618 -1.4588952252 2.9925280336
C 0.3578682624 -1.9782475432 1.8338264702
H 0.7850981424 1.9888293700 0.4743252455
H -0.3519585969 1.9751797181 -0.8919143978
H -0.9680843304 2.0202730222 0.7673421947
H -1.4024697535 -1.6274729374 -0.3287380012
H -2.3397871421 -0.1341269477 -0.1237948690
H -0.5872186809 -0.6088072180 -2.2687498415
H 2.4724427199 -0.1362660435 2.1415584429
H 1.0349540750 0.6561586956 2.8628770226
H -0.6802426331 -2.2519081838 2.0576493611
H 0.8753493448 -2.8370245371 1.3874731109