16

C -0.0930919938 1.5266930472 0.0449115509
C -0.0434233474 0.0337225529 -0.0050704424
C 0.0379877357 -0.7812774246 -1.1184480174
N 0.0446316826 -0.5402507509 -2.5008670625
N 0.0460429455 -2.0656864926 -0.6355775251
C -0.0249393836 -1.9918752911 0.7366082345
N -0.0875061945 -0.7322330317 1.1327080286
C -0.0136093845 -3.1459944967 1.5490201451
C -0.0070010670 -4.1513630532 2.2125802308
H 0.2290915994 1.9683234680 -0.9041575594
H -1.1025094694 1.8972302028 0.2596959167
H 0.5645046601 1.9041914583 0.8333405269
H -0.2224730211 0.4144761548 -2.7043200773
H 0.9492768727 -0.7138727558 -2.9295172198
H 0.0371627273 -2.9047264644 -1.1915981618
H -0.0006802921 -5.0271062530 2.8127567623