12

N -0.0047967101 1.3943801495 0.1623215748
C 0.0527746748 0.0273973887 0.0379415640
N -1.0594622554 -0.6887016803 0.0033026696
O -0.6584481225 -2.0843524186 -0.0301707728
C 0.6546953201 -2.0580239046 -0.0358969909
C 1.2115376980 -0.8130172145 0.0044977656
C 2.5994685165 -1.1121391715 0.0061018153
N 2.8221361891 -2.4060027686 -0.0351011431
O 1.5272708917 -3.0440683049 -0.0610454663
H 0.7248077424 1.9023723436 -0.3145383687
H -0.9249689034 1.7806243512 0.0000147701
H 3.4612557387 -0.4599403099 0.0350753125