19

C -0.0442129060 1.5568254188 0.0982631956
C 0.0117586057 0.0351277121 0.0152536960
C -1.3661546847 -0.5779469868 -0.2315691799
C 1.1005834591 -0.5726008734 -0.9574224829
C 1.7273564941 -1.2904534213 0.2454079322
N 2.1289415353 -0.2205493976 1.2034837770
C 0.7322073242 -0.6748629551 1.1850125479
C 2.3256142598 -2.5822433622 0.2824020813
N 2.8094086374 -3.6343095814 0.3002343000
H 0.9402899630 1.9687652905 0.3311985839
H -0.3822132337 1.9829026733 -0.8528673896
H -0.7468291579 1.8806599319 0.8744742739
H -1.7774897226 -0.2312537385 -1.1853770428
H -1.3209244809 -1.6719165747 -0.2616990214
H -2.0682889582 -0.2918435818 0.5596825216
H 0.6727193054 -1.2544151887 -1.6940047714
H 1.7700540239 0.1370915893 -1.4470364165
H 2.5947185290 -0.6694444917 1.9924718901
H 0.2747707072 -1.1139152428 2.0646308248