19

C 0.2119911717 1.5289694916 -0.0053222713
O -0.3326607893 0.2538760285 -0.2647408921
C 0.4419568430 -0.5095603702 -1.1309205890
C 1.7745080887 -1.2086637601 -0.5563567180
C 0.9639569878 -2.5041139840 -0.5970563202
C 0.4978476173 -3.9538780170 -0.8858582754
C -0.7449953567 -2.9996856921 -0.6103765720
O -0.0178107724 -2.4579917044 0.5305920902
C -0.1121913727 -1.9268941777 -1.5309429882
H 1.1845312059 1.4664877958 0.5050010379
H 0.3456497896 2.1099014963 -0.9321801260
H -0.4918900423 2.0538957964 0.6443349533
H 0.6720535090 0.0672764794 -2.0408175696
H 2.5900108547 -1.1635168146 -1.2822392351
H 2.1255692879 -0.9044832549 0.4321061801
H 0.6507231369 -4.3368688577 -1.8984272924
H 0.6713521401 -4.7024578401 -0.1107576608
H -1.7872636051 -3.2936159668 -0.4589650478
H -0.0706876942 -2.1344633883 -2.6015648737