19

C 0.1243399235 1.5510494274 -0.0043976747
C -0.0347033498 0.0267418518 0.0064023305
O -1.4355478680 -0.3115919245 -0.0067556113
C 0.5323536771 -0.5875704031 -1.2852337746
C 0.7111198465 -2.0966681291 -1.2033642199
O 2.0354500993 -2.5590761376 -0.8986986522
C 1.0036284822 -2.7088963064 0.0969541814
C 1.0803658272 -1.8213431251 1.2863197486
C 0.6204365903 -0.5717095557 1.2415995502
H 1.1799663032 1.8416803798 -0.0010423935
H -0.3544878833 1.9741713810 -0.8920345342
H -0.3495363585 1.9918541595 0.8802961504
H -1.7906212953 -0.1371506593 0.8715692056
H -0.1471313686 -0.3276096514 -2.1023057359
H 1.5067759756 -0.1408051914 -1.5033157394
H 0.2011443487 -2.6951936748 -1.9561886707
H 0.7188569857 -3.7444679109 0.2806730694
H 1.5176480880 -2.2241133441 2.1960832522
H 0.6756264561 0.0650739740 2.1226949780