16

O 0.0273300647 1.3806346853 0.3864873046
C 0.0391173443 0.0892057128 -0.1891489946
C -1.3327096346 -0.5572672334 -0.1135718920
C -1.5489709984 -2.0599185774 -0.1445031466
C -0.4187345154 -3.0288898283 -0.2355780313
O -0.4542987486 -3.9989107873 -0.9492365710
C -1.7958405853 -1.2590117596 1.1435897471
C -0.8914265908 -1.3632681591 2.2566711241
N -0.1583643081 -1.4019009487 3.1515346817
H 0.0082776603 1.2780208116 1.3443748112
H 0.3125429080 0.2219264613 -1.2407377434
H 0.8047141873 -0.5484712236 0.2701870986
H -2.1061201133 0.0219783265 -0.6090077965
H -2.4410991408 -2.4106286269 -0.6520627498
H 0.4620021682 -2.8135116334 0.4039131826
H -2.8347429876 -1.1471742798 1.4344226354