18

C -0.6866054391 1.3258269412 0.2575244324
C 0.0055865837 -0.0055809747 0.0632580804
C 0.7827714009 -0.2379278758 -1.2574074079
C 1.9954476298 -0.3106654317 -0.3442687579
C 3.2026415233 -1.1691136971 -0.3845970202
C 3.3548172225 0.3548924132 -0.5160173764
C 3.6901303598 0.9395531263 -1.7784373210
N 3.9205768919 1.4061661840 -2.8129234610
O 1.2458480007 -0.1031501730 0.8349660151
H -0.0297468997 2.1531155298 -0.0277617307
H -1.5935819016 1.3737441924 -0.3549278415
H -0.9739542890 1.4577127439 1.3051177763
H -0.6580476449 -0.8342798884 0.3350933738
H 0.5433046542 -1.1596656381 -1.7896353749
H 0.7782863533 0.6008627398 -1.9561456341
H 3.5486914659 -1.5959895544 0.5501166923
H 3.3860392001 -1.7691342941 -1.2690874517
H 3.7326846283 0.8757383467 0.3573195370