21

O 0.1465074188 1.3810795899 0.0616459370
C 0.0493135654 -0.0095476596 -0.0017285054
C -0.5025403456 -0.7300883132 1.2040571616
O -0.9586128387 0.0965834026 2.2495751676
C -1.3123469661 -0.6786535745 -0.0700868539
C -2.5918720892 0.1638915158 -0.1465926095
C -3.4224937415 -0.5068931556 -1.2593146145
C -3.0379945653 -1.9918968902 -1.1633171479
C -1.5188080904 -1.9502332110 -0.9055259112
H -0.2732455879 1.6382809393 0.8946092212
H 0.8722128907 -0.4452794591 -0.5630500449
H -0.0866251535 -1.6858272129 1.5215561391
H -0.2306487585 0.2141074526 2.8702678932
H -3.1276290750 0.1294485099 0.8081141583
H -2.3718825643 1.2138658012 -0.3575345332
H -4.4961831428 -0.3296221735 -1.1501923753
H -3.1245408224 -0.1123916127 -2.2384441368
H -3.5487053553 -2.4523217894 -0.3086487705
H -3.3033359278 -2.5699612918 -2.0532478239
H -0.9789840354 -1.8653879391 -1.8575634861
H -1.1480412953 -2.8521020889 -0.4075318849