19

C -0.0973661255 1.5080512721 -0.0302292562
C 0.0622413078 -0.0012279334 0.0712286075
O 0.8964103508 -0.5081245740 -1.0061902831
C 1.9064407237 -1.2124153325 -0.3053362380
C 1.2036917198 -1.9991547833 0.8516581488
C 2.3534006464 -2.3629675125 1.7791183365
O 3.1104278641 -1.1316435029 1.7627859802
C 2.3394917749 -0.3188538570 0.8917137191
C 0.8363452597 -0.5312946265 1.2766178259
H 0.8615505257 2.0225219532 0.0778145164
H -0.5198321988 1.7755855241 -1.0030311518
H -0.7764482534 1.8725117852 0.7480178487
H -0.9263030274 -0.4758702186 -0.0070003948
H 2.6166612534 -1.6684783214 -0.9940917215
H 0.4364004412 -2.7455328517 0.6463406350
H 2.0381749949 -2.5957692806 2.8037294475
H 2.9719548332 -3.1884798103 1.4058725605
H 2.8029291597 0.6581712991 0.7694136474
H 0.4670257099 -0.2985503691 2.2755823818