16

O -0.0635219618 0.0319484258 -0.2205422978
C -0.0262692539 1.2230014098 -0.2535388336
O 1.0311109461 1.9311743184 0.1970718243
C 0.9868057093 3.3553898157 0.1148683422
C 1.1648206130 3.9775576234 1.5182405285
N 1.8395012641 5.2236629722 1.2127503181
C 2.4801023020 5.2549594051 -0.0013549421
O 3.1758714917 6.1510976395 -0.4161432003
C 2.1438122486 3.9330721506 -0.7039411923
H -0.8362862655 1.8676103210 -0.6477222372
H 0.0248524466 3.6660949296 -0.3092788963
H 0.2080941007 4.1429761560 2.0229275457
H 1.7705943129 3.3046970228 2.1402168361
H 2.0249161115 5.9370793891 1.9002146347
H 3.0151579754 3.2724080663 -0.6384296137
H 1.9180878392 4.0920520246 -1.7589912464