19

C -0.0087284160 1.5316520308 0.0443287331
O 1.2961410863 2.0857273978 -0.1083500425
C 2.1636977335 1.4263118009 -0.9790139304
C 1.7869670872 0.1672500721 -1.6970906821
C 0.4269375827 -0.4294792839 -1.4082230514
C 0.0096390744 -0.0046214858 0.0168936074
C 1.0143511935 -0.5428461822 1.0149163837
C 2.3173557440 -0.4964909955 0.7221259245
C 2.7978799713 0.0984074761 -0.5447644335
H -0.3723129567 1.9099968936 1.0043014011
H -0.6788174761 1.9081335315 -0.7476124101
H 2.8104434373 2.1390607458 -1.4820657269
H 2.1794370741 0.0297582528 -2.6998702078
H -0.3111635658 -0.0659213818 -2.1326926636
H 0.4630932119 -1.5218210148 -1.4887651999
H -0.9997510374 -0.3664214955 0.2385406957
H 0.6608655176 -0.9526699723 1.9553283032
H 3.0613078091 -0.8716851916 1.4184162847
H 3.8425940890 -0.0478029581 -0.7962717350