19

C 0.0180700506 1.5619065841 0.0231195503
C 0.0158894730 0.0256609851 0.0359613482
C 0.8205322027 -0.5063824751 1.2297077513
C -1.4377546630 -0.5444926504 0.0265457733
C -1.4827441211 -2.0778933954 0.0480112835
O -2.1813327235 -0.1213012755 1.1643194905
C -2.1222607744 -0.0753022849 -1.2070283067
N -2.6549810315 0.3076987993 -2.1588052976
H 1.0401465063 1.9362258250 -0.0818313489
H -0.5717133937 1.9658723712 -0.8049812652
H -0.3739745380 1.9690035229 0.9628391630
H 0.4856135969 -0.3213950156 -0.8933617281
H 0.2954709715 -0.3029501420 2.1677625294
H 0.9995830767 -1.5824002112 1.1647348200
H 1.7960022761 -0.0129858399 1.2720073430
H -1.1073268836 -2.4374035580 1.0073351713
H -2.5126367590 -2.4205761372 -0.0691148535
H -0.8760051874 -2.4962347432 -0.7586548079
H -2.2907929585 0.8351788105 1.1233523540