18

O 0.4507864812 0.2912186395 0.9019522683
C -0.2075965397 0.3076919635 -0.3508604217
C -1.5486150165 -0.3674874903 -0.3028853355
C -2.6227065601 -0.5662081008 -1.3978605213
C -3.2179928915 -1.2541523381 -0.1480701812
O -4.3809162634 -1.9794350695 -0.0051214333
C -1.8325098749 -1.7706090510 0.3366200490
N -1.9073484122 -1.1758482965 1.7145507795
C -2.6080094668 -0.1803223116 0.8328932108
H -0.1012682155 -0.2153224683 1.5187369283
H -0.3376836598 1.3503825402 -0.6815159759
H 0.4193087368 -0.1857245876 -1.1114123977
H -3.1251409982 0.3386344424 -1.7549235830
H -2.3536066940 -1.2179595025 -2.2342123306
H -5.1293330565 -1.4155982185 -0.2299830474
H -1.3442255389 -2.7202104330 0.1152561053
H -2.5768605490 -1.6861803894 2.2946912619
H -3.0375575010 0.7520656716 1.2024727844