22

C -0.0457957687 1.5364898969 0.0152747568
C 0.0890204431 0.0082174712 -0.0446065401
C 0.8121919197 -0.4319248773 -1.3257874115
C 0.7399445945 -0.5329000916 1.2388326272
C 0.7629130778 -2.0536413912 1.3603817640
O 2.0973522726 -0.0236626285 1.2749527333
C 2.6489753632 0.1401300999 2.5012164614
N 3.9460091080 0.5559238128 2.3727741627
O 2.0926014457 -0.0752925518 3.5537136250
H 0.9393103074 2.0117688330 0.0520192176
H -0.5706761780 1.9171909735 -0.8664728518
H -0.6041358468 1.8536599314 0.9025791848
H -0.9227782908 -0.4200352260 -0.0582566267
H 1.8444525954 -0.0693749294 -1.3331429849
H 0.8363728698 -1.5202409827 -1.4312920250
H 0.3058659547 -0.0254093729 -2.2069556134
H 0.2164091489 -0.1196479963 2.1062448727
H -0.2518818323 -2.4549415813 1.2720963660
H 1.3840362329 -2.5080048870 0.5837595443
H 1.1598717947 -2.3398826308 2.3367919363
H 4.2507003473 0.9226875311 1.4872225350
H 4.3794315707 0.9134595871 3.2064905365