21

C 0.0752298124 1.5902253562 -0.0703344488
C 0.0105787834 0.0513204457 -0.0253009715
C 0.5420376907 -0.5192862610 -1.2686270021
N 0.9393962677 -0.9697909154 -2.2560308827
C 0.7148979749 -0.5460550410 1.2094031088
C 0.8928574828 -2.0830150115 1.3009387128
C 2.3397194385 -1.7798040409 1.7540926551
N 2.1799599211 -0.3922199828 1.2719684418
C 2.7568668352 0.6640215960 2.0764343334
H 1.1067113754 1.9286237371 -0.1897957147
H -0.5085619479 1.9803586539 -0.9075561583
H -0.3279774861 2.0075192699 0.8571146928
H -1.0439374432 -0.2518843951 0.0351791537
H 0.2060444889 -0.1417817910 2.1020103732
H 0.2507695226 -2.6077929851 2.0082295581
H 0.8440662736 -2.5727307190 0.3269828530
H 2.4575021109 -1.8425088337 2.8477320867
H 3.1534613948 -2.3359618506 1.2785244485
H 3.8462992958 0.5551964817 2.0910723804
H 2.5278869223 1.6445600742 1.6495993777
H 2.3995825361 0.6531103323 3.1242168323