16

C -0.1271134330 1.3217648382 0.2672699596
N 0.0346510183 -0.1130394790 0.1303940176
C 0.5687032398 -0.5290065450 -0.9240899481
O 0.7344440769 -1.8832260723 -1.0805900423
C 1.3263515499 -2.3130698661 -2.2540876933
O 1.7037918447 -1.6044242918 -3.1401844503
N 1.3811457532 -3.6884761161 -2.1754734706
C 1.8922705498 -4.5828835072 -3.1141651014
N 2.3996335357 -4.2392371727 -4.2205342873
H 0.3952695327 1.6587565510 1.1691334038
H 0.2465962864 1.9001412286 -0.5913813666
H -1.1884901682 1.5527706489 0.4084341719
H 0.9360422963 0.0549977843 -1.7707797699
H 1.0011380097 -4.0785619845 -1.3274856828
H 1.7856948212 -5.6105658843 -2.7463849960
H 2.7015718064 -5.0662344421 -4.7326628642