18

C -0.0325700617 1.6078765198 0.0048849397
C 0.0688918375 0.0914555456 -0.0296679500
C -1.2919118932 -0.5682212925 0.0946561147
O -2.3299812554 0.0339310142 0.2074019882
C 0.8571517990 -0.6248749236 -1.1275954900
C 2.2904682781 -0.7397352407 -0.7167112029
C 2.4644488303 -0.1200970325 0.6558417862
C 1.0554484852 -0.6859294869 0.9074180501
N 1.2892608947 -1.7442764640 -0.2175757222
H 0.9381293245 2.0816094673 -0.1543738569
H -0.7177596198 1.9570944897 -0.7724593932
H -0.4384480493 1.9480151006 0.9622183390
H -1.2651929332 -1.6789258338 0.0778743539
H 0.5334928538 -0.8233660672 -2.1437684721
H 3.0575989525 -1.0255614426 -1.4273728200
H 3.2042025788 -0.6778211632 1.2356724968
H 2.6425460719 0.9532368313 0.7624167767
H 0.7384272060 -1.0119652714 1.8965900121