20

C -0.1057176189 1.5777706467 0.0134955809
C 1.2818331266 2.2297988964 -0.0058801578
O 1.9370853902 2.0917135826 -1.2565130169
C 3.0547634220 1.2328451878 -1.3021895950
C 2.7453367848 -0.2495793753 -0.9849895327
C 1.5447213648 -0.7559054334 -1.7321579707
C 0.2897215969 -0.5997584825 -1.3105807194
C -0.1241841272 0.0330387933 -0.0015419041
H -0.6170479861 1.9258186954 0.9212293877
H -0.6761787488 1.9642399115 -0.8390168966
H 1.1634304665 3.3063413325 0.1769586032
H 1.9036445167 1.8341567075 0.8115260551
H 3.4343500499 1.3209287628 -2.3258306262
H 3.8480281397 1.5838293762 -0.6214909558
H 3.6411736176 -0.8329510445 -1.2280342462
H 2.5913997383 -0.3548400778 0.0949774240
H 1.7232563041 -1.2104879480 -2.7041136132
H -0.5201178075 -0.9415303484 -1.9517404024
H 0.5167695439 -0.3279481572 0.8141107473
H -1.1386305035 -0.2985274456 0.2451565388