21

C -0.0508654774 1.4961317043 0.0276012983
C -0.0093407430 0.0060689654 -0.0163367669
C -0.0278975608 -0.8347573795 -1.0535467108
C 0.0385246731 -2.2089510782 -0.4189917248
C -0.8513425181 -2.1694141662 0.8761270811
C 0.1479790231 -3.1174402436 1.5791183232
C 1.0288033263 -2.1146011895 0.7980580991
C 0.0685971795 -0.9220870643 1.2088103757
C 0.1077273637 -0.2992741409 2.5885891340
H 0.8371727651 1.9133074616 0.5200718358
H -0.1058430585 1.9190350005 -0.9794627405
H -0.9167871707 1.8622511503 0.5944254607
H -0.0782925820 -0.6130760317 -2.1109213862
H 0.0390400644 -3.1074474836 -1.0373883349
H -1.9449554808 -2.1916792095 0.9115709901
H 0.1924556576 -3.0889523642 2.6702542003
H 0.1633702595 -4.1517595790 1.2235891834
H 2.1210318511 -2.0731453913 0.7427426069
H 0.9773745034 0.3582976960 2.7000389127
H -0.7865086555 0.3068035436 2.7733067239
H 0.1625635701 -1.0520016401 3.3798286991