21

C 0.9532159154 1.2496894642 0.2178306369
O 0.0949076886 0.1855050859 -0.1530490378
C 0.5244504250 -0.5533299338 -1.2612743988
C 1.6659410316 -1.5263821757 -1.0894498434
C 0.2393843718 -2.0305556665 -1.2062552115
C -0.4659528207 -2.6481060026 -0.0206980600
C 0.3397477129 0.1733549173 -2.5649655660
C 1.4480003684 0.7991322923 -3.3026727819
O 0.8886699309 -0.4466879707 -3.7263185695
H 1.9724683037 0.8942928615 0.4236789285
H 1.0055267543 2.0278979422 -0.5554905470
H 0.5367611541 1.6869569080 1.1282988640
H 2.3364698711 -1.6892164115 -1.9255385070
H 2.1254264676 -1.5645049487 -0.1070927841
H -0.0039371410 -2.4698577692 -2.1699122367
H -0.2324069928 -2.1071644220 0.8989147100
H -1.5531187550 -2.6240077823 -0.1518346437
H -0.1670367555 -3.6941359009 0.1064307194
H -0.6615077399 0.5863675228 -2.7013925350
H 1.2526471759 1.6440150276 -3.9612539084
H 2.4576718937 0.7393611622 -2.8998874579