20

C 1.9736931416 0.3370573542 -1.8013144158
O 1.3600586513 -0.7696232273 -1.1855675688
C 0.0787725369 -1.0449181657 -1.7094198683
C -0.4414085373 -2.2634780933 -0.9812905221
C -1.4495894959 -2.1589567848 0.1351203241
C -1.9942200387 -0.8848023258 0.5133110808
C -2.4754848952 0.1652213128 0.8518330650
N -1.7837090160 -2.7895966868 -1.1584502699
C -2.7218704448 -2.1271110795 -2.0581260561
H 2.9549163390 0.4655681634 -1.3382193087
H 2.1087861901 0.1797947991 -2.8836315127
H 1.3897640198 1.2601385893 -1.6599145501
H -0.5873505622 -0.1801792147 -1.5790539978
H 0.1443227243 -1.2555020718 -2.7920144673
H 0.3224963395 -3.0330183360 -0.8776654824
H -1.3759803191 -2.8715994394 0.9540503441
H -2.8926265808 1.0925276439 1.1580616701
H -2.7216974481 -1.0308431141 -2.0058468401
H -2.4929282664 -2.4330210572 -3.0835506170
H -3.7314662181 -2.4745839863 -1.8197402370