22

C -0.0788981224 1.5992214260 0.1789520616
C 0.0044548063 0.0831716306 0.0763519409
C 0.9674246152 -0.5513941018 -0.9967733208
C 1.6871326304 -1.3017803341 0.1382563940
C 2.3159274609 -2.6604538067 0.0738934021
C 3.6310980243 -2.6704148623 -0.7036867782
O 4.1119570688 -4.0057327317 -0.7144621288
N 2.2139492918 -0.2307279137 1.0288429361
C 0.7992655382 -0.6724470917 1.1538522311
H 0.9167583662 2.0228556398 0.3346781011
H -0.5007114044 2.0332834947 -0.7342486812
H -0.7161187146 1.9044901978 1.0167756282
H -0.9947055261 -0.3523747237 -0.0244697854
H 0.4454062749 -1.2132341952 -1.6924019687
H 1.5914117371 0.1503083674 -1.5567134013
H 2.5047705553 -3.0367642235 1.0873684880
H 1.6289105325 -3.3705149318 -0.4026929867
H 3.4591707017 -2.2978117135 -1.7261185278
H 4.3493896742 -1.9866247434 -0.2250991104
H 4.9379561587 -4.0243081432 -1.2062268763
H 2.7292506098 -0.6949419608 1.7777278680
H 0.4333290213 -1.0653723692 2.0962977044