19

O 0.1252443201 1.3863063229 -0.0696402177
C 0.0266498131 -0.0210251288 0.1210169338
C -1.3889257125 -0.5019518856 0.0865265838
C -2.0337320224 -1.8872750211 -0.0931565686
C -2.9613238088 -1.6415837668 1.0975119577
C -2.5544537104 -0.1322569421 1.0541707098
C -3.5095419634 0.6406584022 0.1492526878
O -3.4537661278 -0.0600575274 -1.1048046577
C -2.2397946263 -0.7785985751 -1.1086756407
H -0.2841006609 1.5897107416 -0.9175381744
H 0.6241284911 -0.5747295021 -0.6216789140
H 0.4789471374 -0.2103722607 1.1012553662
H -1.5587639895 -2.8248478475 -0.3623225140
H -4.0241299249 -1.8700029854 0.9633731802
H -2.5965302867 -2.1338846820 2.0019311779
H -2.3139997391 0.3560973338 1.9976027824
H -4.5478411289 0.6332243797 0.4962253281
H -3.1816314594 1.6836019694 0.0190262592
H -1.8097759407 -0.8985307550 -2.0971417598