21

C -0.0550631266 1.6801500263 0.3427556134
C 0.0092725813 0.1892583199 0.0605282050
C -1.2839589231 -0.3104471097 -0.5305481759
C -1.5271303742 -0.3818670606 -1.9781395353
O -1.2868390113 -1.5654243893 -1.2102652496
C 1.2443708478 -0.5310714596 -0.4175100697
C 2.5238917056 0.0451806118 0.2040063643
C 1.9463850519 -0.2463718621 1.6289384943
C 0.6757517076 -0.8097467832 0.9805371164
H 0.8482369521 2.0543595902 0.8277100303
H -0.1934945030 2.2467574617 -0.5851360778
H -0.8998208863 1.9143531498 1.0016832061
H -2.1558858760 -0.1601418151 0.1109517724
H -2.5389473560 -0.2781942519 -2.3670860583
H -0.7294294865 -0.1066975116 -2.6661831200
H 1.2065378089 -1.1801666799 -1.2831122337
H 3.4014967350 -0.5672558127 -0.0133925972
H 2.7657743483 1.0853231528 -0.0374948952
H 2.5208410868 -1.0147511440 2.1508662859
H 1.8212340391 0.6044445392 2.3067636559
H 0.1392466088 -1.6896174021 1.3169513487