14

N -0.0704977627 1.2929315470 0.1961770027
C 0.0237306927 0.0399746060 0.0730639106
N 1.1395367122 -0.7718323050 -0.0942292871
C 0.8961177057 -2.1397537098 -0.1383754466
O 1.7317163969 -2.9886495629 -0.3022862416
C -0.6032023092 -2.3286801179 0.0808943945
C -1.1972108959 -0.8983763259 0.0403870994
C -2.1496485118 -0.6231459845 1.1110988560
N -2.9120434691 -0.4541608666 1.9618315160
H 0.8359706208 1.7614692530 0.1769392479
H 2.0800346312 -0.4121106854 -0.1727326536
H -1.0165238389 -2.9919942370 -0.6798376463
H -0.7527094796 -2.8070303531 1.0522544299
H -1.7053251424 -0.7232989580 -0.9142457919