15

N -0.0834270829 1.2816816347 0.1628036797
C -0.0009377710 0.0353333673 -0.0053225721
O 1.1764918945 -0.6425915417 -0.1084745736
C 1.2048441249 -1.7847498809 -0.9785612046
O 0.1288986569 -2.6408682582 -0.7994178352
C -1.0957018264 -1.9739511432 -1.0414527081
C -1.2591627933 -0.8332097095 -0.0139486218
C -1.4964906052 -1.3800799034 1.3257844783
N -1.7004868223 -1.8204712348 2.3739219203
H 0.8470443752 1.7050648472 0.1592487155
H 1.2440254989 -1.4146312773 -2.0162414957
H 2.1142360382 -2.3291752759 -0.7257861155
H -1.1142234363 -1.5505181849 -2.0574927518
H -1.8924619622 -2.7125924223 -0.9469019162
H -2.0996732991 -0.1872046571 -0.2800504190