17

N 0.0072745848 -1.0008415622 -0.6218529687
C 0.0167178252 0.1234087333 -0.3553311147
C 0.0258970275 1.5403073818 -0.0042195963
C 1.4377635057 2.0955696584 0.1637561531
O 2.2269049887 2.0319663900 -1.0511223078
C 2.5743799254 3.4281789705 -0.9657536368
C 1.6516818125 4.3515638236 -1.7859330533
N 0.6519734371 4.3334608029 -0.6734461953
C 1.6025836052 3.6315387556 0.2215669980
H -0.4907582161 2.1247588225 -0.7709368748
H -0.5250857413 1.6737879307 0.9350291701
H 1.9605212935 1.5784507142 0.9791935789
H 3.6523433261 3.5969196998 -0.9751238579
H 2.0985982780 5.3367516394 -1.9676452388
H 1.2820639794 3.9391559209 -2.7293432861
H 0.3846564802 5.2527005144 -0.3454146396
H 1.8301561482 4.0994514745 1.1797323002