21

C -0.0580077959 1.4633586412 -0.3018891321
C 1.3979111215 1.6527088236 0.2121079689
C 1.4427499448 0.1569630979 0.6504002686
C 1.6186797282 -0.0873860649 2.1439494330
O 1.3952575094 -1.4460307333 2.4980985735
C 0.0524456662 -1.7835723193 2.7142021973
O -0.7504598001 -1.8315246067 1.5661164937
C -1.0707611323 -0.5612686435 1.0135781066
C 0.0068518710 -0.0507240875 0.0641433762
H -0.8078631095 2.0217774648 0.2670345412
H -0.2123515302 1.6811538446 -1.3607327394
H 2.1204664174 1.9138906673 -0.5639276903
H 1.5099679070 2.3721349377 1.0289974675
H 2.1951325449 -0.4336299028 0.1213318892
H 2.6486376963 0.1448334639 2.4380396221
H 0.9573975999 0.5697551290 2.7327810102
H 0.0590004107 -2.7971545092 3.1213952212
H -0.3917518318 -1.0802462205 3.4441402745
H -2.0165716334 -0.6847015103 0.4737128656
H -1.2527014890 0.1637472956 1.8238354034
H 0.0268902448 -0.6996465774 -0.8154188608