12

N -0.0621782398 -1.1934227485 -0.0918047433
C -0.0580219836 -0.0388786242 -0.0645463997
C -0.0175085412 1.4174492135 0.0085680921
C -0.1101917138 2.0120443415 1.4612819180
O 1.2204508140 2.5327903196 1.3867807942
C 1.4257005515 2.0396679229 0.0593678246
C -0.9170170443 2.0269211146 -0.9647129485
N -1.6169743074 2.5462598338 -1.7223952962
H -0.8680419857 2.7934770870 1.5700744611
H -0.2279464973 1.2538580251 2.2410860142
H 2.2277259492 1.2980458415 -0.0003253247
H 1.5875401183 2.8376500732 -0.6712748018