15

C -0.0354678740 1.4068208215 0.0735992387
N -0.0133820761 -0.0364534246 0.0393760704
C -1.1961299898 -0.8614808464 0.0452048943
C -0.6415901423 -2.2550526841 0.0018568873
C 0.6970963422 -2.2102704525 -0.0258864322
C 1.6030833587 -3.3006649284 -0.0704446078
N 2.3428585848 -4.1896856300 -0.1067587985
C 1.1511094774 -0.7700517090 -0.0021711350
O 2.2820216336 -0.3415259354 -0.0159652773
H 1.0011881898 1.7478354101 0.0595781021
H -0.5607173187 1.8191026782 -0.7962717849
H -0.5230125611 1.7774704953 0.9832693161
H -1.8092826398 -0.7013385439 0.9455259491
H -1.8460937861 -0.6614989702 -0.8207347966
H -1.2639519686 -3.1390716705 -0.0052341058