16

O -0.2557989102 1.3249190728 0.0640042683
C 0.0541791125 -0.0504908741 -0.0609292946
C 0.8358305061 -0.3013310913 -1.2921556717
N 1.4753026868 -0.4599316908 -2.2415639789
C 0.7840636797 -0.5981040458 1.1518147061
C -0.0135116243 -1.1515149801 2.3271144950
O -1.3961362892 -1.2496625856 2.2251050150
C 0.8011746662 -2.0765368264 1.4550196296
O 0.0503190004 -2.8858663461 0.5836952668
H 0.5706582650 1.8191998011 0.1101273136
H -0.9092170105 -0.5554038938 -0.1596552193
H 1.7036081057 -0.0680969453 1.3877340741
H 0.3184167897 -0.9099322704 3.3322896732
H -1.5739832841 -2.0066648550 1.6483750977
H 1.7259889923 -2.5188473042 1.8160761060
H 0.0267776940 -3.7776026052 0.9466876291