17

C -0.0384615567 1.5668424487 -0.0209895761
C -0.0064674138 0.0582164327 0.0211006897
C -1.2167757808 -0.6739402521 0.6794047141
N -1.0590443696 -2.1182667815 0.4410124180
C -0.3079451691 -1.4819032756 1.5463073977
C 0.9266472406 -0.7910094127 0.9182922278
O 1.4969626886 -1.4395099192 -0.2539456481
C 0.6747400019 -0.7109437519 -1.1051631713
N 0.6150144392 -0.6846165042 -2.3553793601
H 0.9509588404 1.9767602496 -0.2432980154
H -0.7247489430 1.9078764782 -0.8028213591
H -0.3766687715 1.9809294240 0.9349162865
H -2.1826566370 -0.2315983627 0.8899935186
H -1.8606377266 -2.5903753280 0.8575035535
H -0.4184632991 -1.8226645884 2.5678980419
H 1.6831855782 -0.3801970957 1.5858066401
H 1.2688856483 -1.3474834810 -2.7756659978