25

C -0.0387822958 1.5594888490 -0.0047382006
C 0.0360337126 0.0309610676 0.0224830983
C 0.7784405422 -0.5754989281 -1.1899952890
C 1.2912257986 -1.9467677772 -0.7086478637
C 1.5177633925 -1.7903531703 0.7932973053
C 1.6509554796 -3.0568002498 1.6059190561
C 2.2575750101 -0.5377074088 1.2138290952
C 0.7420987879 -0.5623287942 1.2478650695
C 0.0208516803 -0.4709897809 2.5725302956
H 0.9639165640 2.0002021720 0.0295380751
H -0.5291825562 1.9139160645 -0.9179166334
H -0.6049412583 1.9519946912 0.8463740073
H -0.9920109272 -0.3618399520 0.0305486026
H 0.1361985464 -0.6507723063 -2.0720781109
H 1.6181150340 0.0696425166 -1.4722406225
H 0.5287566180 -2.7201369933 -0.8711805726
H 2.1911806862 -2.2710356715 -1.2447238223
H 2.5366749625 -3.6264821967 1.2994755814
H 1.7524196990 -2.8508849508 2.6755725914
H 0.7795328570 -3.7094033315 1.4720940532
H 2.7636702817 -0.5721573065 2.1740677425
H 2.7788085560 0.0608896762 0.4728848612
H -0.1015479829 0.5724066883 2.8864488359
H -0.9806927458 -0.9147540235 2.5123889380
H 0.5653680378 -0.9845404841 3.3702720364