15

C 0.0121340085 1.4942109517 -0.0249193977
C 1.2906705646 0.7334692862 0.0053601030
C 1.8527861105 0.3367215745 1.3522103814
C 1.3875124493 -1.1454518289 1.6171105115
O 1.2272785143 -0.8854985936 3.0443426776
C 0.6946566434 0.3130775776 2.3889524467
C -0.0270388464 -0.5663825053 1.3085941912
N -0.0180733886 0.0198948902 -0.0333992519
H -0.3127966652 2.0213449036 0.8680715682
H -0.3089565417 1.9489574846 -0.9574174293
H 1.9132244727 0.6658657291 -0.8819347706
H 2.8468335589 0.6496517997 1.6653130495
H 1.8415720456 -2.0871483573 1.3088896243
H 0.3168260306 1.1075564936 3.0315868589
H -0.9194186764 -1.1288962357 1.5761922572