21

C -0.2248074878 1.5057741131 -0.1538963458
C 0.0097650182 0.0060998381 -0.0284490858
C 1.3161961886 -0.5161918492 -0.6689334241
O 1.9097637512 -0.7520089511 0.6241182003
C 0.6345094479 -0.5229225762 1.2951053109
C 0.8017618598 0.3446650451 2.5078366274
C 0.1743072042 -0.0655961398 3.8301856397
C 1.6476419105 -0.2334050008 3.6201808200
O 2.1333538851 -1.5360368090 3.4826724755
H 0.6792670337 2.0759031249 0.0836892780
H -0.5164229028 1.7614116580 -1.1781364920
H -1.0234962499 1.8432677509 0.5145871115
H -0.8890577081 -0.5388447200 -0.3279239534
H 1.2092752068 -1.4435598528 -1.2471834574
H 1.8939626421 0.2069110759 -1.2574545281
H 0.2026881172 -1.4878324832 1.5887975977
H 0.9200512930 1.4067579914 2.3207800420
H -0.1742763618 0.7116055153 4.5007769493
H -0.4173676915 -0.9747734832 3.8355042042
H 2.3147410505 0.4501432899 4.1448166684
H 2.6361440128 -1.5670541173 2.6586826717