19

O -0.2827102106 0.0776857076 -0.0615374408
C -0.0795724937 1.2612152301 0.0173455671
C 1.2818958700 1.9214762307 -0.0196290533
C 1.4013065671 2.8069574095 -1.2787054093
C 2.8096482052 3.4068237150 -1.3907211909
C 3.2255111407 4.1192707312 -0.1248661282
O 2.2499729562 4.9890809499 0.4568428624
C 2.5933083626 3.7882422199 1.1628487536
C 1.4990601124 2.7416109237 1.2732892397
H -0.9256983703 1.9835791365 0.1209319151
H 2.0259922025 1.1193501772 -0.0789080604
H 1.1823409752 2.2135928190 -2.1721714956
H 0.6634842810 3.6155252173 -1.2334914151
H 3.5418182123 2.6152414466 -1.5981000469
H 2.8554005198 4.1056337309 -2.2344205457
H 4.2407169973 4.5184782757 -0.1165290692
H 3.1582573841 3.9710566683 2.0771456498
H 0.5708242492 3.2604808621 1.5486244708
H 1.7316368591 2.0613906489 2.0994038167