19

C 0.0344708747 1.5696467605 0.0479378275
C 0.0117700601 0.0448308768 0.0415750198
O 0.6928343631 -0.4721106547 1.1875923524
C 2.0263770943 -0.6541531718 1.0885104922
N 2.6912808775 -1.0102591340 2.0982162886
C -1.4125309859 -0.5550007667 0.0541424066
C -1.4000843286 -2.0946304716 0.0306533342
C -2.1926303475 -0.0566701789 1.1934195876
N -2.8260459243 0.3343492795 2.0771028227
H 1.0645134999 1.9347642406 0.0072236185
H -0.5022348136 1.9671375173 -0.8192756291
H -0.4327956112 1.9544620264 0.9579012088
H 0.5014535862 -0.3335751552 -0.8674439711
H 2.4169721117 -0.4768072489 0.0760167309
H 3.6712379145 -1.1246743116 1.8484098865
H -1.9102463498 -0.1881535496 -0.8525360742
H -0.8967174689 -2.4845299870 0.9166481846
H -2.4184561382 -2.4881188193 0.0027186095
H -0.8690171440 -2.4469114119 -0.8588161861