18

C -0.5813095193 1.3561555843 0.4637746492
C -0.0273825567 -0.0032295651 0.1226959594
N 1.3568324717 -0.0580184042 -0.3561739539
C 1.0239844583 -0.6782788148 0.9530214140
C 1.5818409016 -0.0834502044 2.1361983059
C 2.0332089420 0.3890132091 3.1471868023
C 2.5983697710 0.9703897899 4.3659768927
C 1.6083683666 1.6319826854 5.2190002655
C 0.8066512038 2.1777946869 5.9265156791
H 0.1769183629 1.9656525271 0.9595007633
H -0.9041746393 1.8768093834 -0.4438736624
H -1.4446061644 1.2653323683 1.1312019185
H -0.7379666136 -0.6854381082 -0.3435276520
H 1.4692147470 -0.7902205914 -1.0528634618
H 0.9740244878 -1.7652619582 0.9808787722
H 3.1069692668 0.1864239486 4.9442527897
H 3.3825261991 1.6915391033 4.0963237615
H 0.0938136448 2.6596305000 6.5486011668