16

O 0.2135758915 -0.0823273769 0.5433107058
C -0.0004142100 1.0491536506 0.1921955807
C 1.1305214376 1.8948955825 -0.2659165580
N 2.0097390517 2.5630125021 -0.6093214184
C -1.3488173341 1.7441937925 0.1620232056
C -1.7382075246 2.1035248259 -1.3154908418
C -2.8360076562 1.1164830532 -1.6259738569
C -3.2357974103 0.4409004638 -0.5521047910
C -2.4821977933 0.8323245104 0.6949027466
H -1.2308232734 2.6605480403 0.7503489077
H -2.0918387006 3.1392804276 -1.3856913651
H -0.8888026066 2.0297224908 -2.0052529730
H -3.2453400445 1.0138150920 -2.6243335676
H -4.0248246029 -0.3021009035 -0.5378043770
H -2.0737506237 -0.0307340326 1.2291921429
H -3.1264162906 1.3719910011 1.4000096394