21

O -0.0036662177 1.4062746619 -0.2078216890
C 0.0441252923 -0.0119865012 -0.2533891020
C -1.3556795111 -0.5380462840 0.0347546684
C -1.4316774069 -2.0662657939 0.0174072999
C -2.8544353456 -2.5857063565 0.3067127843
C -2.9525742530 -4.0404468464 0.2938568239
C -3.0056843338 -5.2429720575 0.2708143262
C -3.0815848691 -6.6977300584 0.2703209854
O -3.1701014225 -7.1752356590 -1.0682895664
H 0.8772299537 1.7430221287 -0.3950523645
H 0.3786505575 -0.3685892747 -1.2415245052
H 0.7518241252 -0.4114408110 0.4918570922
H -1.6761297148 -0.1529451336 1.0109544977
H -2.0441200541 -0.1154621988 -0.7077087209
H -1.1073816594 -2.4507626606 -0.9568840613
H -0.7433833252 -2.4877962807 0.7598383709
H -3.1889082134 -2.2062721540 1.2817074113
H -3.5513763548 -2.1669809044 -0.4315442005
H -2.1923739039 -7.1065055683 0.7782310355
H -3.9566198539 -7.0134149333 0.8622033545
H -3.2234757894 -8.1354934043 -1.0254429702