19

C -0.1003142557 1.4674985360 -0.0237489788
C -0.0158911940 0.0160143636 -0.0097798909
C 0.0723046115 -1.1882309659 -0.0011452055
C 0.1040535972 -2.5996182556 0.0274247274
C 1.1334615529 -3.4263850102 -0.1871078941
C 0.6982133441 -4.8582951049 -0.0504831103
C 1.4706214125 -5.6661371934 0.9934788884
O -0.6830405413 -4.7795429444 0.3226308609
C -1.1309949665 -3.4330102170 0.3133378628
H 0.4771202940 1.9063184938 0.7979999459
H 0.2925448094 1.8796007797 -0.9600994933
H -1.1366592777 1.8067757408 0.0805418769
H 2.1463444120 -3.1336437562 -0.4300890040
H 0.7747899692 -5.3802119561 -1.0210483846
H 1.4414453677 -5.1634862861 1.9644312418
H 1.0255515831 -6.6593777293 1.1001444333
H 2.5159188752 -5.7877832799 0.6904554968
H -1.5855062032 -3.1804107948 1.2818967345
H -1.9009160207 -3.2836718602 -0.4601649273