23

C 0.2597327584 1.6085849169 0.0326198300
C -0.0232201027 0.1101135465 -0.0258206035
C 0.6158313469 -0.5407998030 -1.2626559413
C 0.1886397037 -1.9909940419 -1.5616195091
C 0.2418355661 -2.9576651049 -0.3694312141
C -0.7455603670 -2.5836589254 0.7743527016
C 0.4069243497 -1.7983667207 1.4590290004
C 1.4019171693 -2.6617467674 0.6267733411
O 0.4618374966 -0.4066614591 1.2128761663
H 1.3385421404 1.7945125404 0.0337541971
H -0.1819836548 2.1201458663 -0.8276240489
H -0.1599407880 2.0351467959 0.9472327896
H -1.1148325057 -0.0328027224 -0.0783544562
H 0.3657927723 0.0759619430 -2.1342849924
H 1.7049092101 -0.4790722650 -1.1491041833
H -0.8344007923 -1.9928133519 -1.9621383743
H 0.8294740318 -2.3745381593 -2.3651960078
H 0.1690520013 -3.9866841690 -0.7331344397
H -1.6645263144 -2.0500363980 0.5197888956
H -1.0112877342 -3.4574041571 1.3758870617
H 0.4843387197 -1.8890857455 2.5456045628
H 1.6970027079 -3.5569849810 1.1820002606
H 2.3012713548 -2.1649163575 0.2562413037