17

C 0.1568236953 1.5556143984 0.0740269133
C 0.0205365468 0.0546442598 0.1596132268
O -0.0418077462 -0.5564916367 1.1980762883
C -0.0647811394 -0.6825625971 -1.1920662087
C -0.7008217401 -2.0930702429 -1.1374339160
C -1.8473484716 -1.4546884175 -1.9447074316
O -1.1579911245 -0.1770775857 -1.9976641726
C 1.2421572630 -0.6216423680 -1.9677500869
O 2.3200286330 -0.4122331322 -1.4766404662
H 1.1677320230 1.7973712616 -0.2729368486
H -0.5504908715 1.9596017621 -0.6557899871
H -0.0041993464 2.0001914480 1.0565008167
H -0.1452817630 -2.8756310872 -1.6566682718
H -0.9251906450 -2.4098049011 -0.1199550155
H -2.0108893190 -1.8591540412 -2.9486830386
H -2.8089608431 -1.3713537211 -1.4271476828
H 1.1044040888 -0.7999707793 -3.0581877889