21

C -0.2355117496 1.5648419363 -0.0419605617
C 0.0304387671 0.0659786356 -0.0247272841
C 1.1903931928 -0.5206908531 -0.8981935426
C 1.6494391773 -1.4237122845 0.2915949925
C 2.8960499634 -0.9302062823 1.0738372808
C 1.9619030081 -0.0443615377 1.9347050042
O 1.5154471820 -0.6952130763 3.1479177716
C 0.2262741687 -1.0257480811 2.5695479587
C 0.6958828425 -0.5717631583 1.1957874168
H 0.6767321745 2.1301283657 0.1785447421
H -0.5997572516 1.8898031140 -1.0226429948
H -0.9895713268 1.8459063999 0.7017506543
H -0.8969303497 -0.4759461726 -0.2508748460
H 0.8808473136 -1.0471249759 -1.8035079979
H 1.9381161624 0.2289761804 -1.1773523496
H 1.5109754812 -2.4966112447 0.1461874400
H 3.4000453384 -1.6910875449 1.6748427160
H 3.6405701526 -0.3974112737 0.4734160968
H 2.2148859298 1.0075221883 2.1039199154
H -0.0283548031 -2.0861830734 2.6918461393
H -0.5747483038 -0.4136796717 3.0099174281