19

C 0.0359361934 1.5283137333 -0.0275401101
C -0.0047166498 0.0351414287 -0.0434959827
C -1.0385115177 -0.7776032357 0.1476228036
C -0.6047458076 -2.2282668678 0.0638485764
C -1.3549544690 -3.0360787809 -1.0056743877
O 0.7815632975 -2.1493377899 -0.3201977570
C 1.2294084475 -0.8006660153 -0.2721785821
C -0.7276793792 -2.8869825477 1.3776837282
C -0.8457696718 -3.4212816462 2.4481294689
H 0.7242513066 1.8949677275 0.7443282888
H 0.3978749539 1.9255810021 -0.9839620196
H -0.9509162510 1.9547695573 0.1676768475
H -2.0607884657 -0.4959751402 0.3648283615
H -1.2671464037 -2.5301631077 -1.9705599625
H -0.9227551142 -4.0366042208 -1.0854579092
H -2.4123887916 -3.1333985455 -0.7439049995
H 1.7373464474 -0.5568546891 -1.2171654066
H 1.9661413396 -0.6615883742 0.5368996313
H -0.9392433446 -3.8929416878 3.3950921806