24

C 1.3913641456 1.2553236066 -0.2544300793
C 0.9073309356 -0.1658530317 -0.0664488978
N 1.8223964935 -1.2937446342 0.1399827948
C 3.2699548531 -1.1043915850 0.2008815677
C 3.9074086375 -2.4768445294 0.4384987702
O 3.4748135339 -3.4097518955 -0.5265925410
C 0.9217380021 -0.9035913315 1.2402288016
C 1.4559661363 -0.2551659894 2.5040276431
C -0.1786031521 -1.9148846380 1.5088703002
H 2.1964450605 1.5339485232 0.4276905211
H 1.7576968714 1.4017612937 -1.2765720006
H 0.5636737298 1.9558939311 -0.1002325882
H 0.0906053421 -0.4166022588 -0.7456530972
H 3.5988105754 -0.7248306769 -0.7735896909
H 3.6131670340 -0.3977125320 0.9694700918
H 4.9983928083 -2.4020130266 0.3676361727
H 3.6659261108 -2.8144446468 1.4619029261
H 2.5304035591 -3.2213734822 -0.6302828801
H 2.1895245283 0.5311059418 2.3223576399
H 0.6291045093 0.1924993743 3.0657225393
H 1.9220558558 -1.0056831157 3.1532033560
H 0.1753270956 -2.7065849178 2.1795133098
H -1.0434284878 -1.4368063240 1.9830015514
H -0.5074020280 -2.3837819853 0.5783492994