11

C 0.0139641441 -1.2090134140 -0.0043664245
C -0.0231269519 -0.0082737704 0.0024526212
C -0.0267902510 1.4476883224 0.0104575370
C 1.4150843433 2.0196074202 -0.0010831179
C 1.4242775406 3.4802058207 0.0070710508
N 1.4102666456 4.6355193332 0.0132667559
H 0.0279696567 -2.2709875859 -0.0101200379
H -0.5719944186 1.8302342299 -0.8595268284
H -0.5541016138 1.8206362826 0.8955028078
H 1.9658542290 1.6530724429 0.8707455999
H 1.9479064460 1.6627975984 -0.8879864039