16

O 0.0414629056 0.0194651740 0.0992523434
C 0.0073277002 1.2161213762 -0.0247714375
C -1.2736430490 2.0487763857 -0.2229128016
C -0.8044942413 3.3301664669 -0.9620814982
C -1.5772226787 4.5239386808 -0.6177350787
N -2.1848551097 5.4656304057 -0.3352380315
C 0.6932654084 3.4672837158 -0.6343384753
C 1.0799785318 3.3801338540 0.8016442544
C 1.1811477009 2.1393594372 -0.0803468682
H -2.0169305339 1.4792696304 -0.7813209406
H -1.7096155428 2.2810475536 0.7540358210
H -0.9055660080 3.1714138838 -2.0415438098
H 1.3039849169 4.0455627460 -1.3163901134
H 2.0240954004 3.8252884723 1.0923778914
H 0.3151528193 3.4210457338 1.5697403939
H 2.1553044701 1.7225157937 -0.2999418893