18

O -0.4055213956 0.4443096565 -0.7013473108
C 0.1165741225 0.9857241421 0.2372991495
C 1.2835520581 1.9655786753 0.1368645970
C 1.3508418682 2.6968925736 -1.1903710712
C 1.4250285150 4.0271634926 -1.1579422841
C 1.4164053131 4.6976707274 0.2034266571
C 2.3658144154 3.8901420080 1.1276469054
N 1.2676547740 2.8684210439 1.3074741059
C 0.3058522532 4.0061565638 1.0362083881
H -0.1979212697 0.7927199075 1.2871658322
H 2.1743284229 1.3222882713 0.2493647438
H 1.3202864528 2.1158788732 -2.1048377837
H 1.4752533404 4.6290566325 -2.0592694308
H 1.4800393869 5.7865756620 0.1655568131
H 3.2955938649 3.5072783233 0.6995606075
H 2.5661605112 4.3765934516 2.0869104744
H 0.0794396150 4.5101858946 1.9800190266
H -0.6207267784 3.7320393807 0.5252331698