21

C -0.0826937551 1.5169766496 -0.0062694185
C -0.0025194924 0.0148339568 -0.0164770280
C -0.8224698583 -0.8385911109 0.8954723541
O -1.6593793880 -1.8514402248 0.4020778902
C 0.6675255326 -0.9750410865 0.9851606742
C 1.1891603573 -1.8264516133 -0.1775163114
C 0.5921019405 -0.7925945077 -1.1880865834
C -0.3070312245 -1.2665530222 -2.3246804433
O 0.4379206621 -1.9329544922 -3.3409010604
H 0.8720689402 1.9673373320 -0.3006686665
H -0.8475684851 1.8774912562 -0.7050101309
H -0.3402286980 1.8986681355 0.9871233273
H -1.2620022184 -0.2730808544 1.7192369474
H -1.6761078704 -2.5635332280 1.0509481569
H 1.2081907559 -0.7635886947 1.9014982788
H 2.2777674984 -1.8881635327 -0.2205959680
H 0.7760017034 -2.8402853285 -0.2264181098
H 1.4124990254 -0.2186872356 -1.6329148444
H -1.1155659621 -1.8963306166 -1.9365592160
H -0.7667667049 -0.4014851203 -2.8166402561
H 0.7643168814 -2.7559684818 -2.9639571823