18

C 0.3101602969 1.4318432050 -0.1599904236
C -0.1386838838 -0.0173546072 0.0354546350
O -1.5536447144 -0.1161674537 0.0952686446
C 0.4764590208 -0.9471019729 -1.0331766966
O 1.7822827800 -1.2423864449 -0.5513643784
C 1.6694130148 -1.4531269234 0.8526343598
C 0.4348920849 -0.6387960278 1.3326353222
C 1.5368308370 -2.8936556884 1.1540906487
N 1.4355522247 -4.0195674788 1.3935568162
H 1.4009458412 1.4948548271 -0.2182245699
H -0.0947535659 1.8400930796 -1.0942032876
H -0.0359308247 2.0573011594 0.6678045892
H -1.9240299844 0.4076065170 -0.6228495819
H -0.1385380386 -1.8542894616 -1.1216908913
H 0.5892669457 -0.4876001911 -2.0184937954
H 2.6016364198 -1.1044886604 1.3065653600
H 0.7182402701 0.1166119214 2.0670909998
H -0.3238650940 -1.2836537292 1.7772432393