19

N 0.0158546392 1.4377629605 0.1507447960
C -0.0017432457 0.0297870686 0.0278588075
C -1.1071533816 -0.7938023415 -0.0217009586
C -2.6037683952 -0.7672839249 0.0263406816
C -2.9646216332 -2.2233726871 -0.3903381934
C -1.7313313970 -3.0755725125 -0.0027870804
N -0.6600001550 -2.0996353726 -0.0666778239
C 0.7005297636 -2.1342939670 -0.0351618861
C 1.1427337613 -0.8243081518 0.0155753488
H 0.8205141171 1.8421733742 -0.3129200120
H -0.8168728480 1.8630692972 -0.2387574152
H -2.9817122133 -0.5435253973 1.0340402072
H -3.0581190486 -0.0335668161 -0.6487466749
H -3.8803071514 -2.5878182926 0.0804880529
H -3.1061061687 -2.2674184602 -1.4741801827
H -1.8265637941 -3.4872066145 1.0114472744
H -1.5588839746 -3.9095630208 -0.6899221618
H 1.2483658228 -3.0623302702 -0.0683739486
H 2.1749365626 -0.5053189416 0.0279061390