16

C -0.0377174079 1.5211457574 -0.0508114643
C 0.0036882764 -0.0021852051 0.0129806771
C 0.6330322715 -0.5379904664 1.2907869509
O -1.3455701349 -0.5315799543 -0.0212099744
C -1.9097410720 -0.6550698684 -1.2462305522
N -3.1982690161 -1.0982478353 -1.1189981195
O -1.3701311151 -0.3889746991 -2.2961269989
H 0.9778347486 1.9271218127 -0.0053170487
H -0.4962367047 1.8489950797 -0.9860776198
H -0.6093405495 1.9272133730 0.7900549707
H 0.5280909768 -0.3877020114 -0.8657717694
H 0.0880143953 -0.1829577377 2.1712914798
H 0.6257238763 -1.6313101324 1.2988716857
H 1.6700145647 -0.1986064941 1.3692135600
H -3.4810989172 -1.5101187023 -0.2459190308
H -3.6328140720 -1.4348818762 -1.9609389260