20

C 0.0248170100 1.4595140839 0.1552325000
N 0.0144987806 0.0071936513 0.1082804335
C -1.0731466837 -0.6123681923 -0.0619317422
C -1.1147149286 -2.1248912502 -0.0574596717
C -2.0954563672 -2.7051592843 -1.0837323495
O -2.2844543181 -4.0995304083 -0.9101942647
C -3.4445371983 -2.0215715502 -0.9048718184
C -3.2713082976 -0.5138828520 -1.0391200595
O -2.2855227333 0.0250443907 -0.1468545079
H 0.9046851861 1.8221856862 -0.3860760387
H -0.8749572138 1.9294523518 -0.2565053327
H 0.1351850039 1.7885124527 1.1961230545
H -0.0959054282 -2.4902145415 -0.2063166146
H -1.4494615243 -2.4581187096 0.9343156691
H -1.7229619075 -2.4928685708 -2.1007820410
H -1.4273951389 -4.5306293870 -0.9924898232
H -4.1599422189 -2.3775754533 -1.6530404562
H -3.8426144489 -2.2742027107 0.0845158328
H -2.9908819672 -0.2544765393 -2.0701173190
H -4.1959288863 0.0162875830 -0.8001704906