17

O -0.0467261976 1.3528432130 0.0104148771
C 0.0655799433 -0.0338896273 -0.0320560548
C 1.0631471809 -0.6727197543 -0.9964388589
O 0.4191722220 -1.8154997394 -1.5594812046
C -0.7130736095 -2.1612533904 -0.7600126104
C -0.2849590586 -3.0232296063 0.4349767114
O 0.2773371813 -2.0967032270 1.3764535246
C -0.3518178216 -0.8548201175 1.1734264367
C -1.1863241827 -0.8715995430 -0.0783163096
H 0.6308229456 1.6916497172 0.6057241933
H 1.3008297750 0.0354872370 -1.7975419657
H 1.9920547572 -0.9735246425 -0.4935869072
H -1.4502840600 -2.6457758830 -1.4033807200
H -1.1499334774 -3.5403536635 0.8775576489
H 0.4829045651 -3.7533124927 0.1695410570
H -0.6667896036 -0.3456372872 2.0789293031
H -2.1844623093 -0.4661626831 -0.1708768008