19

C 0.6131909108 1.1132346603 -0.2773486649
O 0.6321740605 -0.2766300959 0.0128975084
C 0.3959878164 -0.5874946866 1.3534667824
C 0.2481344155 -2.1247648461 1.4591262566
N 1.4630260784 -2.8083227343 1.8978741964
C 2.6569030003 -2.0695700498 1.4838252309
C 2.6713495253 -0.6901976276 2.1004851129
N 3.7135731554 -0.1594477762 2.5795013162
O 1.4385058618 -0.0858049304 2.1972985782
H 1.4189631551 1.6464556639 0.2387680737
H 0.7459633890 1.2113634093 -1.3563034993
H -0.3488613141 1.5618557499 0.0099022426
H -0.4972014721 -0.0594122255 1.7142579904
H -0.5643321068 -2.3681814103 2.1480151643
H -0.0408773896 -2.4774881179 0.4625528048
H 1.4635854041 -2.8788979238 2.9101097813
H 3.5640608314 -2.5936824908 1.7873369127
H 2.6559678860 -1.9925860815 0.3906674339
H 3.4956740624 0.7612757233 2.9683252684