15

C 1.0377647318 1.2951877389 0.5208273922
O 0.4945391105 0.0438445246 0.1185746484
C 0.2365857027 -0.8608500106 1.1740268096
C -1.2658616278 -1.0716107270 1.3531006917
O -1.7514733363 -1.5320678547 2.3493374631
C 0.9419024592 -2.1609187459 0.7617598387
O 0.3934143953 -3.1918166102 0.4696870037
C 2.4756397741 -2.0836855110 0.7007112843
O 3.1150004030 -1.1916701773 1.1915785207
H 2.0244984503 1.1648001970 0.9795514497
H 1.1334215099 1.8974308194 -0.3848557853
H 0.3721372781 1.8121160320 1.2254415124
H 0.6655991594 -0.5250535414 2.1264682443
H -1.8654162070 -0.7540290101 0.4733600881
H 2.9309879567 -2.9687758637 0.2105949785