18

O 0.0650243769 1.4915448942 -0.0589966160
C 0.0191899100 0.0879724530 0.0339664853
C 0.1385919244 -0.6292935344 1.4146654778
C -0.9240079438 0.1253360888 2.2370293005
C -2.1133742851 -0.3304407568 1.3640056383
C -2.0824445496 -1.8664743743 1.5851517000
C -0.7690563261 -1.7797424640 0.7947183942
C -1.3533846631 -0.5687219057 -0.0146721237
H 0.9851844916 1.7706140076 -0.0127089705
H 0.6803945100 -0.3842577673 -0.7075489493
H 1.1067369028 -0.8382697179 1.8699029616
H -1.0105794991 -0.2174364847 3.2718394319
H -0.7550313416 1.2035421143 2.2237395344
H -3.0401434110 0.2390487418 1.4135866290
H -2.0782837185 -2.2387516811 2.6151625043
H -2.8480019880 -2.3921838121 1.0064643035
H -0.2727167183 -2.6309008316 0.3312030279
H -1.9488798714 -0.6743724199 -0.9201523394