19

C -0.6281289596 1.2241485560 0.4762480020
C 0.1817360318 0.0455739726 -0.0011420399
O 1.4358506512 0.3180806876 -0.6370950068
C 1.4478284550 -0.3989224118 0.6076486661
C 2.1089978954 0.2879753883 1.7574477713
C 2.0495471892 -0.1863621333 3.2048803285
C 2.1655051018 -1.7057146533 3.2683884443
O 3.3406428033 -1.6910486246 2.4110959868
C 3.3396051085 -0.2599095464 2.4200160723
H -0.0159717225 1.9439301682 1.0232690698
H -1.0816153825 1.7418690694 -0.3754669530
H -1.4381334973 0.8872681024 1.1324326589
H -0.4040458686 -0.7200861652 -0.5157302973
H 1.7174351556 -1.4495604583 0.5060609462
H 2.1194323338 1.3717418496 1.6852926632
H 1.7502401550 0.4600787073 4.0185973455
H 2.4309150941 -2.0744913909 4.2652195244
H 1.3503303423 -2.3108880416 2.8558984429
H 4.2943343534 0.2461841740 2.5045781247