19

O -0.1577330651 1.5123690037 0.0450032309
C 0.0098862742 0.1015788013 0.1536699131
C -1.3783501051 -0.5052864062 -0.0110635796
O -2.2455577585 0.0327743493 0.9550800582
C -1.8796415430 -0.5099050054 -1.4883753983
C -1.4264752276 -2.0003248393 -1.6075126556
C -1.3723256612 -2.0483883702 -0.0474132357
C -2.3953447045 -2.9358133558 -2.2710304076
O -2.1400487985 -3.6717677763 -3.1893373682
H 0.6490008175 1.9453306054 0.3371721838
H 0.6993801982 -0.2812420706 -0.6129003295
H 0.4011589980 -0.1762985105 1.1433393650
H -2.0344710526 0.9746881778 1.0078200745
H -2.9695169389 -0.4205498742 -1.5057365947
H -1.4433465265 0.2061280541 -2.1868755477
H -0.4460970884 -2.1132825807 -2.0737656387
H -0.5318594970 -2.5750512409 0.4117200922
H -2.3068233590 -2.4272189397 0.3768922540
H -3.4229559821 -2.8967590516 -1.8334080861