23

C -0.0783758173 1.5896886018 0.1521125580
C -0.0762660770 0.0841783101 -0.1176031589
O 0.9551903651 -0.5710801995 0.6137096495
C -1.4571229881 -0.5488543799 0.1480960797
C -1.4744152546 -2.0410230438 0.0062396349
C -1.8300427334 -2.9272993222 0.9388073664
C -1.6892847578 -4.3561583311 0.4736948950
C -1.4894573800 -4.2022036367 -1.0565508158
C -1.0217818742 -2.7399381455 -1.2618466025
H 0.9132514413 2.0084940469 -0.0383815088
H -0.8040727662 2.1070039833 -0.4846191708
H -0.3407966782 1.7964966658 1.1968722739
H 0.1901927223 -0.0855364293 -1.1680799012
H 0.6703807610 -0.6351775401 1.5319865517
H -1.7905100537 -0.2689991206 1.1574001710
H -2.1733192406 -0.0922992500 -0.5507745000
H -2.1536896408 -2.6677203573 1.9422937387
H -0.8234976662 -4.8369507397 0.9520200191
H -2.5575336530 -4.9776739144 0.7217927547
H -0.7905761051 -4.9335307582 -1.4703708078
H -2.4488629060 -4.3506851841 -1.5626214705
H -1.4404859387 -2.2881838576 -2.1697464578
H 0.0705108814 -2.6684769279 -1.3551501587