19

C 0.2165730199 1.5028726738 -0.0561480059
O -0.3176458696 0.2775004960 -0.5163919393
C 0.5901713765 -0.4803880698 -1.2614831424
C 1.6684408361 -1.3069630344 -0.5195086117
O 1.2339522380 -2.5094246798 -1.1885444965
C 0.0581986449 -1.8704245027 -1.6964116853
C -1.2291429155 -2.3027482799 -0.9805739858
C -2.5119389347 -1.7581247400 -1.5749956568
O -1.1950234802 -3.0220995011 -0.0141512526
H 1.0618749521 1.3475867356 0.6294121703
H 0.5568207431 2.1313563606 -0.8931047183
H -0.5810445774 2.0213116835 0.4794719344
H 0.9984415886 0.1084421233 -2.0950596587
H 2.7181233416 -1.0769822762 -0.7291718723
H 1.4998334377 -1.3569808652 0.5634946400
H -0.0549046590 -2.0172257877 -2.7785378769
H -2.6154621172 -2.0667014080 -2.6215103458
H -3.3665116527 -2.1169515343 -1.0001384518
H -2.4808306921 -0.6636924336 -1.5549394247