19

C -0.0394542984 1.3946851910 -0.0622725001
O -0.0790026445 -0.0218112503 0.1349881977
C -1.2938597271 -0.5682562535 0.0991647665
N -2.4010583087 0.0417623145 -0.0950732652
C -3.4452899695 -1.0001732495 -0.0552455175
C -4.4042183319 -0.7975078267 -1.2279013613
O -4.9509963553 0.5021600925 -1.2104520919
C -2.6824152630 -2.3578423322 -0.0680355471
N -1.3365516133 -1.9320492631 0.3349571231
H 1.0129912510 1.6726644920 -0.0010514600
H -0.4496178044 1.6581834291 -1.0409272331
H -0.6181672555 1.9054309243 0.7115616523
H -4.0171523647 -0.8882255806 0.8759209664
H -3.8588898448 -0.9958553880 -2.1673900711
H -5.2399412517 -1.5052283167 -1.1718714447
H -4.2011239147 1.0868517550 -1.0366503147
H -3.0970575106 -3.0874355034 0.6316626041
H -2.6827241681 -2.8039905189 -1.0738911646
H -0.5378075249 -2.4724163555 0.0356095812