22

C 0.3073483147 0.8124521398 0.7588945183
C -0.3588405313 0.4319252813 -0.5661927122
N -1.6128110890 -0.2850186820 -0.3923616649
C -1.6796183339 -1.6482274850 -0.4192924959
O -0.6975013689 -2.3423773258 -0.6448350984
C -3.0394753177 -2.2548780054 -0.1701158460
C -4.2238198561 -1.3476773989 0.1019570400
C -3.2837301021 -3.5460558100 -0.9360871573
C -2.9912032634 -3.6043224752 0.5295977078
H 1.2414242138 1.3536103621 0.5762466621
H -0.3425080570 1.4556206575 1.3622382695
H 0.5372857328 -0.0849958220 1.3397336101
H -0.5514345378 1.3273916581 -1.1681216246
H 0.2960728229 -0.2265938241 -1.1403242900
H -2.4304674359 0.2410453136 -0.1366436756
H -4.4183051549 -0.6658934722 -0.7347478203
H -5.1311900186 -1.9400063530 0.2501874063
H -4.0825241128 -0.7483178919 1.0100117263
H -4.2972695234 -3.7312183067 -1.2751836596
H -2.4956394400 -3.8578710041 -1.6101943647
H -2.0099791823 -3.9556976426 0.8242111916
H -3.7997722692 -3.8316678735 1.2160317077