21

C 0.0000083963 1.5082640218 0.0003678516
C -0.0079983479 -0.0204373839 -0.0071456046
C -1.4203683358 -0.6309054519 0.0819864887
O -1.2692539395 -1.8561456788 0.7815062589
C -0.3553538009 -1.5796789091 1.8355022746
C 0.7198523887 -0.6676543053 1.2216354779
C 1.9191247691 -1.4078050364 0.5876323806
O 2.1134029805 -0.8233433440 -0.6902996964
C 0.8087264769 -0.5914550703 -1.1926885825
H 1.0233531570 1.8877808556 -0.0816471023
H -0.5750176226 1.9127699899 -0.8407064652
H -0.4363110498 1.9050689906 0.9234010836
H -2.0994717752 0.0473780136 0.6260414552
H -1.8654921365 -0.8530151745 -0.8927588239
H -0.8699247922 -1.0714572655 2.6672231337
H 0.0305838701 -2.5351905239 2.2031794572
H 1.0602691131 0.0888559672 1.9323936092
H 2.8500581495 -1.3036289550 1.1507960083
H 1.6906071410 -2.4820838452 0.4874835885
H 0.3581226539 -1.5342926331 -1.5436952327
H 0.8901048443 0.0967787983 -2.0385808704