20

O -0.0804979825 1.4098750928 0.0083881782
C 0.0242533360 -0.0073694873 -0.0216780566
C 0.7906694850 -0.5458312303 1.2060758093
C 0.7444909185 -2.0779764272 1.3039439088
C -0.7016320580 -2.5925027554 1.2922080949
C -1.4659186660 -2.0797911465 0.0633581026
C -1.4166736292 -0.5492744282 -0.0334261253
C 0.7293948361 -0.4142306400 -1.2639481139
N 1.3026292362 -0.7131061402 -2.2225141394
H 0.8094292129 1.7811418849 0.0207238783
H 1.8266768531 -0.1882974456 1.1757811302
H 0.3142213828 -0.0922146100 2.0832155509
H 1.2966591289 -2.5132301300 0.4615122661
H 1.2607417579 -2.3992465632 2.2145104656
H -0.7112946023 -3.6873348121 1.3116821305
H -1.2138702298 -2.2576488062 2.2046729478
H -1.0341248696 -2.5167377933 -0.8460486911
H -2.5106895644 -2.4052582162 0.0987125913
H -1.9175324919 -0.0936936871 0.8288226005
H -1.9253133436 -0.1872563390 -0.9312302685