14

O -0.4860891850 0.7122427838 -0.7722295345
C 0.1332446875 0.9977668717 0.2182471805
C 1.3296732741 1.9438749291 0.1935087349
C 1.5281797927 2.6348712436 -1.1636197134
N 2.5226671285 3.6963219943 -1.1141921728
C 2.6844844356 4.2886241134 -0.0195973839
O 2.0121443397 4.0717456921 1.1739748737
C 1.2463928548 2.9433383201 1.3355209888
O 0.6104501710 2.8052996692 2.3378737952
H -0.1196803057 0.5876744822 1.2141730757
H 2.2168070165 1.3287665599 0.4191529559
H 1.8262337670 1.9017156604 -1.9154354803
H 0.5772069682 3.0553109098 -1.5136278786
H 3.3919086549 5.1020417504 0.1099575988