20

C 0.0192884622 1.4416697407 0.2887376106
C -0.0762094729 -0.0215380635 -0.1506895696
C -1.4617974460 -0.6034744374 0.0842887498
O -1.4627958999 -1.9560565049 -0.3683024143
C -2.6853483500 -2.5983472343 -0.1821012655
C -2.6575151233 -4.1043195861 -0.5605116797
N -3.0703915210 -4.3900310987 0.8184113123
C -3.0067682894 -3.0942835121 1.2683094745
O -3.1276399612 -2.5904974293 2.3536385496
H 1.0237545524 1.8381613300 0.1155652677
H -0.6862390472 2.0719994227 -0.2638531095
H -0.2030385975 1.5525532954 1.3555460067
H 0.1683811834 -0.1172531786 -1.2149821948
H 0.6538197169 -0.6303161745 0.3947764010
H -1.7300886160 -0.5637498716 1.1485155737
H -2.2226957304 -0.0282810329 -0.4708137871
H -3.5183435340 -2.0376195303 -0.6324639023
H -3.3715338371 -4.4253499671 -1.3240615112
H -1.6499839662 -4.4479330428 -0.8111613774
H -3.1728477429 -5.2612196347 1.3177404253