17

C 0.3988406824 1.5777010526 0.1837237977
C 0.1492382363 0.0865683504 0.0204855635
C 1.0576353634 -0.7296070285 -0.9594277698
O 2.1356798636 0.0249460814 -1.4464809470
C 1.3722540399 -1.7538145987 0.1941065047
C 0.5600195054 -0.8643295736 1.1659982358
O 1.8042379546 -0.4599923716 1.8281572454
C 2.5592262642 -1.2880235933 1.0261547915
O 3.7311782132 -1.4760767014 1.0734118861
H 1.4342890078 1.7735790198 0.4650570704
H 0.1944916818 2.1070990941 -0.7512714229
H -0.2540222886 1.9910839746 0.9594344266
H -0.9003771522 -0.1016928850 -0.2298895360
H 0.4933263455 -1.1999894498 -1.7748970315
H 2.7819009082 -0.5676872595 -1.8453679717
H 1.2394748734 -2.8187405396 0.0184552995
H -0.1694586689 -1.2172182318 1.8930593277