18

O 0.1252269058 1.4113582057 -0.0042848811
C -0.0361459041 0.0234648991 -0.2604650058
C -1.4531113154 -0.4251993777 -0.0389621290
C -1.9418886537 -0.9524288961 1.2567483993
N -1.8225117099 -1.8953302722 0.1261155027
C -3.0257477979 -1.6247863746 -0.7478056704
C -2.6264562637 -0.1534328973 -0.9833783861
C -2.9725939543 -2.5381894636 -1.9542052693
O -3.0193232512 -2.1674037525 -3.0979307838
H -0.1083635370 1.5670341532 0.9169706293
H 0.2462024074 -0.1181364213 -1.3088771673
H 0.6397559045 -0.5950862182 0.3501844030
H -1.2095960327 -1.1424538297 2.0366301890
H -2.9340990119 -0.6900331249 1.6194277393
H -3.9745043621 -1.8140797211 -0.2254127240
H -3.3316306388 0.6235750687 -0.6810952111
H -2.3271645362 0.0167972980 -2.0189251999
H -2.8760304789 -3.6138673057 -1.6889217946