19

O -0.5809290188 0.3842684809 -0.5615425932
C -0.3135924692 1.5065535724 -0.2542818618
O 0.9524945421 1.9456649701 -0.1216644536
C 1.1745583350 3.3024675923 0.2540477778
C 2.0746145046 3.5252862276 1.4919375539
C 2.8354145489 4.6297593191 0.6964776060
C 2.1941888840 4.0755846356 -0.5841513098
C 2.9266208340 3.4983527415 -1.7594673459
C 2.0202297071 4.6946994591 -1.9367271717
H -1.0643231758 2.2951611342 -0.0492068569
H 0.2102997867 3.8209529533 0.3316290687
H 1.5811758976 3.8099698171 2.4231372818
H 2.6976416313 2.6454984077 1.6659209716
H 2.4923467656 5.6387910815 0.9441271139
H 3.9259224850 4.6072148283 0.7508693972
H 3.9992443608 3.6546266118 -1.8126947858
H 2.5894557428 2.5394499315 -2.1372955914
H 1.0750168129 4.5465701803 -2.4504975384
H 2.4755600256 5.6638090756 -2.1139090825