16

C 0.2292686911 1.4288706165 0.2839070151
C 0.0726934029 -0.0871651877 0.0337882192
C 0.6388914721 -0.5229431132 -1.3340233230
C -0.0506561002 0.1222763362 -2.4474050878
N -0.6081518448 0.6421973440 -3.3159187505
C 0.7703075633 -0.8595717132 1.1366969289
O 1.8148112225 -1.4547148932 1.0046689157
C 0.0959812855 -0.8934395426 2.5182697304
O -0.9833496933 -0.4154085603 2.7450458332
H 1.2856394281 1.7166639155 0.2893333372
H -0.2744656484 1.9863659734 -0.5096653735
H -0.2181392178 1.7122653800 1.2384282929
H -0.9954614192 -0.3253912430 0.0902064745
H 1.7069678277 -0.2877613486 -1.3852016014
H 0.5591561439 -1.6087678063 -1.4497782530
H 0.7050784366 -1.4296306074 3.2754188721