15

O -0.1882183821 0.0653407034 -0.0245368521
C -0.1108253319 1.2533110215 -0.0622571507
O 1.0529492512 1.9040334393 0.1986429059
C 1.0597162884 3.3103144970 0.0402428329
C 2.3189797727 3.9490240844 0.6275806673
O 2.4878583713 5.1481320297 -0.1267228192
C 2.1822957999 4.8649232255 -1.4819973614
C 1.1662678460 3.7287967254 -1.4422752010
O 0.5887809137 3.2077025310 -2.3554120950
H -0.9482419824 1.9379210601 -0.2832096075
H 0.1566644002 3.7655255167 0.4695640229
H 2.2336706377 4.2273927254 1.6784180422
H 3.1686587218 3.2609594670 0.5036729592
H 1.7856395734 5.7631191369 -1.9633236810
H 3.0666799502 4.5302467569 -2.0487602325