17

C -0.0662223359 1.5356223817 -0.0108917652
C 0.0018806207 -0.0048767459 0.0027211930
C 0.8053270933 -0.5885471696 -1.2088998609
C 1.6248517100 -1.7744213510 -0.6472577426
C 1.6459945131 -1.5016615513 0.8364217544
C 0.7745296177 -0.5635949290 1.1944361802
C -1.3718004673 -0.5406582997 0.0219543725
N -2.4498686038 -0.9590691171 0.0394949541
H 0.9478452898 1.9440604943 0.0183964261
H -0.5644071483 1.8962332096 -0.9153741758
H -0.6183816332 1.9134946549 0.8540726773
H 0.1550096392 -0.8656239789 -2.0403776046
H 1.4826807551 0.1935122628 -1.5645207269
H 1.1440402520 -2.7400473190 -0.8526003884
H 2.6268630066 -1.8290139304 -1.0859427395
H 2.2841970822 -2.0468557873 1.5229530803
H 0.5706521087 -0.2247889639 2.2033535861