20

C -0.0369790420 1.5242464230 0.1556556040
C 0.0102057200 -0.0013750673 -0.0006030199
N 0.6513579897 -0.4478163614 -1.2305193549
C 2.0903326644 -0.7052852692 -1.2081632286
C 2.4459945363 -2.1266333469 -0.7634397443
C -0.0346094913 -0.7916502775 -2.3711598699
N -1.4063056857 -0.5299501269 -2.3597307633
O 0.5011882004 -1.3301548544 -3.3275979013
H 0.9701181979 1.9518137134 0.1347298796
H -0.6090801013 1.9931526526 -0.6521696171
H -0.5038591168 1.8001417968 1.1068364787
H 0.5591421754 -0.4355593405 0.8429248234
H -0.9980071552 -0.4229905007 0.0473822874
H 2.4723491296 -0.5310174079 -2.2155434070
H 2.5511769841 0.0331330130 -0.5421634312
H 2.0560087504 -2.3462634608 0.2362802905
H 2.0277058396 -2.8494083555 -1.4678183474
H 3.5328310025 -2.2572874935 -0.7359482894
H -1.7264562135 0.3052414644 -1.8935855270
H -1.7961537045 -0.6455106107 -3.2835752822