17

O -0.1484743103 1.4593992709 0.0147020448
C 0.0153318677 0.0697254623 -0.0109719654
C -0.3841527045 -0.7057732614 1.2286376841
C -1.2695145458 -0.7006474198 -0.0035091498
C -1.3070982976 -2.2231646852 -0.3602346685
O -1.3258930159 -2.8047842644 0.9570001591
C -0.0725565052 -2.2307967642 1.3743728701
C 0.8430162714 -2.6720840361 0.2319755393
C 0.0698643965 -2.6666077745 -0.8542437031
H 0.6181372299 1.8381027873 0.4575666096
H 0.8466729703 -0.2860383287 -0.6144794709
H -0.6671061558 -0.1501235732 2.1142535362
H -2.1981719480 -0.1444480640 -0.0212179914
H -2.1775499234 -2.5376113919 -0.9331643141
H 0.1828652192 -2.5534521739 2.3822772640
H 1.9081427416 -2.8428455016 0.3074051155
H 0.3457176298 -2.8309448115 -1.8867486793