14

N -0.1003726679 1.4581208474 0.0353543550
C -0.0466203461 0.0318309924 0.0094971535
C 1.0053107809 -0.6107956676 -0.7437503510
N 1.8609482595 -1.0985793553 -1.3529625732
C -0.4716612827 -0.7351244247 1.2650440779
O -1.1811917869 0.0257387909 2.2128438342
C -2.3292282158 0.3970641467 1.5828232908
N -2.5469191020 -0.0359906200 0.4064725610
C -1.3707106932 -0.7787039060 0.0516600541
H 0.7525042298 1.8530275102 0.4159487898
H -0.2515871416 1.8411573143 -0.8913565684
H 0.1405953612 -1.5176869553 1.6917410679
H -2.9831512777 1.0310034250 2.1666716523
H -1.4799462076 -1.6122700378 -0.6292950941