18

C 0.0262519572 1.4006422050 -0.3002146490
C 0.0047070513 -0.0483456987 0.2003146267
C -1.3792555101 -0.6609399870 0.1313580201
C -1.9919975943 -1.3099491189 -1.0881803541
N -1.0248625151 -2.1303475216 -1.8248203698
C -0.6984415406 -2.9074320420 -0.6904447212
O 0.0670229394 -3.8156456000 -0.5367474627
C -1.7065464847 -2.1458402955 0.1703943201
O -2.5067934714 -2.6391902921 1.1677432212
H 1.0318825362 1.8258207079 -0.2321337088
H -0.2964714757 1.4633037381 -1.3450697892
H -0.6447205588 2.0340983963 0.2900300230
H 0.7116450623 -0.6516428095 -0.3800592485
H 0.3553690774 -0.0891063124 1.2383727298
H -2.1285509132 -0.1229276947 0.7142676689
H -2.9448234272 -1.0517687845 -1.5305331560
H -0.3034490805 -1.7384341799 -2.4201527400
H -2.8717356023 -3.4842283705 0.8804252195