15

C -0.0327938217 1.4520225027 0.1187332086
C 0.0135650819 -0.0207615159 -0.0552373269
N -0.0212520777 -0.7187603243 -1.1337607278
C 0.0357733042 -2.0586337794 -0.7132564596
C 0.0108845745 -3.1799812511 -1.5647023285
C -0.0142139149 -4.1701644992 -2.2526311016
C 0.1144064818 -2.0662308612 0.6546919945
N 0.2741068526 -3.0588140019 1.5895156162
O 0.1010969500 -0.7866486712 1.0949491071
H 0.8620910937 1.8207267203 0.6313641999
H -0.0956902580 1.9166120789 -0.8655383789
H -0.9018921256 1.7557944546 0.7123583146
H -0.0288615077 -5.0296536453 -2.8752289667
H 0.0798347331 -3.9781766033 1.2164762763
H -0.2002210662 -2.8907377436 2.4667336927