21

C 0.5821465088 1.6846988981 0.0129474717
C -0.0118192981 0.2742948945 0.0410831568
C 0.1462150252 -0.4114928759 -1.3376244987
N -0.4488264210 -1.7325473273 -1.4806862061
C 0.2764818938 -2.8536811847 -0.9189858883
C 0.6027897185 -2.8800127287 0.5875525706
O 1.3422058578 -3.7298304063 1.0302916661
C 0.0224303645 -1.7787647111 1.4779793753
N 0.5478110351 -0.4483946365 1.1810467039
H 1.6620904938 1.6486475567 -0.1775121509
H 0.1285324693 2.2872321774 -0.7795020365
H 0.4253255938 2.1869836908 0.9703661327
H -1.0928006925 0.3569280395 0.2362343537
H -0.2903579124 0.2472087207 -2.1007241029
H 1.2153402150 -0.4985172807 -1.5771151441
H -1.4222929770 -1.7318586376 -1.2006785182
H -0.2827542177 -3.7753535500 -1.1241901050
H 1.2319979142 -2.9710659872 -1.4462582483
H -1.0698743413 -1.7435393485 1.3780409473
H 0.2619664892 -2.0456420516 2.5121351459
H 1.5623264811 -0.4629029014 1.1430557450