23

C -0.0094729670 1.4922868454 0.2915349281
C -0.0390342810 -0.0242402721 0.0872746707
C -1.4603116206 -0.5920754761 0.0151294189
C -1.4894399359 -2.1138240650 -0.1654273326
O -0.8349315491 -2.7578633653 0.9341402514
C -1.6683386295 -3.7704772621 1.5089098752
C -1.7751291731 -3.5636258722 3.0197645913
C -2.9696923769 -3.6494891036 0.7593204827
C -2.8680795751 -2.7199744013 -0.1822332445
H 1.0175674236 1.8677658273 0.3408397062
H -0.5158111674 2.0155940630 -0.5277178102
H -0.5117489328 1.7764117513 1.2230944560
H 0.4988066810 -0.2821447800 -0.8350933701
H 0.4943990314 -0.5239280897 0.9028846618
H -2.0129884445 -0.3406218825 0.9292657143
H -2.0038263432 -0.1331310397 -0.8226370402
H -0.9446190954 -2.3609665795 -1.0950174383
H -1.2064152233 -4.7562513120 1.3235210383
H -2.2591632459 -2.6081491115 3.2421386267
H -2.3584391400 -4.3688881609 3.4790869521
H -0.7784206772 -3.5626629858 3.4699841027
H -3.8362029056 -4.2588642280 0.9845050040
H -3.6347360625 -2.4134240897 -0.8830594842