17

C -0.5418197940 1.4373875537 -0.0217086748
C 0.0619995075 0.0436528228 -0.0284804999
C 1.3895839903 -0.1427058477 -0.8257292084
N 2.0484798581 -0.5229022185 0.4232243545
C 3.2641482209 -1.0905333401 0.6326412640
O 4.0869795814 -1.2601512218 -0.2393849137
C 0.8540959534 -0.4169748941 1.2613212898
C 0.9433821227 0.5429654711 2.3641917532
N 1.0011854902 1.2990703702 3.2363222741
H 0.1992857235 2.1937503241 0.2535929202
H -0.9243147509 1.6828507509 -1.0174340394
H -1.3727147567 1.5085319953 0.6864358735
H -0.6910376003 -0.7011473310 -0.2915849955
H 1.3913112028 -0.9377665996 -1.5770520137
H 1.7937134323 0.7711442448 -1.2729941277
H 3.4167750789 -1.3710084911 1.6942183608
H 0.5096786200 -1.3755685291 1.6670243330