18

O 0.2318371958 1.3598364163 0.0734697474
C 0.0438270387 -0.0481483637 -0.0143135049
C -1.3976871210 -0.5095962683 -0.2583241330
C -1.1650659538 -1.9860170678 -0.6957704329
C -0.5185155586 -1.3123338413 -1.9408027576
C -1.5942675617 -0.2056754565 -1.7777097850
C 0.7241082306 -0.6581860215 -1.3102389553
O 1.2954829733 0.3373465330 -2.1229660013
H -0.4746219954 1.7878560263 -0.4226632769
H 0.4648511518 -0.4602990846 0.9062284088
H -2.1373107491 -0.2340156995 0.4946623453
H -0.5353469629 -2.6177225621 -0.0605936392
H -2.0974099874 -2.5030774655 -0.9308013438
H -0.3705041320 -1.8413149975 -2.8816979013
H -2.5794796283 -0.5154002629 -2.1317697877
H -1.3563408036 0.7885894154 -2.1678324063
H 1.4797390590 -1.4124778351 -1.0493976791
H 1.3781704244 1.1172979553 -1.5543146872