15

O -0.0009734892 -0.0487748887 1.1539087235
C 0.0413801849 0.8849602827 0.3859571155
C 1.1922182544 1.7286186651 0.1906746235
C 2.1455709299 2.4498039234 0.0100745698
C 3.2806203517 3.3152992979 -0.2107317490
C 3.7500357954 3.5092019074 -1.6997986872
C 3.7224794902 5.0267293088 -1.4553336297
O 4.1300448494 5.9679174614 -2.0660273701
C 3.0296276224 4.8639695946 -0.0926476894
H -0.8335426498 1.1598507460 -0.2377975203
H 4.1183335282 3.0102174067 0.4219610303
H 4.7130217890 3.0748046478 -1.9761246713
H 2.9968950991 3.1988221224 -2.4299227500
H 1.9696812334 5.1305429955 -0.1383344465
H 3.4888351110 5.3769509791 0.7549208009