23

C 0.7016343706 -0.4228020780 1.3474977452
C -0.0048580721 -0.0735085351 0.0310134183
C 0.8054386956 -0.4228156727 -1.2010163606
C 0.1197557437 -0.8782274398 -2.4766529191
C 0.9860862206 -1.8465951930 -1.7082669666
C 2.4411455447 -2.0151459299 -2.1393984788
C 3.0075481852 -0.6198194848 -1.9915232991
C 2.1337353102 0.2424715661 -1.4603533208
C 2.3545153089 1.7011720710 -1.2007302981
H 0.9036158885 -1.4972516238 1.4081639688
H 1.6619715041 0.0951930120 1.4362371038
H 0.0893934434 -0.1445172381 2.2110426598
H -0.9652616317 -0.6007351220 -0.0164085928
H -0.2512560278 0.9969148236 0.0177892197
H -0.9527102002 -1.0461473267 -2.4359262185
H 0.4793433497 -0.4855790292 -3.4229839068
H 0.4893819340 -2.6709772369 -1.2084411692
H 2.9688743822 -2.7367812374 -1.5001711609
H 2.5334949578 -2.3921896153 -3.1668915064
H 4.0074844934 -0.3580873910 -2.3223622404
H 3.3662736970 2.0066774375 -1.4806262751
H 1.6430570691 2.3155607219 -1.7675543401
H 2.2072937930 1.9535873416 -0.1434882224