19

O -0.0252547249 1.3578967355 0.0029608496
C 0.0392853487 -0.0414241249 -0.0405283584
C 0.7002489933 -0.6442447113 -1.2859700975
O 0.0372093277 -1.9008910909 -1.4591678391
C -0.6820313121 -2.1311851381 -0.2406695891
C 0.3419001367 -2.2412501074 0.9284943872
C 0.3125135578 -0.7581813541 1.3437063996
C -1.2043624864 -0.5687307265 1.6290760639
C -1.3313479411 -0.7669963500 0.1009880031
H 0.8348003893 1.6915945460 0.2786289882
H 0.5230424280 -0.0091938024 -2.1613978544
H 1.7853283574 -0.7879967835 -1.1733095588
H -1.3381936975 -2.9862194607 -0.3977308325
H 0.0112518802 -2.8931978926 1.7426201416
H 1.3034559739 -2.6067140493 0.5598273150
H 1.0831921697 -0.3947089424 2.0264820111
H -1.6895359081 -1.2866149893 2.2963479992
H -1.4538801702 0.4526603198 1.9174022336
H -2.2006129126 -0.4640806781 -0.4811086324