15

N -0.0479054652 1.3455995881 -0.1549110974
C -0.0037989498 0.0898001442 0.0300275509
C -1.2776781092 -0.6916225426 0.2489685831
C -1.1277896038 -1.9587546045 1.0571976018
N -2.1079965205 -2.4090673648 1.7277142736
N 0.1188758083 -2.5729300601 0.9281811767
C 1.2815760149 -2.0053418242 0.4294152287
O 2.3367060737 -2.5976056766 0.4028092048
N 1.1477738829 -0.6976874899 -0.0120977347
H 0.8781114767 1.7407868075 -0.3308762033
H -2.0284034356 -0.0505430378 0.7060275974
H -1.6573158092 -0.9797563358 -0.7410986600
H -1.8828179185 -3.2912098846 2.1922172460
H 0.2619537235 -3.4861628636 1.3356657985
H 2.0252990919 -0.2723364355 -0.2757930863