18

C -0.3884043135 -1.1378174689 -0.5641293498
C -0.2396897182 0.0115414123 -0.2402860615
C -0.0283684889 1.3860639973 0.1617706032
C 0.1770878971 1.7150460395 1.6766160936
C 1.2777779237 2.7319382895 1.2757015677
C 1.3574461548 2.0739171127 -0.1306177868
C 2.5148376862 1.0781341452 -0.2995116108
C 3.8072711060 1.7560378249 -0.3760286922
N 4.8200624466 2.3100148796 -0.4316878597
H -0.5350875446 -2.1499835175 -0.8505187447
H -0.8244516103 2.0160900758 -0.2481959839
H -0.6953669466 2.0931773128 2.2119668841
H 0.5746819899 0.8560878878 2.2212918240
H 0.9005213485 3.7558788931 1.2238364236
H 2.1976325528 2.7344893102 1.8643998248
H 1.3525843525 2.7608402339 -0.9796212028
H 2.5413244699 0.3684703212 0.5352258772
H 2.3696439340 0.4804855005 -1.2058329858