11

O -0.0596387696 -0.0323983850 0.0001144154
C 0.0082243705 1.1606754172 0.0088551545
N 1.1992558305 1.9034882785 0.0019452186
C 1.2810624100 3.2770983455 0.0119040908
C 2.6095762519 3.5915458456 0.0002015337
C 3.2714652968 2.3301678366 -0.0168485607
N 2.4274515157 1.3170250064 -0.0157963295
H -0.8643715145 1.8400816297 0.0234416080
H 0.3928280030 3.8886362887 0.0262053159
H 3.0508073182 4.5747689725 0.0032507561
H 4.3348367074 2.1366947043 -0.0297472928