16

N 0.3174658309 1.0012029350 -0.7696766310
C 0.0615986372 -0.1091813879 0.0919717301
C -0.0580907045 -0.0139444796 1.6436086382
C -1.2143220106 -1.0400329732 1.5960385266
C -1.4186730202 -0.7069344005 0.0694010415
C -2.4039034588 0.3547872440 -0.1195698038
N -3.1466214357 1.2339096932 -0.2233549635
C -1.6537048074 -1.8250625626 -0.8339851434
N -1.7850490835 -2.7429931566 -1.5234551472
H -0.1250621876 1.8538217475 -0.4451340876
H 1.3080934815 1.1715474566 -0.8893603123
H 0.7310271218 -0.9289064569 -0.1811749809
H 0.8253008842 -0.2726954354 2.2292689318
H -0.4117277816 0.9753456727 1.9485413534
H -0.8722682247 -2.0702751204 1.7051227818
H -2.0825606511 -0.8734565661 2.2320394863