15

O -0.5249974527 0.3817092807 0.1257452531
C -0.0799056693 1.4988957210 0.1131455619
C 1.3939383657 1.8390108375 0.0187175673
C 1.6422231655 2.8034519674 -1.1799563922
N 1.6528719873 4.1111983795 -0.5588363701
C 1.8435843839 4.1207511630 0.7986838373
O 1.9903937017 5.1007110807 1.4914252191
C 1.8431072997 2.6567787311 1.2526945920
H -0.7497950081 2.3890813694 0.1741545913
H 1.9425998460 0.9036478872 -0.0974130183
H 2.5953697101 2.5672548804 -1.6716480624
H 0.8534798960 2.7272088929 -1.9380559069
H 1.7331316413 4.9684115957 -1.0828627516
H 1.1974628700 2.5349746081 2.1259742617
H 2.8573568328 2.3894731554 1.5643294579