18

C -0.6642019038 1.2847082675 0.2145274043
C 0.2472519528 0.0761204439 -0.0312021503
O 1.2195258486 0.3786737822 -0.9996347500
C 0.9379833134 -0.3803370372 1.2473217911
O 2.1380396073 -0.4325845370 1.3660740030
O 0.0547176539 -0.7299670874 2.2028955094
C 0.5301709201 -1.1744158657 3.4512439007
C 1.1997592473 -0.1018771563 4.2604702279
N 0.2580942909 -2.3662037811 3.7382629114
H -0.0851749546 2.1255946612 0.6080380098
H -1.1064824768 1.5913514305 -0.7361680618
H -1.4645074603 1.0371891618 0.9157545862
H -0.3731796996 -0.7698908019 -0.3679148005
H 2.0766326139 0.1830158125 -0.5941380239
H 1.4366332704 -0.4668090443 5.2613110508
H 2.1197096317 0.2156434663 3.7636559608
H 0.5426025308 0.7699160319 4.3424296197
H 0.5767258842 -2.5874247967 4.6813134215