16

O 0.0554624527 0.3164850374 -1.3482718975
C 0.2177713364 0.8003155580 -0.2564344285
C 0.9573408246 2.0955068529 0.0277262427
C 1.1194861881 3.0430218915 -1.1182864238
C 1.0270721274 4.3799089505 -1.1131930015
C 1.3516939680 4.8929163958 -2.4897517590
C 1.5875680041 3.6075544454 -3.3041551202
O 1.7980163839 3.4941274424 -4.4877274397
N 1.4969220704 2.5687972843 -2.3877288774
H -0.1461260383 0.2784942638 0.6556557176
H 0.4758024676 2.6035664180 0.8697681427
H 1.9427964488 1.7725478240 0.4072961146
H 0.8012509093 4.9915448674 -0.2524411859
H 0.5506656129 5.4771629699 -2.9563546502
H 2.2531375639 5.5170719425 -2.5233129468
H 1.3562031403 1.6097469163 -2.6673264571