14

N -0.0930634649 -1.1734336912 0.0209250973
C -0.0340024910 -0.0214597902 0.0808795198
C 0.0267458849 1.4372498973 0.1274085295
C 1.4620703091 1.9855753633 -0.0064528263
C 1.5126016333 3.5391652925 -0.0403005504
O 2.3623034226 3.8872818465 1.0774129356
C 2.6960555244 2.7094425522 1.6541094312
N 2.2770084181 1.6189805757 1.1641358805
H -0.5952878606 1.8340953873 -0.6837003739
H -0.4081598774 1.7831225290 1.0717682839
H 1.9150545119 1.5505647792 -0.9031126411
H 1.9624290607 3.9399530467 -0.9511909813
H 0.5362651238 4.0103001972 0.1133959288
H 3.3259503553 2.8040114444 2.5314758763