23

C 0.2226978417 1.2996093436 0.1500272175
O -0.1951546135 -0.0080801860 -0.1660414179
C 0.5010806271 -0.5640419294 -1.2566021072
C 1.9161536944 -1.1339807167 -0.8915194043
C 1.3965047409 -2.5509393869 -1.1699332070
C 0.0098413612 -1.9867293588 -1.5158591627
C 0.8324737030 -2.7021681632 -2.5617894788
C 1.4189561947 -2.0123285021 -3.7808619639
C 0.3294179839 -4.1059137473 -2.8663774193
H 1.2790247939 1.3365036759 0.4573268856
H 0.0905484942 1.9847304851 -0.7026069316
H -0.3953281820 1.6468060023 0.9815867076
H 0.4652908482 0.1329015233 -2.1094652688
H 2.7822181934 -0.7908983069 -1.4669340243
H 2.1065818758 -0.9723784053 0.1720298845
H 1.6419302648 -3.4219837971 -0.5722767570
H -0.9733264551 -2.3332854104 -1.2187864684
H 1.8086500503 -1.0151697390 -3.5666540730
H 2.2433406982 -2.6045838020 -4.1952594184
H 0.6619802274 -1.9083559947 -4.5670378105
H -0.4510152395 -4.0855851498 -3.6356835052
H 1.1432193009 -4.7405640959 -3.2359463833
H -0.0911401540 -4.5838624587 -1.9760671435