14

C -0.0500634160 1.4007707042 0.1024968437
N 0.0848485384 -0.0478904251 0.0658392943
C 0.5864694506 -0.5921392103 -0.9456128578
N 0.7882947350 -1.9495790925 -1.1597237143
C 1.3313859676 -2.1050162995 -2.4062709557
C 1.6721785858 -3.4299869132 -2.9878336446
O 2.1427583602 -3.5870986388 -4.0811716785
N 1.5159663505 -0.9740599536 -3.0108327036
O 1.0634565975 0.0037101132 -2.1076088359
H 0.8392728727 1.8588787422 0.5537291402
H -0.1953894303 1.8525305870 -0.8864376838
H -0.9051514250 1.6590045352 0.7329057444
H 0.5195205305 -2.6609065299 -0.5026774671
H 1.4491058725 -4.2821139288 -2.3091641814