22

C 0.0645564932 1.6148309643 0.0269539850
C -0.0196436013 0.0855771737 0.0180018947
C 0.6446365034 -0.5234758720 -1.2222763147
C 0.6717310821 -2.0719887782 -1.2798647334
C -0.7408704827 -2.6923687169 -1.2710572830
C 1.4259927231 -2.5150059541 -2.5687703220
O 1.5650002080 -3.9123501528 -2.6850834210
C 1.4434051734 -2.6002658941 -0.1424528234
N 2.0814373131 -3.0437265801 0.7146810664
H 1.1059692145 1.9544636502 0.0202602527
H -0.4303390275 2.0461187231 -0.8503968965
H -0.4156762595 2.0306878761 0.9175392958
H 0.4605272177 -0.3145300336 0.9191047391
H -1.0712987114 -0.2191723943 0.0658391537
H 0.1275333526 -0.1746203299 -2.1258096720
H 1.6759248755 -0.1552536460 -1.2926137515
H -1.3442901736 -2.2282644639 -2.0579981272
H -0.6760924457 -3.7635522741 -1.4705934482
H -1.2451074990 -2.5427515303 -0.3145680601
H 0.8373182741 -2.1908443983 -3.4331706503
H 2.3985601590 -2.0033766973 -2.6094450362
H 2.1593073109 -4.2122534414 -1.9871121679