13

N -0.0245979859 1.3854656432 0.1594214347
C -0.0100715419 0.0085702411 0.0569742884
N -1.1677986675 -0.6467215634 0.0390991278
C -1.1618053970 -1.9843508991 0.0033742381
C 0.0090629938 -2.7187447466 -0.0253713446
F -0.0286925982 -4.0550936703 -0.0640262237
C 1.2389439725 -2.0634700241 -0.0219308920
C 1.2110241905 -0.6891174921 0.0211632581
F 2.3495901587 0.0211548287 0.0182146566
H 0.7939798257 1.8618074094 -0.1857299564
H -0.9030484253 1.8042448058 -0.1069780047
H -2.1226075090 -2.4899382748 -0.0075967922
H 2.1751385236 -2.6065905078 -0.0522544001