17

C -0.0924407464 1.5855094528 0.0121222510
C 0.0316007940 0.0690402929 -0.0558988022
C -1.3225105201 -0.6256179901 0.0852080736
C 0.8135034216 -0.4311692566 -1.2896565723
C 1.7795604904 -1.4543596953 -0.7289103071
O 2.4351151237 -2.2737226616 -1.3060316317
C 1.7907686940 -1.2439392776 0.8027586109
O 2.5082000146 -1.7642493007 1.6037451420
O 0.8424143441 -0.3334089622 1.1035299745
H 0.8944806986 2.0553507709 -0.0199313608
H -0.6802389164 1.9537486661 -0.8342930413
H -0.5886607743 1.8887129335 0.9378953807
H -1.9953558193 -0.3135363941 -0.7193358107
H -1.2123085820 -1.7135855452 0.0372936744
H -1.7812559213 -0.3698072008 1.0436282727
H 0.1790768356 -0.8581183062 -2.0685878428
H 1.4005531032 0.3762422542 -1.7432964409