19

C -0.0370463877 1.4947327470 0.2068586308
N -0.0743242754 0.0521087162 -0.0183282417
C 0.6779499558 -0.4443560292 -1.1724587826
C -0.0517605022 -0.0867828840 -2.4966040476
C -1.4086702175 -0.6247440017 -2.5535733397
N -2.4757867997 -1.0615986833 -2.6244983256
C 2.0788211445 0.0026126988 -1.2457648527
C 3.2193335150 0.3904349000 -1.2814570144
C 4.6027498002 0.8425992446 -1.3261102957
H 0.9787668565 1.9160950154 0.2587496785
H -0.5820946773 2.0161619330 -0.5867105877
H -0.5543147226 1.7107954129 1.1451154819
H 0.2575215074 -0.4269755154 0.8105413806
H 0.6661609391 -1.5378757951 -1.0915415226
H -0.0882505601 0.9995902656 -2.6218363783
H 0.5245734109 -0.4807592375 -3.3391399866
H 5.1822072450 0.2698831425 -2.0583397426
H 4.6675753454 1.8999551749 -1.6046247587
H 5.0901234727 0.7246772052 -0.3522425954