20

C 0.2700289039 1.5854340455 -0.0083448567
C 0.0683387832 0.0780161231 0.0515141245
C 0.8854931903 -0.8117653085 -0.9433479302
C 1.4397662238 -1.6419761261 0.2485243936
N 2.8699113271 -1.4431721852 0.5157340885
C 2.9211014336 -0.5360580054 1.4010342681
O 1.7807630020 0.0046953100 1.8997894389
C 0.6866537323 -0.7076889196 1.2494415078
C -0.2371241297 -1.2564141412 2.3130113623
H 1.3270370829 1.8493852325 0.0849962178
H -0.0957263237 1.9811637002 -0.9618178874
H -0.2714011644 2.0945261411 0.7960821485
H -1.0014097958 -0.1488503487 -0.0104916319
H 0.2866539982 -1.3697578575 -1.6667885047
H 1.6751020673 -0.2784524304 -1.4783230147
H 1.1863725433 -2.7047577946 0.2512063926
H 3.8301354325 -0.1255794421 1.8278611633
H -0.7036166127 -0.4461195584 2.8832215932
H -1.0326041449 -1.8519445035 1.8543434555
H 0.3120657607 -1.8951143911 3.0117301310