21

C 0.2465606230 1.5016154993 -0.2530360882
C -0.0296656533 0.0298065729 -0.5048566119
O 1.1887158662 -0.5985324722 -0.8823581433
C 1.0508879772 -1.9621256570 -1.1096289450
C 0.6626312751 -2.5170652577 -2.4753428500
C 0.8151492652 -1.6022243382 -3.6829269306
C 2.2576779632 -1.0558451633 -3.5647200188
O 2.9784852927 -1.9560664536 -2.7171569862
C 2.0721797223 -2.6834045340 -1.9428489732
H 0.9953129452 1.6210433045 0.5349765071
H 0.6235890640 1.9854004843 -1.1587198897
H -0.6699123446 2.0128274848 0.0566354531
H -0.4271245928 -0.4500526267 0.4044142239
H -0.7843586235 -0.1012689946 -1.2953315339
H 0.6592704768 -2.5196190673 -0.2549676535
H -0.0411066736 -3.3397649844 -2.5333800760
H 0.6875578397 -2.1955715528 -4.5939376658
H 0.0859849788 -0.7871807489 -3.7140514724
H 2.7816639100 -1.0124247844 -4.5246779800
H 2.2537820053 -0.0584377770 -3.1154170459
H 2.4928682832 -3.6221787938 -1.5998258096