19

O 0.0993259082 1.4891916385 -0.1130994101
C 0.0620360600 0.0851409942 0.0067600934
C 0.2230079820 -0.5191438327 1.4825215063
C -1.3109682480 -0.6879362266 1.4689786847
C -2.6374580444 -1.5190485941 1.4237872707
C -2.8260017551 -0.2914729113 0.4159474991
C -2.1964103814 0.5948830996 1.5110908344
O -2.8826605236 0.7923027476 2.7276950627
C -1.3590839066 -0.6045548129 -0.0553604415
H 0.9980999803 1.7789269538 0.0762619946
H 0.7474220650 -0.3756230864 -0.7177808412
H 0.7823069141 -1.4588325228 1.4599431492
H 0.6483932381 0.1409575951 2.2450709214
H -2.5630031491 -2.5071507289 0.9627237874
H -3.2848403199 -1.5183543708 2.3002140711
H -3.7157183928 -0.0890299730 -0.1885076498
H -1.7247881530 1.5146019266 1.1641424749
H -3.4314821489 1.5759184743 2.6312036704
H -1.2658660549 -1.5612699603 -0.5754477777