23

C -0.0391354083 1.5002010495 -0.0762108375
C -0.1425604317 -0.0133037933 -0.1450933744
O 0.8494449049 -0.4878835633 -1.0490325719
C 0.8655278571 -1.8608582865 -1.1863907642
C 1.6058069213 -2.8008256471 -0.2208670129
C 2.0949930547 -3.6274523751 -1.4559849072
C 1.3583462906 -2.6559246084 -2.3881243083
C -0.1240281675 -2.5910799817 -2.0579240874
C -0.9891427749 -3.7685348695 -1.6599772047
H 0.9507164173 1.8018242543 0.2780108022
H -0.1966851204 1.9406927769 -1.0649284855
H -0.7913106863 1.9034578359 0.6085236537
H 0.0099452460 -0.4566388719 0.8512377566
H -1.1406451764 -0.3233743483 -0.4909003552
H 2.4314243846 -2.2859356150 0.2754777215
H 1.0089625962 -3.3222713200 0.5341940588
H 3.1796520556 -3.5886003586 -1.5750816487
H 1.7804771869 -4.6745961838 -1.5003544783
H 1.7350846216 -2.2925655792 -3.3368170166
H -0.6240040284 -1.8840450018 -2.7184084655
H -0.4853705598 -4.4344433374 -0.9541905367
H -1.9163959199 -3.4303253120 -1.1842717376
H -1.2656271332 -4.3664544136 -2.5358255699