20

C -0.0835270370 1.8064476446 0.1234157431
C -0.0282186467 0.2718870188 0.1110167167
C 0.6475561463 -0.3147404789 1.3726653060
C 2.1160578974 0.0160236997 1.4700382757
C 3.1069235653 -0.9670904982 1.9244378641
O 2.9742052865 -0.6540321248 0.5367285403
C -1.4552276588 -0.2797789698 0.0439120237
N -1.6982670758 -1.1563421443 -0.9723078228
O -2.3070997139 0.0308055046 0.8559062996
H 0.9149806365 2.2423214025 0.2129615698
H -0.5302311527 2.1888424742 -0.7996248908
H -0.6985938375 2.1482988982 0.9599910419
H 0.5440281790 -0.0667868397 -0.7609352192
H 0.1200182122 0.0542829305 2.2598318789
H 0.5401369781 -1.4055813613 1.3639994940
H 2.3645154118 1.0690273427 1.6078479059
H 4.0307473833 -0.6319454581 2.3941436567
H 2.7765469155 -1.9644403570 2.2127182288
H -0.9973265977 -1.4093350275 -1.6454874466
H -2.6175819818 -1.5605467961 -1.0484266559