12

O 0.1747764045 1.3673362201 -0.3230884882
C 0.0026197381 0.0133802574 -0.0372619788
C 0.5676183211 -0.4095384880 1.3219148120
O 1.5606753282 0.0621238339 1.8226447332
C -0.3695267787 -1.4072398060 1.9018467102
C -1.5161448736 -1.4170947297 1.2014470837
C -1.4642198429 -0.4399393217 0.0678280774
O -2.3890302498 -0.0895298154 -0.6161631386
H 0.9798708915 1.6398196664 0.1392550578
H 0.4727352699 -0.6369154853 -0.8004449434
H -0.1341311341 -1.9843373835 2.7878949484
H -2.4006079842 -2.0100590582 1.4021607664