20

O -0.4727167481 1.4542076293 -0.2327361064
C -0.2530042310 0.0715094832 -0.2027535327
C -0.3564250943 -0.6021547720 1.1468728079
O -0.7271867439 0.2425399439 2.2124189404
C -1.4145854004 -0.8585476066 0.1008754605
C -2.8258898174 -0.3131502446 0.2329890786
C -3.5058027648 -0.1596056173 -1.1136221983
C -4.3616022120 1.0208473567 -1.3900244254
N -3.0533334556 0.8807643414 -2.0485344168
H -0.6480365641 1.7139787266 0.6833730566
H 0.5063999083 -0.2330318287 -0.9157770033
H 0.3213884039 -1.4079965311 1.4197658857
H 0.0789292890 0.5118386151 2.6663938311
H -1.3520203917 -1.8387383529 -0.3660823469
H -3.4174000835 -0.9800039343 0.8731295106
H -2.8020279565 0.6556648823 0.7391409091
H -3.7558068432 -1.0989916150 -1.6064933385
H -5.2213268796 0.9369766523 -2.0497941608
H -4.4756187476 1.7570146004 -0.5969999550
H -2.3551076374 1.4614448014 -1.5860275063