13

N 0.0355445961 1.3194048244 0.1511943041
C -0.0550628236 -0.0368094776 0.0546800336
N -1.1494987010 -0.7528145867 0.0300418532
C -0.6309451582 -2.0327357922 0.0070534171
C 0.7396804219 -2.0317446471 0.0100089622
O 1.1405749166 -0.7074077460 0.0423922358
C 1.1568935608 -3.3663025551 -0.0270006516
N 0.0738407627 -4.1557531158 -0.0485074784
N -1.0119533122 -3.3264129239 -0.0287102347
H 0.8853220452 1.7276653245 -0.2066991592
H -0.8104345066 1.8085032938 -0.0968852103
H 2.1408674656 -3.8067361030 -0.0371329453
H -1.9323342873 -3.7291969352 -0.0381916865