21

C -2.3311276705 1.5917729351 1.2041121489
C -2.4054875748 0.0615266959 1.1796954980
C -1.4361150957 -0.5441936642 0.1547875486
C -1.3789495698 -2.0833756565 0.1044612468
O -0.9340265006 -2.6578781643 1.3396552131
C -2.7064503392 -2.7479261551 -0.3036956325
O -2.5814065053 -4.1543337174 -0.2648971082
C -0.3087797250 -2.4876832651 -0.9169433113
O -0.3594409812 -2.1800633458 -2.0776683959
H -3.0219480786 2.0103286640 1.9419306005
H -1.3218836539 1.9343559690 1.4563414033
H -2.5889528807 2.0126473201 0.2265618564
H -2.1774486452 -0.3147913008 2.1876411519
H -3.4334794602 -0.2479921639 0.9615009756
H -1.6864576587 -0.1937437969 -0.8525973158
H -0.4235131379 -0.1771084174 0.3664621191
H -1.4424841946 -2.2638577314 2.0562148594
H -3.5180191603 -2.3991075387 0.3546377910
H -2.9527526765 -2.4653086106 -1.3313578324
H -2.1323072417 -4.3514013594 0.5674129579
H 0.5323839704 -3.0721896466 -0.4866175443