19

O -0.0420897995 1.3986865480 -0.1969583393
C 0.0078008423 0.0085504279 0.0255706177
C 0.2675575698 -0.5352058329 1.4837248081
C -1.0761983854 -1.2890763196 1.4073340665
C -2.2122579006 -0.3044952023 1.2144829054
C -1.3499111000 -0.6755216305 0.0472606659
O -1.7727902746 -1.6235833521 -0.8799308714
C -2.1069947783 -2.8124955307 -0.1401214013
C -1.3264408793 -2.7683641937 1.2153573850
H 0.8567256237 1.7415740632 -0.1620102248
H 0.6619199704 -0.4969885282 -0.6964706462
H 1.1421219937 -1.1867216515 1.5492835756
H 0.3304387161 0.2308919997 2.2628085449
H -3.2157651565 -0.7141617119 1.1982614870
H -2.1372490913 0.6855566646 1.6531021403
H -3.1894050673 -2.8396249099 0.0437045347
H -1.8512225438 -3.6766133900 -0.7600749876
H -0.3686290280 -3.2919174471 1.1253233830
H -1.8981420314 -3.2603304230 2.0085964266