21

C 0.1590518221 1.3843649724 -0.2123925367
C -0.0991723691 -0.1074791554 0.0582002201
C -1.6027272342 -0.3938467247 0.1068063092
C 0.6320084936 -0.9649738537 -0.9917996905
O 1.9954618851 -0.9611294751 -0.5940575515
C 2.0279961989 -1.0677449931 0.8351762295
C 0.6395302279 -0.5677295983 1.3428464387
C 2.3239002062 -2.4380019268 1.2611639248
C 2.5612152330 -3.5620045741 1.6155773083
H 1.2297258871 1.5858704539 -0.3118966470
H -0.3305175536 1.7043675597 -1.1388347545
H -0.2315553837 2.0039696934 0.6019683074
H -2.0853207858 -0.1203005327 -0.8383094523
H -1.8018135672 -1.4546296976 0.2921737376
H -2.0890904746 0.1825878688 0.9010385391
H 0.2293502812 -1.9907099094 -1.0059587653
H 0.5835952112 -0.5571262815 -2.0055546436
H 2.8381759648 -0.4124412906 1.1737224349
H 0.7479779428 0.2383543049 2.0723091851
H 0.1025291705 -1.3862703625 1.8270693543
H 2.7805775036 -4.5542528177 1.9240220422