23

C 0.1167026242 1.5568868470 -0.1881867027
C 0.0837659735 0.0523415200 0.0322642698
O 0.6633758886 -0.5579702467 -1.1080078166
C 0.6862565767 -1.9900607633 -1.1855924662
C 1.3884226294 -2.6212267557 0.0283079017
C -0.7338014551 -2.5543384323 -1.3463871795
C 1.4930396517 -2.2637077391 -2.4749837156
C 2.9131834437 -1.7419680195 -2.4275116898
O 3.8843554883 -2.3899998071 -2.7294475231
H 1.1458117602 1.9019896666 -0.3228039447
H -0.4537096795 1.8265530700 -1.0814567080
H -0.3148359454 2.0775008552 0.6719713553
H 0.6415982385 -0.2071961358 0.9438252731
H -0.9535913992 -0.2834509602 0.1771616488
H 0.7950346306 -2.5142951785 0.9404627923
H 1.5429463208 -3.6909433816 -0.1413282531
H 2.3668396221 -2.1617788656 0.1986033552
H -1.2431061045 -2.0679859823 -2.1834069254
H -0.6979013259 -3.6305114490 -1.5409021046
H -1.3322729117 -2.4047081027 -0.4431383983
H 1.5203093011 -3.3324010530 -2.7026756223
H 0.9835059741 -1.7444938561 -3.2980097020
H 3.0030172279 -0.6860394203 -2.0975807242