15

N 0.0959412964 1.2806104500 0.0088011188
C 0.0219351917 0.0145295862 0.0034117729
N -1.1789421189 -0.6690905995 0.0092277294
C -1.2712510394 -2.1358626097 0.0075730534
C -2.8105081172 -2.3560948857 0.0203287636
N -3.4293606541 -1.0250277721 0.0300584804
C -2.4813279997 -0.1659818415 0.0231204821
C -2.7744975469 1.2412503217 0.0290796573
N -3.1226367967 2.3425846693 0.0344443057
H 1.0648792319 1.5885403996 0.0023983379
H 0.8703861783 -0.6800887202 -0.0065703655
H -0.7925178911 -2.5518467565 -0.8845773762
H -0.7775124254 -2.5546952238 0.8901936267
H -3.1593980734 -2.9075879650 -0.8584160423
H -3.1440883954 -2.9136696731 0.9011480857