19

C 0.0234588445 1.5604683657 -0.1575771787
C 0.0230713729 0.0550906212 -0.0006794303
C 1.3119842640 -0.7478083453 -0.1067540641
C 0.5901482268 -0.6170180114 1.2122496310
C 1.1834050491 0.1375775037 2.4055950510
N 1.3339994166 -0.9384467206 3.3739785137
C 0.4869962343 -2.0022816910 3.0898379326
O 0.2669209837 -2.9631828550 3.7914360376
N -0.0635104582 -1.7397067574 1.8385712875
H 0.9246789584 2.0099786460 0.2716725800
H -0.0099860934 1.8421580597 -1.2153844927
H -0.8425769605 2.0145158798 0.3362162187
H -0.8555697851 -0.4350632945 -0.4148563920
H 1.2809864022 -1.7064409539 -0.6152135696
H 2.2425941048 -0.2028965201 -0.2380907355
H 2.1418711715 0.6061132486 2.1650045088
H 0.4939886189 0.9207336493 2.7562759185
H 1.5119424960 -0.7445676325 4.3462269239
H -0.3632505565 -2.5354013224 1.2972871198