17

C 0.0953365588 1.4855333409 -0.7361832201
O -0.2042738388 0.1110489293 -0.8313508642
C 0.9238508600 -0.7353397316 -0.9522484688
C 1.7098394515 -0.9002110173 0.3503434466
C 0.4532964506 -2.0983769741 -1.4939072411
C -0.9287182302 -2.1681673155 -2.1036777521
O 1.1951248215 -3.0522779786 -1.4450148081
H 0.6159354608 1.7394120569 0.1975859967
H 0.7161836056 1.8223725230 -1.5812420840
H -0.8554687406 2.0235056346 -0.7609591538
H 1.5997103150 -0.3330533501 -1.7305841605
H 2.2021071761 0.0308236398 0.6420599101
H 1.0379434016 -1.2077576101 1.1574123022
H 2.4687144347 -1.6726803403 0.2140234541
H -1.0340188838 -1.4238804701 -2.8994777612
H -1.1012854053 -3.1717157859 -2.4936905076
H -1.6809436774 -1.9136216208 -1.3509414180