17

C -0.0892363473 1.4545941969 0.0830103869
C 0.1245040680 -0.0447095506 0.0949712592
O 0.3912387093 -0.6589267744 1.0938389503
C 0.0208031051 -0.7760169557 -1.2941806702
C -1.1527659143 -0.2383210175 -2.1415622216
C 1.3696365362 -0.4611130585 -1.9896497072
O 1.5344205762 0.4708157623 -2.7292088606
C -0.0646068528 -2.2176247716 -1.1051005396
C -0.1130795182 -3.4139256256 -1.0082328230
H 0.4490716090 1.9249736225 -0.7446702648
H -1.1523892311 1.6797012378 -0.0532486397
H 0.2407985117 1.8654556282 1.0375956353
H -0.9785395576 0.8006219230 -2.4226261421
H -1.2412213329 -0.8272511779 -3.0569870061
H -2.0930452896 -0.3187456202 -1.5910222510
H 2.1855568319 -1.1625691189 -1.7241659369
H -0.1674082936 -4.4690057798 -0.8976867289