21

C 0.1259010543 1.4831046852 -0.1877056757
C 0.0278156192 -0.0058052362 0.1340197926
O 0.5635249653 -0.2982283360 1.4228961856
C -1.4194750368 -0.5437456261 0.0316155418
C -1.4391939986 -2.0756985539 -0.0458250391
N -2.1805874278 -0.0071955967 1.1739645221
C -3.6230490521 0.0466671089 0.9665415816
C -4.2994343319 0.5759939572 2.1551890959
N -4.8331815053 0.9739571772 3.0989234786
H 1.1479847025 1.8368643174 -0.0282077693
H -0.1485079403 1.6810663649 -1.2292386734
H -0.5515098482 2.0539581507 0.4561914900
H 0.6524880165 -0.5729452465 -0.5661817631
H 0.1696635972 0.3362755312 2.0331333911
H -1.8708092166 -0.1266984923 -0.8779871098
H -0.9564071859 -2.4292053358 -0.9627672065
H -0.8928299579 -2.4954903838 0.8050120250
H -2.4595582215 -2.4721130257 -0.0357286071
H -1.9811933543 -0.5714563046 1.9941622284
H -3.8350425279 0.7184899792 0.1260152636
H -4.0918030899 -0.9219392643 0.7190713276