17

C 0.0334803969 1.5518382402 0.0011663889
C 0.0719770784 0.0203922969 -0.0489641356
C 0.7147131529 -0.4976077508 -1.2987628832
O 2.1009438921 -0.1353679985 -1.6019849259
C 1.6801147580 -0.9793400303 -2.7024515793
C 0.8662131534 -1.9846001593 -1.8129210191
C -0.3458525746 -1.7855823913 -2.7125058671
O -1.2760386131 -2.4088964171 -3.1272806937
C 0.2344785853 -0.3815133976 -2.8057017619
H 1.0405204360 1.9654253546 -0.0983814247
H -0.5800600515 1.9586580430 -0.8087903576
H -0.3880485037 1.8959462967 0.9494371699
H 0.6312073797 -0.3731962944 0.8082631833
H -0.9396967900 -0.3987817354 0.0116169840
H 2.3790894692 -1.2007069267 -3.5058055865
H 1.2524082829 -2.8342691472 -1.2560549870
H -0.0691133920 0.5183180973 -3.3337949345