16

O -0.0725306729 -0.0885227543 0.2168338099
C 0.0831761216 0.9980683771 -0.2714822946
C 1.2364332190 1.9275734316 0.0875693343
N 1.4215174454 2.9140125964 -0.9710456415
C 2.4474506572 3.9148570979 -0.9646288247
C 3.7518575289 3.4141580223 -0.3189998098
C 3.7576353528 2.3034550551 -1.4074961125
O 4.5712076363 1.4977138149 -1.7509069706
C 2.4471758156 2.7910043518 -2.0044558885
H -0.6220323723 1.4253425825 -1.0177707190
H 0.9376070637 2.4634234740 0.9992480366
H 2.1108103777 1.3141717626 0.3379580224
H 2.1714441082 4.9502831257 -1.1269968002
H 4.6067516640 4.0790216221 -0.4735766010
H 3.7125215421 3.1207773258 0.7325741923
H 2.1457573228 2.7695258644 -3.0456131032