15

O 0.1101154727 1.1136260852 -0.7361193283
C -0.0400947504 0.0076064351 0.1714896376
C -1.4299459490 -0.5392346821 0.1066985080
N -2.0974147718 -0.9899248979 1.1684223551
N -3.2883975357 -1.3953804066 0.6635165655
C -3.3937240033 -1.1871393653 -0.6723676757
O -4.5219777433 -1.5181075848 -1.3377316404
C -2.1983297500 -0.6319287455 -1.0755701806
O -1.8772076201 -0.2669047786 -2.3528548870
H -0.4521083617 1.8258405384 -0.4106379472
H 0.6961063030 -0.7286277562 -0.1694061312
H 0.2178298876 0.2851657261 1.2006000898
H -3.9909995300 -1.7782090801 1.2719403983
H -4.3942729001 -1.2751198100 -2.2622801001
H -1.1084480178 0.3185159224 -2.2733499038