17

N 0.2892828841 1.3467641357 -0.0475852689
C 0.2114406050 -0.0408500480 -0.0768257008
O 1.1936245751 -0.7544642953 -0.1463684309
N -1.0803022820 -0.5249182339 0.0042595476
C -1.3328860503 -1.9330862854 0.1640046181
C -1.8599083735 -2.4561591521 1.5424572037
C -2.9223333484 -3.2512521898 0.7664515229
O -3.6690821434 -4.1400623392 1.0537348635
C -2.5939193530 -2.5170725522 -0.5446259855
H 1.1998420320 1.6822505501 -0.3240076539
H -0.4750472174 1.8674752061 -0.4518932642
H -1.7981614489 0.1123885277 0.3142787205
H -0.4166938641 -2.4427865146 -0.1310320524
H -1.1758372237 -3.0265825428 2.1748604103
H -2.3183821355 -1.6662005594 2.1496519478
H -3.3465096022 -1.7517583776 -0.7694886597
H -2.4489515937 -3.1316250393 -1.4360932584