17

C -0.0469597683 1.5093185125 -0.7155854622
C -0.0784330565 0.1570258616 -0.0508491591
C 0.9281384544 -0.8760688639 -0.3612644153
O 0.9879745004 -0.1459543619 0.8686180626
C -1.4639152604 -0.3181896243 0.3777418635
O -2.4450700239 -0.0534105357 -0.2732474034
N -1.4261354881 -1.0547975331 1.5496479535
C -2.4662945089 -1.6846826445 2.2264998276
N -3.6577991567 -1.7530370388 1.8019861870
H 0.9560330585 1.7334584701 -1.0853197903
H -0.7572320218 1.5230738723 -1.5447478552
H -0.3417794681 2.2903834907 -0.0081482940
H 0.6733740647 -1.9301139613 -0.2668992305
H 1.7160360552 -0.6446772049 -1.0756317374
H -0.5123778914 -1.0769803452 1.9824944104
H -2.1005275408 -2.1121322973 3.1691454332
H -4.2301542680 -2.2631746562 2.4731866296