19

C -0.0556875206 1.3593139892 -0.0404315346
C 1.3293538340 2.0020640071 0.0637334932
C 2.1458499779 1.5582549990 1.2659051571
O 1.4049368143 1.5282381205 2.5287095018
C 1.9138959005 0.2198450156 2.8023715930
C 1.3974828835 -0.7780250948 1.8106868559
C 0.0171385872 -0.6991523982 1.1595906187
O -0.0211013681 -0.0537835260 -0.1000309326
C 2.5791353607 0.1022855672 1.4505008228
H -0.6767130338 1.6884956306 0.8045810428
H -0.5394163690 1.6959127201 -0.9639525432
H 1.9127199948 1.7743729891 -0.8373040405
H 1.1989568871 3.0923286135 0.0918487369
H 3.0136136757 2.2183071139 1.3939297239
H 2.2438349794 0.0082676207 3.8130849361
H 1.7296223784 -1.7889070723 2.0392258779
H -0.3419320543 -1.7167293126 0.9769198215
H -0.6892097402 -0.2135501321 1.8486903854
H 3.5430557724 -0.2973663005 1.1659615840