17

C -0.0603703411 1.5435908620 -0.0401391589
N 0.1022129934 0.0968327650 -0.0140834795
C 0.6549720777 -0.5667277597 -1.1601642282
C 2.2532543323 -0.6012079786 -1.1692354972
C 2.9477599293 0.3259910199 -0.2508415088
C 2.3738140088 0.2773751644 0.9634037968
C 1.1458455233 -0.5916451044 0.8724055065
C 1.4193778733 -1.5431865496 -0.3371486732
H 0.8432341127 2.0996322451 -0.3290973474
H -0.8524326858 1.7810117784 -0.7593067265
H -0.3867470663 1.8925819265 0.9452366326
H 0.1047566064 -0.6664498222 -2.0895031760
H 2.7017227548 -0.9492020798 -2.0922354849
H 3.7512786328 0.9858831481 -0.5555661175
H 2.6063119033 0.9108992295 1.8101943160
H 0.7177543346 -0.9781478702 1.7972716670
H 1.4499639904 -2.6247701846 -0.3479368508