14

N 0.0924640663 1.4332996974 0.2666090141
C -0.0208568018 0.0488702470 0.0732381840
C -1.1433105363 -0.6115188267 -0.2375573204
O -1.1860357813 -1.9983573824 -0.2909956980
C -0.0711389759 -2.7482041732 -0.1462291678
O -0.1241572113 -3.9440011037 -0.2391537955
C 1.2309421748 -2.0328346378 0.1712883395
N 2.3252454457 -2.6514062370 0.3637481473
N 1.1507533944 -0.6600893662 0.2800065133
H 0.7429201507 1.8660123668 -0.3825110102
H -0.8026009953 1.9003244720 0.2013413116
H -2.0940450779 -0.1600497438 -0.4687555697
H 2.1524508725 -3.6512330088 0.2528262219
H 1.9573447354 -0.1830225836 0.6562461799