19

C -0.4545960942 1.6188450457 0.1389299492
C -0.0661150223 0.1480261841 0.0880275391
C -1.2344746924 -0.7403905420 -0.3731147460
O -1.5264296687 -0.5572817570 -1.7484186433
N 1.1800792542 -0.1108636456 -0.6769019800
C 1.6967751500 -1.0244916136 0.3617412826
C 0.6196028177 -0.4888198269 1.3569005811
C 1.1088077045 0.4424659973 2.3570630482
N 1.4938753621 1.1848924055 3.1557465729
H 0.3851221055 2.2293307327 0.4753259832
H -0.7324228694 1.9686426283 -0.8618528243
H -1.3019987930 1.7859272331 0.8129675963
H -0.9612425539 -1.7967843957 -0.2730904576
H -2.1172670088 -0.5645810921 0.2611510814
H -1.9335657027 0.3075394893 -1.8603859491
H 1.0117162592 -0.5216928347 -1.5902249337
H 1.5640536104 -2.0951372371 0.1629499558
H 2.7380677226 -0.8437524024 0.6410504770
H 0.0221335091 -1.2571381790 1.8539925272