17

O 0.0207045521 1.4248072613 0.0112024206
C -0.0452428715 0.0198183008 -0.0031571475
C -1.4233220277 -0.6107265067 -0.1709540732
C -1.8873319688 -0.7153089621 -1.6203384610
C -1.1129818661 0.0170415738 -2.7026118011
O 0.2797057216 0.1648229916 -2.3729210220
C 0.6631644829 -0.5952690123 -1.2342430688
O 0.2097168230 -1.9245133836 -1.3153443202
C -1.1698989778 -1.8593393205 -0.9684840792
H 0.0732379989 1.6977179899 -0.9145435243
H 0.4125553225 -0.3380213160 0.9251607689
H -2.1460625272 -0.5686527670 0.6336462919
H -2.9539563992 -0.8073730327 -1.7975586964
H -1.1827380274 -0.5375072301 -3.6475174649
H -1.5230047571 1.0198786156 -2.8724912296
H 1.7525198893 -0.5863558631 -1.2115253890
H -1.6038600676 -2.8329354590 -0.7839839143