19

C -0.0226337886 1.5084413503 0.1126178417
O 1.3498601466 1.8827340747 -0.1043993604
C 2.2193958746 0.7429043910 0.0207150616
C 1.3434513607 -0.3071690310 0.6830113959
O 1.6924275541 -1.6621190985 0.5112995913
C 0.6642067223 -2.4532302740 1.1079079427
C -0.7319647014 -2.1122078718 0.5639133843
O -1.0351372303 -0.7206952789 0.6679225385
C 0.0005197835 -0.0085085203 0.0296797331
H -0.3667880116 1.8412969428 1.1021187708
H -0.6393165018 1.9883774757 -0.6523838791
H 2.5610225247 0.4016804141 -0.9668044512
H 3.0921010329 1.0341895150 0.6118236945
H 1.2500329108 -0.0832061306 1.7599808466
H 0.9017829524 -3.4987622802 0.8922199914
H 0.6753197190 -2.3080333708 2.1999381870
H -0.7989023645 -2.4254466987 -0.4901909677
H -1.4946984960 -2.6475611385 1.1363947061
H 0.0652596228 -0.3187868305 -1.0278108871