21

C 2.4885878280 -0.7884605083 0.0412111134
N 1.1200477813 -1.1344317947 0.4011489948
C 0.9360366664 -2.1269355510 1.4512173311
C 0.5538266719 -0.7058665188 1.6877903478
C 1.3042516770 0.1523048296 2.6880644135
O 1.2557828934 1.5280259860 2.3131890329
C 0.6786497442 0.0326669268 4.0680374100
C 0.8036714379 1.1261010896 5.0583614742
N -0.4960154914 0.8454217818 4.4132157783
H 3.2144279193 -0.8338079334 0.8676660385
H 2.8263110852 -1.4828323007 -0.7344323342
H 2.5150542660 0.2202484799 -0.3873568063
H 0.1765067207 -2.8838558445 1.2758103539
H 1.8270842550 -2.4894449355 1.9650565141
H -0.5002981713 -0.4405317994 1.6159027013
H 2.3503589917 -0.1834705301 2.7580825732
H 1.4113042813 1.5863376297 1.3662356423
H 0.6295602593 -0.9938831962 4.4251264493
H 0.8505244163 0.8913127633 6.1179702816
H 1.3393911159 2.0195861706 4.7548281255
H -0.6228551778 1.5309526453 3.6703399249