16

O 0.3213259899 1.0555962568 -0.6713002679
C 0.0264808777 -0.1836046117 -0.0946148775
C 0.4222561029 -0.2503066443 1.3792707132
O 1.3128421830 0.3702938111 1.8890380480
O -0.4034779858 -1.0848449393 2.0418300039
C -1.4696772637 -1.5298347211 1.1636641856
C -1.4418676595 -0.5539168430 -0.0036226868
C -2.5148331546 0.4239507887 -0.2892388434
N -2.3234644784 -0.7751860237 -1.1370662609
H 0.9870480055 1.4660560400 -0.1000511476
H 0.5677104976 -0.9957491187 -0.6155797771
H -1.2601068085 -2.5560911927 0.8431464433
H -2.4001279767 -1.5138969000 1.7329329283
H -3.4249679710 0.4211001778 0.3039471621
H -2.2087532234 1.3886863691 -0.6801085955
H -1.8552244551 -0.5150217990 -2.0026135076