19

C 0.0928489228 1.4615163714 -0.7845024700
C -0.0112599450 0.0999811533 -0.1373708002
C 1.1977708582 -0.7136063870 0.0539659197
O 0.6260589413 0.0036642053 1.1571685128
C -1.3770939390 -0.6088183937 -0.1818092755
C -2.3451131309 -0.0327388977 0.8908275229
O -1.9701189840 -0.4139775798 2.1920507830
C -1.9676667686 -0.5630294087 -1.5145904171
C -2.4818691250 -0.5126945712 -2.6002133062
H 1.0823281856 1.8866016785 -0.6019053365
H -0.0735024783 1.3871127991 -1.8619500355
H -0.6543026829 2.1494477689 -0.3764449191
H 1.1186484271 -1.7978525887 0.1104734483
H 2.1612664083 -0.3348049391 -0.2822924898
H -1.2215210761 -1.6576724476 0.1006145884
H -2.4071255638 1.0613116306 0.7763701031
H -3.3465798438 -0.4345257376 0.7124957554
H -1.0232451498 -0.2419041744 2.2788531994
H -2.9337097262 -0.4804269015 -3.5607540731