15

O 0.0109539216 -0.0589172475 -0.2668517328
C -0.0005023010 1.1417845735 -0.1523368605
N 1.1474936554 1.9088713101 0.0783851422
C 1.0235326700 3.2885077847 0.1952636690
O -0.0145947425 3.8987301308 0.1139707096
C 2.4179496391 1.2151823667 0.1841941791
C 3.6997835042 1.7856347139 -0.3542973433
C 3.4964387001 1.6410907436 1.1401955461
H -0.8984265719 1.7699828582 -0.2134183167
H 1.9912559125 3.7862880542 0.3761753588
H 2.2428872100 0.1553962248 0.0578752214
H 4.3775777665 1.1074726170 -0.8602734479
H 3.6855159773 2.7877434658 -0.7688163041
H 3.3473335929 2.5473015033 1.7170814694
H 4.0332088758 0.8626647509 1.6705285196