16

O -0.0240184906 1.4495135642 0.3171792522
C 0.0170557721 0.0611989731 0.0353495620
C -1.3429860621 -0.5067535592 -0.2206103610
O -2.2192168307 -0.6270995208 0.9267312720
C -1.9600033711 -1.7988996654 0.1312398801
C -2.9200349473 -1.7510241656 -1.0562818736
C -2.3118820068 -0.3370693869 -1.4152245782
O -3.1589878812 0.7733616988 -1.3841032573
H -0.5968667205 1.5652837723 1.0832462770
H 0.6404561032 -0.0492483291 -0.8582430892
H 0.4909214256 -0.5080939756 0.8501114823
H -1.5350304274 -2.6523054476 0.6470246917
H -2.7138457524 -2.5059415024 -1.8189459604
H -3.9830040339 -1.7591666706 -0.8040070571
H -1.8057914222 -0.3339451125 -2.3835878329
H -3.4978809846 0.8250759172 -0.4812267677