20

C -0.1177015860 1.4975772466 -0.2937544141
C -0.0317118051 0.0158294686 0.0815595434
C -1.3990223227 -0.6749319244 0.1070687962
C -1.3007407346 -2.1588522264 0.4825347647
N -2.5908566482 -2.8287454050 0.5230056389
C -3.0420066625 -3.6139265523 -0.4967313228
O -2.4023443634 -3.8705200984 -1.5011879051
C -4.3844013600 -4.1402982674 -0.2695734541
C -5.4897189282 -4.5874189205 -0.1146028967
H 0.8723227848 1.9636116070 -0.3052760394
H -0.5594246823 1.6282331270 -1.2875924720
H -0.7385912090 2.0516184846 0.4190638353
H 0.6223015276 -0.5057443794 -0.6291998366
H 0.4463780155 -0.0864431977 1.0650945007
H -2.0589785445 -0.1608955075 0.8196000937
H -1.8784283238 -0.5937359011 -0.8760395767
H -0.6973028001 -2.6954697352 -0.2534226146
H -0.8164469608 -2.2711206707 1.4602121563
H -3.2219620396 -2.6399605139 1.2853450549
H -6.4653151472 -4.9904389938 0.0085532981