19

C -0.0842152608 1.5396054919 -0.0601917861
C -0.0321500544 0.0045519492 -0.0715761372
C 0.7737334158 -0.5320970619 -1.2301813566
N 0.2567368174 -0.3186315283 -2.6215467934
C 0.3664411391 -1.7762648556 -2.9247145727
C 1.0885458722 -2.0118578724 -1.5896974753
O 2.5125960222 -1.6978586886 -1.6369446468
C 2.2919350700 -0.3876637200 -1.2354791783
N 3.1028856575 0.5276058645 -0.9651158096
H 0.9245140697 1.9544496602 0.0051367631
H -0.5476278336 1.9310023691 -0.9717033864
H -0.6683653108 1.8981343144 0.7921334035
H 0.4129910515 -0.3560453606 0.8632752316
H -1.0467930253 -0.4128860855 -0.1202973875
H -0.6999797863 0.0167551885 -2.6236803327
H -0.5956946700 -2.3005312212 -2.9694765340
H 0.9433685326 -2.0050404041 -3.8256960296
H 0.8931915981 -2.8975901639 -0.9868171520
H 4.0702075151 0.2259370544 -1.0965605000