15

C 0.0653212130 1.5390839674 -0.0226571896
O 1.2158082448 0.6740930025 -0.0430044811
C -0.0588128226 0.0825602522 -0.0149779990
C -0.5522270901 -0.8844173388 1.1202444164
N -1.0303007411 -1.7067248894 -0.0029323928
N -1.7400028140 -2.7723825382 -0.3715852709
C -1.7470992390 -2.6374590154 -1.7125584972
C -1.0676296443 -1.4803884080 -2.1793829681
C -0.6198636479 -0.9050101169 -1.0035546793
H -0.0799470581 2.0997532366 0.8992969286
H -0.1202156010 2.0890128641 -0.9432456373
H 0.2435469876 -1.3462806004 1.7094965172
H -1.3464473083 -0.5041343569 1.7676883432
H -2.2445864338 -3.3877054357 -2.3103754521
H -0.9406736652 -1.1577488132 -3.1985773583