18

C -0.1593288019 1.5504659950 -0.0261105073
C 0.0131875937 0.0591593709 0.0327903199
C -1.2121912392 -0.8765661361 0.1337368954
N -0.4844174932 -1.7568891819 1.0969553836
C 0.6511623225 -0.7897222747 1.1953714694
C 1.7361587023 -1.1271637437 0.1506298592
O 1.0059130365 -0.4376934861 -0.8908430609
C 1.0106057314 -0.3105087738 2.4994217369
C 1.2972066891 0.0899099021 3.5977295627
H 0.8030673144 2.0558173767 0.0925457276
H -0.5783109463 1.8394967457 -0.9968294716
H -0.8376864975 1.8972274315 0.7589735572
H -2.0935427019 -0.3792540000 0.5572500521
H -1.4904154454 -1.3780688786 -0.7978673453
H -0.9672286271 -1.8650786917 1.9813343581
H 2.7089608041 -0.6561328037 0.3350434171
H 1.8542015923 -2.1959170487 -0.0508895305
H 1.5572929261 0.4440908571 4.5646318865