18

C -0.2833542314 1.5179112352 0.0307014946
C 0.0904779036 0.0291826634 0.0277559800
C 0.7722310276 -0.3979778901 -1.2317004333
C 0.3645361770 -0.7226767350 -2.6194554204
N 1.3762617116 0.1545958154 -3.2221195979
C 2.1267400019 0.0281067331 -1.9372592854
C 2.4971240144 -1.4700731994 -1.7926651463
O 3.5136471248 -2.0499481216 -1.5266401605
C 1.0490303936 -1.8351435314 -1.7961410039
H 0.6058143940 2.1470664822 -0.0752463069
H -0.9593210721 1.7554195091 -0.7960340138
H -0.7790464643 1.7898847112 0.9671817387
H 0.7397935443 -0.1934123426 0.8839162509
H -0.8098557297 -0.5829264954 0.1619227655
H -0.6235232144 -0.8695914996 -3.0404136288
H 1.8745735755 -0.2657917360 -4.0107744763
H 2.8143381500 0.8236380713 -1.6590034856
H 0.5641083534 -2.7605702700 -1.5174754504