16

C -0.0251747316 1.5667474529 0.0566085849
C -0.0217103241 0.0184973581 0.0567934240
C 0.7617866397 -0.5073154768 1.1748546059
C 1.4049407008 -0.9123098405 2.1056633467
C -1.4320016052 -0.5225820238 0.0738091242
N -1.9868977772 -0.9132446641 -1.0487168705
O -3.2801616243 -1.3055249618 -0.7162808906
C -3.4551395957 -1.1394731875 0.6026535229
C -2.3297624606 -0.6462863331 1.1746023074
H 0.9989736858 1.9450392069 0.0109320887
H -0.5808884485 1.9355045093 -0.8091538632
H -0.4942248938 1.9526332652 0.9655711664
H 0.4311116272 -0.3203601020 -0.8823189192
H 1.9794141919 -1.2839769091 2.9178516516
H -4.4243305947 -1.4187967487 0.9861699379
H -2.1459535396 -0.4190684150 2.2107728129