17

O -0.0619463209 1.4455564527 0.0419518103
C 0.0241553473 0.0355341861 -0.0165867394
C -1.3677335529 -0.5459859982 -0.2327509404
C -1.5887336870 -0.6349269913 -1.7127670667
C -0.3289480666 -0.0951335338 -2.3968401127
C 0.6780081337 -0.5389990812 -1.3104489894
C 0.2903982412 -2.0224735856 -1.1442227858
O 0.9883765247 -3.0010784502 -1.1525128682
C -1.1891683816 -1.8936103935 -0.9416635957
H 0.8154731159 1.7928826355 0.2319735073
H 0.5072634584 -0.3666239280 0.8853249451
H -2.1709333348 -0.3878842280 0.4740455568
H -2.5751109730 -0.5513310681 -2.1486624642
H -0.1311071465 -0.5635759080 -3.3657542908
H -0.3578953852 0.9905774856 -2.5152904201
H 1.7356750945 -0.3435676039 -1.4697818875
H -1.8477328574 -2.7354304900 -0.7840007785