16

O -0.1068920281 -0.0539596569 -0.4224400427
C -0.0197268272 1.1478849464 -0.2550797884
C 1.1970667219 1.8621010963 0.0672364388
C 1.1802745791 3.2145552797 0.2170515607
N 2.2684813670 3.9608033425 0.4999940064
C 3.6365286217 3.4520839640 0.4455686116
C 3.6946269726 1.9375218768 0.4674698538
O 3.0956767183 1.2916695523 1.5771676867
C 2.4732770229 1.1471923667 0.2645509505
H -0.9163733610 1.8051462534 -0.3600952217
H 0.2487447734 3.7678520467 0.1296463161
H 2.1589479647 4.9595017928 0.5495793789
H 4.1345781461 3.7960825023 -0.4733585464
H 4.2010635391 3.8573947176 1.2946358324
H 4.6595552222 1.5359155552 0.1543033469
H 2.5334714675 0.1424754642 -0.1424385036