14

O 0.0377598757 -0.0268592554 -0.4584974806
C -0.0342424540 1.1549128277 -0.1800842297
C 1.1438174949 1.9705390785 0.0516426441
C 2.1270304447 2.6383480409 0.2410898335
C -1.2839436891 1.8601962565 -0.0527204821
C -2.3398275608 2.4406029799 0.0569556620
C -3.5865533603 3.1296610266 0.1614902041
C -3.7828704787 4.1120983286 1.2788761933
N -3.6447802021 4.5928529328 -0.0905919367
H 3.0018090071 3.2192873147 0.4063822043
H -4.4553783084 2.5921377799 -0.2073964704
H -4.7769101008 4.2085545170 1.7053299025
H -2.9615735067 4.2458015909 1.9762400348
H -2.7009333116 4.9405453215 -0.2445938191