21

C -0.1124595448 1.4616115259 -0.0194716792
C 1.2761365491 2.1235668957 0.1887416001
O 1.4678325890 2.7843367457 1.4333484010
C 1.5216926439 2.0213909501 2.6322704979
C 2.7564776029 1.0938636805 2.7895675548
C 2.4015327030 -0.4174911966 2.8930610641
C 1.5112375494 -0.7466484668 1.7865804085
C 0.7511645992 -0.6432160343 0.8568932316
C -0.0529984479 -0.0800874902 -0.2208184523
H -0.7380961713 1.6834196092 0.8505371589
H -0.6130918773 1.9092615349 -0.8850956933
H 2.0679082114 1.3825552063 0.0156995676
H 1.4153611278 2.9224267083 -0.5456769503
H 1.5334829136 2.7838316896 3.4167938855
H 0.6015986733 1.4362758059 2.7626950718
H 3.4183631804 1.2464469102 1.9315695391
H 3.3282441342 1.3814958084 3.6787690251
H 3.3178134823 -1.0190001238 2.8848826397
H 1.9099223320 -0.6215575506 3.8532966404
H -1.0675785850 -0.4942126049 -0.2449321090
H 0.3960545048 -0.3132205034 -1.1951778920