15

C 0.0170770495 1.4245422716 0.0270150129
N -0.0153300100 -0.0207950104 -0.0770100002
C 0.0535028777 -0.7954321011 -1.1893298789
C -0.0288957611 -2.0736301372 -0.6860473255
O -0.0183398612 -3.2088447801 -1.4249501468
C 0.0792423828 -4.4106266162 -0.7794907075
N 0.0466491932 -5.4578498640 -1.4766815085
N -0.1409691231 -2.0254806938 0.6593366068
N -0.1291257811 -0.7675255637 1.0290486494
H 0.9552113504 1.8168287204 -0.3743545636
H -0.8225140307 1.8668853182 -0.5156743868
H -0.0602219116 1.6709991405 1.0856689904
H 0.1489736891 -0.4051532950 -2.1867815814
H 0.1781642651 -4.3114931404 0.3022357959
H 0.1370679509 -6.2731379487 -0.8731644562