20

C 0.1137980985 1.3900540782 0.2607485789
N 0.0701921967 -0.0482732203 0.0517442954
C -1.0341009153 -0.6499281313 0.0433830459
O -2.2592845155 -0.0516290635 0.2478424145
C -3.3046073839 -1.0141075010 0.0956035667
C -2.6353656067 -2.3817600680 0.3315573823
O -3.2710829776 -3.4538886496 -0.3320623731
C -1.2156150279 -2.1360519145 -0.2094951656
C -1.0523131096 -2.4702305341 -1.7015437633
H 0.5778412943 1.6002970104 1.2321013890
H 0.7607555582 1.8391463677 -0.5006813656
H -0.8645760406 1.8823403688 0.2303690330
H -4.0942089864 -0.7730432986 0.8129162432
H -3.7195961339 -0.9728343895 -0.9196722646
H -2.5785838008 -2.5713727643 1.4132309044
H -4.0830755880 -3.6656625854 0.1381144146
H -0.4665047365 -2.6902062443 0.3595102299
H -1.7618876518 -1.9158208210 -2.3236482561
H -0.0418575075 -2.2031118089 -2.0194246551
H -1.2171251359 -3.5357346906 -1.8738996343