21

C 0.1242188446 1.5510951566 0.2226450587
C -0.1864259785 0.0768360460 -0.0935844680
C 0.5308910849 -0.4263208016 -1.2598256048
C 1.1232959583 -0.8223286540 -2.2302095869
C 1.8695117054 -1.3230338134 -3.3805302656
C 2.1378954533 -2.8387180003 -3.2903511552
O 0.9392327574 -3.5718597642 -3.3671480858
O 1.1022933966 -1.0650021350 -4.5662264208
C 1.8837691818 -0.8766398055 -5.7295635239
H 1.1899351260 1.6894631257 0.4243978255
H -0.1455148079 2.1938497864 -0.6196319280
H -0.4384167894 1.8792966199 1.1016898530
H 0.0572108618 -0.5462491074 0.7765093177
H -1.2648665626 -0.0455752827 -0.2563338563
H 2.8342547287 -0.7946236575 -3.4474967966
H 2.8381968930 -3.1192406824 -4.0953533908
H 2.6176837510 -3.0737102263 -2.3353446022
H 0.4096380996 -3.1347144004 -4.0465220088
H 2.5592797856 -0.0152257925 -5.6221659067
H 2.4859255908 -1.7598998619 -5.9858204013
H 1.1884365698 -0.6799681397 -6.5489846333