16

N -0.1094596341 1.4841464662 0.2047907155
C -0.0002914129 0.0354283527 -0.0091837269
C 0.7219270137 -0.4130495730 -1.3200810627
C 0.0391151091 0.0654145715 -2.6076808869
O 0.7899434354 -0.2933513031 -3.7507275012
C 0.7516732121 -0.5313273978 1.1339493237
N 1.3916090933 -0.9702112158 1.9884325685
C -1.3695456315 -0.5291842348 0.0086333556
N -2.4366698133 -0.9670918034 -0.0363398849
H 0.8122983010 1.9067369352 0.1435289801
H -0.6972249741 1.9000389350 -0.5101546019
H 1.7437914332 -0.0218355306 -1.2841795576
H 0.7925011857 -1.5069360432 -1.3227282024
H -0.9910246052 -0.3152598776 -2.6570910533
H -0.0143894729 1.1589519221 -2.6228753515
H 0.7111810606 -1.2442525834 -3.8780186240