21

C 0.4171009528 1.4011411752 -0.4354300299
C 0.0172527513 -0.0407823201 -0.0642081907
C -1.4656887079 -0.0806382919 0.3309488394
C 0.3506770529 -0.9753907245 -1.2139112468
C 1.4587417365 -1.6829288153 -1.0097761268
C 2.0806655149 -1.3827856381 0.3318846544
C 0.9245801849 -0.6488849690 1.0740778495
C 1.3573201392 0.2838639937 2.1021850726
C 1.7179170043 1.0507449199 2.9560610340
H 1.4832602115 1.4715130430 -0.6699048705
H -0.1424830423 1.7342177992 -1.3160546251
H 0.2045800591 2.0909137700 0.3866252948
H -2.0960390533 0.3205023209 -0.4701942172
H -1.7950969928 -1.1042518456 0.5374871731
H -1.6431516846 0.5226559783 1.2279976118
H -0.2494101874 -0.9918292727 -2.1184040901
H 1.9053611380 -2.3705404494 -1.7196008217
H 2.4075856723 -2.2745873411 0.8765785367
H 2.9638676158 -0.7388726516 0.2292373851
H 0.3198483587 -1.4273796682 1.5567536093
H 2.0379730760 1.7256167174 3.7106164882