21

C 0.1401186028 1.5096798007 -0.0115983129
C -0.0737699870 -0.0145949875 0.0014308003
C -1.5897172535 -0.3137761532 0.0670114842
C 0.5361440347 -0.6209660605 -1.2890960816
C 0.7820316938 -2.1222157265 -1.2122535483
O 2.1247039653 -2.5222216517 -0.9064503991
C 1.1021664369 -2.7199044109 0.0909086059
C 1.1201190294 -1.8299863341 1.2796820651
C 0.5870842910 -0.6091499508 1.2327439360
H 1.2058623013 1.7599872192 -0.0023388726
H -0.3037365799 1.9556359300 -0.9084733232
H -0.3253050795 1.9814152676 0.8609591760
H -2.1160968339 0.1732387565 -0.7619191924
H -1.7806745163 -1.3897940519 0.0119724862
H -2.0237512534 0.0531261963 1.0030554347
H -0.1159190521 -0.3891874586 -2.1386932474
H 1.5023999909 -0.1453555594 -1.4877119063
H 0.3037950965 -2.7436660275 -1.9685101730
H 0.8695837602 -3.7693932570 0.2711114156
H 1.5660525387 -2.2096947613 2.1947355013
H 0.5839911441 0.0132710406 2.1258251116