20

C 0.7604268840 -0.3264123093 -1.3062536819
C -0.0788433712 0.2803420066 -0.1845864338
O -0.3751677697 1.6498351777 -0.4444639828
C -1.4656853765 -0.3839985837 -0.0227826455
C -1.3545212623 -1.8373834524 0.1005499835
N -1.2833088116 -2.9807899470 0.2592555418
C -2.2200210701 0.1758188483 1.2224607330
C -3.6844714547 -0.2527009340 1.2634042741
O -1.5301885000 -0.1591974456 2.4152900291
H 1.7137678725 0.2061594556 -1.3918185308
H 0.9818216063 -1.3799609061 -1.1142563351
H 0.2383154661 -0.2436462425 -2.2648589541
H 0.4434040520 0.1761475915 0.7764008674
H 0.4491418333 2.1445344683 -0.4136643751
H -2.0469867840 -0.1537655881 -0.9244540806
H -2.1495569233 1.2632908938 1.1465046793
H -4.2259766966 0.1058750405 0.3821182019
H -3.7771936498 -1.3445354653 1.2958222082
H -4.1628682048 0.1596931145 2.1553128487
H -1.6311447196 -1.1079234728 2.5628568926