18

C -0.0645072248 1.5255731191 -0.0121242164
C 0.0176053268 0.0155571959 0.0201648550
C 1.3471000484 -0.6944924570 -0.2358564129
C 0.7265690591 -0.6969129136 1.1176673954
C 1.2014255443 -0.2197707099 2.5010525747
N -0.1661161468 -0.6882287702 3.0099207949
C 0.2615909640 -1.8158341450 2.0638820488
C 1.6556987763 -1.6875227537 2.7369223527
O 2.4911869842 -2.3299257820 3.2906232255
H 0.8511173602 1.9790250560 0.3815417885
H -0.2022940849 1.8905907266 -1.0356366424
H -0.9020651175 1.8866653883 0.5932776404
H -0.8589106955 -0.4930684296 -0.3745466230
H 1.3421400978 -1.6128563616 -0.8142888027
H 2.2233136569 -0.0730254079 -0.3961762030
H 1.6363664515 0.7320615834 2.7986968602
H -0.0970815260 -0.9961929177 3.9856805307
H -0.3740542138 -2.6752743510 1.8594045738