16

O -0.1109632694 1.5614919064 -0.0718845361
C 0.0457099472 0.1710258018 0.0041229178
C -0.0347175723 -0.5205691938 1.3733107740
C -1.5810364804 -0.3487663372 1.5011515717
C -1.7027189248 -1.8520011737 1.7225046230
N -0.5609402867 -1.8206292337 0.7014487041
C -1.2727959144 -0.6034286743 -0.0045563902
C -2.2285322666 -0.8615385693 -1.1226856798
O -3.4248457813 -0.9113442484 -0.9809247065
H 0.7478837804 1.9751558868 0.0597692111
H 0.8210533803 -0.2186891594 -0.6691223058
H 0.6970277895 -0.5831627039 2.1807720607
H -2.1386437148 0.4863969124 1.9273514433
H -1.3885692821 -2.2570421552 2.6896891261
H -2.6013543754 -2.3571951921 1.3608734377
H -1.7507041492 -1.0289580664 -2.1133402212