23

C 0.8883736485 0.4596064123 -1.2349199752
O 0.0662801200 0.3605951131 -0.0918539541
C 0.4937936801 -0.5716656511 0.8892446616
C 1.8140104666 -0.1603064155 1.5497934925
C 1.8037944364 1.2564399301 2.1118668422
O 3.0580629868 1.4732679156 2.7455929406
C -0.6490139830 -0.8725572966 1.8959978179
C -0.3326875618 -2.3860665354 1.7656109554
C 0.4665502344 -2.0773324166 0.4710487039
H 1.0605274161 -0.5199683138 -1.7044543493
H 0.3627283299 1.0994616008 -1.9483625992
H 1.8656682352 0.9134440781 -1.0169087198
H 2.0396082700 -0.8586961330 2.3638623349
H 2.6411728833 -0.2505698271 0.8357147758
H 1.6327873633 1.9788905683 1.3012527539
H 0.9734432628 1.3722924106 2.8261386926
H 3.0717974643 2.3756028880 3.0773632378
H -0.5830190433 -0.4195550542 2.8878958146
H -1.6099022936 -0.6112977108 1.4470841028
H 0.3080180043 -2.7495861058 2.5729263957
H -1.1832211456 -3.0638417151 1.6720192532
H -0.1473478915 -2.2116844145 -0.4235676534
H 1.4250954267 -2.5831824677 0.3289911955