21

C -0.3669098112 1.3099208258 0.1434520047
N 0.0561305325 -0.0721430216 -0.0543963309
C 0.8436207091 -0.5636576132 1.0666258570
C 2.1168569265 0.1547878660 1.2068282576
N 3.1177994823 0.7170952000 1.3336128339
C -1.0514630333 -0.9817219710 -0.3519636033
C -1.7112966783 -0.6974350881 -1.6823396963
C -3.0388893655 -1.3418747893 -1.9927985376
C -2.9601287583 0.1469822769 -1.7798401980
H 0.5082925733 1.9408704299 0.3189807041
H -0.8736875827 1.6700980764 -0.7524680723
H -1.0559435027 1.4254805268 1.0019745933
H 0.3133698616 -0.4998214215 2.0380325447
H 1.0739006906 -1.6224607036 0.9037763494
H -0.6389012432 -1.9984721918 -0.3718355383
H -1.8213281271 -0.9688294720 0.4468589327
H -1.0073290799 -0.6176702309 -2.5056205495
H -3.2049375905 -1.7153441416 -2.9967505072
H -3.5052012234 -1.9388680574 -1.2153162029
H -3.3758689989 0.5465118584 -0.8603413698
H -3.0746340211 0.7990593519 -2.6387143611