18

C 0.0461034810 1.5408455708 0.0038407785
C 0.0606644560 0.0317006455 0.0425678609
C -1.2901300016 -0.7426134317 0.3186799530
C -0.5232642659 -1.6649618981 1.2706701621
C 0.6739877208 -0.7729659587 1.2295296270
N 0.7531032992 -2.1398269431 0.7129198455
C 0.9100534476 -2.1115206718 -0.7441195918
C 0.6466302562 -0.6602890198 -1.1835245357
O 0.8425326812 -0.1818510578 -2.2695201432
H 1.0654930293 1.9405570642 0.0004106948
H -0.4437311304 1.8910241930 -0.9098361109
H -0.4814054917 1.9601184412 0.8660271232
H -1.9811759649 -0.0966423434 0.8659575595
H -1.8167053915 -1.1860209458 -0.5335076479
H -0.9427631343 -2.2369817537 2.0903044206
H 1.3556393652 -0.4228993033 1.9959352922
H 1.9334401755 -2.4009819359 -1.0038451229
H 0.2317644683 -2.8063249417 -1.2498368752