15

N -0.0979268604 1.4127403041 -0.1093608601
C -0.0608929520 0.0187925499 -0.0736562120
C -1.0785853656 -0.8822241835 0.0311228057
C -2.5583409357 -0.6917295012 0.0454565024
O -2.9652005954 0.3032389980 -0.8938604846
O -0.5828080678 -2.1450755230 0.1054119511
N 0.8065864507 -2.0897719930 0.0529646497
C 1.0941516529 -0.8161600267 -0.0517815125
O 2.3547305466 -0.3553083448 -0.1420045978
H 0.6851895157 1.8136930322 -0.6083614087
H -0.9779143019 1.7545768913 -0.4755846928
H -3.0514060399 -1.6578134960 -0.1292673271
H -2.9011321546 -0.3192152883 1.0174420787
H -2.7205035920 -0.0135245205 -1.7705294367
H 2.9500421694 -1.1159396886 -0.1133126553