16

N 1.0504035326 -0.0020895540 0.1006422124
C -0.1119862500 0.5032433468 0.0128844033
N -1.2306596782 -0.2828277008 0.2354220520
C -2.5307532923 0.1894500292 0.1591249188
O -2.7834503411 1.3482612676 -0.1134874183
C -3.5801685399 -0.8314388615 0.4362675351
C -4.8455192851 -0.3436754130 1.1225097833
C -4.8875702884 -0.6937341652 -0.3264317482
H 1.7570302902 0.7055112287 -0.0913188262
H -0.3777030668 1.5339218771 -0.2285445859
H -1.0537309742 -1.2505286515 0.4639331689
H -3.2409213291 -1.8351346378 0.6689335628
H -5.3057897618 -1.0130798954 1.8397568511
H -4.8613067735 0.7081679278 1.3819978157
H -4.9314037093 0.1240657232 -1.0358300618
H -5.3776106631 -1.6104000614 -0.6329836029