12

N 0.2067294872 1.3862700940 0.1357367912
C -0.0000989257 0.0180067241 0.0335040154
C -1.0706081364 -0.8220782933 -0.0341629611
O -2.4063343194 -0.8484268944 -0.1234982055
N -2.7207155569 -2.3339632810 -0.1381193839
N -1.6727127356 -2.9856304809 -0.0683207756
C -0.5733166832 -2.1491441540 0.0046625874
C 0.7884956667 -2.0924320299 0.0780939151
O 1.1258687815 -0.7765105837 0.1144329330
H 0.6395679523 1.7976763901 -0.6848316989
H -0.6505640757 1.8775552614 0.3504508615
H 1.5956009351 -2.8022381224 0.0895842713