17

O -0.0096818819 1.3792392571 0.0867994100
C 0.0369557645 -0.0224344219 0.0278379739
C -1.3793080984 -0.6225149061 -0.1512713539
C -1.2461623040 -0.2668368198 -1.6622082084
C 0.2638736691 -0.6159583473 -1.4354973625
C 0.1727178109 -2.0761528678 -1.0814184514
O 0.9293664411 -2.9927551574 -1.2796003517
C -1.0944143119 -2.1303835715 -0.1859337008
O -0.7953976196 -2.6875399904 1.0751303815
H 0.8935918953 1.7109849939 0.0997389219
H 0.6546450342 -0.4418314451 0.8292815217
H -2.2129577055 -0.2781484517 0.4582458887
H -1.8046098532 -0.8637898682 -2.3882104635
H -1.3853475380 0.7962256238 -1.8452007083
H 1.0747170669 -0.2889783046 -2.0836720249
H -1.9125385264 -2.6756747590 -0.6822451010
H -0.2088835732 -3.4375663638 0.9118009786