11

O 0.1053328239 1.3328604072 0.1004474732
C 0.0710128784 -0.0064192689 0.0630913061
N 0.0920076370 -0.5947641489 -1.1294613779
C 0.0565556394 -1.9301057823 -1.1265435787
N 0.0028680332 -2.7312138444 -0.0677107043
C -0.0170411604 -2.1068971128 1.1206990223
C 0.0152045133 -0.7315842211 1.2568188368
H 0.1414406236 1.6295942798 -0.8207612468
H 0.0737859725 -2.4093277708 -2.1026803343
H -0.0609173651 -2.7455941201 1.9996504490
H -0.0010909158 -0.2341988978 2.2176405645