18

O -0.0650695577 1.4573087706 0.0106313439
C 0.0303509714 0.0434819284 0.0026929393
C -1.3968597306 -0.5127196193 0.0119598218
C -1.4152380106 -2.0201228780 0.0042914026
C -1.4145077907 -2.7462124449 -1.1885020753
C -1.3981360320 -4.1367651273 -1.1432421890
N -1.3824103703 -4.8449798923 -0.0106858793
C -1.3839311680 -4.1486528821 1.1293021397
C -1.3996656485 -2.7586277523 1.1893037464
H 0.8254502454 1.8202399971 0.0053341888
H 0.5609478065 -0.3226746374 -0.8904717670
H 0.5758970866 -0.3316583439 0.8830225337
H -1.9080957349 -0.1275986944 0.9002569048
H -1.9230882350 -0.1184213335 -0.8634769408
H -1.4335653931 -2.2345067291 -2.1459200824
H -1.4012583475 -4.7115010503 -2.0668614811
H -1.3755263310 -4.7330031264 2.0468374983
H -1.4066606199 -2.2569599648 2.1521806756