17

C 0.0018830746 1.5045884519 0.0192390478
C 0.0198484341 -0.0068898792 0.0034076300
C 0.5815251704 -0.7000605003 -1.2592537601
O 0.0794887029 -2.0632355849 -1.1837845919
C -0.6716447901 -2.1408689182 0.0098670214
O 0.1728865763 -2.0864655222 1.1407289111
C 0.6805186663 -0.7246860949 1.2028075862
C -1.3261049257 -0.7557884297 0.0500174760
O -2.4563893793 -0.3687128871 0.0993262124
H 1.0144634951 1.9195823325 -0.0174152478
H -0.5561094979 1.8926859012 -0.8380036450
H -0.4850209327 1.8750587681 0.9261658182
H 0.2166038889 -0.2304453431 -2.1800722859
H 1.6775835412 -0.7212703927 -1.2787439316
H -1.2719473313 -3.0459943450 0.0249455717
H 1.7745847823 -0.7454461059 1.1337856150
H 0.3911206350 -0.2738192405 2.1591425526