24

C -0.0805399133 1.4957663183 -0.1489670207
C 0.0675412411 -0.0265912926 -0.0954333757
C 0.6093712358 -0.5312620705 1.2462211586
C 0.8259877462 -2.0492032458 1.2855206416
O 1.7079481873 -2.4814359079 0.2494508446
C 1.3053296832 -2.5236303384 2.6617491709
N 1.2601609188 -3.9731423604 2.7737887484
C 2.4427605504 -4.7073086435 2.3467682068
C 2.1117815190 -4.5795301412 3.7922945067
H 0.8830325922 1.9946191369 0.0060731384
H -0.4713439931 1.8237554316 -1.1172710778
H -0.7657471012 1.8581450198 0.6258427061
H -0.9050009368 -0.4985898961 -0.2870172372
H 0.7313676570 -0.3698447640 -0.8959725434
H 1.5642441193 -0.0296405339 1.4710963679
H -0.0773935728 -0.2474044987 2.0546077730
H -0.1196432465 -2.5595009428 1.0673102730
H 2.5391997127 -2.0056980400 0.3610668091
H 2.3208445877 -2.1173867061 2.8477945060
H 0.6485882424 -2.1065274868 3.4350470003
H 2.2569388329 -5.6338382988 1.8117318256
H 3.2918181294 -4.1364514389 1.9769519554
H 2.7412835149 -3.9206903076 4.3895407240
H 1.6752199334 -5.4095232024 4.3405926883