19

C -0.1199334863 1.5921662341 -0.1014098059
C 0.0264075387 0.0952766552 0.0284215830
O -1.1304102232 -0.6108091360 -0.3539161307
C 1.3254090551 -0.6693083102 -0.2412623566
C 2.6082782942 0.0800768810 -0.1234536160
C 2.8158771257 0.5164296227 1.1203148832
C 1.6958430612 0.1048277532 2.0666798608
O 1.0546306809 1.2090743380 2.7111673413
C 0.7135082853 -0.6254511562 1.1563832351
H 0.7803116222 2.1236592375 0.2019529305
H -0.3433068106 1.8551605730 -1.1443655406
H -0.9471805566 1.9387569648 0.5236620318
H -1.3339276455 -0.3632006439 -1.2630104209
H 1.2500020553 -1.5546613289 -0.8625315716
H 3.2614738175 0.2635579462 -0.9700613753
H 3.6523716191 1.1245010051 1.4490047028
H 2.0714336946 -0.5889687885 2.8368831457
H 1.6984912256 1.6216005219 3.2960090816
H 0.1791015267 -1.4812365288 1.5488746018