13

N 0.0071535718 1.3855569326 -0.1253631835
C 0.0112037719 0.0241674892 -0.0650746573
C -1.1993286035 -0.6922006389 -0.0897462431
O -2.3853672440 -0.0188306748 -0.1269264840
C -1.0741823287 -2.0657340218 -0.0658510795
F -2.2077234790 -2.7801679404 -0.0830603789
N 0.0656226342 -2.7220096216 -0.0246901464
C 1.1502690254 -1.9460818072 -0.0006276344
N 1.1867830961 -0.6169232013 -0.0148363360
H 0.8714624461 1.8450381507 0.1101588539
H -0.8512585648 1.8666597413 0.0843846181
H -3.0989148934 -0.6679176720 -0.1223175071
H 2.1084665778 -2.4562599958 0.0369144782