20

C -0.2005024003 1.4572693312 0.0422890090
N 0.0844458586 0.0272264831 0.1511436295
C 1.3613762169 -0.5540780468 -0.1865977952
C 2.5510511358 0.3276220993 0.2465745755
C 2.0432346681 0.2252890962 1.7120210284
O 1.8254281378 1.4490007712 2.3809053329
C 0.8268318956 -0.5942452057 1.2332718717
C 0.1549555845 -1.6372993878 2.0708499589
O -0.5614561800 -1.0221989745 3.1461437039
H 0.5836210428 2.1210471524 0.4161143356
H -0.3997204004 1.6854780952 -1.0098065972
H -1.1150104694 1.6694295579 0.6062627271
H 1.3951904145 -1.3443864571 -0.9296783573
H 3.5222867065 -0.1490116489 0.1025025663
H 2.5838733452 1.3335498880 -0.1778551305
H 2.7094296156 -0.4251923361 2.2986305653
H 1.2657273858 1.2555865062 3.1417354425
H -0.5024359682 -2.2606723131 1.4504924804
H 0.8957534303 -2.2870371219 2.5492233265
H -1.2930067995 -0.5367520889 2.7495214465