19

C -0.0660378962 1.4954125388 -0.0596668599
C 0.1653249071 0.0110488950 -0.0880670538
O -0.5494518347 -0.7792772970 0.8808135783
C 0.8878642233 -0.7703960098 0.9319445618
C 1.5520634309 -1.9817812358 0.2918723565
C 1.1376877639 -1.9457102811 -1.1820056254
C -0.3279484729 -2.0544972904 -1.5651503926
C 0.3242708518 -0.7019934799 -1.4344917944
O 0.5824907148 0.0895002089 -2.5546267312
H 0.7094909574 2.0154356731 -0.6279047879
H -1.0350577186 1.7475049072 -0.5058320821
H -0.0648442632 1.8603314774 0.9700947937
H 1.3083666707 -0.3303713368 1.8346182612
H 2.6401456412 -1.8809564730 0.3780751245
H 1.2692209111 -2.9115513261 0.7977131914
H 1.8567158925 -2.2662017489 -1.9271194560
H -0.5201352809 -2.3930964635 -2.5782277121
H -1.0542694381 -2.3514596652 -0.8192886163
H -0.2617828302 0.3756654072 -2.9198848257