21

C 0.1736295150 1.4734193430 0.0618548708
C 0.1099949308 0.0183639795 0.0579421023
C 0.0467589044 -1.1856561699 0.0641380539
C 0.0423924064 -2.6450244118 0.0076256910
C 1.1323535836 -3.0901038168 -0.9773773779
C -0.1280154615 -3.4065903026 1.3843016708
C -1.5818963875 -2.8526173914 1.4394961377
C -1.3748492004 -3.3484770813 -0.0216439533
C -0.7176138470 -4.6139744430 0.6002329017
H 0.9947437935 1.8387775965 -0.5651022805
H -0.7539815838 1.9149835850 -0.3197061579
H 0.3323815336 1.8637936910 1.0734905292
H 2.1067911227 -2.7167221395 -0.6475445550
H 1.2044214378 -4.1730007639 -1.0861491125
H 0.9378896153 -2.6620943888 -1.9656677937
H 0.6023042339 -3.4314961628 2.1952313380
H -2.2878440941 -3.4292142828 2.0417190540
H -1.6995361228 -1.7796022109 1.5881108386
H -2.0923176256 -3.3059139044 -0.8432410011
H -0.0498382580 -5.2135041616 -0.0167507846
H -1.3914151261 -5.2571340036 1.1711992584