17

N 0.2356015939 -1.1932854794 0.3584441609
C 0.0770026690 -0.0572319870 0.2185252489
C -0.1754605237 1.3667163607 0.0558588409
C -1.5603509855 1.7363883606 -0.4510502277
C -1.8423286865 1.1925181513 -1.8365277047
C -2.5897019796 2.0194918502 -2.8162114935
N -1.1537591025 1.7599282892 -3.0040512296
C 0.6220434870 2.3039326559 0.8728092222
O 0.9135731780 2.1068523649 -0.5087264666
H -2.3098476654 1.3656193595 0.2590628441
H -1.6242967431 2.8302236251 -0.4563319486
H -1.9502592956 0.1106321758 -1.8841610959
H -3.2407389757 1.5453263229 -3.5447872092
H -2.9101002602 3.0106277871 -2.5029673240
H -0.6016421063 2.5663043882 -2.7217311515
H 0.1827592768 3.2658454586 1.1319653742
H 1.3630877194 1.9151288663 1.5674341599