14

N 0.0049590154 1.5104232757 -0.0567164868
C -0.0035152383 0.0639182745 -0.0137824780
C 0.9432996661 -0.5666259822 -0.9452205001
N 1.7212554910 -0.9426976867 -1.7139277983
C -0.1121667606 -0.6476811526 1.3775352539
C -1.5534735237 -0.1151197640 1.5398610479
C -1.3775599320 -0.6778433637 0.1116694264
O -0.6488562242 -1.8313455755 0.6764769035
H 0.9356344792 1.8599855357 0.1548084862
H -0.2141646051 1.8325804732 -0.9954884717
H 0.6774404350 -0.8062843399 2.1112699071
H -2.1829838113 -0.7279848458 2.1837393103
H -1.6962892647 0.9570589767 1.6570750482
H -2.1067886066 -0.8726508053 -0.6739999287