19

C -0.1433484511 1.5763176264 0.1088153388
C -0.1774847309 0.0766618706 0.2504041996
O 0.9610592842 -0.6548871697 -0.2271342869
C 0.6774217385 -0.6843807337 1.1809487548
C 1.6506945261 -0.1054821770 2.1414167524
C 1.6724262292 -0.7988189689 3.2808804997
C 0.6964725076 -1.9509204808 3.2681459330
C 0.2502591151 -2.0299988847 1.7824901234
O -1.1371927301 -2.2482416359 1.5939827646
H 0.8301626406 1.9869147209 0.3861282112
H -0.3497932028 1.8627464265 -0.9278990313
H -0.9103169593 2.0357563753 0.7416483123
H -1.1277278753 -0.3934855703 -0.0006414147
H 2.2466967732 0.7687979180 1.9134687892
H 2.2915243484 -0.5669672541 4.1403692362
H 1.1340914050 -2.8865584745 3.6349852646
H -0.1805245516 -1.7393261257 3.8937808146
H 0.8326787601 -2.8043160286 1.2628661195
H -1.3185650468 -3.1796199439 1.7499527990