23

C 0.0708696302 1.5518424944 0.0693955475
C -0.0576774518 0.0256667087 0.0502134385
C -1.4931043167 -0.5102270153 -0.0840891443
C -2.1748077947 0.0254261869 -1.3549200006
C -1.4772758679 -2.0558549132 -0.0536328920
C -2.8528590735 -2.6246959721 0.3027594654
O -3.3399152018 -2.0259006067 1.4953887097
C -3.4174446184 -0.6334193578 1.3460035144
O -2.1736595056 -0.0369687302 1.0989101528
H 1.1026156806 1.8440093967 0.2871798010
H -0.1997477632 2.0009079868 -0.8910360962
H -0.5744460934 1.9808917780 0.8400956620
H 0.5419855894 -0.3950177096 -0.7669001607
H 0.3499769706 -0.3803752092 0.9827734139
H -1.5472298475 -0.1729922882 -2.2296354394
H -3.1459868606 -0.4409028806 -1.5370974633
H -2.3308176415 1.1038386331 -1.2791394788
H -1.1406041930 -2.4516639415 -1.0185210293
H -0.7624647598 -2.3826066262 0.7090468814
H -3.5738385709 -2.4656046137 -0.5162387737
H -2.7972052017 -3.7001621082 0.4909932451
H -4.1378113682 -0.3872580062 0.5440437387
H -3.7720978006 -0.2283043558 2.2964817879