16

N 0.1427283715 1.1505882744 0.4576388323
C 0.0664667577 -0.0168203816 0.0186244962
O 0.9832267641 -0.8011086683 -0.6509068286
C 0.0656204391 -1.9190409349 -0.6837400456
C 0.0205143974 -2.8729096703 -1.8199558067
C 0.5140117984 -3.3105057981 -0.4416713106
C -1.0336795579 -1.0839377973 -0.0048690671
C -1.5719572536 -1.5481644227 1.2548916002
C -2.0176075408 -1.9629139909 2.2904466242
H 1.0598024767 1.5612838021 0.2757211164
H -0.9478278995 -3.2218914948 -2.1633122807
H 0.7641636154 -2.7504650187 -2.5998956940
H 1.5791157253 -3.4757469905 -0.3233599854
H -0.1215949960 -3.9463999923 0.1653203569
H -1.8355637134 -0.8039836308 -0.6961609439
H -2.4091670045 -2.3095247554 3.2148595964