16

C -0.0371293704 1.5510772133 0.0297954988
C -0.0209257494 0.0051508277 -0.0383581795
C 0.8305785912 -0.5401122548 -1.1743698820
C 1.8503648379 -1.2307124638 -0.6618620302
N 1.8117841619 -1.2404531775 0.7407913131
C 0.7337699997 -0.5306937950 1.2266206942
O 0.4588904717 -0.3361637171 2.3840351336
C -1.3799772568 -0.5280116695 -0.0731175480
C -2.5007684833 -0.9592078072 -0.1183016754
H 0.9850290014 1.9397190988 0.0176591788
H -0.5809990088 1.9616743290 -0.8242015451
H -0.5275044652 1.8680370519 0.9532401460
H 0.6098278451 -0.3906798587 -2.2195519519
H 2.6489359826 -1.7509054151 -1.1711910282
H 2.4879001988 -1.6764655734 1.3454769047
H -3.4906843565 -1.3424981284 -0.1465298388