21

C -0.1951944326 1.7429080977 0.1606841361
C 0.0750990124 0.2457685621 0.0685430283
C 1.2098011401 -0.2157984062 -0.9009164986
C 1.7706885662 -1.1368436028 0.2167509274
C 0.8777788058 -0.3919534841 1.2458732843
C -1.2249947360 -0.5584858879 -0.1807712513
O -2.1422769416 -0.4445777597 0.9051729782
C -1.8585216997 -0.2084943736 -1.4571542441
C -2.3923402014 0.1100957828 -2.4867893028
H 0.7365677133 2.2903608705 0.3327239263
H -0.6484343486 2.1264805038 -0.7595654056
H -0.8655319738 1.9735763089 0.9970388922
H 0.8937184383 -0.6869201946 -1.8356156934
H 1.8876359946 0.6064486676 -1.1464144103
H 1.4830649005 -2.1834344903 0.0852926184
H 2.8491111588 -1.1040544244 0.3856278290
H 1.4333772873 0.3634206835 1.8086178246
H 0.2997390594 -0.9914343552 1.9526337578
H -0.9628997048 -1.6235830363 -0.2074964548
H -2.5926441110 0.4022045655 0.8193445332
H -2.8660618574 0.3745818425 -3.3999637749