23

C 0.3364153820 1.3708721579 0.3730590732
C 0.0261290940 -0.0779103368 -0.0190362391
C -1.4728933252 -0.3012217276 -0.2198053232
O -2.1297719920 -0.0333263117 1.0104266004
C 0.7900594144 -0.5023536508 -1.2720043173
O 2.1801097599 -0.4318258312 -1.0008466308
C 2.9737931994 -0.7725522724 -2.0916888310
C 3.2968592860 0.2764642424 -3.1267300322
C 4.3436819305 -0.1805194918 -2.1281413829
H 1.4069951481 1.5005871118 0.5449432645
H 0.0356368065 2.0610185446 -0.4257144625
H -0.2075627523 1.6463367700 1.2787551003
H 0.3443750317 -0.7394900679 0.7971082466
H -1.8430213694 0.3630931426 -1.0191156253
H -1.6551039670 -1.3387660114 -0.5445479130
H -3.0773130070 -0.1110399955 0.8686621014
H 0.5167799269 -1.5314559743 -1.5606434089
H 0.5370998558 0.1534070431 -2.1217476353
H 2.8449441907 -1.8003593598 -2.4355770393
H 3.3947181207 -0.0226085098 -4.1645925604
H 2.8712725523 1.2617783769 -2.9728164792
H 4.5914816474 0.5049851275 -1.3259129195
H 5.1664470564 -0.7967202259 -2.4724953566