20

C -0.4444812598 1.4144605201 0.0490813782
C -0.0245613902 -0.0341097716 0.0127011022
C -0.3045725099 -0.9517753759 1.2025471244
C 1.1112803157 -0.6017902981 0.8211857062
O 1.8561812338 -1.5246825761 0.0734952268
C 1.0860419432 -1.8933982195 -1.0722091975
C 0.0838507879 -0.7621230147 -1.3101293758
C -1.0128738687 -0.8609326303 -2.2983406993
N 0.1822948653 -0.0400082116 -2.5873688306
H 0.2316292103 2.0517230334 -0.5321071320
H -1.4620096230 1.5520422532 -0.3383067080
H -0.4400079151 1.7907101711 1.0761035401
H -0.7094868211 -0.4816856556 2.0929941363
H -0.6664451081 -1.9591163440 1.0266701965
H 1.7372908720 -0.0086974536 1.4781692831
H 1.7598856758 -2.0203487423 -1.9227809271
H 0.5673865985 -2.8452826739 -0.8883292772
H -1.1173396667 -1.7500235996 -2.9158674513
H -1.9508709391 -0.3580899378 -2.0742691786
H -0.0402925007 0.9447213268 -2.4638032865