23

C 0.0368709490 1.4744962972 0.2591259209
C -0.0795565707 -0.0417634975 0.0745660657
C -1.5238000369 -0.5471025982 -0.1031303244
C -2.1698062133 -0.0738972997 -1.4138025568
C -1.5407430170 -2.0718752745 -0.0403638629
O -0.9530840708 -2.6058815023 1.1758599753
C -2.1584916963 -3.3116505731 1.5212012806
C -2.8807188721 -2.7939760202 0.2585894854
O -3.9577470430 -1.9072767416 0.4639429330
H 1.0774571262 1.7670136971 0.4321011389
H -0.3160493578 2.0255091779 -0.6182208164
H -0.5497070051 1.8121494241 1.1210766102
H 0.5192350488 -0.3542356871 -0.7928198879
H 0.3518060054 -0.5462124288 0.9453176781
H -2.1255539388 -0.1766467402 0.7357589437
H -3.1972520616 -0.4371432241 -1.4932999414
H -2.1973023459 1.0176260345 -1.4709796679
H -1.6058083812 -0.4362774125 -2.2824630150
H -1.0210390031 -2.4824498756 -0.9191306863
H -2.0000466026 -4.3962695519 1.5786556461
H -2.5979807408 -2.9539258252 2.4610793452
H -3.1418353339 -3.5727036742 -0.4680571912
H -4.7439373986 -2.4246536242 0.6632456872