17

C 0.0835222678 -1.1717194755 0.0539053271
C -0.0149310884 0.0290759470 0.0082522743
C -0.0724319360 1.4360546206 -0.0627953524
C -1.1499422984 2.2470824577 -0.0478841326
C -0.6125651484 3.6650955726 0.0076795031
C 0.6451085264 3.5445977861 -0.8651879102
C 1.1588860636 2.3469689095 -0.0265515292
C 1.1241810923 3.0150920273 1.3793457602
O -0.0390098683 3.8520817141 1.3361823001
H 0.1520429500 -2.2303693624 0.0968298643
H -2.1864374872 1.9527267236 0.0451422484
H -1.3100383084 4.4804529549 -0.1726767028
H 0.4388619911 3.2803072408 -1.9031562127
H 1.2830665394 4.4310091834 -0.8112347887
H 2.1075917959 1.8874662962 -0.2973990347
H 1.0365168657 2.2840738018 2.1906032688
H 2.0135347029 3.6342333223 1.5511128468