16

C 0.0235962080 1.5810215707 0.1645321312
O 1.3587425167 1.5712353016 -0.4005167166
C 1.3013408808 0.1588585092 -0.6110240846
C 2.2051559586 -0.4015146972 -1.7412568489
O 3.0382818110 -1.1007341702 -0.7247318372
C 2.0923234232 -0.7916249666 0.2166623333
N 1.6145544862 -1.3575162778 1.2357778314
C 0.2479036877 -0.7659145946 1.3703764169
C -0.0944321369 0.0480714164 0.0595541609
H 0.0097874675 1.9931180765 1.1789942794
H -0.6632073459 2.1498082090 -0.4720650348
H 1.7705107814 -1.1267904154 -2.4314830559
H 2.7808362035 0.3673952389 -2.2588795519
H -0.4478510503 -1.5974714314 1.5142868510
H 0.1807786241 -0.1317142812 2.2621449177
H -0.9576967957 -0.3427075378 -0.4773057118