20

C -0.2181028098 1.5378869008 0.1447086788
C 0.0319487445 0.0196154965 -0.0168455323
N 0.7602805035 -0.3943025542 -1.2177350766
C 0.0589293275 -0.1558744546 -2.4641869207
C 2.1518838828 0.0074871616 -1.2635685993
C 2.8675583543 -0.2800087395 0.0188552112
C 2.2234100079 -0.5603326158 1.1564365948
C 0.7524717115 -0.4959251955 1.2335439102
O 0.1397581526 -0.7528904358 2.2503558398
H 0.7213015646 2.0973714517 0.2040653905
H -0.8009133945 1.9332291154 -0.6919369133
H -0.7780545289 1.7181732585 1.0661795573
H -0.9397426371 -0.4851982337 -0.0381748234
H -0.0113125342 0.9093841390 -2.7502921279
H 0.5709882605 -0.6821997832 -3.2774760158
H -0.9581382693 -0.5542677391 -2.3940850207
H 2.6433970422 -0.5427529056 -2.0782423326
H 2.2969013779 1.0816204915 -1.5147766188
H 3.9537483174 -0.2534949017 -0.0153405321
H 2.7435640367 -0.7986774262 2.0786385809