17

C -0.2390673972 1.4128286059 0.9879338534
N 0.0558152405 -0.0051003156 1.0428548705
C 0.7725275464 -0.6393837638 0.0858360291
O 1.2407140585 -0.1117460390 -0.9087111310
C 0.9711221404 -2.1434897298 0.3002131549
C 2.4647677701 -2.5680906302 0.2591185090
N 2.7579181923 -3.0339255641 1.6250511891
C 1.6619948658 -3.0007633125 2.2508350928
O 0.5307319693 -2.5728413246 1.6164020988
H 0.1867332874 1.9406521685 1.8482160009
H 0.2061434464 1.8049091437 0.0726739388
H -1.3194411757 1.5923428934 0.9664855144
H -0.2664169807 -0.5613726582 1.8185070800
H 0.3614021688 -2.6650028375 -0.4416345305
H 2.6482484162 -3.3814158347 -0.4493582783
H 3.1104023886 -1.7331124091 -0.0219455113
H 1.5078818126 -3.2943888122 3.2829786894