14

C 0.1286016471 1.4373487685 -0.1246432131
N -0.0290065433 0.0013667446 -0.1148690095
C -1.1538241123 -0.5628846854 0.0522558123
N -1.2091036093 -1.9564966523 0.0466361095
C -2.3296049087 -2.7257635564 0.2109230080
O -2.3526579356 -3.9215771104 0.2024515791
O -3.5100541748 -2.0278761742 0.3993579242
N -3.5707984324 -0.6340183933 0.4227893189
C -2.4842610918 0.0209618876 0.2625019462
H 0.8426402695 1.7198355183 0.6572836567
H 0.5754321063 1.7373675032 -1.0793144998
H -0.7860036262 2.0263149410 0.0220361013
H -0.3401915246 -2.4545994145 -0.0918618467
H -2.6096486938 1.0959915934 0.2925904529