23

C -0.0350476483 1.2884921201 -0.5750991675
C 1.0138739428 2.0275874111 0.2796585089
C 1.8881541016 0.8946930745 0.8899526690
C 1.8406238939 0.8268393350 2.4318089038
C 0.6743735170 0.0051916689 3.0147548739
C -0.7092561791 0.2162088590 2.3717157333
C -0.8953595883 -0.5423148139 1.0455145802
C 0.0664302254 -0.1702511124 -0.0920849985
O 1.4338283223 -0.3241477254 0.2937067364
H -1.0425801069 1.6979608628 -0.4632887198
H 0.2261179966 1.3409698070 -1.6354472445
H 1.6186893826 2.7087318363 -0.3237112572
H 0.5471380263 2.6282553165 1.0638829430
H 2.9316930646 1.0116671326 0.5785422982
H 2.7755750564 0.3915251816 2.8030549787
H 1.8117146395 1.8539157603 2.8178888915
H 0.9231616492 -1.0594261255 2.9377489137
H 0.6121980036 0.2270658704 4.0865534391
H -1.4740401954 -0.1470738664 3.0685173481
H -0.9155857897 1.2864011736 2.2423259374
H -0.7715101609 -1.6142991724 1.2455996144
H -1.9231812651 -0.4115466213 0.6817583380
H -0.0973257681 -0.8710862825 -0.9182214202