19

C -0.7394255042 1.3626275886 -0.3930583062
C 0.2177582917 0.2167761713 -0.0750122100
C 0.7656069702 -0.4826173052 -1.3092077848
O 0.5454470796 -0.0764431537 -2.4308794853
C 1.6089339772 -1.7241769798 -1.0644219867
C 2.4149349059 -2.2053880129 -2.2885333709
O 3.3814748258 -3.1370144032 -1.8844965160
C 1.5196515320 -2.8155361785 -3.3552753155
O 1.6825877240 -3.9567249332 -3.7204178539
H -0.2505117625 2.1162901725 -1.0147413526
H -1.6118246566 1.0024739186 -0.9446751877
H -1.0861249348 1.8412119639 0.5266960716
H 1.0810356658 0.5722399293 0.5057124284
H -0.2567352954 -0.5404615839 0.5639933177
H 2.3173910287 -1.5377961556 -0.2494495648
H 0.9533782069 -2.5273323812 -0.7001997881
H 2.8887901187 -1.3217785595 -2.7486848083
H 3.2084624969 -3.9316130735 -2.4157145043
H 0.7319564901 -2.1638807041 -3.7695482325