21

C 0.0181930264 1.6034591495 -0.1126884903
C 0.0429572783 0.0984179352 0.0088175867
C 1.3268686544 -0.6846234221 -0.1296699754
O 2.5068843950 0.0495513949 -0.2877368926
C 3.4080025233 0.0275633060 0.8237573892
C 4.5111330162 1.0286753984 0.5001297673
C 2.6987426427 0.3439138717 2.1218940393
C 1.4048435945 0.0707983638 2.2823635382
C 0.6487179542 -0.6264473947 1.2134369824
H 0.9224228909 2.0508259283 0.3027843848
H -0.0493675263 1.9033618325 -1.1639528901
H -0.8459940734 2.0243042619 0.4124606376
H -0.8317855314 -0.3997471602 -0.4028235907
H 1.3165990245 -1.6163486165 -0.6937553498
H 3.8570099433 -0.9789708753 0.8997615103
H 4.1012171284 2.0408321255 0.4338373485
H 5.2804195957 1.0132944439 1.2781983088
H 4.9764414784 0.7802049095 -0.4570819624
H 3.2858971189 0.8060621190 2.9105804785
H 0.8887816155 0.3182417870 3.2063718072
H 0.1132473803 -1.5147533682 1.5390817726