19

C -0.1026783353 1.5108760440 0.0807117489
O 1.2725109872 1.9161602368 -0.1171628973
C 2.1621108822 0.7636175216 0.0404009560
C 1.3018464237 -0.2378227974 0.8079301229
C 0.0782598649 0.0147900479 -0.0638000485
O -0.7546842547 -1.0345852711 -0.5092222091
C 0.1964600508 -0.4565499899 -1.4422450360
C 1.5739849087 -0.9895216395 -1.7851438087
C 2.5703159933 0.1275633747 -1.3228535484
H -0.4552098398 1.8361544443 1.0685015716
H -0.7281403869 1.9622126191 -0.6939316809
H 3.0423593245 1.1365998955 0.5686525279
H 1.6657520650 -1.2632834798 0.7861611849
H 1.1347927156 0.0631701485 1.8457842128
H -0.2965971321 0.1284506909 -2.2169333892
H 1.7728485800 -1.9301562493 -1.2654584564
H 1.6843647040 -1.1886279778 -2.8544141506
H 2.6066808273 0.9286240732 -2.0681188538
H 3.5834224516 -0.2831765117 -1.2459634560