25

C 0.4448263629 1.4450910986 0.2880432938
C 0.4358522292 -0.0845940941 0.2211577739
C 0.5951568402 -0.6051104986 -1.2112143472
O 1.8062906802 -0.0790561203 -1.7730902536
C 2.7117759288 -1.1278181890 -2.1341206813
C 4.1334912546 -0.6806085641 -1.8319944978
C 2.2206914384 -2.3590828429 -1.3703928384
C 0.6996330438 -2.1459067646 -1.3667959331
C -0.0785400857 -2.9925825421 -0.3607778463
H 1.3721089732 1.8393681802 -0.1345008072
H -0.3893152329 1.8686372303 -0.2831373390
H 0.3553998840 1.7971008047 1.3202920502
H 1.2439670685 -0.4863739820 0.8454565954
H -0.5050716729 -0.4682291875 0.6342362650
H -0.2454187840 -0.2220382646 -1.8091806941
H 2.6191685992 -1.3168172041 -3.2174250708
H 4.2587721320 -0.4998089618 -0.7597103461
H 4.8525497676 -1.4446464883 -2.1455212138
H 4.3649883091 0.2462477875 -2.3645627717
H 2.5219765693 -3.2985147184 -1.8419970717
H 2.6147369806 -2.3542460512 -0.3460252100
H 0.3309802284 -2.3900372033 -2.3718966680
H 0.2801151195 -2.8412402381 0.6619277201
H -1.1480339341 -2.7568220269 -0.3798311082
H 0.0269693801 -4.0571081791 -0.5941129799