14

C 0.0336404650 -1.2009475572 -0.0061489017
C 0.0427755602 -0.0008989625 0.0016521845
C 0.0120205250 1.4514571912 0.0115887463
O 1.3467398683 1.9583381929 -0.0007076544
C 1.4326593568 3.3046993052 0.0067171606
C 0.4842563638 4.2840782821 0.0244020403
O 1.0896602416 5.4917695991 0.0246697710
N 2.4619900376 5.3178853329 0.0069446891
C 2.6610347011 4.0245411447 -0.0036290054
H 0.0320652370 -2.2631870770 -0.0131318004
H -0.5326381144 1.8295411201 -0.8669588709
H -0.5118535690 1.8178108669 0.9075758196
H -0.5922012495 4.2931119224 0.0374994489
H 3.6652142765 3.6274030993 -0.0183085173