18

O -0.9245349277 1.4156520101 -1.0466320743
C -0.5028518425 0.4274022952 -0.1260129925
C -1.6651197204 -0.4414502113 0.3436523690
O -2.2301432929 -1.1368499412 -0.7676869208
C -3.3139156123 -0.5822237993 -1.3494944062
N -3.6930284800 -0.9977380870 -2.4766371775
C -4.9013238840 -0.4445650899 -3.0762184372
C -5.6104680527 0.6125484342 -2.3479608830
C -6.1782348642 1.4788665930 -1.7368373021
H -1.1064470606 0.9759965485 -1.8837389535
H 0.2835020717 -0.2133123869 -0.5499295940
H -0.0775217388 0.9538813112 0.7358978414
H -1.3203576869 -1.2012568895 1.0522470204
H -2.4270782124 0.1791393441 0.8315613390
H -3.8032169103 0.2019948684 -0.7606048926
H -4.6352368647 -0.0719547404 -4.0744033809
H -5.5931449343 -1.2782954651 -3.2567349100
H -6.6917841570 2.2468147557 -1.2127800554