19

C 0.0516154843 1.4802880439 0.2101849463
C -0.0062965723 -0.0371282022 -0.0085795158
C -1.4485191458 -0.5564526842 0.0472251431
C 0.6369756641 -0.4379071070 -1.3623230045
O -0.0289598557 0.1558005544 -2.4435416259
C 2.1190246256 -0.0761068308 -1.4258622854
O 2.5304184406 0.6806110101 -2.2850384744
C 2.9957303256 -0.6807349259 -0.4488887663
C 3.7149602066 -1.2048589753 0.3616013975
H 1.0813901986 1.8510098785 0.2504538295
H -0.4630034453 2.0000521063 -0.6027291815
H -0.4354210977 1.7515354949 1.1515309554
H 0.5748144925 -0.5356188497 0.7777755667
H -2.0435650595 -0.1208576077 -0.7604813534
H -1.4852530107 -1.6462427105 -0.0555076851
H -1.9170466563 -0.2915170535 1.0002319133
H 0.5826395104 -1.5377086397 -1.4455046855
H 0.6443668472 0.6730558870 -2.9144648408
H 4.3615142178 -1.6598571188 1.0727302566