23

C -0.5729773269 1.5289550242 -0.7085978457
O -0.5819627157 0.1240313332 -0.7796828957
C -0.6688783648 -0.4896757482 0.4862960336
C -0.6506193635 -2.0051223781 0.2932968455
C 0.6409537107 -2.4903110172 -0.3617975662
O -0.8539312276 -2.5393678671 1.5988721275
C -1.2677053738 -3.8689463611 1.6360169741
C -0.2610767887 -4.9739243708 1.8448058734
C -1.1904690129 -4.5470445247 2.9646755349
H -0.5042881581 1.9088557545 -1.7309310223
H -1.4921145869 1.9204939262 -0.2445694660
H 0.2870856945 1.9034179356 -0.1309712176
H 0.1756530289 -0.1898142828 1.1299362531
H -1.5974535691 -0.2024397846 1.0040639919
H -1.5056457965 -2.2731473051 -0.3480144501
H 1.4966967552 -2.2788276532 0.2883971644
H 0.6100499113 -3.5651377229 -0.5551602904
H 0.7862913046 -1.9670940960 -1.3101249700
H -2.1284125069 -4.0824332420 1.0004422713
H -0.4261278460 -5.9304847390 1.3603599167
H 0.7778337983 -4.6789460150 1.9330005448
H -0.7552405375 -3.9696999820 3.7724441596
H -1.9993740788 -5.2055606339 3.2600285129