25

C -0.0480860840 1.6024075340 0.1295023537
C 0.0599223365 0.0883958113 0.0386123792
C 1.1214750574 -0.5417612437 -0.9068207956
C 1.3807537687 -1.6359620792 0.1655982306
C 2.8061045229 -2.1191213638 0.4006778105
C 2.9247536182 -3.1035102172 1.5691568354
C 4.3516181241 -3.5782023514 1.8074609947
O 4.3397244188 -4.4775297600 2.9068996802
C 0.7122151248 -0.6971542205 1.2113021187
H 0.9266881304 2.0527137986 0.3502381321
H -0.4087203041 2.0347192476 -0.8109568887
H -0.7416846320 1.9065771408 0.9218173259
H -0.9246234827 -0.3399825637 -0.1829962672
H 0.8027020637 -0.8604386031 -1.9030527801
H 1.9917210041 0.1168354655 -1.0150357415
H 0.7291338668 -2.4982885797 -0.0223114756
H 3.1841169062 -2.5903941153 -0.5179166072
H 3.4523801713 -1.2487804863 0.5847679926
H 2.5553936301 -2.6406187858 2.4923010279
H 2.2930280144 -3.9820016647 1.3875157787
H 4.7375113031 -4.0671846729 0.8974184311
H 5.0028181988 -2.7113872232 2.0093712026
H 5.2401894109 -4.7786339819 3.0583511688
H 1.4634334311 -0.0843985654 1.7244226410
H 0.0547051005 -1.1404188499 1.9636466524