21

C -0.1732719622 1.6105395548 -0.0191186020
C -0.0101768471 0.0945708462 -0.0172663057
O 0.6768881743 -0.2961945486 -1.2254632030
C -0.0383504910 -0.8377705804 -2.2275449175
O 0.4473032551 -1.1587833234 -3.2704051158
C 0.7720483522 -0.4890147620 1.1923407101
C 0.7413052145 -2.0181003669 1.1402767508
C 2.2139551619 0.0246198461 1.2527290471
O 0.0514752614 -0.1309573314 2.3764265375
H 0.7916633786 2.1146818445 -0.1158477482
H -0.7977818371 1.9200420719 -0.8620017782
H -0.6636319165 1.9414052918 0.8998920857
H -1.0028559108 -0.3743072172 -0.0055284038
H -1.1107028036 -0.9541261536 -1.9745084896
H 1.2329825397 -2.3922311790 0.2397825324
H 1.2521049351 -2.4265298590 2.0158334927
H -0.2923331466 -2.3776543308 1.1550272459
H 2.2481117644 1.1114313946 1.3895818712
H 2.7365401529 -0.4384028530 2.0942720775
H 2.7509316349 -0.2116464635 0.3310286232
H 0.3323843600 0.7485200188 2.6475275696