21

C 0.0009111679 1.5279468690 -0.0664235558
C 0.0254907514 -0.0026931613 -0.0515014263
C 0.7289390569 -0.5952460707 -1.2781763724
C 0.7454407870 -2.1136000054 -1.2499176615
O 1.4263077038 -2.5707988190 -2.4416271069
C 1.5383754475 -3.8914263998 -2.5875002615
O 1.1186260740 -4.7158306934 -1.8078308573
C 2.2651513381 -4.2761361000 -3.8645774495
O 2.3616844644 -5.6672376848 -3.9779115502
H 1.0159330758 1.9395105722 -0.0832946206
H -0.5240913539 1.9063199652 -0.9502461586
H -0.5056223899 1.9253086651 0.8181530297
H 0.5262568679 -0.3529542029 0.8604536761
H -1.0019510324 -0.3858797060 -0.0000246847
H 0.2289226353 -0.2603391869 -2.1951676936
H 1.7609158049 -0.2276396439 -1.3324485477
H 1.2737533173 -2.5017193380 -0.3730498192
H -0.2652151045 -2.5345102037 -1.2397527522
H 1.7207177989 -3.8395516513 -4.7154348784
H 3.2587585171 -3.8034520242 -3.8513521300
H 1.9247880323 -6.0217544503 -3.1888768792