21

C -0.1964684274 1.4944767480 -0.0992786572
C -0.0603743621 0.0107574556 0.0052956408
C -0.0719001487 -1.1021738093 -1.0193241216
C 1.2568025282 -1.6605128768 -0.5192000003
C 0.9346919410 -0.9324248372 0.8145374244
C -0.3014469134 -1.6893256978 1.3658118882
C -1.0620279170 -1.1183865594 0.1655645640
C -2.5432213102 -1.0910025069 -0.0540531908
O -3.0773218486 -2.3285526074 -0.5172969919
H 0.7140092507 1.9521698915 -0.5041438207
H -1.0226153116 1.7656395912 -0.7656894300
H -0.3921958100 1.9559055531 0.8759932504
H -0.4483460646 -1.0635690416 -2.0343867414
H 1.3976943358 -2.7473445259 -0.4781891496
H 2.1029573305 -1.2023724219 -1.0394709952
H 1.7306858205 -0.6043372201 1.4808293541
H -0.2097201131 -2.7774038832 1.4796140868
H -0.6653976417 -1.2547095478 2.3025428603
H -3.0525396353 -0.7684231110 0.8691493707
H -2.7942652075 -0.3586871035 -0.8299354502
H -2.8299464956 -3.0061091799 0.1198762494