13

C 0.0020856130 1.4099378468 -0.0022334612
N -0.0390880365 -0.0379064690 -0.0030263153
N 0.0267106173 -0.7306893730 -1.1656357546
C 0.0525098496 -1.9621748932 -0.6940212609
O 0.0887122188 -3.2324934195 -1.1647147441
C 0.0658717713 -3.9636386824 0.0183441050
N 0.0160536786 -3.3073657243 1.1307743464
C 0.0073265094 -1.9892656273 0.6906063028
N -0.0475718043 -0.7362141529 1.1434979279
H 1.0321864322 1.7688535445 -0.0908434054
H -0.5827357346 1.7767721829 -0.8461422544
H -0.4257913388 1.7546109725 0.9383193874
H 0.0944368841 -5.0342170452 -0.1135379636