20

C 0.0184984562 1.4764929584 -0.0683963813
C -0.0194516516 0.0234922374 -0.0055274251
C -0.0558073038 -1.1815367323 0.0447044248
C -0.0629708989 -2.5997595982 0.1300105902
N -0.3835705918 -3.4581688387 -1.0542068275
C -1.2008151369 -3.5794561777 0.1677920572
C -0.4319673162 -4.5101450549 1.1063085504
C 0.7679286359 -3.4910635685 1.0851727111
C 2.1295907749 -3.9649633127 0.6027687581
H 0.6853327718 1.8855073381 0.6988515425
H 0.3808899364 1.8270704886 -1.0414337821
H -0.9746951394 1.9108486115 0.0928166005
H -0.8942532706 -2.8626939393 -1.7060889320
H -2.2656950646 -3.3812019703 0.1467655513
H -0.8841506317 -4.6068121010 2.0953569224
H -0.2279200401 -5.5026373522 0.6960320374
H 0.8494463345 -2.9969675546 2.0573935460
H 2.0462686041 -4.4139900917 -0.3902345037
H 2.8376530081 -3.1309577435 0.5455427471
H 2.5475919038 -4.7118597083 1.2865229025