20

C 0.1304718645 1.5458994904 -0.1354704497
C -0.0546629710 0.0334733120 0.0828307436
C 0.6508881595 -0.4758615597 1.3018103393
C 0.1416313608 -1.0537441883 2.3944955421
C 1.2545455250 -1.4379827538 3.3033253279
C 2.4490279105 -2.1727308682 2.7465624633
C 2.5828846955 -2.0642708726 1.2379119781
C 2.1592442213 -0.5679105900 1.4216587810
N 2.4663841753 -0.6745817225 2.9221970436
H 1.1871976616 1.8096706929 -0.2442639566
H -0.3897273948 1.8734008887 -1.0407646191
H -0.2673598389 2.1124064243 0.7117729305
H -1.1227852600 -0.1983974250 0.1590460284
H 0.3140312405 -0.4997402295 -0.8050589563
H -0.9030608887 -1.2508226240 2.5996357193
H 1.0890137596 -1.5301875525 4.3727468070
H 3.0403112547 -2.8284880236 3.3795345352
H 3.6331099798 -2.1412248239 0.9481499006
H 1.9730244676 -2.7040467442 0.5925279578
H 2.7477292172 0.1873931197 0.9017528241