20

C 0.0462379775 1.4469502668 0.0619814177
C -0.1242053747 -0.0322115639 -0.1667662219
C 0.8056870092 -0.7497180766 -1.1696276862
C 0.2909540236 -2.1730120946 -1.0483984117
C -0.8838039986 -2.1518550526 -0.3797384499
C -0.7570995563 -2.2540856417 1.1395581220
N -0.7289243903 -0.7205321625 1.1157499200
C -1.4222487664 -0.7230158016 -0.2089171887
C -2.8119017713 -0.2186958064 -0.4417657069
H 1.0128690250 1.6582831430 0.5321581333
H 0.0167031563 1.9819472922 -0.8944455470
H -0.7363147635 1.8464115452 0.7094766827
H 0.7352330350 -0.2376967903 -2.1416179264
H 1.8666030795 -0.7379598730 -0.8898567829
H 1.0007946135 -2.9843544951 -0.9085351479
H -1.6456742651 -2.5281851948 1.7173404470
H 0.1285100265 -2.7572706577 1.5376470641
H -2.9377783336 0.7839329105 -0.0226481733
H -3.0339786706 -0.1743042439 -1.5136828403
H -3.5529467457 -0.8772231527 0.0241605963