18

O -0.0994795840 1.4287989713 -0.0208243928
C 0.0107825605 0.0551110439 0.0088612871
C 0.7412527474 -0.8828187966 -1.0407861487
C 1.7373243942 -1.2918086061 0.0668227879
C 0.6745553932 -0.8654055329 1.1026050381
N -0.5800485582 -1.7437368894 1.1066712191
C -0.4604251095 -2.8483389622 0.0911827696
C -0.5383639946 -1.8186090189 -1.0463864481
C -1.2014900089 -0.8778411320 0.0097826542
H 0.7827127462 1.8153515643 -0.0573262087
H 1.0990037593 -0.5455200827 -2.0135567099
H 2.1310257165 -2.3115371058 0.0872406921
H 2.5825939368 -0.5952841473 0.1023096341
H 0.9740525810 -0.5628368577 2.1076325395
H 0.4099848409 -3.5039424621 0.1864356362
H -1.3655260883 -3.4616022436 0.1478706260
H -0.9607447865 -2.0714333283 -2.0207717253
H -2.2558043959 -0.6099969341 0.0833578696