19

C -0.3464911208 1.4063290372 -0.0850814801
N 0.0059113275 -0.0022457600 0.0320334533
C 1.3686522921 -0.3989106373 -0.2885972111
C 0.8665144543 -0.4673538827 1.1175179010
C 1.4265804820 0.4423266210 2.1847548966
C 0.6016628012 0.5740955493 3.5048661956
C 1.8187818510 -0.0802429151 4.2047423719
O 2.1158525182 -0.3875898818 5.3263252415
N 2.4802291027 -0.1785490893 3.0024433184
H 0.4832776351 2.1083846387 0.0912409388
H -0.7210312304 1.5840571757 -1.0980101216
H -1.1522941246 1.6401098715 0.6178884036
H 1.4831382473 -1.3000598521 -0.8855394095
H 2.0874149712 0.3898905994 -0.5151254107
H 0.5743168188 -1.4416612330 1.5107286215
H 1.7332631433 1.4060967696 1.7677766523
H 0.3876536333 1.5929466397 3.8313488488
H -0.3104336147 -0.0248384148 3.5398340760
H 3.3979108926 -0.5280364463 2.7673062436