19

C 0.0266477646 1.4102115704 0.0088314401
O 0.0181211995 0.0004500018 -0.0070484576
C -1.2138651436 -0.5895781798 0.0011620097
C -1.3717269759 -1.9597914717 -0.0014104773
C -0.3561214336 -3.0496920582 -0.0115652887
N -2.7370473112 -2.1840950140 0.0109021382
C -3.4259090667 -1.0030825324 0.0261727287
N -4.8400612909 -1.0334966446 0.0063034942
C -2.5021100516 0.0243241292 0.0237283825
H 1.0744398638 1.7177928453 -0.0041010246
H -0.4811296484 1.8301636732 -0.8708684494
H -0.4532616000 1.8100058866 0.9133647183
H -0.4132358043 -3.6880211471 0.8803149665
H -0.4487675169 -3.7057098254 -0.8875106312
H 0.6412235477 -2.6050333917 -0.0361889156
H -3.1852431176 -3.0809150003 -0.0660830027
H -5.2365537228 -0.9999704896 0.9418753399
H -5.2078888218 -0.2375650526 -0.5016380901
H -2.7314354400 1.0771924810 0.0558383492