17

O -0.1817524707 0.0434174891 0.3296365858
C -0.0616584510 1.1900009351 -0.0138969888
C 1.2684113427 1.9318562458 -0.0111334173
C 1.4673634575 2.7069654071 -1.3294003678
C 1.5032669801 1.8309481074 -2.4993373771
N 1.5166811242 1.1238483098 -3.4130098812
C 1.4157117364 2.7747747665 1.2977031143
C 2.3379094485 1.6324282734 1.7894340839
N 2.4111597021 1.1055435705 0.4005719755
H -0.9393404181 1.7959116106 -0.3358388099
H 0.6645043354 3.4425948032 -1.4619398162
H 2.4123290648 3.2541610253 -1.2665907310
H 1.9329673355 3.7209765834 1.1252993311
H 0.5037703340 2.9644844550 1.8665857730
H 3.3065675938 1.9271987573 2.2027527751
H 1.8375406612 0.9620760439 2.4969616739
H 2.2162739435 0.1111038966 0.3212076668