21

C -0.0406733626 1.5162161870 0.1033538174
C 0.0523580459 -0.0206441475 0.0014008868
C 0.7002306683 -0.4519819789 -1.3152148252
O -0.1318469288 0.0042137547 -2.3728172495
C 0.8405647186 -0.5660567011 1.1889278124
O 2.0386468200 -0.7473911872 1.1255660879
C 0.0547969668 -0.8560977647 2.4546343438
C 0.9320112397 -1.1965621896 3.6495689642
O 0.0660442667 -1.4666297907 4.7425705806
H 0.9608154770 1.9580908086 0.1327293724
H -0.5645673332 1.9046065660 -0.7719252344
H -0.5804103113 1.8315636422 1.0010698710
H -0.9659203496 -0.4280952993 0.0345311159
H 1.7113458454 -0.0279428535 -1.3770287323
H 0.8041665140 -1.5475669691 -1.3347492265
H 0.3139804565 -0.1790144238 -3.2044637266
H -0.5956116792 -0.0042383981 2.6894029016
H -0.6294197145 -1.6908516866 2.2470626392
H 1.5652150358 -2.0604233595 3.4053796106
H 1.6069483327 -0.3548314074 3.8637871336
H 0.6086156517 -1.6996129615 5.5013776169