18

C -0.5426671054 1.3496969132 0.1703186308
C 0.5467961042 0.3183917976 -0.1754305181
C 1.0264671327 -0.4247787879 0.9843735218
C 1.4044874444 -1.0349079423 1.9519166482
C 1.8793170930 -1.7358759693 3.1313898241
C 1.5959305137 -1.0074267418 4.4889438930
N 0.7647092002 -1.9422816599 5.2594878873
C 0.6078663399 -2.9580717166 4.5210976270
O 1.1754713987 -3.0101080086 3.2932068416
H -0.1669207059 2.0882376888 0.8835606113
H -0.8678932772 1.8759175716 -0.7318634661
H -1.4122472323 0.8607510317 0.6173259593
H 0.1612143110 -0.3907734349 -0.9190323121
H 1.3951315144 0.8233414240 -0.6549551261
H 2.9397840577 -1.9847088282 3.0221448268
H 2.5200974124 -0.7885534545 5.0321919420
H 1.0634567481 -0.0648667260 4.3360887781
H 0.0356795906 -3.8418406171 4.7819341410