14

N -0.1635754614 1.3187677824 -0.4694425325
C -0.0669519571 -0.0393996693 -0.1737382295
C -1.0398579535 -0.9890817130 -0.0384509608
C -2.5293134486 -0.9953878197 -0.1948923821
C -2.9739904578 -0.0230882796 -1.1942937131
N -3.2866913077 0.7733767763 -1.9709232341
O -0.4866567168 -2.1675842376 0.3446066188
N 0.8783789518 -2.0101029869 0.4673645592
C 1.1189777186 -0.7595325948 0.1638137777
H 0.6614655794 1.6852546969 -0.9244766895
H -0.9903682736 1.5677616868 -0.9985167067
H -2.8550281694 -1.9964917782 -0.4987461145
H -3.0390274931 -0.7743658818 0.7530615048
H 2.1358707691 -0.3925406516 0.1907224522