19

O 0.0157445546 -0.0370314710 -0.0337691674
C 0.0002273595 1.1683411585 -0.0138676345
C -1.2779246660 2.0116194863 0.0396968505
C -0.8939242626 3.5093235823 0.0454784287
C -0.0557810225 3.7706936178 1.3300136835
C 1.2160312993 2.8803897987 1.3021810323
C 1.2542953892 2.0503289406 -0.0218006300
C 1.1011987177 3.0032719693 -1.1862396487
C 0.0012657076 3.7590251213 -1.1489650717
H -1.9028606297 1.7579216135 -0.8220937935
H -1.8401334323 1.7290218473 0.9375064307
H -1.7865586785 4.1387283393 0.0337746604
H 0.2102257178 4.8293342784 1.3847081115
H -0.6668233955 3.5472800528 2.2111881531
H 2.1221437507 3.4898096700 1.3515044239
H 1.2415480576 2.1988708747 2.1581128752
H 2.1434719862 1.4225119193 -0.0795227242
H 1.8458475451 3.0422013115 -1.9731045093
H -0.2476140681 4.5014806393 -1.8991712905