20

C -0.0100955987 1.5038207615 0.1866865807
C 0.0071906419 -0.0066377465 -0.0649719946
O 0.6058914412 -0.7195742192 1.0175364559
C -1.3821701396 -0.5524344062 -0.2210427603
N -2.2509775484 -0.7836990777 0.9608311205
C -1.9658378811 -1.8984034663 0.0126316289
C -2.9696202171 -1.7307292028 -1.1278593250
C -2.3788139187 -0.2844604350 -1.3630242435
O -3.2181656886 0.8252071368 -1.1993785036
H 1.0095828573 1.9028071920 0.2370424465
H -0.5410175841 2.0234150327 -0.6162438146
H -0.5192855355 1.7230892385 1.1299467194
H 0.5630473961 -0.2072021361 -0.9962628081
H 1.4267937397 -0.2750810520 1.2503434385
H -1.6088629441 -0.8972846916 1.7457028667
H -1.4798447832 -2.7995127946 0.3631691656
H -2.7941410440 -2.3963774000 -1.9761274471
H -4.0233692603 -1.7644694771 -0.8397522623
H -1.9015399690 -0.1882369397 -2.3417273206
H -3.5120859934 0.7810924736 -0.2783513731