19

C -0.0898249429 1.5376355645 -0.0671451421
C 0.0249448849 0.0176069886 0.0382821944
C 0.9345213806 -0.6313230122 -1.0964090460
C 1.8743107127 -1.3101970725 -0.1343953690
O 3.0451790431 -2.1607256735 -0.0274385977
C 2.6247557460 -1.8472859905 1.3823372524
C 2.2437706355 -0.3838669338 1.0587616344
C 0.7303195000 -0.4722547404 1.3557793402
C 1.1137846700 -1.9384486767 1.0673017307
H 0.8962401441 2.0141408291 -0.0286556758
H -0.5672175341 1.8382546584 -1.0055530273
H -0.6876516342 1.9437438944 0.7561215315
H -0.9788226879 -0.4198447031 -0.0143954332
H 0.3787200125 -1.3191383029 -1.7386712466
H 1.4141443691 0.1273532088 -1.7212828613
H 3.2377131126 -2.2868934683 2.1675182436
H 2.9091938674 0.4767101917 1.0038979067
H 0.2859321561 -0.1442547967 2.2964857712
H 0.4930644046 -2.8326673250 1.0186900139