18

N -0.0523438543 -1.1055820561 -0.2320946170
C -0.0333937542 0.0389255945 -0.0721708545
C 0.0170818190 1.4851591610 0.1289108841
C 1.4458835781 2.0488510007 0.0517973594
C 2.1209663212 1.8944680700 -1.3528517079
C 2.2700030863 3.3970068254 -1.6663762793
C 2.8658958151 3.9836572347 -0.3676259724
C 1.4446096037 3.5982013371 0.0880907204
O 0.9653738297 3.9268548868 -1.2525486314
H -0.5956831951 1.9740604554 -0.6363397357
H -0.4333258440 1.7142768262 1.1022103438
H 2.0535872168 1.6234206590 0.8548191939
H 3.0765757815 1.3664701730 -1.3171863750
H 1.4754285266 1.3908121351 -2.0758453366
H 2.5776499111 3.7039287382 -2.6651515977
H 3.7286543912 3.4959122319 0.0934565715
H 2.9946071863 5.0644120690 -0.4251234888
H 0.9068508710 4.1026318381 0.8919185232