19

O 0.0988291841 -0.1120383799 -0.2656128634
C 0.0566770011 1.0868530689 -0.1522781014
C 1.2679744775 1.9799274301 -0.0598844226
C 1.3086935336 3.0959775667 -1.1273267728
O 2.2174369680 4.0631678842 -0.6250963884
C 2.1044176957 4.1114915678 0.7865721674
C 0.9283358111 4.9630193811 1.3416235663
C 0.1523065076 3.6643853965 1.6996730881
C 1.3755975647 2.8038899783 1.2415904043
H -0.9218286819 1.6174040925 -0.1124702191
H 2.1535129473 1.3458431123 -0.1581524824
H 1.6797648565 2.7533834660 -2.0961877071
H 0.3047397494 3.5269040385 -1.2769604405
H 3.0960787500 4.3324418049 1.1877230671
H 1.2016823705 5.5733348715 2.2055892667
H 0.4649138601 5.6098430935 0.5929808071
H -0.0959248283 3.5494192990 2.7564883535
H -0.7654560630 3.5168898514 1.1261958194
H 1.8460488059 2.2351682766 2.0440750180