20

C -0.0608418260 1.3784328209 -0.6617992407
C 0.0272649070 -0.0029538849 -0.0401641744
C 1.3067735885 -0.7573959556 -0.1481487509
N 0.8897313856 -0.1744447704 1.1414510003
C -1.2809516325 -0.7564107454 0.0035544136
C -1.5725620223 -1.7263087798 1.1490678502
C -2.2981144615 -0.4286902725 1.0901558242
C -1.8381393262 -1.1676682369 -1.3137059430
O -2.9333445404 -1.6522322340 -1.4793320622
H 0.9242613998 1.8534871134 -0.7135085676
H -0.4623198016 1.3359116691 -1.6802173455
H -0.7242597320 2.0238865937 -0.0754571013
H 1.2941675557 -1.8433056066 -0.1775846962
H 2.1318899980 -0.2967926752 -0.6850048161
H 1.4061283723 0.6842595643 1.3153156329
H -2.1175930144 -2.6228965723 0.8775925199
H -0.7784095942 -1.8338662436 1.8774995720
H -2.0109535117 0.3451994524 1.7933201394
H -3.3380285989 -0.4369489144 0.7844548596
H -1.1499117453 -1.0169286422 -2.1764782244