20

C 0.1083033121 1.4942700248 -0.0902064936
N 0.0997528567 0.0410285098 -0.0619423427
C 0.4431294337 -0.5717073657 0.9864363970
O 0.8857122476 0.0855796901 2.1041758832
C 0.7526204698 -0.5611303478 3.3761636922
C 1.0899122916 -2.0353270994 3.2790901541
O 0.2677411153 -2.6325688194 2.2994864410
C 0.5273867470 -2.0965994251 1.0038885711
C -0.4287456318 -2.7601794499 0.0281356824
H 1.0462220222 1.8490051010 -0.5363268284
H -0.7046272651 1.8384616074 -0.7365286446
H 0.0088431576 1.9583311807 0.8972683594
H 1.4255136581 -0.0316269517 4.0568064403
H -0.2788457826 -0.4402832315 3.7316360418
H 2.1559683842 -2.1693492132 3.0302838170
H 0.8881031413 -2.5385975705 4.2295067796
H 1.5691360474 -2.3482753861 0.7296616486
H -1.4626111354 -2.5318598311 0.2991237700
H -0.2485119879 -2.3919478473 -0.9815832996
H -0.2867529417 -3.8434803151 0.0593234411