19

C 0.0877455974 1.4709724835 0.7119803668
C 0.0030497745 0.1119290145 0.0611038352
C -1.1243886671 -0.6229574301 0.0970301222
C -1.3370406821 -1.9134338272 -0.6432288863
C -0.4613345858 -3.1012237379 -0.2238149023
O -0.8742615970 -4.2301088216 -0.1860503834
C 0.9865977359 -2.7447459127 0.1446785956
C 1.6217383231 -1.6347338917 -0.6427427884
C 1.1968945852 -0.3611867142 -0.6410149176
H 0.8674184999 1.5000918755 1.4823639194
H 0.3493191217 2.2391208777 -0.0267864454
H -0.8608495236 1.7557870322 1.1741190834
H -1.9771957831 -0.2449644739 0.6553011536
H -2.3779451797 -2.2391988640 -0.6058755681
H -1.0756258805 -1.7665339132 -1.7036922409
H 0.9109849724 -2.4343538168 1.1992011773
H 1.5751638475 -3.6631831402 0.1161239412
H 2.5109044411 -1.8920205610 -1.2116805148
H 1.7922197404 0.3889718711 -1.1595054074