18

C -0.0087766730 1.5383908769 -0.1750202347
C 0.0006066772 0.0058505873 -0.0926910161
O 0.6723741573 -0.5609144478 -1.2109364156
C 0.6286544259 -0.4783821123 1.1828200708
C 0.1004572313 -1.0228332174 2.3077401064
C -1.2653428017 -1.3700037344 2.7720479435
O 1.1469028477 -1.2870065947 3.1645904975
C 2.2485424501 -0.8891261830 2.4942813208
N 2.0168277973 -0.4010392264 1.3229542900
H 1.0099354142 1.9270889750 -0.0787103940
H -0.4145523020 1.8526037874 -1.1404156982
H -0.6175498905 1.9732675462 0.6247126330
H -1.0304766600 -0.3623183511 -0.1484837020
H 1.6166584550 -0.4841145703 -1.0241137526
H -1.9873888558 -1.1818582812 1.9745193070
H -1.3327371509 -2.4264535708 3.0533731846
H -1.5596880408 -0.7760574841 3.6447612540
H 3.1961786586 -1.0178370693 2.9935711557