20

C -0.1428239039 1.2588697956 -0.1050602334
N 0.1429459471 -0.1670509560 0.0347585843
C 1.5785318120 -0.4875692176 -0.0866284519
C 0.9175733600 -0.5016987391 1.2546274969
C 0.9868582796 -2.0096257447 1.3085361951
C 1.3664452301 -2.8764573966 2.4694034208
C -0.0096758193 -2.9847800635 1.8479507689
C 1.6431251422 -2.0282856291 -0.1071506122
O 0.9560869833 -2.6724782644 -1.1417772681
H 0.6423264400 1.9126274620 0.3096402439
H -0.2609306229 1.4994935258 -1.1662892766
H -1.0836435914 1.4880109257 0.4050480332
H 2.2650302364 0.2274779420 -0.5241829214
H 0.9967426327 0.2132871259 2.0650695763
H 2.0760362365 -3.6795622812 2.2947941493
H 1.4488582688 -2.4165240924 3.4494487325
H -0.8588491963 -2.6043130231 2.4061051896
H -0.2239932504 -3.8529563691 1.2328716923
H 2.6632579325 -2.4212236246 -0.0939320287
H 0.1075254730 -2.2110996658 -1.2009641208