23

C -0.0711811810 1.5535533691 -0.1616576764
C 0.0284548916 0.0433211253 0.0339681561
O 0.7831954331 -0.3096948101 1.1932571411
C -1.3509294957 -0.6023037585 0.1134377368
O -2.1400490896 -0.3969138193 -1.0776653034
C -2.5090235119 -1.7915064785 -1.1252924025
C -1.5227476606 -2.1498124732 0.0177466859
C -0.2933615836 -2.9249061105 -0.4566168528
C -2.1394713517 -2.8007948600 1.2523407398
H 0.9254981788 1.9967540514 -0.2373264656
H -0.6350570213 1.7816126776 -1.0703117897
H -0.5938933733 2.0205561045 0.6832495271
H 0.5808600810 -0.3897425497 -0.8054292752
H 0.3987060233 0.1562117581 1.9444313669
H -1.8702500371 -0.1901540538 0.9975929456
H -3.5699000428 -1.9392391052 -0.8813433197
H -2.3030559199 -2.2345602988 -2.1070573197
H 0.1046479982 -2.5244527632 -1.3938697061
H 0.5033606321 -2.8905560355 0.2919604779
H -0.5549862994 -3.9741844809 -0.6336006415
H -2.4324516344 -3.8368974450 1.0480231172
H -1.4211034652 -2.8151683021 2.0795652860
H -3.0303899507 -2.2600870616 1.5886975622