19

C -0.0126639553 1.4262525857 -0.0649480238
C 0.0018221688 -0.0292291493 -0.0322526072
C 0.0186947091 -1.2327392255 -0.0129159420
C 0.0119583400 -2.6903756525 0.0196171557
C -1.4006230698 -3.2590179378 0.1846061223
O -2.2355600690 -3.0534152740 -0.9781791911
C -2.3269304034 -4.4685299226 -1.2358808000
C -1.5428624385 -4.7945130787 0.0551887611
O -0.3100366302 -5.4609810939 -0.0738389577
H 0.7061231121 1.8156107407 -0.7947380685
H -1.0020027249 1.8073864477 -0.3418049068
H 0.2445191094 1.8527147373 0.9112174838
H 0.4568249408 -3.1018009146 -0.8925414580
H 0.6256310252 -3.0585379953 0.8520969533
H -1.8686264267 -2.8279791848 1.0776417170
H -3.3672201531 -4.8124504608 -1.2847325771
H -1.7981468476 -4.7628342979 -2.1519533985
H -2.1577217108 -5.2412974138 0.8458743139
H -0.4744389560 -6.4070987199 -0.1271797565