17

N -0.3007507174 1.1877006222 0.1960686007
C -0.1191380219 -0.0432054279 -0.0393583975
O 1.0813471985 -0.6989135080 0.0258833974
C 0.8600404118 -2.1142703239 0.0830259781
C -0.6032507993 -2.3084822946 -0.3816233683
C -1.5663082024 -3.0031437838 0.5516935831
C -2.5749577631 -2.1954194539 0.8725326447
C -2.4342150500 -0.8443866577 0.2117750951
N -1.1123661698 -0.9309328526 -0.4215399497
H 0.5701824688 1.6168774373 0.5003161412
H 1.5857531656 -2.6020493362 -0.5713285711
H 1.0143057411 -2.4612940196 1.1117089077
H -0.6225244523 -2.7728983704 -1.3782887758
H -1.4435556034 -4.0344302770 0.8587533075
H -3.4207928442 -2.4503831095 1.4992961183
H -3.2267504174 -0.6736096650 -0.5298248507
H -2.4515213147 0.0030209308 0.9055785293