18

O -0.0837020416 1.3176103781 0.1164947144
C 0.0194850843 -0.0842934161 0.0344660607
C 0.3428787817 -0.8884044643 1.3459738109
C -0.9323067769 -1.7531459713 1.1355870186
C -2.1616354555 -1.2877420570 1.9488412549
C -2.4514417149 -0.1975023055 0.8713615499
C -1.3526620287 -0.8071027650 -0.0464825849
C 0.9083074762 -0.4710057075 -1.0727861194
N 1.6266410410 -0.7622216150 -1.9309369947
H 0.8021701138 1.6926585029 0.1786144222
H 1.2936666234 -1.4231525213 1.3345505243
H 0.3041107190 -0.2416775343 2.2267132997
H -0.7631758420 -2.8218204080 1.0094175404
H -2.9457858965 -2.0479753151 1.9915449123
H -1.9643069871 -0.9413975868 2.9676971740
H -3.4536689681 -0.2340178036 0.4413223598
H -2.2456761783 0.8292478055 1.1762151108
H -1.6652418996 -1.1527373458 -1.0307144939