19

O -0.0156592890 1.3390343226 -0.5533715314
C -0.0225911816 0.0418620295 -0.0515736137
C 0.0320516016 -0.1367617926 1.5043564619
C -1.1151726186 -1.1839835349 1.4195294978
C -1.3806955974 -0.7088914997 -0.0119114372
C -2.6438742546 -0.0880617972 -0.5245194778
C -2.1168153713 -1.3580291863 -1.1484961605
C 1.0286441910 -0.7858856058 -0.7501300086
O 1.7165721831 -0.3353738755 -1.6363074423
H 0.6726095794 1.3542996115 -1.2388173801
H 0.9815104422 -0.4522288135 1.9444150142
H -0.2867135040 0.7976978060 1.9692891427
H -0.7523244801 -2.2154168284 1.4722545910
H -1.9334535967 -1.0692632857 2.1343094438
H -3.5276749770 -0.1526869217 0.1023619421
H -2.5424713918 0.8366938145 -1.0816368667
H -1.6848436406 -1.2949712707 -2.1428783220
H -2.6413403963 -2.2872014034 -0.9491576451
H 1.1308712418 -1.8367336488 -0.4122583179