17

N 0.0594470102 1.3810091589 0.3093603206
C 0.0098531347 0.0296877677 0.0405776173
N -1.1203184035 -0.5552787831 -0.0453727764
C -1.1980288139 -2.0065129712 -0.1384152765
C -0.5155811789 -2.6601938837 -1.3441055519
O -1.1366527318 -3.3283302175 -2.1366070544
C 1.0095375096 -2.5485929445 -1.4720778836
O 1.5547054838 -1.2508121168 -1.3382956589
C 1.3765714518 -0.6419918880 -0.0781197730
H 0.8252668422 1.9035862753 -0.0874987891
H -0.8371319872 1.8444178249 0.2534362784
H -0.7779417149 -2.4835987946 0.7647888246
H -2.2500390769 -2.2943528455 -0.1939207356
H 1.4495213843 -3.2284681622 -0.7187850412
H 1.2905114456 -2.9083468016 -2.4634142617
H 2.1764308231 0.0969846522 0.0281055735
H 1.4934960019 -1.3734559404 0.7385679080