21

C -0.2482586684 1.5121168729 0.0377506499
C 0.0319701182 0.0234638432 0.0562414172
C 1.3170264412 -0.6321290614 -0.3534817519
C 2.5830968525 0.2265624184 -0.4354554143
C 2.8057691304 0.8148049580 0.9749795164
C 1.8219017849 0.0926372556 1.9070566839
O 1.8648780610 0.1193613312 3.1139266236
C 0.8612992400 -0.7316854415 1.1002618796
C 0.2960859656 -1.9625610097 1.7674380686
H 0.6334641554 2.1239036587 0.2363633967
H -0.6349097697 1.8090360705 -0.9435861091
H -1.0059565422 1.7737656117 0.7838328883
H -0.8474535258 -0.5584754880 -0.2144189593
H 1.2603069380 -1.5052985720 -0.9954954847
H 3.4276607137 -0.4085492292 -0.7182279794
H 2.5014493723 1.0019762531 -1.2042749901
H 3.8191829145 0.6478641987 1.3502275900
H 2.6353256210 1.8947468981 1.0348735373
H -0.2506373952 -1.6861537145 2.6740935384
H -0.3875636925 -2.4962160361 1.1005754437
H 1.0913704450 -2.6543014575 2.0649007852