14

C -0.0315611881 1.4857038938 -0.0148284330
C -0.0080959793 -0.0099556171 -0.0105407583
N -0.0404391141 -0.6549507914 -1.1276128046
N -0.0178989023 -2.0062849585 -1.0928768070
C 0.0373397174 -2.8215507995 0.0246468928
O 0.0541990419 -4.0288510557 -0.0262161002
N 0.0703521535 -2.0844154894 1.2002429424
C 0.0523821468 -0.6973551654 1.3046810282
O 0.0843355745 -0.1279834074 2.3739996130
H 0.8595609956 1.8837399080 0.4812009137
H -0.0778549653 1.8549695454 -1.0398026479
H -0.8925147235 1.8564094156 0.5507256582
H -0.0449459074 -2.4655219447 -1.9900099853
H 0.1113033403 -2.6155162337 2.0607954882