21

C 0.0621850743 1.5942178921 -0.0619638524
C 0.0461191412 0.0624196021 -0.0624819940
C 0.6846186504 -0.5548753000 1.1839461203
C -0.0247452429 -0.2614414252 2.5207055039
C 0.3714015917 -1.4159146132 3.4472750791
O 0.1524583335 -1.4884409902 4.6277653314
C 1.1072962466 -2.4675973053 2.6045375126
C 0.7637337399 -2.0991120568 1.1573960832
O -0.5299832869 -2.5797283273 0.8026976255
H 1.0844017099 1.9829653387 0.0114596117
H -0.3778290494 1.9909649274 -0.9819826007
H -0.5080124626 2.0029365647 0.7787340392
H -0.9815294365 -0.3044742785 -0.1513350099
H 0.5787522651 -0.3063701953 -0.9488998978
H 1.7210855233 -0.1956324568 1.2598157502
H 0.2234907237 0.6998457440 2.9760038455
H -1.1146818018 -0.2940002283 2.3999691719
H 2.1838961870 -2.3552229873 2.7906429528
H 0.8310305382 -3.4849639346 2.8952340663
H 1.5163253342 -2.4499282716 0.4374692250
H -0.5262307388 -3.5388928086 0.8772969363