20

O -0.1554906402 1.4551862887 -0.0474415434
C -0.0298416311 0.0416690428 -0.0653335935
C -1.3947400144 -0.6095093650 -0.1721928851
C -1.9405621616 -0.7715623621 -1.5464493266
C -1.3106037347 -0.0911611826 -2.7506966825
C 0.2082102265 0.1574114926 -2.5667884603
C 0.6991954835 -0.5548246495 -1.2974514685
C 0.1647314319 -1.9983376867 -1.2760138749
N -1.2633279183 -1.9045317010 -0.8815839146
H 0.7085606010 1.8296888394 0.1508043415
H 0.4578944077 -0.3043635645 0.8595266750
H -2.0534680865 -0.5831126558 0.6904150791
H -3.0139767461 -0.9290655312 -1.6301792239
H -1.4946468272 -0.7192373646 -3.6306257365
H -1.8388428472 0.8498199908 -2.9356993864
H 0.7663861458 -0.2093619599 -3.4339175655
H 0.4090777577 1.2277615855 -2.4788250570
H 1.7880963077 -0.4988526730 -1.2064028127
H 0.2606823469 -2.5064164819 -2.2417008125
H 0.6748311985 -2.6127386019 -0.5258132916