18

C -0.0456354390 1.5309947973 -0.0028494054
C -0.0043767165 0.0146476859 0.0206098933
C -1.3654308638 -0.6932532655 -0.0551535663
O -1.1814223701 -1.9710096986 0.5423451305
C -0.3112308979 -1.7786039995 1.6481053832
C 0.7259583781 -0.7561123277 1.1812070319
N 1.6792740054 -1.2340962357 0.1736386902
C 1.0459648083 -0.6628417734 -0.9051798868
O 1.2422748586 -0.7005005518 -2.0894827312
H 0.9506302073 1.9594010848 0.1410786855
H -0.4190328870 1.8837205265 -0.9698080175
H -0.7052534988 1.9236686449 0.7783711665
H -2.1221077842 -0.1079807557 0.4948989853
H -1.7148140069 -0.8474454068 -1.0790838092
H -0.8562951233 -1.3743929474 2.5181265115
H 0.1091529351 -2.7504251341 1.9217423204
H 1.1774981821 -0.1715892889 1.9863475095
H 2.3483271326 -1.9908377543 0.2070422687