19

C -0.2170324023 1.5537062972 0.7907867043
C -0.1313627486 0.0676429772 0.4940202254
C 1.0564136820 -0.4526500972 -0.3645140252
O 1.9664951612 -0.1358691344 0.7565247752
C 0.8043995993 -0.8134845176 1.3695148158
C 0.8897199456 -1.8981445645 0.2333593835
C -0.3004808103 -2.7929996216 -0.1257252894
C 2.1142349413 -2.6863188665 0.2474413741
C 3.0678028423 -3.4185803761 0.2337886644
H 0.7696757694 1.9600137075 1.0187076262
H -0.6302909303 2.0954112916 -0.0669337889
H -0.8788532485 1.7394765746 1.6436606507
H -1.1123538174 -0.3515115955 0.2642794390
H 1.3776510807 -0.1699372552 -1.3682288281
H 0.8227552709 -0.9645073689 2.4499878722
H -1.2512349563 -2.2592150508 -0.1551261013
H -0.1354342283 -3.2515492306 -1.1051215911
H -0.3860742834 -3.6039635375 0.6035021983
H 3.9305735525 -4.0374472814 0.2305087148