22

C -0.1017083167 1.5539293331 0.0706427762
C -0.0006486317 0.0390985550 -0.0285831321
C 0.7328218854 -0.5932927488 -1.2473377632
C 0.0908321307 -1.1993818443 -2.4579059601
C 1.0085420888 -0.0020043288 -2.5943995443
C 1.7057085249 -1.2738256317 -0.3127534369
N 2.3642200715 -0.1817690254 0.4632788768
C 1.0287570273 -0.6844655341 0.8768990617
C 0.7766288806 -1.2283963150 2.2487472774
H 0.8923638736 2.0031790688 0.0091357795
H -0.7178281148 1.9637954485 -0.7376985568
H -0.5621149327 1.8570249831 1.0178465587
H -0.9862289183 -0.4258728038 0.0934035057
H 0.4518516436 -2.1632818178 -2.8039869294
H -0.9747940619 -1.0484958709 -2.6027701700
H 0.5586432500 0.9569492698 -2.8312535221
H 1.9917211960 -0.1502978710 -3.0287997670
H 2.1886589974 -2.2371462316 -0.4364455994
H 3.0457601589 -0.6281230683 1.0787760430
H 0.7080849672 -0.4236535306 2.9908035312
H -0.1618910880 -1.7924620833 2.2828765211
H 1.5836832383 -1.9006709929 2.5613712097