15

C 0.0056579818 1.5314559297 0.0081658765
C -0.0042565524 0.0005584676 0.0027566180
C -1.4083127858 -0.5701546601 0.0061308500
O -2.1173648227 -0.2070149775 -1.1820016529
C -2.5230105828 -1.3191035085 -1.8421308754
O -3.1354980513 -1.3263455712 -2.8613958564
C -2.0290365882 -2.5148343239 -1.0185235874
O -2.1665617115 -3.6742520509 -1.2444347291
O -1.3759565116 -1.9983909320 0.0507494781
H 1.0327708988 1.9040527214 0.0162572583
H -0.4951895901 1.9316037981 -0.8770399250
H -0.5004731936 1.9298098979 0.8939058205
H 0.5173062830 -0.3934551191 -0.8767888496
H 0.5061494109 -0.3966611667 0.8868284545
H -1.9934475646 -0.2188133448 0.8636869399