18

C -0.4061916263 1.1680461059 1.1433870887
C -0.1458247779 0.1430653441 0.0296338440
O -0.0249536407 -1.1755352152 0.5075746514
C -1.2012477710 0.2911373114 -1.0822010543
O -1.3838628391 1.3384945841 -1.6529489515
C -2.0183580125 -0.9617987604 -1.4455958470
C -3.0623861821 -1.2435420458 -0.3687673302
N -4.3515814367 -1.2233245315 -0.7813784249
O -2.7597403728 -1.4644043501 0.7981168407
H 0.4061197140 1.1271491428 1.8729717629
H -0.4705794597 2.1758481651 0.7262122342
H -1.3449305807 0.9385411068 1.6574908856
H 0.8110699737 0.3841098764 -0.4526794964
H -0.8852201226 -1.4128528870 0.9001552626
H -2.4690023508 -0.7989180162 -2.4256335474
H -1.3428224351 -1.8213449635 -1.4712723525
H -4.6119528317 -0.9807162938 -1.7205299931
H -5.0753747182 -1.3582446233 -0.0935978827