17

O -0.0701866935 1.4190336810 -0.3231231010
C 0.0142622804 0.0529776440 -0.0174931249
C -0.1169822045 -0.4032607657 1.4840796041
C -1.5921069363 0.0846312276 1.3997283560
C -1.3513953100 -0.6832638503 0.0647001895
C -0.5758970340 -1.7860776197 0.8861341538
O 0.3842239327 -2.5295357483 0.2053475973
C -1.3774758240 -2.7126788320 1.7614399895
O -1.1306369219 -3.8993352276 1.7912552670
H 0.8235190791 1.7687714332 -0.3797760504
H 0.7918992401 -0.4464871171 -0.5957565038
H 0.5959856138 -0.2618509709 2.2977838895
H -2.3174224835 -0.3101179783 2.1095636899
H -1.7066925937 1.1595858079 1.2865885722
H -2.0559116578 -0.8601541392 -0.7487082031
H 0.2509658536 -3.4462524273 0.4981557436
H -2.1911227407 -2.2928202574 2.3736162309