15

C -0.0722201319 1.4500526737 0.1206694966
N -0.0567718840 -0.0034750942 0.2118147584
C -1.0961493361 -0.6456905903 -0.0287386129
O -2.3686667997 -0.2274813389 -0.3885764207
C -2.8427838120 -1.5976549393 -0.5061411682
C -1.4603940555 -2.1326165941 -0.0357271057
C -0.7281755075 -3.0115546879 -0.9218319523
C -0.1378971198 -3.7441948102 -1.6687500284
H 0.7146001137 1.7696845128 -0.5706415029
H -1.0287017784 1.8684762756 -0.2131480386
H 0.1729916977 1.8715925037 1.1015862582
H -3.6843707407 -1.7857474149 0.1640286120
H -3.1028842271 -1.8411235700 -1.5379854119
H -1.4907792228 -2.5399088760 0.9797276227
H 0.3966186141 -4.3854654599 -2.3251515460