19

C -0.0078069055 1.4837382620 0.0685909120
C 0.0062147067 -0.0440162684 -0.0634034589
C 0.6986011648 -0.5309225236 -1.2994065815
C 0.6735723712 -0.0146748020 -2.7358952776
C 0.9064846742 -1.4545462114 -3.2766025694
C 2.2419638190 -1.5208297066 -2.5159168972
C 1.9937222189 -0.0838522175 -1.9741211096
C 0.9453473938 -1.9848277332 -1.8645457186
O 0.5368854105 -3.2210816096 -1.4359698279
H 1.0087508643 1.8888371141 0.1064181123
H -0.5236871726 1.9497166825 -0.7771933818
H -0.5232128600 1.7899855340 0.9835323956
H 0.4913369722 -0.4792681242 0.8217062966
H -1.0255843522 -0.4204263260 -0.0576487244
H 0.1567950291 0.8416306369 -3.1508831125
H 0.6199692571 -1.9559268107 -4.1909161155
H 3.1382611448 -2.0716140057 -2.7689148577
H 2.6728390315 0.7114584499 -1.6932360499
H 1.1083003322 -3.4976512805 -0.7101244139