27

C -0.1580111382 1.5426267372 0.1080566775
C 0.0174668312 0.0247207345 -0.0066968313
C 0.8070597813 -0.4514602275 -1.2417474428
C 2.2588056925 0.0505621809 -1.2183472802
C 0.7320559214 -1.9861499706 -1.3524255756
C 1.2847679718 -2.5717125822 -2.6568744113
C 1.1182255520 -4.0882521349 -2.7557558237
C 1.5965063231 -4.6408554471 -4.0990465611
O 1.8624209851 -4.6532945228 -1.6763669276
H 0.7963887301 2.0597247873 0.2456515646
H -0.6317238076 1.9546647015 -0.7905508991
H -0.7927014408 1.7982308189 0.9626281222
H 0.5092513489 -0.3573870927 0.8988578012
H -0.9754342613 -0.4428586452 -0.0293174798
H 0.3155109663 -0.0259786900 -2.1310614346
H 2.7936093191 -0.3535231887 -0.3498875333
H 2.8078079961 -0.2517885215 -2.1145970732
H 2.3090945595 1.1417231998 -1.1629010205
H 1.2605729968 -2.4422575647 -0.5070103842
H -0.3193094629 -2.2911898946 -1.2544573742
H 0.7782600249 -2.1111908096 -3.5151252759
H 2.3531815792 -2.3475047219 -2.7596808058
H 0.0476492602 -4.3299488378 -2.6341059838
H 1.0226040834 -4.2153522362 -4.9288740539
H 2.6555826368 -4.4092516620 -4.2514257973
H 1.4776129397 -5.7301830227 -4.1385540886
H 1.7617163316 -5.6093628377 -1.7145234677