16

C -0.1259022019 1.5189465241 -0.4045693869
C -0.0220452325 0.0426900531 -0.1122367024
C 0.9402236688 -0.8153565695 -0.8147428902
O 1.1640283887 -0.3974312184 0.5388796335
C -1.2934300204 -0.6401231620 0.4478569801
C -1.7807337538 -0.0006127446 1.6711341834
C -2.1606598152 0.5250168255 2.6805913713
C -2.3418960683 -0.6861493991 -0.5854515334
N -3.1394016274 -0.7223324401 -1.4199744709
H 0.8300831993 1.8934788194 -0.7761706226
H -0.8970430727 1.7108283067 -1.1570866807
H -0.3881331314 2.0694027040 0.5031708267
H 0.7343724397 -1.8762867745 -0.9494293403
H 1.6030760521 -0.3737748351 -1.5561166947
H -1.0145121207 -1.6755663087 0.6804765602
H -2.5020749444 0.9852758890 3.5753225467