21

C -0.1465825022 1.4279960846 0.0239192059
C 1.2842010127 1.9249743868 0.0729680946
C 2.1590474687 0.9800231797 -0.2933836710
C 3.5231662990 0.7835608558 0.2903026145
C 3.3331874015 -0.3473354070 1.3760551161
C 1.8486217915 -0.5692392833 1.7791384246
C 1.0146459516 -0.9423940831 0.5424560523
C 0.0365844325 -0.0613208567 -0.2581241778
C 1.4489991602 -0.2676790819 -0.7352602893
H -0.6486150291 1.6266986761 0.9806790878
H -0.7658704724 1.9031339475 -0.7507278855
H 1.5589276886 2.8485051893 0.5736245076
H 4.2756070648 0.4679505567 -0.4411831394
H 3.8823783773 1.7071723738 0.7545740655
H 3.7149116441 -1.2920753691 0.9735143817
H 3.9363283780 -0.1179881295 2.2606636910
H 1.7995278710 -1.3817171496 2.5119395820
H 1.4559708441 0.3181351560 2.2843234337
H 0.7682999906 -1.9988692686 0.4667458597
H -0.7803557948 -0.6004333530 -0.7256272684
H 1.7450793722 -0.8135926348 -1.6253244855