19

C -0.0088837020 1.5113008299 0.0728527986
C 0.0354068644 -0.0192971584 -0.0431724447
C 0.7923148898 -0.4759578216 -1.2910220584
N 0.6350541556 -0.6688555727 1.1302195248
C -0.0521548738 -0.6642124259 2.3269522573
C -1.3678788997 -0.4049966257 2.6694521018
N -1.5248344758 -0.6372723512 4.0050883156
N -0.4031580516 -1.0177724904 4.5233835341
N 0.5077326889 -1.0387062503 3.5046416127
H 1.0058605295 1.9260217720 0.0931845681
H -0.5330078011 1.9500205143 -0.7820872961
H -0.5230641583 1.8222890792 0.9859442388
H -0.9908317855 -0.4004130495 -0.1037784364
H 1.8371847664 -0.1430198785 -1.2560032397
H 0.7836689278 -1.5654568545 -1.3762045157
H 0.3423792490 -0.0488867590 -2.1914150946
H 1.6244452519 -0.4745762027 1.2204069955
H -2.1849841266 -0.0744387305 2.0514274302
H 1.4484650011 -1.3463431145 3.6887207680