22

O -0.0478956672 1.4557583838 -0.1088725837
C 0.0047742398 0.0491873099 -0.0537558461
C 1.1685925729 -0.4469844661 -0.8800883542
C 2.5237403737 0.0270087907 -0.3487459331
N 3.6087018141 -0.5057581396 -1.1683074569
C 4.0093715646 0.3121154346 -2.3099991834
C 4.8747684274 0.2141119007 -1.1027460245
C -0.3766827704 -0.6613836428 1.2182095614
C -1.2769510275 -0.7370334708 -0.0082679451
H -0.7006956022 1.7677411752 0.5248587848
H 1.1570749177 -1.5410494743 -0.9084952219
H 1.0410067877 -0.0983173212 -1.9124707713
H 2.5351476864 1.1288737020 -0.3046416480
H 2.6672128381 -0.3389617437 0.6753839458
H 4.2619928246 -0.2284879319 -3.2177430404
H 3.4873893076 1.2547703353 -2.4699493766
H 4.9301738633 1.0921190918 -0.4606104889
H 5.7707728021 -0.4003179323 -1.1114155717
H 0.1760122949 -1.5477275333 1.5119532448
H -0.7183640424 -0.0599679015 2.0558627588
H -2.2062820216 -0.1763462720 0.0182729927
H -1.3405771535 -1.6754099344 -0.5490978426