20

C -0.1332070650 1.4586046957 0.0024777317
C 1.2907774262 0.9770382735 0.1374874667
C 0.1619803373 -0.0204056224 0.0541688166
C -0.2290439728 -0.8314797932 1.2631278843
C -1.5737569658 -1.5486831486 1.0977036612
C -0.9248947818 -2.7810990563 0.5912064145
C 0.3849263008 -2.2645087982 1.3083895669
C -0.2435493434 -2.8498000038 2.5811791888
N -1.5935240169 -2.8081900803 1.9224789764
H -0.5971070835 1.9119136140 0.8726738398
H -0.4449545110 1.8915217384 -0.9415477073
H 1.9529075142 1.0794219284 -0.7151323359
H 1.7805703624 1.1098080895 1.0968506441
H 0.0673536957 -0.5556064578 -0.8878691586
H -0.0930893276 -0.2330974114 2.1743316412
H -2.5387398328 -1.1267021841 0.8479042138
H -1.1437631528 -3.4675254450 -0.2156363794
H 1.4216775008 -2.4302791815 1.0207465954
H 0.0149949337 -3.8964860716 2.7612886949
H -0.1556563879 -2.2791852954 3.5140698448