18

O -0.0914940385 1.4329066123 0.0440030680
C 0.0093520899 0.0464973213 0.0516609007
C -1.2146699350 -0.7998321629 0.4770496486
C -0.1289906174 -1.8922808875 0.6193104557
C 0.8714030711 -0.7923087000 1.0781624455
C 2.2203266480 -1.1172740490 0.4598151507
C 1.6959107322 -1.4971901843 -0.9107115063
C 0.4813554698 -0.6899168938 -1.2146713933
N 0.3426434394 -2.1116527417 -0.7952766665
H 0.7185779209 1.7990157765 -0.3265233718
H -1.6237366492 -0.4839242790 1.4396826978
H -2.0120039116 -0.9615219431 -0.2519367124
H -0.2899291649 -2.8223129413 1.1606041366
H 0.8118055438 -0.4673107191 2.1143645472
H 2.9027659702 -0.2601795190 0.4249637744
H 2.7341647520 -1.9458672369 0.9589258670
H 2.3333065661 -1.9020063556 -1.6890879067
H 0.1509587333 -0.4042316468 -2.2078560652