25

C 0.5282846069 1.5171081048 -0.1832119122
C -0.0068116910 0.0934375645 0.0277450831
C 0.3613484609 -0.8526115125 -1.1561518096
C 1.4897238568 -1.7995275968 -0.6612920671
C 1.5328588351 -1.6730123603 0.8560749227
C 0.6202539787 -0.5333682925 1.2723946482
C 0.3012423052 -1.9549324745 1.6942110655
C -0.8971074796 -2.7256656846 1.1704586179
C 0.5812952426 -2.2620282749 3.1584228867
H 1.6188526439 1.5138209827 -0.2945669389
H 0.1008604841 1.9681356020 -1.0849107614
H 0.2827775779 2.1656391872 0.6646868707
H -1.0981250494 0.1548894378 0.1262183469
H -0.5113853267 -1.4234269070 -1.4829321379
H 0.6840587399 -0.2749340743 -2.0282207327
H 1.3310607346 -2.8295217536 -1.0006322594
H 2.4585765620 -1.4868983842 -1.0658682467
H 2.4953528355 -1.8193705790 1.3373010839
H 0.9142233350 0.1524834081 2.0624777028
H -1.1212988028 -2.5306408601 0.1218527497
H -0.7323699725 -3.8048991833 1.2757056863
H -1.7947349499 -2.4782421454 1.7501331064
H -0.2781305343 -2.0004403859 3.7876406647
H 0.7850380194 -3.3297766633 3.3046186003
H 1.4469651078 -1.7043516449 3.5289540502