20

O -0.0736301559 1.5257746192 -0.0523126995
C -0.0368850391 0.1193818418 0.0193863225
C 0.0497608651 -0.6064915814 1.3802201554
C -1.0784877360 0.1221906799 2.1698125476
C -2.2162032105 0.1542824758 1.0699074177
C -1.4217477758 -0.6103787520 0.0174880149
C -1.6644793334 -1.5736512989 -1.1523721122
C -0.5599264018 -2.4542167611 -0.4785854426
N -0.7927329867 -1.7250367277 0.8252805557
H 0.8291556155 1.8559413087 -0.0910683239
H 0.6453067978 -0.2919566254 -0.7286746860
H 0.9786419017 -0.8228625555 1.9128778765
H -1.3713009644 -0.4499580494 3.0512830193
H -0.7704644444 1.1255728754 2.4685930806
H -3.1085166227 -0.3926400998 1.3799940254
H -2.4855686275 1.1707527670 0.7789631717
H -2.6472790936 -2.0500554759 -1.1197678586
H -1.4748629544 -1.1950857365 -2.1587608845
H -0.7813234460 -3.5189411851 -0.3739115985
H 0.4305811322 -2.3536376889 -0.9354529716