23

C -0.0722614931 1.5399360864 -0.3970197538
C -0.0173270737 0.0981559652 0.1242064865
C -1.3826842763 -0.5674402515 0.1647366451
O -2.2978032057 0.1086659924 0.9993627041
C -1.9508607153 -1.2399931581 -1.0671691342
C -1.5394074506 -2.0688512054 0.1498677945
C -0.3270016912 -2.9778248579 0.0463620646
C -2.6706704004 -2.6802680353 0.9640308811
O -3.1397685121 -3.8999922062 0.3969205907
H 0.9267446444 1.9844137735 -0.4237268297
H -0.4844660554 1.5809520634 -1.4114883465
H -0.6908858360 2.1719622757 0.2487551782
H 0.6610204062 -0.4870136032 -0.5027780007
H 0.4023203612 0.0924920356 1.1378102342
H -2.5775713628 0.9085429351 0.5421691385
H -3.0128099561 -1.1051189904 -1.2522637856
H -1.3390514025 -1.2964316421 -1.9624736194
H 0.3855938019 -2.6498816411 -0.7139518633
H 0.2043338561 -3.0390202634 1.0034963576
H -0.6592195218 -3.9867584442 -0.2143751858
H -2.3099711583 -2.9474666077 1.9636735306
H -3.4821214677 -1.9558949046 1.0891303106
H -3.4610687208 -3.6951897662 -0.4877853672