20

C -0.4920147270 1.3193396597 0.0987341746
C 0.2793037605 0.0079146224 -0.1021565399
C 0.8537717742 -0.5620396384 1.1850473649
C 2.0948917218 0.1438682912 1.7068198295
C -0.0391377990 -1.0964278996 2.2742988021
O -1.3720729556 -1.4508386791 1.9141873209
C -1.2424593815 -2.4792604561 1.0341670803
N -0.0781937837 -2.9056178710 0.7509970558
C 0.8377034338 -2.0643671465 1.4845631948
H 0.1384709486 2.1014393178 0.5341999356
H -0.8700728066 1.6967313959 -0.8564401496
H -1.3474874236 1.1679480860 0.7639132050
H -0.3735199594 -0.7260267678 -0.5823574075
H 1.1099671830 0.1679183304 -0.8013305575
H 1.9031155632 1.2078534020 1.8817379567
H 2.4399896275 -0.2874499844 2.6520653612
H 2.9158362862 0.0619401023 0.9857206945
H 0.0480278923 -0.8064008518 3.3144949344
H -2.1772133666 -2.8611665489 0.6422809696
H 1.7385637921 -2.5410948842 1.8537786146