17

C 0.0978633132 1.5316423285 -0.1909908313
O 1.4984968027 1.4731821993 0.1507171220
C 1.3807764885 0.1254524284 0.6328779431
C -0.0508271558 0.0015301361 -0.0110030980
C 0.2048073386 -0.7297135249 -1.3190829740
C 1.4343202882 -1.2327341889 -1.3182071236
C 2.7305928403 -1.2936994341 -2.0880302110
O 3.3729688629 -0.6270458478 -0.9551262391
C 2.2306547664 -0.9317367001 -0.0917470306
H -0.4725558728 2.1258064572 0.5364359322
H -0.0638628226 1.9337689057 -1.1974037946
H 1.4461210207 0.0818931982 1.7264061701
H -0.8914730695 -0.3448313712 0.5943532111
H -0.4673561954 -0.6425937952 -2.1656865229
H 3.1570835462 -2.2925016358 -2.2483960336
H 2.7923057333 -0.7095925935 -3.0116579357
H 2.4834632451 -1.7666108119 0.5773008858