20

C -0.2057043401 1.5063639123 -0.1781335266
N 0.0388766059 0.0864036100 0.0321937503
C 1.3552300604 -0.5362548770 -0.1579619494
C 2.5662562836 0.3419952764 -0.1180036794
C 2.7122468890 0.9368992069 1.0696523735
C 3.7184101785 1.9632962051 1.4801613041
C 1.6426914727 0.4514312752 2.0498940530
O 0.9047413943 1.4976367588 2.6778485018
C 0.7268842512 -0.4329255728 1.2016735954
H 0.6316260828 2.1665348307 0.0747392920
H -0.4659793293 1.6551114483 -1.2315995887
H -1.0621909617 1.8002869739 0.4342538750
H 1.3582463946 -1.4469239405 -0.7503444425
H 3.2025255401 0.5083845860 -0.9811536775
H 4.3961896677 2.2168722136 0.6611422165
H 3.2235962213 2.8873396025 1.8051852363
H 4.3247995581 1.6134042444 2.3267998557
H 2.1123270940 -0.1811944795 2.8229378676
H 1.4763394947 1.9199960527 3.3264432220
H 0.2360347223 -1.2663048669 1.6958184109