16

C -0.0121274652 1.3913825924 0.0173785105
O 0.0101601638 -0.0262725774 -0.0113676611
C 0.6059554613 -0.6236556194 -1.0562378592
C 0.7369398964 -1.9911853199 -1.2752349782
C 0.2514087682 -3.0460718497 -0.4096882017
O 0.3804544997 -4.2358988619 -0.6267818900
C 1.4428699194 -2.1319862732 -2.5185084398
C 1.7087875991 -0.8868344939 -2.9980743798
N 1.1906412780 0.0408370269 -2.0919672327
H 1.0037118405 1.8075900645 0.0423615338
H -0.5580446846 1.8010203755 -0.8428477815
H -0.5327135284 1.6699350647 0.9336416432
H -0.2693790485 -2.6879430514 0.5055490705
H 1.7049926498 -3.0741267871 -2.9720784641
H 2.2124667735 -0.5491753793 -3.8884541571
H 1.2424936371 1.0383423292 -2.1960939229