23

C -0.1417242916 1.5287743468 -0.1042998729
C 0.0143632495 0.0291600705 0.0296609380
C 1.3462620732 -0.6522494344 -0.1963609664
C 0.7183421282 -0.6490063356 1.1817278594
C 1.3995556533 0.1393304082 2.2884693696
C 2.5364116632 -0.6846639615 2.9175300631
C 2.1143703968 -2.1030791171 3.1986106935
C 1.0314964827 -2.6635866809 2.6619971098
C 0.1184459238 -1.9516800163 1.6959575146
H 0.7536282168 2.0676154198 0.2177760925
H -0.3268722797 1.8042861138 -1.1486152917
H -0.9845428033 1.9002123900 0.4899981108
H -0.8468144114 -0.5238461276 -0.3422282591
H 1.3752039563 -1.5802044710 -0.7586052658
H 2.2108145897 -0.0136187146 -0.3574989475
H 1.7919206470 1.0908122232 1.9184405357
H 0.6621292067 0.3820306450 3.0658361727
H 3.4100626862 -0.6872534000 2.2488574713
H 2.8776301469 -0.2058771547 3.8442680991
H 2.7402070617 -2.6797502659 3.8760414202
H 0.7674744205 -3.6869497314 2.9193908734
H -0.8473836569 -1.7523698764 2.1880284087
H -0.1190354096 -2.6142139602 0.8531447610