21

C -0.7333168859 1.1714081727 -0.2875756609
C -0.5643368542 0.1131927578 0.7812534944
O 0.3134215575 0.1598182364 1.6139434941
C -1.5466726007 -1.0578209607 0.7355765082
C -1.0422030552 -2.2111287461 -0.1565763571
C 0.2535058832 -2.8277974680 0.3479237819
C -2.1492606838 -3.2190118115 -0.5695254174
C -1.9680899731 -2.6390204660 -1.9838216875
O -0.9087146325 -1.7655420723 -1.5427641933
H 0.0634360422 1.9126542350 -0.2158863628
H -0.7295271758 0.6851786119 -1.2688710775
H -1.7068064089 1.6642492180 -0.1776537379
H -1.6765242881 -1.4334482913 1.7552496974
H -2.5171048552 -0.7231183538 0.3541651489
H 0.1018997887 -3.2760001969 1.3356279432
H 0.5892276055 -3.6072984446 -0.3414219905
H 1.0413981957 -2.0766719140 0.4403466088
H -1.8655349491 -4.2669772571 -0.4586867231
H -3.1255524907 -3.0602991105 -0.1084426631
H -1.6229966082 -3.3405197281 -2.7518905616
H -2.8237952614 -2.0780067309 -2.3791443942