16

N -0.0798424054 1.2661570026 -0.2764433043
C 0.0080301309 0.0453398552 0.0370282143
O 1.1944209526 -0.5558025746 0.3360054890
C 1.2247082864 -1.8884935312 0.8766844871
C -0.1062568969 -2.6150437434 0.7095507041
O -0.3649238111 -2.9027428995 -0.6554945845
C -1.1768273548 -1.8345305820 -1.1531789368
C -1.2105375504 -0.8515743842 0.0322734575
O -1.1365552902 -1.7551267438 1.1419463047
H 0.8415904025 1.7089615629 -0.2535445897
H 2.0219013096 -2.4267851782 0.3572358336
H 1.4713366804 -1.8174387166 1.9426315350
H -0.1322014744 -3.5401639974 1.2926416101
H -0.7275835363 -1.4066958663 -2.0534166028
H -2.1809094462 -2.2070024392 -1.3843465706
H -2.1155739566 -0.2529087041 0.1030630233