18

C -0.1884665819 1.4065682594 0.0177136863
N -0.0223574448 -0.0375835290 0.0026085553
C 0.5744353626 -0.5140388548 -1.2360914554
C 0.6315546282 -2.0402089896 -1.2936399084
O 1.0265574726 -2.6294608527 -2.2673592652
C 0.1732910487 -2.7382494074 -0.0200255560
C 0.7542428451 -2.0522752111 1.2093467313
O 1.2419457593 -2.6507160847 2.1342153251
C 0.6927232226 -0.5256448295 1.1722268629
H 0.7716429480 1.9536733394 -0.0268141741
H -0.7952957534 1.7170456185 -0.8383495006
H -0.7083407357 1.7085293954 0.9320608964
H -0.0202605190 -0.1675397337 -2.0881399843
H 1.6050901573 -0.1383384105 -1.3996932651
H -0.9171811926 -2.6048333118 0.0340904655
H 0.4152366369 -3.8003356559 -0.0369949780
H 1.7347060495 -0.1512295080 1.2375113861
H 0.1847032265 -0.1874508439 2.0817551183