18

O -0.9802879764 1.1053190810 -0.3787147456
C 0.1315522134 0.6351186665 -0.3521232030
C 1.4231222844 1.3690767507 -0.6141846278
C 1.3859109891 2.7967673583 -1.1403046069
C 0.3811940791 3.2435018619 -2.1409876338
N 0.3220970379 3.7334221917 -0.7514487738
C 2.7674770663 3.3890653036 -1.2036885390
C 3.0553115274 4.7521465110 -0.7505917550
O 3.4060018834 3.6219966293 0.0571083712
H 0.2795442431 -0.4379796928 -0.0953380697
H 1.9738595786 1.3567059756 0.3405868782
H 2.0243907367 0.7324465953 -1.2804840197
H 0.6631630831 3.9888189787 -2.8801359937
H -0.3773237798 2.5373513885 -2.4629878607
H -0.4135388531 3.2193068159 -0.2731324958
H 3.4245585050 2.9376994708 -1.9507896198
H 3.8974246877 5.2924851413 -1.1810655342
H 2.2318010440 5.3517551928 -0.3741264408