17

O -0.0468215886 -0.0399272216 -0.1187699669
C -0.0436894832 1.1621597670 0.0055353594
C -1.2529460961 2.0446641238 0.1765593878
C -0.9334353919 3.3468429486 0.0640246662
C 0.5366354275 3.5188572659 -0.0815446891
C 1.3869109347 3.0600593973 1.0721272071
C 1.1274372040 2.1080617257 -0.0733181418
C 2.0138417089 2.4488837151 -1.2904484428
C 1.3922646460 3.8866789869 -1.3165712792
H -2.2372360469 1.6316716050 0.3622476785
H -1.6389288614 4.1704388899 0.1190884295
H 2.3945796304 3.4502580555 1.1946904923
H 0.8617857660 2.8626046603 1.9990378090
H 3.0917499654 2.3794133429 -1.1203246721
H 1.7626777887 1.8581985357 -2.1726555348
H 0.7877953121 4.0635766914 -2.2077965520
H 2.0774223444 4.7291387405 -1.1856197511