14

C -0.0138534734 1.5251782421 0.0168642060
C 1.4284524060 2.0368258158 -0.0368820015
O 2.1143983771 1.4694614672 -1.1461252301
C 2.0803273051 0.0680124939 -1.0965824326
O 0.7785141134 -0.4523163851 -1.1436512427
C 0.0090312513 -0.0051099161 -0.0342625475
H -0.5140590867 1.8740519474 0.9273158577
H -0.5664496246 1.9082008664 -0.8472843891
H 1.4745495421 3.1215353088 -0.1627049308
H 1.9547626330 1.7784821531 0.8987258235
H 2.6043511815 -0.2973916536 -1.9818948355
H 2.5891183961 -0.2844787387 -0.1768338856
H 0.4356803426 -0.4068069749 0.9015344138
H -0.9917971435 -0.4264689163 -0.1581607554