19

C 0.2699902084 1.4921951898 -0.2731117102
C 0.0583505283 0.0027126888 -0.0489131043
O 0.6433923022 -0.7140292504 -1.1423009967
C 1.1989931776 -1.9608953469 -0.7072720518
C 2.4439251458 -2.2111502035 -1.5524767878
O 2.1363742937 -2.2050571601 -2.9322948610
C 1.4349102819 -1.7851781606 0.7786015639
O 2.1580816468 -0.5849543125 1.0896035340
C 0.7296366678 -0.5714311129 1.1861152570
H 1.3383743542 1.7208710788 -0.2570683903
H -0.1409402694 1.7910945729 -1.2409298837
H -0.2313069898 2.0732914473 0.5072787133
H -1.0196025309 -0.2237882400 0.0143419311
H 0.4737063918 -2.7760492734 -0.8649146668
H 3.1945914445 -1.4500770993 -1.2950789916
H 2.8594388573 -3.1981905029 -1.3220998060
H 1.6707019687 -1.3761955950 -3.0943846073
H 1.6088491631 -2.6381473644 1.4284001620
H 0.3113893079 -0.4127529757 2.1764747461