19

C 0.1218649861 1.3522573674 0.0386722300
O -0.2001638134 0.0149527143 -0.2884932444
C 0.6688752871 -0.5921124637 -1.2396438955
C 2.0494402735 -0.6898296831 -0.7465729725
C 3.1825805402 -0.7560984100 -0.3516790330
C 0.0604987775 -1.9581013949 -1.5175418793
O -0.0905101842 -2.7338051327 -0.3682024987
C -0.9671648219 -2.0864177891 -2.6155774003
C 0.4145687328 -2.6993496365 -2.7622160344
H 1.1178900396 1.4315099406 0.4924139654
H 0.0871026618 2.0001773116 -0.8502875235
H -0.6298733743 1.6921642424 0.7543577326
H 0.6685289894 -0.0023138861 -2.1710806110
H 4.1829501105 -0.8302754277 -0.0023536133
H -0.5530331811 -2.1758808682 0.2700304549
H -1.7919487769 -2.7620157147 -2.4217069249
H -1.2161221322 -1.2150427935 -3.2117885802
H 1.1161954400 -2.2490665330 -3.4559893190
H 0.4985848654 -3.7753993130 -2.6647741731