14

C -0.0395593265 1.5313683541 -0.0390233259
C -0.0069084863 0.0305747743 -0.0293587574
N -0.0894954233 -0.6386584501 -1.1743207226
C -0.0588783302 -1.9752880735 -1.1486402337
C 0.0576732506 -2.6386451405 0.0621869391
F 0.0885325126 -3.9644324004 0.0960527636
N 0.1425103759 -2.0174439001 1.2227437819
C 0.1104585505 -0.6942159415 1.1768942419
O 0.1940495984 -0.0143460892 2.3352514920
H 0.8715066516 1.9492462866 0.4030337861
H -0.1351916764 1.8843930354 -1.0664716743
H -0.8787125511 1.9121323035 0.5533286027
H -0.1266832475 -2.5162779995 -2.0856084067
H 0.2677813218 -0.6706533492 3.0424332632