19

C 0.4236434076 0.7830115279 0.6627244729
C -0.5513137099 0.0935843639 -0.2674902956
O -1.7511893815 0.1860663173 -0.1395364227
C 0.0412892566 -0.7687341675 -1.3861589214
C 0.1501355073 -2.2386593826 -0.9577433670
C -1.1487918653 -3.0214053453 -0.8209928979
C -0.2360881250 -3.3065931938 -1.9758050616
C 1.2228075112 -2.5484523542 -0.0504099626
C 2.1284097941 -2.7979012583 0.7025865202
H 1.1165114771 0.0471753995 1.0856840004
H 1.0308343337 1.5013921276 0.0989449285
H -0.1147563933 1.3001720417 1.4577227664
H -0.6406360624 -0.7010044225 -2.2379338180
H 1.0262939612 -0.4029671234 -1.6926785665
H -1.2072570451 -3.7504628257 -0.0221309661
H -2.0596270266 -2.4607990577 -0.9958170789
H -0.5202299148 -2.9615172203 -2.9639218305
H 0.3343781199 -4.2275715496 -1.9633665552
H 2.9237394851 -3.0292061571 1.3669469958