16

O 0.0585265149 1.3882624638 0.0222832626
C 0.0084380926 0.0062039012 0.0391831504
C -1.3479196359 -0.7056099374 0.0614707962
N -2.5489702059 0.0608720393 -0.0151888855
C -3.1325605920 0.4648931270 -1.1815337949
O -4.1849793144 1.0674553751 -1.2356910249
C -2.3288112267 0.1066606859 -2.4333167519
O -0.9184656840 0.1626295480 -2.2077266422
C -0.5014796784 -0.7024145460 -1.1911656632
H -0.1847157459 1.6611906631 -0.8735730846
H 0.8175271861 -0.4482600330 0.6032706348
H -1.4237344153 -1.6401835395 0.6119703029
H -2.9721356223 0.4096655747 0.8332738937
H -2.6244344121 -0.8881231680 -2.7961516353
H -2.5617485289 0.8427859308 -3.2028928058
H -0.0490156218 -1.6278629450 -1.5408539022