16

O 0.0286400961 0.0090392189 0.0177471895
C 0.0292247042 1.2098343752 0.0047877327
N -0.9812024588 2.1558367674 0.0029546172
C -0.0851434132 3.3294730807 0.0616521652
C -0.1733134055 4.1407001124 1.2651985935
C -0.2370499105 4.8237944602 2.2523373608
C 1.0794722064 2.3033826595 -0.0106537268
C 2.3878726294 2.2942787112 0.7195052411
C 2.3641560744 2.3465732090 -0.7841401052
H -1.9577713948 2.0805545797 0.2467125940
H -0.1716160291 3.9626560718 -0.8289171771
H -0.2992834217 5.4223561416 3.1277493416
H 2.6546580211 3.1941208974 1.2634988050
H 2.6703115042 1.3638732452 1.2001962185
H 2.6317727221 1.4530251026 -1.3381954036
H 2.6279170258 3.2807335572 -1.2687933064