20

C 0.0179698641 1.5346640343 -0.1418107361
N 0.0356115621 0.0918640744 0.0877963690
C -0.8894122409 -0.5172876101 1.0303152257
C 0.0693572371 -1.6025113854 1.3902421198
C 1.1254793141 -0.5618086730 0.8560820633
C 1.1268481508 0.0102019987 2.3191488045
O 1.2805606003 1.3881468411 2.5853112673
C -0.2668319577 -0.5656371506 2.4585227693
C -1.0741226361 -0.7172189613 3.7123655192
H 0.9082568195 1.8090493353 -0.7185868870
H -0.8561752711 1.7721764628 -0.7589685044
H -0.0072241905 2.1439315477 0.7682927704
H -1.9614088512 -0.5602717059 0.8750960830
H 0.0127987472 -2.6803775974 1.3693793343
H 2.0561123043 -0.7631150064 0.3253992073
H 1.8246010236 -0.5853005920 2.9267674820
H 2.2169994848 1.6061961020 2.5448445219
H -1.3611070850 0.2612499552 4.1122221940
H -1.9938860405 -1.2822095935 3.5252070352
H -0.5143981650 -1.2463294457 4.4927271514