16

C -0.0236682028 1.4718828489 0.0213236672
C -0.0196031196 -0.0263666330 -0.0158051091
N -0.0234743634 -0.6113979721 -1.1919081032
N -0.0100483731 -1.9408346867 -1.2095279222
C 0.0000900049 -2.7494832892 -0.1104625066
C 0.0001850544 -2.1993507476 1.1400450842
N -0.0424762305 -2.8897737298 2.3304971733
C 0.0003269285 -0.7436733560 1.2534341025
O 0.0274526793 -0.1857781505 2.3568171596
H 0.8497627594 1.8415573842 0.5686683445
H -0.0232225198 1.8785327355 -0.9910403666
H -0.9007592883 1.8382005131 0.5652549651
H -0.0105767470 -2.3405552271 -2.1335835079
H 0.0044502952 -3.8148721578 -0.3094110823
H 0.3978458894 -3.7954187384 2.3683093680
H 0.1735004835 -2.2758960735 3.1079984336