17

C 0.1676058182 1.4905117886 -0.2041122032
C -0.0813559948 -0.0322130685 -0.0010895775
C 0.3035726223 -0.3715116477 1.4368410317
O 1.3108032429 -0.9603669577 1.7338820101
C -1.5821272463 -0.2439489156 -0.2058816530
O -2.4025015998 -0.0565999237 0.6569554845
C 0.7703504020 -0.8260889458 -0.9797990902
C 0.3676333939 -2.1191566958 -1.5378774534
O 0.2841048510 -0.9211437338 -2.3205369640
H 1.2308866001 1.7148518024 -0.0777480774
H -0.1313173313 1.7867497882 -1.2138505297
H -0.4078925137 2.0768976467 0.5168114900
H -0.4175321385 -0.0115416789 2.1969994265
H -1.8706313736 -0.5351156285 -1.2355884614
H 1.8367613172 -0.6210352159 -0.9012806675
H 1.1292061215 -2.8293038712 -1.8523881792
H -0.5881926612 -2.5611896129 -1.2581489763