20

C -0.0316845473 1.4921520461 -0.2517144889
C 0.1387155406 -0.0007331401 -0.0725908874
C 1.4989705084 -0.6569113013 -0.0728736097
C 0.6792350283 -0.6325914349 1.1965724601
C 1.1351234046 0.2104665570 2.3717624692
C 0.0336519345 -1.9610377567 1.5870483751
O 0.8885362804 -2.8331830497 2.3047205080
C -1.2241324685 -1.7285765165 2.3360261598
N -2.1856066554 -1.5312042941 2.9463383895
H 0.7942908857 2.0583550638 0.1868837702
H -0.0681562066 1.7442463586 -1.3168838122
H -0.9616869721 1.8455336109 0.2062214350
H -0.6475799384 -0.5777082660 -0.5557354725
H 1.6325430500 -1.6015292766 -0.5898442092
H 2.3692187932 -0.0089043300 -0.1078703183
H 1.5892191983 1.1467356491 2.0425393141
H 0.2991709133 0.4591212325 3.0350825102
H 1.8945457752 -0.3182004491 2.9600268177
H -0.2262672886 -2.5071998018 0.6739813431
H 1.0585446643 -2.4486977611 3.1716652562