17

O -0.1181288298 1.3679333306 0.0340396072
N 0.0498434327 -0.0299053923 -0.0295015388
C -1.0643301793 -0.6216450002 -0.0647768317
C -2.5479790681 -0.3341784763 0.0147264230
C -2.9838788393 -0.8413328649 -1.3885730479
C -2.5949952181 -2.3099150204 -1.0988545272
C -3.5061160099 -2.5885063588 0.1071805139
N -2.6521694026 -1.6229660872 0.8849773226
C -1.4640851021 -2.0574517072 -0.0084459388
H 0.7927633956 1.6764634344 0.0884934311
H -2.9632507327 0.5819289280 0.4240969849
H -4.0510429296 -0.7253505390 -1.5961925944
H -2.4134616168 -0.3687671556 -2.1916859297
H -2.4761930503 -2.9932479968 -1.9401835025
H -4.5708188196 -2.3452211072 0.0319379586
H -3.3824838362 -3.5810748292 0.5487016499
H -0.8263586738 -2.8759368978 0.3189902399