18

O 0.4971317622 0.3567713981 -1.0074708147
C -0.0737637007 0.2086265280 0.2854888586
C -1.5024184400 -0.2469021020 0.2141671696
N -1.9080997933 -1.2930903550 -0.7637245130
C -2.5637991897 0.0534237826 -0.7662904067
C -3.6373835070 0.1076463563 0.3482222828
C -3.7090804106 -1.1342638731 1.2046020994
O -3.7120175441 -2.4531325640 0.7961108390
C -2.5227105526 -0.2150322379 1.3849746422
H 0.1115420939 1.1429470445 -1.4081964957
H 0.5370845789 -0.5431070154 0.7998675554
H -0.0068266967 1.1381123175 0.8701589653
H -1.1947478608 -1.2705808930 -1.4940280078
H -2.5535717655 0.6586336219 -1.6642183228
H -4.3788182033 0.8966971758 0.3878475139
H -4.4224255130 -1.0013849665 2.0169190656
H -3.0526488019 -2.4891633503 0.0792162203
H -2.3041650458 0.2941057724 2.3167694187