21

C -0.0228708143 1.5929267667 0.0207521556
C -0.0079833560 0.0636138636 -0.0398019348
C -1.4027656727 -0.5555123253 -0.0090989260
C -1.3903192058 -2.0811558653 -0.1378606423
C -2.8154809419 -2.6520858416 -0.0382951891
C -3.6130061294 -2.0427320734 1.1046151303
O -4.4261199735 -2.6601035929 1.7498279164
C -3.3623548192 -0.5519875485 1.3410654692
O -1.9999955318 -0.1900853983 1.2342378233
H 0.9941813521 1.9957931063 0.0190982275
H -0.5511292527 2.0176993094 -0.8403486234
H -0.5273293289 1.9362639597 0.9270401516
H 0.4962720070 -0.2750659104 -0.9528421621
H 0.5629896790 -0.3398976818 0.8053521159
H -2.0062558174 -0.1286373891 -0.8329496295
H -0.9299823164 -2.3780316756 -1.0867022086
H -0.7677736730 -2.4880321072 0.6678575711
H -3.3676319938 -2.4032232873 -0.9574077864
H -2.8330283010 -3.7403588803 0.0594257570
H -3.9772885206 0.0099406584 0.6124613884
H -3.6994682696 -0.2884149972 2.3455976959