20

O -0.1654673134 1.3773646788 -0.0229008775
C -0.0588258783 -0.0119451975 0.1316151595
C -0.4856473404 -0.7370914581 1.3749657725
C -1.6730146772 -0.0251681201 2.0343753625
C -2.4753140804 -0.1358591364 0.7013647456
C -1.2834959845 -0.8550600654 0.0538444733
N -3.6284462706 -1.0116230850 0.8343712957
C -4.9026047992 -0.3459445556 1.0924902362
C -4.6117284767 -0.9342290400 -0.2435595723
H 0.5018797859 1.7893464825 0.5358734100
H 0.8102774107 -0.4503976835 -0.3612041571
H 0.1562844340 -1.4648906235 1.8581080769
H -2.1459543155 -0.6315736441 2.8081586144
H -1.4860292720 0.9827580522 2.4158929637
H -2.7362412521 0.8257194288 0.2321782906
H -1.3775135251 -1.6882290722 -0.6324406350
H -5.5684775300 -0.8510350399 1.7861391060
H -4.9047823954 0.7405198993 1.1658815280
H -4.4204466344 -0.2395161598 -1.0599486579
H -5.0611928352 -1.8767954804 -0.5425206752