17

C -0.1051497853 1.3862941396 -0.3147430115
C 0.0136523280 -0.1014718782 0.0764796964
C 0.7447675200 -0.2942246132 1.4058204975
C -1.3729212498 -0.7376494795 0.1159577974
O -1.8946555006 -1.1492387255 1.1309081578
C -2.0625709340 -0.8279143592 -1.1609961185
C -2.6477372058 -0.9261212478 -2.2195426234
C -3.2992269123 -1.0350577374 -3.4058008484
C -3.8779794866 -1.1316593109 -4.4614096025
H 0.8910001639 1.8275090092 -0.4112705225
H -0.6274447761 1.5134887314 -1.2668492940
H -0.6502881007 1.9449700097 0.4532022103
H 0.5631359645 -0.6110188816 -0.7278060462
H 0.2039765509 0.1953209859 2.2202189126
H 0.8333860642 -1.3530773543 1.6617757656
H 1.7494671704 0.1349039932 1.3491817997
H -4.3883664808 -1.2174185115 -5.3891297704