14

O 0.0086461765 0.0350026624 0.0708379184
C 0.0250352969 1.2278739246 0.1229114056
O -1.0664137751 1.9653326759 0.4764668570
C -0.8568726126 3.3755739225 0.2918431394
C 0.6483513217 3.5834474588 0.0909513728
C 1.5368770080 3.5802217122 1.3537657150
O 2.0365557339 2.2541604320 1.0566234556
C 1.2097568833 2.1690824516 -0.1232139136
H -1.4320276508 3.6945086939 -0.5840220938
H -1.2492870116 3.8917690964 1.1725659992
H 0.8781097823 4.3500145719 -0.6471571238
H 2.3456144758 4.3186665907 1.3629902910
H 1.0020034271 3.6159727524 2.3108056819
H 1.7734802746 1.8985793947 -1.0188631847