18

C 0.0294250028 1.4240944961 0.1855271440
C -0.0284943205 -0.0549450484 0.0431466144
C -0.1333719237 -0.9863017165 -1.1395523795
C 0.7660711557 -1.9788993185 -0.3671730444
N 0.8913322229 -1.0278221235 0.7977482329
C -0.2228967423 -2.0556369124 0.7399019742
C -0.4127077952 -3.0005965032 1.8768795934
O -0.7939776798 -2.3202232216 3.0608837817
C -1.1566978734 -1.0546444365 0.0099659158
H 1.0140620378 1.8086045647 -0.1021999059
H -0.7231167720 1.8975184015 -0.4538305323
H -0.1653852641 1.7260512067 1.2206609586
H -0.2965041395 -0.7885005937 -2.1893832231
H 1.5733958383 -2.6410761531 -0.6586838705
H -1.2116275633 -3.7179200006 1.6591467239
H 0.5199899241 -3.5717789716 2.0151863423
H -0.1411113325 -1.6203613560 3.1836875411
H -2.2286837751 -0.9201059135 -0.0206645665