15

C -0.0516831731 1.5202752452 -0.3663969430
C -0.0490040478 0.0939170469 0.1823325852
N -1.3597268379 -0.5428383384 0.0845034490
C -1.8874055578 -1.2621114135 -0.9235899039
C -3.1673815178 -1.5572048955 -0.4969545351
N -3.3495123583 -1.0012866159 0.7424906269
N -2.2594236859 -0.3911641098 1.0845852405
C -4.1668492586 -2.3059928863 -1.1686073238
N -4.9662455639 -2.9194920970 -1.7374234881
H 0.9429936632 1.9601582389 -0.2524934389
H -0.3144866234 1.5363552713 -1.4280006999
H -0.7692208943 2.1381164225 0.1789989504
H 0.6645780859 -0.5384743021 -0.3523594257
H 0.2146705148 0.0829696202 1.2418332824
H -1.3484992552 -1.5081828967 -1.8225611560