15

C -0.4254329954 1.3684042560 -0.0207027617
N 0.0545105730 -0.0081562594 0.0151176114
N 0.3591127696 -0.5708704535 -1.1599224264
C 0.7892602053 -1.7873827523 -1.2000716438
C 0.9752101259 -2.6270426626 -0.0130278875
O 1.3755229634 -3.7715706506 -0.0045505760
N 0.6322901767 -1.9526219199 1.1569111064
C 0.1643766836 -0.6458068050 1.2535260356
N -0.1558666565 -0.0098837707 2.3112953506
H 0.2345850681 2.0148233479 0.5626001486
H -0.4357483009 1.6713368129 -1.0660419366
H -1.4275820347 1.4313599227 0.4099350327
H 1.0245200352 -2.2057716719 -2.1704585737
H 0.7380500674 -2.4777086370 2.0141334173
H -0.0333386308 -0.5769572466 3.1468160631