19

C -0.0366145464 1.3690772660 -0.2357672920
O -0.1147425439 0.0839017040 0.3446103504
C -1.3430316178 -0.5378578370 0.1687102082
C -1.5204162655 -1.4404087915 -1.1182169604
O -0.6606752528 -2.4219107283 -0.4720410808
C -1.3567925992 -1.9992115338 0.7519457131
C -0.6885173887 -2.3829390696 2.0387437707
C -2.8103280894 -2.3823517188 0.4261440967
C -2.9190568895 -1.9998886426 -0.8505825160
H 0.9436271023 1.7786813194 0.0172859369
H -0.1326542801 1.3305558614 -1.3304979746
H -0.8169678827 2.0386546756 0.1573984612
H -2.1794643145 0.1265431900 0.4288068342
H -1.2118128886 -1.1499871818 -2.1212528385
H 0.2935056098 -1.9096677944 2.1067125133
H -1.2922628631 -2.0648822386 2.8947631296
H -0.5618250137 -3.4686065990 2.0904896846
H -3.5362813586 -2.8069365650 1.1045666701
H -3.7650688678 -2.0105346460 -1.5222202868