17

O -0.0648398043 1.3936236679 -0.0803060806
C 0.0127527498 0.0042285288 -0.0025400661
C -1.3766416849 -0.6807937634 -0.0008941927
C -0.9289954599 -1.5009413558 1.2332196977
O -1.4537936207 -2.3545661361 1.8867458814
C 0.4319578713 -0.7735084428 1.2986843641
C 1.6115588313 -1.4083654614 0.5119069842
C 1.1539110891 -2.1645871044 -0.7024318092
C 1.1946188704 -0.6615432991 -0.7597912690
H 0.8233762803 1.7541328996 0.0200382361
H -2.1537155162 0.0398704415 0.2761893960
H -1.7043626622 -1.2377236501 -0.8818382882
H 0.6938877606 -0.2627673086 2.2260403703
H 2.5978806980 -1.5551801078 0.9336170488
H 1.9482731089 -2.6580884905 -1.2541663104
H 0.2177478781 -2.7145909139 -0.7135449684
H 1.8008540504 -0.1349400539 -1.4893511440