25

C 0.6479277077 -0.1567032130 1.3155374401
C 0.0126441849 -0.2072382824 -0.0806189541
C -1.4121772540 -0.7490799257 -0.1106505958
C -1.8667378786 -1.4232940758 -1.3827208439
C -1.5631348927 -2.2507843603 -0.1547696345
C -2.4484290069 0.0572353465 0.6754510871
C -2.5770196663 1.5002468225 0.1726479859
O -3.6990343432 -0.6188553596 0.5766209296
C -4.6019045677 -0.3511089635 1.6214726381
H 1.6965448764 0.1508666168 1.2538277624
H 0.1389093294 0.5545514517 1.9741347804
H 0.6128944703 -1.1390380369 1.7982012339
H 0.0475817181 0.7901943140 -0.5363638053
H 0.6268437983 -0.8472766830 -0.7251026593
H -2.9090655188 -1.3239499853 -1.6604053915
H -1.1729450806 -1.4571829102 -2.2165600629
H -0.6565635133 -2.8476536796 -0.1469927726
H -2.4067655885 -2.6912699860 0.3609390527
H -2.1475300035 0.0739293226 1.7362126491
H -3.3686519114 2.0321816708 0.7081093411
H -1.6491539237 2.0585680002 0.3252633295
H -2.8165759011 1.5084131925 -0.8947955759
H -5.4828802096 -0.9760668916 1.4531147398
H -4.1728502654 -0.6016818736 2.6044132528
H -4.9242814996 0.7003396090 1.6467521032