21

C -0.1868712301 1.5544787306 -0.2057799763
C -0.0292005969 0.0474028133 0.0403327302
C 0.5352525916 -0.7032253761 -1.1836011326
C 1.9339942045 -0.3578091766 -1.6401283690
C 2.9430024583 0.2407481212 -1.0021837652
C 2.9928301557 0.7878599365 0.4066697269
C 2.2039391203 -0.0009080695 1.4389071855
O 1.1986289282 0.6946268234 2.1929636606
C 0.7817262668 -0.3224861805 1.2785664690
H 0.7332880915 2.0175537175 -0.5677928060
H -0.9563137222 1.7221045472 -0.9666045701
H -0.4871709532 2.0686376986 0.7096740466
H -1.0392813925 -0.3491346342 0.2079378599
H 0.4913560399 -1.7868623637 -0.9915271168
H -0.1441793565 -0.5437988935 -2.0318857662
H 2.1346388696 -0.6701836205 -2.6645163608
H 3.8606808558 0.3834206246 -1.5697679161
H 4.0397869544 0.8363850519 0.7259496490
H 2.6350725042 1.8251003435 0.4245361989
H 2.7995975343 -0.6835509036 2.0464631668
H 0.4322656262 -1.2314254902 1.7736389457