23

C -0.0162024263 1.5448666459 -0.0081235312
C 0.0208340054 0.0155024183 0.0156127004
C 0.6836784495 -0.5453737885 -1.2515251953
O 0.7285989666 -1.9608432069 -1.2608054234
C 1.4740094005 -2.4751279754 -0.1692801118
C 0.8879952175 -2.0461621565 1.1609139862
C -0.1703232724 -2.9179153905 1.7891207616
C 1.2174416886 -2.8552779711 2.3855955678
C 0.7569766196 -0.5351614978 1.2509980189
H 0.9957825055 1.9651898869 -0.0457808173
H -0.5649145655 1.9188270072 -0.8793061313
H -0.5045899193 1.9406250360 0.8884051773
H -1.0084185505 -0.3669823552 0.0357387896
H 0.1256137436 -0.2518992447 -2.1463613478
H 1.7059544674 -0.1325695920 -1.3424842993
H 1.4661444668 -3.5643999590 -0.2749847345
H 2.5231157437 -2.1342126782 -0.2403780595
H -0.9785060231 -2.4344382451 2.3284535858
H -0.4646642255 -3.8240990870 1.2700782219
H 1.8613716974 -3.7220869184 2.2723328028
H 1.3495292998 -2.3271738171 3.3245432423
H 1.7593998825 -0.0827354412 1.2995488585
H 0.2370619886 -0.2436457298 2.1714268284