19

O 0.0484652686 -0.0112764178 -0.2489660411
C 0.0096873912 1.1879794378 -0.1045568842
C -1.2766889729 2.0363027597 0.0536616210
C -0.7926025881 3.4858632217 -0.0643054774
C -1.1161326085 4.5699212420 0.9788024914
C 0.0472742005 5.5791238340 0.7970153479
C 1.2955105792 4.7209425131 0.4159231300
C 0.7128599836 3.3814353510 0.0648877787
C 1.1584843205 2.1205381675 0.0156918688
H -2.0311589794 1.7375464324 -0.6772741816
H -1.6889706427 1.8312141529 1.0489565853
H -1.0358494903 3.8872741148 -1.0596219043
H -2.0979486721 5.0319914592 0.8464940066
H -1.0870775720 4.1319072347 1.9843226048
H -0.1904454983 6.2702937017 -0.0182270802
H 0.2190829060 6.1866391034 1.6885979732
H 1.8516209287 5.1604981437 -0.4196576865
H 2.0058401170 4.6281195627 1.2438160447
H 2.1800627089 1.7716962556 0.1000258630