17

C 0.0827355688 1.3821265570 0.0560610701
O 0.0382148247 -0.0374857799 -0.0324528412
C 0.6177972365 -0.5613355426 -1.1551262483
O 2.0168861858 -0.2321709627 -1.3050270146
C 2.2036419651 -1.0185987056 -2.4919641933
C 1.7000219676 -2.3967217871 -1.9825718536
C 0.7095220717 -2.1059624056 -1.1481427709
C 1.0944314899 -0.4207922105 -3.3961815984
C 0.1037865342 -0.1246429118 -2.5636202853
H 1.1156619636 1.7408195764 0.1051426148
H -0.4154338077 1.8546363701 -0.8004297387
H -0.4449455658 1.6500195064 0.9730346657
H 3.2287957485 -0.9624716613 -2.8534057817
H 2.0659369591 -3.3580062403 -2.3130772989
H 0.0400401644 -2.7457494168 -0.5929678521
H 1.1330159217 -0.3617075232 -4.4747423676
H -0.8932766680 0.2373389476 -2.7698581759