15

O 0.0929884270 0.1813336308 -0.3773221267
C 0.0533615442 1.3167245172 0.0265954145
C 1.2768810347 2.1715731899 0.0953020271
C 1.1901187098 3.6426443147 -0.0616896155
C 1.5343515015 3.1139529658 1.3263413170
C 0.5128126083 3.2411361449 2.4010933570
O -0.6775902875 3.3355213542 2.2226733007
C 2.9660304818 3.1839311300 1.7383570291
O 3.8939630257 3.1552911616 0.9681954716
H -0.8889355140 1.7995141269 0.3443338252
H 2.1859839122 1.6862616707 -0.2441515858
H 2.0007855701 4.1397506539 -0.5812754252
H 0.2028018141 4.0860127442 -0.1401380463
H 0.9365844391 3.2627002356 3.4294222599
H 3.1306014430 3.2685278796 2.8346538674