17

O 0.0371901148 1.3683327385 -0.3637577789
C 0.0610031437 -0.0073995108 -0.0350566819
C 0.7048317265 -0.2599585551 1.3560475558
C -0.3176116963 -0.4531135494 2.4810964502
O -0.0617568208 -0.3268194249 3.6518392487
C -1.6996578255 -0.8298937215 1.9528012948
C -1.5807146248 -1.8248048446 0.7784231807
C -1.3786113129 -0.5319636920 -0.0336291235
O -2.0661708624 0.2306267894 1.0123520246
H -0.6339699623 1.7641750798 0.2094953454
H 0.6505990821 -0.4946321486 -0.8186653736
H 1.3075294001 -1.1771532102 1.3341269890
H 1.3878559653 0.5538353049 1.6097691772
H -2.4309492908 -0.9759304087 2.7485484395
H -0.7802530161 -2.5670374854 0.7966453347
H -2.5350595098 -2.3047612838 0.5583227852
H -1.8596523006 -0.4146066674 -1.0070701179