15

C -0.0322836543 -1.2561782102 -0.1359295665
C -0.0033405469 -0.0585655285 -0.0419845930
C 0.0086815872 1.3976470249 0.0546737633
C -0.6032195167 1.9417598094 1.3472043222
C 0.1998719124 2.8101430769 1.9607106988
C 1.4993256300 2.9355774777 1.2362764298
N 2.2449359826 1.6435019354 1.2120286686
C 1.4110362964 2.0286073847 0.0618485002
H -0.0450161032 -2.3152522554 -0.2082621563
H -0.5498889466 1.7995504031 -0.8046166980
H -1.5722521383 1.6056039505 1.6949409490
H -0.0222645153 3.3316158003 2.8838145143
H 2.0564038915 3.8660004861 1.2202934275
H 3.2178789673 1.8274926231 0.9720378350
H 1.8876416138 2.2507742321 -0.8860425348