20

C -0.1001332818 1.5368891874 0.1630711858
C 0.0432988951 0.0253066054 0.0068835813
C -1.2951215308 -0.6458331836 -0.3438726006
C -1.8902012828 -0.1650919499 -1.6491499470
O -3.0360958178 0.1746426108 -1.7979728585
C 1.2324831819 -0.4858656451 -0.9102071358
C 1.8113064479 -1.2130267012 0.3050189992
N 2.0881085766 -0.1645160621 1.3174090650
C 0.7206260790 -0.7146519562 1.1830368992
H 0.8435282286 1.9699558991 0.5011395211
H -0.3793729216 2.0117959537 -0.7843313101
H -0.8778524846 1.7822935953 0.8955026794
H -1.1394203214 -1.7316060130 -0.4357435238
H -2.0371061736 -0.4845156616 0.4455186107
H -1.1794283654 -0.1517901228 -2.5078653863
H 0.8985209985 -1.1599247330 -1.7022394632
H 1.8770637772 0.2865752644 -1.3364591021
H 2.3471457329 -2.1538571221 0.3237442613
H 2.5159023947 -0.6243174189 2.1207291964
H 0.2231347074 -1.1830826163 2.0250863179