17

C -0.0745881951 1.5208515721 0.0954986550
C -0.0271853225 0.0295133573 0.0139985140
C 0.0614115609 -0.7271636186 -1.0830345676
C 0.0665909371 -2.2209322293 -0.7676963391
C 1.1889225162 -2.9450574846 -1.3708847986
N 2.0555709025 -3.5284353967 -1.8646880288
C 0.0753203286 -2.2456367063 0.7681214255
N 1.2520697779 -1.5981861060 1.3666984312
C -0.0233960940 -0.8403137668 1.2352412284
H 0.7876908323 1.9064143231 0.6529918067
H -0.0747721746 1.9789738212 -0.8965128561
H -0.9719201408 1.8596300058 0.6281364487
H 0.1533847755 -0.3647367467 -2.0996156246
H -0.8546831247 -2.6931640985 -1.1374195804
H -0.3989210005 -3.0733606909 1.2819608785
H 1.3493433682 -1.9338779380 2.3235393928
H -0.5642241569 -0.5552167572 2.1317741743