17

C -0.4284147035 1.3401077036 -0.5561102490
O -0.3588031274 -0.0850553964 -0.7101838640
C 0.8810259383 -0.5965165465 -0.8250967538
O 1.8891568298 0.0560282129 -0.7998945975
C 0.8033800950 -2.1343870134 -1.0077809935
C 2.1355442765 -2.7741967134 -0.6134218008
O -0.1925674275 -2.6802713685 -0.1545064408
C 0.4893865605 -2.3823818327 -2.4252676741
C 0.2184795029 -2.5751919972 -3.5802308732
H 0.0972546940 1.6515434354 0.3495774085
H 0.0228114867 1.8381593105 -1.4174523306
H -1.4890142836 1.5798185708 -0.4857177433
H 2.3257369349 -2.5858315948 0.4456380198
H 2.0797838292 -3.8509665868 -0.7827696225
H 2.9486976572 -2.3501262931 -1.2024503926
H -1.0103056348 -2.1988112058 -0.3266296052
H -0.0191423383 -2.7530145445 -4.6003007673