20

C 0.7798516114 -0.5412669737 -1.1843263008
C -0.0042493286 0.0109038808 0.0150743889
C -0.0028084875 1.5446675395 0.0267060483
C -1.4298705123 -0.5352672436 0.0112046469
C -1.5657091690 -2.0570147656 0.1605014518
O -2.7298837570 -2.2071482622 0.9758272165
C -2.9743778582 -1.0270552712 1.6190611389
N -3.8314730922 -0.8186012863 2.5143850917
O -2.1509269997 -0.0578038679 1.1592917310
H 1.8035148677 -0.1560633431 -1.1797436263
H 0.8394153472 -1.6346993717 -1.1750129964
H 0.3173510496 -0.2370950516 -2.1306295747
H 0.4687679035 -0.3449197615 0.9406198740
H -0.4582949942 1.9429020458 -0.8877526093
H -0.5632946329 1.9317808258 0.8804008475
H 1.0207801391 1.9276970047 0.0820969963
H -1.9594146562 -0.1866819434 -0.8875228982
H -1.7282895940 -2.5788653924 -0.7840216607
H -0.7009318687 -2.4959593206 0.6744638028
H -4.3141013980 -1.6848812917 2.7410290019