20

C 1.2724151642 0.6624151912 0.2457980806
N 0.5929253402 0.0416505791 -0.9046596100
C -0.1657161274 0.3161204663 0.3257973542
C -0.6997258834 -0.8832796896 1.0683069491
C 0.2069213877 -2.1173551765 1.2578354266
C 0.0801018503 -1.7917115037 2.7407361943
C -0.1348047185 -2.6904908281 3.9116980155
C 1.1020548592 -1.8008067673 3.8281727395
O -0.7546563613 -0.6546938294 2.5045171564
H 2.0198324067 0.0405812336 0.7290565893
H 1.5321577964 1.7164556815 0.1962078505
H 0.3862121590 0.7394127188 -1.6136783171
H -0.8571837808 1.1577759501 0.3151677732
H -1.6996907187 -1.1276614694 0.6872500897
H -0.2400522419 -3.0623646915 0.9450376039
H 1.2065536935 -2.0370954120 0.8292147878
H -0.9055382338 -2.4027882710 4.6187938245
H -0.0170656455 -3.7610305032 3.7757641242
H 2.0649906908 -2.2635705034 3.6354550300
H 1.1349006034 -0.9344227756 4.4802001877