19

C 0.2741190504 1.5454576210 -0.1182344987
C 0.0965974938 0.0535388435 0.0496031465
O 0.9027213574 -0.7429173412 -0.8640732548
C 1.3603010841 -1.6028495360 0.2085023160
C 2.8493477383 -1.5974048072 0.4942533322
C 3.5865862122 -0.3018308583 0.2056091630
C 3.0261259468 -0.5588939545 1.5716198377
O 1.7830600139 0.0112442914 1.9180301420
C 0.7229184920 -0.6700862273 1.2643494608
H 1.2885828409 1.8535693374 0.1414922180
H 0.0658960819 1.8306534763 -1.1540077188
H -0.4237327586 2.0834414052 0.5320312112
H -0.9616660977 -0.2240573332 -0.0621636883
H 0.9533263970 -2.6141756470 0.1117959573
H 3.3840002726 -2.5388665080 0.5048008080
H 4.6632832286 -0.3629993030 0.0881921833
H 3.0891035751 0.4079422647 -0.4434467707
H 3.6801031088 -0.6908264964 2.4267780065
H 0.0292691423 -1.0708143073 2.0094211188