12

N -0.1268150302 1.2675332387 0.4343589901
C 0.0235026996 0.0577881805 0.0823352378
C -1.1571022245 -0.6675343236 -0.3504790841
N -2.0900940077 -1.2585350931 -0.6906109613
N 1.2377406587 -0.6730576659 0.0257670419
C 1.2357119843 -2.0803842905 0.2676722111
O 2.2009821265 -2.7790295489 0.2195759179
C 2.4160930156 0.0378130246 -0.3494784016
O 3.5287957558 -0.3820803911 -0.2677634035
H 0.7393772971 1.6911564051 0.7687517139
H 0.2211836637 -2.4385214660 0.5089596131
H 2.1549532209 1.0323701402 -0.7538210054