18

O -0.1532258164 1.5136176297 -0.0799976375
C -0.0747970233 0.2003622860 0.4314615850
C -1.3354808632 -0.5850561025 0.0654816518
N -1.5402236596 -0.6101064590 -1.4278255463
C -1.4407359190 -2.0857386439 -1.4451438815
C -2.2259019742 -3.0578166128 -2.2863365651
C -0.7432997100 -2.9188138416 -2.4910030755
C -1.2125096218 -2.1227303867 0.0379224125
O -1.0010481606 -2.9801632532 0.8461307409
H -0.3171126299 1.4058962977 -1.0264756214
H 0.8113177342 -0.3290414274 0.0474905557
H 0.0230200972 0.2733799784 1.5185883184
H -2.1981094805 -0.2092796884 0.6262010455
H -2.4755624567 -0.3003582854 -1.6732961223
H -2.6076678190 -3.9441051499 -1.7905801002
H -2.8842122403 -2.6327642802 -3.0374285050
H -0.3984418085 -2.3877768068 -3.3713034128
H -0.0926036485 -3.7106673839 -2.1356144222