23

C 0.1005381419 1.5912405130 0.3618279378
C -0.0386833054 0.1174264317 0.0451701598
C 1.1351450843 -0.6540072662 -0.5116243881
C 0.6493741266 -0.8975238395 0.9054352102
O -1.3144014577 -0.2860245252 -0.3771079840
C -1.6887997008 0.1525727342 -1.6727496785
C -2.9963422432 -0.5361816386 -2.0393050964
C -3.5151599519 -0.1199910083 -3.4091124189
O -4.7267746454 -0.8211921479 -3.6438254091
H 1.0908460422 1.8045824985 0.7739301895
H -0.0260253906 2.2148780675 -0.5295971874
H -0.6505281066 1.8941673641 1.0990700666
H 0.9204933342 -1.4244204733 -1.2435931784
H 2.0782073704 -0.1382180794 -0.6586377791
H 1.2570747674 -0.5475431988 1.7327601092
H 0.1087091289 -1.8181414809 1.0910751784
H -1.8165675485 1.2465126695 -1.6934615217
H -0.8995843592 -0.0956946506 -2.4003319769
H -2.8525672137 -1.6217168865 -2.0235374646
H -3.7532008473 -0.3028446062 -1.2829130611
H -3.6756793137 0.9707135127 -3.4339571931
H -2.7642325152 -0.3538698552 -4.1822078338
H -5.0615093266 -0.5612671649 -4.5068806403