16

O -0.1154288499 1.3460164519 -0.0211297517
C -0.0564646123 -0.0161381678 -0.0229963641
C 0.8990329795 -0.9905897070 -0.8229146501
O 1.9337152941 -0.9987768519 0.2057905292
C 0.6860985086 -1.0116400231 0.9596931782
C -0.0618776604 -1.9448691862 -0.0487602651
C -1.2286643551 -0.9666832232 -0.1796339525
N -2.5029727273 -0.9110363920 0.5086147708
C -2.4590831228 -0.9594485567 -0.9821790148
H 0.7794795678 1.6854885658 0.1059287142
H 1.1922677968 -1.0011382582 -1.8718082684
H 0.7234591554 -1.0461091517 2.0475862594
H -0.0434006453 -3.0314690688 -0.0623361352
H -2.7521904093 -1.8266741637 0.8764928136
H -2.7930594071 -0.0478180825 -1.4696064318
H -2.7589330326 -1.8784588448 -1.4800568915