12

O -0.0762690877 -0.0452434424 -0.1087766246
C -0.0612483304 1.1268863355 -0.0795451191
C -1.0105899416 2.3956185481 0.0964744914
O 0.0463377007 2.9109590554 0.9494112352
C 0.9963647287 2.3788422787 -0.0091003163
C 0.6013890597 3.0490024548 -1.3066199027
C -0.7417811299 3.0630575008 -1.2302978207
C 2.3662963312 2.2879278665 0.4193670835
N 3.4715255544 2.1750054634 0.7368244755
H -1.9958607913 2.3691763691 0.5514007519
H 1.2725547925 3.3415973063 -2.0990853683
H -1.4748401163 3.3708142237 -1.9601477857