20

C -0.0659386435 1.5388444925 -0.0556418410
N 0.1069478900 0.0939777492 -0.0084652254
C 0.6442775506 -0.5833142949 -1.1572555543
C 2.2355851925 -0.6038026442 -1.1912854450
C 2.9448433932 0.3376175324 -0.2957402777
C 2.3968566288 0.3156617494 0.9325126767
C 2.7396150448 1.1579977592 2.1196089521
C 1.1720093515 -0.5727566494 0.8664788264
C 1.4291778979 -1.5418085196 -0.3297485350
H 0.8354172189 2.0994062198 -0.3463549732
H -0.8526189243 1.7611856832 -0.7853221522
H -0.4070388075 1.8991426077 0.9206058671
H 0.0712348310 -0.7074810539 -2.0700143380
H 2.6750590854 -0.9636743990 -2.1143448216
H 3.7440568437 0.9940132843 -0.6212153696
H 3.6529364542 1.7347203459 1.9472182378
H 1.9386171346 1.8683103095 2.3634056837
H 2.8915388704 0.5424313894 3.0157579082
H 0.7661110393 -0.9446330182 1.8088982178
H 1.4656249284 -2.6232922235 -0.3225619767