15

C -0.1884596946 1.4426173942 -0.1902554730
O 1.0858082962 0.8259252042 0.1482912896
C -0.0216629561 0.0098547321 -0.0411145571
C -0.3869909307 -1.0529771060 1.0354920305
C -1.2809498155 -2.2443577518 0.6411779797
C -2.1474693160 -2.2570698007 -0.6231952307
N -1.4085107459 -1.2896794956 -1.4748604142
C -0.2536195062 -1.1964703776 -0.9392359722
N 0.0938643460 -2.1641589616 0.1539998892
H -0.6436407611 2.0247206310 0.6080278474
H -0.2396222553 1.8734235891 -1.1872741399
H -0.0034060419 -0.9621744378 2.0500274793
H -1.4787348358 -2.9590255738 1.4377964308
H -2.1996680150 -3.2772937860 -1.0280859668
H -3.1691396381 -1.8843059797 -0.5043166126