23

C -0.0319905759 1.3709789197 0.1931249366
O -0.0090607770 -0.0221462248 0.0052431956
C -1.2924970400 -0.6057688197 0.0648768789
C -1.1572731216 -2.1080448436 -0.1429909852
C -2.5038799987 -2.8348939241 -0.0928989306
C -2.3756369626 -4.3502720282 -0.2990939149
C -3.7086111394 -5.0538214689 -0.2330842419
C -3.8729754970 -6.3880523004 0.3553226324
O -4.2791471304 -5.2194113332 1.0699945928
H 0.9991693627 1.7282236695 0.1333648581
H -0.6290550358 1.8801654151 -0.5808638395
H -0.4461700902 1.6458373695 1.1767529227
H -1.7651890622 -0.3943007586 1.0404856569
H -1.9489852198 -0.1680004143 -0.7083756051
H -0.6666397421 -2.2842053250 -1.1082960882
H -0.4845803482 -2.5068561626 0.6260767321
H -2.9912615545 -2.6539071840 0.8732574738
H -3.1749058908 -2.4211474279 -0.8585278503
H -1.9129283217 -4.5563276497 -1.2739754950
H -1.7132075970 -4.7743501419 0.4650365587
H -4.4354315401 -4.7460376339 -0.9886402268
H -4.6809475611 -7.0368368133 0.0192869593
H -3.0035397664 -6.9047736798 0.7606401195