18

C -0.0765283456 1.4196366820 0.0055472943
N -0.0374824517 -0.0229512415 -0.0186461522
C -1.1014515229 -1.0406920371 -0.0635941114
C -1.9425356175 -1.0376604947 -1.3263981153
O -2.7452765197 0.1366590787 -1.2920212410
C 0.0338498917 -2.1116410941 -0.0015169655
O 0.0942969977 -3.0029752988 -1.0887242224
C 1.0035262531 -0.9064422133 -0.0562561151
O 2.2004992704 -0.7775368800 -0.1439665437
H 0.9520011383 1.7809959888 -0.0663690578
H -0.6644807438 1.8062971731 -0.8307588075
H -0.5193635857 1.7884794178 0.9386433851
H -1.7554215281 -1.0118163893 0.8159729743
H -1.2849779543 -1.0578665621 -2.2049355975
H -2.5564503278 -1.9507453686 -1.3466777700
H -3.2649593483 0.1696266989 -2.1004929096
H 0.0632972784 -2.6451652910 0.9575008497
H 1.0207230157 -3.0714315288 -1.3468750844