17

O -0.1394717373 1.5025988871 0.0283419868
C -0.0520841226 0.1065274199 -0.0725310757
C -1.3473673898 -0.6693569489 -0.0173801466
C -2.0276482230 -0.8108000431 -1.4068292197
C -1.6403033848 0.1306802753 -2.4940347221
C -0.3084415460 0.2109993943 -2.5657267638
C 0.2891912429 -0.6037570586 -1.4468398796
O 1.6318911915 -0.9828030065 -1.5419687195
C -0.8262302896 -1.6414354085 -1.0531770710
H 0.7540417141 1.8586535830 0.0688644824
H 0.6443629684 -0.3156319340 0.6649373452
H -1.9172641196 -0.8709242972 0.8812430529
H -3.0173380245 -1.2518255383 -1.3738405419
H -2.3545435363 0.7000557803 -3.0752417029
H 0.2750855830 0.8908170195 -3.1741800868
H 1.7696647748 -1.3713880015 -2.4127332868
H -0.7541071413 -2.7216768727 -1.0307656013