19

C -0.0346106317 1.5731935613 0.0576675898
C 0.0161123515 0.0434514475 0.0431432171
N -1.3062026197 -0.5800784983 -0.0394494295
C -1.9623591061 -0.6900687156 -1.3359038154
C -1.9574832976 -2.1592074734 -1.7406952460
O -2.9039356395 -2.8934862520 -1.5858364397
C -1.9990490310 -0.7803052938 1.1503349702
N -3.2702835829 -1.3046614636 1.0203941474
O -1.5214034175 -0.4704014745 2.2287549459
H 0.9785761988 1.9858874314 0.0983226427
H -0.5227099100 1.9714420850 -0.8386474615
H -0.5844090478 1.9175537012 0.9366676808
H 0.6118129691 -0.3165843271 -0.8028375354
H 0.4831153371 -0.3191844731 0.9595813368
H -2.9934719316 -0.3253663212 -1.2958288659
H -1.4071667769 -0.0947158036 -2.0664149763
H -0.9874725187 -2.5484019905 -2.1175994689
H -3.4917767724 -1.9238419802 0.2519502263
H -3.6658870133 -1.5637646497 1.9105334216