23

C -0.5955385657 1.2243545325 0.2572549146
N 0.0239185263 -0.0860246776 0.1401611155
C 1.4281336106 -0.1340407405 -0.2488857424
C 1.0142571082 -0.5319107350 1.1274538482
C 1.4331944119 0.2702507506 2.3425290326
C 0.4856835765 0.0826199311 3.5313329851
N 1.0042566080 0.7552117177 4.7171050226
C 0.6041523464 2.1480027147 4.8953824861
C 0.0331338425 1.0754288000 5.7557758981
H 0.0750434555 2.0269315296 0.6037813255
H -0.9779272134 1.5161255837 -0.7264755583
H -1.4463099830 1.1664744096 0.9445616153
H 1.6981938347 -0.8783863007 -0.9940568748
H 1.9609561082 0.8128978214 -0.3432293109
H 0.9302955586 -1.6005696610 1.3295904431
H 2.4356064057 -0.0526731549 2.6485130038
H 1.5164829295 1.3351582293 2.1022188250
H -0.5277861120 0.4363684207 3.2660710676
H 0.3966726065 -0.9859182630 3.7648818305
H 1.3684392541 2.8181693776 5.2781911498
H -0.0572988412 2.5882653315 4.1498572047
H -1.0075839848 0.8039408381 5.5837743918
H 0.3736853568 0.9456948447 6.7791448264