16

O -0.0490106216 -0.0143620192 -0.0131605610
C 0.0121607021 1.1947031126 -0.0166497121
C 1.2689060666 1.9486072351 0.0306397680
C 1.3594086392 3.2853614221 -0.0006804045
C 2.7842904048 3.7638154439 0.0206283728
C 3.5678395129 2.4778379642 0.4375096732
C 2.6269428827 1.2868232169 0.0759582996
C 4.8971274197 2.3861315688 -0.1560194008
N 5.9465944376 2.3180732829 -0.6355479423
H -0.9057440357 1.8219129133 -0.0537089807
H 0.5134492604 3.9611952269 -0.0707778625
H 3.0883374876 4.1159297272 -0.9739075722
H 2.9571755001 4.5943951769 0.7115445149
H 3.6915412525 2.4963795853 1.5255362352
H 2.6829131045 0.4757525221 0.8051679642
H 2.8796982365 0.8532971410 -0.8982378019