19

C 0.1307163807 1.6184384669 -0.0440905226
C 0.0977080895 0.0863875389 -0.0197630889
C 0.6495624768 -0.5351807528 1.2715652102
C -0.2092976300 -0.2427445538 2.4920791520
O 0.2841532449 -0.9130765385 3.6609889435
C 0.9042026954 -2.1122499579 3.6060123251
O 1.2408471622 -2.6700906516 4.6065959659
O 1.1631444572 -2.6526458663 2.3952827046
C 0.7264230768 -2.0499002109 1.1692737037
H 1.1476378344 1.9944460200 0.1104963313
H -0.2210074444 1.9966390710 -1.0081812828
H -0.5074338747 2.0552503653 0.7302444883
H -0.9307239010 -0.2645339918 -0.1785427524
H 0.6827330647 -0.2987876019 -0.8641768827
H 1.6602908809 -0.1479307268 1.4577706589
H -0.2206006546 0.8163729804 2.7569618498
H -1.2460194227 -0.5614843072 2.3142292137
H -0.2551311584 -2.4666843965 0.9046782204
H 1.4466977923 -2.3745788565 0.4137910821