19

C 0.1549139641 1.5368327680 -0.0701238434
C 0.0981896414 0.0077726209 -0.0629558672
C -1.3268812890 -0.5388754975 0.1184569044
N -2.2053634358 -0.1571271236 -1.0090577620
C -3.0421015389 -1.3006378630 -1.4003182417
C -2.3382804516 -2.4754046799 -0.7484198565
C -1.4094008184 -2.0430538855 0.0945808865
C -4.4433293397 -1.1907720253 -0.9345775739
N -5.5342481289 -1.0708189903 -0.5701623518
H 1.1822732082 1.8935027824 -0.1879654774
H -0.4358513452 1.9433413843 -0.8968494621
H -0.2366973658 1.9540659841 0.8650621586
H 0.4999539881 -0.3876750620 -1.0027888157
H 0.7246774143 -0.3843809976 0.7486974991
H -1.7118160755 -0.1646182389 1.0845472930
H -2.7532920808 0.6714552003 -0.8219633217
H -3.0805079104 -1.4009526833 -2.4947357568
H -2.6171272186 -3.4992637094 -0.9575889860
H -0.7650098575 -2.6660154737 0.7027750445