16

C -0.4514977238 1.5181097330 0.0136141705
C 0.1106895581 0.1153450903 -0.0902340780
O 1.2178489070 0.0942519182 -1.0246749162
C 2.1579570909 -0.7079436940 -0.4658206827
N 3.2454923316 -0.9222065915 -1.2504068330
N 1.9835657803 -1.1527159837 0.7236375383
C 0.7458852141 -0.5242358205 1.1946951515
C 1.0246328486 0.4543415103 2.2625270025
N 1.2298241704 1.2263354395 3.0976195503
H 0.3027677796 2.2154590162 0.3852428392
H -0.7986278745 1.8581704385 -0.9654866832
H -1.3007530326 1.5313886793 0.7031221153
H -0.6473523195 -0.5743402281 -0.4794658964
H 3.1101254182 -0.8541558467 -2.2457518462
H 3.8744495446 -1.6398073381 -0.9291946825
H 0.0695513270 -1.2746546727 1.6182551005