23

C -0.3764118097 1.6909422427 -0.8157104212
C -0.1788557975 0.3030709186 -0.1930438068
C -1.4804978597 -0.4647688985 0.0523568522
C -2.2989040187 0.1467390629 1.1970236264
C -3.6845864516 -0.4618150635 1.4282526583
O -2.3019540216 -0.5501794313 -1.1714581825
C -2.3424276198 -1.9735487541 -1.0639404661
C -0.9832824428 -2.5711356503 -1.2260965875
C -1.4050298920 -2.0013373211 0.1149370543
H 0.5905633623 2.1442777920 -1.0538797088
H -0.9550003210 1.6116662403 -1.7400153709
H -0.9028776955 2.3772142654 -0.1457420153
H 0.4612929307 -0.2901033075 -0.8530730742
H 0.3557722293 0.3865155984 0.7621394291
H -1.6945903055 0.0659632272 2.1108734134
H -2.4136160134 1.2179560607 0.9983110047
H -3.6310165394 -1.5131162716 1.7258010436
H -4.2077599098 0.0801418356 2.2218887037
H -4.2869330087 -0.3958521608 0.5187930984
H -3.2836141199 -2.4706985721 -1.2678144812
H -0.9522392587 -3.6564321149 -1.2537019644
H -0.2460690119 -2.0770575340 -1.8516301629
H -1.4294887350 -2.5910076041 1.0218406677