16

C 0.0443919772 1.8019044637 0.2234348318
C -0.1402771135 0.2808041993 -0.0001174433
C 0.4551410760 -0.4360273873 1.2335327353
O 1.4818946926 -1.0519596223 1.2538302757
N -1.5594896758 -0.0347753455 0.0088389375
C -2.1109092241 -0.5785478648 -1.0065152729
N -3.4449923415 -0.8378459328 -1.0473197046
C 0.5792250853 -0.1302612641 -1.2203095293
N 1.0647380167 -0.4521364833 -2.2184299497
H 1.1036727039 2.0630352433 0.2893868571
H -0.4114720400 2.3492428908 -0.6047590499
H -0.4634875342 2.0880781790 1.1479447351
H -0.1956251161 -0.3074417509 2.1239254908
H -1.5798576215 -0.8435383395 -1.9271912423
H -3.7969575910 -1.4767007796 -1.7387084192
H -3.9666113740 -0.7558936859 -0.1886132920