21

C -0.1118755957 1.5773023589 -0.1025573743
C 0.0140655439 0.0687607334 0.0756992978
O 0.6730209239 -0.4886044722 -1.0696146406
C 1.8882801969 -1.0713100895 -0.6370946199
O 2.1815633339 -0.5431786991 0.6263327147
C 0.9068237017 -0.4009647454 1.2552089908
C 1.0137324868 0.4981573006 2.4510564043
C 0.0004016928 0.3690653447 3.5646464988
C 1.4216585035 -0.0790420579 3.7820583291
H 0.8754832962 2.0469498254 -0.1399321312
H -0.6247427646 1.7906159220 -1.0442271095
H -0.6878768825 2.0243050346 0.7135973150
H -0.9834696543 -0.3811342784 0.1556178063
H 1.7770793540 -2.1706079385 -0.5874290388
H 2.6958579452 -0.8105036132 -1.3294917525
H 0.5540182983 -1.3946313528 1.5838482871
H 1.3699687711 1.4983099111 2.2292105161
H -0.3391460797 1.2762432892 4.0510391939
H -0.7637838881 -0.3956475733 3.4713777359
H 1.6174805663 -1.1449486255 3.8297829908
H 2.0604915803 0.5200977860 4.4205185162