19

C -0.0316518329 1.5923616815 -0.0328683390
C 0.0164932407 0.0675035134 0.0191236235
C -1.3727658578 -0.5329623978 -0.2019861980
C 1.1047537110 -0.6608248705 -0.8282760511
N 1.6791105597 -1.3766582745 0.3695813919
C 2.1882639284 -0.3214878434 1.2482111598
C 0.7228493525 -0.5613870354 1.2459434442
C 0.0398657306 -1.1084134708 2.3805628362
N -0.5429711612 -1.5118465476 3.2954299019
H 0.9497221694 2.0464494303 0.1300401470
H -0.3937775202 1.9277802938 -1.0109260689
H -0.7153121801 1.9857940708 0.7270841387
H -1.7569339736 -0.2396029456 -1.1845353136
H -1.3490029960 -1.6257481861 -0.1566313229
H -2.0791456713 -0.1812974766 0.5568665282
H 0.7003114422 -1.3829691170 -1.5392474989
H 1.8392213386 -0.0261253824 -1.3343989478
H 2.7439438831 -0.7032639972 2.0987050162
H 2.5829970170 0.5942769450 0.8143158026