21

C -0.1454905436 1.4829831096 -0.0917774205
O -0.1626718478 0.1935818390 0.4832778941
C -1.2944804545 -0.5779093496 0.1190032854
C -1.2736812982 -1.2136796581 -1.3086783164
C -1.0987516784 -2.6081612047 -0.6682282739
C 0.3728522179 -2.9426679184 -0.2846358322
C 0.0525223042 -2.5901593539 1.2036020407
O 0.9486340164 -1.8455315816 1.9751514106
C -1.3110033438 -1.9911106472 0.7678125462
H 0.7552790991 1.9875931664 0.2644568111
H -0.1193458348 1.4404260369 -1.1896206078
H -1.0275339377 2.0657158441 0.2132426207
H -2.2041365512 0.0045727935 0.3225562063
H -2.2281045417 -1.0870065439 -1.8275320764
H -0.4677750618 -0.8822796233 -1.9709183508
H -1.7032775924 -3.4298464699 -1.0503278099
H 0.7027596927 -3.9684391717 -0.4644979182
H 1.0980972144 -2.2606318676 -0.7376399061
H -0.1388962542 -3.5142048933 1.7603367053
H 0.9455628181 -0.9541369642 1.6023315140
H -2.1739173625 -2.1876730220 1.4055027079