19

C -0.2974149887 1.4358123003 0.0171795751
C 0.8340616332 2.4884046058 0.0082592396
C 1.8338092378 2.1969660549 -1.0769425565
C 2.8056868444 1.2867199449 -0.9977909435
C 3.2082488270 0.4651587022 0.1755925404
O 2.8891240179 0.9129618092 1.5062082961
C 2.3276422343 -0.3236932791 1.0722046530
C 0.8116823207 -0.4761961646 0.9891897063
O 0.1510394539 0.1008966829 -0.1106052363
H -0.9021749447 1.5553297130 0.9301956655
H -0.9578980715 1.5867955220 -0.8431574528
H 0.3746955620 3.4730379850 -0.1346198296
H 1.3301051309 2.4885473181 0.9789389892
H 1.7013289377 2.7129543233 -2.0252498282
H 3.4342461701 1.1196798064 -1.8695781285
H 4.2313630401 0.0916059328 0.0979157658
H 2.7886877299 -1.1881061891 1.5592570689
H 0.6116628394 -1.5527291283 0.9227945386
H 0.3819818057 -0.1247727997 1.9421219772