17

C -0.0507735212 1.4249334653 0.0854883207
N -0.0309546247 -0.0302160045 0.1399172988
C -1.0971527024 -0.6671710172 0.0127171286
O -2.4122313975 -0.2101965940 -0.1800167970
C -2.9186928784 -1.5789673595 -0.1438371522
C -2.9832235290 -2.3011793239 -1.4951271537
C -1.8648001133 -1.9319245225 -2.3805613132
N -1.5836277986 -2.8907324501 -1.2974050790
C -1.5029781215 -2.1263132072 0.0282917503
H 0.5913517088 1.7583895928 -0.7371015471
H -1.0495336241 1.8560093614 -0.0479333182
H 0.3857204145 1.8196510856 1.0091818952
H -3.7411711007 -1.7003416792 0.5577929309
H -3.8133025995 -2.9221065295 -1.8149070910
H -1.8402719554 -2.4080583170 -3.3558469824
H -1.4452335258 -0.9317856159 -2.3540984810
H -1.1545638211 -2.7652754247 0.8353388101