18

O -0.2405763120 0.3377076070 -0.7597261771
C 0.0787951368 1.0755684626 0.1446840194
C 1.3354162627 1.8386714058 0.1967337672
C 1.7958704810 2.8366832690 1.2514396382
N 2.4868207283 3.6634012195 0.1917081754
C 3.9073014186 3.2545923523 0.1199765707
C 3.9146289197 1.7288735651 -0.2069346897
C 2.5045709690 1.5240254357 -0.7522756322
C 1.8260278857 2.8390356168 -0.8617250995
H -0.5966355310 1.2390536383 1.0157173289
H 0.9696311135 3.4008829598 1.6945073337
H 2.4537118260 2.4769166246 2.0510478562
H 4.3829246860 3.8221543852 -0.6862756007
H 4.4142086403 3.5055528110 1.0554188123
H 4.6657030371 1.4728247761 -0.9597589407
H 4.1155823583 1.1121758219 0.6745512427
H 2.2752955557 0.7487477281 -1.4732480479
H 1.2975037042 3.2614378113 -1.7061939468