21

C -0.2971820560 1.3878002096 -0.0698278270
O -0.2294142452 -0.0158465294 -0.1101080838
C 0.7743825111 -0.4859043273 -0.9872547039
C 0.7446783750 -1.9916538773 -0.9523607264
C 0.0187034258 -2.7960515433 -2.0208462938
O -0.5493643259 -2.1482236473 -3.1172501626
C 1.5277328110 -2.8227100418 -1.9372211366
O 2.1979154324 -2.1252816926 -2.9521592149
C 2.6364331150 -2.9820853354 -3.9974067758
H 0.6494408879 1.8353500414 0.2750974465
H -0.5359697558 1.8156988945 -1.0567637837
H -1.0903048598 1.6578644862 0.6318506680
H 0.5983156203 -0.1140337472 -2.0070720278
H 1.7630736301 -0.1113024816 -0.6717376590
H 0.7053219784 -2.3923948352 0.0567020693
H -0.5632805909 -3.6610116794 -1.7198631440
H 0.1817010438 -1.7499572272 -3.6082064658
H 2.0551341040 -3.7086585508 -1.5838905804
H 1.7972097823 -3.5106242929 -4.4690478168
H 3.1331333469 -2.3528039548 -4.7391488535
H 3.3528650596 -3.7262856483 -3.6217216679