21

C -0.1278061355 1.4829640395 0.1420594717
C 0.0474386156 -0.0285047323 -0.0800584556
C 0.8295856755 -0.2914709440 -1.3535912978
O 0.5492060934 -1.1144830458 -2.1872999180
C 0.8074225116 -0.6502768828 1.0989909158
O 0.1906134784 -0.3524292058 2.3706258495
C 0.3190870004 -1.7268227922 2.7978858629
C 0.7468550725 -2.1795574993 1.3837309370
C -0.2793357462 -3.0166493815 0.6279112194
H 0.8407759641 1.9958825366 0.1566288267
H -0.7365845964 1.9299907255 -0.6491670085
H -0.6162202272 1.6583016700 1.1026220307
H -0.9281796371 -0.5107952612 -0.1814581631
H 1.7359159154 0.3500650923 -1.4706891010
H 1.8437824988 -0.2742211319 1.0893238030
H 1.0851681011 -1.8375726605 3.5761348627
H -0.6311051183 -2.1283140402 3.1693401513
H 1.7270062718 -2.6610936642 1.3422149864
H -1.2896438660 -2.6102006122 0.7423573561
H -0.0559832617 -3.0622723718 -0.4413825230
H -0.2907481101 -4.0389206082 1.0205801434