16

O 0.0645038068 1.3762760308 -0.0303316019
C 0.0100671902 -0.0062904650 -0.0013422109
C -0.4705207227 -0.7844252985 -1.2065332508
C -1.3025971889 -0.7893873293 0.0658957893
N -1.0528509470 -1.8434431323 1.0172403120
C 0.2265178902 -1.8067819218 1.4590919227
C 0.9089623619 -0.7379530074 0.9473844441
C 2.2075426222 -0.2665759370 1.3131788576
O 2.6866718161 0.7900427442 0.9092565391
H 1.0028689326 1.5918100505 0.1104934777
H -0.8835927119 -0.1750613744 -2.0026329306
H 0.0394435626 -1.6904779642 -1.5174528193
H -2.2852303243 -0.3342059127 0.0865077063
H -1.6943710367 -2.5947874001 1.2021895774
H 0.5899592086 -2.5653596746 2.1411830429
H 2.7841582503 -0.9135796082 2.0085306445