15

N -0.6185738367 0.6274771334 -1.1933305649
C -0.2330512869 -0.3621938068 -0.3098190937
C -0.9211986670 -1.2331383733 0.5249169036
N -2.2828417716 -1.4707567099 0.7522157557
C -3.3553284922 -1.1170198177 0.0010544382
N -3.2870430963 -0.4266410374 -1.0780906654
N -0.0283034488 -1.9396613421 1.2681737716
N 1.1818008277 -1.5850988671 0.9585708148
N 1.0625274986 -0.6313038874 0.0025906592
H -0.0499297194 0.6621856635 -2.0310855209
H -1.6124223721 0.4994318575 -1.4202684355
H -2.4450962356 -2.0722449257 1.5446569102
H -4.2892578823 -1.4884038584 0.4349354776
H -4.2138161044 -0.2666347150 -1.4596475158
H 1.8896730369 -0.1854490035 -0.3596396146