16

O 0.0876869311 1.4769114281 0.0965223499
C 0.0188575801 0.0783373538 0.0350721468
C 0.2397589196 -0.6715100380 1.3619563196
C -0.9346651477 -0.2995616761 2.2878902765
C -2.0699884762 -0.2687208973 1.3299402459
N -1.7302664995 -1.5506893647 2.0418685776
C -0.7439160578 -1.7948016830 0.8878486724
C -1.3496676134 -0.6334312173 0.0097869548
O -2.0272106086 -0.7178026728 -1.1928297836
H -0.1790933643 1.8285252703 -0.7592326147
H 0.6624738564 -0.3440032913 -0.7531349007
H 1.2269221850 -0.8453537831 1.7802982096
H -0.9226599141 0.1944302624 3.2516396011
H -3.0069494326 0.2537675838 1.4839827639
H -0.4833160360 -2.8022797460 0.5740888440
H -2.8655372421 -1.1710380789 -1.0487508931