20

C -0.0124917309 1.3824555480 0.1166523662
O 0.0018859220 -0.0083688577 -0.1114389840
C -1.2757979370 -0.6185426524 -0.0486535354
C -1.1175971339 -2.0478250309 -0.6053616401
N -0.9536976031 -2.8741287927 0.5733580490
C -0.5665945621 -4.2617850727 0.5034969821
C -1.3055735903 -2.2611976175 1.7465374927
O -1.2836505689 -2.7702391683 2.8482119788
C -1.7544535994 -0.8418566910 1.3966048663
H 1.0129580146 1.7377802531 -0.0080520968
H -0.6608673299 1.9029431361 -0.6059081017
H -0.3504629279 1.6430343619 1.1301840230
H -1.9916142824 -0.0351836945 -0.6442747786
H -1.9964232625 -2.3538474804 -1.1923711361
H -0.2383787304 -2.0946696330 -1.2565486040
H 0.4221848773 -4.3729376992 0.0422308585
H -0.5355871787 -4.6457713635 1.5247023496
H -1.2865757717 -4.8497980361 -0.0810442248
H -1.3423181056 -0.1231558278 2.1065621321
H -2.8461595993 -0.7945669416 1.4767306533