20

C -0.0002959805 1.5210202266 0.0034136353
C 1.2776342316 0.7536633734 -0.1224691150
C -0.0289827199 0.0061304970 0.0561876094
C -0.3006553177 -0.6656330298 1.3529345391
N 0.1253481452 -0.2046887421 2.4562393787
C -0.2349872482 -0.8716716600 3.6998795443
C -1.4494936605 -1.7930336237 3.5531201083
C -1.2612288259 -2.6269268583 2.2938475128
O -1.0478458895 -1.7900259178 1.1500367714
H -0.1843291695 2.0287694371 0.9428438859
H -0.4149219639 1.9984063826 -0.8774604838
H 1.7592530394 0.6919808663 -1.0919310443
H 1.9414776047 0.7505435134 0.7337416751
H -0.4299332500 -0.5209677055 -0.8005375577
H 0.6322366747 -1.4428120620 4.0615600567
H -0.4245665958 -0.1024551486 4.4572923586
H -1.5688861605 -2.4458964941 4.4239444098
H -2.3639739588 -1.1967320163 3.4567656674
H -0.3976479697 -3.2976166680 2.4002033200
H -2.1380703953 -3.2342876000 2.0560749880