17

C -0.0504121552 1.5573420319 -0.0007641562
C -0.0035374551 0.0481301546 0.0248969740
C -1.2307908285 -0.6977797987 0.6378100860
C -1.1393356629 -2.1881906463 0.5120692578
C -0.2990513631 -1.5064600748 1.5545516377
C 0.9140235197 -0.8014669514 0.9200106901
O 1.4960890679 -1.4489928995 -0.2625995905
C 0.7109835989 -0.6935452532 -1.1181949705
O 0.7210304358 -0.7117909444 -2.3064657469
H 0.9338699046 1.9842210276 -0.2155809103
H -0.7425748136 1.9012582866 -0.7763230637
H -0.3955793230 1.9518586490 0.9603568062
H -2.1562057354 -0.1899600353 0.8789942165
H -1.9930658731 -2.7265154960 0.9105456347
H -0.6793252362 -2.6619688419 -0.3491140981
H -0.3909657134 -1.7271399142 2.6100661021
H 1.6825453426 -0.3898911941 1.5715735710