20

O -0.2061254496 1.5124956061 -0.0574666676
C -0.0490369879 0.1132427606 -0.2345994529
C -1.3310859275 -0.5596762933 0.2469459122
C -1.2947286867 -2.0647454632 0.1043803144
C -1.6311947217 -2.7430036016 -1.1857739059
N -2.5762559181 -2.8005156703 -0.0644862992
C -2.4804230356 -4.0305678343 0.7524563477
C -1.0998712546 -4.0085771339 1.3709749511
C -0.4522179983 -2.8988472369 1.0193040595
H 0.5939827301 1.9468081527 -0.3667785397
H 0.1266171543 -0.1411922602 -1.2923125923
H 0.8156146761 -0.2630880008 0.3365500994
H -1.5032687874 -0.2833303278 1.2939658280
H -2.1740289319 -0.1665735116 -0.3295811126
H -1.9842544324 -2.1605749679 -2.0340216327
H -1.0699538834 -3.6389393122 -1.4435856956
H -3.2705132045 -4.0199629269 1.5154930075
H -2.6563548270 -4.9167888224 0.1289816313
H -0.7124958438 -4.8058342594 1.9947658144
H 0.5445516001 -2.6133519565 1.3329114331