19

C -0.1495353822 1.5397315643 0.0652337602
C 0.0197431823 0.0276763003 0.0203941077
C 0.7659100652 -0.6096835429 -1.1962658682
C 2.1071886894 -0.2555426446 -0.4902852143
C 1.2674482977 -0.5586178003 0.7988762841
O 1.6293438497 -0.1855500074 2.0709800883
C 1.0070103364 -2.0353998954 0.5967583185
O 1.0833582317 -2.8785842644 1.4552982314
C 0.6345815554 -2.1200737797 -0.8888484111
H 0.7612162516 2.0850350335 -0.1944647027
H -0.9357327756 1.8544225653 -0.6294052304
H -0.4446401535 1.8537892704 1.0710854605
H -0.9371874807 -0.4477385546 0.2686776291
H 0.5615453022 -0.2848925424 -2.2146527989
H 2.9794960085 -0.8832503133 -0.6940675043
H 2.3813887641 0.7956257310 -0.5642428477
H 1.6190503341 -0.9984059763 2.6015518518
H -0.3743045091 -2.5212716525 -1.0278485828
H 1.3357261627 -2.7515876711 -1.4436209712