17

O -0.4846764142 1.5400795693 -1.2608098861
C -0.6250255433 0.1541111629 -1.2776389933
C -1.5126010283 -0.3337383060 -0.1401046231
O -1.9301470298 0.4767028572 0.6642778030
C -1.8035757564 -1.8107609327 -0.1049370394
C -2.3943032305 -2.5413925604 1.1334820432
C -3.7735148285 -1.8761863814 0.9130584590
C -3.2279458660 -2.3892506336 -0.4373806408
O -2.8159769735 -3.6399461884 0.2262103069
H -0.9589828670 1.8313169118 -0.4650286301
H -1.0574059302 -0.1954376096 -2.2304955705
H 0.3497119446 -0.3565987826 -1.1823667972
H -1.0227456634 -2.3869840447 -0.6070804295
H -1.8854450655 -2.8150319763 2.0570985465
H -4.6153977806 -2.4517545382 1.2980093550
H -3.8556996518 -0.8035433736 1.0768403481
H -3.7064758256 -2.4654640137 -1.4139168816