17

O 0.3381337085 1.3627318484 0.0075972139
C 0.1531383972 0.0202802017 -0.0194177209
C -0.0810113665 -0.7416203109 -1.1392419740
N -0.1962271386 -2.0311553550 -0.6290703447
C -0.0296032024 -1.9676609079 0.7172774155
N 0.1844553376 -0.7309146577 1.1193801804
C -0.1964108812 -0.3701791842 -2.5561414652
C 0.3169131310 -1.2574782684 -3.6733643115
C -1.1655659646 -1.0554462146 -3.4996515277
H 0.4778730886 1.5951614709 0.9331598062
H -0.3717989737 -2.8641283302 -1.1645796352
H -0.0735317241 -2.8401947900 1.3504483006
H -0.0681852498 0.6965432830 -2.7023801235
H 0.8097794433 -0.7848489384 -4.5156511109
H 0.7410459947 -2.2186677162 -3.4001422036
H -1.7548856092 -1.8785036080 -3.1076098904
H -1.6940067707 -0.4436340625 -4.2222709491