18

C -0.2970260709 1.5497948245 -0.1120782100
C -0.0696406432 0.0404078332 0.0346502334
C 0.7684967193 -0.5341148694 -1.0726808396
C 0.2427988918 -0.9357698897 -2.4358883209
C 0.8743714488 -1.9561257995 -1.5146513359
O 2.2493643140 -2.2053554550 -1.7129172621
C 2.9493699934 -1.0508704980 -1.4657583059
N 4.1877906240 -0.8785362227 -1.5793638395
O 2.1070009023 -0.0584694745 -1.0783732650
H 0.6561526263 2.0851548896 -0.1172114556
H -0.8185976057 1.7808122587 -1.0463606711
H -0.8992620180 1.9327511419 0.7164818025
H 0.4210650789 -0.1756524763 0.9910254788
H -1.0296345255 -0.4886038783 0.0432079191
H -0.8350074865 -0.9841454598 -2.5496209039
H 0.7942196149 -0.6327546363 -3.3193446595
H 0.3395683579 -2.7989201892 -1.0959138170
H 4.6365640684 -1.7405389591 -1.8782941079