15

O -0.8305392183 1.0253891005 0.2508016955
C 0.2599185035 0.6635659062 -0.1095595245
C 1.4612251457 1.5879930899 -0.1261703370
O 2.5984644802 1.0328283452 -0.8339595778
C 2.6243031470 2.1430934068 -1.7447150472
C 1.7668284298 1.9821924793 -3.0345523134
O 0.5839046202 1.2659945067 -2.6718285128
C 0.6237944217 2.6605199810 -2.3764694771
C 1.4196505580 2.8294343776 -1.0608997343
H 0.4833333955 -0.3751583865 -0.4296482397
H 1.7304368036 1.8408476146 0.9081790201
H 3.6077012700 2.6009004864 -1.8658458884
H 2.0766352391 1.9251366397 -4.0719003325
H -0.1718575726 3.2773881790 -2.7754340667
H 1.4720794664 3.8231873637 -0.6243294043