23

C -0.0638406267 1.4405711323 0.2098955819
C -0.0580531827 -0.0704514593 -0.0877942198
C -1.4966158083 -0.5998304571 -0.2453447198
C 0.7871866712 -0.4000068364 -1.2906800391
C 1.8442550577 -1.2149196416 -1.3170483454
C 2.4735987149 -1.3093505144 -2.6835097046
C 1.4164217368 -0.6502312348 -3.6086817661
O 0.5520143001 -1.6174930735 -4.1976046453
C 0.5420924417 0.1993694193 -2.6640544648
H 0.9524889681 1.8213863919 0.3509985893
H -0.5242823102 2.0042236588 -0.6089519731
H -0.6361319960 1.6523020615 1.1190913259
H 0.3913339220 -0.5804794842 0.7742282672
H -2.0107017127 -0.1141282350 -1.0816643572
H -1.5020239136 -1.6779201644 -0.4302154536
H -2.0802114105 -0.4037214991 0.6604895501
H 2.2349672377 -1.7441441026 -0.4537856448
H 3.4325136059 -0.7726926158 -2.7243538144
H 2.6813450717 -2.3404751614 -2.9984920866
H 1.8859783311 -0.0397419629 -4.3927676124
H 1.0942405512 -2.2177951438 -4.7191391162
H -0.5022351095 0.1528034625 -2.9892997958
H 0.8387732102 1.2561302200 -2.6912619054