16

O 0.1158058181 -0.1658437320 0.1557764924
C 0.0246190678 1.0330035478 0.1498424605
C -1.2797599726 1.7890589277 0.2901713394
C -1.2249274023 2.7743082541 1.4752417665
C 0.0530999228 3.5667353195 1.4839367494
C 1.1519252633 3.2187452254 0.8200227639
C 1.2586686594 1.9533711731 -0.0196483385
C 2.5068575875 1.2376162854 0.2531210089
N 3.5127016268 0.7158586198 0.4753385037
H -1.4377200595 2.3610535804 -0.6339178343
H -2.0918303173 1.0667036054 0.3915442358
H -2.0872566667 3.4488419171 1.4318961538
H -1.3243025610 2.2266835846 2.4226055527
H 0.0654225338 4.4769459944 2.0776342986
H 2.0484560598 3.8285920883 0.8653445112
H 1.2797298401 2.2338885690 -1.0857975041