15

N -0.1736178823 1.4305916462 -0.0924842675
C -0.0925911795 0.0712705197 0.0633221615
N -1.1049311893 -0.6923362011 -0.0796988753
C -0.9847783792 -2.0758551591 -0.0381595652
C 0.0641090578 -2.9816256177 -0.1189356273
N -0.4946512358 -4.2115039681 -0.0203461121
N -1.8479551005 -4.1917004989 0.1089081298
C -2.1343829675 -2.9031061059 0.0939699461
O -3.3992158232 -2.4535655377 0.2010094333
H 0.5073068592 1.9962049075 0.3881245798
H -1.1088641325 1.8109776166 -0.1183885579
H 0.9225377336 -0.2879991734 0.2709819504
H 1.1259016861 -2.8519082486 -0.2556403555
H -0.0326449398 -5.1014784874 -0.0684271879
H -3.3327646171 -1.4902781323 0.1301747979