20

C -0.4911785837 1.6372093525 0.4438159807
C -0.1667899968 0.1484920969 0.3791194552
C 0.5914409291 -0.4989961415 -0.8130614327
N 1.5182000869 -1.2572947351 0.1088155528
C 2.3058238882 -0.2611588936 0.8613751121
C 2.9374147945 0.9800595155 0.2563703659
C 4.1302504228 0.6144525544 -0.6077479514
O 4.3070948520 1.0165921758 -1.7278461288
C 0.9027658222 -0.4784768388 1.2769642242
H 0.3859710422 2.2719839766 0.2977710044
H -1.2256210119 1.9040296328 -0.3239113190
H -0.9247425285 1.8942368233 1.4166587317
H -1.0953688347 -0.4108560326 0.5312979746
H -0.0062251901 -1.2063117073 -1.3900915133
H 1.1019531519 0.1709993001 -1.5113372063
H 3.0100671450 -0.7914779079 1.5036845264
H 2.2596490525 1.5871027796 -0.3412964083
H 3.3065942652 1.6072639114 1.0811067121
H 4.8592607264 -0.0749717354 -0.1219080131
H 0.6828672967 -0.9690479466 2.2219859124