20

C 0.0026300194 1.4691447266 0.0367317794
C 0.0156017431 0.0135935262 0.0124456342
C 0.0256615465 -1.1898181439 -0.0281997506
C 0.0477872604 -2.6481318312 -0.0098949646
C 0.7278246859 -3.1668416911 1.2784706885
O 0.7149645484 -4.5805276514 1.3258201363
C -0.6055951227 -5.0995976808 1.2842030411
C -1.3198645933 -4.6545970237 0.0070196487
N -1.3111961173 -3.1997838313 -0.1750295988
H 0.8455122457 1.8822433925 -0.5281638937
H -0.9178993289 1.8635293934 -0.4074050158
H 0.0689113600 1.8535871579 1.0604771430
H 0.6406141816 -3.0193011085 -0.8587104876
H 1.7764156760 -2.8587055343 1.3162924117
H 0.2060882370 -2.7415683853 2.1529682226
H -0.5122260602 -6.1891874228 1.3348172234
H -1.1732142252 -4.7595279970 2.1688497156
H -0.8150247986 -5.1072467936 -0.8563120031
H -2.3577676858 -5.0046691359 0.0032688974
H -1.9202403619 -2.7618072857 0.5117030522