21

C -0.0026343865 1.4655666902 0.0976837035
O 0.0341107639 0.0587023575 0.0320349361
C 0.6316004867 -0.5704061342 1.1569104786
C -0.4232362429 -0.8685845172 2.2278688548
C 1.3201731324 -1.8454395364 0.6936071661
C 1.0316512890 -2.4408052808 -0.6527128128
C 2.3976106882 -1.8258226055 -0.3852853586
C 2.8181508726 -0.6086403530 -1.0159806295
C 3.2389646178 0.3933581836 -1.5336454205
H 1.0102708608 1.8914793677 0.1333052064
H -0.5004284312 1.8152230731 -0.8102997308
H -0.5701876099 1.8298617058 0.9672662964
H 1.3946849348 0.1023039620 1.5802617523
H -1.1710991483 -1.5652425122 1.8373785659
H 0.0359899706 -1.3113408708 3.1178273343
H -0.9344688104 0.0483150696 2.5355126611
H 1.5159933111 -2.5428193937 1.5030938198
H 0.9823878374 -3.5192638226 -0.7516873285
H 0.3694954962 -1.8781348748 -1.2969936504
H 3.2052272184 -2.5364330901 -0.2302735659
H 3.5939911793 1.2739560917 -2.0079799283