17

C -0.0618602170 1.5148804785 0.0250479059
C 0.0300065079 0.0196599365 0.0290999927
C 0.0019087612 -0.8894927470 -1.1900993167
O 0.9787035098 -1.8916337506 -1.1371084434
C 1.0346179590 -2.1280693902 0.2419371374
C 0.7879257979 -0.8549263198 1.0547327423
C -0.2931674474 -1.9347828485 0.9181843115
O -0.8222519259 -2.8519954958 1.7942449384
C -1.0505021854 -1.0552660142 -0.1067282076
H 0.9253834137 1.9717705287 -0.1126210335
H -0.7057081725 1.8644550756 -0.7889753318
H -0.4792008153 1.8981449580 0.9632659831
H -0.2211396046 -0.5356776497 -2.1885621580
H 1.7357011019 -2.8896205407 0.5548376042
H 1.4058002748 -0.5240615865 1.8785607875
H -1.3404301792 -2.3784682873 2.4547649445
H -2.1205583489 -0.9761430770 -0.2465893565