16

N -0.0471073769 1.3461513221 -0.5355347176
C 0.1048688061 0.0200582916 -0.1748727478
O 1.1722266548 -0.5348749911 -0.0333011920
N -1.0993527852 -0.6391889624 0.0496558891
C -1.3067857782 -2.0533290631 0.4099999385
C -2.8234219058 -1.7199566213 0.5432780304
O -3.3814500798 -2.0056661296 1.7957511736
C -2.4220957295 -0.2619106865 0.3197158470
N -3.0828581643 0.8040162818 0.4643725118
H 0.8132680342 1.7705121211 -0.8494490409
H -0.8631431237 1.5953213156 -1.0747082233
H -1.0170319108 -2.7558353656 -0.3732087504
H -0.8487291719 -2.3255767152 1.3627621876
H -3.4232214018 -2.1293474297 -0.2809408379
H -3.9921491070 -1.2877576001 2.0020791627
H -2.5131454400 1.6456534324 0.3773120291