17

N -0.2574716393 1.0511075904 -0.7699209586
C -0.0946534083 -0.1871922338 -0.1791337417
N -0.7025799611 -0.5317614392 0.9475553519
N -0.2953903197 -1.8341872818 1.0786908723
C 0.5146136127 -2.1892490143 0.0652734663
N 0.6665682128 -1.1609571686 -0.7586261775
C 1.1192026844 -3.5200651796 -0.0782349740
C 1.3036415566 -4.0969672759 -1.4699227564
C 2.5004576288 -3.6375103062 -0.6956167973
H 0.5318535298 1.3215195591 -1.3378997408
H -0.5395001110 1.7720795059 -0.1218802174
H -0.6082177507 -2.3774707260 1.8648876995
H 0.8729302180 -4.2175544205 0.7157704808
H 1.1388024403 -5.1612053055 -1.5948316621
H 0.9672735368 -3.4743666960 -2.2902992546
H 2.9663991438 -2.7072517585 -0.9977700129
H 3.1712138261 -4.3808444196 -0.2797826077