13

O 0.0310485663 -0.0157355295 -0.0463982886
C 0.0091313033 1.1893716172 -0.0168235634
C -1.1966190874 2.0702467996 -0.0113176379
C -0.8479114764 3.3687211689 -0.0096695924
C 0.6369183620 3.5270467940 -0.0138565292
O 1.2596334670 4.5591077445 -0.0405919284
C 1.1983416786 2.1230776300 0.0345155276
C 2.4690225093 1.7809899345 0.7025668329
O 2.3702742523 1.8092994300 -0.7095563027
H -2.2004313595 1.6627687657 -0.0018357680
H -1.5125445100 4.2242371516 0.0014154322
H 3.0435343883 2.5900027637 1.1498473803
H 2.5606754462 0.7919480500 1.1475632676