23

C 0.0690363936 1.6047319884 0.1661765074
C 0.0350963446 0.0803733059 0.0330591787
C -1.3893023101 -0.4861194673 0.0097482810
C -1.4309196965 -2.0159962546 -0.0631241517
O -0.7302442361 -2.6125282242 1.0306117898
C -2.8580503001 -2.5954624908 -0.1438288283
C -3.5652843730 -2.3051318431 -1.4800198928
C -2.7796342412 -4.1017972426 0.0484794357
O -3.4227038110 -4.7275356787 0.8499629144
H 1.0971897386 1.9793311704 0.1776116199
H -0.4526630755 2.0906717665 -0.6661795149
H -0.4140718093 1.9332185285 1.0933689982
H 0.5546779670 -0.2206503487 -0.8862593391
H 0.5858250615 -0.3833498146 0.8578638865
H -1.9320684291 -0.1634397608 0.9112788243
H -1.9370619979 -0.0638682776 -0.8417412153
H -0.8699448120 -2.3459700918 -0.9483231921
H -1.2116332132 -2.4049983530 1.8402744181
H -3.4602907351 -2.2006214569 0.6847072113
H -3.0069840347 -2.7313176049 -2.3213483058
H -4.5694882893 -2.7384179254 -1.4878465309
H -3.6638580158 -1.2306386881 -1.6531664384
H -2.0811860651 -4.6116296069 -0.6558307961