22

C -0.0480875082 1.4356685908 -0.2558463796
C 0.0681561309 -0.0389906128 0.0649479600
C 1.3929524968 -0.7627567890 -0.0152327317
C 0.7083460952 -0.5882970523 1.3265725005
C 1.3259087455 0.3649894586 2.3356074189
C 0.0477969632 -1.8191751114 1.9323560126
C 1.0095493472 -2.7645092927 2.6478014840
O 0.2616067765 -3.9003994258 3.0614526744
H 0.8494281769 1.9943716132 0.0231569767
H -0.1966162658 1.5815562316 -1.3317213218
H -0.8994066810 1.8942079724 0.2602418936
H -0.7876233045 -0.6157965271 -0.2797330475
H 1.4232123902 -1.7518295803 -0.4617390733
H 2.2780166498 -0.1643812501 -0.2111241942
H 1.7593500593 1.2458922150 1.8565287639
H 0.5780993725 0.7127786551 3.0586225312
H 2.1294018937 -0.1187396110 2.9017063919
H -0.7342838856 -1.5171168480 2.6413023386
H -0.4518904229 -2.3958664910 1.1455009620
H 1.8240039276 -3.0498202927 1.9624436687
H 1.4708667922 -2.2633710296 3.5124960874
H 0.8530699004 -4.4924780228 3.5347186439