15

C -0.1440423942 1.4239648227 -0.0382358450
C 0.0677765862 -0.0634869590 0.0430184424
O 0.2904593234 -0.6598510649 1.0701973301
C 0.0137793310 -0.8901666578 -1.2748202394
O 0.3398363290 -2.2252254899 -1.0094428313
C -1.3062478950 -0.7435739850 -1.8930090070
C -2.3987728164 -0.6258408294 -2.4007442984
C -3.6271096065 -0.4915126486 -2.9695174816
C -4.7173422834 -0.3702086685 -3.4739396600
H 0.5861055516 1.8701900186 -0.7225629839
H -1.1361690344 1.6375102544 -0.4474085796
H -0.0433889280 1.8685582317 0.9520826153
H 0.7655982281 -0.4543154247 -1.9548487856
H 0.3750475188 -2.2823816589 -0.0387115729
H -5.6765529101 -0.2669531808 -3.9176297730