22

C -0.9415318455 1.0791981294 0.0156847372
C -0.1359658521 -0.2209593376 0.0880338786
C 1.0773306242 -0.1293647204 1.0157083946
C 0.7429162434 -0.1534164659 2.5397561858
C 1.1045986030 -1.6632779886 2.5597763290
C 1.8439308675 -1.4720533050 1.2075928123
N 1.8346758826 -2.1898354305 3.6869173048
C 1.4273798858 -3.2612732701 4.4217905885
O 0.4176020273 -3.9044233146 4.2290545480
H -0.3237840738 1.9046908463 -0.3554628262
H -1.8000554144 0.9775139651 -0.6551749441
H -1.3234693446 1.3698953092 1.0001426040
H -0.7892647384 -1.0418101202 0.4132971790
H 0.2109648424 -0.4921032421 -0.9177545979
H 1.7040414940 0.7116086326 0.7029960779
H 1.4564025459 0.4368141900 3.1241129348
H -0.2687800288 0.1216611957 2.8496440384
H 0.2221989475 -2.2946121042 2.4544275317
H 1.7082246888 -2.2478208622 0.4489115737
H 2.9171067643 -1.3137057827 1.3564509256
H 2.6966251827 -1.7388112771 3.9533752797
H 2.1402893283 -3.4889763572 5.2397947147