20

C -0.0748867123 1.4617714151 0.1139705691
C -0.0224122300 -0.0666636059 0.0141934262
C 1.2706059351 -0.4401259638 -0.7871902067
O 2.0133498770 -0.5441906745 0.4795687909
C 0.7458319133 -0.7789793277 1.1193155931
C -0.1318443214 -0.5234083081 2.3701567178
N -1.1114170128 -1.4458162615 1.6161703303
C 0.1234350532 -2.1898060288 1.1685303040
C -1.3991512229 -0.7365191891 0.3000202499
H 0.9152502186 1.8736769127 0.3329129348
H -0.4131142602 1.8826930627 -0.8402531242
H -0.7682620543 1.8121176064 0.8836328118
H 1.2608412748 -1.3983892348 -1.3174057736
H 1.6893690557 0.3417866467 -1.4250902637
H 0.1658641699 -1.0291458176 3.2895691093
H -0.4861043374 0.4865299476 2.5779865391
H 0.0059572197 -2.7756591172 0.2538551894
H 0.5195286384 -2.8126903181 1.9731821577
H -2.1922514917 0.0023001487 0.4335711034
H -1.7430410826 -1.4854561830 -0.4164285086