19

N 0.0740026411 -1.1906423270 -0.1412441302
C 0.0500641764 -0.0359457421 -0.1557009971
C 0.0114945019 1.4291767289 -0.1446409028
N 1.3138981569 1.9855726071 0.2225146015
C 1.3565739492 3.4085084200 0.1999080070
C 1.5562417109 4.1252454176 -1.1084305424
C 2.5760325038 4.3054295305 -0.0141375483
C 2.0470470366 5.3028544608 1.0232894774
C 0.7998332196 4.3858157333 1.2579503936
H -0.2409300243 1.7796404974 -1.1520692165
H -0.8184236135 1.7391779110 0.5134525075
H 1.6039608439 1.6224613243 1.1250669730
H 1.8724032725 3.4820824963 -1.9228104098
H 0.9076516864 4.9490814149 -1.3985941962
H 3.6104010452 4.0176499587 -0.1555443456
H 2.6771293437 5.3840043344 1.9113847303
H 1.8425873870 6.3101388868 0.6473935581
H -0.1859834101 4.8204397184 1.0610521185
H 0.7959457928 3.9539009987 2.2629953819