16

C 0.0118537581 1.5304197854 -0.0174959918
C -0.0997896886 0.0128404368 -0.1153199176
N 0.8358928633 -0.5053857131 -1.1046617422
C 0.8716015157 -1.8645629268 -1.3452203777
N 1.3404843730 -2.3643758568 -2.4931155661
N 1.2554576637 -3.6844509930 -2.2992064239
N 0.7688774634 -4.0849976721 -1.1419698434
C 0.5092563742 -2.9415187084 -0.5034708211
H 1.0309221683 1.8287099431 0.2448641572
H -0.2480272469 2.0064745038 -0.9699891081
H -0.6717383730 1.9169730975 0.7431508579
H 0.1471346237 -0.4342447487 0.8550888996
H -1.1405529159 -0.2752762073 -0.3401517651
H 0.8767004666 0.0352133286 -1.9581834245
H 1.5445590692 -4.3366894525 -3.0083192870
H 0.0922798753 -2.9420392065 0.4895114236