16

O -0.1207791918 1.4311480351 0.0618506852
C 0.0259575969 0.0722625268 0.0345537186
C 0.0434141011 -0.9762441118 -1.0504902198
C 1.2980870674 -1.6425168256 -0.4903380077
C 0.9298780759 -0.9601187885 0.8609177051
O 1.8959470682 -0.5492128708 1.7647057082
C -0.3827222611 -1.6713689622 1.3026490317
C -1.0212651567 -0.9911304735 0.0918524126
H 0.6760021792 1.8324058360 -0.3040604944
H -0.2703815809 -0.8841424946 -2.0818856314
H 1.3619747064 -2.7372134648 -0.4989879682
H 2.2098971826 -1.2100907596 -0.9121335904
H 2.2583454563 -1.3270925316 2.2039217836
H -0.3736837940 -2.7669198839 1.3547776048
H -0.7594935286 -1.2500879760 2.2385025987
H -2.0715878710 -0.8908864552 -0.1469106867