18

C 0.0075448706 1.5201820627 0.0504858345
C 0.0207272814 -0.0049518746 -0.0336418952
C 0.8207843302 -0.5695503564 -1.2349161344
C 1.3477505487 -1.8956706694 -0.6796558734
C 1.4964198784 -1.6060238228 0.7977603415
N 2.2010085288 -2.2560754844 1.6172497997
O 0.7479621077 -0.5039739080 1.1233761181
C -1.3442353213 -0.5458786838 -0.0058385880
C -2.4632218979 -0.9835632369 0.0028974886
H 1.0337885657 1.8956709929 0.0787135751
H -0.5039903025 1.9388208135 -0.8204100301
H -0.5156920687 1.8482437809 0.9512736682
H 0.2015584348 -0.6716081036 -2.1266313918
H 1.6464990551 0.1130343808 -1.4590825739
H 0.6145174849 -2.6984916809 -0.8121989378
H 2.2914399997 -2.2286618084 -1.1113949274
H 2.1122483956 -1.8638581897 2.5564202348
H -3.4514230114 -1.3732075219 0.0201698215