21

C 0.0938439631 1.6698555969 -0.2154788132
C 0.0353059293 0.1551419258 0.0113380372
C 0.6872231320 -0.6785225141 -1.1265051793
C 1.3522124242 -1.8916790651 -0.4337130691
C 1.5043518896 -1.4267322207 0.9996150540
C 2.3474388916 -2.1772894874 2.0009028020
C 1.9290272173 -3.5684385296 2.1747903496
C 1.5738702348 -4.7094456461 2.3031555002
C 0.7868574125 -0.3278201878 1.2324689993
H 1.1312019009 2.0106154827 -0.3076615561
H -0.4360734608 1.9511157047 -1.1319364839
H -0.3662175852 2.2161795061 0.6150364016
H -1.0245841053 -0.1259531696 0.1166415621
H -0.0275027916 -0.9666289370 -1.9020357502
H 1.4587690375 -0.0682123363 -1.6099451507
H 0.7223848050 -2.7904854906 -0.4736070244
H 2.3084848364 -2.1712209674 -0.8925088985
H 3.3985844476 -2.1677841755 1.6754962867
H 2.3202965932 -1.6615862390 2.9680834792
H 1.2642606791 -5.7177095020 2.4241616746
H 0.7051074588 0.1651410219 2.1968490388