18

O 0.0514397458 1.1851900101 -0.6840839838
C -0.0037645443 -0.1070317378 -0.1512961589
C -1.4210966646 -0.5037623696 0.1986597084
N -2.3665886314 0.3069839265 -0.0260298122
C -3.7382426390 -0.0113323568 0.3382761031
C -3.9633668470 -1.4335945634 0.8242162478
C -3.6822886794 -2.6025131045 -0.1003426947
C -2.7455687574 -2.2807433836 1.0285365718
O -1.4724697159 -1.7473524841 0.7284584935
H -0.8722376555 1.4869682371 -0.6958075916
H 0.3937061344 -0.8499881159 -0.8607720902
H 0.6089770005 -0.1888989251 0.7601085290
H -4.0376918491 0.6863665881 1.1306965051
H -4.3816422916 0.2156916196 -0.5214477369
H -4.7691276781 -1.5553669565 1.5411018428
H -4.2946755891 -3.4936204566 -0.0212718997
H -3.3375805312 -2.3740085919 -1.1040811421
H -2.6662952172 -2.9486338758 1.8773402689