19

C 0.1705853221 1.2410306699 0.0284355250
C -0.1221884726 -0.2223523982 -0.3069284820
N -1.5356469814 -0.5538762590 -0.1782056665
N -2.0364573516 -0.8408959124 1.0392831843
C -3.3350238640 -1.0511619097 0.8374381570
C -3.6780666538 -0.9037081176 -0.5189827228
C -2.4910415568 -0.5754858739 -1.1513492911
C -2.2095428303 -0.3040585023 -2.5957631663
O -1.2621124433 -1.2027735459 -3.1717408767
H 1.2450409165 1.4349692171 -0.0452676513
H -0.3457498426 1.9179416158 -0.6592178648
H -0.1557426356 1.4697885635 1.0462255703
H 0.1772814405 -0.4705131380 -1.3271942608
H 0.4166476654 -0.8825435195 0.3772321297
H -3.9709770533 -1.3095459405 1.6714848200
H -4.6450027857 -1.0175291288 -0.9832267348
H -3.1633424236 -0.3233475191 -3.1408826663
H -1.7768739039 0.6920584510 -2.7398859506
H -1.5720416059 -2.0977926222 -2.9947381822