16

C 0.0091690336 1.4792378937 -0.0011853362
C 1.3261696195 0.7456877342 -0.0381113712
C 1.7553589694 0.1182753614 1.3014764610
C 0.4065836768 -0.6936027254 1.3099726005
C 0.0406519134 -0.0281193950 -0.0300182340
O -0.0595437216 -0.6629849935 -1.2736877164
C 1.2667928536 -0.6289673267 -1.8106324772
O 1.9225752148 0.5301373697 -1.2861689942
H -0.3019448131 2.0054861044 0.8979199052
H -0.2752886232 1.9420135085 -0.9377148867
H 2.6295759861 -0.5263125827 1.1926081435
H 1.9320200834 0.8166279730 2.1245116208
H 0.5660077937 -1.7684494626 1.2056216271
H -0.2856002510 -0.5182233092 2.1384748903
H 1.8168114320 -1.5396930913 -1.5222262562
H 1.2092529327 -0.5447624687 -2.8989288761