15

C -0.0618996635 1.4443026729 0.0863833648
N -0.0548190081 0.0063725418 -0.1254698029
C -1.1730322881 -0.7453508768 -0.0492548449
C -1.3425791005 -2.1219277894 -0.0015078646
C -2.7604760010 -2.2491525021 0.0179434443
N -3.3915482847 -1.1066301362 -0.0081348349
O -2.3538322500 -0.1276236205 -0.0477369425
C -0.3286366989 -3.0956098580 0.0214172067
C 0.5649545234 -3.9057113873 0.0449526324
H 0.9069711010 1.8457939723 -0.2158519465
H -0.8357338988 1.9030479969 -0.5325995141
H -0.2498775198 1.7188166839 1.1327763212
H 0.8012232607 -0.4973681487 0.0457799415
H -3.3361157487 -3.1637511323 0.0515398005
H 1.3406816068 -4.6300757066 0.0589084191