12

O -0.0614961823 -0.0194395876 -0.0389163776
C -0.0083598767 1.1776470083 0.0383278998
C 1.2550812190 1.9731481393 -0.0342693207
C 1.2590671061 3.3214083710 0.0571992975
C 2.5241165425 4.0303233772 -0.0221443061
O 2.6797792712 5.2363155634 0.0440265079
C 3.6595880627 3.0936354221 -0.2002668750
N 3.6082756349 1.8117714861 -0.2824246603
O 2.3544492933 1.2182519041 -0.1964877183
H -0.9067983080 1.8155116351 0.1728932331
H 0.3319150499 3.8671883030 0.1878343126
H 4.6612591074 3.5090598380 -0.2738635529