15

O 0.2741244316 1.2193310909 -0.6149930704
C 0.1040106367 -0.1601757043 -0.3967693180
C -1.3271820371 -0.4915076288 0.1229717176
C -2.3594610871 0.1294522631 -0.8309959469
O -3.1290523461 0.9890455349 -0.5089166836
C -1.5192210517 -1.9281026491 0.2074067195
C -1.6615374937 -3.1274932569 0.2487078360
C -1.8483668408 -4.5572861434 0.2833010713
O -1.5341008321 -5.2623135577 1.2137045955
H 0.2385929020 1.6767891281 0.2318026171
H 0.2551605771 -0.6461261832 -1.3653673129
H 0.8388683252 -0.5774896964 0.3042088757
H -1.4731579738 -0.0272368899 1.1060563842
H -2.3271602876 -0.2894209555 -1.8602600333
H -2.3135621425 -4.9757978018 -0.6317394320