13

N 0.0732392888 1.3211867940 -0.1254830016
C -0.0561538415 -0.0285907182 -0.0457356279
N -1.2037352531 -0.6131720196 -0.0162698532
C -1.1728034954 -1.9929142319 -0.0011426057
C -0.0280818471 -2.7029254566 -0.0035269276
F -0.0168438121 -4.0323458690 0.0139169205
C 1.2596010058 -2.0436524059 -0.0220194183
N 2.3861819730 -2.6145308823 -0.0185855688
O 1.1528723154 -0.6399827563 -0.0431637745
H 0.9571343811 1.7253167969 0.1345130788
H -0.7596711319 1.8518661730 0.0683438115
H -2.1309973615 -2.5011708217 0.0163940535
H 3.1459788185 -1.9348245023 -0.0364990267