17

C -0.0346302629 1.5205930000 -0.0010231705
C -0.0060606135 0.0163221083 -0.0155387137
C -0.0215800962 -0.6845940922 -1.1793163335
C 0.0057874907 -2.1358955672 -1.1993675705
O -0.0045415984 -2.8632100184 -2.1778756602
N 0.0482743267 -2.6700828334 0.0923078873
N 0.0649946922 -2.0224052377 1.2630110200
C 0.0391479329 -0.7181999774 1.2323058071
C 0.0588599355 -0.0174204023 2.5627658838
H 0.8493197947 1.9296344400 0.5011227626
H -0.0671494989 1.9212330480 -1.0162354568
H -0.9081122380 1.8958134887 0.5440346118
H -0.0550825359 -0.1919569040 -2.1449244562
H 0.0693825687 -3.6792119321 0.1600103096
H 0.0925716764 -0.7587843897 3.3620990186
H 0.9298694342 0.6410425156 2.6585630474
H -0.8304264583 0.6079971638 2.7020823632