16

C 0.0438068317 1.3513272625 0.1928471335
O 0.0364515261 -0.0356332841 -0.1481759283
C -1.2140591055 -0.5824404977 -0.1177682849
C -1.8670881127 -1.1020831631 1.1549394654
O -3.1402447466 -0.6725271348 1.5211127382
C -1.6235830609 -2.0503387408 0.0064921774
N -2.6070827739 -1.8555158885 -1.0650901790
C -2.2998900704 -0.4824649804 -1.1943719931
O -2.7451796165 0.3763758501 -1.8970760783
H 1.0801868706 1.6842563787 0.1152500488
H -0.5814986189 1.9284501140 -0.4971196168
H -0.3146981135 1.5069490939 1.2191040908
H -1.1421398863 -1.1874253981 1.9675243977
H -3.5353129110 -1.3440223607 2.0884246532
H -0.9952464511 -2.9312519133 0.0319996964
H -3.5710847014 -2.1531541477 -0.9609214008