20

C -0.5435084795 1.1611708889 -0.2524664693
C 0.2685749287 -0.1149889935 -0.1293718482
C 1.6724133225 -0.1436301768 -0.7997672257
C 2.2282548763 -0.5592820521 0.5738632339
N 0.8812755627 -0.3032340547 1.2370191275
C 0.8268085653 -1.7220948442 1.7152118627
C 2.1225683052 -2.0376811781 0.9609608358
C 2.5747605253 -3.2417836521 0.2607295238
O 3.1855705477 -2.8065837537 1.4840683056
H 0.0530023342 2.0274772579 0.0499113834
H -0.8781946769 1.3121648206 -1.2851622946
H -1.4269881511 1.1203549451 0.3928217541
H -0.3500562807 -0.9760619251 -0.4166403343
H 1.8191845630 -0.8465930624 -1.6229606387
H 2.0125355071 0.8457430612 -1.1162347134
H 3.1043009714 -0.0380013636 0.9698323500
H 0.9434561820 -1.7838768047 2.8022468931
H -0.0754067470 -2.2707380122 1.4224075506
H 1.9911889689 -4.1592018456 0.3304735742
H 3.1976109048 -3.1532928449 -0.6288779406