15

O -0.0055679775 0.0299127673 0.2973281650
C 0.0170572564 1.1919454547 0.0206490938
O -1.1088275288 1.9088778477 -0.2759120639
C -0.7858294178 3.2030088569 -0.7810736454
C -1.5190799445 3.6636477024 -2.0048555446
C -1.8283610920 4.2636989003 -0.6456454643
C 0.6810017794 3.3993053161 -0.5730642152
O 1.0588792972 3.2497416110 0.7959397842
C 1.2041621261 2.1198247048 -0.0823573557
H -0.9798638465 4.2617400510 -2.7321116906
H -2.2418297514 2.9731093562 -2.4232459822
H -2.7558721216 3.9671261108 -0.1702640255
H -1.5050247552 5.2756594294 -0.4291624762
H 1.2513887580 4.1054686579 -1.1677886849
H 2.2028721283 1.7260369335 -0.2287443646