13

C -0.1360706896 1.4123523884 0.0092436517
N -0.1095400456 -0.0345795547 -0.0819278726
C 0.5972210692 -0.5961330826 -0.9754078286
N 1.3996725081 0.0418342556 -1.9382986064
C 2.0346020530 -0.7002905979 -2.7504189561
O 2.0480790636 -2.0443378419 -2.8211725466
N 1.2762479728 -2.7755884238 -1.8998342267
C 0.6205090734 -2.0651819582 -1.0633634152
F -0.1014595424 -2.7384627635 -0.2010022945
H 0.4824152700 1.9254209061 -0.7330927720
H -1.1762097461 1.7441522421 -0.0880872849
H 0.1868081408 1.6995391816 1.0165899464
H 2.6780853229 -0.2923686811 -3.5267524044