23

C -0.1416275175 1.5443811181 0.0622660907
C 0.0965239514 0.0409438654 -0.0566863361
C 1.2084079178 -0.3638431433 -1.0361459267
C 1.4643056120 -1.8414710629 -0.7055536023
O 2.7758805099 -2.2905509098 -1.0578535170
C 1.2378934125 -1.9688879624 0.8355280321
C 2.5246859010 -2.2259988884 1.6343358648
O 3.0848469968 -3.4999863219 1.3957129521
C 0.5534405985 -0.6407657766 1.2499668504
H 0.7728545097 2.0603182225 0.3776185388
H -0.4574904156 1.9782972672 -0.8925129264
H -0.9198261967 1.7650151292 0.8006902079
H -0.8384178687 -0.4349046604 -0.3865354203
H 0.9501350402 -0.1946337271 -2.0872846108
H 2.1221469470 0.2057792651 -0.8199224371
H 0.7217973613 -2.4629651948 -1.2263273303
H 2.8610445394 -2.2627095525 -2.0151331649
H 0.5764347780 -2.8197157609 1.0251375858
H 3.2490403955 -1.4198594652 1.4325729887
H 2.2873581040 -2.1835844897 2.7037537424
H 3.3012003512 -3.5071242440 0.4547533217
H 1.2848876335 0.0093582284 1.7504701255
H -0.2670846812 -0.7929525760 1.9569132908