23

C -0.3285120063 1.4972572676 0.2414027859
C -0.3253115236 -0.0333645547 0.2016662611
C 0.7551706779 -0.6349258614 1.1004745033
O 0.5571899275 -0.1959288753 2.4507116533
C 0.3124377154 -1.3341857870 3.2685686128
C -0.7880138415 -1.0527690890 4.2674902981
O -0.0565063323 -2.3752234650 2.3988957440
C 0.7476341421 -2.1802824916 1.2390115522
C 0.1973106000 -3.0021133718 0.0889365780
H 0.6234065272 1.9042405290 -0.1185775641
H -1.1252359963 1.9068016287 -0.3867504769
H -0.4779425316 1.8518778699 1.2642043195
H -1.3016901829 -0.4174365696 0.5194588483
H -0.1621826530 -0.3785584816 -0.8269133517
H 1.7424213204 -0.2883720611 0.7636646249
H 1.2540032897 -1.6022731945 3.7855159351
H -1.7132637910 -0.8098159741 3.7394174139
H -0.9534394834 -1.9282516936 4.9011427955
H -0.5050799769 -0.2084793298 4.9010727916
H 1.7778151644 -2.5081730204 1.4598667159
H -0.8375667968 -2.7319899428 -0.1325677890
H 0.8001955406 -2.8528449607 -0.8120865975
H 0.2265420105 -4.0646616115 0.3448738457