23

C 0.0317899674 1.5639848502 -0.0167411465
C -0.0368887703 0.0321720031 -0.0380094650
C -1.4478482566 -0.5049485044 -0.0135975669
C -2.5847561032 -0.2568193145 -1.0417302447
C -3.2044989400 -1.1893258947 0.0222404916
C -1.8801113438 -2.0125362305 0.0560651184
C -1.6477497313 -2.5355685168 1.4744270989
C -2.1176845768 -1.2958880277 2.2911674055
C -2.5038870142 -0.3614665127 1.1435530927
H 1.0684900331 1.9138329465 -0.0348330934
H -0.4814093444 1.9945813937 -0.8828540080
H -0.4421263916 1.9688974021 0.8836917489
H 0.4732527430 -0.3467910977 -0.9338114614
H 0.5173810269 -0.3720390797 0.8199459398
H -2.9880559689 0.7589815784 -1.1007190801
H -2.4408219796 -0.6771230025 -2.0424980752
H -4.2200485402 -1.5897034057 0.0502686300
H -1.6422493466 -2.6631851891 -0.7892140738
H -2.2407164409 -3.4309880648 1.6871860113
H -0.5984823834 -2.7899774958 1.6570663233
H -2.9662157857 -1.5188219998 2.9461637939
H -1.3241116347 -0.8773760234 2.9191047896
H -2.8923717383 0.6312060158 1.3828937511