20

C -0.3639138842 1.5098632688 -0.0181447788
C -0.0156067344 0.0253744658 0.0291884454
C 0.8726943492 -0.4676923539 -1.1345252464
C 1.5972097311 -1.7419436351 -0.6161924714
C 1.1934270980 -1.8809726417 0.8721942532
C 0.7503818880 -0.4574684656 1.2963998713
C 1.8946762269 0.3884878648 1.6250752540
C 2.8480419367 1.0736469134 1.8883396643
H 0.5404836686 2.1234717766 0.0368182251
H -0.8861384413 1.7559501231 -0.9487535851
H -1.0156551179 1.7966480782 0.8142064441
H -0.9490237997 -0.5536908940 0.0170490371
H 0.2819231659 -0.6543284711 -2.0359056092
H 1.6029822465 0.3075412487 -1.3892463374
H 1.3236851663 -2.6352172797 -1.1842218335
H 2.6805028940 -1.6287370055 -0.7091073091
H 0.3329044050 -2.5511573596 0.9746355969
H 1.9946565108 -2.2758771534 1.5004006268
H 0.0814170720 -0.4920308886 2.1642946867
H 3.6850482782 1.6798845287 2.1317361461