17

C 0.7730873281 1.3144526979 -0.6398466731
C -0.1319662751 0.4994822167 0.2792450086
O -0.8766348666 -0.4937400975 -0.4520107168
C 0.6159709698 -0.1528407084 1.4075051645
C 0.2501266018 -1.2643865954 2.1119245504
N -0.8641053370 -2.0758507009 2.1008118550
O 1.2004357865 -1.5100500990 3.0536225592
C 2.1171141113 -0.5086835608 2.8766003251
N 1.8231724791 0.3133650614 1.9316981357
H 1.5420526687 0.6760650660 -1.0901038091
H 0.1801532943 1.7713791427 -1.4363062311
H 1.2883693769 2.0949727028 -0.0755461466
H -0.9163436582 1.1579873407 0.6754710167
H -0.2277512152 -1.0388921820 -0.9132443326
H -1.3751748495 -1.9570463050 1.2336089210
H -0.6695883553 -3.0469608614 2.3077965491
H 2.9746677604 -0.5230624478 3.5287950038