18

C -0.0379301122 1.5580643822 -0.0026381600
C 0.0259312751 0.0474460764 -0.0460098608
C 0.7351283589 -0.6881215009 -1.2150467552
C 1.0980784187 -1.7031343810 -0.1052129860
N 0.9460967080 -0.6306826071 0.9453594133
C -0.0671162056 -2.6591660223 0.0812308593
O 0.0091796393 -3.8546624083 0.0998447741
O -1.2721642066 -2.0419857054 0.1904165944
C -1.3341159715 -0.6023839332 0.1974249822
H 0.9521362219 1.9915636680 -0.1770984974
H -0.7136135195 1.9455670065 -0.7724702910
H -0.3954122217 1.9059475423 0.9724312636
H 0.1461232842 -1.0226946757 -2.0745805775
H 1.6168317455 -0.1396640257 -1.5578152773
H 2.0372887144 -2.2530395533 -0.1261212049
H 1.8206406470 -0.1053456029 0.9651275433
H -1.7197359908 -0.2997472387 1.1763333529
H -2.0531306752 -0.3130915512 -0.5768480031