22

C -0.1891492062 1.6362564756 0.0507385738
C -0.0541814667 0.1295194806 -0.0436745261
C 0.8466042639 -0.5327859735 -1.0845711167
C 2.0981796977 -0.2192773066 -0.2061601544
N 0.9993304729 -0.5119170683 0.8609000414
C 1.0541649357 -1.7278438607 -0.1059206734
C 2.5953599425 -1.6807773854 -0.1693895847
C 3.2545033449 -2.2206083583 -1.4344164382
C 3.3387302054 -2.1089200045 1.0932676697
H 0.7666089746 2.1460813891 -0.1038757532
H -0.8935371337 2.0070402828 -0.7019072462
H -0.5694486991 1.9230119428 1.0367743368
H -1.0307272542 -0.3524959879 0.0984810636
H 0.7685902062 -0.5525264852 -2.1768332443
H 2.6822051073 0.7025399492 -0.1665007550
H 0.3836805405 -2.5773499367 0.0506435334
H 2.7266043422 -1.9163596745 -2.3428558581
H 4.2886542130 -1.8664703996 -1.5134897223
H 3.2867098967 -3.3159709624 -1.4169091380
H 3.3723928008 -3.2018279574 1.1717048811
H 4.3750232015 -1.7518542296 1.0724477453
H 2.8533120441 -1.7122631793 1.9870457055