23

C 0.2251522774 1.1741894609 -0.8446265164
C 0.1914048108 -0.1979152629 -0.2019926260
O 0.9442814467 -1.2012824262 -0.9369252353
C 1.4752735239 -1.7565192556 0.2846641022
C 2.9284805391 -1.3112424694 0.5907336746
C 3.8197889438 -1.0041899010 -0.6050237565
C 2.3486353586 -0.1257952569 1.4589892242
C 2.8398672990 1.3024268202 1.2449283998
C 0.8916199311 -0.5829371171 1.1217464811
H 1.2428226389 1.5219418268 -1.0226727163
H -0.2931996782 1.1384760217 -1.8085302663
H -0.2904548396 1.9045201119 -0.2116971305
H -0.8605127592 -0.5212529973 -0.1393181911
H 1.2114771640 -2.8114449290 0.4073510440
H 3.4278923545 -2.0434888656 1.2346955673
H 3.3066957897 -0.3703452615 -1.3315440132
H 4.7417273681 -0.5035521502 -0.2911216419
H 4.1025928643 -1.9279979255 -1.1214450529
H 2.5082160358 -0.3675158542 2.5154078698
H 2.8984592229 1.5820904125 0.1913549398
H 2.1846631883 2.0231383660 1.7465716400
H 3.8437039461 1.4239143619 1.6671484939
H 0.2293832441 -0.7114078395 1.9784595696