19

C -0.0406638750 1.3852146666 0.0796896220
O 0.0263749728 -0.0322407574 0.0288199011
C 0.6323341987 -0.5204039320 -1.0947131998
C 0.8165903125 -2.0575390201 -1.3618158668
C 0.0627821754 -1.8812882645 -2.7091402391
C 0.2399428184 -0.3477938679 -2.6096489063
O 1.5860189721 0.0595210161 -2.9353447713
C 2.0950514621 -0.2953245653 -1.6319263101
C 2.3448897389 -1.8167368145 -1.5063760776
H 0.9611659170 1.8346059688 0.0692415606
H -0.6160533953 1.7899023732 -0.7634412874
H -0.5413511854 1.6455046418 1.0140785611
H 0.4765551949 -2.8311231545 -0.6751199781
H 0.4749461919 -2.3653334003 -3.5981650345
H -0.9933481212 -2.1500405501 -2.6019662662
H -0.5084587934 0.3157586272 -3.0470790723
H 2.8485782348 0.4107328157 -1.2777643651
H 2.8643379866 -2.0409244996 -0.5688052183
H 2.8666779744 -2.2976851332 -2.3376219521