22

C 0.1847821208 1.3094331787 0.4282146404
N 0.0199009108 -0.1141980989 0.2317704590
C -1.0951053091 -0.5887223940 -0.1360443391
C -2.3947570999 0.1325344893 -0.4192786164
O -1.2478235799 -1.9212377937 -0.3348921286
C -0.1008200847 -2.7420183767 -0.1445486984
C 0.2928512112 -3.1474952813 1.2943421888
C 0.5281898816 -4.5881470693 0.7570656709
C -0.3423335636 -4.2248128538 -0.4802236740
H 1.0101518417 1.6698579794 -0.1976369694
H -0.6986642111 1.9232493588 0.2039646970
H 0.4745143817 1.5040925462 1.4683037019
H -2.2854361849 0.8089303381 -1.2725829035
H -3.1772475603 -0.5913457751 -0.6459239869
H -2.7051186322 0.7338041398 0.4397132497
H 0.7459302387 -2.3081609069 -0.6821108546
H 1.1227288011 -2.6131451498 1.7576446753
H -0.5791617586 -3.1034077909 1.9534227399
H 1.5735472219 -4.7580333145 0.4860312214
H 0.1916345322 -5.4197518847 1.3787379887
H -1.3932249149 -4.4811747798 -0.3191666649
H -0.0334830525 -4.5848607911 -1.4640470173