22

C 0.9308013808 1.2188059506 -0.2920719029
C -0.0894916415 0.1099551210 -0.0261376801
C -0.1373349838 -0.9653124197 -1.1267253701
C 0.9361947680 -1.9510115791 -0.6676389957
C 1.1441534431 -3.2872387797 -1.2867062436
N 2.1660597066 -2.2502547431 -1.4064544711
C 2.3780583893 -1.6835197035 -2.7281206916
C 1.0937901289 -1.6940229291 0.8371438993
O 0.2223171442 -0.6173745369 1.1643706571
H 1.9233159170 0.8061922971 -0.5028082499
H 0.6265152771 1.8282551603 -1.1498253466
H 1.0125926357 1.8699479217 0.5825806354
H -1.0741660305 0.5589343059 0.1412318829
H -1.1182463832 -1.4510152477 -1.1299037415
H 0.0388340394 -0.5609551551 -2.1259782813
H 1.4028543781 -4.1486956583 -0.6742205679
H 0.5546390972 -3.5242100504 -2.1734488360
H 1.4772880472 -1.6626321965 -3.3628694902
H 2.7558790915 -0.6599106538 -2.6349910499
H 3.1378612484 -2.2780761746 -3.2454418196
H 0.8001034449 -2.5558734732 1.4469032937
H 2.1417505017 -1.4535464559 1.0613729297