13

O 0.0047127234 1.4286591427 0.0093838264
C -0.0132590576 0.0110839369 0.0023153741
C -1.3922242759 -0.4597363050 0.0126514410
C -2.5195640277 -0.8815374210 0.0209308977
C -3.8413517960 -1.3862977221 0.0306017016
N -4.8983944311 -0.6013532965 0.0409014001
O -5.9641066899 -1.5011351964 0.0477076522
C -5.4281089057 -2.7233133887 0.0407057855
N -4.1363126605 -2.7421848761 0.0301094573
H 0.9264360653 1.7062885443 0.0012834385
H 0.4890543780 -0.3991614537 -0.8893391985
H 0.5054259966 -0.4081906665 0.8802939963
H -6.1101013588 -3.5609655980 0.0444800978