21

C -0.0979432557 1.4604002561 -0.1015384556
C 0.1275979317 -0.0321241476 -0.0122325693
C 1.5010850760 -0.6507832259 -0.1955988056
C 0.8246920327 -0.6959748495 1.1452066801
C 1.3516699615 0.0554178437 2.3425565684
O 0.2058304468 -1.9390589044 1.4941422800
C 1.0137022505 -2.9676142246 1.8506113577
C 0.1844091212 -4.1884904217 2.1752858048
O 2.2148735312 -2.9061806663 1.8999597991
H 0.7651538829 2.0281417430 0.2579433831
H -0.2713363714 1.7586694502 -1.1411071002
H -0.9701688775 1.7711403675 0.4840975490
H -0.6873321198 -0.6316127572 -0.4094452606
H 1.5840262933 -1.5746805678 -0.7552184020
H 2.3541480912 0.0128017657 -0.2966217411
H 1.7398151984 1.0328427472 2.0478600672
H 0.5565767258 0.2129392032 3.0792190985
H 2.1628090806 -0.5052347313 2.8125543334
H -0.4426002098 -4.4571761956 1.3205733769
H 0.8435036393 -5.0169298038 2.4317939019
H -0.4855406987 -3.9726261910 3.0126347044