20

C 0.0641000240 1.5328764959 0.0130858873
C 0.0077427783 0.0020484294 -0.0169931623
C 0.7093428856 -0.6246435241 -1.2300913060
N 2.1433683178 -0.3069200865 -1.3616851418
C 1.7345826938 -1.5973550304 -0.7666349793
C 1.7106056191 -1.5930862852 0.7482572590
O 2.0596884821 -0.3429798073 1.3489030596
C 0.6653419012 -0.6589647759 1.2112713229
C -0.1063002426 -0.7874533997 2.4972056481
H 1.1057563741 1.8598465850 0.0284312686
H -0.4217050996 1.9605682335 -0.8697966804
H -0.4423047466 1.9328116425 0.8977389294
H -1.0401335326 -0.3260605795 -0.0405729630
H 0.1311778873 -0.7862650120 -2.1353784482
H 2.4273912031 -0.4677837681 -2.3257901699
H 1.9482970634 -2.5233760407 -1.2892072286
H 2.0072138293 -2.4823893262 1.2996023086
H -0.3765240599 0.1991130050 2.8904886766
H -1.0320708000 -1.3527552405 2.3457267090
H 0.4970867922 -1.2959368053 3.2534240006