20

O 0.6140785886 0.1845556831 -1.4003751562
C 0.0260459259 0.2751587231 -0.1091464540
C -1.2937364216 -0.4645020610 -0.0089935468
C -1.5191257419 -1.9348911519 -0.1942139100
C -0.4653720202 -3.0165012472 -0.0965530816
C 0.9924196937 -2.7291990222 0.1987241840
C 0.0380150310 -3.0030609453 1.3323456565
C -0.6980625155 -1.8584615710 2.0413024022
N -1.7319739696 -1.3037675131 1.1285081772
H 0.5472473695 -0.7343735899 -1.6799960416
H 0.7272003388 -0.0423283286 0.6729784537
H -0.1571160610 1.3415109607 0.0568570564
H -2.1226794703 0.1508590390 -0.3588348541
H -2.4198233204 -2.2338053230 -0.7266335003
H -0.7027991244 -3.9469131800 -0.5992208759
H 1.6835827275 -3.5318543586 -0.0404324185
H 1.4170357700 -1.7485718929 0.0413173879
H 0.1696569060 -3.9259122304 1.8873370979
H -1.2293885494 -2.2612053009 2.9093363598
H -0.0318300268 -1.0740866899 2.4161747034