20

C -0.0311724597 1.4517413230 0.0603196419
C 0.0561352708 -0.0468277449 -0.0045293928
N -0.8069877019 -0.8999862768 0.8558370348
C 0.6737686706 -0.9347129836 1.0024008476
C 1.3937214167 -1.9596580757 0.0899912605
O 2.1927440026 -2.9377393094 0.6783652220
C 0.3317759558 -2.2572286868 -1.0106260290
C 0.5320951822 -0.7454484946 -1.3063830053
C 2.0397557832 -0.9831342494 -0.9424901624
H 0.8549686076 1.9168355080 -0.3855403678
H -0.9070377039 1.8208187472 -0.4867106966
H -0.1085669856 1.8029631250 1.0950819345
H -1.1820161479 -0.3114729469 1.5991121886
H 1.1497571342 -0.5892150079 1.9143298419
H 1.6339896262 -3.4782462660 1.2473081797
H 0.7578279391 -2.8808731870 -1.7984650474
H -0.6563012842 -2.5999967841 -0.7113683578
H 0.2334167567 -0.3030829975 -2.2559671913
H 2.6154075150 -0.1388334899 -0.5514579131
H 2.5992254024 -1.5039293724 -1.7227895482