20

C -0.1576168201 1.5438079767 -0.0192738843
N 0.0800027621 0.1175579793 0.0783109748
C 1.2657782089 -0.6028358745 -0.3113755886
C 2.6647118650 0.0335848056 -0.2084092076
C 3.0727910972 0.0254617522 1.2747458619
C 2.4858452706 1.0150057668 2.2467377672
O 1.8772034711 2.2129929931 1.8746094149
C 1.8141081249 -0.3185869123 2.0808873631
C 0.7146791563 -0.6958218798 1.0908754162
H 0.7434299483 2.1538809262 -0.1231992643
H -0.8034394598 1.7168415280 -0.8888928373
H -0.6859802704 1.8894754050 0.8723572944
H 1.1286538061 -1.3744034634 -1.0691336848
H 3.3757273160 -0.5657107189 -0.7837130418
H 2.6882582465 1.0420470498 -0.6398556171
H 4.0420461498 -0.3979652460 1.5206105039
H 3.0401540995 1.0930835204 3.1846626066
H 2.5735757390 2.8261377726 1.6150107393
H 1.8632125248 -0.9787164105 2.9409052031
H 0.1057666444 -1.5345459802 1.4246564605