19

C 0.0096361947 1.4019628745 0.1027035314
O -0.0487136186 0.0335836684 -0.2472736476
C -1.2997652264 -0.5619085235 -0.0499402451
C -1.3159686323 -1.9769519101 -0.6545497510
C -2.1975920459 -2.8206081783 0.3053419613
N -2.6804104843 -1.9227980120 1.3810573252
C -1.7317683682 -0.8096224769 1.4397425199
C -0.5721943414 -1.1528337055 2.2810486480
N 0.3408189513 -1.4105042465 2.9402996884
H 1.0015131181 1.7608213647 -0.1790675675
H -0.7499399980 1.9877223860 -0.4375806317
H -0.1243298318 1.5597152886 1.1819931553
H -2.0915938795 0.0619899159 -0.4975794474
H -1.6983756504 -1.9663889455 -1.6771978834
H -0.2875130359 -2.3450292748 -0.6883714638
H -3.0528608935 -3.2830224176 -0.1921846323
H -1.6105084541 -3.6267439469 0.7561795367
H -3.5910938923 -1.5493317214 1.1378619427
H -2.2133736716 0.0662018910 1.8836799609