13

O -0.5071621075 0.4743077382 0.6375061351
C 0.0953204252 0.9307143180 -0.2954917411
C 1.3016028380 1.8602338851 -0.1572646431
C 1.2689531716 2.9900327405 -1.1225003351
C 0.9993631627 4.3169349073 -1.0442372297
N 1.0954071225 4.8878729001 -2.3080812261
C 1.4058889395 3.8980894220 -3.0760702141
O 1.5316879060 2.7074880083 -2.4414820262
H -0.1844007390 0.6952798261 -1.3458413417
H 1.3383813737 2.2299519921 0.8695963729
H 2.1999652815 1.2502968402 -0.3295290119
H 0.7492940701 4.9019975016 -0.1735036548
H 1.5765770357 3.8994372906 -4.1410447443