18

C -0.0311528484 1.4415509157 -0.0128912639
N -0.0001303336 -0.0115671359 0.0377866795
C 0.5424128065 -0.6259864620 -0.9269999743
N 1.1487186331 -0.1189691790 -2.0851988661
C 1.6426892744 -1.1829385565 -2.8239060391
N 1.4264109822 -2.3451913890 -2.3436317012
C 0.6964110111 -2.1347038011 -1.0770638539
C 1.4699978205 -2.7921159720 0.0756946425
O 1.6234853485 -4.1748641265 -0.1459152374
H 0.9783019261 1.8807838417 -0.0525493491
H -0.5912774362 1.8154097620 -0.8842320473
H -0.5215928856 1.8277780446 0.8834932367
H 1.2701465255 0.8540538168 -2.3059189699
H 2.1743732109 -0.9899658440 -3.7506453878
H -0.2843458725 -2.6193508725 -1.1463412062
H 2.4410724726 -2.2831605084 0.1884693122
H 0.9115892020 -2.6591659338 1.0061625053
H 1.9625215228 -4.2647427802 -1.0454441201