21

C 0.0443367300 1.4537332780 0.1984944943
N 0.0121942708 0.0048891850 0.1995172116
C -1.0869617507 -0.6407743382 0.1618720913
N -1.1103064323 -2.0189872762 0.2834473395
C 0.1693543004 -2.7017780319 0.3936828902
C -2.1571578408 -2.7880337091 -0.3717855104
C -2.4632758588 0.0309535473 0.1017999351
C -3.2108203780 0.0994585486 1.4187273230
O -2.8791455501 0.5289633859 -0.9182247923
H 0.7050624037 1.7916220491 -0.6082560999
H -0.9241314231 1.9537962626 0.0620114047
H 0.4895581964 1.8124130580 1.1355008855
H 0.8168883834 -2.1484981209 1.0729806433
H -0.0028877836 -3.7110507318 0.7795427678
H 0.6856616972 -2.7773895713 -0.5745624991
H -3.1003545934 -2.2387001181 -0.3815223386
H -1.9039664441 -3.0322645173 -1.4150747266
H -2.3156363311 -3.7266929243 0.1689318367
H -3.2718886552 -0.8896525316 1.8826167052
H -2.6494485400 0.7369294792 2.1127666984
H -4.2067605907 0.5175255871 1.2637179004