25

C -0.3230777662 1.4183689598 -0.0399797947
C 0.0683838015 -0.0634770896 -0.0044764126
C 0.8429880605 -0.5000839870 1.2441295562
C 2.1921948238 0.2137883023 1.3684597159
C 0.0428862169 -0.4756384366 2.5902854047
C 0.5614114927 -1.9042484297 2.9058483015
C -0.4324508758 -2.9040322252 3.4573935012
O 0.2138220115 -4.1664912827 3.5443935895
C 0.9958214562 -2.0455787844 1.4226917132
H 0.5524432604 2.0727141561 -0.0899436914
H -0.9443574000 1.6360757973 -0.9143755958
H -0.8965334150 1.6985300091 0.8507361445
H -0.8423393485 -0.6725131785 -0.0741800150
H 0.6637518478 -0.3073172143 -0.8955463128
H 2.0706815134 1.2959110746 1.4830754618
H 2.7515644600 -0.1459993945 2.2385909000
H 2.8114515690 0.0358220752 0.4812533849
H 0.2877796049 0.3161333943 3.3037570155
H -1.0397869580 -0.4629025524 2.4201024033
H 1.4308338407 -1.8769561538 3.5696768414
H -0.7897312178 -2.5680639248 4.4457220645
H -1.3113570669 -2.9518707475 2.7920071612
H -0.4244750683 -4.8109532955 3.8634786431
H 0.2589622459 -2.6042379185 0.8356767620
H 1.9835557312 -2.4711829737 1.2282267580