20

O -0.2212584822 1.3992824344 0.8150039025
C -0.0203197314 0.1400752570 0.2006742565
C 0.5135739543 -1.0068399894 1.1123764511
C -0.8670298582 -1.7275716650 1.0114645160
C -1.8368721782 -1.6309319907 2.1797307799
C -1.9776087022 -0.3397516175 2.9053941592
N -2.9534827982 -0.7084118379 1.8725322063
C -2.6848887127 -0.0897745350 0.5541600128
C -1.3537962374 -0.6417985070 -0.0006075728
H 0.6419072590 1.7787938976 1.0091497911
H 0.5513171254 0.2624918633 -0.7287958183
H 1.3378005487 -1.5672646444 0.6631334715
H 0.8081996979 -0.6953390898 2.1173415969
H -0.8177247179 -2.7525439018 0.6387920498
H -2.1126414210 -2.5540442844 2.6826245703
H -2.3710026336 -0.3345329825 3.9189744306
H -1.2787181551 0.4608712965 2.6807488925
H -3.5083710137 -0.3697846075 -0.1101248964
H -2.6781529666 0.9999687716 0.6404827413
H -1.4648298970 -0.9837989474 -1.0314785007