25

C -0.0014362891 1.4809178225 -0.5387672712
C -0.0737410860 0.1682442750 0.2495414984
C -1.4264589634 -0.5050865960 0.1423183916
C -1.7695020644 -1.3594299131 -1.0696248350
C -1.5936783289 -1.9910494860 0.2915661968
O -0.3993530162 -2.7024586472 0.5214019169
C -2.8045841642 -2.5440864779 1.0360015949
C -3.1374922259 -3.9713501404 0.5750470575
C -2.5855844259 -2.4842935967 2.5541145940
H 0.9842185144 1.9471079944 -0.4414646760
H -0.1908702249 1.3117999185 -1.6041716344
H -0.7465961531 2.2009902019 -0.1822109047
H 0.6981500084 -0.5250853157 -0.0973273344
H 0.1486523107 0.3631437112 1.3067362859
H -2.2509208420 0.0861611346 0.5373721501
H -2.7638549541 -1.2973076387 -1.5002021694
H -0.9726824736 -1.5227143112 -1.7890828900
H -0.4316092088 -3.5090819668 -0.0032067556
H -3.6560785312 -1.8995217889 0.7799369642
H -2.3274619445 -4.6645757131 0.8302858985
H -4.0440163464 -4.3402285515 1.0646885948
H -3.2972222535 -4.0158047942 -0.5076993922
H -3.4468874807 -2.8902505504 3.0944417931
H -1.7003359696 -3.0638626593 2.8323621369
H -2.4290658071 -1.4542940612 2.8899228392