19

O 0.0873956451 1.4249723276 -0.0167914501
C 0.0573136447 0.0210802391 -0.0380895604
C 0.1653262675 -0.6149539013 -1.4326033196
O -0.8782655108 -1.5562534125 -1.0895203490
C -1.3273529195 -0.6871159525 -0.0169226248
C -1.7825590052 -1.3895724329 1.2508441225
C -0.6011052281 -1.8801419841 2.0926821784
O 0.3825620360 -0.8609086182 2.2261112526
C 1.0136179905 -0.6196110743 0.9812561725
H 0.0613725949 1.7092908195 0.9038587888
H -0.1472861009 0.0749522201 -2.2275473755
H 1.0998066834 -1.1120741272 -1.7123152822
H -2.1057515109 -0.0055696938 -0.3891584958
H -2.3648033473 -0.6721630954 1.8414150495
H -2.4518582412 -2.2196272290 0.9962291905
H -0.9222806805 -2.1378445219 3.1052779467
H -0.1467735609 -2.7742693848 1.6381178337
H 1.4144916572 -1.5633631229 0.5810007225
H 1.8509588660 0.0600579544 1.1680316497