20

O 0.1898887171 0.7379280240 -1.2746820582
C 0.0976621667 1.4095678018 -0.2689268611
N 1.0698075703 1.5591861443 0.6701315059
C 2.3864123018 0.9486809844 0.5557722178
C 3.4878762318 1.9411972656 0.1734788971
C 3.7207802475 3.0864021835 1.1999306547
C 5.2154814137 3.2982883628 1.1541266650
C 5.8396716112 2.3186208872 0.5035652822
C 4.8786792016 1.2720874966 -0.0065064894
H -0.8173493233 1.9766700010 -0.0035995390
H 0.8844349640 2.1730676626 1.4471431275
H 2.6386776479 0.4612734511 1.5066859035
H 2.2947859749 0.1709013179 -0.2060192654
H 3.2052554960 2.3983228662 -0.7810798210
H 3.1518642318 3.9901699905 0.9534410491
H 3.4079801629 2.7938947290 2.2157149019
H 5.7003853501 4.1401072790 1.6361091533
H 6.9130934873 2.2382990157 0.3714936110
H 4.9632710800 0.3476880783 0.5857633144
H 5.0647930270 0.9835417086 -1.0468987794