19

O -0.5916643139 1.4344872527 -0.6108352310
C 0.0265335962 0.3392822034 0.0183304386
C -1.0238760887 -0.6201764080 0.6433962059
C -1.5359857379 -1.7496042296 -0.2809424058
C -0.6236001178 -2.9956206122 -0.3476427959
C 0.7242765129 -2.7728343586 -1.0348408323
O 1.3484215256 -1.5884038982 -0.4834481219
C 0.8340475973 -0.4437266540 -0.9982123076
O 0.9119921341 -0.1290512615 -2.1580757897
H -0.2737436391 1.4309553677 -1.5255093876
H 0.6997869271 0.6901306960 0.8150752091
H -0.6105683220 -1.0612541888 1.5562444051
H -1.8592663946 0.0197299282 0.9403863443
H -2.5127935590 -2.0777193486 0.0889719471
H -1.7167180466 -1.3492525712 -1.2874469733
H -0.4448241511 -3.3519177601 0.6743343963
H -1.1419490548 -3.8046685035 -0.8769499385
H 1.4167742826 -3.5949714229 -0.8451019166
H 0.6202549497 -2.6443197509 -2.1171499161