18

O 0.0375335550 1.4876291721 -0.1238365023
C -0.0112205679 0.0949929520 0.0614507851
C 0.1888293506 -0.5964151758 1.4298238233
C -0.7864000443 -0.1339157693 2.5628511065
C -1.7983684963 0.9378512902 2.0843564942
C -2.3874175830 -0.1380556858 1.1382877387
C -1.3754691530 -0.6015049462 0.0364632678
N -0.7895515296 -1.6890551427 0.9585137106
C -1.7529743591 -1.2422583351 2.0407348047
H 0.9577201221 1.7494300417 -0.2250842230
H 0.6336949088 -0.4246322019 -0.6619844933
H 1.1904750950 -0.9055411205 1.7370638328
H -0.3769863837 -0.0851733501 3.5714478058
H -2.5128099942 1.1489081088 2.8871603829
H -1.4263507776 1.8682727846 1.6601507646
H -3.4362263953 -0.0925661142 0.8474183832
H -1.8000220906 -0.9108594035 -0.9202636687
H -2.2852177369 -1.9799389544 2.6423645370