10

N -0.0526391331 1.2845947604 0.0094600204
C -0.0308094438 0.0233216258 0.0032788543
O 1.1118923649 -0.7547214111 -0.0071986164
C 0.7376868896 -2.0998353465 -0.0113029229
O 1.5399838351 -2.9819383773 -0.0204369975
C -0.7462900167 -2.1363355687 -0.0027039468
C -1.1936958577 -0.8778178577 0.0060465121
H 0.8946426400 1.6676205322 0.0056239100
H -1.2967498178 -3.0650139101 -0.0038815325
H -2.2081307706 -0.5074359871 0.0139005993