14

N -0.0762649317 1.3216489468 0.0874964806
C -0.0473737897 0.0532722560 0.0015687588
N 1.0664723598 -0.8076579544 -0.1291752032
C 0.7511264227 -2.2402799727 -0.0148942862
C -0.7394172105 -2.1640029390 -0.0051419054
C -1.1883595515 -0.8729264988 0.0013859381
N -2.5487621233 -0.8620852763 0.0005001622
N -2.9589874215 -2.0946044952 -0.0073969026
N -1.8537598383 -2.9098684618 -0.0155662493
H 0.8641866206 1.7196045716 0.0649230787
H 1.9619858518 -0.4836810559 0.2000120828
H 1.1511591899 -2.8107753179 -0.8634795663
H 1.1549913230 -2.6861167923 0.9055009314
H -1.9885165314 -3.9080183402 -0.0196810895