19

C -0.0130666043 1.4923307609 -0.1094766526
C 0.0061093464 -0.0023680483 0.0148174695
O 0.4170270196 -0.7273918772 -1.1940823009
C -0.1805373706 -1.8783202242 -0.5317482832
C 0.6928268920 -2.0121892564 0.7143976606
C 0.8196842948 -0.7336281782 1.0882030139
C -1.3177340397 -0.8957914017 -0.0250351159
C -2.1514254685 -1.1811977197 1.2143878100
O -2.1412174846 -0.4667661137 -1.0823437882
H 0.9711699724 1.8617457681 -0.4132057340
H -0.7480135109 1.7926979910 -0.8600432852
H -0.2731668118 1.9565056364 0.8475182768
H -0.3776094737 -2.7294065917 -1.1823753891
H 1.0433607215 -2.9218065376 1.1802284151
H 1.3070824258 -0.2930568740 1.9464438764
H -1.5486065867 -1.5080510530 2.0603055251
H -2.7007688674 -0.2793273243 1.5091044506
H -2.8863495196 -1.9672325876 0.9984647254
H -3.0575861848 -0.6130550489 -0.8336636545