20

C 0.0369498130 1.3228676497 -0.0420658201
O -0.0214762353 -0.1084879160 -0.0289797226
C -1.2545816656 -0.6474238070 -0.0250429077
N -2.3332051761 0.0227896651 -0.0275571692
C -3.4476876865 -0.9344351901 0.0012578333
C -2.8493804719 -2.3336766827 -0.3116619609
C -1.3462139149 -2.1612593814 -0.0072919854
C -0.3965616872 -2.8574598469 -0.9935167507
O 0.9615031981 -2.7439615918 -0.6252921707
H 1.0967736398 1.5791705849 -0.0446196195
H -0.4592096636 1.7174707038 -0.9326110624
H -0.4575420764 1.7311509037 0.8429354686
H -3.9167184959 -0.9046987704 0.9934970100
H -4.2163991413 -0.6346883686 -0.7179356821
H -3.3128347922 -3.1376896637 0.2638496643
H -2.9838173186 -2.5694999166 -1.3737015811
H -1.0902404083 -2.5164327991 0.9997922718
H -0.6231432141 -3.9289070384 -1.0175392874
H -0.5809670904 -2.4644032831 -2.0081240717
H 1.1402522774 -1.8022887513 -0.5155139863