17

O -0.1092208340 0.2800812698 -1.0646840428
C -0.0992245431 1.3046946141 -0.4512014979
C -1.1777971088 1.8857568875 0.4599445596
C -0.7884287152 3.3539726434 0.5988275055
C -1.5586768404 4.3918444486 -0.2586136217
O -1.9213497862 5.1515002871 0.9095484102
C -1.2932113249 4.1990268728 1.7868105608
C 0.7300456047 3.2835438996 0.3890661107
O 0.9620194092 2.1625048357 -0.4756857616
H -2.1707200388 1.7074129532 0.0445679710
H -1.1227281198 1.3617031523 1.4225460653
H -0.9555409437 4.9780207191 -0.9632427783
H -2.4391769266 3.9983953246 -0.7830112981
H -2.0172129328 3.6962691091 2.4412647299
H -0.5138515810 4.6604082308 2.4081399940
H 1.1479036730 4.1730264105 -0.0883433905
H 1.2555437382 3.1149080518 1.3383169040