16

C -0.0262910029 1.4539772713 0.0084629638
N -0.0512513809 0.0081870224 -0.0073186868
C 0.0336470500 -0.7802727637 -1.1267919513
C 0.0891559822 -2.0947587886 -0.7270129131
C 0.0409551981 -2.1163196892 0.6987220118
C 0.0584180854 -3.3244631015 1.5866054413
C -0.0403613372 -0.8019901336 1.1037957876
H 0.9912843631 1.8465555842 0.1247697532
H -0.4413303904 1.8368300139 -0.9269108639
H -0.6390539530 1.8277512897 0.8331292944
H 0.0463500183 -0.3351694227 -2.1096187139
H 0.1402588942 -2.9528155986 -1.3809869591
H 0.9647593695 -3.9240251911 1.4401396019
H 0.0202568118 -3.0394369195 2.6423738808
H -0.7947678126 -3.9858582048 1.3936355755
H -0.0934443355 -0.3756982979 2.0941016578