18

C 0.1130572684 1.5408633670 0.0377822540
C 0.0277046232 0.0514400101 -0.0312694602
C -0.0002626204 -0.7076537978 -1.1322346635
N -0.0594789081 -2.0935765156 -0.8222759212
C 0.0507456368 -2.2531460843 0.6577122426
C -1.1470208230 -3.2401252303 0.6106048636
C -1.2197029710 -2.9049670149 -0.8960896657
O -1.9549074081 -3.1531112272 -1.8057337236
C -0.0826108337 -0.8183400938 1.2194170598
H 1.0123854369 1.8697026240 0.5745387770
H 0.1329675532 1.9889564603 -0.9593264921
H -0.7441257139 1.9595427931 0.5809637760
H 0.0110211496 -0.3881986260 -2.1652899102
H 0.9986981252 -2.7134161028 0.9473496187
H -0.9345341156 -4.2819709698 0.8595843483
H -2.0406390665 -2.9158255847 1.1491950836
H 0.7035194544 -0.5981388367 1.9494358109
H -1.0396133573 -0.6403483107 1.7313774320