17

C -0.1664527783 1.4704908792 0.0518311876
C 0.1467002231 0.0124047105 -0.0036118776
O -0.6857699909 -0.8989301816 0.7299144613
C 0.7339279126 -0.9269520094 0.9682232658
C 1.3029997350 -1.8303427208 -0.1349665790
O 0.8494301620 -3.1433264976 -0.1695156113
C 0.7097059771 -0.7889332501 -1.2031237096
C -0.2351034776 -1.2850993462 -2.1779281931
C -1.0314238158 -1.7196313770 -2.9675253418
H 0.6882070813 2.0631980905 -0.2892378866
H -1.0189493334 1.7033986443 -0.5951450624
H -0.4184333775 1.7682264224 1.0728445742
H 1.0660369830 -0.7838255404 1.9905959220
H 2.3941457928 -1.8548841231 -0.1706134663
H -0.1138791975 -3.1010468426 -0.1029451953
H 1.5305069875 -0.2492119331 -1.6869433964
H -1.7308826034 -2.0973187052 -3.6716009913