21

C 0.0820347241 1.3688951317 -0.0407923888
O 0.0981819335 -0.0494706894 -0.0195215136
C 0.7113367745 -0.5955506436 1.0927207131
C 0.5011828313 -2.1053917233 1.0866814069
C 1.3168758051 -2.7709860764 2.2074393503
C 2.7786386155 -2.2914733474 2.1787065794
O 3.4691170817 -2.7782044438 1.0358145998
C 2.8029120954 -0.7616803067 2.1872158445
O 2.1061187663 -0.2795971315 1.0434166277
H 1.0948221638 1.7817021239 -0.0923063910
H -0.4785171167 1.6641183393 -0.9299717001
H -0.4216278899 1.7724379278 0.8504297073
H 0.3034400018 -0.1480998717 2.0235595649
H -0.5658402247 -2.3242811746 1.1884381313
H 0.8180195824 -2.4796106352 0.1073782106
H 0.8825531610 -2.5239152611 3.1854754007
H 1.2879331342 -3.8594562664 2.1057960697
H 3.3169813676 -2.6763244118 3.0522967525
H 3.2367280711 -2.1890017000 0.3074993370
H 2.3555369226 -0.3654464487 3.1133513376
H 3.8275891893 -0.3896459710 2.1048259202