19

C 0.5236273820 1.4303177763 0.5558353797
C -0.1345283041 0.1235381762 0.0917637739
C 0.4454311737 -0.4056180123 -1.2085258436
C 0.0904449799 0.3019189164 -2.4586753333
O 0.4264516867 -0.0598763281 -3.5663920103
C 1.8910767262 -1.0002253067 -1.2267158294
O 2.5972379356 -1.0873434618 -0.0404927037
C 0.7190202996 -1.8959260602 -1.4122930709
O 0.4069864005 -2.7219784228 -0.3201518211
H 1.5886163874 1.2731281525 0.7437154650
H 0.4254665839 2.2209422743 -0.1957877427
H 0.0588083692 1.7929036476 1.4778839347
H -0.0375154524 -0.6365042038 0.8702672959
H -1.2137231394 0.2726958047 -0.0427026564
H -0.5167461031 1.2240931764 -2.3222358001
H 2.5021112845 -0.7270540497 -2.0804987661
H 2.1594677827 -1.7725984828 0.4856346126
H 0.4860837757 -2.2877214313 -2.3992907879
H 0.7347474314 -3.6057536548 -0.5195122162