16

O 0.1453007953 1.4723919303 -0.0752495962
C 0.0463509342 0.0903234498 -0.0204095022
C 0.1023195912 -0.6479637911 1.3417960924
O -0.9914088134 -0.0229981333 2.0735189787
C -2.0102897612 -0.0146677313 1.1232597253
N -3.1734941349 0.4361260696 1.2824307160
C -1.3599130196 -0.6418402988 -0.0772064704
C -0.6373365797 -1.8287918970 0.6455718484
O 0.1091946980 -2.6043821026 -0.2518594271
H -0.3904242624 1.8474903813 0.6342000162
H 0.7345562831 -0.3287021329 -0.7505964204
H 0.9770298392 -0.7334032825 1.9840196627
H -3.2960631161 0.7969772160 2.2309672943
H -1.9551169546 -0.7628014763 -0.9766107549
H -1.2627517039 -2.4324449481 1.3136290046
H 0.6059652348 -3.2574584731 0.2516364124