15

N 0.0421521409 1.3453989289 -0.0926681354
C -0.0195784231 -0.0275243638 -0.0342169309
N -1.1047539867 -0.7271622248 -0.0463783536
C -0.7073215944 -2.0995689291 -0.0409029251
C 0.8096391067 -2.1344464102 -0.0142460366
N 1.1736490728 -0.7450577682 0.0252532010
C 0.0344452848 -2.6436457523 1.2004427336
C 0.0523567341 -1.9212953469 2.4361068001
N 0.0805912604 -1.3287045534 3.4296450524
H 0.7573437449 1.7582534374 0.4894904270
H -0.8628586333 1.7714622299 0.0513001394
H -1.3347233273 -2.8057506301 -0.5726263393
H 1.4593754250 -2.8111562589 -0.5543694820
H 1.9690353526 -0.4281715134 -0.5081713978
H 0.0138028628 -3.7234894751 1.3051984972