14

C -0.0318961967 1.4567460368 -0.0019359299
N -0.0451108676 -0.0030780221 0.0073004003
C -1.1938706177 -0.7032369932 -0.1473208197
C -1.1505704769 -2.0623759478 -0.1308733009
F -2.2596823687 -2.7926402184 -0.2797574020
C 0.1042814193 -2.6844445778 0.0486989155
N 1.2207279587 -2.0275807193 0.1991447882
C 1.2203169468 -0.6429672066 0.1884093582
O 2.2076309337 0.0495913190 0.3205066791
H 0.6173845846 1.8144027573 -0.8040779631
H -1.0484095114 1.8251676292 -0.1466528819
H 0.3736662173 1.8277223915 0.9418965687
H -2.1152969633 -0.1491014010 -0.2798976021
H 0.1485538321 -3.7738899975 0.0632638597