22

C 0.0600861120 1.3902518977 -0.1873212097
C 0.2839744369 -0.1248961446 -0.2757237248
C 0.8538923100 -0.6860216117 1.0175033588
N -0.0190471623 -0.6529413042 2.3048823414
C -0.7219987184 -1.8917128748 1.7319604179
C 0.7735041466 -2.1662474492 1.4332136574
O 1.3803117867 -3.2026201150 0.7392882181
C 0.9964186975 -1.6622839101 2.8930015263
C 2.3169425874 -1.1604452264 3.4453043995
H 0.9936609852 1.9151651396 0.0435347939
H -0.3216393017 1.7882559626 -1.1322576249
H -0.6570869258 1.6305191006 0.6027798712
H -0.6462318548 -0.6180486961 -0.5714630360
H 1.0075140180 -0.3486112177 -1.0701508455
H 1.8176798143 -0.2047546644 1.1959162667
H -1.2116531049 -2.4993222754 2.4985007761
H -1.4021052695 -1.6819107747 0.9086042624
H 1.1552916046 -4.0359975429 1.1676516181
H 0.5000694468 -2.2735529945 3.6559289719
H 2.1345962653 -0.4775225682 4.2816311424
H 2.8915891772 -2.0098035887 3.8297095814
H 2.9447260987 -0.6433345219 2.7176040476