16

O -0.3060871539 -0.0293348135 0.3015180123
C -0.0381965267 1.1069307808 -0.0299976829
C -1.0455744981 2.0191768209 -0.7291325522
C -1.4844865642 3.2165326956 0.1137737688
O -2.6493007194 3.3725214667 0.4135558542
C -0.4723466874 4.2287355747 0.5042664112
C 0.8527381361 4.1497768567 0.3469890172
C 1.6447702556 2.9819405522 -0.1964912252
N 1.1869639049 1.6649293520 0.2078440850
H -0.6052982874 2.3967064643 -1.6618021209
H -1.9269561315 1.4251201863 -0.9627272008
H -0.9108130499 5.1198988585 0.9441318521
H 1.4522025793 5.0132835416 0.6269766100
H 1.6946526609 3.0643582864 -1.2956080380
H 2.6776201390 3.0739769407 0.1476652175
H 1.8413794528 1.0521205863 0.6694257515