16

O 0.1167996443 1.5621034845 0.0782006305
C 0.0618504521 0.1567828751 -0.0631968393
C 0.7025283883 -0.3489098445 -1.3347091553
C 0.1764851884 -1.5918548592 -2.0078260652
C -0.0535778027 -0.2415531676 -2.6329822102
C 0.6920440146 -0.4936166814 1.1736036543
F 0.0707022517 -0.1278454256 2.2974578753
F 0.6614075482 -1.8306834379 1.1047957218
F 1.9841854006 -0.1185898443 1.2856147995
H 1.0459840040 1.8199986321 0.0814441416
H -1.0015350391 -0.1056513465 -0.0502035395
H 1.7776278697 -0.1930331464 -1.3763275172
H 0.8945553724 -2.2626640084 -2.4649487315
H -0.6681613322 -2.0952087991 -1.5502184316
H -1.0543013422 0.1757884759 -2.5981719430
H 0.5040415719 0.0180786633 -3.5254644002