16

C 0.4247495861 0.9750569762 0.4886504480
N -0.1660892393 0.1780614573 -0.5958074225
C -1.3659825220 -0.4800155458 -0.2957350917
C -2.6765853567 -0.2269272327 -0.6212107869
C -3.4621492072 -1.2936383580 -0.0722424148
C -2.5983113016 -2.1519445436 0.5824364637
N -1.3381504211 -1.6514399405 0.4348931400
C -4.8667374550 -1.4453306515 -0.1616856421
N -6.0174124558 -1.5593668719 -0.2406231745
H 1.3614897289 1.4138783176 0.1354357765
H -0.2332765326 1.7788371898 0.8505441584
H 0.6599880993 0.3250289563 1.3360896178
H -0.2834073606 0.7430466484 -1.4270439500
H -3.0497669802 0.6194404061 -1.1750180937
H -2.7947397639 -3.0598753254 1.1271719546
H -0.4900479884 -2.1023242123 0.7341132370