18

C -0.0274772407 1.5510617984 -0.1635992194
C 0.0275399256 0.0341606171 0.0096697878
N 0.6520011213 -0.6123861341 -1.1651001693
C 1.4942024820 -1.4363202893 -0.7032487046
O 1.6710386110 -1.5520996239 0.6334768193
C 0.8370336935 -0.5221580766 1.2299146746
C 1.7462502147 0.4733875887 1.9685384388
C 2.4581623379 -0.1358067094 3.0846066039
C 3.0291932259 -0.6430978133 4.0118703509
H 0.9713449568 1.9830662815 -0.2706258591
H -0.5880645473 1.7851148818 -1.0717176867
H -0.5298614221 2.0333517903 0.6809094821
H -1.0042110798 -0.3340159255 0.0744341709
H 2.1203514672 -2.0962711809 -1.2938227425
H 0.1883986148 -1.0191727055 1.9549732137
H 2.4617465771 0.9036116859 1.2580105026
H 1.1310855531 1.3036578131 2.3357448056
H 3.5419296491 -1.0906767485 4.8267494515