22

C 0.6393183265 0.9929449888 0.6716338438
C 0.3244309995 -0.3321328142 -0.0336625629
C -1.1640203976 -0.6866967665 0.0702521699
C 0.7550228014 -0.2977930506 -1.4990780066
O 2.1587844658 -0.1188561546 -1.5728044617
C 2.6497956333 -0.0085527044 -2.8893277706
C 4.1755281571 0.0936199619 -2.9106315754
N 4.7662783018 -0.0522906211 -1.6993980884
O 4.7694428940 0.2783216809 -3.9547427941
H 1.6959820410 1.2517071659 0.5700074181
H 0.0502811067 1.8117977267 0.2408334395
H 0.3987106145 0.9359894412 1.7378559089
H 0.9064494310 -1.1293029025 0.4485862936
H -1.7851312981 0.0707762777 -0.4224289165
H -1.3833750364 -1.6538966706 -0.3939891893
H -1.4779179652 -0.7388710389 1.1171386886
H 0.4723077766 -1.2350208319 -2.0064123248
H 0.2433405834 0.5261698896 -2.0257239120
H 2.3683450347 -0.8832570512 -3.4965481955
H 2.2489027069 0.8809705877 -3.3975972772
H 4.2020110839 -0.1871282597 -0.8782819809
H 5.7679064094 0.0111750161 -1.6340144665