22

C -0.1240710331 1.5638238509 0.0419002918
C 0.0416035081 0.0435323112 -0.0572084362
C 0.7417703024 -0.5612261093 1.1536550139
C -0.0179370570 -0.6250738079 2.5178687765
C 0.5816236701 -2.0278553134 2.7639182665
O -0.3129386998 -2.9622667306 3.3183274627
C 0.9023460066 -2.0874369908 1.2660412160
C 0.4244985060 -3.1093525202 0.3141078106
N 1.8627977265 -2.9972058164 0.6544379909
H 0.8476701571 2.0632442797 0.1245139643
H -0.6323259581 1.9664697457 -0.8396036488
H -0.7138987898 1.8406202662 0.9221266518
H -0.9415826788 -0.4288636679 -0.1748560202
H 0.6108265577 -0.2001252367 -0.9653122290
H 1.7172160046 -0.0759843055 1.2939560573
H 0.1845718737 0.1487092405 3.2599916817
H -1.0978833753 -0.7084925349 2.3631764723
H 1.5114369469 -1.9686656623 3.3486249122
H 0.1765313679 -3.7709716085 3.5001243053
H -0.0680178219 -4.0013809505 0.6909214605
H 0.0953538185 -2.7902550001 -0.6713070688
H 2.3607205976 -2.5298112291 -0.1010628014