19

C -0.1399304192 1.4797123852 -0.4915730512
C -0.0246562553 0.0196132144 -0.1019223459
C 0.9359570391 -0.8445378363 -0.8349025893
N 1.2004924609 -0.4525526338 0.5631667865
C -1.2768945353 -0.6387703283 0.4888132880
C -1.6991143216 -0.0332748942 1.8519628821
O -2.7622691163 -0.7436485090 2.4439648228
C -2.4088518967 -0.5850516771 -0.4414858401
N -3.3277462042 -0.5151548402 -1.1402135994
H 0.7826722080 1.8217659693 -0.9699509160
H -0.9619871701 1.6365110799 -1.1973023348
H -0.3212555780 2.1173814695 0.3802786829
H 0.7249133266 -1.9001192484 -0.9820166560
H 1.5238047874 -0.3873946774 -1.6261549455
H 1.8910464907 0.2935522665 0.5931526104
H -1.0478702056 -1.6931431000 0.6758765020
H -0.8435672316 -0.1213463462 2.5262905922
H -1.9382620379 1.0325971174 1.7322727168
H -3.5515596308 -0.6080633715 1.9073340544