17

O -0.2026713055 1.9282839354 1.0765759378
C 0.7051270279 1.2580024356 0.6625104604
C 1.7076816712 1.7400716981 -0.3957105369
O 2.4841157508 0.9332434836 -0.8521308377
C 1.6716171740 3.2048777077 -0.7756183079
C 2.8621808996 3.9216368853 -0.1322819308
C 2.8317073923 5.4639389036 -0.0697331347
C 2.8718686125 5.2583325381 1.4589905306
O 2.8280545544 3.8218896253 1.3092430235
H 0.8928389025 0.2112525510 0.9811320362
H 1.7511562042 3.2868549512 -1.8647312542
H 0.7347103524 3.6516470193 -0.4345609533
H 3.7934696591 3.4975833549 -0.5295606148
H 3.6910292826 5.9719557075 -0.5089469679
H 1.9131886215 5.9151245529 -0.4496395763
H 3.7949456727 5.5864252590 1.9514873783
H 2.0126951478 5.6356329614 2.0243391680