19

O 0.1283736633 1.3853051222 0.0084642043
C 0.0653678708 -0.0230283775 -0.0218612459
C -1.3691652026 -0.5599035983 0.0710393703
C -1.4349949092 -2.0945652946 -0.0904697585
C -2.7905965889 -2.6613711852 0.2328385021
C -3.6964186324 -2.0213643526 0.9690095762
C -3.4568087631 -0.6712433550 1.5909109678
C -2.0560910066 -0.1243562299 1.3582953639
O -1.5395090282 0.6383396196 2.1500961290
H -0.2006606784 1.6320391652 0.8827987715
H 0.5083508710 -0.3410345941 -0.9723142932
H 0.6655723044 -0.4736023771 0.7852820867
H -1.9628836004 -0.1144535483 -0.7417424024
H -1.1517029982 -2.3562172453 -1.1170493571
H -0.6738289343 -2.5655096041 0.5501609820
H -3.0170442950 -3.6488353024 -0.1607147294
H -4.6616856904 -2.4799532437 1.1668711060
H -4.1654652595 0.0685878809 1.1855617263
H -3.6387690422 -0.6815753700 2.6717859803