15

O 0.0863160113 -0.0258190854 0.1209404464
C 0.0051860482 1.1668113829 -0.0058102552
C -1.2771234571 1.9902206984 -0.2021603146
C -0.8122754380 3.2222953962 -0.9746051533
C -1.3984265577 3.6710094215 -2.2432950203
O -1.6317964444 4.3828325404 -1.0230126209
C 0.6539734325 3.3875742724 -0.6780425772
O 0.9349820079 3.2949540983 0.7163566977
C 1.1681216226 2.1296961112 -0.0946734755
H -2.0422650435 1.4018569225 -0.7099048921
H -1.6656273104 2.2888286317 0.7773206402
H -0.7844256203 4.1915544870 -2.9775862981
H -2.2570310224 3.1382894964 -2.6490659607
H 1.2747388303 4.0709499855 -1.2503866957
H 2.1919631510 1.7798553309 -0.1762322506