21

C 0.0090851375 1.5032062387 0.4322647860
C 0.0013712075 0.0301907588 0.0665309591
C 1.2414426393 -0.5527039711 -0.5700382275
C 0.8913990853 -0.8964891596 0.8575846947
C -1.3342003729 -0.5461471099 -0.3891185532
O -2.3181876914 -0.5336842274 0.6422877049
C -1.8745628706 0.1269813434 -1.6687384102
C -3.0851962220 -0.5919985901 -2.2248767332
O -3.2348468179 -0.8711978671 -3.3876225280
H 0.9997933518 1.8074858611 0.7818536902
H -0.2472979815 2.1432382706 -0.4193490937
H -0.6935908754 1.7236930344 1.2459519197
H 1.1205130571 -1.3227454536 -1.3252644146
H 2.0804082369 0.1112778457 -0.7492717754
H 1.4956057740 -0.4679708134 1.6500700469
H 0.5256284603 -1.8950102202 1.0710064996
H -1.1817431894 -1.6119741820 -0.5987673683
H -2.4602316875 0.3810937656 0.9089133607
H -2.1826690929 1.1546233884 -1.4250238717
H -1.1091228437 0.1842887629 -2.4477909306
H -3.8493011947 -0.8569553451 -1.4628404753