21

C -0.2637334574 1.4997956386 -0.1501682313
C 0.0554093592 0.0241177527 -0.0179619693
C 1.3894598752 -0.6585727831 -0.3085117100
C 2.6729123876 0.1428504368 -0.3375210927
O 2.6925591212 1.0033866675 -1.4731936296
C 2.7346102869 0.9051306210 1.0168482299
C 1.7595121398 0.1832123555 1.9748768606
C 0.8290245348 -0.6452326024 1.0900837877
O 0.3380714267 -1.8365448762 1.6384822029
H -0.2812629588 1.7989904581 -1.2024671309
H -1.2511400071 1.7110303322 0.2763605785
H 0.4537939447 2.1457500165 0.3572114145
H -0.7623235492 -0.6116915713 -0.3524807365
H 1.3462037231 -1.5651368280 -0.9011117068
H 3.5133775830 -0.5659183070 -0.4009691390
H 3.5512673934 1.4376512276 -1.5009364035
H 3.7516398522 0.9350424707 1.4196134064
H 2.4344335306 1.9406629607 0.8384154673
H 2.2928730085 -0.5223001614 2.6200935994
H 1.2269553244 0.8812248066 2.6319134840
H -0.4295789790 -1.6198226854 2.1783078584