20

C -0.0307386440 1.4883054965 0.2704429651
C 1.4932636213 1.5622223103 -0.0456943395
C 1.4700549554 0.0915623162 -0.5371185753
C -0.0259903571 -0.0316494233 -0.0626390108
O -0.9495117403 -0.4906887216 -1.0467820754
C -0.3835384153 -0.6538172569 -2.3375831059
C 0.9516059414 -1.4307344517 -2.2743692371
N 1.6498278189 -0.1163996631 -1.9805281441
C 0.5082261523 0.5438570996 -2.7252457245
H -0.3184030074 1.7357300502 1.2948837038
H -0.6639723170 2.0624000272 -0.4098358115
H 1.7969347932 2.2894744321 -0.8022393540
H 2.1223926239 1.7096583059 0.8346718487
H 2.1666274992 -0.5794949248 -0.0257761771
H -0.1669403568 -0.6586946735 0.8228969546
H -1.1938534870 -0.9876869900 -2.9897588051
H 1.0573524783 -2.1991391745 -1.5037518205
H 1.2761877366 -1.8222532373 -3.2426434495
H 0.7469709524 0.5715009506 -3.7923249676
H 0.2186680018 1.5424519880 -2.3954285343