16

O 0.0658835638 1.3101407223 -0.5645841778
C 0.0731235011 0.1450032012 0.2396457955
C -1.3070119534 -0.4491455275 0.3599899472
O -1.7870912704 -1.1041967526 -0.8414626003
C -1.5547538632 -1.8880926741 0.3079985108
C -0.6274195395 -3.0994870651 0.3752335831
O -1.6362893392 -3.8366728301 1.1001837163
C -2.5998218582 -2.7645218455 0.9908585425
H -0.2949837279 1.0551039458 -1.4214351363
H 0.7657956062 -0.6153419765 -0.1526544542
H 0.4355425912 0.4524170788 1.2267232046
H -2.0530012145 0.1913952768 0.8326257996
H -0.4018379588 -3.5446938922 -0.6020787933
H 0.2990083880 -2.9896926240 0.9514315036
H -2.9638052483 -2.4317969757 1.9700824312
H -3.4511677370 -3.0274031217 0.3503996175