17

O -0.0315184505 -0.1604678509 -0.1075180289
C 0.0184450507 1.0415319232 -0.0963463886
C 1.2926863217 1.8569646694 -0.1065110002
C 1.3194050512 2.8557786587 -1.2745530357
C 2.5656999870 3.7657162730 -1.2301378525
C 2.6106527342 4.7170797781 -2.3289523261
C 2.6285497536 5.5012208684 -3.2506746921
C 2.6492909538 6.3830336563 -4.2868960806
C 2.6677532517 7.1656255977 -5.2063444576
H -0.9142287777 1.6539605292 -0.0813715287
H 1.3359216095 2.4112805415 0.8430073643
H 2.1450038065 1.1717340424 -0.1385070057
H 1.3041808959 2.3157621172 -2.2271310653
H 0.4199460289 3.4816240847 -1.2545290593
H 2.5874545090 4.3086494865 -0.2752816749
H 3.4715402302 3.1450910276 -1.2463950186
H 2.6837860643 7.8530317770 -6.0152298595