18

C 0.1968320659 1.4665264986 0.0466014501
C 0.0222562505 -0.0109967653 -0.0548585090
N 0.1109709702 -0.7449854841 -1.1513899706
C -0.1012643856 -2.0207624007 -0.7040352121
N -0.3175979302 -2.1147362320 0.6018016195
N -0.2339514385 -0.8181437327 0.9957910558
C -0.0919747807 -3.1820717763 -1.6108935899
C 0.4423796207 -4.5188576618 -1.1348696602
C -1.0289234264 -4.3493023360 -1.3678639338
H 1.2563831770 1.7338162974 0.1255617610
H -0.1996880783 1.9444619885 -0.8511962280
H -0.3206953065 1.8734035366 0.9199903418
H -0.3635394387 -0.5810987409 1.9654835072
H 0.1026366716 -2.9067555145 -2.6402344167
H 1.0173867272 -5.1097604130 -1.8392338583
H 0.7881852639 -4.5619852808 -0.1085421953
H -1.6718196202 -4.2784732806 -0.4981346886
H -1.4777038517 -4.8221851023 -2.2344169029