20

C 0.0742174240 1.4918043258 0.0092908503
O 1.2194212271 0.6338001404 -0.0062560895
C -0.0919314057 0.0345625678 0.0030689177
C -0.4364508257 -0.7138463955 1.2773688571
C 0.1685137663 -2.1279009600 1.2565464249
C -0.2402232488 -2.8926250604 -0.0111923890
C 0.1442789229 -2.1143217078 -1.2782491889
C -0.4608292929 -0.7001866670 -1.2723539152
H -0.0781719495 2.0507070419 0.9326172125
H -0.0957374452 2.0605685917 -0.9049015260
H -0.0754918983 -0.1482683038 2.1420423745
H -1.5298915576 -0.7814849508 1.3635865220
H 1.2620258657 -2.0422119092 1.2919363459
H -0.1354457191 -2.6790440840 2.1530859760
H 0.2261466476 -3.8840205989 -0.0209631718
H -1.3269442562 -3.0592878123 -0.0016951227
H 1.2369231708 -2.0281459448 -1.3336204383
H -0.1768233893 -2.6558599335 -2.1746658195
H -1.5557251557 -0.7670103975 -1.3383710221
H -0.1164082906 -0.1253430120 -2.1376626580