20

C 2.8802648531 -0.7493160073 0.3074532140
N 1.5264480855 -1.2560194411 0.4757281421
C 1.3024314516 -2.2807125058 1.4874937499
C 0.7490893511 -0.9053963586 1.6647293345
C 1.2444456717 0.0075767265 2.7564616381
C 1.0099161696 1.5441072191 2.5668980478
C 0.4303414906 1.5768354802 3.9897051114
O 0.1885982706 2.4514904844 4.7684033891
C 0.3849143509 0.0419876966 4.0639157254
H 3.4901455754 -0.7442979487 1.2245066679
H 3.3948804288 -1.3744913000 -0.4290593162
H 2.8411635500 0.2717227155 -0.0856338953
H 0.6633418782 -3.1120113834 1.2004544808
H 2.1420982844 -2.5558145675 2.1268914712
H -0.3087113263 -0.7557571940 1.4383227549
H 2.2893069597 -0.1955075271 2.9983153469
H 1.8744114883 2.1844146475 2.3755377051
H 0.2405031443 1.7648939965 1.8176466182
H -0.6340947620 -0.3329068422 3.9102013366
H 0.7911713046 -0.4190592407 4.9672601774