21

C -0.0316754943 1.5685214852 -0.0748829553
C 0.0020564220 0.0407822249 -0.0373127060
O 0.7370667689 -0.4865306879 -1.1425648510
C 0.6731916772 -0.4917967663 1.2267483605
C 0.6804284444 -2.0210929134 1.3009244438
C 1.3506645545 -2.5311509105 2.5881816151
O 0.6987223080 -2.0577185224 3.7370708809
C 1.3922600083 -4.0440026986 2.5959515495
O 0.9003947663 -4.6923505688 3.4886742680
H 0.9845137592 1.9739092980 -0.0395736087
H -0.5095414150 1.9261222355 -0.9944749493
H -0.5983205961 1.9709980833 0.7709623812
H -1.0344946512 -0.3378945241 -0.0673339132
H 0.3276663449 -0.1674981027 -1.9526869292
H 1.7052734493 -0.1174265548 1.2543842115
H 0.1596028468 -0.0905465389 2.1057342884
H -0.3495993182 -2.3997641015 1.2738153532
H 1.2019463781 -2.4259484945 0.4270228699
H 2.4045040589 -2.1921634520 2.5812371434
H 0.4473087847 -2.8498124018 4.2379550639
H 1.8945982232 -4.5263897587 1.7325503832