13

C -0.0039862844 1.5567342852 0.1697296945
C 0.0165623341 0.0801961461 -0.0013870494
C 0.0029189548 -0.7005784842 -1.1238649023
O 0.0333047993 -2.0139786555 -0.7665645513
C 0.0644590239 -1.9701035123 0.5756061044
N 0.0568267460 -0.7795802457 1.0882557981
N -0.0351130670 -0.4168609087 -2.5232372222
O -0.0625384316 0.7710434767 -2.8396795203
O -0.0380987230 -1.3643277324 -3.2961419226
H 0.8851955797 1.8768351790 0.7226997671
H -0.0366824954 2.0599404032 -0.7944158428
H -0.8744279788 1.8471508947 0.7670904782
H 0.0925064624 -2.9181699560 1.0900854085