23

C 0.3711740962 1.3493164245 0.3761041262
O -0.1923298959 0.1286465495 -0.0504382515
C 0.4664642938 -0.4978284284 -1.1573640673
C 0.9889062275 -1.8696865709 -0.7172857404
C 2.0361444417 -1.8019652408 0.3952307783
O 2.5319624506 -3.0823580245 0.7571014843
C -0.5183252326 -0.6120691963 -2.3260139311
C -1.0073958448 0.7376187476 -2.8534030353
O -1.8873685402 0.6051505877 -3.9598795369
H 1.4107046100 1.2314031711 0.7166297487
H 0.3518745967 2.1151278011 -0.4136096938
H -0.2310762510 1.7035246836 1.2172591820
H 1.3196955592 0.1255557733 -1.4694340129
H 0.1336331339 -2.4675567813 -0.3728389205
H 1.4211930420 -2.3919082678 -1.5784540454
H 2.9108837578 -1.2360151720 0.0538954530
H 1.6202105768 -1.2728918072 1.2644046381
H 1.8020822096 -3.5811388067 1.1377175253
H -0.0500092176 -1.1644527083 -3.1486616733
H -1.3815501992 -1.2032613011 -1.9899811608
H -1.4728500867 1.3081525509 -2.0371762740
H -0.1595619872 1.3259614505 -3.2235502584
H -2.6825629208 0.1609416657 -3.6488811742