21

C 0.0338213138 1.6062425900 0.0847728167
C 0.1139464674 0.0854054793 0.0595898655
C 1.1476608316 -0.6414225548 -0.8060203052
C 1.2731831098 -1.7625500059 0.1912818619
C 2.4344289136 -0.8072785059 0.0282941552
C 2.1688571778 -0.2097916695 1.3907759428
C 3.0428259163 -0.4102358550 2.5892768952
C 2.7290284885 0.9909332942 2.0890265847
C 0.7259854947 -0.7192208295 1.2553419337
H 1.0138020132 2.0607875909 0.2468254505
H -0.3587849205 1.9848394641 -0.8658724713
H -0.6377608694 1.9539602093 0.8784648532
H -0.8740998166 -0.3365038557 -0.1605589546
H 1.1794901500 -0.7120215903 -1.8868986155
H 1.2032436814 -2.8362636242 0.0993282259
H 3.3903276954 -0.9991242192 -0.4433814300
H 2.5836658082 -0.7317415286 3.5193105444
H 4.0485910718 -0.7902469054 2.4382645783
H 3.5254859863 1.5475407893 1.6043701992
H 2.0632243755 1.6041899239 2.6880932421
H 0.1307884212 -0.9429793370 2.1398397571