19

O 0.1960024522 1.3069460682 -0.1284402037
C 0.0016401873 -0.0713996045 -0.0682432833
C -0.4166003890 -0.7398278426 1.1905977861
O -1.2614701790 0.1638107253 1.9181298611
C -2.3096698430 0.0353139656 0.8868712353
C -2.9112252449 1.3267381154 0.4286298937
C -4.3505488102 1.3291724028 -0.0381324067
C -3.9857360887 1.9757802926 1.2690022471
C -1.3586095393 -0.7547937560 -0.0108312996
H -0.0713883650 1.6443401868 0.7381296927
H 0.7246045885 -0.6113135006 -0.6736517298
H 0.1010638619 -1.5099446765 1.7515307623
H -3.0923406767 -0.6164717775 1.2982506443
H -2.2304760624 1.9826163478 -0.1009725206
H -4.6047558978 1.9627115213 -0.8799195839
H -4.8978746561 0.3924777183 -0.0073283107
H -4.2802955904 1.4740020571 2.1847659717
H -3.9936663294 3.0578068245 1.3327923741
H -1.6449794880 -1.5560422880 -0.6793173302