21

C 0.1369947297 1.5983192869 -0.0105529878
C 0.0671722077 0.0884872454 0.0303359783
C -1.3499394575 -0.5404274623 0.2574046725
C -0.8301804870 -1.2750847806 1.5298417588
C 0.6057824064 -0.8005454353 1.2141602556
C 1.3672214865 -1.6778515095 0.1822736060
C 1.0050125410 -0.6881121191 -0.9658972750
C 0.3991443965 -1.2388408283 -2.2261116379
O 0.5673134117 -0.7798701210 -3.3286730210
H 1.1720249790 1.9535967102 0.0425586294
H -0.3007463789 1.9855583012 -0.9386959765
H -0.4148027221 2.0404719800 0.8270070944
H -2.1209405790 0.2086312014 0.4542896506
H -1.7200116155 -1.1879984439 -0.5401847594
H -1.2286714080 -0.8467589875 2.4531747928
H -0.9781344316 -2.3583866591 1.5675826286
H 1.2042210534 -0.3920497059 2.0303227449
H 2.4399766927 -1.7862457101 0.3527396152
H 0.9431825343 -2.6806859594 0.0578274066
H 1.8464326402 -0.0510930853 -1.2510462725
H -0.2512778598 -2.1339554176 -2.0807599834