22

C -0.0532909336 1.5667156254 0.1376332864
C 0.0372782723 0.0392408250 0.0685711242
C 0.6585294033 -0.5617995070 1.3330670585
C -1.3367944880 -0.5740287361 -0.2052451012
O 0.8147986185 -0.3649725021 -1.1139324354
C 2.1012833485 -0.0205354884 -1.2676357255
O 2.7621581626 0.6335216017 -0.4961694985
C 2.6423957439 -0.5785398957 -2.5866441137
N 4.0345340690 -0.2726238092 -2.8631543694
H 0.9239664879 2.0126669567 0.3220176001
H -0.4559207681 1.9667731575 -0.7980583110
H -0.7303497369 1.8558730389 0.9476022541
H 0.0102066023 -0.3572162203 2.1909111950
H 0.7522922945 -1.6474601150 1.2319751552
H 1.6432964271 -0.1379996500 1.5293754950
H -1.7584237888 -0.1765145102 -1.1325142922
H -1.2619745209 -1.6608541538 -0.2991999964
H -2.0222261785 -0.3427676768 0.6150392395
H 2.4923687962 -1.6643888301 -2.5794993271
H 2.0083854604 -0.1997298935 -3.3967965049
H 4.1591364695 0.7360707146 -2.8413863508
H 4.6046867190 -0.6149753717 -2.0942874918