20

C 0.0312992223 1.3536012342 0.2868487476
O 0.0020183745 0.0108004594 -0.1723750034
C -1.2525601423 -0.5512979643 -0.1130874077
C -1.8838728711 -1.0749439656 1.1477627218
C -1.5969580559 -2.0158635875 -0.0120973870
C -2.6030687315 -1.8394028686 -1.1982357682
C -2.8567553077 -2.8730965072 -2.2484508604
N -3.6208083701 -0.8292000795 -0.7990479612
C -2.2793906688 -0.4019515322 -1.2857998599
H 1.0630881269 1.6998647325 0.1940865604
H -0.6193186950 2.0031690635 -0.3157234298
H -0.2842135194 1.4234202037 1.3366063098
H -1.1741290556 -1.1840478983 1.9627471501
H -2.8995908811 -0.8304936974 1.4304173117
H -0.9313670865 -2.8644039127 0.0783141310
H -3.4691745709 -3.6952164304 -1.8587301676
H -3.3804360828 -2.4388591687 -3.1072679287
H -1.9160490534 -3.3018653005 -2.6109467110
H -4.2662380044 -0.7316328429 -1.5837767063
H -2.1577515773 0.2400127724 -2.1497344414