16

C -0.0497758782 1.5575111114 -0.0080320046
C 1.4528357299 1.9013429096 -0.0304134520
N 2.2055034006 1.4613187420 1.1609048732
C 2.2739584242 0.6472552923 -0.0870648515
C 1.2621892047 -0.4294569685 -0.0748921624
C -0.0272376754 0.0481966124 0.0021227580
C -0.8293459448 -1.1055993939 0.0807932066
N -0.0858111122 -2.2158218901 0.0374108972
N 1.1938782792 -1.7764623707 -0.0467212521
H -0.5325599949 1.9897757384 0.8751660712
H -0.5521148009 1.9711265277 -0.8909431342
H 1.7789807168 2.8033178149 -0.5378656166
H 3.0540859054 2.0213583339 1.2307048748
H 3.2083366212 0.5782687173 -0.6326229506
H -1.9032380736 -1.1989562255 0.1524380569
H 1.9354334280 -2.4547627213 -0.0759475541