19

O -0.0639274221 1.4049958509 -0.0610436707
C 0.0113558438 -0.0023485076 0.0324839253
C -1.3887437235 -0.6292741566 0.0600752035
C -0.9961300829 -2.0588355049 0.4943953938
C -0.2910001438 -2.7180080456 -0.7171144560
O 0.8866225885 -2.0186801923 -1.0954043394
C 0.7462331787 -0.6094073395 -1.1924417820
C 0.0309062448 -1.7515303243 1.5773716891
C 0.6087109648 -0.5806135495 1.3132674633
H 0.8325707189 1.7577310374 -0.0725785950
H -2.0062840177 -0.1310114693 0.8115285907
H -1.8951668515 -0.5865138583 -0.9093494670
H -1.8368479878 -2.6795714850 0.8169676254
H 0.0384160375 -3.7352914885 -0.4847453704
H -1.0004403460 -2.7720782409 -1.5600061463
H 0.1974995479 -0.3196787233 -2.1034341663
H 1.7671375522 -0.2162559421 -1.2700015991
H 0.2958809023 -2.4396128155 2.3716303962
H 1.4351005859 -0.1215624950 1.8444046748