27

C 0.8953840957 1.9737185565 0.1962016544
C 0.4241791096 0.5180809435 0.0824770414
C 1.0222287489 -0.1843240625 -1.1198123255
C 2.3537886578 -0.8894665671 -1.0168712284
C 1.0977357843 -1.6936023515 -1.2894552740
C 0.5414835649 -2.6205354070 -0.2034028518
C 1.5335460299 -3.6426380006 0.3716791101
C 0.9049220991 -2.1787090281 -2.7254871591
C 1.5838227335 -3.5078742074 -3.0796604182
H 1.9852090547 2.0264971135 0.2889640680
H 0.6112563635 2.5510756108 -0.6905115277
H 0.4568866879 2.4667649702 1.0695543208
H 0.6909513123 -0.0145450224 1.0023707201
H -0.6724940522 0.4942843804 0.0216272599
H 0.8526459805 0.3576742948 -2.0491331904
H 3.0812189656 -0.7765598397 -1.8150667354
H 2.7980642987 -0.9564093171 -0.0279076907
H 0.1426061884 -2.0295574103 0.6270952720
H -0.3227014475 -3.1537036259 -0.6209712161
H 1.9478865760 -4.2950175805 -0.4010735829
H 2.3748918952 -3.1446722536 0.8641028655
H 1.0426832598 -4.2769915948 1.1174071383
H -0.1723283273 -2.2616832521 -2.9276224036
H 1.2793663665 -1.4035535237 -3.4057213244
H 2.6565712365 -3.4767520928 -2.8611198834
H 1.1531164604 -4.3472917091 -2.5256893869
H 1.4655683573 -3.7273259934 -4.1458821521