19

C -0.0108134401 1.4488854966 -0.0967827217
O 0.9717895586 1.9418327875 0.8157490935
C 2.0546444106 1.0164481629 0.8696925957
C 1.4315606433 -0.3373583998 0.6220690212
C 2.1101842305 -1.6281619215 0.3446868274
C 1.3673699895 -2.6626973366 0.7483837736
C 0.0804053104 -2.2162324956 1.4178732836
C 0.1192527902 -0.6891337062 1.3127714719
C 0.0958755958 -0.0641015872 -0.0565636700
H -0.9767514738 1.8482130888 0.2322127333
H 0.1807564646 1.8088776538 -1.1206905198
H 2.8142388021 1.2380616627 0.1001993841
H 2.5227385056 1.1273410543 1.8539043847
H 3.0681592792 -1.6957965097 -0.1587060328
H 1.6142294252 -3.7074951507 0.5983536044
H -0.8034925513 -2.6502681254 0.9316737174
H 0.0409790841 -2.5415987903 2.4657514532
H -0.2364260608 -0.0908617579 2.1453543213
H -0.2137941338 -0.6406977055 -0.9220156509