19

C -0.0512333218 1.5024742818 -0.0128506440
C 0.1989696146 -0.0074717905 -0.0413070180
C 0.6330293853 -0.5155068081 -1.4074328410
C 0.8702570524 -2.0414224687 -1.5032068935
O 0.1937954996 -2.4477965468 -2.6936298147
C -0.2305287560 -1.2700909576 -3.3535982338
O -0.4199852599 -0.3005991927 -2.3552727456
C 0.7528935599 -0.8373170153 -4.3673698257
C 1.5448486304 -0.4849035913 -5.1995357470
H 0.8564942918 2.0585234977 -0.2716467100
H -0.8285178678 1.7778915891 -0.7303363795
H -0.3711121251 1.8280506021 0.9812688784
H 0.9789370804 -0.2745765685 0.6831479581
H -0.7081882180 -0.5489392795 0.2530543449
H 1.5307957833 0.0241171976 -1.7436806557
H 1.9365433616 -2.2865838586 -1.5628564295
H 0.4276111322 -2.5803854662 -0.6580238577
H -1.1983990951 -1.4683929063 -3.8252143917
H 2.2418570321 -0.1749631482 -5.9389523842