22

C 0.7300862380 2.2101604659 -1.9825423303
C 0.4223399616 0.7676714777 -1.6514731181
C 1.2358071580 -0.3987660961 -2.0619617938
C 2.7157404653 -0.1554310533 -1.9890784628
C 3.2693475456 -0.9771912449 -0.8378591153
C 4.7701418947 -1.0127466222 -0.6495785455
C 2.5047315823 0.2853649285 -0.5358815953
C 3.0052600795 1.4027137421 0.3321385232
N 1.0533018925 -0.0373401260 -0.5747964074
H 1.7974709459 2.3921398098 -2.1140146120
H 0.2271667255 2.4806100234 -2.9175680235
H 0.3550401921 2.8805783055 -1.2015359531
H -0.6468499189 0.5572702756 -1.6476711282
H 0.7825139411 -1.2998865652 -2.4670140062
H 3.3538899903 0.2364053995 -2.7747693369
H 2.7636056381 -1.9146934655 -0.6096643376
H 5.2438739525 -0.0758499542 -0.9600375585
H 5.0401132826 -1.1930797043 0.3967553388
H 5.2131973394 -1.8145113241 -1.2500206369
H 4.0928891492 1.4970184197 0.2790104040
H 2.5692684937 2.3685828543 0.0640273171
H 2.7384018110 1.1984811241 1.3757821682