13

O 0.0977305510 1.3609724142 -0.0115102306
C -0.0260794130 -0.0173142742 -0.0061169024
C -0.4596982711 -0.7847872302 1.1900988854
O -1.3942579241 0.0189898025 1.9390203267
C -2.3603115486 -0.0711740952 0.8554440861
C -2.9224280786 1.2234486202 0.4571944042
N -3.4072381762 2.2280033249 0.1560647196
C -1.3505995577 -0.7676557097 -0.0541720740
H -0.2554341376 1.6895341707 0.8258453192
H 0.7413292660 -0.4971352051 -0.6074492486
H 0.0635891285 -1.5649034370 1.7299887993
H -3.1811438464 -0.7322356830 1.1544538579
H -1.5952218821 -1.5323697080 -0.7780272429