16

C 0.1598559533 1.4404008289 -0.0671802401
N 0.0549667884 -0.0078990131 -0.0144291029
C -1.0676265841 -0.6101788929 -0.0015034110
N -1.1107664542 -1.9951241006 -0.0470178447
C 0.1398368564 -2.7210051575 0.0769993407
C -0.0841678903 -4.1599163574 -0.0598739836
N -0.2662622238 -5.2966899284 -0.1503989984
C -2.4497494938 -0.0013902146 0.0115022933
O -2.6715676811 1.1791084832 0.0727483497
H 1.2148858190 1.7017666463 -0.1829495986
H -0.4055733333 1.8798052125 -0.8964076829
H -0.2129357821 1.9092052040 0.8510957332
H -1.9262658425 -2.4467071380 0.3388387346
H 0.8246509391 -2.3728301488 -0.7031423526
H 0.6476658291 -2.5193052310 1.0320889877
H -3.2807307000 -0.7429266926 -0.0391240745