16

C -0.0022200725 1.4893207082 -0.3709320015
N 0.4802602755 0.1262247510 -0.1362168976
C 0.6928925841 -0.6106313727 -1.3598182430
C 1.0177036691 -2.1186091860 -1.1947712075
O -0.2006728792 -2.4701631302 -1.9210364503
C -0.5848133481 -1.1530976050 -2.0247573667
O -1.5895478831 -0.7210224776 -2.4833923949
C 2.2617187475 -2.6133022323 -1.8954203413
O 3.3214910503 -2.7262214986 -1.3383739018
H 0.6715550821 2.0970034772 -0.9987311306
H -0.9760078129 1.4454511320 -0.8650782607
H -0.1282096007 1.9917002036 0.5911591983
H 1.3505555657 0.1547401054 0.3859286755
H 1.3395207255 -0.1063540997 -2.1017229649
H 0.9769451367 -2.4587334043 -0.1581618661
H 2.1215597901 -2.8377491811 -2.9756630469