13

C 0.0217079232 1.3859142949 0.0073051141
O -0.0363869589 -0.0535348932 0.0034531232
C -1.2378864242 -0.6058350296 0.0107428553
N -2.3194507633 0.0963020080 0.0208878618
C -3.5270881427 -0.5725295224 0.0279626492
O -4.6073391427 -0.0689531510 0.0373579250
O -3.5017736471 -1.9951409484 0.0236341804
N -2.3413620793 -2.7185586933 0.0128216372
C -1.2420994446 -2.0548532491 0.0065402674
H 1.0833394955 1.6283006249 0.0002639463
H -0.4781578322 1.7863808312 -0.8769682113
H -0.4651704020 1.7811072189 0.9011432220
H -0.3216282116 -2.6261019109 -0.0020291006