15

C -0.0002281563 1.4388264629 -0.0100431839
C 1.4239226806 2.0027823455 0.0204925213
O 2.1624867534 1.5591656493 1.1670518023
C 2.0078260847 0.2270542725 1.3798889174
C 2.6951463080 -0.6466686975 2.1530188520
O 2.1216078062 -1.8667790399 2.0739891938
N 1.0145941560 -1.8114529914 1.2118860838
C 0.9651024357 -0.5642124497 0.8099307109
N 0.0670218432 -0.0201543067 -0.0850882915
H -0.5471720888 1.7945176005 0.8768792917
H -0.5096416414 1.8202363591 -0.9000844756
H 1.9555454473 1.7060011611 -0.8930009420
H 1.4017027138 3.0921823951 0.0841996779
H 3.5569930481 -0.5566897360 2.7931731290
H -0.8133561605 -0.5086855647 -0.1657434771