17

O -0.4584588328 -0.0324002439 0.0097670034
C -0.2689062444 1.1534254219 0.0133451151
C -1.1444929289 2.4306767343 0.0332154464
C 0.2017461159 3.2162767633 0.0177015252
C 0.4451102228 4.2965535821 -1.0655237708
C 0.2113559017 5.3740078251 0.0295605404
C 0.4771573173 4.2844793085 1.1052153673
N 0.8728462063 1.9200368650 0.0005595053
H -1.7734756886 2.5550463922 -0.8503568381
H -1.7470736624 2.5452169855 0.9363051829
H 1.4865706594 4.2868912980 -1.4026190975
H -0.2060687331 4.2901757066 -1.9431990115
H 0.8700542993 6.2438167438 0.0246775982
H -0.8250409963 5.7206514370 0.0467927664
H -0.1478176806 4.2682371373 2.0016148836
H 1.5281172345 4.2712456205 1.4112836180
H 1.8499756601 1.6649489727 -0.0148365643