24

C 0.0726659336 1.5173643181 -0.3978456894
C 0.0256421277 0.0355850145 -0.0687491935
C -1.2095347220 -0.6720217339 -0.5928998565
C 1.3070178986 -0.7247071841 0.0474454367
N 0.4865776537 -0.4712252546 1.2301869311
C 1.0156222554 0.4275912047 2.2487264592
C 1.7718824880 -0.3738418874 3.3093908365
C 2.3174876177 0.5000667110 4.4304083846
O 3.0129149849 -0.3402636561 5.3396092861
H 0.9990631787 1.9951458963 -0.0729833311
H -0.0100182019 1.6615780099 -1.4804704563
H -0.7668782331 2.0479987236 0.0669165706
H -1.2583782819 -0.6174304318 -1.6865523690
H -1.2051951844 -1.7226398429 -0.2939063465
H -2.1207990182 -0.2109382650 -0.1941215611
H 1.3761513400 -1.7602824596 -0.2781355795
H 2.2326315034 -0.1576619232 -0.0575016705
H 1.6827446317 1.2041977526 1.8367335973
H 0.1675998287 0.9493664165 2.7112147477
H 1.1084220267 -1.1343756903 3.7333253609
H 2.6078181623 -0.9075973957 2.8419077185
H 2.9856077262 1.2721864700 4.0132160883
H 1.4880141327 1.0272320458 4.9308255275
H 3.3499148414 0.2060974617 6.0554112583