17

N -0.1593950371 1.3852008652 0.1842000308
C 0.0844368245 -0.0428761011 0.0217719712
C 0.9818509284 -0.5186895538 1.1621681915
O 0.3271366207 -0.3458223221 2.4457784169
C 0.1638123488 -1.7730636001 2.6214567939
C 1.0325599902 -2.0755024105 1.3934452403
O 0.4148553780 -2.9037987096 0.4523572201
C 2.2961539087 0.1328419034 1.1427178798
N 3.3694022146 0.5610415696 1.1208424852
H -0.7526410623 1.7289044817 -0.5629127279
H -0.6558468028 1.5385184567 1.0568504030
H -0.8137224070 -0.6782948162 0.0248879280
H 0.6000234945 -0.2143869587 -0.9304590788
H 0.5386826522 -2.1105055634 3.5918467117
H -0.8768055877 -2.0911948209 2.4909763896
H 2.0422653360 -2.4144478327 1.6440607685
H 1.0701815403 -3.1918768376 -0.1908103338