17

C -0.0356571208 1.5426064611 -0.0202905577
C 0.0241657360 0.0146097270 -0.0033877071
C 0.7448224531 -0.5304530011 -1.2329680702
O 0.8360998236 -1.9669252279 -1.2006954205
C 1.0531246698 -2.5040990119 0.0216450814
N 1.0558183981 -1.9545968875 1.1619761119
C 0.7376499927 -0.5327657386 1.2400281150
C 1.3094743112 -3.9271148976 -0.0837073982
N 1.5122278837 -5.0611978218 -0.1666512166
H 0.9703024175 1.9770309909 -0.0400457920
H -0.5789564355 1.9120567542 -0.8959499051
H -0.5441296353 1.9217637268 0.8713817428
H -0.9975924995 -0.3863666646 -0.0150663854
H 0.2190455156 -0.2958723181 -2.1609939097
H 1.7628681075 -0.1235934608 -1.2981821760
H 1.6745377634 0.0147546644 1.4167715200
H 0.1258710189 -0.3796045445 2.1357475575