18

C -0.2061891021 1.5392824649 0.0772427212
C 0.0674496212 0.0389969342 -0.0108350112
N 0.9401964982 -0.3262563226 -1.1204641516
C 1.8603318666 -1.3158981954 -0.8385492261
O 2.4981479623 -1.9418200996 -1.6550270965
C 1.9004541578 -1.4411506990 0.6615448631
C 2.2305082167 -0.1524670136 1.4101962054
C 0.8043464920 -0.5585565521 1.1968189828
O 0.0172725011 -0.9716663921 2.2670347278
H 0.7243970242 2.1045857169 0.1793181833
H -0.7282856317 1.8984420974 -0.8153986003
H -0.8456256623 1.7551354451 0.9398386408
H -0.8931601771 -0.4935359280 -0.0809703279
H 0.6822487143 -0.1607155588 -2.0811293825
H 2.1658586737 -2.3935813244 1.0987283460
H 2.6162229146 -0.2901077934 2.4146486911
H 2.6564271225 0.6795517038 0.8590918849
H -0.0870723219 -0.2290390933 2.8713674397