18

C -0.1354240128 1.4927252270 -0.1075863523
C 0.1632803846 -0.0056369931 -0.1418521843
O 1.2970720740 -0.2931588503 -0.9571872785
C 0.5001301278 -0.5360840898 1.2521958292
N 0.5841125350 -1.9838821696 1.3074648887
C 1.4819771773 -2.8222526764 0.7368050716
C 1.0610216845 -4.0735078053 1.1171641298
N -0.0540117652 -3.9446341645 1.8879280570
N -0.3429273640 -2.6806282534 2.0034780087
H 0.7193951675 2.0465262322 0.2931864825
H -0.3352927789 1.8643846417 -1.1178789454
H -1.0153274065 1.7073783468 0.5071627134
H -0.7186717128 -0.5520157998 -0.5086737579
H 1.0666644189 -0.1110907510 -1.8733152337
H 1.4525961164 -0.1033005858 1.5763062805
H -0.2768735097 -0.2551675666 1.9647292104
H 2.2876531610 -2.4592992777 0.1239781632
H 1.4850385530 -5.0378344244 0.8887133272