23

C 0.0697324864 1.5895189248 -0.1006563064
C 0.0669320097 0.0606411597 -0.0216594602
C 0.6121398838 -0.5851978937 -1.3231851249
C 1.0347357785 -2.0291806107 -1.0578089165
C 0.1654746993 -2.7097376019 0.0224215241
C 1.1549037336 -1.9864336340 0.9591149705
O 2.1443410595 -1.9883863503 -0.1131022845
C 0.7667402882 -0.5275826974 1.2503890425
C 2.0038986004 0.2420126377 1.7330893061
H 1.0831946774 1.9875162527 -0.2119952302
H -0.5141422346 1.9282874206 -0.9636357943
H -0.3717335199 2.0401583238 0.7950524196
H -0.9843168354 -0.2430552512 0.0533711242
H -0.1500123977 -0.5333543110 -2.1108605618
H 1.4930174035 -0.0457734298 -1.6914495597
H 1.2883089384 -2.5842712182 -1.9653001441
H -0.8994577196 -2.4772652192 0.0814250872
H 0.3176210162 -3.7899981150 0.0373939193
H 1.5192429068 -2.5082471765 1.8496052661
H 0.0277180491 -0.5276425687 2.0642888910
H 2.7815973058 0.2514907655 0.9652272996
H 1.7619528299 1.2737746262 2.0001310667
H 2.4255077808 -0.2385598734 2.6231741358