21

C -0.0903117888 1.5458818767 0.0758173272
C 0.1784701050 0.0792577594 -0.0095029288
C 0.6775479303 -0.7344156900 -1.2129181633
C 1.2823474175 -1.7791180108 -0.1952405339
C 0.7725711790 -3.2086849922 -0.2711507752
O 2.6987709963 -1.7168819490 -0.1338494766
C 0.7321693281 -0.8954702046 0.9517861079
C 1.2668218633 -0.7897939566 2.3411656651
O -0.6850350223 -0.8133737322 0.7292241965
H 0.7652543375 2.1175784915 -0.2980428581
H -0.9652252038 1.8163601267 -0.5265654403
H -0.2875099311 1.8434249407 1.1092766486
H -0.1026473439 -1.0842935356 -1.8948723825
H 1.4778389029 -0.2408364105 -1.7698263405
H 1.0611478270 -3.6754902312 -1.2214508412
H 1.1900052549 -3.8092398675 0.5434389445
H -0.3176678548 -3.2241393076 -0.2036282063
H 3.0512811829 -2.2073031103 -0.8839920742
H 2.3545388342 -0.6843436321 2.3145099494
H 0.8344033607 0.0707318100 2.8588684538
H 1.0260633352 -1.6884644649 2.9204974678