17

C -0.0515832791 1.5670835717 -0.0824874018
C 1.4922076016 1.4532351867 0.0122356941
C 2.0881015154 1.1810816670 -1.3493210502
C 2.6595466640 -0.1728993011 -1.4367978294
C 1.8898930841 -0.9194931692 -0.3455509323
C 0.6030560498 -0.7196698252 -1.1721266017
C -0.0203771289 0.0369350530 0.0220814719
N 1.3621376680 0.0864623592 0.6666896725
N 1.3665791313 0.1582105493 -2.1633745688
H -0.4963722222 2.0174885721 0.8068696303
H -0.4655579255 2.0237903076 -0.9837350084
H 2.0487058195 2.1990177789 0.5858382670
H 2.4834470042 1.9952604169 -1.9488684582
H 3.5650141220 -0.4616650781 -1.9577546976
H 2.2532088029 -1.8546207919 0.0768870849
H 0.0545053719 -1.4993777800 -1.7015295502
H -0.8115119788 -0.4945238168 0.5579815078