18

N 0.0713718118 -1.1998895516 -0.1367951626
C 0.0042854522 -0.0528667480 -0.0134453269
C -0.0524554151 1.4004859256 0.1361917448
C 1.3343048159 2.0482838510 0.0730786891
C 2.1128539173 2.0710555074 -1.2768169579
C 2.5410292642 3.5404947490 -0.9825664987
C 1.4360622860 3.5798819942 0.0747314723
C 0.3769269746 4.5762363822 0.2551196061
O 1.4197700677 4.3947878204 1.2258420049
H -0.6960814826 1.8065717114 -0.6528919929
H -0.5338071768 1.6325034422 1.0938440529
H 1.9650065197 1.6432444973 0.8711006145
H 2.9066660954 1.3336723253 -1.3961119990
H 1.4379573869 2.0046893287 -2.1345294865
H 3.5314843646 3.6003597620 -0.5227656531
H 2.4845334409 4.2614590079 -1.8005554995
H 0.4173222541 5.5091728519 -0.3057854433
H -0.6184598065 4.2774342433 0.5819132258