20

C -0.6490109416 1.4021967305 0.0626431159
C 0.1798417098 0.1104392201 0.0160504155
C 0.9675688631 0.0413445142 -1.2796090714
C 2.1734833016 -0.4431220970 -1.5893411829
C 3.2118442016 -1.1046254675 -0.7104731554
C 2.7345017118 -2.3749250245 0.0095181423
O 1.5240995942 -2.1530531936 0.7406155176
C 1.5625765501 -1.0334157058 1.5254028021
N 0.9676430548 0.0408644348 1.2581869633
H 0.0071309683 2.2778164769 0.0669271867
H -1.3181284477 1.4709251043 -0.8008945524
H -1.2529653164 1.4271043916 0.9730378357
H -0.5196089591 -0.7397150515 0.0007438831
H 0.4049554383 0.4704799865 -2.1087066697
H 2.4614570271 -0.3523221760 -2.6345628992
H 4.0791606787 -1.3828993744 -1.3187716368
H 3.5855712453 -0.3955546118 0.0373508808
H 2.4933162727 -3.1676452122 -0.7026250806
H 3.5245674245 -2.7412727327 0.6826964079
H 2.1583907930 -1.1273075420 2.4380773476