21

C 0.0288390141 1.5303881843 -0.0478676594
C -0.0260657472 0.0120540468 -0.0438027286
O 0.6970366383 -0.4685173029 -1.1583577727
C 0.7066542982 -1.8757318812 -1.2503541192
C 1.4782389266 -2.2644340981 -2.5053043222
C 1.5559952297 -3.7898900663 -2.6915103834
O 0.2623402551 -4.3914503925 -2.7448408079
C 2.3597753686 -4.1388651410 -3.8666292357
C 2.9849816780 -4.4037297171 -4.8586661978
H 1.0643533369 1.8770110838 0.0141244044
H -0.4100145730 1.9275006314 -0.9676431054
H -0.5249583509 1.9348822098 0.8046320250
H 0.4041476986 -0.3880943033 0.8904496356
H -1.0713908874 -0.3384872858 -0.0891372569
H 1.1836716412 -2.3181999800 -0.3572570859
H -0.3180592441 -2.2743759920 -1.2969207887
H 0.9995627890 -1.8152776022 -3.3833624441
H 2.4931571060 -1.8563599529 -2.4526148995
H 2.0231573216 -4.2298656677 -1.8008781307
H -0.1173650760 -4.1809397189 -3.6055037045
H 3.5480058066 -4.6523700741 -5.7243330525