13

C -0.0127470678 1.4833240880 0.0175160782
C 0.0038183090 -0.0177239899 -0.0106393343
N -0.1005641281 -0.6249418339 -1.1950057303
C -0.0821412242 -1.9634342386 -1.1821637585
C 0.0373919674 -2.7080053556 -0.0206063474
C 0.1378241385 -1.9512139892 1.1424440313
F 0.2559816845 -2.5721334399 2.3069675293
N 0.1241255626 -0.6419279054 1.1753284947
H 0.9085556277 1.8619018693 0.4713611554
H -0.1138046469 1.8794214894 -0.9925925807
H -0.8412420412 1.8395525715 0.6378031974
H -0.1672974212 -2.4563101968 -2.1476030752
H 0.0526492997 -3.7892511688 -0.0055445698