18

O 0.0291393560 1.2687175246 0.1850357674
C 0.0013202762 -0.1294073458 -0.0036266015
C -1.4682564838 -0.5797998904 -0.1746543382
C -1.2973093361 -0.4412533358 -1.7111425540
C 0.2388018192 -0.5753441122 -1.4848341643
N 0.7323193312 -1.9256740746 -1.5877803293
C 0.1796021166 -2.9098084186 -1.0203318110
O -0.9192615435 -3.0525255434 -0.2349419102
C -1.7369946823 -1.9948530598 0.2977595790
H 0.9375259499 1.5661171856 0.0667877020
H 0.6073567449 -0.6570208184 0.7471774993
H -2.1967583726 0.0779599470 0.3080433063
H -1.7611190628 -1.1955210288 -2.3508780217
H -1.5712070453 0.5563411496 -2.0582362965
H 0.8806426467 0.0863279844 -2.0733471273
H 0.6054053349 -3.9039992517 -1.1533348061
H -1.6283089505 -2.0484628019 1.3884450934
H -2.7663253187 -2.2761118999 0.0491433526