21

C -0.4748914551 1.4287144035 0.0147889227
C -0.0938160666 -0.0520291203 0.0237102542
C 0.7555844124 -0.5080109766 -1.1890450811
C 1.6886825795 -1.6363632635 -0.6926086521
O 3.0272946166 -1.1493894262 -0.8077812909
C 1.2796987209 -1.8813554721 0.7766793240
C 0.7001137754 -0.5387709700 1.2745941579
C 1.7864230933 0.4323880767 1.6983795619
O 1.7616864348 1.0506563533 2.7347509180
H 0.4106620855 2.0727750326 -0.0118800273
H -1.0832347890 1.6670657891 -0.8637334762
H -1.0518755734 1.6961945790 0.9056356768
H -1.0212444713 -0.6396393617 0.0258530679
H 0.1248654556 -0.8306247327 -2.0214974398
H 1.3864495865 0.3054647670 -1.5600850748
H 1.5807998128 -2.5527276163 -1.2885104416
H 3.6225567580 -1.8300898269 -0.4767315523
H 0.4882635871 -2.6389128822 0.8163950251
H 2.1148566363 -2.2571560070 1.3778565934
H 0.0389678915 -0.6579094515 2.1375602569
H 2.6320245493 0.5388830559 0.9866037374