17

C 0.0975998908 1.3761065954 -0.0804991028
N 0.3469194100 -0.0577146366 -0.0972342368
C 0.6108249360 -0.6216817146 0.9969859932
N 0.7157550994 -0.2585792861 2.3332978976
C 1.0937758187 -1.5999125922 2.7999103894
C 0.8706745371 -2.1081814905 1.3350568900
O -0.2728358611 -2.9310027013 1.2512167318
C 2.0361949955 -2.6914880971 0.6825545074
C 2.9884488613 -3.1780753089 0.1340236987
H 1.0344336130 1.9365342936 -0.2045859711
H -0.5494185113 1.6411502632 -0.9215476354
H -0.3859073453 1.7263217764 0.8445545671
H 1.0023534589 0.6266349751 2.7193647470
H 2.1242280153 -1.6959574948 3.1523084623
H 0.3956103885 -2.0391793237 3.5168624780
H -0.5611181805 -2.9168067412 0.3304370890
H 3.8269621237 -3.6072667566 -0.3567581555