16

O 0.0647494023 1.4613014063 -0.1543425572
C 0.0406714133 0.1080971992 0.2739544927
C -1.2943425697 -0.4895933342 0.2449358353
C -2.4017294616 -0.9584587111 0.1657448559
C -3.7316307235 -1.5022666230 0.1316226360
N -4.3169817352 -1.8229689210 -1.1761791933
C -4.0256055124 -2.9351813352 -0.2595621584
C -2.9211007182 -3.8428480900 -0.6869540439
O -2.8296320793 -4.9890750947 -0.3283536961
H -0.3504628661 1.4975592697 -1.0225384102
H 0.7276645647 -0.5162307412 -0.3192219821
H 0.4253655620 0.1123178608 1.2997656647
H -4.4015277489 -1.1127078273 0.8961101748
H -5.3134709259 -1.6215474902 -1.1745577675
H -4.8354660316 -3.4258409886 0.2743787392
H -2.1870230699 -3.3686068192 -1.3710312497