18

O -0.6230508707 0.7157850982 0.7024666615
C 0.0725231455 0.9825994186 -0.2422671255
C 1.3100022382 1.8498099250 -0.1910869876
C 1.2269447401 3.0249497248 -1.1754238319
N 2.4857571939 3.7408257940 -1.2494840275
C 2.8794912638 4.5735335919 -0.0841247277
C 3.2502700775 5.6845996406 -1.0778685286
O 3.8373661417 6.7202235412 -1.0144335964
C 2.5611367487 4.8834530043 -2.1924021937
H -0.1662502426 0.5867683690 -1.2582242747
H 1.4541536930 2.1931871146 0.8372344469
H 2.1727056702 1.2317470317 -0.4753113888
H 0.9967669942 2.6441476709 -2.1782780510
H 0.3894004311 3.6905279506 -0.8853685694
H 2.0391421486 4.8805938818 0.5611997173
H 3.6796269328 4.1669720813 0.5420512263
H 3.1273816064 4.6989550437 -3.1110734148
H 1.5852490674 5.3253373077 -2.4544521543