19

O 0.0034015790 1.3792813125 -0.2937154685
C 0.0477976076 -0.0173573469 0.0031160102
C -1.3676398603 -0.5968142391 0.0005870326
O -2.0333435012 -0.2204915412 -1.1912865324
C -1.3679295887 -2.1309817436 0.0762749666
O -0.6775451515 -2.5783777198 1.2275326428
C -2.7898699799 -2.6709242715 0.0632289319
C -3.0995573231 -4.0034211021 0.5848780877
O -3.3563707083 -2.8293656768 1.3762031852
H -0.3196713906 1.8384581869 0.4889942019
H 0.6304025213 -0.4710180699 -0.8058471290
H 0.5527144033 -0.2245074208 0.9523923702
H -1.9090709234 -0.2090916235 0.8850545410
H -1.7194949503 0.6725017098 -1.3893132650
H -0.8320121212 -2.5126997741 -0.8022978106
H -1.3401115778 -2.5819620989 1.9348072904
H -3.4534466070 -2.2145720672 -0.6668882121
H -3.9890193915 -4.5246928530 0.2372763782
H -2.2908114264 -4.6320720610 0.9497738791