13

N 0.0402531511 -1.0792342809 0.1987308511
C -0.0223823685 0.0660807677 0.0677528527
C -0.0540608032 1.5429546367 -0.0801951325
O -0.6940911052 2.1269422831 1.0412237252
C 0.2042376719 3.0215136116 1.7170167468
C 1.4773500529 2.9600602064 0.9312491607
C 1.3535903850 2.1280069217 -0.0922170133
C -0.7918671965 1.8894092851 -1.3210259968
N -1.3394291480 2.1898522358 -2.2919753867
H -0.2356332068 4.0273056882 1.7344712864
H 0.3298215609 2.6880245500 2.7554759913
H 2.3605072260 3.5295758087 1.1894562008
H 2.0772424603 1.8582314959 -0.8471858157