21

C 0.0536191850 1.3706317577 0.4219586541
C -0.2369070351 -0.0171352923 -0.1225905104
O 0.9298227016 -0.4990367874 -0.7686858566
C 0.8029179112 -1.7943789990 -1.2821985510
C 0.0305594308 -2.0159345503 -2.6136060193
C 1.1909279337 -2.9375325968 -3.0733668822
C 2.1006014826 -2.3400047645 -1.9454015203
C 3.0019225680 -1.2471161311 -2.4642283278
O 4.1804709108 -1.1718698061 -2.2293960719
H 0.8852990925 1.3368392043 1.1310570902
H 0.3234069270 2.0524089736 -0.3894387557
H -0.8264363975 1.7707185807 0.9340687439
H -0.5214196452 -0.7043434255 0.6917816569
H -1.0806232194 0.0133552992 -0.8303145595
H 0.4501037476 -2.4873013468 -0.5025354159
H -0.9717750099 -2.4459707971 -2.5610910486
H -0.0091387088 -1.0887098577 -3.1923170556
H 0.9887974536 -3.9961028920 -2.8991051644
H 1.5451807770 -2.8172615068 -4.0996769236
H 2.7008759842 -3.0334404285 -1.3548667473
H 2.5022229303 -0.5017095737 -3.1231865252