17

C 0.1348433539 1.1482581680 0.3480808724
C -0.0465138717 -0.3489221727 0.2652969007
O 0.8172929600 -1.1390148761 0.5509615988
C -1.4566806879 -0.8290102997 -0.1846885571
C -1.3948564037 -1.9670544274 -1.0915963718
C -1.3660752777 -2.9088265677 -1.8365058230
C -2.3025631788 -1.1721486514 1.0490983283
C -1.7481356805 -1.8349515348 2.2304338578
O -2.0348561353 -0.4236764716 2.2315389051
H -0.6125714281 1.5598904107 1.0345838266
H 1.1387724655 1.3830121924 0.7029538841
H -0.0307634357 1.6072428852 -0.6333450006
H -1.9536539182 0.0076451929 -0.6928317503
H -1.3265779232 -3.7406219352 -2.4955958515
H -3.3601426496 -1.3118056054 0.8259689692
H -2.4048666196 -2.4353592187 2.8565565129
H -0.6932502692 -2.0932833285 2.2519015185