21

C -0.1054021902 1.4721500019 -0.1316417370
C 1.2762440609 0.8918922665 0.0474754646
C 0.0679105868 -0.0148374649 0.0738994914
C -0.3688721220 -0.7250730683 1.3167170821
C -0.3988343062 -2.2369389577 1.3500087681
C -1.6907977643 -1.4619236600 1.4202670781
C -2.2122997815 -1.1828624612 2.8155917138
O -1.0743288341 -0.7685744804 3.5679005062
C -0.1811577038 -0.0906845399 2.6907849523
H -0.5145099790 2.0662473914 0.6777256542
H -0.3976177792 1.8147182509 -1.1182475188
H 1.9374949386 0.8461641345 -0.8108257171
H 1.7858584595 1.0890331527 0.9847432743
H -0.0727995155 -0.6148776542 -0.8214678207
H -0.1776668231 -2.7528071067 0.4216623794
H -0.0557033556 -2.7448020350 2.2464725786
H -2.3881291629 -1.4881974621 0.5909023014
H -2.9812733438 -0.3932500474 2.7844468131
H -2.6345528388 -2.0546816547 3.3271944938
H 0.8264841404 -0.2113947950 3.1029598831
H -0.4110283962 0.9866127594 2.6525380692