20

C -0.4408776723 1.5613277771 -0.1711448352
C -0.0628896049 0.1162294166 -0.0294837220
C -0.7939053011 -1.0528980388 -0.6914867477
O -0.6094128926 -1.8985491155 0.4760960690
C 0.0395462950 -0.8294483200 1.1665432934
C 1.2850547095 -0.3776369648 0.4426087170
N 2.1626385462 -1.1924806376 -0.3640098186
C 3.3418440347 -1.7361511473 0.3170763228
C 2.2305039419 -2.6324965281 -0.0816923093
H -0.1561215163 1.9492095918 -1.1566712842
H -1.5205736420 1.7084298433 -0.0527143507
H 0.0643849453 2.1762722210 0.5803309939
H -1.8608961317 -0.8632035160 -0.8554835578
H -0.3421746308 -1.4778882250 -1.5943549777
H -0.1695115273 -0.7205845904 2.2265180853
H 1.8201026402 0.4028456042 0.9822800646
H 4.2655852114 -1.7012828977 -0.2537585897
H 3.4539776184 -1.5291382507 1.3801639799
H 1.5904161400 -3.0254183076 0.7000375928
H 2.3242238163 -3.2663138244 -0.9590112956