21

C 0.1514038456 1.7408174713 -0.1644392275
C 0.0570741594 0.2361672238 -0.0668078464
C 0.4997195603 -0.6887613884 -1.1557971535
C 1.1231345979 -0.2074831195 -2.4677496119
C 2.6054654726 0.1268292097 -2.3954231608
N 2.9706535793 1.4245939194 -1.8030521435
C 3.3107233387 0.1805618869 -1.0891056150
C 2.5839151783 -0.1230545980 0.2137099088
N 1.2149978249 -0.6419034329 0.1238624774
H 0.9870337696 2.0693622371 -0.7856622138
H -0.7791163206 2.1432660252 -0.5817721479
H 0.2738470877 2.1804868816 0.8329240243
H -0.7966993371 -0.0958976077 0.5263014656
H -0.0678002328 -1.6110100984 -1.2766785653
H 0.9985810308 -1.0098259638 -3.2017792507
H 0.5799202135 0.6585121433 -2.8627790311
H 3.1864224114 -0.1963810161 -3.2559008009
H 3.7939209462 1.8052696484 -2.2605892509
H 4.3602086022 -0.1056393954 -1.0838753250
H 3.1695831953 -0.8902267697 0.7358859265
H 2.5947800770 0.7678463730 0.8523699015