19

C -0.0713462889 1.5152584328 0.0147743362
C 0.0177602825 -0.0093313283 0.0064401823
C 0.9945557811 -0.5751580177 -1.0869980798
C 1.9724750730 -1.3200046743 -0.1644316769
O 2.1475677446 -0.3766085714 0.9431543060
C 0.7195697171 -0.6027776179 1.2597589786
C 0.2936005395 -0.2355474769 2.6494069842
C 1.0280639398 -2.0513530039 0.8093503623
O 0.8148548833 -3.1581887230 1.1951212535
H 0.9129453789 1.9539696231 0.2050501484
H -0.4238028681 1.8840551666 -0.9540753799
H -0.7651930131 1.8780036209 0.7798975766
H -0.9840953416 -0.4404930580 -0.0983708496
H 0.5070147336 -1.2344265434 -1.8104200532
H 1.5022029398 0.2259670501 -1.6307478908
H 2.8988384972 -1.7353968678 -0.5557380328
H 0.3867965911 0.8406461457 2.8212664961
H -0.7533739416 -0.5165197146 2.8006802010
H 0.9008115518 -0.7614318422 3.3902649278