20

C 0.0655682794 1.5511485193 0.0435659819
C 0.0384235091 0.0258949149 0.1027847902
C 0.6110814288 -0.6829143562 -1.1608105098
C 1.4621191485 -1.8679723145 -0.6543643396
O 2.8412694081 -1.4588905589 -0.7530024832
C 1.0482080007 -2.0366008868 0.8181250791
C 0.8391995478 -0.5852756578 1.2837157372
O 2.0735906439 0.0723741475 1.5263891511
H 1.0947441825 1.9151342536 -0.0143958873
H -0.4833871653 1.9211518585 -0.8287351761
H -0.3894680226 1.9903522544 0.9375902225
H -1.0019094571 -0.3006786403 0.2328167477
H -0.1881442163 -1.0274312874 -1.8222655368
H 1.2520503869 -0.0198164293 -1.7489388006
H 1.3138912849 -2.7776803775 -1.2490103948
H 3.3852335001 -2.1678884419 -0.3924833569
H 0.1044390159 -2.5923909628 0.8752244986
H 1.7929226668 -2.5720849127 1.4160184361
H 0.2785491248 -0.5190331006 2.2213779151
H 2.6534992731 -0.1463378517 0.7823412056