23

C 0.1224113823 1.4913197401 0.2874169623
C 0.0173352171 0.0140098846 -0.1345350396
C -1.3917930065 -0.5303595298 -0.1076700941
C -2.0119039336 -0.9287347101 -1.2221903140
C -3.4161583617 -1.4676890043 -1.2854759762
C -4.1873932559 -1.2259835598 0.0192920610
C -3.2993318042 -1.5162210867 1.2306004746
C -2.0815075748 -0.5944200678 1.2509780584
O -1.2104892576 -1.0917261506 2.2711848867
H 1.1592805156 1.8378743757 0.2379326275
H -0.4813553827 2.1280294679 -0.3668590872
H -0.2277062161 1.6549497172 1.3131712785
H 0.4247836111 -0.0989349916 -1.1446228922
H 0.6512776128 -0.5931892760 0.5244483854
H -1.4741312488 -0.8735949045 -2.1681087938
H -3.9478486770 -1.0179194871 -2.1339289491
H -3.3787768366 -2.5455847809 -1.5058025204
H -4.5207465031 -0.1803669204 0.0553726887
H -5.0914022271 -1.8430978504 0.0492636594
H -3.8512188485 -1.4043481949 2.1690690347
H -2.9347289538 -2.5503380103 1.1938761590
H -2.4149508354 0.4210727674 1.5259509179
H -0.5717783855 -0.4058920175 2.4859510126