14

N -0.1626217588 1.1405980861 -0.6404625634
C -0.0799776431 0.0105655944 -0.1170333774
O 1.0314988947 -0.7161707746 0.3233213251
C 0.2095376803 -1.8548932367 0.6793899169
C -0.3622569381 -1.7565647707 2.1151449348
O -1.4760969490 -0.9741131307 1.6555112697
C -1.0625684339 -1.0816560993 0.2769305734
C -0.7599603748 -3.0991127247 2.6972723326
O -1.8687856199 -3.5565519642 2.6700051818
H 0.7487001837 1.5939562072 -0.7259607404
H 0.5886483363 -2.7915643237 0.2771459304
H 0.2888751199 -1.2198243167 2.8174795122
H -1.8604463087 -1.3806818756 -0.4003679883
H 0.1023740416 -3.6528575308 3.1376925325