21

C -0.1468877562 1.5989096150 0.0245038677
C 0.0181986343 0.0723256811 -0.0305350394
C 0.8540583286 -0.4170336916 -1.2187676105
C 1.8384726821 -1.2615605913 -0.8785143606
C 1.8910781359 -1.4399688303 0.5954522654
C 2.1849036472 -0.2209970065 1.4364633987
C 0.7526077890 -0.5680029693 1.1469947611
C 0.2838550418 -1.7377131491 2.0365719160
C 1.4461820240 -2.6280927326 1.4736966701
H 0.8220949846 2.0994199144 0.1150531146
H -0.6341150908 1.9759870472 -0.8812197764
H -0.7596969510 1.8925420122 0.8824410043
H -0.9903371416 -0.3635366515 -0.1003561332
H 0.6642970521 -0.0649423646 -2.2294125831
H 2.5237585918 -1.7265637176 -1.5802044991
H 2.5636493649 -0.3488888297 2.4482348662
H 2.6054835506 0.6246663755 0.9049328550
H 0.2802788771 -1.5525001402 3.1162951488
H -0.7014908647 -2.1131465595 1.7491602988
H 1.0787023150 -3.4755191754 0.8915211844
H 2.1832943354 -2.9955081863 2.1950154212