16

O -0.0315351772 1.3844903128 0.2750268065
C -0.0307186431 -0.0247665970 0.2304718349
C -1.3901551712 -0.5905454838 -0.1588409820
C -1.4957745224 -2.1338568661 -0.0750375832
N -2.4282570714 -2.3998021978 1.0282922263
C -2.8302030748 -1.2631903347 1.4364002669
O -2.3610425916 -0.1336192655 0.8267254019
C -3.7563438694 -1.0430603260 2.4954522193
C -4.5356357713 -0.8426497160 3.3872214289
H -0.7376157648 1.6412150785 0.8793871150
H 0.7105203632 -0.3216321689 -0.5200662203
H 0.2740153684 -0.4676966323 1.1935770707
H -1.7028016414 -0.1797099539 -1.1226314934
H -1.8782168971 -2.5843868102 -0.9967114804
H -0.5272329892 -2.6025044240 0.1372553239
H -5.2266931467 -0.6756887751 4.1769430748