21

C -0.4884969132 1.1385483464 -0.1678086787
O -0.2397499582 -0.2535562419 -0.2653911068
C 0.7720421011 -0.5804758686 -1.1757818597
C 1.0109517183 -2.1061299879 -1.1375938786
C 0.7335854959 -2.5913508468 -2.5529529668
C -0.6640187522 -2.4215823341 -3.1423172217
C -1.9200440569 -2.2211230839 -2.3250543296
C 0.3916025018 -1.3627288627 -3.3459060657
O 0.4043582147 -0.2323693835 -2.5084833276
H 0.4236029198 1.6840839548 0.1177661944
H -0.8611832383 1.5463901282 -1.1139089407
H -1.2423511700 1.2733695489 0.6106961075
H 1.6690009494 0.0104087516 -0.9269576718
H 2.0453601458 -2.3244267998 -0.8594400297
H 0.3607119847 -2.5473565873 -0.3778406618
H 1.3734480212 -3.3671517280 -2.9571599513
H -0.8129687241 -3.0362706378 -4.0286566208
H -1.7607386361 -1.5384448829 -1.4891122211
H -2.7173878226 -1.8052424898 -2.9508814120
H -2.2785023193 -3.1757742580 -1.9238634154
H 0.7874143184 -1.1455950467 -4.3324930322