16

C -0.0021856438 1.5737156702 0.0121019081
C 0.0258536559 0.0677851803 -0.0716435929
O -1.1162732169 -0.5894528930 0.3894326511
C 0.6228368724 -0.7316193446 -1.2019413477
C 1.9207729113 -0.1092650818 -1.6939470973
O 2.4539459425 -0.0358434561 -0.3369245309
C 1.3108491209 -0.7237590206 0.1666185645
C 1.4522828177 -1.7109274425 1.1847489761
N 1.5411505428 -2.4876162259 2.0384030253
H 0.9626001815 2.0081788926 -0.2552253785
H -0.7766322574 1.9775247800 -0.6468447759
H -0.2321645498 1.8840009472 1.0375190233
H -1.1813942950 -0.4609173218 1.3435122599
H 0.0625912946 -1.5276944530 -1.6718187787
H 2.5262742371 -0.7896656204 -2.3003942581
H 1.8677136762 0.8743649095 -2.1707152286