18

O 0.2294935199 1.3938448377 -0.1242684178
C 0.1371985812 -0.0028844004 0.0323853546
C 0.1947118678 -0.5396930622 1.4916289495
N -1.2798331435 -0.6672279641 1.4602230581
C -1.2964287501 -0.5909278633 0.0090149367
C -2.5395293830 -0.1210995712 -0.7851095666
C -1.9461972941 -0.7424189788 -2.0673875528
C -1.7832050467 -1.7517982539 -0.9094480886
O -3.1669015489 -1.4378600437 -0.4734569820
H -0.3928091230 1.7980609499 0.4913134414
H 0.8509130452 -0.4354464144 -0.6705352181
H 0.7453565469 -1.4867804510 1.5733092614
H 0.5767032412 0.1616569526 2.2413238557
H -1.7158064435 -1.4747801171 1.8881248177
H -3.1559557674 0.7686421299 -0.6569303732
H -2.6877183783 -1.0313895758 -2.8119104200
H -1.0533177144 -0.2849210153 -2.4992227135
H -1.4914992892 -2.8030805189 -0.9335165627