16

C 0.0047287907 1.4748181361 0.0225327070
N -0.0113042494 0.0315600098 0.0227362199
C -0.0396703594 -0.8013619547 -1.1045019404
C -0.0194745557 -2.1256195636 -0.7334232188
C 0.0265213909 -2.1309752870 0.6953505271
C 0.0319446945 -0.8063018106 1.0958332255
N 0.0725784592 -0.7962329341 2.4660738344
C 0.0911557854 -2.1424710077 2.8246781790
N 0.0639859780 -2.9606469957 1.8020280869
H 0.9401137759 1.8695222758 0.4381640563
H -0.0883317812 1.8290045295 -1.0054855290
H -0.8333086036 1.8823258887 0.6005315917
H -0.0726041609 -0.3505098573 -2.0839267605
H -0.0388125263 -2.9667246036 -1.4081352913
H 0.0930830402 -0.0128954089 3.0944784121
H 0.1253477618 -2.4314664267 3.8647913001