17

N 0.1383360822 0.8882272641 -0.8013283906
C -0.0435968478 0.0346188413 0.2393646510
O 0.7415056684 -0.1095610389 1.1618505697
C -1.3166220104 -0.7355629431 0.1533434644
C -1.9223679046 -1.3963556353 1.3621572703
C -1.5020581662 -2.2486175239 0.2084480212
C -2.4087771735 -2.0902151449 -1.0247211781
C -3.5238562329 -1.1310260764 -0.8747310972
N -2.1635949395 -0.6065853733 -1.1045630916
H 0.9921704491 1.4168990849 -0.8538193021
H -0.5193951596 0.8864252334 -1.5645457779
H -1.2140481983 -1.4013033433 2.1839617754
H -2.9564158361 -1.2618222833 1.6571797085
H -0.7233585592 -2.9954610887 0.2790106125
H -2.2948159567 -2.7110690661 -1.9071733868
H -4.1591705309 -0.9892329141 -1.7445178987
H -4.0292119241 -0.9666477825 0.0692701902