15

C -0.0278530478 1.5025443233 0.0431518085
C -0.0085649429 0.0030477026 0.0289380361
C -0.0268122407 -0.7968705408 -1.0849052218
N 0.0008895751 -2.1161916697 -0.6737981294
C 0.0361667291 -2.1804497925 0.6791543524
C 0.0316558504 -0.8810039240 1.1645964094
C 0.0629978228 -0.5282665040 2.5765390458
O 0.0964971338 -1.3248651467 3.4935202068
H 0.8577688659 1.9179111850 0.5368711817
H -0.0536350038 1.8994984842 -0.9755922595
H -0.9034084658 1.8949333271 0.5724398441
H -0.0567389924 -0.5433626682 -2.1327575491
H -0.0043193622 -2.9110891080 -1.2897628353
H 0.0620096340 -3.1155792996 1.2139220250
H 0.0542306746 0.5658540211 2.7824364253