21

C 0.0666417905 1.4950258364 0.0222651588
C 0.0420824983 0.0390991744 -0.0044630511
C 0.0360780474 -1.1653206830 -0.0269853123
C 0.0021319506 -2.6232346064 -0.0424951231
C -1.4430373363 -3.2068291527 -0.0328518313
C -2.2353184514 -2.7858712992 -1.2841072303
C -1.3937473834 -4.6617947340 0.1061280913
C -1.3324906052 -5.8609070619 0.2035870416
C -1.2710489314 -7.3105360131 0.3301159139
H 0.8674952077 1.8679542472 0.6705164574
H 0.2302845510 1.9113216328 -0.9780148025
H -0.8781587366 1.9027181042 0.3988335091
H 0.5250520017 -3.0059022870 -0.9282978138
H 0.5426051185 -3.0182730250 0.8253745653
H -1.9497487132 -2.7888439104 0.8471269624
H -1.7673031213 -3.1880408985 -2.1883308624
H -3.2599192096 -3.1634960157 -1.2375297517
H -2.2633047553 -1.6958734697 -1.3624992616
H -2.2462963682 -7.7278584608 0.6047551558
H -0.9640029892 -7.7811916101 -0.6105453621
H -0.5536578346 -7.6141239475 1.1007198066