20

O -0.0847594179 1.4971529379 -0.1400153055
C 0.0277650162 0.0956540580 0.0630006231
C -1.3748975556 -0.4948252434 -0.0082593635
C -1.4103231987 -2.0323462421 0.0490091529
C -0.8967037839 -2.6507379843 1.3429363849
C -1.7765728290 -3.4828907138 1.9037641844
C -3.0414102020 -3.5190861857 1.1122294679
N -3.7163434684 -2.1868324972 1.0700549168
C -2.8292783778 -2.6029486018 -0.0384612646
H 0.7902608029 1.8848712307 -0.0478417566
H 0.6684950421 -0.3660752927 -0.7078583748
H 0.4854853987 -0.1243599593 1.0402096617
H -1.9861742589 -0.0908414318 0.8036140568
H -1.8291545277 -0.1603693823 -0.9489347877
H -0.8205555688 -2.4189346700 -0.7969246445
H 0.0769048157 -2.4088634553 1.7543472851
H -1.6306317530 -4.0369993534 2.8233271767
H -3.6518732056 -4.4137506512 1.0530318825
H -4.6802078366 -2.3217725349 0.7678628831
H -3.2695283917 -2.7874655875 -1.0127468986