16

O -0.0287760977 -0.0057727540 0.1504591652
C -0.0290203621 1.1844500331 0.0210088546
C -1.1336930177 2.2606896219 0.0398600768
C -1.4942540768 2.6337666582 -1.4139148349
C -0.2928423814 3.4451560165 -1.8462060731
C 1.0607653586 3.1020752359 -1.3380319776
C 1.0490270955 2.2610837209 -0.0336683359
C -0.0172949150 3.3019967998 0.4284395056
N 0.2693624694 4.2413654792 -0.7320765875
H -1.9888602794 2.0979096118 0.6953283513
H -1.6667410806 1.7525301877 -2.0391349909
H -2.3964486510 3.2541531806 -1.4476454229
H -0.3336894782 3.9813972186 -2.7899070255
H 1.9591513673 3.2819054241 -1.9191831101
H 2.0217522165 2.1140626919 0.4328735305
H -0.0308726276 3.7642757838 1.4112215441