13

O 0.4134540194 0.0025283440 0.7742447697
C 0.1849190999 1.0813034094 0.3027534314
N 1.0907856439 1.7702085280 -0.5219717259
C 2.4900798332 1.8639942893 -0.2563637503
C 1.6060256106 3.1117625752 -0.2401760211
C 1.6595887576 4.0255182388 -1.4421801998
O 1.6385970776 5.2211483935 -1.3807445457
C 1.3324927835 3.7286326960 1.0381991021
N 1.0929988002 4.2146986044 2.0584445316
H -0.7733567486 1.6192023907 0.3989586710
H 2.8509681696 1.5151795697 0.7073151452
H 3.1583922047 1.7189504994 -1.1008488761
H 1.7255998584 3.4602937915 -2.3958583621