14

C 0.0027909123 1.4841351671 0.0977685442
C 1.2970744003 0.7426960142 0.0062251050
O 2.0198947500 0.4903416158 1.2178695685
C 1.2281789326 -0.3379149689 1.9472866604
C 1.2044776267 -0.9876548390 3.1314718121
O 0.0663026399 -1.7387295035 3.1704591831
N -0.6747281978 -1.5660316453 1.9931000955
C 0.0359852937 -0.7269916613 1.2909632455
C -0.0202658992 -0.0412961365 -0.0147037544
H -0.2792008010 1.9313050632 1.0442902597
H -0.3031177420 2.0380955818 -0.7826726217
H 1.9605813849 0.8475617651 -0.8419793976
H 1.8453972927 -1.0523874420 3.9936047659
H -0.4145395832 -0.5205603907 -0.9009722661