20

C 0.0303722664 1.5738782516 0.0594715000
C 0.0290060848 0.0331473083 0.0775149121
C 0.7843787775 -0.5108817186 1.3054583849
C -1.3603263786 -0.5265127264 -0.0174017540
C -1.9855424674 -1.3231201921 -0.9571814548
C -1.4565587411 -1.9048274906 -2.2290204772
N -3.2725950282 -1.5425929496 -0.5520990761
N -3.4859451839 -0.9342456902 0.5779056472
N -2.3347255241 -0.3184422007 0.9071321181
H 1.0557778213 1.9563662633 0.0585442124
H -0.4825542159 1.9611653857 -0.8251259648
H -0.4728045252 1.9823446703 0.9434347618
H 0.5565015277 -0.3120906518 -0.8191597769
H 0.3108479832 -0.1863627481 2.2391795863
H 0.8071414226 -1.6040785993 1.3053896751
H 1.8156437614 -0.1445645639 1.3145544092
H -0.6260021420 -2.5971451684 -2.0520577953
H -2.2564734167 -2.4576533954 -2.7259899636
H -1.0987129199 -1.1322079390 -2.9182716414
H -2.2939901321 0.2151394850 1.7606514171