18

N 0.0554593024 1.3769070434 0.4382369043
C -0.0224324306 0.0580606262 0.0233419262
C -1.2464450051 -0.5186983937 -0.1556421011
C -1.6141400706 -1.9026756473 -0.4183068777
O -2.7944403239 -2.2155365965 -0.4982119690
C -0.5497345041 -2.9868092529 -0.5774830496
C 0.6381561405 -2.5986131893 -1.4712590983
C 1.6109109013 -1.6758441329 -0.7961203949
C 1.3003573046 -0.5585049132 -0.1296452326
H 0.8799930672 1.8929850301 0.1733103932
H -0.7949148106 1.9167817942 0.3874499446
H -2.1195441655 0.1194451065 -0.0369137186
H -0.1802552349 -3.2599202056 0.4200683693
H -1.0676285841 -3.8599647041 -0.9814261193
H 1.1639865331 -3.5042769855 -1.7878587541
H 0.2607743780 -2.1264047544 -2.3906340218
H 2.6624859989 -1.9470896748 -0.8483327631
H 2.1105488835 0.0085466400 0.3238221825