20

C -0.0172937434 1.3506043484 -0.2466831721
N 0.0112680360 -0.0403516697 0.1529183876
C -1.0527233828 -0.6981880410 0.0279251969
O -1.1122004944 -1.9922413164 0.4039009586
C -2.3208955030 -2.6749271106 0.1242495233
C -2.4275280011 -3.5194049853 -1.1800161818
C -1.3852495754 -4.4912377478 -0.5456755616
C -2.3770391108 -4.1395694620 0.6070608645
C -3.5251162532 -4.3258758753 -0.4287564939
H 0.7386889457 1.5269361346 -1.0204615531
H -0.9931971457 1.6874043711 -0.6344955405
H 0.2490865439 1.9846647442 0.6068453364
H -1.9984067392 -0.2961132541 -0.3700634878
H -3.1811987138 -2.0411608418 0.3696516585
H -2.4609356032 -3.1508230836 -2.2057931985
H -1.4136764915 -5.5231213394 -0.9041827491
H -0.3657557111 -4.1221614608 -0.4431988019
H -2.3514660475 -4.4853539000 1.6403618921
H -4.4715610814 -3.8163801766 -0.2241556463
H -3.6868856581 -5.3470482037 -0.7780169012