20

C -0.1699953830 1.6069460511 0.1288970270
C 0.0639669816 0.1092682063 -0.0291306802
C -1.2599369201 -0.6188134790 -0.3121852886
C -1.9090448846 -0.2140100465 -1.6157068800
O -3.0582343961 0.1265561551 -1.7364465497
C 1.2332732038 -0.3701203531 -0.9514359461
C 1.8169066466 -1.0427743275 0.2859632042
C 2.0438489577 -0.0688091524 1.3663383572
N 0.6747322488 -0.5862912385 1.1806842731
H 0.7553754774 2.1589408802 0.3088983707
H -0.6275265088 2.0247882731 -0.7745592375
H -0.8499838375 1.7961835292 0.9661469935
H -1.0548428553 -1.6973973316 -0.3590964471
H -1.9678349120 -0.4513972028 0.5043468375
H -1.2379527485 -0.2583501777 -2.5057614401
H 0.9139270919 -1.0698618116 -1.7259400887
H 1.8543176755 0.4021741215 -1.4151118978
H 2.1944235445 -2.0592297472 0.3277322331
H 2.4924752709 -0.4306097720 2.2863962167
H 2.2806025672 0.9648096236 1.1301208727