22

C -0.1809634674 1.5598840905 0.0231620739
C 0.0475614136 0.0461749026 0.0119118375
C 0.6850498394 -0.4541029998 -1.2883739088
C 0.9086098108 -1.9720269965 -1.2881308888
N 1.5134338366 -2.4696137549 -2.5008967568
C 1.0257206135 -2.5909923454 -3.8786673637
C 2.3902869819 -3.2481068497 -4.2327268545
C 2.7360752611 -3.0522458589 -2.7374415789
O 3.6671462243 -3.2921376993 -2.0129707783
H 0.7628052040 2.1032431808 -0.0955817653
H -0.8435293982 1.8665701433 -0.7938425808
H -0.6374837832 1.8868695561 0.9623900354
H 0.6868452925 -0.2350183832 0.8590287728
H -0.9087572844 -0.4702469190 0.1698339233
H 0.0459086510 -0.1791196702 -2.1382502339
H 1.6487122928 0.0448169884 -1.4499078076
H 1.5854946965 -2.2561694626 -0.4752650018
H -0.0461593673 -2.4892073908 -1.1138406969
H 0.1507720993 -3.2431454545 -3.9826818762
H 0.8233498877 -1.6342271530 -4.3716559370
H 2.3427973437 -4.2911337719 -4.5502687489
H 3.0224930819 -2.6839214520 -4.9205028646