19

C 0.2493805387 1.4478052954 -0.3298434636
C -0.0785634742 0.0412667106 0.1513300969
O 0.1549514058 -0.8920078115 -0.9262242497
C 1.2776174243 -1.6291808141 -0.7198581267
O 1.6613343070 -2.4517995344 -1.4981975899
C 1.9081507061 -1.2036297301 0.6008173826
C 0.7590882691 -0.5053361287 1.3382977322
C 1.1842774821 0.5312267488 2.3738074870
O -0.0963018387 -1.4819562263 1.9369928016
H 1.3155667907 1.5619850605 -0.5511189351
H -0.3077461561 1.6546180683 -1.2469179522
H -0.0326819220 2.1933025208 0.4186296074
H -1.1371429538 -0.0403019599 0.4105160837
H 2.3135876458 -2.0665452320 1.1324813303
H 2.7392445682 -0.5222326553 0.3868936787
H 1.8181786349 1.3109646182 1.9435555137
H 0.3054639831 1.0002566503 2.8259149622
H 1.7541385161 0.0467399002 3.1748057048
H 0.4062888031 -1.9467196609 2.6148453462