12

N 0.0040332180 1.3332471239 0.1089219630
C -0.0614351357 -0.0144699765 0.0386162544
N -1.1785363137 -0.6534610505 0.0226404558
C -1.1254222916 -2.0393146675 -0.0021228487
N -2.1187431974 -2.8378215633 -0.0141414625
C 0.2412351909 -2.5973621755 -0.0204662859
F 0.3692849394 -3.9014897968 -0.0493811348
N 1.3349667861 -1.9394601651 -0.0144151955
O 1.1894970558 -0.5440987359 0.0178891642
H 0.8788958883 1.7901121786 -0.0840020848
H -0.8526393880 1.8391908746 -0.0370843690
H -2.9822207722 -2.2895554958 0.0003973938