16

O 0.0554732223 0.0843449867 -0.2354447669
C 0.0651803725 1.2667635815 -0.0547559394
N -0.9802307899 2.2126966926 0.0279734595
C -0.0430898591 3.3338932429 0.1490766441
C 1.1220915781 2.3498176001 0.1376653094
C 0.9260304748 3.3632001137 -0.9806334085
C 0.7142409841 3.1910606034 -2.4834233257
O 1.5763332245 4.3221328969 -2.7449555194
C 1.8848160946 4.4946539016 -1.3467707600
H -1.7766061090 2.2069440169 -0.6000598348
H -0.2329569708 4.1483716365 0.8366732438
H 2.0154663704 2.3135260629 0.7454210467
H 1.1088795985 2.2629487011 -2.9145367064
H -0.3064339736 3.3575027448 -2.8497201573
H 1.6159600336 5.4939035900 -0.9806568351
H 2.9444901290 4.3053834383 -1.1322302900