15

N -0.1910341459 1.3757166888 0.1405699095
C -0.0457137555 0.1409482937 -0.0815958209
O 1.1491041874 -0.4172306033 -0.3845860567
C 1.2578796758 -1.7901717386 -0.7930031680
C 0.0086535670 -2.3415098823 -1.4095547511
C -1.1822094537 -1.8711614859 -1.0630466062
C -1.2623140081 -0.7820372860 -0.0105135200
C -1.3644481266 -1.3830897972 1.3291730060
N -1.4372491177 -1.8801520274 2.3699612184
H 0.7030389640 1.8627794883 0.0531767959
H 2.0906261803 -1.8119598117 -1.5018600992
H 1.5545788753 -2.3902146645 0.0793673909
H 0.1219760580 -3.1433874473 -2.1316054292
H -2.1089399274 -2.2506299619 -1.4769058120
H -2.1358159430 -0.1421520648 -0.1547234973