14

C -0.0349117570 1.5011137282 0.1718084631
N 1.3051933834 1.9556199570 -0.2941986842
C 2.2071049920 0.7830883624 -0.5375825788
C 1.2936152732 -0.3972037628 -0.3863379645
C 0.0681453770 0.0208857655 -0.0001003776
O -0.7697062589 -0.9913380591 0.2047633524
N -0.0624622092 -2.1818938144 -0.0697707032
C 1.1542630533 -1.8069831296 -0.4072083005
H -0.2061276768 1.7750956093 1.2222782999
H -0.8405721109 1.9575762237 -0.4144594680
H 1.1930785965 2.4652451839 -1.1598289402
H 2.6733707929 0.8610481245 -1.5263285903
H 3.0221780437 0.7709780191 0.1985904061
H 1.8699337710 -2.5776543175 -0.6580546742