24

C 0.3432983897 1.3061814963 0.4401325505
C 0.0993955436 -0.1737497257 0.7779268323
C 0.1904666453 -0.4124402919 2.2921914895
C -1.2526616626 -0.5983574611 0.2271400963
C -1.4130023040 -0.9919090334 -1.2016360711
N -1.6207801627 -1.9718753825 -0.1439966160
C -0.6960322771 -3.0992856903 -0.0232238913
C -1.1660096048 -3.9848803274 1.1331634000
O -2.5143984559 -4.3624241920 0.9611802644
H 1.3120584720 1.6396316367 0.8256527278
H 0.3290986001 1.4768852383 -0.6405719876
H -0.4285714974 1.9421701062 0.8891698887
H 0.8835741666 -0.7599000647 0.2832280687
H 1.1607847279 -0.0879639148 2.6818668159
H -0.5856397305 0.1529638572 2.8211217827
H 0.0614491888 -1.4685715958 2.5451534947
H -2.0828001471 -0.0645542893 0.6926553700
H -2.2922948052 -0.7076471060 -1.7747960972
H -0.4985245104 -1.0731835167 -1.7895643624
H -0.7642551426 -3.6746859014 -0.9535794995
H 0.3563966374 -2.8096293593 0.1123418736
H -0.5648964351 -4.9002857567 1.1709491394
H -1.0184810885 -3.4543986628 2.0895873497
H -2.9520883875 -3.5569936129 0.6501657311