17

O 0.1583246355 1.3562763775 0.3198534475
C 0.0020045168 -0.0105533605 0.0733560932
C -1.4469999679 -0.4990637504 -0.1393889600
C -1.1893714647 -1.8941202928 -0.7404142622
C -0.4138207728 -1.3193931058 -1.9496766011
C -1.4607116271 -0.2742599425 -2.4291635892
O -2.0453306701 0.2268107902 -1.2180468762
C 0.6310805892 -0.4471338253 -1.2658418751
O 1.6774420644 -0.0300135231 -1.6944616323
H 0.9713040376 1.6244595887 -0.1291587920
H 0.4488330603 -0.6203915568 0.8809976763
H -2.0967632981 -0.4266610802 0.7316193571
H -0.5934970412 -2.5526275909 -0.1041523857
H -2.1135910164 -2.4002722239 -1.0263681364
H -0.0457924214 -1.9861926939 -2.7269276234
H -1.0149114291 0.5490005607 -2.9969026634
H -2.2298042151 -0.7549318410 -3.0475153973