13

O 0.8600359820 1.7220642856 0.6306639746
C 0.1638321642 0.7295738821 -0.0629643238
C 0.7472604900 0.5745026720 -1.4940440993
C -0.0249589230 -0.3295917368 -2.3346295523
C -0.6877282304 -1.0781759312 -3.0019507212
C 0.2211786008 -0.5837346903 0.6952830760
O 0.7869449659 -0.6649024517 1.7596357953
H 1.1793670008 1.2965213839 1.4433735751
H -0.9032513149 0.9928121890 -0.1668367032
H 0.7737720585 1.5770815322 -1.9343188594
H 1.7888576675 0.2409049787 -1.4153706746
H -1.2617201739 -1.7367523416 -3.6059039929
H -0.2755183576 -1.4516983519 0.2232751056