15

N -0.0914359347 1.2727418032 -0.0632146671
C -0.0418011588 0.0212884981 -0.0056079461
C -1.0910562333 -1.0804319621 0.0460055067
O -1.3134696570 -1.6532729788 -1.2715691879
C -0.1854854114 -2.5951231225 -1.1160182968
C 1.0496503527 -2.1818641901 -1.8863555621
C 1.6835405799 -1.2281713447 -1.2002915249
N 1.0681153010 -0.9438493228 0.0747350309
C 0.0778112772 -2.0568919758 0.2914232292
H 0.8443985060 1.6855835465 -0.0853307438
H -2.0071768567 -0.9617888486 0.6244689080
H -0.5254452233 -3.6222977051 -1.2587161199
H 1.3311510108 -2.5620479086 -2.8583181423
H 2.5510660115 -0.6523680067 -1.4960347660
H 0.2589004062 -2.6842204023 1.1610021922