21

C -0.1456259166 1.5360243926 -0.5536954883
C -0.2090004554 0.0857040871 -1.0374363991
C 1.1797029285 -0.5467769392 -1.1726078974
O 1.9010811180 -0.5455445380 0.0526969812
C 1.1388111208 -1.9875107035 -1.6897881666
O 0.4707393841 -2.8247831193 -0.7399353051
C -0.5082721772 -3.5944909536 -1.4329464403
C -0.1403350045 -3.3873097783 -2.9055214689
O 0.4303752227 -2.0861922192 -2.8983689414
H 0.3919659110 1.6024296534 0.3957880948
H 0.3778204231 2.1715511254 -1.2769353098
H -1.1488578276 1.9493320068 -0.4125457609
H -0.7972704312 -0.5204455756 -0.3366214263
H -0.7132361768 0.0234537129 -2.0073935702
H 1.7850103326 0.0421568144 -1.8728302525
H 1.4565068442 -1.1817208049 0.6269215718
H 2.1687740119 -2.3662474780 -1.8045489540
H -0.4431093047 -4.6395960788 -1.1144775354
H -1.5140418700 -3.2145815832 -1.2115752648
H 0.5935721171 -4.1346495610 -3.2421729662
H -0.9948307599 -3.3896335901 -3.5849434107