23

C -1.9430010785 -0.4632715970 -2.1829463639
C -1.3233448235 -1.6873094882 -1.5003420113
C -0.3227854655 -1.3651092018 -0.3721234238
C -0.9961262127 -0.7231492626 0.8418191837
O 0.0121120801 -0.3911562916 1.7881768100
C 0.3937682666 -2.6326957185 0.0516673933
O 1.3102178021 -3.2161288414 -0.8825825990
C 1.8231807935 -2.7394566145 0.3722394329
C 2.8012901880 -1.5943081946 0.3453901098
H -1.1671441640 0.2014311854 -2.5789762609
H -2.5769028649 -0.7678269494 -3.0215808669
H -2.5662646134 0.1244011305 -1.5015204041
H -2.1187899645 -2.3348831889 -1.1059022533
H -0.7884139170 -2.2833011363 -2.2475044439
H 0.4146913381 -0.6528325299 -0.7581396628
H -1.5523239557 0.1726892300 0.5319127406
H -1.7260889372 -1.4302805101 1.2717992742
H -0.4103412750 0.0262903240 2.5442314237
H -0.2701610772 -3.3658276897 0.5213444783
H 2.1009495618 -3.5460443808 1.0548903501
H 2.5456272287 -0.8653645723 -0.4256786032
H 2.8052475103 -1.0853371879 1.3138822093
H 3.8119298599 -1.9629807144 0.1409539471