21

C -0.0444621065 1.4601901319 -0.0373095972
C 0.0116386446 -0.0565094610 0.0136358499
O 0.7079643056 -0.4388544404 1.1848082606
C 0.8189466470 -1.8193260338 1.3330580326
C 1.5789636176 -2.1613311454 2.6128027185
O 2.0038630374 -1.3129867322 3.3582088750
C 1.7583777093 -3.6482745473 2.8744947293
C 2.5210492530 -3.9373565371 4.1589413249
O 2.6159981717 -5.3493262802 4.2795731445
H 0.9650632462 1.8798001966 -0.0564002460
H -0.5776319115 1.7912364065 -0.9334736822
H -0.5615342765 1.8535743588 0.8421559804
H -1.0058074419 -0.4837691818 0.0204924230
H 0.5216427407 -0.4574754815 -0.8790666693
H -0.1709524696 -2.3116709445 1.3769647908
H 1.3490761759 -2.2856626823 0.4811720960
H 0.7733105249 -4.1319977797 2.9101281261
H 2.2775757313 -4.1068162562 2.0225724573
H 3.5117867157 -3.4638147226 4.1132356810
H 1.9904266553 -3.4894337730 5.0108137695
H 3.0967769998 -5.5466185246 5.0885342753