23

C -0.4025775226 1.3728302065 -0.3280920234
C -0.2685434739 -0.1507296176 -0.3791080869
C 0.9564583382 -0.6120097291 -1.1806134352
C 1.0949383425 -2.1480141544 -1.3121230173
C 0.5653035839 -2.4714422623 -2.7147724193
C -0.9765698375 -2.5941550677 -2.9122953733
C -0.9879277183 -1.2456577870 -3.6901282973
C 0.5432033274 -1.0953430806 -3.4444060062
O 0.9430585125 -0.1011662873 -2.5208475497
H 0.4667257141 1.8279411005 0.1602777437
H -0.4677284466 1.7854318688 -1.3382080210
H -1.2946739968 1.6758405981 0.2284132856
H -0.1752864959 -0.5540818933 0.6378653734
H -1.1774256513 -0.5928917249 -0.8040967724
H 1.8479316540 -0.1808149292 -0.7064759545
H 2.1480020559 -2.4344462950 -1.2350295943
H 0.5518812843 -2.6766615743 -0.5228623176
H 1.1397847054 -3.2627763973 -3.1989071597
H -1.2845238865 -3.4601503713 -3.5026488793
H -1.5522383247 -2.6015503049 -1.9828320418
H -1.2545652308 -1.3427514292 -4.7458413566
H -1.5847641153 -0.4407051195 -3.2563827600
H 1.1512215919 -0.9724133992 -4.3452336467