19

C -0.1057747153 1.6055697220 0.1672072513
C -0.0098011801 0.0899080026 0.0341499934
O 0.5999410470 -0.4565558972 1.2225530091
C 1.9181419776 -0.7185284027 1.1957145515
O 2.5146307851 -1.1457107470 2.1382449111
C -1.3812984866 -0.5566818619 -0.1311370415
C -1.5109166387 -2.0719554706 0.1390295269
C -2.3807167614 -1.6344757618 1.3343685704
O -2.2664717980 -0.2409244609 0.9615888194
H 0.8849574312 2.0473094720 0.3046888760
H -0.5548138330 2.0393007419 -0.7316296189
H -0.7304233606 1.8565572357 1.0271932893
H 0.6040035843 -0.1852057678 -0.8363532604
H 2.3798646257 -0.5041266513 0.2110574619
H -1.7969682235 -0.2159166974 -1.0899908059
H -2.0386039025 -2.6248564347 -0.6388126103
H -0.5847162261 -2.5868342608 0.3929723219
H -3.4231693088 -1.9712314324 1.3213554794
H -1.9476734762 -1.8232232278 2.3223356555