17

C -0.1688864951 1.4763567501 -0.1214065587
C -0.0269530420 -0.0223279962 -0.0021974197
O 0.0033302303 -0.6099019592 1.0521993401
C 0.0852010822 -0.7975794805 -1.3349063670
C 0.6581722445 -2.2085841959 -1.1150969214
C 0.8055589009 -2.9422556791 -2.3660955299
C 0.9127419077 -3.5158583427 -3.4170273920
C -1.3033952708 -0.8499937792 -1.9807200481
O -1.8631609754 0.1020176282 -2.4575639340
H 0.7895149822 1.8998937510 -0.4461777233
H -0.9047017224 1.7295176886 -0.8902220942
H -0.4415991675 1.9049592629 0.8435543587
H 0.7165318302 -0.2149640300 -2.0148397670
H 1.6231629420 -2.1295686234 -0.6038153631
H 0.0050168420 -2.7521492169 -0.4231891755
H 1.0136639008 -4.0388991675 -4.3357174253
H -1.7827611097 -1.8516603103 -1.9558436097