14

N -0.0433648563 1.4137143026 0.1533663488
C 0.0296020587 0.0199799289 0.0456457346
C -1.0487726423 -0.8645505481 0.0231525572
N -0.5565281090 -2.1375835632 -0.0061159732
C 0.8024323472 -2.0794562946 -0.0046431660
C 1.2105316773 -0.7577331222 0.0281087792
N 1.5562147170 -3.2772669348 -0.0398208123
O 0.9208095549 -4.3387747675 -0.0691468156
O 2.7807163494 -3.1852892171 -0.0396849881
H 0.7600312273 1.8831249740 -0.2418251139
H -0.8901767170 1.8050931891 -0.2365178332
H -2.1094616708 -0.6722658713 0.0327103101
H -1.0609893634 -3.0084398902 -0.0327673201
H 2.2328054371 -0.4177744655 0.0409754626