19

C -0.1143043836 1.3852018900 -0.4442732131
C 0.0551693286 0.0539412955 0.2847779766
O 0.7026110553 0.2041921851 1.5453790139
C -1.2808852467 -0.6423223668 0.4714266347
O -1.8634219724 -1.2751662272 -0.6730260028
C -1.4836651540 -2.0961464716 0.4358951435
C -0.3680494159 -3.1069014394 0.2210218598
C -0.8632445211 -4.3741616160 -0.3060647601
C -1.2919824194 -5.4132332826 -0.7301704511
H 0.8537327596 1.8775905912 -0.5685678995
H -0.5631867266 1.2278872317 -1.4293610609
H -0.7738857024 2.0563336632 0.1209687964
H 0.7180511809 -0.5893602758 -0.3007272052
H 0.2362941850 0.8884520769 2.0383961912
H -1.9928987390 -0.0595100159 1.0653244106
H -2.3308745074 -2.4951997698 0.9953221069
H 0.3808510976 -2.6917153343 -0.4601815125
H 0.1372923592 -3.2760307290 1.1811127983
H -1.6623311278 -6.3314517852 -1.1135065167