23

C 0.0025774848 1.4051086107 0.0551041341
O -0.0101855665 0.0073147680 -0.1015348911
C -1.3076781108 -0.5846624386 -0.0315138877
C -1.2326708990 -1.9246952336 -0.7607849773
C -2.4869416696 -2.7581944769 -0.4866217837
C -2.6288349933 -3.0600108884 1.0113523108
C -2.3388704714 -1.8598832575 1.8855090350
C -2.7280040849 -1.9910667291 3.3331149658
C -1.7598972502 -0.7587753694 1.3991401399
H 1.0364979704 1.7353946225 -0.0759689607
H -0.6268717404 1.9052790399 -0.6987474814
H -0.3385188723 1.7285617705 1.0502637829
H -2.0163552960 0.0778946532 -0.5622265052
H -1.0926311381 -1.7525777282 -1.8324001893
H -0.3415455842 -2.4517986723 -0.3990051908
H -3.3718616152 -2.2067308868 -0.8307600349
H -2.4595186130 -3.6911240670 -1.0594115185
H -3.6363046583 -3.4383833951 1.2306016878
H -1.9465606059 -3.8753797217 1.2974300291
H -2.2403384921 -2.8606120616 3.7932143754
H -2.4547721048 -1.1037714347 3.9103048863
H -3.8087991455 -2.1510272963 3.4404331005
H -1.5767503637 0.0820894124 2.0647552929