20

C -0.0972274086 1.4997757205 -0.0951524444
C 0.0233270020 0.0137699813 -0.1129813397
N -0.2503051336 -0.7544978993 -1.0879952351
C 0.0326832029 -2.1286395564 -0.6455464796
C 1.2102864559 -2.7607250931 -1.4199607295
C 2.4582276239 -2.3485749690 -0.6204141472
C 1.9935243249 -2.4602992935 0.8432275613
C 0.5394671366 -1.9676761986 0.8269952646
O 0.4692659628 -0.5374256087 1.0508584145
H 0.8734885199 1.9568252026 0.1216018064
H -0.4602425058 1.8504448548 -1.0605204612
H -0.7868712713 1.8142804851 0.6944676720
H -0.8779663916 -2.7278744300 -0.7360952248
H 1.1079469441 -3.8526389227 -1.4175742711
H 1.2228282710 -2.4271565469 -2.4597642965
H 3.3314417705 -2.9691791341 -0.8376795150
H 2.7277039494 -1.3123336282 -0.8527410963
H 2.0061262027 -3.5097958125 1.1616977897
H 2.6013142414 -1.8923973302 1.5520236726
H -0.0835010371 -2.4414673912 1.5888953594