18

C -0.4076812221 1.4801255209 0.7973822303
O -0.3756316352 0.0513459473 0.9162238666
C 0.8376662411 -0.5172909156 0.7263548878
O 1.8312996760 0.1087612689 0.4606483278
C 0.7912582770 -2.0070990209 0.9069642397
C 1.9188532040 -2.7774086334 0.2463520132
O 1.6669818933 -2.9480701987 -1.1341283012
C 0.1223094581 -2.5198090379 2.1444819826
N -0.5088747929 -2.7047499309 0.8398675066
H -0.0800762756 1.7875327038 -0.1983459382
H -1.4447049702 1.7693196257 0.9670121127
H 0.2463879381 1.9416835654 1.5412200656
H 2.8517855000 -2.2167343301 0.3333161000
H 2.0389730946 -3.7439769698 0.7578775901
H 0.7996296365 -3.3678473051 -1.1915228840
H 0.5127559947 -3.4218422865 2.6072365901
H -0.3040283683 -1.7925279439 2.8286409193
H -1.2489246491 -2.0177652591 0.7217021409