15

C 0.0409423426 1.4855932560 -0.0056161011
C -0.0323096772 -0.0062445408 0.0321196649
N 0.5471550617 -0.9087230225 -1.0668301926
C 0.0253072604 -1.9167900628 -0.0531906167
C 0.6526464241 -1.0008753715 1.0394476674
C 2.1042366399 -0.9511804608 1.1038641578
N 3.2521506194 -0.8990133642 1.2270480426
C -1.2240054152 -1.0041862674 0.0146541246
O -2.4044194570 -1.0287881094 -0.1321210519
H 1.0800826775 1.8200597593 -0.0711380089
H -0.5076248135 1.8745866309 -0.8688176503
H -0.4077232321 1.9090946386 0.8977682300
H -0.0327475089 -0.8914063944 -1.9107258010
H 0.1520764477 -2.9885755768 -0.1800304918
H 0.2129936705 -1.0599790641 2.0366534670