17

C -0.0580574771 1.5601603412 0.0530238405
C 0.0293758870 0.0490140575 0.0356130886
C -1.1926745351 -0.6620187602 -0.5192644697
C 1.3385242205 -0.6673854735 -0.2419097720
O 2.5350502845 0.0686177600 -0.0987326532
C 2.6979412940 0.4381466241 1.2050934342
O 3.6080007326 1.0762682318 1.6223960452
O 1.6466333610 -0.0064320915 1.9534854900
C 0.7426983697 -0.7177364457 1.1344147176
H 0.8349214550 2.0387863534 0.4579672630
H -0.2058703694 1.9408493173 -0.9629347962
H -0.9102680342 1.8813480622 0.6609127926
H -1.3788876074 -0.3577882273 -1.5546781118
H -1.0727735629 -1.7504683698 -0.5085673916
H -2.0818353651 -0.4192224111 0.0721484984
H 1.4287962340 -1.4922908764 -0.9375648461
H 0.3198509229 -1.5860169218 1.6241536205