18

C -0.1564018258 1.3467495253 0.1431575169
N -0.0460115744 -0.0730650929 -0.1113343285
C 0.6684173658 -0.5717109283 -1.1538421295
O 1.2820781944 0.0736491407 -1.9744186931
O 0.5961155146 -1.9319604729 -1.1468475201
C 1.3133593969 -2.5799292260 -2.2029600475
C 1.0910449182 -4.0830557982 -2.0192495718
C 1.7782113062 -4.8599675804 -3.0422251274
C 2.3544387353 -5.4769704732 -3.8970937602
H 0.4157992521 1.8628527944 -0.6285795011
H -1.1983074591 1.6836682766 0.0963989001
H 0.2528993984 1.6122364835 1.1246182082
H -0.5059654146 -0.7342306375 0.4911527485
H 0.9409709295 -2.2397003612 -3.1731332124
H 2.3756826980 -2.3267884848 -2.1452971675
H 1.4408628565 -4.3767926899 -1.0222212773
H 0.0145373247 -4.2907391387 -2.0455968278
H 2.8597600332 -6.0320304668 -4.6480398994