19

C 0.0265047271 1.5106231966 -0.0262385398
C -0.0688145626 0.0148459587 0.0921754225
C -1.3318251904 -0.7157257385 -0.3347530429
C -1.1100603358 -2.1816014137 0.1441556650
C -0.1806753329 -2.0557053942 1.3905139953
C 0.6116891645 -0.7975244339 1.1114646641
O 1.1256414844 -0.7281652684 -0.2292889492
C -2.3402510433 -2.9150656306 0.3950379760
C -3.3622544157 -3.5099090997 0.6134424372
H 0.9839459552 1.8668870709 0.3618294510
H -0.0526971654 1.8219566460 -1.0735997112
H -0.7820274095 1.9974679459 0.5293381658
H -2.1971629157 -0.2720866701 0.1703508632
H -1.5129409617 -0.6633354933 -1.4124601403
H -0.5421732939 -2.6979463992 -0.6352074637
H -0.7705790127 -1.9222447757 2.3042154568
H 0.4439149408 -2.9437284524 1.5217775592
H 1.2496770704 -0.3622907137 1.8775232569
H -4.2618897727 -4.0422403746 0.7988344442