15

C 0.1065313466 1.4797609414 0.0433628884
C -0.0352788294 -0.0120625483 -0.0531063154
N 0.1109599511 -0.6043799994 -1.1924391102
C -0.0271634836 -1.9920784252 -1.2446628763
O 0.0872141294 -2.6439677965 -2.2533052686
N -0.3212745619 -2.6412598720 -0.0259876546
C -0.4836806863 -2.0400946630 1.2058603615
N -0.7474924798 -2.5579900296 2.3378268291
N -0.3192948696 -0.6582334964 1.1156828487
H 0.9132348135 1.7466651948 0.7347940224
H 0.3288405578 1.8796437170 -0.9442609258
H -0.8174153660 1.9317114703 0.4203490004
H -0.4170480520 -3.6440688426 -0.0898613507
H -0.8452607559 -3.5689021392 2.2811320223
H -0.4255988439 -0.1570122213 1.9845517887