16

C 0.2528339270 1.5568300260 0.0804518230
C -0.2454583997 0.1346108110 -0.1537777536
N 0.5432489605 -0.4897977646 -1.2246187480
C 1.7400841036 -1.2062813738 -0.8698992820
C 0.5154325413 -1.9581781544 -1.3551957638
C -0.1955828367 -2.7642650970 -0.3839985994
N -0.7781679110 -3.3897541178 0.3940256018
C 0.4669427052 -2.4616399321 -2.7125664738
N 0.4497551017 -2.8638560769 -3.7950684292
H 1.2932103258 1.5605317228 0.4210175273
H 0.1916697227 2.1449331847 -0.8387572612
H -0.3546767606 2.0434731129 0.8483976227
H -0.2019241722 -0.4475341057 0.7790376471
H -1.2881045846 0.1429031131 -0.4861645253
H 2.5836138879 -1.1142052343 -1.5471482102
H 1.9833806690 -1.3411698639 0.1833548045