18

O -0.0100588670 1.4281305555 -0.0740715861
C 0.0160142815 0.0191834877 0.0308702794
C 0.5760182173 -0.5442170082 1.3656544800
C -0.1584783260 -1.8704679840 1.4999612494
C -1.6019057851 -1.9240364686 1.9176357916
C -2.3180253452 -0.6453005529 2.1713280107
C -2.2587058085 0.1297682143 1.0886567039
C -1.4231405635 -0.5458182151 0.0188829020
N -1.2391490228 -1.9602576958 0.4800624415
H 0.8950424976 1.7437808639 -0.1526028824
H 0.5672109559 -0.4248085639 -0.8119423325
H 1.6591994280 -0.6889814625 1.3393486608
H 0.3451112946 0.1593605024 2.1708851787
H 0.4342335376 -2.7746423853 1.6110258362
H -1.9845913065 -2.8499747024 2.3411515926
H -2.8009839495 -0.4090193530 3.1112901994
H -2.6366915133 1.1388689422 0.9906761452
H -1.8656913953 -0.5169454241 -0.9802599204