16

C 0.0437773496 1.5362488016 -0.1370834267
C -0.0061171948 0.0178223198 0.1115223216
C -1.4080770074 -0.5287350794 0.0833602235
N -2.0129726399 -0.8486298798 1.2252221674
C -3.2648065467 -1.3202222961 1.1590885851
C -3.9235844779 -1.4798392597 -0.0499835222
N -3.3338806889 -1.1628504035 -1.2119133951
C -2.1155571830 -0.7008666227 -1.1199819056
F -1.5080317038 -0.3735813319 -2.2603923292
H 1.0761883466 1.8953850019 -0.1001134765
H -0.3664548319 1.7854250995 -1.1197371460
H -0.5316428148 2.0745101525 0.6220008545
H 0.5958083960 -0.4917694431 -0.6491235568
H 0.4179418080 -0.2190132197 1.0905621482
H -3.7450482603 -1.5773180280 2.0983973525
H -4.9368664708 -1.8667602514 -0.1011746750