17

C 0.0671882097 1.5345483443 -0.0283818324
C 0.0165460890 0.0435334959 0.0888121862
O 0.3947770229 -0.6073841894 -1.1411293236
C 0.3139550052 -2.0213952311 -0.8187319221
C -0.1788392204 -1.9612761772 0.6354081749
C 0.7541560345 -0.8041450216 1.1702548558
O 2.1360620700 -0.8995773434 0.9886266816
C -1.2095317219 -0.8197890443 0.4904036765
O -2.3733959241 -0.6608542399 0.6992879532
H 1.0911754498 1.8643390301 -0.2264155600
H -0.5706249145 1.8704266337 -0.8504717907
H -0.2827658322 2.0022325843 0.8958536664
H -0.3897688125 -2.5219409158 -1.4916162558
H 1.3061770914 -2.4735372357 -0.9141361376
H -0.3737237092 -2.8875592475 1.1704879040
H 0.4761256049 -0.4929745850 2.1856407302
H 2.4942227577 -1.4816921674 1.6662760635