16

C 0.0401206928 1.4183076302 -0.1079279602
O 0.0083630948 0.0019266199 0.0482406641
C -1.2532950313 -0.5832144800 0.0531082393
C -1.0691018399 -2.0977464948 0.3661414672
N -1.5396893005 -2.2705803893 1.7425259592
C -2.0215246209 -1.1526602824 2.0843851158
O -2.0128737416 -0.1130708824 1.2070826497
C -2.0307775295 -0.2903892918 -1.1533538808
C -2.6444839387 -0.0914880686 -2.1664705779
H 1.0935391722 1.7008764419 -0.0792320124
H -0.3946182557 1.7212899544 -1.0674904779
H -0.4958420829 1.9162192201 0.7066365215
H -1.6469252474 -2.7298334327 -0.3129243392
H -0.0110606530 -2.3546108400 0.2742585688
H -2.4727411273 -0.9231889847 3.0431821866
H -3.1935213410 0.0865525204 -3.0586517237