19

C -0.3182271235 1.5534498403 -0.0054761522
C -0.0048047799 0.0656465172 0.0008008029
O -1.1969927503 -0.6932347591 -0.1830770710
C 1.1510692365 -0.4902451583 -0.9142820593
C 1.7331306340 -1.2131119022 0.3077544915
C 2.1552767795 -0.2109013528 1.3604641697
C 2.7678313069 1.0561217299 1.0679460095
C 3.3319288844 2.0950975151 0.8412972363
C 0.6876749752 -0.5747013827 1.2118884051
H 0.5724124958 2.1559410323 0.1799093993
H -0.7276844139 1.8492129392 -0.9805690898
H -1.0675551696 1.7811401470 0.7591575197
H -1.6262391202 -0.3690021736 -0.9825627409
H 0.7447498697 -1.1694400094 -1.6653033577
H 1.8127561921 0.2411309464 -1.3871131222
H 2.1240377186 -2.2229727039 0.3203877574
H 2.5826511792 -0.6918253214 2.2384151675
H 3.8211536949 3.0160738141 0.6417975259
H 0.1412699707 -1.0006923381 2.0451758581