17

C 0.1062120405 1.4744507827 -0.0362744298
N 0.0766587032 0.0226258133 -0.0941653331
C 0.4156017043 -0.6177058550 0.9460329566
N 0.8558767040 -0.1203243843 2.1859208322
C 1.1490892565 -1.1549195703 3.0787854473
C 1.1439810015 -2.3392437295 2.4440521174
C 0.2450002063 -3.5494565161 2.5599398973
O -0.5019594121 -3.0360375798 1.4096548233
C 0.5980214622 -2.1281891654 1.0551717383
H 1.1165918033 1.8611896083 0.1746738645
H -0.2090352555 1.8856585818 -0.9979696178
H -0.5695031446 1.8745234904 0.7355115744
H 1.0247392677 0.8549006040 2.3625087728
H 1.2052482104 -0.9391600492 4.1381851225
H 0.7013569016 -4.5179124124 2.3198536340
H -0.3751252403 -3.6414191703 3.4568744478
H 1.1270046909 -2.5155064181 0.1785788323