22

C -0.2602013855 1.5798004647 -0.0492912569
C -0.0121404549 0.0727660159 0.0403732752
C -1.2761207760 -0.6418380976 0.5252192800
C 0.5843679985 -0.6139708120 -1.1994008132
C 1.9488333853 -0.1564616280 -1.5039799147
N 1.7782158101 -1.1698910835 -0.4385069535
C 1.2631829020 -0.4475094285 0.7919524938
C 2.2767559483 0.4650702609 1.4604599502
O 3.3990616865 -0.2838930086 1.8971525159
H 0.6105800120 2.1343964013 -0.4079053035
H -1.0896536131 1.7889665024 -0.7343626338
H -0.5338149879 1.9879121621 0.9302773090
H -2.1217206824 -0.4339016720 -0.1406333058
H -1.1324097390 -1.7264086149 0.5581205697
H -1.5535158358 -0.3058959029 1.5305019438
H 0.0154469514 -1.2389043555 -1.8826203356
H 2.4300557363 -0.5695948651 -2.3852758591
H 2.2652875170 0.8523596890 -1.2570701970
H 0.9942029550 -1.2208252756 1.5176366768
H 2.5855714759 1.2875176257 0.7971908523
H 1.8352963334 0.9236647621 2.3526593600
H 3.6470918528 -0.8620989098 1.1658806964