18

C -0.1125313241 1.5984740115 0.0340540584
C 0.1400878209 0.1091503155 -0.0589440309
O 1.4174172956 -0.2094545192 -0.6768305011
C 1.8166811753 -1.0658032513 0.4114301344
C 0.5688840368 -0.6584970938 1.1942392021
C 0.4378006000 -0.3201125102 2.6445946944
N -0.2699726357 -1.4434024710 2.0593747277
C -0.0748458854 -2.7652592029 2.4298068793
O 0.1006653840 -3.1441997453 3.5606613501
H 0.6850850656 2.0952546590 0.5938339771
H -0.1555045317 2.0347104383 -0.9683709478
H -1.0694690329 1.7934455362 0.5300439274
H -0.6805024536 -0.3943450296 -0.5896239658
H 1.8583600991 -2.1219545304 0.1140906986
H 2.7822003598 -0.7743478022 0.8408510049
H 1.2712624178 -0.5535400360 3.3033286342
H -0.1782384616 0.5200157833 2.9533390192
H -0.1678938299 -3.4502268918 1.5657658977