19

C -0.0147283777 1.4892996159 0.0127111259
C -0.0018600016 0.0338688837 0.0030979855
C 0.0090748283 -1.1712402910 -0.0052638474
C 0.0110740759 -2.6116529357 -0.0034784596
C 0.2518324771 -3.4702015081 1.3017163225
C -0.3642196480 -4.5924185632 0.4017603559
C -1.3044137057 -3.4741696478 -0.1589246852
C 0.6859224542 -4.6562473508 -0.7169463161
C 0.9335055731 -3.3734509559 -0.9842195404
H 0.6875213111 1.9000202491 -0.7214353023
H -1.0097281704 1.8808447321 -0.2273384857
H 0.2667206803 1.8841103606 0.9954957606
H 1.2872341428 -3.5900497985 1.6270476364
H -0.3925850274 -3.1650260248 2.1314375928
H -0.7497078969 -5.5229771245 0.8150080534
H -2.0924943356 -3.1693557032 0.5359568512
H -1.6943194521 -3.5976554275 -1.1713405652
H 1.1023698120 -5.5504101884 -1.1582290463
H 1.5998857406 -2.9082317819 -1.6954921057