20

C -0.2277374758 1.3969763954 -0.2494765857
C 1.1900027301 1.0968470724 0.1556038790
C 0.1740464039 -0.0227606228 0.0650721695
C -0.2887176657 -0.7223476161 1.2920471650
C 0.2770573816 -2.1130193196 1.6730588474
C -1.1012420828 -2.3543138228 2.2519613985
C -1.5961901072 -1.0745963222 2.8405046021
C -0.5368902932 -0.0086208597 2.6420892432
N -1.7507269979 -1.3267106548 1.3674474768
H -0.8608366418 1.9218764265 0.4568244947
H -0.4281791905 1.6397239161 -1.2868196667
H 1.9695843514 1.1403054308 -0.5964311223
H 1.5089044103 1.4094745301 1.1442712124
H 0.2709662912 -0.6799960155 -0.7950472674
H 0.4424364723 -2.7256452717 0.7822764595
H 1.1583111024 -2.1572004531 2.3224707370
H -1.5869094211 -3.3031945064 2.4501415170
H -2.4615281975 -1.0369561385 3.4926725118
H 0.2962536907 0.0662952439 3.3495371036
H -0.9964530007 0.9737377980 2.5063370047