21

C 0.1085070113 1.5211357290 -0.1436144473
C -0.0049175720 0.0075938276 0.0875146933
C -1.4210329051 -0.4911999005 0.0620659032
C -2.0315266929 -1.8955941189 -0.0933732951
C -2.9515804115 -1.6665519674 1.1040230485
C -2.5919901629 -0.1469608830 1.0407720923
C -3.5854765524 0.5840646393 0.1406465093
O -3.5158562958 -0.1197274526 -1.1080123635
C -2.2771222234 -0.7994641557 -1.1163196392
H 1.1530692911 1.8462984920 -0.1165789711
H -0.3099529826 1.8029940283 -1.1151878262
H -0.4328643414 2.0812952671 0.6264211943
H 0.5714404733 -0.5255452557 -0.6793275801
H 0.4611113308 -0.2510746286 1.0481016298
H -1.5371031382 -2.8240578650 -0.3602814088
H -4.0098025213 -1.9263980377 0.9885482200
H -2.5613923999 -2.1374168034 2.0096283784
H -2.3625581047 0.3554119308 1.9805743492
H -4.6182831040 0.5363105161 0.5022337784
H -3.3077380547 1.6407585654 0.0006042114
H -1.8547814636 -0.9127507572 -2.1083742069