11

O -0.0115606468 -0.0485494868 0.1300096464
C 0.0748706221 1.1085750786 -0.1209223400
O 0.9218660923 1.9362007231 0.5694244206
C 0.8902865267 3.2705731481 0.2716396505
C -0.1488401027 4.1487606252 0.3027554281
O 0.2924119009 5.3692675483 -0.0316570117
N 1.6607393665 5.3166934626 -0.2796898781
C 2.0062608908 4.0675847210 -0.1009643246
H -0.4824934816 1.6521410000 -0.9044599331
H -1.1958490003 4.0580225962 0.5432803296
H 3.0340569522 3.7632692138 -0.2340544976