23

C -0.3838846309 1.1829221193 -0.1044509101
O 0.0337156112 -0.1605315246 -0.1582290634
C 0.9330895158 -0.5229794185 -1.2301736858
C 2.3326236174 0.0306270981 -0.9448444616
C 0.8850252568 -2.0689111146 -1.2849275485
C -0.1618585656 -2.4163686404 -2.3650399552
C -0.2312642400 -1.1560299657 -3.2032144235
C -0.9344796852 -1.1301636885 -4.5230821530
C 0.3809266328 -0.1396158107 -2.5910139004
H 0.4512017633 1.8884489518 0.0209546845
H -0.9544506965 1.4792929990 -0.9963008925
H -1.0367476539 1.2726121885 0.7682637405
H 2.6894033903 -0.3249185359 0.0269216045
H 3.0371782703 -0.2929525736 -1.7167946223
H 2.3403275772 1.1250440602 -0.9302934044
H 1.8652008162 -2.4523170540 -1.5841498346
H 0.6504526643 -2.4733099748 -0.2981927988
H 0.1193617094 -3.2949513097 -2.9579975261
H -1.1461285089 -2.6398121044 -1.9319312297
H -1.9876599749 -1.4184185171 -4.4113587330
H -0.9001262983 -0.1395192433 -4.9843845919
H -0.4900047467 -1.8504231482 -5.2217357555
H 0.4561882958 0.8663003770 -2.9911789193