12

F 0.0866474536 0.0033583697 -0.0104730814
C 0.1598069042 1.3191118267 0.0778457491
F 1.3792784561 1.6614221460 0.5200351652
F 0.0069718849 1.8496503507 -1.1469129944
C -0.9185540158 1.9001095860 1.0278917508
O -1.6565366158 1.1800355388 1.6411096874
C -0.9530128786 3.4001395850 1.0809205573
C -2.2763256699 4.0642291725 1.1074763797
O -1.4899631368 3.9522277508 2.2776721905
H -0.1018486274 3.9279230483 0.6573840339
H -2.3644847923 5.0620921152 0.6817615532
H -3.1673804622 3.4402390002 1.0839420685