27

C -0.1374761197 1.4921755243 0.0957447298
C -0.0694373269 -0.0316438005 -0.0305102537
C 0.7336629589 -0.4805798438 -1.2439561461
O 0.7552706513 -1.8902698585 -1.2815209879
C 1.4714494270 -2.4118732507 -2.3810986622
C 1.4488028763 -3.9331640068 -2.2892203308
C 2.0557618994 -4.6607405709 -3.5010868124
C 3.5538011832 -4.3690799712 -3.6769500908
C 1.8111813717 -6.1718758794 -3.3900372695
H 0.8620827448 1.9296546995 0.1956253606
H -0.6104204043 1.9455775864 -0.7825330151
H -0.7179581420 1.7888456419 0.9740725573
H 0.3844101005 -0.4680822025 0.8666653368
H -1.0784452994 -0.4529765338 -0.1058645333
H 0.2850046548 -0.0776918037 -2.1697312019
H 1.7625669844 -0.0815844555 -1.1908171775
H 1.0119052195 -2.0792131977 -3.3294007867
H 2.5043563572 -2.0263911340 -2.3742518390
H 1.9696508191 -4.2403869715 -1.3728027959
H 0.4027769371 -4.2392530885 -2.1678382796
H 1.5350136969 -4.3032872585 -4.4018282538
H 4.1172240515 -4.6748250520 -2.7868844441
H 3.9613213658 -4.9200384034 -4.5312167251
H 3.7518832953 -3.3066616005 -3.8470874660
H 0.7431353805 -6.3980818771 -3.3055618817
H 2.1999130236 -6.7021968587 -4.2656965751
H 2.3090036837 -6.5844172731 -2.5042882462