17

C -0.4857061051 1.3659686164 0.0326209529
C -0.0501355346 -0.1075017574 -0.0186650007
C 0.8217186519 -0.4932475840 -1.2620416992
O 0.7515704349 0.3958987167 -2.3570443453
C 2.2383754260 -0.6295546195 -0.7207891060
O 2.6374999742 0.5563935327 -0.0275263569
C 2.2410910921 -0.5935686340 0.7508539111
C 0.8059418463 -0.4773530040 1.2032671927
O 0.4054463609 -0.6959914912 2.3173726193
H 0.3776620153 2.0348089462 0.0858732422
H -1.0695147789 1.6183796257 -0.8557232741
H -1.1015173123 1.5381369126 0.9190136176
H -0.9473931312 -0.7321745953 0.0169744874
H 0.4917172919 -1.4609750356 -1.6537622974
H 1.1747756955 1.2188985160 -2.0857767152
H 3.0169517212 -1.1239721449 -1.2953660412
H 3.0031072219 -1.0384654705 1.3824640427