13

O 0.5911281408 1.2104515229 -0.0175021236
C 0.2574426945 -0.0841196823 0.0208377561
N 0.2068033958 -0.7506316580 -1.1235700696
C -0.1308784249 -2.0418146162 -1.0401300317
C -0.2017898246 -2.8409393878 -2.3136047681
O 0.0249716392 -2.3985532320 -3.4082078077
N -0.4199648904 -2.7237630060 0.0662433284
C -0.3612798481 -2.0251081626 1.2108532107
C -0.0247697328 -0.6861977436 1.2558218234
H 0.7437204053 1.4284834965 -0.9493724347
H -0.4894912694 -3.8962991416 -2.1320544462
H -0.5947481945 -2.5686356996 2.1227111270
H 0.0224470590 -0.1229867497 2.1784645558