17

C 0.1088458891 -1.2079613598 0.0831711815
C 0.0387262801 -0.0058666069 0.0382939786
C -0.0589056670 1.4006983696 -0.0291963218
C -0.0517280171 2.4793743811 1.0525796599
C 1.0019759082 2.4998366877 -0.0452661967
C 0.2747779919 3.3482515594 -1.1142683422
C -0.4648673364 4.4826462494 -0.3613953897
C -1.1653850935 3.3202868743 0.3862280972
C -0.9468362481 2.3857192450 -0.8630647174
H 0.1729757323 -2.2665100461 0.1249693456
H 0.1854010652 2.3583153122 2.1008211518
H 2.0611671188 2.3947422122 0.1464753910
H 0.7498928411 3.4855573266 -2.0840881684
H 0.1244177271 5.2004618249 0.2175728185
H -1.1599945529 5.0150384978 -1.0186507719
H -2.1172000121 3.4298853180 0.9031168469
H -1.7060344468 2.1294023448 -1.5965135030