20

C -0.0712436849 1.4974963905 0.0430080688
C -0.0094562766 -0.0241690426 -0.0117317970
C 0.7924635367 -0.5428710344 -1.2189777187
C 1.9720897664 -0.8563300376 -0.3567865273
C 1.0972642098 -0.6461796427 0.9069747321
C 0.7091600505 -2.0655623028 1.3158340963
O -0.4586374357 -2.0415293072 2.1206616656
C 0.5309612399 -2.7513935049 -0.0702870862
N 1.2614498171 -1.9285633801 -1.0542277600
H 0.9260743007 1.9397989939 -0.0619336938
H -0.6976933525 1.8959570284 -0.7629048752
H -0.4936295277 1.8372481918 0.9943370668
H -1.0106312717 -0.4447032873 0.1253491370
H 0.7514752158 -0.1526930590 -2.2314741395
H 3.0372361939 -0.7141628688 -0.4939201399
H 1.4621659993 -0.0163885259 1.7180844920
H 1.5399532786 -2.5366545093 1.8651148684
H -0.6758545867 -2.9465697907 2.3634550504
H 0.9489816289 -3.7627977493 -0.0903173530
H -0.5315890021 -2.8177722119 -0.3260477665