22

C 0.6478444026 -0.5042321749 1.5453441828
C 0.0541284692 -0.1733939307 0.1705598715
C -1.3830475565 -0.6578618824 -0.0481281137
C -2.3918354359 -0.0549770640 0.9335310863
O -2.5539333500 1.3477580824 0.7856919094
C -1.9231500949 -0.5549939083 -1.5289178353
C -2.1247669864 -2.0713881391 -1.5237751966
N -0.7841362130 -2.6674695910 -1.2961446472
C -1.5845242305 -2.1884244267 -0.1434496128
H 1.6967246282 -0.1964520480 1.5969265353
H 0.1209510056 -0.0019837301 2.3638895458
H 0.6118179068 -1.5814377689 1.7412825551
H 0.0994978770 0.9109921560 -0.0061663004
H 0.6739780194 -0.6300257775 -0.6065385911
H -3.3818457887 -0.4864055049 0.7479859293
H -2.1185786008 -0.3169088186 1.9676234915
H -1.7180729174 1.7678367087 1.0099516963
H -2.8454278717 0.0254991272 -1.5866303678
H -1.2142329799 -0.1901912761 -2.2764915016
H -2.9026857279 -2.6437381528 -2.0142063672
H -0.8959070394 -3.6806627075 -1.3318922352
H -1.8583455158 -2.8652350526 0.6584658155