19

O -0.0807747165 1.4779864447 -0.0061433247
C 0.0007332338 0.0684118931 0.1386533665
C -1.3768387881 -0.5122252125 -0.1618453790
C -1.3960148681 -2.0288695473 -0.0968766297
C -1.4869039846 -2.7385207748 1.2865606663
O -2.8881806135 -2.2885224775 1.4199766347
C -2.7647488545 -2.7578232830 0.0198238225
C -2.0582600727 -4.0109531471 0.5798039810
O -1.2907148937 -4.7664414330 -0.3127204955
H 0.7821474423 1.8516776444 0.1943418702
H 0.7465139636 -0.3599637045 -0.5519528952
H 0.3082476318 -0.2095597504 1.1602762314
H -2.1038078956 -0.1006278220 0.5432193328
H -1.6724724812 -0.1837276632 -1.1658917556
H -0.6977472678 -2.4970006732 -0.7956783112
H -0.8483954477 -2.6508227139 2.1671439796
H -3.6486539573 -2.6859399814 -0.6149707717
H -2.6975815557 -4.6129334836 1.2337449236
H -0.8565614745 -5.4694941645 0.1799546939