16

C 0.0254814658 1.3795059345 0.2115520803
N -0.1482045769 0.0221150088 -0.3126334767
C -1.4566657972 -0.5254521325 -0.0316734223
C -1.6228375009 -2.0439619740 -0.3122033648
O -1.8774668925 -2.2756191497 1.1251120840
C -1.6668421779 -0.9563923956 1.4282005402
O -1.6581898768 -0.4495005154 2.5028535235
C -2.7133812005 -2.4729404238 -1.1576918127
C -3.6099653964 -2.8147683512 -1.8804415605
H 1.0280941785 1.7326215191 -0.0423282955
H -0.7102392862 2.1035364658 -0.1779910412
H -0.0672247392 1.3583561718 1.2999139381
H -0.0043379252 0.0269150833 -1.3179325574
H -2.3082055249 0.0679065901 -0.4044679443
H -0.6764580154 -2.5181079277 -0.5845775176
H -4.4035633943 -3.1253201935 -2.5150166131