18

C 0.0301466414 1.2790542192 -0.2207858876
O -0.0492540172 -0.1352701884 -0.0985745208
C -1.3312136547 -0.6416239491 0.0438920597
O -2.0727838027 -0.3393031958 -1.1462092394
C -3.0909213384 -1.1848000574 -1.4683163365
N -3.4286188031 -2.2698721216 -0.9236069462
C -2.6143955178 -2.7672814078 0.1795943905
C -1.2178525106 -2.1515041326 0.2505817645
O -0.4294111853 -2.7250480950 -0.7716936680
H 1.0914649338 1.5317048544 -0.2475923727
H -0.4544235501 1.6273008137 -1.1380398611
H -0.4365498677 1.7723739183 0.6432213070
H -1.8530850461 -0.1608554583 0.8880912785
H -3.6380515980 -0.7877501850 -2.3208107945
H -3.1515254182 -2.6007911090 1.1222548062
H -2.5057402435 -3.8504843926 0.0661282826
H -0.7722392020 -2.3251059432 1.2428160166
H 0.3120196703 -2.1243603000 -0.9174211587