20

C -0.0761574705 1.5719406674 -0.0306119920
C 0.0412202783 0.0448939761 0.0321197178
C 0.7812757946 -0.5747235597 -1.1800003439
C 1.5143071925 -1.8199325175 -0.6342145977
C 1.6163549108 -1.5100883197 0.8482121500
C 2.4325977515 -2.2703101896 1.7280114331
N 3.1078052799 -2.9007519920 2.4287707458
C 0.8161311927 -0.4948415552 1.2229976161
C 0.6216295790 0.0237946096 2.6092836499
H 0.9138126917 2.0407702635 -0.0516859176
H -0.6100365401 1.8763265418 -0.9363246445
H -0.6243019379 1.9736208958 0.8270929124
H -0.9796705662 -0.3663899991 0.0946107912
H 0.1095602040 -0.8062612566 -2.0102262347
H 1.5179227354 0.1478782226 -1.5489567994
H 0.9368670938 -2.7406692960 -0.7890942205
H 2.4906708900 -1.9803406925 -1.1009627102
H 1.2125515241 -0.5364657991 3.3371347972
H 0.9016183561 1.0815562295 2.6773507114
H -0.4351802600 -0.0372251492 2.8991674756