19

O 0.0212043412 1.3232829500 -0.2249674657
C -0.0358865219 -0.0712262372 -0.1052094491
C -0.4617826530 -0.6355386980 1.2257876790
O -0.7283098060 0.3267729930 2.2063249306
C -2.1257921588 0.5280407472 2.4398625744
C -2.7932564247 1.0836000833 1.1873554118
C -2.6608239173 0.1208522895 -0.0155071780
O -2.7811055126 0.8100139639 -1.2500198549
C -1.3925827188 -0.7281298467 0.0306154040
H 0.0497936826 1.6670529566 0.6801337607
H 0.7359194930 -0.5797060960 -0.6759354796
H 0.0091608313 -1.5342101977 1.6170702012
H -2.5894038478 -0.4188333028 2.7540994543
H -2.1886912310 1.2307618527 3.2749943304
H -3.8512140193 1.2923160433 1.3769349962
H -2.3209332891 2.0378737921 0.9319690015
H -3.5124848822 -0.5681721423 0.0090708707
H -1.9758088956 1.3377510033 -1.3330506113
H -1.4851208099 -1.7080880041 -0.4273700859