19

C -0.0468405245 1.5146750224 0.0044149491
C -0.0086807807 0.0243524642 -0.0301616447
C -0.0285682203 -0.8199594889 -1.0686044712
C 0.0333689035 -2.1995554421 -0.4503832350
C -0.8073967923 -2.1617975640 0.8681132393
O 0.1378691885 -3.0484235524 1.5579003209
C 0.9754567051 -2.1143564971 0.7953940375
C 0.0656619748 -0.8877765847 1.1971465610
C 0.1083348211 -0.3389640343 2.6015693239
H 0.8420359325 1.9301703862 0.4962057739
H -0.1000338390 1.9312896144 -1.0053108743
H -0.9124204191 1.8835647772 0.5694503566
H -0.0777830414 -0.5900149715 -2.1243531037
H 0.0328833384 -3.1055963538 -1.0533430771
H -1.8764761687 -2.3326396691 1.0246100150
H 2.0612826785 -2.2278645040 0.8640022834
H 0.9824263740 0.3034369681 2.7549906556
H -0.7832636964 0.2564210026 2.8270093441
H 0.1594648559 -1.1655103331 3.3156430258