17

O -0.6195393243 1.1638778101 0.0325171800
C -0.0895898278 -0.1147129644 0.0573195990
C -0.2842361495 -0.9670734657 1.2816560829
C 1.1151255161 -0.5836089884 0.8378570889
O 1.8589703878 -1.5174040411 0.0943240783
C 1.0978124335 -1.9026942285 -1.0545586292
C 0.0541994334 -0.8191429761 -1.2651709819
C -0.9358682860 -0.7706245914 -2.3372459662
O 0.2164430177 0.0927109796 -2.3674221859
H -0.2659499261 1.5782582476 -0.7675172676
H -0.6607649340 -0.4316120609 2.1468829988
H -0.6291556237 -1.9922505766 1.1938745936
H 1.7331112337 0.0607978962 1.4501922856
H 1.7691307589 -1.9861351404 -1.9132184755
H 0.6197675035 -2.8776776943 -0.8841754695
H -0.9509749226 -1.5433743489 -3.1044910470
H -1.8847026204 -0.2679591468 -2.1590306243