19

C -0.4228689035 1.4342075246 -0.2026972267
C 0.0519979542 0.0097656237 -0.0217829880
O 1.2032843711 -0.3157648044 -0.9208644366
C 2.0863033236 -0.0830065680 0.2166405993
C 2.9391160260 -0.9070708655 1.2632743463
C 2.0045915532 -0.1016790969 2.3201315382
C 0.9824655159 -0.3641871867 1.1729355839
O 0.8797197235 -1.8136024654 1.2195147114
C 2.2449691282 -2.2549507135 1.2623532816
H 0.3733258917 2.1587130016 -0.0110103936
H -0.7748534652 1.5786519557 -1.2282022067
H -1.2540139579 1.6432042695 0.4789659214
H -0.7501347324 -0.7164034509 -0.1688984091
H 2.4457154545 0.9491176977 0.1925918846
H 4.0275685094 -0.8688578757 1.3061147316
H 1.8315060019 -0.5862940671 3.2830329421
H 2.3068142497 0.9380030511 2.4419935568
H 2.4790815048 -2.8603847149 0.3787617933
H 2.4313376114 -2.8489098748 2.1651985000