17

C 0.2972755675 1.3454104626 0.0772459817
C -0.1428477676 -0.0548037627 -0.3607160191
C 0.6627995623 -0.5437587606 -1.5694168194
N 0.3730590892 -1.8576804874 -2.1249596254
C -0.5086895626 -2.5942938623 -1.6240587821
O -0.8150081150 -3.8410074166 -2.1160637839
C 0.0907478933 -4.4843813648 -2.9235828521
O -0.1954372077 -5.5042573850 -3.4674096714
H 1.3558827527 1.3585231923 0.3584207459
H 0.1592099227 2.0744815985 -0.7284622479
H -0.2802636465 1.6895808708 0.9398308820
H -0.0214262708 -0.7550786108 0.4755776148
H -1.2121275976 -0.0418038505 -0.6073269956
H 0.5555228701 0.1737611255 -2.3939734639
H 1.7328524970 -0.5360573344 -1.3213562391
H -1.1641167798 -2.3822193631 -0.7783549925
H 1.0549291227 -3.9628305113 -2.9722150721