21

C -0.0158073802 1.5124756233 0.0235518796
C 0.0305617151 -0.0072493886 -0.0203284127
C 0.7863341838 -0.5549317148 -1.2381028916
C 1.0487325394 -2.0344088295 -1.0843925411
C 1.4062574326 -2.7802077507 -2.3391522587
O 1.6740871362 -4.1394151229 -2.0543265621
C 0.9529837440 -2.6172789102 0.1083886042
C 0.6195182929 -1.8443267381 1.3522058805
O 0.6607840676 -0.4406850099 1.1781857116
H 0.9978630952 1.9201216253 0.0898623296
H -0.4929714799 1.9104305311 -0.8773090097
H -0.5785673718 1.8527402634 0.8968115137
H -0.9997505820 -0.4040360179 -0.0492023742
H 0.1998134703 -0.3637208325 -2.1475830187
H 1.7318387868 -0.0071742487 -1.3616822496
H 0.5756727302 -2.6792446854 -3.0614303512
H 2.2782683319 -2.2890997585 -2.8085010081
H 1.8827859604 -4.5825892508 -2.8809512092
H 1.1158888265 -3.6845200114 0.2129431031
H -0.3731190680 -2.1557537741 1.7299982506
H 1.3399055289 -2.0710226791 2.1478846141