19

O 0.0129487445 1.3857190069 0.0066099152
C 0.0113973642 -0.0210749946 0.2047863381
C -1.4182969232 -0.5322114939 -0.0497694067
C -1.8576677964 -0.1189618166 -1.4464218169
O -1.9813197059 -0.8872445644 -2.3737352671
C -1.5148322516 -2.0370802866 0.1458332897
O -0.7129005393 -2.7761005131 -0.7328909134
C -1.6312372033 -2.6086284173 1.5258777927
C -2.8223637709 -2.6479047097 0.5869776625
H 0.9187466708 1.7004651763 0.0768260582
H 0.6979837059 -0.5350690570 -0.4804891387
H 0.3008699922 -0.2872040710 1.2318373585
H -2.0774546022 -0.0137958416 0.6592288911
H -2.0492911368 0.9628270584 -1.5830802886
H -1.0554770517 -2.5741158569 -1.6164250572
H -1.1048424339 -3.5390949271 1.7035576413
H -1.6616834897 -1.9313367970 2.3730371496
H -3.6673916259 -1.9996018987 0.7944260187
H -3.0764896268 -3.6057500861 0.1486004429