16

C -0.0454705941 1.4301634351 -0.2683452594
N -0.0131540960 -0.0227359081 -0.2793535423
C -1.0304414181 -0.6494544856 0.1556739448
O -2.1383028425 0.0289078038 0.6186538938
N -3.2703576707 -0.6129197484 1.1585967282
C -3.2754514690 -1.9062561817 1.1324700479
N -4.4331004584 -2.5461437782 1.5512101204
C -2.1765464111 -2.7204134610 0.6436033026
C -1.0862697871 -2.0976063185 0.1788545617
H 0.9042728181 1.8108438091 -0.6510362973
H -0.8579436501 1.8256364847 -0.8931852067
H -0.2033977081 1.8305638395 0.7423778393
H -5.0861664097 -1.9214689946 2.0063768566
H -4.2815411866 -3.3957295788 2.0767792908
H -2.2705683689 -3.8005543881 0.6582094896
H -0.2159168080 -2.6166857291 -0.2020996500