19

C -0.1317936751 1.6051144080 0.0093411690
C -0.0156030341 0.0791683660 0.0540729949
C -1.4147572901 -0.5729709119 -0.0193292793
O -2.0742319768 -0.2644533414 -1.2268187255
N 0.7413626123 -0.4181097609 -1.1273126880
C 1.6695682064 -1.1754976680 -0.7014272824
N 1.7933253003 -1.4076380873 0.7006769642
C 2.2023104945 -0.1562112552 1.4008250706
C 0.7662278942 -0.4843271328 1.2478648262
H 0.8499626804 2.0766756478 -0.0790424441
H -0.7420161226 1.9038912131 -0.8451729899
H -0.6120252241 1.9748858280 0.9212234536
H -1.3035945258 -1.6612420302 0.1154811007
H -2.0439442134 -0.1966144609 0.7956354870
H -1.4392074137 -0.4536140456 -1.9299396464
H 2.3695977088 -1.6845769787 -1.3586026378
H 2.6923442698 -0.3187816989 2.3554536185
H 2.6280345883 0.6344077388 0.7898435864
H 0.2146401407 -0.8523827197 2.1081716923