17

O 0.0442541695 0.5384650570 1.3074280077
C 0.0468186294 1.2282271047 0.3175541395
C -1.2178991252 1.6091098656 -0.4333869582
C -1.3095375386 3.1236006894 -0.6803120549
N -0.4091095528 3.6459089192 -1.7050080334
C 0.6878093888 3.0828118024 -2.3221469704
O 1.0886769151 3.4907253879 -3.3985673996
N 1.3091748701 2.0269077427 -1.6731792226
C 1.3398672332 1.8305662727 -0.2328892679
H -1.2434400737 1.0772442515 -1.3913133868
H -2.0708003026 1.2815383629 0.1651570619
H -2.3320898216 3.3517720937 -0.9984811804
H -1.1593007327 3.6500359573 0.2739511798
H -0.7717340405 4.4005744242 -2.2659430965
H 2.1396521663 1.7542520886 -2.1753830591
H 1.5251270875 2.7720178934 0.3095498662
H 2.1573438378 1.1534789970 0.0199880047