15

N -0.4707018336 1.0631341497 -0.2038715748
C -0.5650896526 -0.1862346578 -0.3511741515
O -0.6934743123 -0.9775871069 0.7371342801
C -0.8823964923 -2.3726116366 0.4959284602
C -2.3101661391 -2.7081340064 0.2005762065
N -3.0730052761 -3.3771251940 1.0516576765
N -4.2521876891 -3.4335010337 0.3920959267
C -4.1546895639 -2.8082212295 -0.7984067572
N -2.9345590823 -2.3391185953 -0.9582524799
H -0.3573378756 1.5079735810 -1.1124631336
H -0.5489327801 -0.7397663717 -1.2977645237
H -0.2416404162 -2.7031790239 -0.3308851352
H -0.5726250972 -2.8821609834 1.4089352070
H -5.0414211256 -3.8966437202 0.8125935206
H -4.9752345740 -2.7268674215 -1.4952881418