20

C 0.4073085153 1.5854729402 0.0373764186
C -0.0183826358 0.1068892289 -0.0550547637
C 0.4762823987 -0.5177580803 -1.3642159292
C 0.1809633197 -2.0156603200 -1.4921998181
N 1.1523834799 -2.8519380410 -0.8118032724
C 1.5324571610 -2.8258000258 0.5012342680
O 2.3121314887 -3.6599462599 0.9405394421
C 0.9824597218 -1.7876376511 1.4186619854
C 0.3691975439 -0.6183163816 1.2062595286
H 1.4978174294 1.6743866314 0.0832972905
H 0.0578723297 2.1436290856 -0.8369187797
H -0.0063301780 2.0641010443 0.9303266959
H -1.1207181627 0.0962478760 -0.0804268386
H -0.0034366683 0.0135523763 -2.1945805776
H 1.5567296075 -0.3655874828 -1.4725993424
H -0.8403279996 -2.2245660843 -1.1393777894
H 0.2117128968 -2.3044341506 -2.5462645500
H 1.5593867445 -3.6228697835 -1.3188467217
H 1.1799615491 -2.0758084719 2.4469725706
H 0.0955013483 -0.0650241296 2.1054173130