23

C -0.1415358095 1.6998531196 0.0827243401
C -0.0837177090 0.1904092243 0.3422280191
C -1.3664206794 -0.5402541482 -0.0578573631
C -1.7105825389 -0.5327280204 -1.5536727192
O -2.6467177121 -1.5900513708 -1.7431642511
C -2.5268801576 -2.5338736552 -0.6811921552
C -1.3838042969 -2.0525172819 0.2297333323
O -0.1277944763 -2.5930037431 -0.1492510984
C 0.1013336939 -3.9029514942 0.3124848709
H 0.7762877706 2.1911006649 0.4202322282
H -0.2605380887 1.9225949150 -0.9828838108
H -0.9810943098 2.1641616928 0.6127501154
H 0.7600841081 -0.2536152176 -0.1940063883
H 0.1063514871 0.0127883043 1.4083001122
H -2.2162384500 -0.1053071308 0.4856901672
H -2.1788157449 0.3967291769 -1.8913527886
H -0.8046659242 -0.7044450260 -2.1558353572
H -3.4777122813 -2.5838188172 -0.1318035997
H -2.3203439423 -3.5297628724 -1.0923440094
H -1.5796411192 -2.2776104509 1.2886855837
H 0.0467283184 -3.9594922881 1.4112942710
H -0.6138946858 -4.6286140348 -0.1028023246
H 1.1070782778 -4.1870499562 -0.0066515944