18

C -0.1941503251 1.4722050808 0.0200290788
C 0.0374200638 -0.0186103683 0.0144565931
O -1.1747376885 -0.7738619630 0.2998306823
C -0.5283099914 -1.5059993124 1.3608831829
C 0.7982519225 -0.7520354593 1.1500807407
C 1.9152843287 -1.5160528683 0.4440319678
O 1.5721812775 -1.5422299117 -0.9539640754
C 0.6810777387 -0.5509432014 -1.2585054780
N 0.4007927891 -0.1591530496 -2.4235598288
H 0.7536092580 2.0120080246 -0.0730416466
H -0.8207838334 1.7420912134 -0.8338779566
H -0.6911789398 1.7772758338 0.9445448411
H -1.0200350154 -1.3390152190 2.3260941525
H -0.4918028734 -2.5841787189 1.1589404383
H 1.1491244243 -0.1558223422 1.9917127926
H 2.8842419877 -1.0148552126 0.5579221824
H 2.0177001596 -2.5516864078 0.7801108898
H 0.9354631571 -0.6782646480 -3.1225071469