16

N -0.1573445590 1.4712926380 -0.3724317295
C -0.2920683101 0.1109633693 -0.4116477076
N -1.0569438415 -0.5117582077 0.3962700567
C -1.1133877880 -1.9447032198 0.3109567187
C -1.9744894824 -2.4465609043 1.4681547133
O -2.3206764411 -3.5914309008 1.6418789996
C -1.5775935796 -2.4808163482 -1.0887833917
N -1.8793792769 -3.8018659652 -1.1006689542
O -1.5746439814 -1.7680983625 -2.0707179412
H 0.1689608415 1.9298113984 -1.2070152087
H -0.8672075354 1.9676385955 0.1465380490
H 0.3462011694 -0.3692225008 -1.1585893114
H -0.1300347954 -2.4277398206 0.4633722562
H -2.2539096117 -1.6356722369 2.1695107774
H -2.0535138718 -4.2745696189 -0.2228847017
H -2.2483554868 -4.1834615455 -1.9572355350