19

C -0.0103152858 1.3744740458 0.0520527118
O -0.0499868244 -0.0321716175 0.0168560140
C 0.6809092817 -0.6253670749 1.0631041207
C 0.6277018982 -2.1033813532 0.9433045040
C 0.1011658824 -2.9177050089 0.0261555220
C 0.4619549906 -4.2983237065 0.6046216709
C 0.0515921954 -4.1333633181 2.0992631441
C 1.2278393143 -3.1240023718 1.9389750260
O 1.8535085403 -4.0891445856 1.0337532267
H 1.0182976705 1.7575434727 -0.0412384711
H -0.6004410211 1.7380649851 -0.7923067523
H -0.4408725898 1.7729277536 0.9847118686
H 1.7335740953 -0.2831262901 1.0450797522
H 0.2814437023 -0.3086202358 2.0462074337
H -0.4389030819 -2.6940477757 -0.8800945712
H 0.2977442314 -5.2024168017 0.0204746967
H -0.9448851333 -3.7522562137 2.3321216902
H 0.3211633693 -4.9965551724 2.7126581781
H 1.8629826446 -2.7860818513 2.7580756847