17

N -0.0395727452 1.2817042820 -0.0144390069
C -0.0150562634 -0.0649074055 -0.2258585943
O 0.8939777871 -0.6209315575 -0.8112610068
C -1.2066296889 -0.8282775159 0.3621564835
C -1.1758425079 -2.2745435547 -0.0612570239
C -2.4162767382 -3.1114654185 -0.2012598321
N -1.7297952336 -2.5932229758 -1.3634953758
C -1.0923310513 -3.3910699687 -2.3044512487
O -1.5377376856 -4.4202571922 -2.7482053664
H 0.6905930608 1.8403191217 -0.4253863570
H -0.8382537854 1.7484083215 0.3781571786
H -1.1699013095 -0.7503704030 1.4564652527
H -2.1437286270 -0.3615592212 0.0381673731
H -0.2660689839 -2.8042718334 0.2110039977
H -2.3395501614 -4.1797314281 -0.0164165399
H -3.3887799403 -2.6746758621 0.0104577925
H -0.1466946365 -2.9298207388 -2.6428422063