25

C 0.4992838158 2.0116403650 -0.2304073917
C 0.6099680524 0.4958598105 0.0162664609
C 1.5977049012 0.2148922052 1.1552194308
C -0.7728492215 -0.0685015883 0.3662518582
O 0.9358786743 -0.1760983997 -1.2231068183
C 2.2510438084 -0.4080396768 -1.6507336403
C 2.8598617743 -1.7072241981 -1.1550762772
C 2.4920306826 -0.0408343096 -3.0905381003
C 3.1669558511 0.7485627818 -1.9890157609
H 1.4791220322 2.4767900163 -0.3620590067
H -0.0996393414 2.2006853414 -1.1255372072
H 0.0140368442 2.5032731461 0.6193449443
H 1.2904847322 0.7728283451 2.0455089235
H 1.6161827911 -0.8465840933 1.4160459779
H 2.6113493149 0.5326629302 0.8978189818
H -1.4758295288 0.1226672298 -0.4494208818
H -0.7135182842 -1.1499261326 0.5167938596
H -1.1643638966 0.3921921652 1.2784438577
H 2.1643503898 -2.5328592890 -1.3376645178
H 3.7915185185 -1.9220374593 -1.6872735532
H 3.0861331351 -1.6829782284 -0.0861798093
H 3.0900403554 -0.7069955634 -3.7028027442
H 1.6691639835 0.4399935287 -3.6062460191
H 2.8155830686 1.7577945784 -1.8238471017
H 4.2319779970 0.6138130651 -1.8291359351