19

O 0.0273928435 1.3692517210 -0.0616470509
C 0.0366155095 -0.0346476379 0.0309705495
C 0.1133211597 -0.5871379348 1.5169672211
C -1.3966571955 -0.6446276605 1.4508521883
C -2.5311719518 -0.2290000339 2.0020056654
C -3.5535270150 0.0823722016 0.9078413978
C -2.6838460799 0.2067996828 -0.3877475013
C -1.4210310128 -0.6046181368 -0.0546720261
O -1.3157033522 -1.8702793818 -0.6991449685
H 0.9018630044 1.6926274493 0.1754990645
H 0.7336644216 -0.4964545470 -0.6791387935
H 0.6001704076 -1.5659094088 1.5476913774
H 0.5612641558 0.0716446521 2.2656248622
H -2.7186166189 -0.0242776454 3.0507833120
H -4.3273771003 -0.6934005693 0.8211825498
H -4.0862162806 1.0142106895 1.1263528185
H -3.1810581238 -0.1610642175 -1.2892031699
H -2.4164611714 1.2545477405 -0.5475091326
H -2.0368487598 -2.4216952532 -0.3760983536