25

C -2.1636829833 0.5113440512 2.2935364911
C -1.3562456033 -0.4176264244 1.3749107951
C -0.0038064180 -0.8414884217 1.9409111503
C 0.9482233881 0.3179099425 2.1953985460
C 0.1040498938 -2.0242025350 2.8884617022
C -1.0830999275 -2.8262466919 3.3850100458
C 0.6465296398 -2.1329529477 1.4697681479
C 0.0577163904 -3.0658873712 0.4353885281
O 0.6412719199 -4.3631209450 0.4992110019
H -1.6491537941 1.4605933039 2.4688419156
H -3.1359066634 0.7435993039 1.8476054620
H -2.3452302813 0.0470324964 3.2683802566
H -1.9669048371 -1.2944873846 1.1445969720
H -1.1878888368 0.0869282505 0.4135978441
H 0.5641944729 1.0005203139 2.9610008748
H 1.9232321338 -0.0420874878 2.5374429782
H 1.1117610320 0.9013511696 1.2809754569
H 0.8722558557 -1.9117119544 3.6511052713
H -1.8657558634 -2.9470921479 2.6324237910
H -0.7730180871 -3.8306526189 3.6985205131
H -1.5417194764 -2.3466617983 4.2566662080
H 1.7308925396 -2.0933614160 1.3872147915
H -1.0360431507 -3.1278875755 0.5164262695
H 0.2805926706 -2.6989527484 -0.5727577490
H 0.5262243057 -4.6815200031 1.4004053462