17

C -0.4928054468 1.3690000160 0.3366227416
C 0.4291490072 0.2534063144 -0.1886994570
C 1.1541247957 -0.4357638775 0.8729968108
C 1.7367183723 -0.9930640585 1.7663970067
C 2.4383204241 -1.6757637332 2.8383392434
C 1.5867652328 -2.6923870810 3.6099106510
O 0.4272428534 -2.9261096907 3.3710052682
C 2.3056052526 -3.3685388633 4.6791390281
C 2.9169313669 -3.9174967516 5.5587832582
H 0.0828105103 2.1303016680 0.8701475125
H -1.0174502636 1.8516755686 -0.4932645574
H -1.2367506782 0.9629100174 1.0269483564
H -0.1642896517 -0.4778332451 -0.7521356096
H 1.1463732220 0.6751609467 -0.9046647413
H 3.3206877258 -2.2140949016 2.4633104380
H 2.8370416940 -0.9650111685 3.5765216349
H 3.4382968732 -4.4141362199 6.3409851855