19

C -0.3368700133 1.0678545479 -0.1625413789
O 0.5143063235 -0.0334090221 0.1070435625
C 0.9632357418 -0.6688807555 -1.0392148051
C 1.4982779997 -2.0460541264 -0.8852027469
C 0.1678779369 -1.8513983923 -1.6191397323
C -1.0931446169 -2.3239006299 -0.9057981427
O -1.2461184707 -3.7306031801 -0.9464972813
C 0.1475175361 -2.0218103167 -3.0445633528
C 0.0955321574 -2.1869261692 -4.2365851682
H 0.1711315306 1.8230613125 -0.7795385246
H -1.2545269096 0.7551939141 -0.6791208137
H -0.5986932709 1.5114494467 0.8001849712
H 1.4301286956 -0.0101179040 -1.7723823282
H 2.3674826953 -2.3352444122 -1.4631134039
H 1.4240671933 -2.4929717161 0.0998055927
H -1.0344673913 -2.0471005640 0.1491730801
H -1.9672356765 -1.8169257937 -1.3423552721
H -1.2455355703 -3.9906373238 -1.8747638861
H 0.0612053494 -2.3192796349 -5.2895573395