19

C -0.0527708625 1.5389848729 0.0231445620
C 0.0577622660 0.0369054349 -0.0048858257
C -0.7729596279 -0.8314529403 0.8972899157
C 0.7344780749 -0.7768468318 1.1051404704
C 1.5095696440 -1.8750766833 0.3774826740
O 0.9298514328 -1.9542182007 -0.9172951638
C 0.5075760495 -0.6475371460 -1.2882214770
C 1.2982030296 -0.1854374562 2.2762635019
C 1.7917250910 0.3045871146 3.2588048557
H 0.8571790821 2.0090115167 -0.3662357025
H -0.8960300478 1.8835952514 -0.5860487501
H -0.2033394275 1.9004123035 1.0438769752
H -1.3788956725 -0.3331495541 1.6452345396
H -1.1852525236 -1.7553145513 0.5033636848
H 2.5755992675 -1.6033620502 0.3319605879
H 1.4179957934 -2.8622404011 0.8405348539
H -0.2877503322 -0.7618360650 -2.0327700271
H 1.3312871460 -0.0732104726 -1.7446368925
H 2.2212815973 0.7334013287 4.1297968278