15

N 0.1016950764 1.3148705533 -0.0194096007
C -0.0048824649 0.0528923402 -0.0079892802
N -1.2309943685 -0.6216524781 0.0257883707
C -2.5422866209 -0.0942783568 0.0540349785
N -2.8304831554 1.1432679047 0.0524557072
C -3.4369988854 -1.2752390560 0.0835500941
C -2.7079637412 -2.3944685188 0.0733684528
C -1.2777198790 -2.0324621540 0.0364872621
N -0.2322453463 -2.7593634461 0.0161921876
H 1.0907827256 1.5621604240 -0.0445645906
H 0.8108547522 -0.6731960438 -0.0222407774
H -3.8453132406 1.2528802054 0.0763000655
H -4.5137996039 -1.1775589900 0.1088401999
H -3.0484567132 -3.4204858450 0.0884541737
H -0.4843574350 -3.7459830991 0.0290034468