21

C -0.0847808122 1.5642130068 -0.1189203024
C -0.0058748549 0.0430974338 -0.0351315438
O -1.2920656756 -0.5370626883 -0.1433772783
C 1.1257632362 -0.5613609941 -0.9261977815
C 2.0284004014 -0.6385750749 0.3335585113
C 0.7492261259 -0.5179161130 1.2055766668
C 0.7777226312 0.2639920460 2.5194105383
C 1.5082868403 -0.5024179717 3.5983910574
O 2.4729826041 -0.1057105022 4.1996966320
H 0.8977139337 2.0312570656 -0.0018272630
H -0.4721171765 1.8661324173 -1.1002698712
H -0.7528348715 1.9638244436 0.6500088221
H -1.7585316950 -0.1130652297 -0.8719394300
H 0.8319531639 -1.5522624811 -1.2806023503
H 1.4769906098 0.0364860362 -1.7715020490
H 2.6400019353 -1.5332719907 0.4629724922
H 2.6748139076 0.2382454744 0.4343689254
H 0.3384598657 -1.5182403802 1.3852781907
H 1.2513196915 1.2434346715 2.4080279815
H -0.2563076648 0.4126968216 2.8643572816
H 1.0812629140 -1.5129579211 3.8049057201