17

C 0.0238861739 1.5142596308 0.1328899524
C 0.0027002321 0.0257453763 -0.0135549928
C 0.6529096642 -0.7944477257 -1.1609047559
C 0.6821792680 -1.8404182967 -0.0343842058
O 0.8335908939 -0.7482271053 0.9435149753
C -0.7885350619 -2.2160567528 0.2157593971
O -1.0012843787 -2.8492407783 1.4533092123
C -1.3174755078 -0.7436923423 0.1737310801
O -2.4304795120 -0.3222893981 0.3125643201
H 1.0335970856 1.9107448113 0.0003616087
H -0.6374047196 1.9659614093 -0.6126807917
H -0.3437275511 1.8021562658 1.1221356891
H 0.0697510302 -0.9985242241 -2.0633832654
H 1.6477128238 -0.4179391682 -1.4051630906
H 1.4355731212 -2.6215884829 0.0549993649
H -1.2420198593 -2.8439410151 -0.5558649010
H -0.5600726826 -2.3014903938 2.1161364933