19

C -0.1677465577 1.4770237968 -0.0614198844
C -0.2154504760 -0.0348871906 0.0695912783
O 0.7524598586 -0.4265816301 1.0352030320
C 0.8394940707 -1.8253353970 1.2460670153
C 2.0956514981 -2.0627862762 2.1028115488
C 3.3709909798 -1.6619559430 1.3874721281
O 4.4036937135 -2.2770188908 1.4619945498
C -0.3576204823 -2.3734784735 1.8965966770
C -1.3311388334 -2.8212406238 2.4410440875
H 0.8252260801 1.8075453126 -0.3792459051
H -0.8991684978 1.8148925068 -0.8014308404
H -0.3980054830 1.9523525984 0.8960778502
H -1.2141106320 -0.3695519252 0.3839485626
H 0.0063458752 -0.5189571713 -0.8956282471
H 0.9639953363 -2.3351607707 0.2741879046
H 1.9997108001 -1.4418848126 3.0029964615
H 2.1704501842 -3.1065912064 2.4147333578
H 3.2899520682 -0.7332171200 0.7839603145
H -2.1930984627 -3.2186927735 2.9182044088