18

C -0.1581420197 1.5678927745 0.0154291882
C 0.0045722269 0.0552555503 0.0310736788
C 1.1277058557 -0.6014076344 -0.8344424127
C 2.1495002302 -0.2233053096 0.2772132484
C 0.8959023236 -0.5676128388 1.1715962882
O 0.7738707069 -0.2731346908 2.5070256570
C 0.7844432904 -2.0564639081 0.8243371486
O 0.6941701808 -2.9735976562 1.6085297896
N 0.8504977773 -2.0362307019 -0.5535396459
H 0.7859636740 2.1104524502 0.1056198061
H -0.6421926861 1.8903661821 -0.9125915713
H -0.7954066955 1.8780515976 0.8492197231
H -0.9698456655 -0.4270267774 -0.0948004270
H 1.2689452012 -0.3782710474 -1.8889278170
H 3.0363759652 -0.8546132928 0.3754068539
H 2.4258500842 0.8301555954 0.3063082628
H 0.6788158951 -1.1262214574 2.9606735364
H 1.2809042550 -2.7881340154 -1.0712343772