15

C -0.0649528291 1.5033677971 0.0435345993
C -0.0172588632 0.0091478152 0.0062286219
C -0.0398391075 -0.7971207289 -1.0947208776
N 0.0225742811 -2.1250212642 -0.6763726912
C 0.0846173892 -2.1666329389 0.6727039108
O 0.1516157363 -3.3549264495 1.2934760877
C 0.0634415160 -0.8655166532 1.1556590217
C 0.1142817112 -0.5431666524 2.5258500035
N 0.1588325121 -0.3262241320 3.6659115098
H 0.8258086313 1.9219206312 0.5252360765
H -0.1266227584 1.9160958949 -0.9668757190
H -0.9317215649 1.8636993312 0.6087897241
H -0.0949212335 -0.5538645885 -2.1426127003
H 0.0227295045 -2.9394143118 -1.2661086569
H 0.1893825949 -3.2016540201 2.2460854997