17

O -0.3312342539 0.8745238409 1.3686411356
C -0.0772680456 1.3891176099 0.3060433143
N 1.0785115258 1.1866991587 -0.4117628521
C 2.1197408269 0.3601440672 -0.0031445254
N 3.1321027046 0.2199748182 -0.7517929196
C 4.2327421006 -0.6310733178 -0.3229498764
C 3.9632776515 -1.5963254754 0.8074888480
C 4.9978539254 -1.9526538970 1.7855691232
O 3.9468301667 -1.0524911122 2.1340219444
H -0.7587789184 2.0894363456 -0.2130519597
H 1.2006784619 1.6512112261 -1.3009406851
H 1.9430884683 -0.0938070512 0.9724728311
H 4.5626992462 -1.2048365553 -1.1996258093
H 5.0762061003 0.0162579439 -0.0483557162
H 3.1706138741 -2.3238987401 0.6224204725
H 4.9647466728 -2.9244519989 2.2755641942
H 5.9886172028 -1.5064985027 1.7073371905