16

N -0.1138682506 -1.2428770196 -0.1414641589
C -0.0794984405 -0.0880379935 -0.0837850373
C -0.0108978367 1.3616853468 0.0148908121
C -0.0701501509 2.0872133138 1.4029289118
C 1.0327163616 1.3935591635 2.2189024468
C 2.1570193140 1.4144273404 1.1307698693
C 1.3641795701 2.1138265193 0.0147369033
N 0.7127372749 3.2272110221 0.7983396264
H -0.7055139437 1.8186607964 -0.6940496178
H -1.0193480191 2.3126881666 1.8875046782
H 1.2892057838 1.9798364039 3.1022923391
H 0.7526736980 0.3846364090 2.5283208027
H 3.0202063540 2.0119680632 1.4269775864
H 2.4946571906 0.4169692034 0.8423844400
H 1.8749398770 2.3663905494 -0.9136834969
H 0.0900392973 3.7309356154 0.1646002147