17

C 0.0472214327 1.6015543480 0.1406326011
C -0.0502027453 0.0649234837 0.0045959766
C 0.6502336262 -0.5962452482 1.1136567592
C 1.2300946141 -1.1201086909 2.0242086235
C -1.4868454671 -0.3287052798 0.0604830906
N -2.6016507159 -0.6338672906 0.0349573298
N 0.6041093922 -0.3207882662 -1.2576223490
C 0.2765675956 -1.6003676644 -1.8763629509
C -0.1699046386 -0.3216437482 -2.4987014039
H 1.1004033386 1.8835233434 0.0991378424
H -0.4877636400 2.0785479156 -0.6840420096
H -0.3847790140 1.9318220657 1.0869694029
H 1.7413109343 -1.5901449192 2.8282993068
H 1.1256020837 -2.1475980964 -2.2735214854
H -0.4958778716 -2.2130977455 -1.4174229622
H -1.2340487449 -0.1031529670 -2.4486406949
H 0.3481649800 0.0905880399 -3.3589619670