22

C -0.0426172804 1.6022641395 -0.0284675228
C 0.0149493440 0.0723253017 -0.0590491621
C -1.3667953030 -0.5738427395 0.1039983548
C -1.3569635713 -2.1144012112 0.0843985424
C -0.8245883793 -2.7045198570 1.4080233006
O -0.3255741458 -4.0201348792 1.2931539932
C -2.7871170976 -2.6173813235 -0.2412339127
C -2.9384216479 -4.0707429754 -0.2001467548
N -3.0448413640 -5.2211542953 -0.1418574501
H 0.9518401761 2.0392435835 -0.1591447497
H -0.6851408275 1.9911210893 -0.8262746607
H -0.4432284312 1.9651136192 0.9245411916
H 0.4537613051 -0.2604892263 -1.0084214547
H 0.6929728965 -0.2799316722 0.7270759514
H -1.8284409103 -0.2287090265 1.0409371647
H -2.0177837066 -0.2065889115 -0.7007438584
H -0.6847473023 -2.4618411718 -0.7093207091
H 0.0201602148 -2.1013696581 1.7535782491
H -1.6072298471 -2.6261682048 2.1824837344
H -1.0590041626 -4.6237539727 1.1311311009
H -3.4995918430 -2.1863109455 0.4738352103
H -3.0906062068 -2.2701773026 -1.2350144483