23

C -0.1202855376 1.6347093956 -0.0693011165
C 0.0198804820 0.1107328249 0.0022239340
C -1.3425113306 -0.5863138351 0.0721150592
C -1.3298134394 -2.1383449026 0.0578651442
C -0.5532352805 -2.7084418250 1.2695400542
N -2.7353375320 -2.5670906183 -0.0152426275
C -2.9974083500 -4.0026178543 -0.0530590834
C -0.6634244201 -2.5962249249 -1.1824071322
N -0.1205821357 -2.9549107740 -2.1375622525
H 0.8596830517 2.1185498197 -0.1170654153
H -0.6863458921 1.9383069344 -0.9564346202
H -0.6441428685 2.0287998627 0.8088414260
H 0.5677956341 -0.2484596752 -0.8766812363
H 0.6260591615 -0.1539800758 0.8762961670
H -1.8621435653 -0.2824502343 0.9915316338
H -1.9705009576 -0.2634672515 -0.7647145607
H -1.0186717893 -2.3512725895 2.1942185733
H -0.5694983206 -3.8002514437 1.2710731594
H 0.4921545867 -2.3915327543 1.2623778798
H -3.2341447088 -2.1385257819 0.7572470081
H -4.0749048726 -4.1539838715 -0.1626183128
H -2.5113543871 -4.4372997288 -0.9317232297
H -2.6647381582 -4.5657995265 0.8333981983