16

C -0.2666395512 1.6226998175 0.0696498239
N -0.0005126636 0.2005457324 0.0317386934
C -0.9966988969 -0.5744557844 -0.1165626068
N -0.8920275402 -1.9396611048 -0.1698220410
C 0.2774027405 -2.6733959752 -0.0741592847
C 1.5872181482 -2.2806948771 0.0912871513
N 2.2514241400 -3.4668109415 0.1087876114
N 1.4293577158 -4.5124875164 -0.0333406817
N 0.2201647760 -4.0325074302 -0.1456721467
H 0.2855593900 2.1291005764 -0.7314132767
H -1.3340880817 1.8778334970 -0.0376463412
H 0.0900183698 2.0459996082 1.0165797604
H -2.0347250192 -0.2291996438 -0.2161593532
H -1.7289727401 -2.4862969025 -0.2893808968
H 2.0436326738 -1.3149895041 0.1884591491
H 3.2401030987 -3.6296771214 0.2115507996