20

C 0.0896516972 1.3164792952 0.3414036100
N 0.1034618859 -0.1074732752 0.0429130069
C 0.6306895688 -0.4873511020 -1.2643535650
C 2.1444486053 -0.2738101247 -1.4377558060
C 0.1639073791 -1.9244234311 -1.5397929068
C 0.9504826290 -2.8947174658 -2.3598302807
N 0.8320951667 -3.0880017092 -0.9118669212
C -1.2836308337 -2.0454526551 -1.5843213169
N -2.4316829827 -2.1350646887 -1.6807772561
H 1.0768890522 1.8096532831 0.3417718250
H -0.5404066076 1.8325098563 -0.3913767432
H -0.3595983706 1.4689635187 1.3266255037
H 0.5687429374 -0.6270135116 0.7794511411
H 0.1175615302 0.1491682019 -1.9972191971
H 2.4666928417 -0.4186390395 -2.4726444492
H 2.4023243180 0.7506449032 -1.1581687356
H 2.7332881504 -0.9401634425 -0.7955190831
H 0.4185457834 -3.6242997785 -2.9619928915
H 1.8964742675 -2.5595187983 -2.7717821868
H 1.6840653719 -2.7786067962 -0.4491113975