19

C -0.1237146645 1.5447722474 -0.0550940910
C 0.1072235423 0.0334111627 0.0201693241
C 0.7698430727 -0.4962224087 -1.2391097175
O 2.1598444838 -0.1839001469 -1.3725063409
C 1.7890069802 -1.5599158878 -1.2074320139
C 2.2327928830 -2.2115926901 0.0884963241
C 1.3450890033 -1.8304002724 1.2920359305
C 0.9130969614 -0.3723073249 1.2614276448
O 1.1466190768 0.3986002353 2.1605756974
H 0.8270700814 2.0658609103 -0.1936763883
H -0.7813945484 1.7934383459 -0.8936108975
H -0.5753239896 1.9114778944 0.8683279473
H -0.8631855276 -0.4809204868 0.1134329543
H 0.1929748726 -0.3570170077 -2.1554031083
H 1.9291561202 -2.1548530144 -2.1104210841
H 2.2356102192 -3.2996252030 -0.0322108675
H 3.2699017868 -1.9124706254 0.2759713205
H 0.4307048573 -2.4382975749 1.2610534014
H 1.8487665188 -2.0270187930 2.2405330046