13

N -0.0539213002 1.3454665943 0.0093168238
C 0.0666693759 -0.0107932844 0.0003187891
O 1.1416922302 -0.5780577245 -0.0143878054
C -1.2622950771 -0.7683670620 0.0101769092
C -1.0192846574 -2.2852063034 -0.0011133592
C -2.2700256379 -3.0388964974 0.0079488147
N -3.2685928798 -3.6204310378 0.0153003266
H 0.7853568242 1.9013233912 0.0036577371
H -0.9442562209 1.8108813193 0.0216262866
H -1.8407726222 -0.4812295077 0.8954323974
H -1.8595285558 -0.4711705601 -0.8591597663
H -0.4335557458 -2.5621369176 -0.8823486714
H -0.4148702430 -2.5721422900 0.8641578078