15

O -0.0220387446 -0.0321197998 0.2049680897
C -0.0218834965 1.1508296363 -0.0192823165
N -1.1626398606 1.9180268667 -0.0862452167
C -1.1677504448 3.3510765889 0.0404018644
C -0.3060380283 4.0334688887 1.0841471574
C 0.0972453587 4.0288163961 -0.3736529047
C 1.1695511248 3.0872712289 -0.8690984584
O 1.1521388031 1.8185820375 -0.2029128361
H -1.9709266346 1.4176677099 0.2520819203
H -2.1244469948 3.7883725069 -0.2209596693
H -0.6564956165 4.9670613117 1.5097577276
H 0.2455181131 3.3965669736 1.7670052749
H 0.0278726677 4.9593725439 -0.9280428275
H 1.0466716870 2.9258603522 -1.9486791058
H 2.1749939764 3.4810867986 -0.6971269994