21

C 0.1248117132 1.7044225897 -0.0792696479
C -0.0241349083 0.1843584847 0.0697909411
C 0.3374444167 -0.5945600199 -1.1857045406
C 0.2054243438 -0.0779100964 -2.5528988565
O 1.4888366428 -0.1748552632 -1.9296541568
C 0.7803380251 -0.3613028433 1.2520897339
C 2.2821929393 -0.1713237028 1.2294371621
C 0.0940308289 -0.5527245745 2.5384295930
O 0.3469221980 -1.6662525641 1.6763449356
H 1.1089813425 1.9653403054 -0.4764998713
H -0.6316995852 2.1104887279 -0.7564304845
H -0.0007396882 2.1985726784 0.8886472654
H -1.0740790579 -0.0547816457 0.2835659078
H 0.2758442517 -1.6754835399 -1.0536004232
H 0.0314924283 -0.7731873453 -3.3730655768
H -0.1509463984 0.9355371106 -2.7249480936
H 2.5442121276 0.8902235103 1.2806223522
H 2.7355301222 -0.6816757795 2.0826255696
H 2.7144824740 -0.5751754028 0.3099843558
H 0.6686190742 -0.5406011594 3.4639389909
H -0.9535551603 -0.2712722703 2.6441082636