14

O 0.0149289369 1.3309400926 0.0886110145
C 0.0131757349 -0.0729005620 -0.0120887330
C -1.4251258146 -0.5622557329 -0.1334117495
C -1.3850839443 -0.4564095606 -1.6477112809
C 0.1722516024 -0.5948186406 -1.4751001054
O 0.0723525577 -2.0392113271 -1.3248175245
C -1.3087369168 -1.8194970157 -1.0298643870
C -2.2346025235 -2.9024704468 -1.0101418387
N -3.0002195686 -3.7692417088 -0.9915339449
H 0.9306979019 1.6285460465 0.0829465615
H 0.6622401431 -0.5513828150 0.7325096514
H -2.2571114681 -0.4062068676 0.5398140982
H -2.0482989947 -0.0278508654 -2.3843066006
H 0.9643722938 -0.2700113865 -2.1457614912