19

O 0.0882197625 -0.0716939793 -0.0404284824
C 0.0698770115 1.1019484136 0.2382903888
C 1.2796541511 1.9970261543 0.1664953211
C 1.2635315549 3.0875212959 -0.9439806806
C 0.0160445469 3.9442043059 -0.5915472752
C 0.8445193194 4.3253883929 0.6410379157
C 2.1500484580 4.1905220799 -0.2058713646
C 2.8647202225 3.5688775611 1.0008925564
C 1.4503028129 3.0179615593 1.3254489613
H -0.8712655171 1.5796543626 0.5912248382
H 2.1483449466 1.3396142298 0.0700401244
H 1.4691555260 2.7602338847 -1.9621171084
H -0.0757610359 4.8023715490 -1.2640847291
H -0.9606267598 3.4653087674 -0.4896370264
H 0.6350311013 5.1760593640 1.2881637265
H 2.5534177742 4.9956616674 -0.8189570898
H 3.6788830434 2.8517512059 0.8574688787
H 3.1767931681 4.3468924602 1.7039288190
H 1.1697810036 2.7053369255 2.3310215763