20

C 0.4905794260 1.7267781063 -0.6064531378
N 0.7624573047 0.3295547645 -0.8747992643
C 0.1116596944 -0.5264315808 -0.2057846396
N 0.3191696586 -1.8807796149 -0.4058287891
C -0.4014106843 -2.8555118575 0.2809629416
O -1.2670795476 -2.5571674498 1.0874730405
N -0.0524601450 -4.1517259342 -0.0179799533
C -0.8470460669 -5.2270852152 0.5532109425
C 0.9620146400 -4.5055183445 -0.9945920283
H 1.4132977167 2.2298055194 -0.2932797409
H 0.1582841306 2.2222096414 -1.5265725171
H -0.2734505179 1.8907580712 0.1699624510
H -0.6414897594 -0.3185667069 0.5589110919
H 0.9926719327 -2.1136272634 -1.1172514085
H -1.4125851181 -5.7604445238 -0.2221703746
H -0.2031444542 -5.9484265258 1.0696567388
H -1.5441093131 -4.7898970993 1.2657548869
H 1.9020229556 -3.9727288729 -0.8126500474
H 1.1778278211 -5.5716276632 -0.9016033305
H 0.6440367263 -4.3196687206 -2.0307032617