23

C -0.3087086886 1.6243304884 0.1779402495
C -0.2492780387 0.1289723264 0.4984318833
C -1.4487677219 -0.6502029936 -0.0334034337
C -1.4150993879 -2.1608541714 0.2628371138
C -2.8902830923 -2.4888542924 0.5338824089
C -3.3653888874 -1.2033937829 1.2054003457
O -3.0488454957 -1.2905465492 2.5744722237
C -3.4580815582 -0.1621836327 3.3223186958
O -2.6715194000 -0.1580160888 0.5589786720
H 0.5523378599 2.1540733702 0.5966437302
H -0.3125115734 1.7967624529 -0.9043991940
H -1.2186728881 2.0697236633 0.5891775501
H 0.6610817222 -0.3113991518 0.0703865097
H -0.1971337729 -0.0253362118 1.5831365387
H -1.5371658256 -0.4775174690 -1.1167114240
H -0.9873328453 -2.7327367943 -0.5635896663
H -0.8177021073 -2.3561910896 1.1584974383
H -3.4407722390 -2.6339955124 -0.4007975001
H -3.0427451706 -3.3599085654 1.1724450671
H -4.4379972790 -0.9881490076 1.0896243405
H -3.1815615566 -0.3478051663 4.3626996422
H -2.9672794010 0.7539577915 2.9731126585
H -4.5483096628 -0.0177126837 3.2641409802