19

C 0.2614155215 1.5451909208 -0.1376437406
O -0.2574184416 0.2434228056 -0.3503444842
C 0.4969813474 -0.5146520948 -1.2505848780
C 1.8553419196 -1.1363487331 -0.7112976737
O 2.2432827825 -0.8301727709 0.5939739432
C 1.2448443044 -2.5478546656 -0.8993525596
O 0.5709517087 -2.9478808515 0.3171292755
C -0.7221053597 -2.5370425698 -0.2158245811
C -0.0713788631 -1.9399293252 -1.4703059170
H 1.2662955951 1.5084121322 0.2966463535
H 0.2936530927 2.1172290650 -1.0780459864
H -0.4158720331 2.0481735722 0.5566703386
H 0.6449212500 0.0335706862 -2.1939830204
H 2.6972808558 -0.9305075500 -1.3794975755
H 1.6517540070 -1.3480580257 1.1608230142
H 1.8360448486 -3.3553251277 -1.3371010680
H -1.3509062400 -3.4131360043 -0.4114468148
H -1.2416348011 -1.8395704624 0.4447023234
H -0.5034130246 -2.1741190411 -2.4409530791