19

N -0.0826893319 -1.1621502947 0.3193413831
C -0.0728971566 -0.0079177710 0.2638307240
C -0.0326941643 1.4495618545 0.1890811535
C 1.3608339143 1.9748796951 -0.2176059021
N 1.3837167129 3.4188479664 -0.2361276128
C 0.6243592067 4.0714789364 -1.3110734822
C 1.3851084623 5.3489530960 -1.5427662236
C 2.5470893881 5.3266744740 -0.8986541469
C 2.7182995112 4.0301911630 -0.1565709454
H -0.7896617158 1.7812035576 -0.5299313074
H -0.3077679981 1.8727180040 1.1607971541
H 2.0909653544 1.6232199527 0.5178782566
H 1.6426221554 1.5265576582 -1.1896733902
H 0.5900392199 3.4618422588 -2.2370031259
H -0.4202085204 4.2483529460 -1.0166992684
H 1.0102333092 6.1452361173 -2.1732534172
H 3.3030992515 6.1015493891 -0.9035863344
H 3.0255764843 4.1671361523 0.8900621684
H 3.5012602969 3.4108473543 -0.6357174031