19

C -0.0057111258 1.5457952927 -0.0930126407
C 0.0517665251 0.0312515563 0.0424656629
C 0.6543701116 -0.6421749580 -1.1936119132
O 2.0596356545 -0.4020118774 -1.1262084364
C 2.7435158941 -1.0338940735 -0.0503736720
C 1.9395836399 -1.1248111386 1.2237234186
C 0.7409535777 -0.5651047766 1.2420041328
C -0.6178865459 -0.7718291289 1.8574502087
O -1.2160130652 -0.4949080093 0.5568920660
H 0.9511579488 1.9255830201 -0.4613710517
H -0.7910279534 1.8190854434 -0.8060825833
H -0.2304194898 2.0253057178 0.8635710846
H 0.4137422304 -1.7144715369 -1.1901400421
H 0.3255051801 -0.2018660193 -2.1393957629
H 3.0329876156 -2.0602911086 -0.3389929211
H 3.6736776892 -0.4674681935 0.0788356063
H 2.3178710474 -1.7613994001 2.0187866939
H -0.8499879068 -1.7784252699 2.2224501158
H -0.9347496374 -0.0343244997 2.6076612636