21

C -0.0986050163 1.3233217831 0.3408308089
O -0.0485819678 -0.0734809146 0.1522367979
C -1.3149029868 -0.6531019616 -0.0983216607
C -1.1003577488 -2.1756627160 -0.1459957270
C -0.2611385994 -2.5794424016 -1.3708752191
O -0.4711845460 -2.5908430579 1.0586400784
C -2.4822596217 -2.8461409738 -0.2397321137
C -2.8454923346 -3.8617547614 0.8174923149
O -3.2262929416 -2.5450310985 -1.1468238758
H 0.9206306658 1.6626379235 0.5395206283
H -0.4784338941 1.8375849403 -0.5542846912
H -0.7397854504 1.5938742563 1.1934492378
H -2.0138164475 -0.3991533644 0.7150385507
H -1.7441732701 -0.2969781706 -1.0438727919
H 0.6734642551 -2.0128970986 -1.3799093038
H -0.0236320520 -3.6457153515 -1.3245370708
H -0.8114404226 -2.3775273375 -2.2931694244
H 0.2201047762 -1.9381838910 1.2281991279
H -2.8324649357 -3.3914479726 1.8054988144
H -3.8303879651 -4.2764390464 0.6009875760
H -2.0913808767 -4.6542357653 0.8553268532