10

O -0.0390066586 -0.0608953455 -0.0003391631
C -0.0016983105 1.1342573520 0.0076246188
N 1.1861482368 1.8835970706 -0.0001613131
N 2.4519571024 1.3150523330 -0.0181745218
C 3.2254767574 2.3340611924 -0.0191888301
O 2.6108773301 3.5454109456 -0.0035595673
C 1.2461656434 3.2774928604 0.0091373894
O 0.3785272151 4.0941740874 0.0248710224
H -0.8698481460 1.8123065198 0.0221811674
H 4.3035381999 2.3151112544 -0.0310322025