22

C 0.1797965751 0.9941133807 -0.5740393307
N 0.7245970462 -0.3452236506 -0.3798548757
C 2.1411788321 -0.4678136243 -0.0598748181
C 1.0999248567 -0.8025553374 0.9627272156
C 0.9571946413 0.1295353635 2.1616445586
O -0.3834361229 0.4252820827 2.4963350279
C 0.7774702562 -2.2792627686 1.1909407113
C -0.7061236293 -2.6250743466 1.2661085794
O -1.2335166242 -2.2093335891 2.5345582085
H 0.7304342028 1.7896263562 -0.0511634882
H 0.1964544473 1.2220439776 -1.6449074773
H -0.8536858593 1.0174740592 -0.2211570840
H 2.6875373882 -1.2569711159 -0.5725021366
H 2.7098996849 0.4504879633 0.0868787855
H 1.5002364479 -0.3169887796 3.0119202868
H 1.4381796511 1.0889270530 1.9518292095
H -0.8178457598 -0.4224254261 2.6882667433
H 1.1905203977 -2.8503508355 0.3532539861
H 1.2730402991 -2.6392430283 2.1014828869
H -1.2347048288 -2.1330596313 0.4390905161
H -0.8337465289 -3.7110628315 1.1603502939
H -2.1842259733 -2.3581171713 2.5312085313