20

C 0.1118003281 1.4871752471 -0.0180625289
C -0.0783415993 -0.0191834230 0.0043641051
C -0.8690514975 -0.6413498238 1.1086704873
N 0.5961004946 -0.7157208561 1.1098672742
C 1.1909290314 -2.0303723794 0.8177873374
C 1.8469399669 -2.0806210353 -0.5655127411
O 2.2355107835 -3.4352692684 -0.7660135850
C 0.8663752502 -1.6037304166 -1.6129158143
C -0.0452082942 -0.6748027707 -1.3334140430
H 1.0624209716 1.7526897376 -0.4926451600
H -0.6936236618 1.9720546251 -0.5814503087
H 0.1141342544 1.8853578576 0.9995090445
H -1.3125147421 -0.0186253951 1.8829960181
H -1.4182880296 -1.5536102572 0.8836061645
H 1.9364880564 -2.2523219430 1.5882394762
H 0.4451773476 -2.8354942720 0.8409123938
H 2.7363118155 -1.4281989216 -0.5681579840
H 2.7727963152 -3.4784010818 -1.5629695549
H 0.9256608883 -2.0630626096 -2.5968344700
H -0.7495007591 -0.3263020739 -2.0853569311