19

O -0.0326672125 -0.0323045304 -0.4967802389
C -0.0067264440 1.0970572455 -0.0281516772
N -1.1880963377 1.7385394703 0.3067659674
C -1.5614000202 3.1363548039 0.5111185221
C -0.4539284255 4.0585584358 1.0089823562
C 0.7352937813 4.1869975409 0.0186858824
C 1.4296379657 3.0308009349 0.7983943232
C 0.5149464408 3.3729875237 2.0122728849
N 1.1882901417 1.7228206575 0.2375298790
H -1.9571522599 1.1378098385 0.0500450995
H -1.9742266973 3.5655894280 -0.4163154195
H -2.3744396573 3.1405335178 1.2486529934
H -0.9171007166 4.9956654916 1.3287034369
H 0.5412899106 4.0150919860 -1.0435070185
H 1.2658226872 5.1349056411 0.1420641163
H 2.5056964443 3.1204257471 0.9551512050
H 0.9930596930 4.0983559935 2.6750829020
H 0.1376934282 2.5340388357 2.6000585664
H 1.9741813183 1.1694054288 -0.0586767206