15

O 0.2310814766 1.2135508735 -0.5444974238
C 0.0443031084 -0.0427024213 0.0288990301
C 0.0493720421 -0.1332515986 1.5882996113
N -1.3472589022 -0.5598904992 1.5226473761
C -2.1412245148 -1.1128276086 2.4754611536
O -1.8072607763 -1.2515318442 3.6308727185
C -1.4739345204 -0.4521994585 0.0684152804
C -2.4241001960 0.5552394299 -0.4076595574
N -3.2038025097 1.3206765565 -0.7818068159
H 1.1739188412 1.3991210896 -0.5989196311
H 0.6543218590 -0.8163238944 -0.4502557335
H 0.7171051390 -0.8758413836 2.0342684978
H 0.1892910510 0.8354117059 2.0784051710
H -3.1272252829 -1.4178406266 2.0719973719
H -1.6893723251 -1.4009901404 -0.4360373291