22

C -0.0266279973 1.5712310053 0.0255394446
C 0.0154632470 0.0413516401 -0.0130147447
C 0.7237045741 -0.4897971325 -1.2643096440
C 0.6445215597 -2.0155807011 -1.3438180871
C 1.5107018411 -2.5877077157 -2.4671779251
N 1.0441071300 -2.6021673119 -0.0656427227
C 0.9747240846 -2.0374574583 1.1803493501
O 1.1685325763 -2.6925551365 2.1883576552
C 0.7077580626 -0.5369199615 1.2284795113
H 0.9862753594 1.9910626903 0.0197537566
H -0.5613460997 1.9760514160 -0.8401536676
H -0.5292496970 1.9306380815 0.9294265059
H -1.0203038437 -0.3286042940 -0.0320911572
H 0.2784194452 -0.0679280811 -2.1721020958
H 1.7777800575 -0.1792496482 -1.2476781792
H -0.4045151900 -2.2850796534 -1.5525806028
H 2.5633840086 -2.3305782039 -2.3127986334
H 1.4294250962 -3.6793026829 -2.5120352276
H 1.1920393447 -2.1907844165 -3.4358800629
H 1.1923672696 -3.6020775279 -0.0398646520
H 1.6838623240 -0.0500547056 1.3643350892
H 0.1402781569 -0.3439418421 2.1427427091