16

C -0.0914775285 1.5579462398 0.0188422235
C 0.0271394661 0.0511260162 0.0658287076
C 1.3344993691 -0.6729618738 -0.2361358339
C 2.5415052076 0.0753560978 -0.4083981831
N 3.5146174698 0.6949489992 -0.5049020588
C 0.7137266601 -0.6621351964 1.2056131056
N 1.2759451827 0.0725644268 2.2940590131
C 0.1564234105 -1.9369324413 1.6062349620
N -0.2757836401 -2.9672454819 1.9030693457
H 0.8521252503 2.0625140614 0.2410066935
H -0.3918659589 1.8718096952 -0.9850134243
H -0.8501619873 1.9069205554 0.7253133959
H -0.8415920243 -0.4733638290 -0.3188712143
H 1.2790639102 -1.5993320240 -0.7964551895
H 2.1176416876 -0.3722020294 2.6460646282
H 1.5101663952 1.0210969840 2.0297144489