19

C 0.1766267168 0.7623493512 0.9390724731
O -0.0484603099 -0.0167265253 -0.2245025463
C -1.2908961769 -0.6223478283 -0.2351454186
C -1.4340962148 -1.8501012245 -1.0590544998
C -1.4894126140 -1.9716712670 0.4669059599
C -0.4065281435 -2.5812504101 1.1757374611
C 0.4896185506 -3.0991764974 1.7959150962
C 1.6194534077 -3.6664524282 2.5281890989
O 2.4019790987 -2.6930465242 3.2109519675
H 1.1647805283 1.2151126661 0.8313901672
H -0.5719982070 1.5629532823 1.0347066838
H 0.1539936348 0.1445968856 1.8455677758
H -2.1350661118 0.0675564814 -0.1770236181
H -2.3504049545 -2.0080627385 -1.6158774110
H -0.5308052491 -2.2165764571 -1.5316707110
H -2.4748538398 -2.1314590510 0.8960697205
H 1.2601277002 -4.3534512515 3.3026818016
H 2.2405848267 -4.2632893296 1.8409383695
H 2.6399851875 -2.0189943438 2.5658972196