20

O 0.2040354089 0.3481274958 1.1058155626
C -0.0835226918 0.1405388021 -0.2858676139
C -1.4826232049 -0.4322747248 -0.3655649459
C -2.0345479846 -0.9354708862 -1.7477510792
C -2.2043620510 -2.3260141538 -1.1226056542
N -0.8441246000 -2.7319415712 -0.6915888904
C -1.6651402164 -1.8612075079 0.1865812294
C -1.9452699473 -2.2084992957 1.6160245250
O -0.7970353475 -2.0655184853 2.4308805813
H 1.1417281632 0.5417828048 1.1973501113
H -0.0197782207 1.0935530468 -0.8312582801
H 0.6241862036 -0.5695749875 -0.7296742201
H -2.1884745667 0.2566882688 0.1089238786
H -2.9740910732 -0.4524855131 -2.0227398495
H -1.3419724050 -0.8982736524 -2.5930500783
H -2.9614373043 -3.0690500090 -1.3436166061
H -0.9071738502 -3.6750617859 -0.3081939045
H -2.7793109415 -1.5844470740 1.9812559447
H -2.2674116308 -3.2547575937 1.6961592036
H -0.3887248000 -1.2180195077 2.1902619357