19

O -0.0779448808 1.3783393873 0.2187417608
C 0.0610914401 0.0287355228 -0.1763490278
C -1.2757373733 -0.6929354005 -0.1823587634
O -2.1011648925 -0.0032278369 -1.1255571876
C -3.3927052865 -0.4654873950 -1.1963114802
C -3.7896456975 -1.7561335186 -1.8861533694
C -4.3626013369 -0.4383929440 -2.3425030551
O -5.4529115039 -0.0484322657 -1.5029702615
C -4.5631981958 0.0510451710 -0.3559453905
H -0.7682098896 1.7490413378 -0.3432644907
H 0.5171624615 -0.0559758102 -1.1756817414
H 0.7338157166 -0.4512185156 0.5418729150
H -1.1596894934 -1.7463774023 -0.4746008920
H -1.7304624535 -0.6525923682 0.8172813658
H -3.0144279022 -2.1542003691 -2.5344193805
H -4.4313821648 -2.4911891714 -1.4076835423
H -4.3182662720 -0.0432871033 -3.3499730921
H -4.9065232115 -0.5496989230 0.4936479430
H -4.4346447740 1.0970432351 -0.0551978700