24

C 0.5914372376 1.1982801774 0.4397885091
C 0.0990634632 -0.1179245167 -0.1783251380
C 0.7526917937 -1.3290120064 0.5071372779
C -1.4270043937 -0.2091905466 -0.0507542845
O 0.3042207249 -0.1609550649 -1.6059935650
C 1.5205711027 0.2505373572 -2.1920605029
C 2.6730267705 -0.7261185300 -2.0709609188
C 4.0404254305 -0.2851110157 -2.4376544282
N 3.7115186540 -0.5899865135 -1.0335408249
H 1.6828761126 1.2747001329 0.4526917130
H 0.1891975954 2.0586228292 -0.1043025681
H 0.2541121547 1.2653220413 1.4782746996
H 0.4837808399 -1.3538678511 1.5685709542
H 0.3977409646 -2.2548151151 0.0447755882
H 1.8422597392 -1.3064101557 0.4350997073
H -1.9027212429 0.6566820649 -0.5198540522
H -1.7897386242 -1.1100995790 -0.5530824930
H -1.7293666297 -0.2502836160 0.9998161100
H 1.2767323368 0.3664759286 -3.2555659415
H 1.8444285336 1.2395153476 -1.8302237788
H 2.3956690851 -1.7596072711 -2.2673280298
H 4.7307219134 -0.9762172405 -2.9123460186
H 4.1803089236 0.7560416187 -2.7209268724
H 3.5762881646 0.2828361144 -0.5270726226