21

C -0.2372720153 1.4893798532 0.1809483882
C -0.0333419139 -0.0136528846 0.0574611022
O -1.2622884805 -0.6982146734 -0.0617542420
C 1.0898217143 -0.4184213317 -0.9302424886
O 1.9746442302 -0.7237922580 0.1650567868
C 0.9046175856 -0.6533447463 1.1238257342
C 1.1800800509 -0.0189943913 2.5014753324
C 0.3050016466 -1.1300192638 3.1447866579
C 0.4516182346 -1.9521782614 1.8354854343
H 0.7165870038 2.0065359615 0.3161951146
H -0.7028609517 1.8868991787 -0.7301657739
H -0.8862819505 1.7265227818 1.0295664559
H -1.8435644140 -0.1854451301 -0.6324387183
H 0.8347203950 -1.3068794845 -1.5216893899
H 1.4968404255 0.3613361758 -1.5849378675
H 2.2392210516 -0.1379232504 2.7487356810
H 0.9000431734 1.0256406063 2.6578590227
H 0.6747079101 -1.5836183573 4.0662182747
H -0.7246365000 -0.8006496772 3.3057718005
H -0.4295875023 -2.4577218634 1.4403881263
H 1.2907090366 -2.6521652440 1.8813748586