17

C -1.0436307163 1.0832091711 -1.5648287520
C 0.0971297465 0.2293565326 -0.9964297242
C -0.2094661258 -0.1836829030 0.4410466957
O -0.0300127048 -1.2729238402 0.9206820667
C 0.4162672843 -0.9846260989 -1.8729116353
O -0.3332080395 -1.3505635213 -2.7423624167
C 1.7147696094 -1.7517513412 -1.5752951570
C 2.8892022802 -0.9029399550 -1.4365995490
C 3.8475370002 -0.1843908375 -1.3332567831
H -0.7646045025 1.4953293371 -2.5365920979
H -1.9440226014 0.4813420880 -1.7066846064
H -1.2744944744 1.9151588116 -0.8926952937
H 1.0111993752 0.8374734640 -0.9198203150
H -0.6377225817 0.6446279200 1.0491523688
H 1.5334289176 -2.2952606282 -0.6382556480
H 1.8458408097 -2.4870761095 -2.3744474360
H 4.7053431133 0.4348785303 -1.2408140069