12

O -0.1930339292 -0.0224640494 -0.0004214789
C -0.0741112450 1.1690802048 0.0079041065
N 1.1556596197 1.8528617664 -0.0005997072
C 2.4702526782 1.2969771283 -0.0201548756
O 2.7583209613 0.1351239945 -0.0325455902
C 3.3945846486 2.4763457279 -0.0204977740
C 2.6855349839 3.6058529260 -0.0033825963
C 1.2313930970 3.2706996617 0.0101974320
O 0.2888381857 4.0179847419 0.0268352198
H -0.9074596730 1.8902267641 0.0231855176
H 4.4667442999 2.3413520623 -0.0335055167
H 3.0276362130 4.6308363713 0.0012465130