19

N -0.0417956807 1.4580258209 0.0327905221
C -0.0348184368 -0.0075055964 0.0101159749
C 0.4776398218 -0.5992900705 1.3779726811
C -0.7988138163 -1.3382736113 1.8217309636
C -1.2276913368 -2.0522859256 0.5063983877
C -1.4757184416 -0.5911457124 0.0351040410
C -1.9071084299 -0.2962020897 1.4983436148
C 0.7322214787 -0.5244357262 -1.1404909909
N 1.3376313491 -0.8815351049 -2.0597344606
H 0.9103283131 1.8061756489 0.1084001342
H -0.4061322977 1.8159075393 -0.8468083983
H 1.3338346699 -1.2651265055 1.2494531707
H 0.7578247277 0.2138935268 2.0524029642
H -0.7550709244 -1.8612952924 2.7768395884
H -0.4872159042 -2.6528484012 -0.0291861735
H -2.1599383757 -2.6100597170 0.6125958968
H -2.1000112437 -0.3512701994 -0.8261881082
H -2.9099310764 -0.6742259913 1.7074050598
H -1.7899340762 0.7239417479 1.8659393122