20

C 0.0385821566 1.4879131960 -0.1124836542
N -0.0572741968 0.0471052600 0.0458714712
C -1.4354538888 -0.4680737375 0.2699795770
C -1.2064548380 -1.3709859185 1.4749702007
C -0.2400007005 -0.6499521938 2.4564760823
O 0.4219369681 -1.9094550261 2.8050097952
C 0.2279169201 -1.9941526367 1.3483190444
C 0.6866266786 -3.2146590785 0.6172133609
C 0.6557079771 -0.5085171257 1.1740490183
H 1.0873723219 1.7755033884 -0.2371455586
H -0.5001796337 1.7960414543 -1.0142139991
H -0.3737144204 2.0594165670 0.7400866555
H -2.1406759401 0.3446383144 0.4949422893
H -1.8122860106 -1.0046024359 -0.6090264564
H -2.0182150874 -1.9793624262 1.8719989975
H -0.4630422680 0.0456581366 3.2652738605
H 0.1360380905 -4.1006562156 0.9479461338
H 0.5283252863 -3.0846215434 -0.4578359333
H 1.7536937571 -3.3851394516 0.7906145838
H 1.7050343479 -0.2296165171 1.2649487712