16

O 0.0895259337 -0.1417691374 -0.0519647015
C 0.0264479636 1.0581769019 -0.0941504487
C 1.2260283682 1.9868382810 -0.0148207751
C 1.2624703220 2.9718383657 -1.1524488347
C 1.8739693266 2.7466492615 -2.5004430950
C 2.3937366694 3.8814664480 -1.6068001655
C 1.3575266898 4.9921565522 -1.6511469828
O 1.3316955417 6.1479137684 -1.9568934694
N 0.3431495096 4.1246347029 -1.1795080260
H -0.9539503564 1.5794895225 -0.1911973985
H 1.1556685199 2.5439157395 0.9297308337
H 2.1322650692 1.3758719961 0.0028044631
H 2.5526840343 1.9031298405 -2.5927246460
H 1.3185361834 2.9810246328 -3.4036498495
H 3.4194264630 3.9352028130 -1.2705688561
H -0.5772641279 4.0947248515 -1.6061585977