17

C -0.2721727308 1.4420485969 -0.2664235981
C -0.0128721057 -0.0330002787 -0.0875262238
C 1.3316157284 -0.6146042943 -0.3667592002
N 0.8437301851 -0.5284800965 1.0071078804
C 1.4373235164 0.3218020281 1.9146179331
C 0.9415521180 1.0091296225 2.9891371299
C 2.0981811494 1.6017424086 3.5501849867
N 3.1956786888 1.3093813869 2.8951206278
O 2.7695852885 0.4887910865 1.8360255102
H 0.6416367158 2.0294429720 -0.1437839385
H -0.6679780720 1.6279229826 -1.2699348087
H -1.0078677223 1.8063716179 0.4580456022
H -0.8775532590 -0.6739462884 -0.2462934052
H 1.4291592952 -1.6238862420 -0.7552906214
H 2.1232583679 0.0702622785 -0.6583789980
H -0.0787148543 1.0583115737 3.3272490145
H 2.1713672405 2.2348208757 4.4241366891