12

C 0.0603227171 1.4852939969 -0.0124617021
C -0.0130394376 -0.0061400964 0.0221142363
N -0.1424425394 -0.6316524297 -1.0979871106
O -0.2098502700 -2.0075477172 -1.0662610212
N -0.1410157988 -2.7444547941 0.1566889536
N -0.0176655588 -2.1434001551 1.2216210340
C 0.0607517600 -0.7191771722 1.2913367855
N 0.1891243296 -0.1220139860 2.4068741697
H 0.9983868698 1.8242758820 0.4378860613
H -0.0107300770 1.8393178467 -1.0417730564
H -0.7473857896 1.9136097367 0.5890740276
H 0.2200688947 -0.8110290017 3.1636721523