17

O 0.4476985999 0.6379057075 -1.0824168015
C 0.0439322394 -0.2908908316 -0.1176356273
C 0.2354048340 0.0015510877 1.4026064380
C -1.1485771830 -0.6688303055 1.6939120150
C -1.4555003919 -0.5696986130 0.1315827008
C -2.3405679236 0.7018594503 0.4035714147
O -3.6085779352 0.7779070968 -0.1754244124
C -2.3264507388 0.2628340622 1.8794520173
O -3.2096145018 0.3373504781 2.6910501650
H -0.0160922268 1.4684703734 -0.9315806559
H 0.5496847916 -1.2236778362 -0.3838085071
H 1.0945956547 -0.4692600884 1.8824655380
H 0.2557287859 1.0702217369 1.6355624212
H -1.1386295199 -1.5928427465 2.2698030669
H -1.9821378971 -1.3449597441 -0.4229003625
H -1.7907176382 1.6362122591 0.2169712311
H -4.2475108291 0.6748074233 0.5427325288