18

C -0.1769994309 1.5519131388 -0.0156913014
C 0.0336210706 0.0526779833 0.0190636399
C 1.3423939931 -0.6471250821 -0.2291273661
C 2.6339142332 0.1347900844 -0.0746571849
O 2.5215406017 0.8569129669 1.1491037562
C 1.6890968168 0.1353790410 2.0452264565
C 0.7287809753 -0.6734369424 1.1711391376
C 0.1392154220 -1.8535716795 1.7284681477
N -0.3398944068 -2.7995897296 2.1924763036
H 0.6862246775 2.0976261913 0.3662213791
H -0.3609482454 1.8771855628 -1.0451957644
H -1.0544628004 1.8281272023 0.5778099280
H -0.8159923281 -0.5115221308 -0.3571856622
H 1.3547038264 -1.5451861030 -0.8351953891
H 3.4875910309 -0.5597463084 -0.0517762350
H 2.8079578987 0.8695691223 -0.8674319752
H 2.2700816694 -0.5517202276 2.6779660937
H 1.1899199061 0.8647222903 2.6904168459