21

C -0.0058664778 1.0418935417 0.5112110421
O -0.1680309579 -0.0108140995 -0.4206708435
C -1.3715530104 -0.6892615872 -0.2519316273
C -1.4951473101 -2.0277061316 -0.9068810932
C -1.4345533539 -1.9403746951 0.6027713563
C -0.1911562245 -2.3993336410 1.3736846733
C -0.7071565223 -2.5199659398 2.7885996598
C -2.0332736459 -2.4093162155 2.8547307834
C -2.6563500435 -2.1942163928 1.4946321175
H 0.9654864076 1.5013248021 0.3137216015
H -0.7906403943 1.8046323642 0.3929782893
H -0.0318067783 0.6790789172 1.5483109759
H -2.2499658078 -0.0390221453 -0.2427437924
H -2.4346597753 -2.2848992050 -1.3861092193
H -0.6101275240 -2.3975691543 -1.4151164054
H 0.1824436097 -3.3685714085 1.0112001636
H 0.6417383759 -1.6955336493 1.2675001910
H -0.0524043198 -2.7096578749 3.6321836925
H -2.6257213189 -2.4922360354 3.7592754852
H -3.3684795565 -1.3586405677 1.4770581939
H -3.2218885421 -3.0839518122 1.1786531658