19

C -0.0492770228 1.5448979087 0.0597886621
C -0.0282376660 0.0389140951 -0.0414863873
C 0.7558744809 -0.6480310709 -1.1849885209
C 1.0942811320 -1.6534818793 -0.0596857518
O 0.8774173295 -0.5942837163 0.9290478186
C -0.0323424990 -2.6566693955 0.0518713157
C -1.2567894886 -2.1384700564 0.1457378421
C -1.4060773959 -0.6281738578 0.2003787853
O -1.9252085470 -0.2346541665 1.4668221229
H 0.9687980453 1.9412320529 0.0253121741
H -0.6193237370 1.9692117460 -0.7743338932
H -0.5266911586 1.8592340662 0.9906418561
H 0.2127975287 -1.0197184794 -2.0551480031
H 1.6137964438 -0.0437537917 -1.4889899581
H 2.0963055357 -2.0798341723 0.0099740924
H 0.1682382012 -3.7228152528 0.0333598013
H -2.1546927987 -2.7382424716 0.2560608283
H -2.1342347756 -0.2754326806 -0.5399409336
H -1.2502029278 -0.5015955777 2.1057989790