22

C 0.0037336608 1.5627828447 0.0333917553
C 0.1206337641 0.0523778673 0.0711187153
C 1.3654586974 -0.7544210123 -0.2205932822
C 1.4194630523 -1.8166263353 -1.2829036390
C 2.6050416654 -0.0417421808 0.3415732298
C 1.9593579541 -0.0555421618 1.7623035928
C 0.7262638289 -0.7686560972 1.1867058070
C -0.0298719673 -1.8489820535 1.9084142737
H 0.8863011490 2.0635167980 0.4394607803
H -0.1301486764 1.9187079516 -0.9945208826
H -0.8611916989 1.9023091024 0.6146248252
H -0.7627765745 -0.4410596857 -0.3349938513
H 1.6410353989 -1.3857648627 -2.2677713173
H 2.1967793281 -2.5601323022 -1.0689726030
H 0.4649012783 -2.3471566446 -1.3675457076
H 3.5000088811 -0.6679763357 0.2918066250
H 2.8504648007 0.9349859528 -0.0894638062
H 2.5151943548 -0.6888639349 2.4591150354
H 1.7886158983 0.9122728141 2.2462901344
H -0.6291498256 -1.4363983484 2.7302027263
H -0.7174654293 -2.3738190001 1.2364184388
H 0.6484386100 -2.5944908557 2.3407373899