18

C -0.0098497293 1.5424526797 -0.0703584833
C 0.0292683440 0.0176432863 0.0284280820
O 0.6420981130 -0.4389146623 -1.1564075667
C 0.7873708173 -1.8466005457 -1.2230383940
C 1.5662368593 -2.4258384023 -0.0406953051
O 2.1432362723 -3.4951242208 -0.1453926548
C 1.5114339360 -1.6383846726 1.1749051191
C 0.7584951491 -0.5118962168 1.2590206795
N 0.5238944155 0.1448504418 2.4353808098
H 0.9993818015 1.9616648452 -0.0269571746
H -0.4527024464 1.8160153923 -1.0304107466
H -0.6251523316 1.9883811944 0.7167518137
H -1.0100495943 -0.3600436239 0.0823776399
H -0.1989464531 -2.3418943709 -1.2698787787
H 1.3220791392 -2.0712614081 -2.1479423486
H 2.0427143448 -2.0246153570 2.0404395648
H 1.0590230842 -0.1421282716 3.2406266063
H 0.2993637787 1.1253199922 2.4072462475