20

C -0.1038457853 1.4470283864 -0.0185309325
C 0.0788108011 -0.0358319317 0.0741293477
C 0.8435807554 -0.8412128660 -0.9256967895
C 1.1271720926 -2.2168093788 -0.3550102799
C -0.2812926437 -2.0772767709 0.2584968278
C -1.1837777582 -3.2531350454 0.4925935899
C -0.1526287465 -0.9168000925 1.2783941332
O 0.8636385372 -0.9297638643 2.2561648587
N -0.6506693699 -1.0079010939 -0.8299776504
H 0.7038001837 1.9691356764 0.5058861617
H -0.0998444211 1.7741493781 -1.0627218417
H -1.0555460226 1.7552042091 0.4272632994
H 1.2930664259 -0.3712095932 -1.7938667254
H 1.1425593377 -2.9773237325 -1.1407650164
H 1.9708578139 -2.3487351038 0.3275037093
H -0.7850178369 -3.8895095941 1.2920853066
H -2.1877804221 -2.9262437115 0.7835360687
H -1.2760318779 -3.8650846653 -0.4101032422
H -1.1354431689 -0.6941772630 1.7184821387
H 0.5350670158 -1.3878610831 3.0358689565