17

O 0.1010707826 1.4413342288 0.2052537256
C 0.0352913429 0.0208884209 0.0813243906
C -1.4481840002 -0.3799356724 0.1328321217
O -2.1104637472 -0.4641735827 -1.1180160169
C -1.9003515871 0.5767463948 -2.0402181502
O -0.8825287351 0.2712551080 -2.9594428184
C 0.4492041877 0.3776168856 -2.4838193285
C 0.7102193817 -0.4593037194 -1.2193583298
O 1.4335645140 -1.4247684729 -1.2243907630
H 1.0215992810 1.6953762955 0.3313283441
H 0.5571025574 -0.4697568342 0.9127527934
H -1.5335690360 -1.3790300513 0.5668488905
H -1.9494662047 0.3369400049 0.7984281013
H -2.8101976210 0.6485313667 -2.6404046839
H -1.6982185665 1.5262534725 -1.5242776252
H 1.0942125292 -0.0077098436 -3.2749382329
H 0.7033785212 1.4274401788 -2.2772402183