19

C -0.0094856621 1.4021799226 0.0179520487
C 0.0517902082 -0.1122266417 0.0161053969
C 1.4039293102 -0.7496027679 -0.1927504839
C 0.7507309628 -0.7743734073 1.1800837849
C 0.7640887909 -2.3342067120 1.1560257494
O 0.9667340046 -3.0988263626 2.2864303097
C 0.0445819426 -2.9313803943 -0.0220799316
C 1.4151381557 -2.3106678729 -0.2167239852
O 2.5021207637 -3.0185462705 -0.6910478597
H 0.8959759459 1.8353912336 0.4561507860
H -0.1067305445 1.7926999469 -1.0007095966
H -0.8660896114 1.7597698916 0.5991662747
H -0.8304689001 -0.5773211908 -0.4116669991
H 2.2762891466 -0.1807859374 -0.4921414096
H 1.0466152000 -0.2170578397 2.0618640852
H 1.8310756798 -2.8742256060 2.6500950546
H 0.1102582492 -4.0160777746 0.0037996154
H -0.8819957391 -2.5518134330 -0.4414782120
H 2.3441925072 -3.2390281841 -1.6163156176