21

C 0.2634721888 1.4163505582 -0.4139321090
C 0.0482659201 -0.0097159832 0.0675297354
O 0.5413389892 -0.9985922821 -0.8740857061
C 1.3121700843 -1.6576505392 0.1468794726
C 2.7628042681 -1.1203655198 0.2283810939
C 2.3358694206 -0.2332337806 1.4403903717
O 2.7267178421 1.1125674437 1.5375616829
C 0.8432456449 -0.6497866350 1.2441857160
C 0.0474638502 -0.9874570160 2.4864031213
H 1.2806143328 1.5681150702 -0.7888170000
H -0.4112356298 1.6315945902 -1.2486598243
H 0.0591928809 2.1368989664 0.3843433004
H -1.0290496318 -0.1624989383 0.2299892101
H 1.1447633464 -2.7370205938 0.1766307985
H 3.5478418519 -1.8485314372 0.4456985615
H 3.0320689719 -0.5652792982 -0.6741739156
H 2.6873687719 -0.6900370722 2.3716954342
H 2.5363204019 1.5489643251 0.7027976850
H -0.1870683897 -0.0787323864 3.0545259813
H -0.8990320751 -1.4803324453 2.2392587825
H 0.6086644605 -1.6531135765 3.1510070977