12

N 0.1561237145 -0.9929972845 -0.5694664846
C 0.1837716110 0.0752749378 -0.1311441672
C 0.2231760939 1.4358794568 0.4245416212
N 1.5296356197 2.0631268065 0.2490871490
C 1.7623775991 2.6178147456 -0.8491030861
O 2.9515862146 3.2473331625 -1.1307100784
C 2.7985167370 3.7251887372 -2.3828663079
N 1.6757640501 3.4829297426 -2.9384477962
O 0.9675451202 2.7424984561 -1.9483510553
H -0.5932558813 2.0133382923 -0.0300540713
H 0.0206146248 1.3700354861 1.4975800927
H 3.6142551365 4.2707584410 -2.8303224159