19

O -0.0623847205 1.3939995379 0.0288711143
C -0.0029812634 0.0041031202 -0.0375434602
C 0.2152637371 -0.7989749434 -1.3429745671
C -0.4382476696 -1.9418590924 -0.5197451327
C 0.6449005653 -2.2047346780 0.5486151270
C 0.7406046426 -0.7556427698 1.1133519368
C -0.2924153094 -0.6378444457 2.2379900230
O -1.5317375497 -0.9599148424 1.5786755061
C -1.2836520743 -0.8183029549 0.1951726454
H 0.8356788341 1.7416490214 -0.0032799188
H -0.4223547476 -0.4227542247 -2.1465222757
H 1.2334107287 -0.9566595032 -1.7083849761
H -0.9043018475 -2.7984189047 -1.0029170183
H 0.3371066492 -2.9236439213 1.3126624590
H 1.5785193003 -2.5557971299 0.1000212703
H 1.7406831041 -0.3976399581 1.3657382948
H -0.1290580451 -1.3501619881 3.0533091347
H -0.3401762043 0.3789784629 2.6517047789
H -2.1847760802 -0.5020498358 -0.3297215313