19

C -0.0316799408 1.4950430448 -0.3024082549
C 0.0311587405 -0.0003509468 -0.0844653762
C 1.3232223853 -0.7451020630 -0.2607994312
C 0.7208052513 -0.6038155006 1.1154201347
C 1.2903853052 -0.0455068233 2.4224608302
C 0.7210898266 1.2220047436 3.0213356992
O 0.7607757460 -1.2405610862 3.1134145343
C 0.2279340771 -1.7447748050 1.9486704728
O -0.3831327270 -2.7557634251 1.7973507049
H 0.8986835561 1.9849336358 0.0014974851
H -0.1893781608 1.7163479588 -1.3631832503
H -0.8521090258 1.9520597959 0.2596113715
H -0.8637324535 -0.5424414703 -0.3808846810
H 1.3108593105 -1.7349875856 -0.7039947327
H 2.2150569875 -0.1606086790 -0.4664905896
H 2.3832395177 -0.0635466062 2.4770969301
H -0.3696647067 1.2341149780 2.9466996314
H 0.9972559211 1.2906687896 4.0776512402
H 1.1176428997 2.1035582548 2.5087260817