19

O -0.7742787809 0.9113426244 0.6376027901
C 0.0600341781 1.0460676402 -0.2231058054
C 1.3044084421 1.8837924279 -0.1328114082
C 1.2159666328 3.2804976133 -0.8460027174
C 0.4654831264 3.7546269832 0.4453872157
C 1.4822173344 2.7692474299 1.1274889014
C 2.8013456292 3.5263680015 0.8668089271
C 3.7793155594 3.0458959533 -0.1773735707
C 2.6073795611 3.8992188678 -0.5960228150
H -0.0365515888 0.5047372487 -1.1940102168
H 2.1274617970 1.2355481217 -0.4497011566
H 0.7885886767 3.3795349673 -1.8446306214
H 0.5533180509 4.8133100971 0.7021262303
H -0.5711395271 3.4236943462 0.5123272903
H 1.3074965583 2.3607231823 2.1214611011
H 3.1275308696 4.2466347260 1.6083264333
H 4.7371726611 3.5576879252 -0.1768899504
H 3.8647617950 2.0016274379 -0.4546726938
H 2.7852149148 4.9014000861 -0.9695755134