17

C -0.0781129098 1.6015999471 -0.0150909626
C 0.0259483511 0.0670954099 0.0233135912
N 0.8408100915 -0.4137125632 -1.1340206367
C 1.7524130850 -1.1665393153 -0.6676678749
N 1.8150501315 -1.4177000595 0.7365650882
C 2.1984418740 -0.1674923820 1.4542420495
C 0.7706821297 -0.5049579417 1.2523956512
C -1.3132345874 -0.5255137996 -0.0563703819
C -2.4138465165 -1.0055130254 -0.0958084752
H 0.9158162037 2.0527576016 0.0341230790
H -0.5567189413 1.9152109486 -0.9450367544
H -0.6749799469 1.9632415134 0.8263711341
H 2.4948183100 -1.6491392702 -1.2971558097
H 2.6530229946 -0.3277861776 2.4267706087
H 2.6427160957 0.6252786431 0.8596407320
H 0.1798886028 -0.8733318764 2.0828911928
H -3.3843749577 -1.4343384427 -0.1436944912