15

C -0.0582987311 1.4992115214 0.0423503234
C 0.0006494647 0.0457604861 0.0200587885
C 0.0554597178 -1.1565759678 0.0054197029
C 0.0847405222 -2.6246231305 -0.0195667654
O -1.2079481924 -3.2018313763 0.1453545026
C 0.7489499892 -3.1098004300 -1.2385943137
C 1.2738189408 -3.5239604381 -2.2469127232
C 1.8651179363 -3.9869139020 -3.3812649219
C 2.3891939148 -4.3984106853 -4.3881621880
H 0.6479906040 1.9112708888 0.7709903908
H 0.1864579414 1.9217406652 -0.9379796912
H -1.0597793299 1.8479322802 0.3166737217
H 0.6525707034 -2.9861187173 0.8482848429
H -1.7601707112 -2.8741882930 -0.5743330838
H 2.8511280900 -4.7604440814 -5.2729435658