19

C -0.1391408233 1.6044781236 -0.0149365661
C 0.0251207680 0.1124406882 0.0486616551
C -0.7164382196 -0.8700320695 -0.8562761104
O -0.8121251516 -1.8640931533 0.2085650758
C -0.2160984490 -0.9422229483 1.1331340331
C 1.1795074654 -0.6570914587 0.6812710132
O 1.8838801226 -1.6478565466 -0.0234622299
C 2.1191708043 0.0641236701 1.6216542754
O 2.7809420285 -0.8509073497 2.4704619513
H 0.3446938160 2.0132055929 -0.9100155855
H -1.1984566710 1.8827295732 -0.0528193355
H 0.3029380288 2.1042120861 0.8508058849
H -1.7173736147 -0.5270810031 -1.1396857770
H -0.1847350683 -1.2513076944 -1.7347996754
H -0.5948696687 -0.9209387648 2.1496168337
H 1.2701039077 -2.3908202938 -0.1172921527
H 2.8376019918 0.6564270702 1.0313785142
H 1.5672127038 0.7581104757 2.2629554717
H 3.0784932494 -1.5643588279 1.8919933539