21

C 0.1949476441 1.5934500212 -0.2222495559
C 0.1028378073 0.1433391830 -0.1261051793
C 0.0195554339 -1.0565927047 -0.0460847896
C -0.0570032863 -2.5061035615 0.0369026180
C 0.2523095760 -3.2434444489 1.3954134090
C -1.0814829790 -3.9903047642 1.2761826042
C -2.2501058149 -3.0426950717 1.2399600726
C -2.3981180408 -1.7806581611 2.0642438651
C -1.4261791480 -3.2203983132 -0.0079465711
H 0.9599542820 1.9900474284 0.4548824651
H 0.4583304709 1.9107785339 -1.2375718274
H -0.7555402835 2.0730467117 0.0375831826
H 0.5856934307 -2.9373225960 -0.7378902529
H 1.1263077141 -3.8921237702 1.3128276999
H 0.3748933599 -2.6031646641 2.2727925288
H -1.2089303815 -5.0463977421 1.4826574445
H -3.1871203652 -3.5914059084 1.1480756729
H -1.4666097194 -1.2181321381 2.1444298850
H -3.1403105661 -1.1121248898 1.6147419712
H -2.7379618617 -2.0240468938 3.0775286338
H -1.8685928626 -3.5869389305 -0.9272672865