18

O 0.0617175441 1.4308326396 -0.4196011948
C -0.1229818318 0.0545947260 -0.1876724962
C 0.6389476394 -0.5095567092 1.0342253320
C -0.2531739720 -1.6827172169 1.5644554451
C -1.5014382880 -1.7062662301 0.6258937231
C -1.5912259773 -0.2602414484 0.1223934489
O -2.0081407312 0.6208157616 1.1543530818
C 0.4363620363 -2.9671326331 1.6135558042
N 0.9843336167 -3.9851361566 1.6390306608
H 0.9805284724 1.5731230436 -0.6667165230
H 0.1428344527 -0.5310183737 -1.0823594907
H 1.6477447404 -0.8418456271 0.7811068078
H 0.7129201360 0.2744977835 1.7900210856
H -0.5803327450 -1.4455942855 2.5797792419
H -1.3397709727 -2.3924935123 -0.2112792222
H -2.4047332952 -2.0299540141 1.1491646843
H -2.2257053332 -0.1584317183 -0.7676031097
H -2.9361431314 0.4464024211 1.3383727211