20

C -0.1273342437 1.5400214787 -0.0865750893
C 0.0444420770 0.0189229175 0.0039766903
N 0.6821538255 -0.4619567086 -1.2236767485
C 1.8641277885 -0.9003920042 -1.1777800313
O 2.7179636956 -0.9727237088 -0.1255183824
C 2.2743654110 -0.3188194600 1.0623723049
C 0.7657879278 -0.4859388366 1.2758383663
C 0.3239109454 0.2117523802 2.5638314370
O 0.4399150782 -1.8761015825 1.3352562606
H 0.8327504656 2.0613614799 -0.0028878532
H -0.5518398865 1.7899563123 -1.0618987738
H -0.7972645080 1.9188095586 0.6897178985
H -0.9537631005 -0.4348087634 0.0264549674
H 2.3466978997 -1.3027079119 -2.0666099336
H 2.8422456800 -0.7657127838 1.8854499734
H 2.5379524478 0.7458709851 1.0076286618
H 0.5806522593 1.2744973050 2.5706748867
H -0.7576751824 0.1128114758 2.6916143025
H 0.8075619253 -0.2553282339 3.4303412542
H 0.9621403445 -2.2807878091 2.0365595783