20

C 0.4396927943 1.6917085479 -0.1624444399
O 1.6937778674 1.3833536362 0.4968683646
C 1.2960441313 0.0104108267 0.7068128838
C 0.0044916268 0.2154080354 -0.1222152080
N 0.5197815286 -0.7207974706 -1.1540531510
C 0.8592812388 -0.2484133581 -2.4987912841
C 2.3184730287 0.2714645932 -2.4385654779
C 2.9667178950 -0.5399262155 -1.2916596690
C 1.7896478887 -0.9562276967 -0.3917385233
H -0.1839869058 2.3422557927 0.4653580384
H 0.5781313410 2.1658716157 -1.1394713513
H 1.3561386236 -0.2871889654 1.7562162815
H -1.0146421521 0.0018990875 0.2052345511
H 0.7856221519 -1.0902193836 -3.1994522063
H 0.1455008457 0.5099311790 -2.8362143426
H 2.8426074815 0.1413421002 -3.3895946506
H 2.3405175304 1.3363628885 -2.1949463261
H 3.4661705379 -1.4325537649 -1.6808884033
H 3.7079899402 0.0474309468 -0.7454049723
H 1.8826441662 -1.9912853653 -0.0424132038