18

N 1.1590746174 -0.7468989900 0.1302198944
C 0.0229570675 0.0322121351 -0.0048033379
O 0.0717945680 1.2495671751 0.0313986720
N -1.1441064761 -0.6815466671 -0.2351147867
C -1.1986135243 -2.1383831725 -0.3930877096
C -2.5884823327 -2.3832501085 -1.0026270290
C -3.4262070358 -1.2280239114 -0.4400079491
C -2.4377338451 -0.0854712890 -0.2973897212
N -2.7589453151 1.1350123360 -0.2416008520
H 1.9522353271 -0.2146345307 0.4542825535
H 1.0841532620 -1.6754229306 0.5136204586
H -0.3884869137 -2.4859550280 -1.0398579792
H -1.1014030023 -2.6431600391 0.5802663661
H -2.5270242656 -2.3093059183 -2.0927051744
H -2.9767772384 -3.3723191731 -0.7529564605
H -4.2683096479 -0.9319419059 -1.0653589709
H -3.8220095090 -1.4777555826 0.5522697346
H -1.9245859160 1.7139242207 -0.1353199386