16

O 0.5517161668 0.4352407933 -0.8123984149
C -0.1453053649 0.2766329657 0.4086340808
C -1.4236559109 -0.5007501527 0.2190325954
O -2.2578461995 -0.5685370627 1.3982506833
C -2.4457999307 -1.9976619997 1.2548440190
C -1.6551791287 -2.0168272454 -0.0674187232
N -2.4144446931 -1.6135405842 -1.2479776300
C -2.2691570640 -0.2525419326 -1.0695421270
O -2.6555038479 0.7065549032 -1.6822903244
H 0.0135170410 0.9977685707 -1.3817817767
H 0.5263208956 -0.2466490478 1.0961983211
H -0.4078575423 1.2382632505 0.8764641360
H -1.9613634955 -2.5378601899 2.0764781936
H -3.5019689638 -2.2798411762 1.1934908010
H -0.8722932592 -2.7547683696 -0.2328638646
H -3.0599022430 -2.1331947226 -1.8263143095