20

C -0.1668394480 1.4700690680 -0.0363083577
C -0.0305924387 -0.0242878935 0.0889997040
O 1.3056128901 -0.5663272734 -0.0277996639
C 0.6383838185 -0.6680910370 1.2169915406
C 1.2588268538 -0.1080099554 2.5207306858
C 0.9633000368 -1.4714896309 3.1680741068
C 0.3819967455 -2.0025763131 1.8948647189
N -0.4874633901 -1.6947403956 3.0542082810
C -0.9402431415 -2.8960351697 3.7529784918
H 0.6002478654 1.9827815295 0.5495749297
H -0.0667415209 1.7822413429 -1.0811923905
H -1.1516406054 1.7918650021 0.3191665978
H -0.7804237000 -0.6090363812 -0.4470993981
H 2.3270641927 0.0781508001 2.3844497523
H 0.7771730964 0.7564891345 2.9840230320
H 1.5414032505 -1.9851404887 3.9263977497
H 0.4100270868 -2.9946534923 1.4608308604
H -0.2049361347 -3.7185820829 3.7545253272
H -1.1676346529 -2.6388203753 4.7923102406
H -1.8584728344 -3.2604718582 3.2820438715