16

O 0.0404296234 1.3827869901 0.2055886809
C 0.1030616334 0.0100166582 0.1163804548
C 0.7763899238 -1.0208003731 1.0218411212
N 0.0573210028 -1.9165324392 0.0181279484
C -1.1283337508 -0.9196564789 -0.0286340725
C -1.1097512360 -0.9371333054 -1.5733350625
C -1.6497592003 0.1758725278 -2.3224873761
C -2.1092720149 1.0802001511 -2.9677055025
C 0.3665247924 -0.9229165607 -1.1213631145
H 0.9228690613 1.7463723470 0.0716826943
H 1.8664840559 -1.1186547132 0.9857703026
H 0.4068511717 -1.1291412345 2.0462093220
H -1.9733468601 -1.0262681476 0.6523937957
H -1.4188420227 -1.9007799711 -1.9918961365
H -2.5130146016 1.8883587959 -3.5255086776
H 1.2718347115 -1.0270860166 -1.7216605878