16

C -0.1202568644 1.5365730439 -0.2161085433
C -0.0195966671 0.0143057496 -0.0788706212
C -1.3512060973 -0.6197946542 0.2575199275
O -2.3395756658 -0.4510803640 -0.8260290278
C -2.4665561907 -1.7911657380 -1.0270480268
O -3.1252371479 -2.3691133240 -1.8221926580
C -1.5060096147 -2.1630930397 0.1360942321
C -0.3406630123 -2.9615282020 -0.1857303167
N 0.5975058296 -3.5856054518 -0.4422593476
H 0.8528222630 1.9646025056 -0.4699743556
H -0.8285758575 1.8093152051 -1.0032025859
H -0.4574282572 1.9991425562 0.7176719015
H 0.3641655536 -0.4290668208 -1.0044117302
H 0.6891628334 -0.2550968652 0.7138364380
H -1.7747035874 -0.2192985371 1.1823024248
H -2.0546246873 -2.6149018235 0.9666519990