15

O -0.0030827531 1.4160975766 -0.1090529034
C 0.0155538154 0.0091158390 -0.0259319321
C 0.9727992780 -0.5613519039 -0.9678625657
C 1.8044647284 -0.9620878179 -1.7398953851
C -0.0872478006 -0.6863838729 1.3891935867
C -1.5060108006 -0.0807591145 1.5254907170
C -1.3875802407 -0.6663048525 0.0941270785
N -0.7486737715 -1.8825735778 0.7364490258
H 0.9032919478 1.7217609037 -0.2193638787
H 2.5265037913 -1.3277301145 -2.4281875109
H 0.6943337439 -0.7947626308 2.1428740208
H -2.1715232561 -0.6368211677 2.1848173423
H -1.5855564640 0.9990983950 1.6214215627
H -2.1481619453 -0.7490777522 -0.6831005477
H -0.0980172630 -2.3186327594 0.0751674297