18

O 0.0685582542 1.3158053099 0.0381952319
C 0.0688731431 -0.0598812972 0.0555220815
C 0.7737182692 -0.9234266861 1.1029450411
C 0.1151324404 -1.9301397572 0.1316978330
C -1.1705425049 -1.0505702269 -0.0486525746
C -1.0393222402 -1.0872474211 -1.5658391247
C -1.7815800841 -1.7334725291 -2.6550001583
N -1.6697404073 -0.2446310157 -2.5760872619
C 0.4203587116 -1.0439484858 -1.1283884238
H -0.2850175193 1.6040024495 -0.8121876007
H 1.8673551141 -0.8888268328 1.1095949136
H 0.3743664607 -0.8886994679 2.1210211724
H 0.1320517607 -3.0167859298 0.1546192519
H -2.0587863361 -1.0606559783 0.5847769572
H -1.2566013529 -2.1800442643 -3.4952180040
H -2.7447107167 -2.1863751383 -2.4330153952
H -2.5459196644 0.1329252844 -2.2200620535
H 1.3347057818 -1.0505280431 -1.7215439659