15

C 0.0475074359 1.5240499341 0.0021908205
C 0.0390772096 -0.0040782146 -0.0655308674
N 0.6856721100 -0.5367673337 -1.2694916202
C 2.0839479313 -0.6129527676 -1.2607072134
N 2.7990317753 -0.9362953377 -2.2552417069
C -0.1229496717 -0.9041323081 -2.3442023924
O 0.2329055276 -1.3261588165 -3.4100202595
H 1.0700114171 1.9141468072 -0.0036358438
H -0.4814943761 1.9542568224 -0.8534460091
H -0.4422875653 1.8669447193 0.9188772186
H 0.5373032665 -0.4294235369 0.8120390513
H -0.9889072750 -0.3763024107 -0.0473717919
H 2.4724930590 -0.3584116623 -0.2660933689
H 3.7804270594 -0.9347204513 -1.9794183331
H -1.1912239136 -0.7618664536 -2.0796442836