19

C 0.0749376788 1.4929610459 0.1286689309
C -0.0741993585 0.0097533331 0.0044228821
C -0.1336183657 -0.7443377269 -1.1123264756
C -0.0547502727 -0.3372566710 -2.5490138544
C -0.0277768433 -2.1882758236 -0.6816024717
O 1.3768790378 -2.3513765759 -0.1869714137
C 0.9031059062 -2.1284091614 1.1204078222
C -0.5377064322 -2.2546053868 0.7850365297
C -0.0569660830 -0.8843079397 1.1970789260
H 1.0488509546 1.7544631265 0.5620767992
H -0.0051480552 1.9974503696 -0.8372773528
H -0.6878872241 1.9157571670 0.7944773728
H -0.1032743261 0.7477833743 -2.6721491191
H 0.8812362790 -0.6810404074 -3.0081379109
H -0.8725692450 -0.7764097597 -3.1347705220
H -0.2687568012 -2.9719920118 -1.3994464682
H 1.5224719210 -2.4489212299 1.9495322216
H -1.3634414895 -2.8165075321 1.2020884652
H -0.2745041710 -0.5128832502 2.1924651786