17

O 0.0666993803 1.3940422290 -0.0090234316
C -0.0376621458 -0.0204196529 -0.1034450266
C -1.4603162642 -0.4979341466 -0.1168587069
C -2.6092386039 -0.1878565326 -1.1019651471
C -3.2670812040 -1.1261792169 -0.0627810593
O -4.5744077904 -1.5276695518 0.0529186145
C -1.9427576606 -1.9637491017 0.1344891104
O -1.9423239944 -1.8390961151 1.5868321576
C -2.4329086715 -0.5515429918 1.1159430301
H -0.2673278485 1.6529064216 0.8558654620
H 0.4599077181 -0.2919710020 -1.0408820554
H 0.4968305549 -0.5258681482 0.7151940417
H -2.9649724558 0.8451231189 -1.1234480342
H -2.4948888642 -0.5792449796 -2.1178160434
H -4.8486619979 -1.9386561739 -0.7742061856
H -1.6068244796 -2.8977963820 -0.3164295023
H -2.6934704724 0.2159343256 1.8453791261