23

C -0.0591804439 1.5646110452 -0.5427296473
C -0.0249547242 0.2061454591 0.1675462300
C -1.3796979602 -0.4716500570 0.1985215430
C -1.8404402034 -1.3317671845 -0.9554209341
C -1.5365055596 -1.9608106757 0.3847895207
C -0.3317317022 -2.9066260129 0.5471883053
C -0.9205305791 -4.0914913245 1.2727260144
C -2.1829245651 -3.8877818326 1.6430822218
C -2.6880063816 -2.5261678940 1.2369458089
H 0.9297692603 2.0337171678 -0.5531262055
H -0.3937799355 1.4567088151 -1.5797874293
H -0.7495021653 2.2534834219 -0.0433482257
H 0.7002871457 -0.4474187788 -0.3321097739
H 0.3440144901 0.3406946051 1.1934997853
H -2.1571099289 0.1300162664 0.6685283854
H -2.8767617183 -1.2723002898 -1.2743300332
H -1.1353875845 -1.5041265392 -1.7646472094
H 0.1121438361 -3.1875093533 -0.4164211501
H 0.4803557300 -2.4538914725 1.1347703525
H -0.3457487395 -4.9886601862 1.4756859063
H -2.7950363557 -4.5935070243 2.1941316193
H -2.8936759832 -1.9024312343 2.1197305453
H -3.6307123420 -2.5792277512 0.6766031904