23

C 0.2913336492 1.2075145537 0.1837066683
O -0.3702253670 0.0496273571 -0.2896620718
C 0.3380391505 -0.6067254878 -1.2936914886
C 1.3527433336 -1.6888637060 -0.9344215396
C 1.7108709520 -2.0065031250 0.5009848032
C 0.0167043642 -2.0576269798 -1.5411262190
C -1.0502957604 -2.7619970677 -0.7336087474
O 0.1410297743 -2.4857583384 -2.8752863414
C -0.9399449282 -2.1327493489 -3.7162972856
H 1.2763892499 0.9710732286 0.6087452647
H 0.4292659675 1.9466258193 -0.6199013761
H -0.3403072850 1.6444759643 0.9608482397
H 0.5583185478 0.0087980331 -2.1675945105
H 2.1707452194 -1.7773704822 -1.6441948075
H 0.9192825439 -1.7038978162 1.1904455319
H 1.8894519756 -3.0782647307 0.6399827300
H 2.6249584256 -1.4798619369 0.7953699692
H -1.1023966131 -2.3649569823 0.2803555211
H -2.0389346121 -2.6244311371 -1.1828213257
H -0.8435918604 -3.8361233787 -0.6871367624
H -1.8617739714 -2.6752899666 -3.4654470861
H -1.1512579354 -1.0544769426 -3.6769853303
H -0.6474665005 -2.4003900794 -4.7347259063