15

C -0.0676712025 1.4109988723 -0.1548327857
C -0.2605819294 -0.0947566994 -0.1321824909
O -1.1618448828 -0.6375886211 0.4744842896
N 0.6690817085 -0.8034168288 -0.8580730110
C 0.5360482123 -2.2219971357 -1.0681025364
C 0.1221831511 -2.5428224710 -2.4972998115
F 1.0258503402 -2.0614454438 -3.3741772120
F 0.0426638138 -3.8661300443 -2.6820271369
F -1.0600776642 -2.0047713901 -2.8093186519
H -0.6895871639 1.8387587248 -0.9483061230
H -0.4069187305 1.8223352592 0.7964254049
H 0.9697054962 1.7061862458 -0.3344828590
H 1.3504107735 -0.3051046363 -1.4069999650
H 1.4723708560 -2.7521632365 -0.8660245054
H -0.2376003084 -2.5829018351 -0.3879923158