17

C -0.0464261921 1.5411411931 0.0527075418
C -0.0803139932 0.0319133235 0.0396909899
C 0.2870590465 -0.7347812185 -1.2936542849
C -0.8430026092 -1.7157911862 -1.0030824949
C -0.8348601107 -2.0868412735 0.4651302174
O 0.3568619495 -1.9407511688 1.2232996598
C 0.7768888795 -0.6403439428 1.1104985546
O 1.7080372741 -0.2029212082 1.7199480816
C -1.4099987066 -0.7753192330 0.0702832491
H 0.9877852368 1.8939123493 0.0031085868
H -0.6004433771 1.9555989242 -0.7947244866
H -0.4846694555 1.9358762063 0.9749331527
H 0.0505275156 -0.1006006443 -2.1510345376
H 1.3056369258 -1.1229258865 -1.3975318624
H -1.3688553128 -2.3247410095 -1.7288903561
H -1.4431671331 -2.9108651860 0.8113926435
H -2.4087965375 -0.4101585291 0.2701854152