17

C -0.2809639479 1.5290194893 0.0204963480
C 0.0827902647 0.0654338473 -0.0512971489
O 1.4028877289 -0.1557608566 -0.6786937923
C 1.9210601268 -0.6904077681 0.4738485467
N 3.0735968908 -1.0826842073 0.7713599727
C 0.6038945295 -0.6207864338 1.2348638807
O 0.5478932907 0.1968689432 2.3811126317
C 1.2842848495 -0.2103704079 3.4494558561
N 1.2001223672 0.4371041528 4.5268615805
H 0.4693975797 2.0940625508 0.5765452553
H -0.3662499502 1.9400999585 -0.9892118958
H -1.2429730805 1.6481038467 0.5277584503
H -0.6669427694 -0.5189917156 -0.5909430336
H 3.7312592602 -0.9591901789 -0.0005166285
H 0.1613323305 -1.6037400146 1.4304508533
H 1.9103253084 -1.0844230367 3.2436596980
H 1.8129807911 0.0228729712 5.2264093159