18

C -0.1368900256 1.4878679769 -0.0280403680
C 0.0382650558 -0.0019253773 -0.0212452991
C 0.8000161993 -0.7916044458 -1.1161185420
C -0.2240197579 -1.8463386674 -0.6345759892
C 0.2516838836 -2.1929718711 0.8006852770
C 0.4534896980 -0.7249621063 1.2836078249
O -1.1717050504 -0.7664285350 -0.3933983858
C -0.7052740388 -2.9191336327 -1.4819556649
N -1.0553083013 -3.7908709413 -2.1546532141
H 0.8107291659 1.9813743306 0.2109118393
H -0.4757111538 1.8381978958 -1.0063658042
H -0.8751828095 1.7884460227 0.7222760756
H 0.5669951888 -0.4317667325 -2.1180001231
H 1.8650094841 -0.9999068783 -0.9920227045
H -0.5278205971 -2.7229336070 1.3493688243
H 1.1627321301 -2.7952418501 0.8058746182
H 1.4820653019 -0.5023617912 1.5790488719
H -0.2132917730 -0.4594120502 2.1064260936