20

C -0.0136694201 1.4569317815 -0.0051300176
C -0.0780070575 -0.0364696680 -0.0051256923
C 0.4630555856 -1.0482783085 -0.9463605985
N 1.1531196421 -0.8223913823 0.3663201644
C 0.4880156955 -2.0448874051 0.9829957334
C -0.6632483251 -1.5332716624 1.8617654324
C -1.1967106017 -0.9603391027 0.5266548883
C -0.4461718132 -2.1119839685 -0.2719197397
C -1.0973542981 -3.3238418517 -0.8655478954
H 0.9478741264 1.7958386348 -0.4013292491
H -0.8122662706 1.8877596010 -0.6189431570
H -0.1161774287 1.8530812154 1.0118897906
H 0.9692207321 -0.9707275033 -1.9028741959
H 1.1996177373 -2.8104594487 1.2927127256
H -1.2834444977 -2.3550312426 2.2329377014
H -0.4279496724 -0.8419039623 2.6761386013
H -2.2373311216 -0.6858720084 0.3564896421
H -1.7799707997 -3.0508674676 -1.6788626270
H -0.3521447488 -4.0155992349 -1.2753464492
H -1.6792912838 -3.8687512157 -0.1133019379