20

C 0.0337025048 1.4432431756 0.0361930793
C -0.0911517475 -0.0439582136 -0.0400646190
C 0.4463455366 -0.9254593551 -1.1133202977
N 1.0543838935 -0.9754460798 0.2660485734
C -0.0344599915 -2.0127472912 0.5574850558
C -1.1875770180 -0.9627941535 0.5528731492
C -1.8552408650 -1.6898316010 -0.6397551213
C -0.4193801915 -2.1980861621 -0.9537051557
C -0.1268508886 -3.4155985836 -1.7907419325
H 0.9858368444 1.7683618871 -0.3946233684
H -0.7765550343 1.9343718789 -0.5151737434
H -0.0015767090 1.7917809578 1.0740426977
H 1.0114206285 -0.5857137879 -1.9747491850
H 0.1304492138 -2.8039759958 1.2868290740
H -1.7320116927 -0.6327194112 1.4357878594
H -2.5055301910 -2.5066367384 -0.3072679416
H -2.3714866028 -1.0879861658 -1.3950904203
H -0.3977587832 -3.2469089269 -2.8400246348
H 0.9382958857 -3.6699644068 -1.7595945757
H -0.6921952624 -4.2847986768 -1.4379918935