23

C -0.7164833740 1.2603344352 0.8867765432
C -0.1105022470 -0.1502608782 0.7110732853
C 0.1705734285 -0.4716241139 -0.7654332937
C 1.4166311893 0.1822746221 -1.3617281210
O 2.5942057549 -0.5288933861 -1.0214848981
C 3.2194333687 -0.2329948309 0.2151900002
C 3.9683013606 1.1139803876 0.1703070872
C 2.3707672862 -0.3275945426 1.4603331925
C 1.0520147850 -0.3109820786 1.6605464410
H -0.0237607370 2.0368999095 0.5468201530
H -1.6456007149 1.3566399723 0.3149565011
H -0.9439240389 1.4632992787 1.9380428439
H -0.8836378919 -0.8574878286 1.0443957816
H 0.2918713927 -1.5530780851 -0.8931598729
H -0.7063971019 -0.1765942837 -1.3564628472
H 1.3621150891 0.1419870820 -2.4551330993
H 1.4892763558 1.2435093665 -1.0846710819
H 3.9827412834 -1.0190894989 0.2970298190
H 3.2751470935 1.9583621824 0.1138767830
H 4.5750726426 1.2462338945 1.0714732259
H 4.6281378588 1.1394872168 -0.7013975706
H 2.9919419643 -0.3958667552 2.3540464059
H 0.7346111522 -0.3650822159 2.7023966918