18

C -0.1106845372 1.3271581426 -0.2823456388
C -0.0158052714 -0.1482409265 0.0171570876
N 1.3337360052 -0.7550488473 -0.0425491695
C 0.6496740405 -0.6729622584 1.2304694403
C 1.1699780724 0.0095153177 2.4908573848
O 0.6453575738 -1.0692281059 3.3073203688
C 0.2122398534 -1.8195960971 2.1618349448
C -1.2717467377 -2.1124000013 2.1662146810
O -1.8112018100 -2.7797553300 1.3199186660
H 0.7525062283 1.8613519957 0.1241368822
H -0.1349543515 1.5014747767 -1.3628108537
H -1.0216660043 1.7548852898 0.1497992605
H -0.8378898682 -0.7563842650 -0.3571281362
H 1.2956957661 -1.7009657544 -0.4156663572
H 2.2620478490 0.0795689400 2.5523482828
H 0.7206900077 0.9744073901 2.7530323457
H 0.7755125324 -2.7536926612 2.0242998466
H -1.8286518385 -1.6245213953 2.9968931142