17

C 0.0472630848 1.2373041214 0.2966633584
C 0.0991274790 -0.2778768096 0.5075429578
N 0.6797954158 -1.1093500701 -0.5357547613
C 1.1303124580 -0.5828675918 -1.5932162116
N 1.6828921054 -1.3922918817 -2.5823453024
C 2.1973927298 -0.9074307619 -3.7653489216
O 2.2192221252 0.2707777927 -4.0600194260
C 2.7162373019 -1.9521429974 -4.6334100263
C 3.1524062400 -2.7958433179 -5.3704944176
H 1.0471343646 1.6675456121 0.1766278061
H -0.5470096698 1.5073355191 -0.5826429464
H -0.4151302415 1.7112586167 1.1674624736
H 0.6506502492 -0.5008475631 1.4310346575
H -0.9160676842 -0.6583663878 0.6845889366
H 1.1503437870 0.4741509879 -1.8589112481
H 1.6968304976 -2.3862210056 -2.4013849428
H 3.5414027370 -3.5318363829 -6.0313908558