13

N 0.0226172508 1.3072973307 0.0069482743
C -0.0317575889 -0.0302041013 0.0001168714
C -1.1174909736 -0.8535682778 0.0013390072
C -2.4640070020 -0.4337725159 0.0104861317
N -3.5470144606 -0.0200956277 0.0182560008
C -0.6544145930 -2.2517929920 -0.0084546125
O -1.2670892041 -3.2758022302 -0.0107956844
O 0.7343315832 -2.2269519043 -0.0155080451
C 1.2050629954 -0.8929772392 -0.0108494522
H 0.8978239797 1.8007557023 0.0049538617
H -0.8254247716 1.8512163112 0.0141329453
H 1.8174222923 -0.7097645621 -0.9031730929
H 1.8266200124 -0.7192294038 0.8769948546