21

C -0.0094424632 1.5138339899 0.0923698106
C -0.0078613719 0.0200249512 0.0080344097
C 0.0271540042 -0.7381690118 -1.0917158551
C 0.0215108839 -2.2318630248 -0.7941133952
C -1.2291191587 -2.9315996805 -1.3386546867
O 1.1970223918 -2.8846453774 -1.2992839606
C 0.0678294359 -2.2682499126 0.7366091443
C 1.2692772948 -1.6670181261 1.4138576816
C 0.0084750613 -0.8417919417 1.2349357562
H 0.8589280264 1.8762664168 0.6567038561
H 0.0064156019 1.9754421100 -0.8984591795
H -0.8984955499 1.8778213903 0.6228430106
H 0.0931363193 -0.3626121138 -2.1090437314
H -1.2953462382 -2.8195779411 -2.4275651260
H -1.1927179510 -4.0007504127 -1.1052876193
H -2.1379855322 -2.5041178485 -0.9044307889
H 1.1672004899 -2.8312108427 -2.2606582664
H -0.4668631060 -3.0640563440 1.2419122797
H 1.4972339484 -2.0255045569 2.4124736294
H 2.1312468850 -1.4234269061 0.8036471325
H -0.5657571517 -0.5555146876 2.1098890381