13

O 0.0418885204 0.0669242585 0.0039132140
C 0.0066966316 1.2579677930 -0.0525735055
C -1.0748122265 2.2999386643 -0.0164909800
N -0.1404073385 3.2449730689 0.7192163258
C 1.0292709904 2.3908848146 0.0965051649
C 0.9182319546 3.1963517032 -1.2124677010
C -0.4914013920 3.5089291325 -0.7120516283
C -1.3272519034 4.5997735581 -1.1177314736
N -1.9884206996 5.4761450690 -1.4800490330
H -2.1287727919 2.2269692262 0.2177873484
H 1.9617171459 2.2645380139 0.6381160119
H 1.5310989561 4.0993927087 -1.1872345848
H 1.0477717228 2.6714799291 -2.1616094789