23

C -0.1453591267 1.6502193019 0.1071652517
C -0.0973072354 0.1304160941 0.2843712494
C -1.3719232741 -0.5666564459 -0.2047244146
C -1.3376984455 -2.0860369865 -0.0561714179
C -1.7117923972 -2.6766270243 1.2972744991
C -2.6597046617 -2.8139119984 0.1400800717
C -0.3188065236 -2.7618940744 -0.8202307863
C 0.5368752432 -3.3067886283 -1.4719387382
C 1.5674320602 -3.9729798628 -2.2562713032
H 0.7757678567 2.1224545089 0.4628255771
H -0.2728740889 1.9223469406 -0.9466956922
H -0.9806013269 2.0910723720 0.6635264769
H 0.7621316523 -0.2805618497 -0.2578589470
H 0.0633158109 -0.1147687166 1.3419851868
H -2.2365839497 -0.1823516144 0.3521504671
H -1.5448937923 -0.3157756541 -1.2593704960
H -1.1746294449 -3.5574601305 1.6276197746
H -1.9617796575 -1.9756857901 2.0869723179
H -3.5605961986 -2.2093553729 0.1360457948
H -2.7665868290 -3.7885536443 -0.3209105054
H 1.2579227791 -4.9844817136 -2.5428531634
H 1.7827955422 -3.4226792132 -3.1791597177
H 2.5065218776 -4.0610448076 -1.6979925752