25

C -0.3029216384 1.5134892545 0.0110323491
C 0.0354259890 0.0199932047 -0.0001863061
C 0.8468296420 -0.3972033019 -1.2638051419
C 1.9705497374 -1.3754698117 -0.8727659676
C 2.9984096792 -0.6268228493 -0.0032782341
C 2.2727230974 0.0240121505 1.2109059591
C 0.8080048821 -0.4547112971 1.2544351583
C 0.7961450078 -1.9960468976 1.2786091469
C 1.3755333472 -2.5409510211 -0.0600314242
H 0.6003500722 2.1334240028 0.0294565782
H -0.8686293032 1.7911513455 -0.8852765605
H -0.9091238332 1.7798026476 0.8841016610
H -0.9174956145 -0.5258376630 -0.0055808112
H 0.1862775791 -0.8499653201 -2.0116876010
H 1.2887030626 0.4891030939 -1.7371020221
H 2.4581811736 -1.7611417884 -1.7746016318
H 3.7718340168 -1.3256140085 0.3351762136
H 3.5088742691 0.1347794810 -0.6028321533
H 2.7713602126 -0.2422698701 2.1491180914
H 2.3118258879 1.1160992828 1.1456552790
H 0.3180446298 -0.0660142897 2.1547610168
H 1.3884521220 -2.3516387963 2.1294024263
H -0.2245971047 -2.3609750963 1.4363801778
H 0.5943523982 -3.0364204344 -0.6477486586
H 2.1457596481 -3.2962176675 0.1300871248