23

C 0.3214349118 1.5181707129 0.1710017936
C -0.1862453845 0.1042705073 -0.1406943136
C 0.5648088098 -0.5237487013 -1.2976144840
C 1.8428054301 -1.2890186721 -1.0964078648
C 0.5950436917 -2.0291981259 -1.5730280927
C -0.0795843100 -3.0239697046 -0.6293189544
C 0.5778407197 -4.4081882958 -0.6475015491
C 0.5550993567 -2.4076907855 -2.9630430111
C 0.5026017360 -2.7288827730 -4.1221005135
H 1.3832708472 1.5048122111 0.4381158703
H 0.2063720982 2.1792779059 -0.6947602713
H -0.2316296456 1.9610841001 1.0050201952
H -0.0919759786 -0.5157300683 0.7569836614
H -1.2574414154 0.1444748596 -0.3767289907
H 0.5301363320 0.0729227498 -2.2058189976
H 2.6586580436 -1.1556166488 -1.7968153646
H 2.1521575524 -1.4874250967 -0.0741073332
H -0.0572673275 -2.6256294483 0.3895103197
H -1.1368368035 -3.1148363676 -0.9063346604
H 0.0604131233 -5.0934317822 0.0308586004
H 0.5530060074 -4.8397969211 -1.6521902795
H 1.6258544225 -4.3498520756 -0.3351203310
H 0.4616205528 -3.0089786599 -5.1452133991