17

C 0.0592550345 1.3995946311 -0.1480433769
C 0.0032080226 -0.0855720342 -0.0066637062
O 0.5421800152 -0.9183271390 -1.0867741637
C 0.0702585101 -1.8709065941 -0.1098518168
C 0.1895673484 -3.3330553843 -0.3256999851
O 0.6735007221 -3.8454935823 -1.3014142225
C 0.5171765600 -1.0239136895 1.1410572940
C -0.8753581189 -1.1029093408 1.7979426580
C -1.2058062054 -1.0395880916 0.2933904964
H 1.0960446899 1.7336219871 -0.2503825884
H -0.4962197695 1.7189677520 -1.0348525533
H -0.3780623097 1.8840181655 0.7305335175
H -0.2194334460 -3.9363065714 0.5170625625
H 1.5122480366 -1.0281686748 1.5860592383
H -1.1236440970 -2.0299877785 2.3197463933
H -1.1783483876 -0.2406168883 2.3978664659
H -2.1653775451 -1.0616789271 -0.2232766529