21

C 0.0713395755 1.4392512174 -0.1919625984
C 0.1157047915 -0.0595224779 -0.0185141179
O 0.3157689246 -0.5821574564 1.0585052159
C -0.0771451453 -0.9592106393 -1.2510475076
O 0.0714025743 -2.3015811051 -0.8700655776
C -1.4270812735 -0.7395401476 -1.9323242985
C -2.6307028915 -1.0010599550 -1.0471195270
C -1.5157447644 0.3194108028 -3.0084097013
C -1.5117809806 -1.1419914527 -3.3835000491
H 0.7787393853 1.7566466154 -0.9651873444
H -0.9229213725 1.7510619827 -0.5268469850
H 0.3123783574 1.9257597743 0.7538725210
H 0.7150151289 -0.6796436949 -1.9689277799
H 0.2563976103 -2.2729817223 0.0836851563
H -2.6889955901 -0.2922101348 -0.2120090314
H -3.5610964252 -0.9169107638 -1.6159609087
H -2.5741960215 -2.0095971925 -0.6277082255
H -2.4446672025 0.8727780600 -3.0970511882
H -0.6316270776 0.9040623450 -3.2415871039
H -0.6229897502 -1.5463784326 -3.8554873105
H -2.4385805527 -1.5862618528 -3.7296796484