21

C 0.0458096757 1.5906999247 -0.4266125552
C 0.0201594395 0.1218088554 -0.0595649399
C 1.1577240190 -0.7357001188 -0.4335441969
O 1.0091708249 -0.2684790094 0.9085359625
C -1.3596589319 -0.4952298772 0.0423598042
C -1.6712217147 -1.7073756260 0.9757516884
C -1.6494699750 -0.7259067319 2.1874602615
C -2.4355329922 0.0103593280 1.0624879891
C -3.1742773361 -1.3355465752 0.8080806330
H 1.0737385697 1.9451499544 -0.5362376024
H -0.4872411757 1.7659859156 -1.3675328574
H -0.4427316778 2.1889781612 0.3495244128
H 1.0069628698 -1.8056846376 -0.5724215857
H 1.9956421253 -0.3114312645 -0.9861078182
H -1.7554577592 -0.6028816065 -0.9764283761
H -1.2314832182 -2.7046525776 0.9250440189
H -2.2410671721 -1.0304840319 3.0556853085
H -0.6819732789 -0.3246177299 2.4799600026
H -2.8833845383 1.0047948373 1.1061829326
H -3.6154065172 -1.4812551359 -0.1823761749
H -3.8452933369 -1.6744662143 1.6015855225