18

C 0.0675152100 1.5447208356 0.0052125903
C -0.2717914001 0.0625760716 -0.2006322018
C 0.5787641973 -0.5562374859 -1.2894547988
C 1.9306513139 -1.1128555715 -1.0187538755
C 0.8175555510 -2.0801394414 -1.4026502333
C 0.2894407489 -2.9889515915 -0.3684981647
O 0.3706542374 -2.8342493329 0.8301006083
C -0.4025006514 -4.1854468287 -0.9023456978
N -0.9396404021 -5.1197010934 -1.3218292879
H 1.1121725249 1.6723147977 0.3067561140
H -0.0869611861 2.1219222852 -0.9129985202
H -0.5635921765 1.9822240300 0.7841122473
H -0.1309607540 -0.4855916567 0.7345543421
H -1.3307613521 -0.0375578990 -0.4691074289
H 0.4460583517 -0.1016867963 -2.2686633712
H 2.7273373155 -0.9775980068 -1.7410948493
H 2.2452433774 -1.1724998454 0.0181435265
H 0.8129032641 -2.4847362606 -2.4079720490