15

C 0.0297012936 -3.7817658000 -0.0424868160
C 0.0383432375 -2.5739190206 -0.0201158073
C 0.0458550134 -1.2147837254 0.0062497948
C 0.0522159563 -0.0032011363 0.0268879365
C 0.0536374156 1.4239688044 0.0534112878
C 0.4456908841 2.2464825684 1.2873960012
C 1.6417895621 1.5893946195 1.9684652105
O 2.3904035050 1.5849023354 0.7171506750
C 1.3250130857 2.2581287125 0.0694214134
H 0.0243721854 -4.8430906616 -0.0642487034
H -0.7462173051 1.9010956417 -0.5097260785
H -0.2131898696 2.9921828926 1.7102785773
H 2.1338228778 2.2380154519 2.6999474361
H 1.5065224578 0.5829006715 2.3761172438
H 1.5628112803 3.0039163459 -0.6806104713