16

C -0.0116390720 1.4516031953 0.1148308428
N -0.0761541058 0.0204754353 -0.0792704716
C 0.5734532371 -0.6247513412 -1.0939321306
C 1.1928471105 0.0061967285 -2.1820640572
C 1.7943913319 -0.7728865234 -3.1661483592
N 1.8406371311 -2.1058458872 -3.1618046778
C 1.2571064537 -2.7159908860 -2.1200162381
C 0.6352572462 -2.0286259068 -1.1031568163
F 0.0675906272 -2.6860848561 -0.0722686742
H 1.0170055530 1.8179633954 0.2456867317
H -0.4557655110 1.9834093293 -0.7346017065
H -0.5854935869 1.7114960357 1.0061593560
H -0.3217141707 -0.5512091097 0.7109318792
H 1.2054392525 1.0861275953 -2.2621591526
H 2.2716890683 -0.2819021970 -4.0111923127
H 1.2825596249 -3.8022696973 -2.0862727329