23

C 0.2270141051 1.4508220228 -0.0612656518
C 0.0034027114 -0.0704543899 -0.0467161529
C -1.4979748576 -0.3825686802 0.0090447120
O -2.2326323096 0.1115772718 -1.1047757363
C 0.7138234973 -0.7532429791 -1.2339867861
C 2.2030179071 -0.8766955067 -0.8166270425
C 2.2115475957 -0.8227358757 0.7341416631
C 0.7291655964 -0.7338107162 1.1569517083
O 0.5016513082 -0.1296103370 2.4181712916
H 1.2884870637 1.7131701268 -0.1158809100
H -0.2552239646 1.8990259927 -0.9355773515
H -0.1920679574 1.9209867974 0.8355980116
H -1.6393767803 -1.4697946189 -0.0047923892
H -1.9121346891 -0.0112786620 0.9582554093
H -2.3775731046 1.0524630676 -0.9728121174
H 0.2838321858 -1.7511917027 -1.3805822637
H 0.5766289392 -0.2134363694 -2.1739397114
H 2.6470750693 -1.7992950276 -1.1989888661
H 2.7939240292 -0.0553483877 -1.2324026133
H 2.7074085643 -1.6817242742 1.1929980575
H 2.7422385216 0.0675616120 1.0939686761
H 0.3250202251 -1.7484825817 1.2678300326
H 0.9887107338 0.7008008878 2.4406651598