17

O -0.0381410561 1.4228499141 0.0302103426
C 0.0531185318 0.0089401602 0.0312487589
C -1.3278428837 -0.5912621520 -0.0309343060
O -2.1329296990 -0.2207454523 1.1091593328
C -2.5278820505 -1.6030962724 1.3312702399
C -1.7068608868 -2.0852977343 0.1141352137
C -2.4067595576 -1.9927394197 -1.2669902014
O -3.4179028250 -0.9908816643 -1.1810623644
C -2.0753458000 -0.5576272304 -1.4003202022
H -0.6287481348 1.6554544459 0.7573150074
H 0.6397035724 -0.2751128954 -0.8494729548
H 0.5765800971 -0.3658776916 0.9242283060
H -2.1587563253 -1.9661091297 2.2966864257
H -3.6114062172 -1.7293832926 1.2661135030
H -0.9618093212 -2.8685764729 0.2425780447
H -2.5331836039 -2.7683870529 -2.0133108768
H -1.8877207003 0.0704948405 -2.2638519792