22

C -0.2242012153 1.4623103152 -0.1337813760
C -0.2377539974 -0.0461725058 -0.3917584057
C 0.9329329896 -0.5231940139 -1.2590349287
O 2.1937152365 -0.1773059459 -0.6771045145
C 0.8595412396 -2.0232694012 -1.5647066202
C 1.9778952547 -2.4785769772 -2.5112936950
N 1.9746540605 -3.9135078757 -2.7631728005
C 1.1277976615 -4.4933401554 -3.6508642413
O 0.3103251972 -3.8955198842 -4.3205601492
H 0.7213322013 1.7685441347 0.3214479882
H -0.3363387428 2.0209460576 -1.0694183338
H -1.0405452096 1.7579231679 0.5318238586
H -0.2086405616 -0.5915098472 0.5638102996
H -1.1763452817 -0.3390855496 -0.8778038879
H 0.9175658109 0.0316340268 -2.2070215467
H 2.2240279427 -0.5771383361 0.1999109931
H 0.9194461678 -2.5884936177 -0.6231483031
H -0.1065442733 -2.2626815441 -2.0210297893
H 1.8644687656 -1.9731001474 -3.4753991347
H 2.9502626797 -2.1997536187 -2.0995282655
H 2.5911232286 -4.5079952564 -2.2337725809
H 1.2709025957 -5.5915811757 -3.7064554068