20

C -0.2566873765 1.4504806708 -0.2865136065
N -0.2294270852 0.0321419122 0.0024673665
C -1.3873508940 -0.5829332254 0.6813492378
C -0.4035039921 -1.5618765088 1.3773830601
C -0.6100309659 -1.9361152073 2.8267438114
O -0.2222218993 -2.7615822803 0.6513815409
C 0.6879618252 -0.4685955759 1.0396044797
C 2.0306731171 -0.9675611257 0.5629409972
O 2.9992356464 -1.0729835111 1.2701939708
H 0.7056002095 1.7647333697 -0.7035414725
H -1.0309033144 1.6608213322 -1.0315367279
H -0.4626488730 2.0676133463 0.6073323224
H -1.8806098768 0.0917703857 1.3998403352
H -2.1432760719 -1.0222055758 0.0204447541
H -1.4830648480 -2.5890517950 2.9218869286
H 0.2627383787 -2.4783398712 3.2020850622
H -0.7634409481 -1.0482796831 3.4449064788
H -0.1934387839 -2.5355474629 -0.2858446673
H 0.8343092128 0.2150324720 1.8908361760
H 2.0515859795 -1.2572319866 -0.5124534476