23

C 0.0745666195 1.1980734314 0.5469802750
C -0.0963019027 -0.2187768841 -0.0468327310
C -1.5679795038 -0.5437317951 -0.3149616359
C 0.7261403247 -0.3168564862 -1.3280797007
O 0.2263748529 -0.2077633863 -2.4260753803
C 2.2491936698 -0.5747076599 -1.2330993443
C 2.5158307333 -1.9759040715 -1.8099039466
C 2.9948836229 0.5046018248 -2.0296869974
O 2.6171550613 -0.5301279484 0.1461714032
H 1.1216764538 1.4077009440 0.7732313543
H -0.2982161907 1.9563514071 -0.1499377684
H -0.5001282780 1.2818404681 1.4745706945
H 0.3261757093 -0.9269051423 0.6731043502
H -1.9846614594 0.1363656394 -1.0622038524
H -1.6903727123 -1.5625552969 -0.6943519310
H -2.1502256595 -0.4494228142 0.6069634335
H 2.1552636945 -2.0403817592 -2.8389782322
H 3.5915334570 -2.1870566916 -1.8024978951
H 2.0131408614 -2.7408883456 -1.2107142596
H 2.8572981726 1.4855882392 -1.5663871603
H 4.0681546280 0.2833382284 -2.0565866481
H 2.6198675964 0.5453440455 -3.0542981785
H 3.5609254890 -0.7107782266 0.2034808113