16

C -0.0514598793 1.5314466896 -0.0857741073
C 0.0256892659 0.0292560020 -0.0262167908
C -0.8118187393 -0.7551390313 0.9474810931
C 0.6892989919 -0.8021128594 1.1464328020
N 1.3489306064 -1.8738092889 0.4420825431
C 1.1480081015 -1.6536598922 -0.9072323546
N 0.4212254351 -0.6471346445 -1.2293630877
C 1.3254677302 -0.2574447905 2.3020696630
N 1.8438099844 0.1932674984 3.2344275774
H 0.8693291739 1.9503813557 -0.5004186782
H -0.8835504606 1.8352139134 -0.7289567177
H -0.2111323253 1.9568994809 0.9085218775
H -1.3669737633 -0.1783982637 1.6787227784
H -1.2863779057 -1.6739282350 0.6185581037
H 2.2122381799 -2.2583337610 0.7943203427
H 1.5718241442 -2.3468089038 -1.6258865145