14

C 0.0199444132 1.3929612850 0.0939759156
N -0.0186208811 -0.0505018298 -0.0135932858
C -0.0925038623 -0.7996791981 -1.1438717923
C -0.0545310104 -2.1177623786 -0.7522832929
C 0.0468653546 -2.0657210232 0.6607132421
N 0.0697251599 -0.7960272152 1.0971589698
C 0.1139066959 -3.1605786016 1.5587394109
C 0.1696604424 -4.1138665625 2.2911437126
H 1.0218626685 1.7336740902 0.3715935787
H -0.2555968038 1.8279766353 -0.8680511216
H -0.6882961304 1.7197335087 0.8578514457
H -0.1666198055 -0.3416235845 -2.1174975610
H -0.0993917408 -2.9948044999 -1.3756207885
H 0.2189000496 -4.9474026559 2.9466816668