18

C 0.0410390354 1.5267116902 0.0009343378
C -0.0976227254 0.0041927599 -0.1157422014
C 0.6794127285 -0.5646377697 -1.2598948634
O 0.1814821298 -0.1523311429 -2.6340275207
C 1.1390399661 -1.0938779520 -3.0171164216
N 2.2317061307 -0.7608469768 -3.5650390299
C 3.1865666189 -0.9598917476 -2.4157779131
C 2.2353342412 -1.0651889264 -1.1946644159
C 1.0950787660 -1.8977011056 -1.6790410872
H 1.0836453074 1.8131177541 0.1688729587
H -0.2976433561 2.0149359297 -0.9166661726
H -0.5571928964 1.9067042263 0.8337792281
H 0.2496972235 -0.4864184989 0.8011274742
H -1.1505688418 -0.2722776085 -0.2477060068
H 3.8411251623 -1.8420260690 -2.4879886364
H 3.8158861174 -0.0649055963 -2.4105591471
H 2.6287321463 -1.1660709694 -0.1851253323
H 0.7492531261 -2.9016879970 -1.4697420205