19

O 0.8638179903 0.3418834697 0.5027221008
C 0.0888678888 1.1827180484 0.1359200959
C -1.4151451002 1.0962046289 0.1360034613
C -1.9844455565 2.3145437965 0.8933370366
C -1.3949057260 2.5506046767 2.2992549078
C -0.0405365057 3.1986598258 2.5511276090
C 1.0973730452 3.3930960223 1.8762022553
C 1.5254000117 3.0055113172 0.4901523698
O 0.4541804672 2.4367992076 -0.2563250710
H -1.7878442294 1.0971599020 -0.8944414669
H -1.7025748413 0.1494325522 0.5998049833
H -1.8493896651 3.2101449166 0.2824336649
H -3.0637575055 2.1652742600 1.0096243464
H -2.1150157375 3.1772023994 2.8407259494
H -1.4007663943 1.5968848619 2.8507501369
H -0.0035334552 3.5706828700 3.5753126443
H 1.8962176973 3.8990791961 2.4181596504
H 1.8552268621 3.8833550598 -0.0752076748
H 2.3648606540 2.3009260091 0.5395114308