19

C 0.0829571214 1.4386289772 0.0529743859
C 0.0564144523 -0.0165136147 0.0231325392
C 0.0535333456 -1.2210379727 0.0087491994
C -0.0161496186 -2.6789408445 -0.0300569634
C -1.4831988217 -3.1244500002 -0.0165366644
O -1.9312330355 -3.9469172359 0.7356130337
C 0.6567416982 -3.2646441276 -1.2732471507
C 2.1172076902 -3.6296543900 -1.2329819304
C 1.0692386925 -4.7143855337 -1.2781909821
H 1.1113428046 1.8162350512 0.0451385736
H -0.4323907527 1.8634847441 -0.8153334637
H -0.4067668322 1.8270562419 0.9526053872
H 0.4471225642 -3.1141859181 0.8635883271
H -2.1110973972 -2.6301427284 -0.7910014339
H 0.2840968906 -2.8532208364 -2.2065621686
H 2.7126004133 -3.4474869512 -2.1205426791
H 2.6502709982 -3.4749759517 -0.3009346014
H 0.8922827281 -5.2898919575 -0.3757937114
H 0.9467236488 -5.2787127918 -2.1956224871