21

O 0.0838769156 1.3997998189 -0.2062392163
C 0.0387901190 -0.0094219415 -0.0326924685
C 0.6959398880 -0.5304298233 1.2860231689
C -0.4176589359 -1.3288730497 2.0037113397
C -1.2840815195 -1.8094450914 0.8268730173
C -1.4311393508 -0.4869040968 0.0528924536
C -2.3045144109 0.4588366021 0.9013211826
C -1.6974037800 0.6692162050 2.2961051036
O -1.2022783327 -0.5306992563 2.8854026343
H 1.0063140552 1.6623977571 -0.2782530667
H 0.5157238939 -0.4995148549 -0.8944484905
H 1.5424042220 -1.1892561160 1.0693825335
H 1.0664045591 0.2928779589 1.9030855546
H -0.0260294649 -2.1365270365 2.6265661607
H -0.7542888390 -2.5675780025 0.2375181257
H -2.2365799757 -2.2295188838 1.1594051909
H -1.8684496361 -0.6075770022 -0.9418183781
H -2.4109092743 1.4316372800 0.4130826979
H -3.3038974760 0.0163140052 0.9858999528
H -0.8935342728 1.4141746940 2.2228688274
H -2.4438075840 1.0551142336 2.9965302266