16

O 0.7409897372 1.5065338044 1.7220197832
C 0.2579733185 1.7632212115 0.6360572382
C 0.9645454850 1.4788275602 -0.6011643908
C 1.5773674901 1.2142184565 -1.6022388354
C -1.0970739666 2.3493902550 0.5141568076
C -2.0270357258 2.6604095307 1.6935353247
C -3.2416476263 2.1681752034 0.8392308066
C -2.2833619084 1.8733606785 -0.3237074099
N -1.5102908189 3.0284292705 -0.7123014194
H 2.1200549353 0.9866963066 -2.4872856457
H -1.8275089309 2.0215166123 2.5540995598
H -2.0311871640 3.7044406615 2.0210057562
H -3.7034070136 1.2695808820 1.2529642082
H -4.0279813270 2.8966074575 0.6165194753
H -2.3264791549 1.0386055650 -1.0139778746
H -1.9757506797 3.9129843844 -0.5142185640