20

C -0.4772074542 1.0937196387 0.5254572887
C -0.1912588760 -0.3352870949 0.0606847328
C 0.5469709668 -0.3937590226 -1.2810748512
C 0.8596038378 -1.8634600309 -1.6645413866
C 1.8114405616 -2.0354281694 -2.7555440547
C 2.6187698062 -2.1925945780 -3.6330431239
O -0.2873963701 0.2268530584 -2.2441161767
C 0.3721936238 0.8821225407 -3.3096008307
H 0.4526255756 1.6519255948 0.6837601220
H -1.0678640948 1.6273192667 -0.2227299438
H -1.0311867699 1.0964707898 1.4689139140
H 0.4068427446 -0.8641834235 0.8123328730
H -1.1327478291 -0.8897523348 -0.0424943497
H 1.4956724147 0.1601991871 -1.1982198010
H 1.2483427060 -2.3794284722 -0.7773569877
H -0.0918521096 -2.3468990682 -1.9177804150
H 3.3251781549 -2.3292034925 -4.4137852890
H 1.0924275661 1.6274444604 -2.9390361831
H 0.9021532414 0.1823087843 -3.9653105002
H -0.3997260259 1.3987777661 -3.8864001972