22

C 0.9456231015 0.0093699077 0.4148067960
C -0.0351072964 -0.8874820167 -0.3484925746
N -1.4399283506 -0.5432116198 -0.1383082616
C -2.0902098346 0.2290502319 -1.0663438796
O -3.1890129531 0.7249897050 -0.9518393916
C -2.0057369085 -0.7892130275 1.1604148425
C -3.4350185970 -1.2345967588 1.2868474913
C -2.3320248766 -2.2076884228 1.6084118109
C -2.1068876072 -3.4111833820 0.7200453550
H 1.9757495311 -0.2942074230 0.2033565647
H 0.8285614994 1.0566977257 0.1196350251
H 0.7937338105 -0.0593732109 1.4958780854
H 0.1646036795 -0.8199274355 -1.4230700009
H 0.1144572411 -1.9329836021 -0.0624625808
H -1.4804454535 0.3387190905 -1.9870800773
H -1.6415315186 -0.1191198618 1.9365286884
H -4.0254236800 -0.8035523730 2.0870401549
H -3.9806570683 -1.3834275179 0.3637687247
H -2.1486681661 -2.3896578794 2.6643173337
H -2.2116492547 -3.1477066403 -0.3364949620
H -1.1114246268 -3.8455817258 0.8647733865
H -2.8413040111 -4.1934427036 0.9401048493