19

O 0.4634094501 1.0343823018 -0.1666184242
C 0.0769573859 -0.2873891764 -0.0215521466
C -0.5890106337 -0.7870837213 1.2602618983
C -0.7044670402 0.0884840573 2.4415203329
C -1.5402927737 1.0936772422 2.7039512523
C -2.6873462157 1.6597294538 1.9155008406
C -2.8999075779 1.3386104629 0.4625689227
C -2.4020392094 0.3681160587 -0.3101608022
C -1.3971056174 -0.6730181230 -0.0192823723
H -0.3240700992 1.5880544523 -0.0799028802
H 0.7827427841 -0.9471481497 -0.5164167078
H -0.3185456048 -1.8097082507 1.5146124704
H 0.0472873597 -0.1234759344 3.2008488753
H -1.4021106324 1.6014507339 3.6573174447
H -3.6222971695 1.4093613393 2.4470845073
H -2.6400262461 2.7559230725 2.0047164355
H -3.6212212007 2.0046800849 -0.0095336702
H -2.7535002328 0.3459754853 -1.3414680405
H -1.6132741964 -1.6216716994 -0.5046822159