16

C 0.0951601065 1.5265560501 -0.0578164617
C 0.0014998448 -0.0074322067 0.0313007535
C 0.6103276965 -0.5940021720 -1.2392984031
O -0.0345812831 -0.9656293651 -2.1800757980
C 0.7448723689 -0.5528086913 1.2936759144
C -0.0074693302 -0.1051069925 2.5576071460
O 0.2484528147 0.9114987969 3.1401555791
C 0.8493668510 -2.0118061594 1.2716962392
N 0.9082410003 -3.1659326218 1.2757728342
H 1.1314515564 1.8468156344 -0.2131147951
H -0.5030432829 1.8840691931 -0.8993294319
H -0.2648280100 2.0025171447 0.8566605597
H -1.0459936328 -0.3239183451 0.0593227186
H 1.7251219900 -0.6068044172 -1.2523875179
H 1.7488887434 -0.1161985306 1.3360781411
H -0.8335798536 -0.7784222475 2.8666486520