20

C 0.1778789160 1.6433032735 -0.0149787394
C 0.1129404648 0.1137965541 -0.0219073669
C 0.6089259523 -0.5414692946 1.2784786564
C -0.2599717611 -0.1888924706 2.5042499517
C 0.6212178270 -2.0654133876 1.1198569228
O -0.1473377203 -2.6705395232 0.4184811733
N 1.6026695539 -2.6977091886 1.9079682626
C 1.8394270383 -4.0617904228 2.0586289478
O 1.2364364640 -4.9576790274 1.5381530779
H 1.1944870519 2.0009529399 0.1862423678
H -0.1249445285 2.0430986785 -0.9873082405
H -0.4843133464 2.0824268066 0.7373788788
H -0.9096755794 -0.2266318914 -0.2128853007
H 0.7136460053 -0.2708324657 -0.8539144515
H 1.6360263241 -0.2009034814 1.4745939554
H 0.1005484548 -0.6876120836 3.4095448116
H -0.2527192321 0.8872311327 2.6929682717
H -1.2949182691 -0.5032751133 2.3374187659
H 2.2139264619 -2.0937417008 2.4378267306
H 2.6927622727 -4.2221103945 2.7506315447