20

C 0.0174016041 1.6638421442 0.0239435575
C 0.0601040674 0.1309986314 -0.0000533711
C -1.3340437192 -0.4907743258 -0.0061128451
O -2.1033155887 -0.0672309739 -1.1181254410
C -1.4512744151 -2.0464643050 0.1892404449
C -0.2104070335 -2.9204221515 0.2518849782
N -2.0894681809 -1.7522878478 1.4894167413
C -2.1355582489 -0.3951055700 1.3237579533
O -2.6526118537 0.5041315986 1.9385809922
H 1.0279490975 2.0792233282 0.0692131820
H -0.4597237519 2.0536564648 -0.8803196661
H -0.5423706574 2.0268359899 0.8911308076
H 0.5978817806 -0.2155516590 -0.8914429904
H 0.6136432333 -0.2355721994 0.8717606801
H -2.5100272552 0.7742011072 -0.8807182196
H -2.1660764234 -2.4401004247 -0.5411699753
H 0.5087675540 -2.5515792414 0.9876567843
H -0.4787434610 -3.9457233019 0.5280826436
H 0.2785141333 -2.9604844656 -0.7266490544
H -2.6105840513 -2.3474370182 2.1183844981