15

C -0.0701344160 1.5754040146 0.0216152996
C 0.0335465827 0.0708945316 0.0863589753
C 1.3274311993 -0.6728201001 -0.1916105967
O 2.5123259146 0.0940399315 -0.1492778583
C 2.8724587990 0.1463140884 1.2197880406
O 1.6672229328 0.1288187960 1.9637682410
C 0.7713498102 -0.6506835766 1.1997202964
H 0.8434772232 2.0492493797 0.3824745025
H -0.2411333117 1.9076885792 -1.0072778521
H -0.9026512027 1.9324938975 0.6362591096
H -0.8480796458 -0.4673759761 -0.2578630315
H 1.3702934394 -1.5477815359 -0.8315837475
H 3.5005720046 -0.7217562155 1.4852587964
H 3.4036557752 1.0816093910 1.4169105940
H 0.3524229652 -1.5071486955 1.7173357807