18

O -0.0230073608 -0.1134633801 0.1346560751
C -0.0158990263 1.0845817012 0.0979159195
N 1.1076737237 1.9142094134 -0.0156529324
C 0.9009234520 3.3690502951 0.0207913143
C 0.9517180022 3.9511791510 1.4159654882
C 2.2667400447 4.3557806482 2.0339529178
C 1.2779211410 5.4103229219 1.6044342227
C 2.4179563391 1.4283536444 -0.1285997646
O 2.7604311004 0.2801948635 -0.1032180439
H -0.9401244243 1.6964757860 0.1427636100
H 1.6615809116 3.8388526212 -0.6112822772
H -0.0657589909 3.5805739600 -0.4477874169
H 0.2138023543 3.5305756841 2.0942236154
H 2.4094315637 4.1793362478 3.0936877561
H 3.1689110982 4.2400405253 1.4420142261
H 1.5150261438 5.9959168070 0.7218847603
H 0.7402298302 5.9610086863 2.3675521451
H 3.1284375075 2.2686911538 -0.2620543056