21

C -0.1567854103 1.5754037329 -0.0680029922
C 0.0280423436 0.0564709135 0.0005744371
C 0.8893430426 -0.4993090525 -1.1313021214
C 1.3939742204 -1.9243006692 -0.7696530642
O 2.6645003336 -1.6970002497 -1.4742638655
C 2.3964512820 -0.4546082645 -0.7356164337
C 1.9415479348 -1.2553114598 0.5221120246
C 0.8202853495 -0.5127994912 1.2455265604
C 1.3298680047 0.5070723349 2.2683629334
H 0.8006677707 2.1059812626 -0.0846020639
H -0.6979841407 1.8498906953 -0.9796172346
H -0.7326547282 1.9525258421 0.7826193166
H -0.9668139790 -0.4043992884 -0.0342039169
H 0.6242869713 -0.2948235225 -2.1690784062
H 0.9024080333 -2.8898350105 -0.8983041046
H 3.1223486961 0.3538131043 -0.8279282350
H 2.7015731395 -1.7873374640 1.0951379413
H 0.1859042615 -1.2327359464 1.7771334186
H 2.0113131266 1.2360167030 1.8180545349
H 0.5081598705 1.0608011826 2.7326745248
H 1.8779773477 -0.0012366423 3.0686612566