18

O -0.1231718009 -0.0686165284 -0.3501185660
C 0.0241200056 1.0942260361 -0.0694082230
C 1.3300995900 1.8433296739 -0.1680183002
C 1.3123520975 2.9610782405 -1.2416682987
C 0.2755382154 4.0558914602 -1.0238189833
C 0.8174303279 5.2747240444 -0.9802769129
C 2.3020592638 5.1956227314 -1.1095170657
N 2.9264043018 4.4335731692 0.0124084313
C 2.6242146290 3.7528464519 -1.2636305345
H -0.8377063103 1.7016670162 0.2924535578
H 1.5442277547 2.3179220484 0.7974580325
H 2.1196220338 1.1201994705 -0.3933795728
H 1.1553593811 2.4866095100 -2.2205072916
H -0.7805489991 3.8421750552 -0.9061338040
H 0.2780547074 6.2039258751 -0.8421475415
H 2.8750338974 5.9832931387 -1.5863861668
H 3.9237168422 4.6404778365 0.0344901929
H 3.4476233925 3.4027195303 -1.8766537536