26

C -0.1204173802 1.5298008656 0.1959486133
C 0.0473548345 0.0152824949 0.0353760750
C 0.7694709478 -0.4294976690 -1.2529259344
C 2.2249809250 0.0585573698 -1.2886307674
C 0.6720188754 -1.9618921058 -1.3941811005
C 1.2220877045 -2.5915516005 -2.6886243286
C 1.1449130466 -4.1226985814 -2.6017736612
C 0.4932287421 -2.0880405609 -3.9427202819
H 0.8402532741 2.0443028957 0.2939577229
H -0.6421711073 1.9627276727 -0.6653691588
H -0.7073983419 1.7644802343 1.0897201929
H 0.5861724626 -0.3886052436 0.9041282660
H -0.9456988147 -0.4518302818 0.0541609818
H 0.2356306255 0.0307261483 -2.0965564648
H 2.8037009556 -0.3852140415 -0.4688404854
H 2.7202204347 -0.2092591820 -2.2263466495
H 2.2888135834 1.1458708867 -1.1900507194
H 1.1894036741 -2.4189074292 -0.5380273375
H -0.3836225868 -2.2543001604 -1.2962078943
H 2.2826824600 -2.3228661787 -2.7830256327
H 0.1048579512 -4.4588604759 -2.5095787139
H 1.5664040777 -4.5932688858 -3.4964043627
H 1.6934081459 -4.5016082302 -1.7327885101
H 0.8819162300 -2.5755442003 -4.8431374125
H -0.5798626765 -2.3084958573 -3.8844274784
H 0.6030912467 -1.0082605940 -4.0803947478