17

N 0.0863905309 -3.7662394582 -0.1636870437
C 0.0628200671 -2.6053773607 -0.1252690204
C 0.0340399656 -1.2412346707 -0.0784509185
C 0.0091038660 -0.0342966698 -0.0408588302
C -0.0213444920 1.4224174173 0.0277113031
N 1.3099510245 1.9889828901 0.1193146340
C 2.0720826091 1.8292192809 1.3780871437
C 2.6075612260 3.2686633391 1.1866678016
C 1.4237029859 3.4609479324 0.2085729573
H -0.5026824264 1.8089344711 -0.8806867674
H -0.6722029014 1.7173964561 0.8771083652
H 1.4224743427 1.7452001585 2.2648762741
H 2.7846814899 0.9999469053 1.3809762244
H 2.6353296473 3.9109024797 2.0664710483
H 3.5750721935 3.2933204928 0.6833159837
H 1.6061847432 3.9649605295 -0.7456221873
H 0.5562964083 3.9316352565 0.7008781020