21

C 0.1807517488 1.4681524070 0.2920516209
C 0.1664845708 -0.0229423140 0.0296238865
C 0.6964449071 -0.6171052980 -1.2705198318
C 1.2704052388 0.2341419934 -2.3836511550
C 1.4472609288 -0.8355102147 0.0111352398
O 2.6781444808 -0.1846148866 0.1353031332
C 3.1129970139 -0.0519872313 1.4688397496
C 4.4770591850 0.6145638865 1.4533414216
O 5.0857243733 0.9110179865 2.4465049166
H 1.1396179032 1.9170991069 0.0244646863
H -0.6001081821 1.9789074897 -0.2817372061
H -0.0006653568 1.6789032572 1.3516388987
H -0.6954054466 -0.5365798519 0.4487624316
H 0.1523651565 -1.4886244359 -1.6260637972
H 1.9156398194 1.0263406655 -2.0013630419
H 1.8740375223 -0.3792980215 -3.0608602794
H 0.4725858781 0.6957031856 -2.9753067541
H 1.4394891832 -1.8289258430 0.4625139672
H 2.4222786674 0.5519844375 2.0763456475
H 3.2072181215 -1.0329120867 1.9646369319
H 4.8685410267 0.8027091978 0.4291271941