21

C -0.2085620440 1.5934320581 0.1688538166
C 0.0099425602 0.0915705910 0.0658847204
C 1.1174442073 -0.5161098793 -0.8498027298
C 2.4135922151 0.1258642562 -0.3140773709
C 2.1472633203 -0.0204690823 1.2235265541
C 0.7710439244 -0.7158282507 1.1693932463
C 1.0314022200 -1.7919925096 0.0770300385
C -0.0624822242 -2.7652398370 -0.2516648383
O -1.1618794121 -2.7997190197 0.2459747993
H 0.7072273997 2.1520903543 0.3798427408
H -0.6258685951 1.9862399526 -0.7652012774
H -0.9245811730 1.8210738483 0.9662073785
H -0.9447685082 -0.3978780748 -0.1320599176
H 1.0000419811 -0.5893670673 -1.9323363556
H 3.3054466310 -0.4157958384 -0.6414333334
H 2.5239390113 1.1658197899 -0.6325887930
H 2.9002175047 -0.6375168442 1.7219106061
H 2.1123865919 0.9404411428 1.7429572806
H 0.2901881538 -0.9803734654 2.1106950929
H 1.9707170462 -2.3567033421 0.1446936119
H 0.2256925495 -3.5104022925 -1.0306889999