20

C -0.2484412217 1.5963392488 -0.1830507349
C 0.1192786295 0.1166048330 0.0373238202
C 0.7663163962 -0.5146632740 -1.1566334221
C 2.0343209235 -0.9579813170 -1.2521030387
C 2.3389192672 -1.5855969910 -2.6012477405
C 1.1319191648 -1.1358994169 -3.4592686325
C 0.0187441142 -0.7876295900 -2.4441824545
C 2.9934498280 -0.9106753393 -0.2051642701
N 3.7929343748 -0.8805577420 0.6341040672
H 0.6439793437 2.1916639148 -0.3972580399
H -0.9462669284 1.7206399956 -1.0166741692
H -0.7227309568 2.0063159208 0.7130424939
H 0.7839256462 0.0310077656 0.9025828772
H -0.7943456497 -0.4433223332 0.2803110117
H 3.2983660605 -1.2570879597 -3.0117026094
H 2.3958610372 -2.6779121077 -2.5066451619
H 1.4026924759 -0.2374285889 -4.0221179217
H 0.8245736124 -1.8933062418 -4.1837471766
H -0.6747493495 -1.6272012431 -2.2877416468
H -0.5976487279 0.0587034262 -2.7647209616