13

F 0.3643192287 0.1261059631 0.1877112840
C -0.0349041461 1.3994084660 0.0448169087
F 1.0456821187 2.1403962180 -0.2180846277
F -0.8387771541 1.4594472589 -1.0210302710
C -0.7420861659 1.8819488920 1.2953184132
C -1.5706484405 0.8767770457 2.0828947148
C -0.2654832075 1.3485636022 2.6389968727
C -1.2015340761 3.2441219794 1.2183220434
N -1.5784609499 4.3358635722 1.1749971034
H -2.4892166941 1.2477860196 2.5196773642
H -1.6216427107 -0.1240131501 1.6724868124
H 0.5791716254 0.6715559751 2.6101428553
H -0.2720611480 2.0492182080 3.4643663767