20

C -0.0308692863 1.6331659133 0.0959801894
C -0.0578497962 0.0951210171 -0.0043533177
C -1.4364317974 -0.4027961317 -0.0028641779
N -2.5215324154 -0.8001933368 -0.0414649475
C 0.6931833750 -0.4734517193 -1.2565615089
N 0.1171426325 -0.0956755729 -2.5434525642
C 2.1744176409 -0.1058270361 -1.1873230960
C 3.0817334948 -0.4089480370 -2.3156247003
N 2.7410037436 0.9903499677 -1.9893798444
H 1.0011696597 1.9913009840 0.0900134175
H -0.5652570371 2.0974630717 -0.7381099704
H -0.5135781050 1.9663508197 1.0174949970
H 0.4355575350 -0.3179279044 0.8848853540
H 0.6242876621 -1.5657245121 -1.1883272641
H -0.7186801973 -0.6395413673 -2.7285818801
H -0.1684028593 0.8785762787 -2.5475253423
H 2.5886392733 -0.1543043481 -0.1813127116
H 4.1124331672 -0.6913589792 -2.1225908680
H 2.6332097921 -0.8382614831 -3.2066098645
H 2.0437012777 1.2924797858 -2.6671916501