15

C -0.0631574359 1.5914409855 0.0250896963
C -0.1987354916 0.1198604561 0.3620740340
C -1.3045600721 -0.6878221984 -0.1630562733
O 0.0125307082 -0.8006361151 -0.7063937295
C 1.3603795644 2.0467991606 -0.0253644329
N 2.2301116594 1.8971717004 0.9704583720
N 3.3155373544 2.4474730510 0.4446592426
N 3.1627900332 2.9161119363 -0.7830536716
N 1.9181530014 2.6673255806 -1.0987300593
H -0.5177370119 1.7921930627 -0.9479542876
H -0.6061695089 2.1773817705 0.7772652195
H 0.2583314770 -0.1792952100 1.3055386463
H -1.6582945012 -1.5524574419 0.3963894808
H -2.0417023338 -0.2257223744 -0.8187567558
H 4.1945027075 2.5038152961 0.9374123884