14

N 0.1789371932 1.4187090747 -0.1004400201
C -0.0042718853 0.0285594734 -0.0440388922
C -1.1190637639 -0.7887597228 -0.0515290210
O -2.3918488897 -0.3113532198 -0.0723027461
C -0.6177781502 -2.1199433971 -0.0225080522
C -1.4015465875 -3.3517503534 -0.0106787466
O -0.9735712298 -4.4802573722 0.0311064914
N 0.7295789245 -2.1170209511 0.0049689792
N 1.0572098002 -0.8326235587 -0.0208688674
H 0.2044899460 1.8439506793 0.8220717714
H -0.5781021098 1.8550494593 -0.6151453932
H -3.0087921070 -1.0422477265 -0.1756462063
H -2.5065542547 -3.1711028551 -0.0443140462
H 2.0289492042 -0.5630355300 -0.0323093806