21

C -0.2918268097 1.5385794794 -0.0723349326
C -0.1437592831 0.0896957276 -0.0671573671
C -0.0172774438 -1.1082534449 -0.0525998254
C 0.1241304614 -2.5648324085 -0.0468557417
C -1.2259368366 -3.2740324780 0.1883857698
C 0.8117505565 -3.0645166679 -1.3261171650
C 0.1061788110 -2.8168840857 -2.6402776044
C 2.2682157249 -3.2507505998 -1.3002122476
O 1.3841338187 -4.3717862193 -1.1788777593
H 0.5137799420 2.0199898417 -0.6378326258
H -1.2416906889 1.8417566973 -0.5265640237
H -0.2682970447 1.9439408845 0.9453421263
H 0.7889051058 -2.8478146455 0.7794962401
H -1.0833064444 -4.3580388078 0.1631261541
H -1.6341789695 -2.9959695972 1.1632012356
H -1.9599537755 -2.9956933877 -0.5722952160
H -0.0703019320 -1.7469968642 -2.7835216852
H 0.7086812238 -3.1919205366 -3.4708589296
H -0.8612516590 -3.3278428095 -2.6682922034
H 2.8354107566 -3.2037284396 -2.2289698739
H 2.8317976965 -2.9998347783 -0.4023213051