18

C -0.2643905605 1.4708421391 0.0053939170
C 0.0551336144 -0.0176676218 0.0624546372
C 0.8555817253 -0.5878362041 -1.1357105811
C 1.5058340497 -1.8307167359 -0.4923604567
O 1.7463165887 -1.4592042928 0.8705897972
C 0.9277253207 -0.4242160245 1.2359167117
N 0.9111115710 0.1075262568 2.3794514051
C 0.0750345299 -0.8751856057 -2.3256867272
C -0.5812253770 -1.1235985347 -3.3015718496
H 0.6504713751 2.0620289372 -0.1026164254
H -0.9223631198 1.6909811816 -0.8400698535
H -0.7543351566 1.7833811194 0.9299012740
H -0.8801469429 -0.5885287115 0.1416132216
H 1.6510534186 0.1272011298 -1.3850438901
H 0.8277348468 -2.6913927273 -0.5281637053
H 2.4597623373 -2.1076350591 -0.9448992055
H 1.5777817861 -0.3512074168 3.0027233700
H -1.1560027566 -1.3381145998 -4.1684680093