19

C -0.3106542826 1.6904194012 -0.1765944822
C -0.1066582683 0.1824302127 0.0152762368
C -1.4505668813 -0.5676272047 0.0129838020
O -2.3272159964 -0.1200319602 1.0349881485
C 0.8187817575 -0.3798380107 -1.0503192914
C 2.3222475091 -0.0530362405 -0.9697505076
C 2.4740384572 -1.5579436827 -0.7464574321
O 3.3481429910 -2.3418491844 -0.5671891422
O 1.1267972760 -1.8075584917 -0.8245092094
H 0.6229698812 2.2481257487 -0.0553348934
H -0.7065544148 1.9078427426 -1.1757571278
H -1.0337107352 2.0586059427 0.5541570676
H 0.3715825518 0.0060488441 0.9908885709
H -1.9745372805 -0.3775495600 -0.9317420212
H -1.2712071299 -1.6486067366 0.0795513126
H -1.9870060537 -0.4391107907 1.8768969732
H 0.3879572963 -0.2676699281 -2.0506889258
H 2.7962444349 0.3162386418 -1.8802262901
H 2.6330539077 0.5582835964 -0.1202383785