16

C 0.0700311944 1.3641515165 0.0981649509
N -0.0830158781 -0.0743839490 0.0626799383
C -1.3152417384 -0.6535984635 0.0440331794
N -2.3819070352 0.0616443907 -0.0072115467
C -1.2970643336 -2.1339163000 0.0779647718
C -2.2808240881 -3.0776785167 0.0600207214
C -1.5691693014 -4.3017791901 0.1231989119
N -0.2712739184 -4.1230416192 0.1760339897
O -0.0961426035 -2.7446552652 0.1467663137
H 1.1338570569 1.6058532155 0.0602321450
H -0.4349405730 1.8230468052 -0.7572561537
H -0.3670628976 1.7955662789 1.0067965231
H 0.7182941429 -0.6634053416 0.2019823222
H -3.2129838724 -0.5231617386 -0.0382098504
H -3.3461421867 -2.9308052290 0.0102088829
H -1.9584607479 -5.3099617440 0.1324372706