19

C -0.1024722898 1.4229131312 -0.8411439484
O -0.1954563816 0.0192907558 -0.8696802389
C 0.8579681293 -0.6195530153 -0.1790755859
C 0.6499408622 -2.1275658289 -0.2947359799
C 0.7483378680 -2.6396135557 -1.7584768864
O 1.9359183720 -3.4646539469 -1.7611650066
C 2.3453940879 -3.5080179589 -0.4657822145
N 3.4775577186 -4.2504617027 -0.2722994377
N 1.7045415492 -2.8511669685 0.4215738181
H -0.1395656626 1.8137313570 0.1879758494
H 0.8287496262 1.7812071862 -1.3082536978
H -0.9533172162 1.8205646756 -1.4001698551
H 1.8349392234 -0.3422548418 -0.6118147339
H 0.8728298256 -0.3286204248 0.8826823922
H -0.3315582118 -2.3594759053 0.1346665963
H -0.1011678831 -3.2600306462 -2.0574024651
H 0.8772004935 -1.8365077156 -2.4877676866
H 3.6217174621 -4.9986193722 -0.9323366768
H 3.6507918870 -4.4912297930 0.6907934378