23

C -0.4834246124 1.4891524870 -0.1451040131
C -0.0636650404 0.0218978864 -0.0809484188
C 1.0764740301 -0.4237517227 -1.0546693057
C 1.3691432171 0.3559547052 -2.3312311939
C 2.1039821464 -0.4129018692 0.1374941138
C 3.0066176195 0.7879416926 0.2061780189
O 4.2061864224 0.7249742532 0.3226499317
C 0.8654432330 -0.3895959729 1.1082221720
C 0.9077504442 0.4304534397 2.3923441538
H 0.3600848555 2.1831487394 -0.0739611090
H -1.0011391746 1.7022085903 -1.0861826748
H -1.1723495672 1.7301087087 0.6712234476
H -0.9681650425 -0.5902604723 -0.1596072450
H 0.9138537008 -1.4733186665 -1.3206504358
H 1.5062393816 1.4261208752 -2.1520422850
H 2.2795204134 -0.0176834221 -2.8123068490
H 0.5479544769 0.2459323024 -3.0479143845
H 2.7455244504 -1.2940437528 0.2138861453
H 2.5063888512 1.7804427564 0.1428119624
H 0.6513300549 -1.4308454716 1.3704015364
H 1.0795335447 1.4950319551 2.2098144444
H -0.0368090550 0.3397331564 2.9397439251
H 1.7069915801 0.0751726120 3.0517655031