17

C -0.5849148779 0.8694583448 -2.1903966711
C -0.7487343201 -0.5985094267 -1.9087416371
O -0.3943123977 -1.4764386214 -2.6681670822
C -1.4940890858 -0.9607021722 -0.5989887220
O -2.2710502458 -0.1498049351 -0.1364186090
C -1.3090142351 -2.3320611045 -0.0434501065
O -0.2144887519 -3.0766005747 -0.4668317338
C -1.7315427780 -2.5534595723 1.3869221951
C -2.6150941022 -3.0701583606 0.2961339632
H -0.1994205237 1.0151395284 -3.1995075345
H -1.5380855628 1.3843246562 -2.0476008751
H 0.1120155668 1.3008726669 -1.4615870792
H -0.1996910288 -3.0287549987 -1.4336130243
H -1.1229245673 -3.2659919899 1.9309007782
H -2.0583890970 -1.6786150876 1.9363175215
H -3.5464117148 -2.5524140497 0.0983531816
H -2.5959615779 -4.1319654629 0.0808127053