11

O -0.1162881253 -0.0081561156 -0.0009857105
C -0.0283333161 1.1971055343 0.0076147213
C 1.2278388920 1.9086450422 -0.0010219029
C 2.2693918885 2.5232190626 -0.0080228141
C 3.4886330738 3.2117529850 -0.0163548877
C 4.7888024977 2.7885210424 -0.0337826697
N 5.5728035679 3.9107913795 -0.0345153587
N 4.8573654585 4.9492962854 -0.0179195145
O 3.4976553303 4.5569944360 -0.0048970581
H -0.9199893806 1.8532120451 0.0230242832
H 5.1959170132 1.7925755231 -0.0460680085