23

O 0.0619819286 1.4326356688 0.1599756227
C 0.0721645566 0.0167300597 0.0494059210
C -1.3720128447 -0.4848227251 -0.0382596300
C -1.3819155215 -2.0080951532 -0.2630710577
C -2.6574870053 -2.5927176558 -0.9000463430
C -4.0063928265 -2.0442022814 -0.3824270143
C -4.0302977330 -1.5371997564 1.0639877759
O -3.5343609513 -0.2158271121 1.1882198295
C -2.1310407895 -0.0771490374 1.2393666734
H 0.9651595253 1.7324526486 0.2956904713
H 0.6202480262 -0.3041120022 -0.8504183995
H 0.5716804204 -0.4469540649 0.9174006856
H -1.8408498938 0.0258400926 -0.8897910418
H -0.5332832694 -2.2906863353 -0.8993811839
H -1.1966630377 -2.4963202179 0.7031730579
H -2.6181832133 -2.4373074323 -1.9847239654
H -2.6280322475 -3.6796187357 -0.7576306502
H -4.3348641340 -1.2022753166 -1.0020151639
H -4.7704806746 -2.8227986593 -0.4957709159
H -5.0687295910 -1.4875044717 1.4092727700
H -3.4927836069 -2.2203353134 1.7427813566
H -1.7219603887 -0.6558062626 2.0884750921
H -1.9494751084 0.9812251236 1.4373315096