21

C -0.0286767937 1.5082595569 0.0384910534
C 0.0346243921 0.0023084033 0.0247883134
C 0.3044322495 -0.7327910331 -1.2845014864
C 0.5378957743 -2.1775206343 -0.8044714969
C 1.3910740061 -2.0062120892 0.4688727435
C 0.7148447907 -0.8094007460 1.1212238686
C -0.7921830243 -0.8212429876 0.9868830392
C -1.4718467192 -2.0877199273 0.4967209789
O -0.7070390593 -2.7931651173 -0.4813032889
H 0.8947448143 1.9477958296 -0.3579565820
H -0.8593661615 1.8800533838 -0.5733224966
H -0.1703533801 1.8916081212 1.0544745126
H -0.5229816387 -0.6841457705 -2.0002395922
H 1.2006111381 -0.3284490573 -1.7726891772
H 0.9924582726 -2.8246899094 -1.5568576326
H 1.3763248161 -2.9174708167 1.0749841047
H 2.4341954751 -1.7793630790 0.2175742127
H 1.1693667623 -0.3211153282 1.9764327450
H -1.3586611560 -0.2734736507 1.7350753317
H -1.6580313478 -2.7650419159 1.3434083839
H -2.4517382808 -1.8453414322 0.0592475353