18

O 0.0827197471 0.0809602201 0.6668248110
C 0.0619255679 1.1559746836 0.1146899728
N -1.0431680629 1.9738364185 0.2124811151
C -1.3798338377 3.3522886726 -0.1332542313
C -0.4052599270 4.0342714761 -1.0756980831
C 0.0474833590 3.1079381628 -2.2383702914
C 1.2731006744 2.7237672851 -1.3722938347
C 1.0535028554 4.0117453933 -0.5430921004
O 1.1376809989 1.5183402594 -0.6301157182
H -1.7214787352 1.5154841682 0.8020539347
H -2.3757429233 3.3428325675 -0.5966121609
H -1.4605586432 3.9525745894 0.7857062620
H -0.8136895957 5.0105984817 -1.3471703375
H -0.6187274840 2.2981490396 -2.5435725781
H 0.3557466674 3.6735181046 -3.1210451909
H 2.2311330334 2.6080686513 -1.8798247092
H 1.6494679980 4.8407669096 -0.9325999805
H 1.2087180075 3.9335835767 0.5360567804