21

C -0.0268088030 1.4635498660 -0.0253412368
C 0.0404359218 -0.0401622062 0.0181665764
O -1.1876789746 -0.5678894036 -0.4382547603
C -1.3021191667 -1.9906813647 -0.4639937034
C -0.0243408394 -2.6728912399 0.0257894317
C 0.2995106684 -2.1361272319 1.4370986165
C 0.7900616754 -0.7288369374 1.1299670900
C 1.3317787568 -0.7463120381 -0.3075609391
C 1.1545480944 -2.1637141278 -0.8319739728
H 0.9128598897 1.9012598771 0.3223251242
H -0.2146101437 1.8098653674 -1.0466274035
H -0.8377232669 1.8301144372 0.6120622873
H -2.1563687111 -2.2774903039 0.1658663469
H -1.5307094043 -2.2977524666 -1.4946129523
H -0.1518522890 -3.7579832235 -0.0090681559
H -0.5759644699 -2.1569724014 2.0958779418
H 1.0916751547 -2.7247224264 1.9139160604
H 1.2569519007 -0.1359680936 1.9097589515
H 2.2019102431 -0.1664903983 -0.5977891574
H 2.0596455610 -2.7559610726 -0.6548682742
H 0.9312877726 -2.2055969418 -1.9040191308