17

C 0.0339244334 1.5545633448 0.1420017434
C -0.0005325607 0.0272887257 -0.0471485287
C -1.4045041801 -0.5238443874 -0.0497849322
C -2.0378538563 -0.9282913235 -1.1831522319
C -3.4017846198 -1.4276719973 -1.1520412012
O -4.0701531894 -1.8130698270 -2.0952196295
N -3.9330353613 -1.4338528270 0.1474793354
N -3.3468587753 -1.0554250906 1.2866724603
C -2.1263376941 -0.6137972809 1.1893080646
H 1.0660359446 1.9162788105 0.1537580151
H -0.4969979340 2.0593666627 -0.6705092023
H -0.4380037333 1.8511425534 1.0838610998
H 0.4932800538 -0.2389569171 -0.9867727406
H 0.5712523521 -0.4496575451 0.7584730903
H -1.5590120119 -0.8984459494 -2.1557921185
H -4.8808516812 -1.7752256544 0.2413250333
H -1.6634026465 -0.3145624376 2.1238328129