17

C 0.0857326088 1.4988455578 0.0149135181
C -0.0081827082 0.0024950389 0.0028600644
O 0.5661111347 -0.5502723373 -1.1752951814
C 0.1313939146 -1.9344839723 -1.2516245167
C -0.7532757541 -2.1153089013 -0.0037377347
C 0.1728700014 -1.9567923426 1.2167963144
O 0.6052932457 -0.5713326340 1.1508265012
C -1.3706623399 -0.7094726772 0.0193865273
O -2.4966188408 -0.3079410495 0.0424986824
H 1.1336272132 1.8073004191 0.0024469435
H -0.4178669859 1.9068298206 -0.8635315711
H -0.3920199266 1.8909006689 0.9147988302
H -0.4244873994 -2.0901505347 -2.1829372586
H 1.0110737600 -2.5884185815 -1.2466949912
H -1.4290965581 -2.9663489732 -0.0000653478
H -0.3514943418 -2.1293386990 2.1632911170
H 1.0516558864 -2.6103130526 1.1705710229