18

C -0.6152063290 1.3860353047 0.0085381920
C -0.0123976555 -0.0013647942 -0.0463359943
O 1.2198721914 -0.0373444636 -0.8316770295
C 1.9775814835 -0.5898816324 0.2580712916
C 3.1226007823 0.2428997118 0.6439359184
N 4.0197183854 0.8867699762 0.9850576295
C 0.7480741773 -0.5294696103 1.1731873082
C 0.6817194100 -0.0876214128 2.6002072114
C 0.3305184180 -1.5087470352 2.2224829023
H 0.0921753367 2.1030102765 0.4337879031
H -0.8846542077 1.7164129005 -0.9992228415
H -1.5257618020 1.3833926174 0.6178099010
H -0.7322483800 -0.7218365487 -0.4574771823
H 2.3388562499 -1.6017334577 0.0313228731
H 1.6195852191 0.0940769870 3.1149849685
H -0.1222433449 0.5821237958 2.8871059905
H -0.7135637300 -1.8047875724 2.2489928319
H 1.0250034854 -2.2985988526 2.4904705060