21

C 0.2920464512 1.5441684581 0.0633629141
C -0.0004793618 0.0658854117 -0.0163445545
C 0.0047136673 -0.5621111779 -1.1984250272
C -0.2136060711 -2.0147706971 -1.5554623784
C -0.2810069747 -3.0212699241 -0.3955014680
C -1.4652303794 -2.7340262515 0.5000252565
O -1.2918062555 -2.8313368738 1.9186676680
C -1.4618396535 -1.5312948300 1.3344785852
C -0.2628751195 -0.5989911336 1.3311474990
H 1.1567829896 1.7400844534 0.7112891869
H 0.5019167782 1.9742661756 -0.9192911028
H -0.5519137300 2.0910027437 0.5045031625
H 0.2050110731 0.0583491323 -2.0721552646
H -1.1330464435 -2.0921518490 -2.1573052199
H 0.5901418774 -2.3174802989 -2.2404596911
H -0.3477038832 -4.0386511956 -0.7969637613
H 0.6362981036 -2.9776155547 0.1981206844
H -2.4269139918 -3.1086184041 0.1450460843
H -2.4195032375 -1.0654277669 1.5680194343
H 0.6156966103 -1.1670946943 1.6562229206
H -0.4096335693 0.1764769367 2.0907299622