16

O -0.0258876773 -0.0087710441 0.0277218235
C -0.0547340431 1.1897681525 -0.0089814492
C -1.2632450012 2.0733191189 -0.0180809778
C -1.2172700237 3.1206332034 1.0966600493
C 0.0025190958 3.0812533489 2.0062828221
C 1.1806467655 3.0350878880 1.0466991817
C 0.7229459807 3.4033120219 -0.3175422331
C -0.7989239947 3.4849613206 -0.3018921851
N 1.1364730309 2.0099799864 -0.0470772940
H -2.2177383672 1.6705888531 -0.3300372129
H -2.1723239164 3.4403946843 1.4956855161
H 0.0635569745 3.9989383004 2.6028083743
H -0.0104900177 2.2344434225 2.7010714638
H 2.1805937271 3.2381356781 1.4161671197
H 1.3129201343 3.9564926909 -1.0383003978
H -1.3419650273 4.1654993342 -0.9425564406