23

C 0.6693684612 1.1331946778 -0.2489822034
O 0.6882059655 -0.2698096233 -0.3893727590
C 0.0798721649 -0.7233440764 -1.5938177623
C 0.2136572188 -2.2374032192 -1.6813183858
C 1.6692096849 -2.7190602614 -1.7223511233
O 2.3399338906 -2.5220138809 -0.4900730830
C 1.7649794680 -4.2126436682 -2.0187678595
O 1.2664680437 -4.4488819921 -3.3176901502
C 1.2944428954 -5.8080940341 -3.6776204717
H 1.2203112023 1.6304069868 -1.0617545222
H -0.3607196560 1.5200215602 -0.2422092775
H 1.1451963014 1.3746923575 0.7041200970
H -0.9797850400 -0.4221486028 -1.6077755537
H 0.5689536114 -0.2439017965 -2.4586095257
H -0.2882631366 -2.6984379006 -0.8216452908
H -0.2933738291 -2.5802086846 -2.5891329870
H 2.1870738746 -2.1875119725 -2.5410628387
H 2.0596022713 -1.6562850993 -0.1637519664
H 2.8174430278 -4.5262211857 -1.9340865807
H 1.1903749351 -4.7783749847 -1.2659882188
H 0.6807719205 -6.4234737309 -3.0004592797
H 0.8917565023 -5.8888534624 -4.6905158397
H 2.3193026820 -6.2118603468 -3.6694972179