19

C -0.0937159214 1.4625629953 -0.1626733210
C 1.2853732970 0.8914617258 0.0554331840
C 0.0824453142 -0.0246380213 0.0411366834
C -0.3705049281 -0.7048161138 1.2811585988
C -0.3412711745 -2.1954891763 1.4942007127
C -1.6636805201 -1.4714190116 1.5661717231
C -1.8009592859 -0.6887502788 2.9072825431
O -0.6410502287 -0.9226435434 3.7214644851
C -0.5623729915 0.0348040449 2.6566137507
H -0.5375473470 2.0435244150 0.6388560635
H -0.3564135870 1.8137531738 -1.1545085627
H 1.9714489288 0.8546497004 -0.7833914439
H 1.7650391362 1.0768701183 1.0108855635
H -0.0312910373 -0.6351179364 -0.8508799330
H -0.1954196853 -2.7730706569 0.5862294435
H 0.0965151351 -2.6225065723 2.3877255368
H -2.4905818399 -1.6674784457 0.8963304013
H -2.7159094271 -0.3995055122 3.4095446295
H -0.2460558476 1.0393435952 2.9116980116