19

C 0.0499840660 1.5355380092 0.0840610810
C -0.0491125776 0.0389587893 -0.0417054606
C 0.4460574078 -0.6644585776 -1.3367914083
C -0.7751717263 -1.6645311737 -1.2519436751
C -0.4466707094 -2.9923763188 -0.6167312329
C -0.4558153666 -2.9241856414 0.7168318048
C -0.7789873799 -1.5223604984 1.1692593545
O 0.4003223165 -0.6417806964 1.1609239392
C -1.3458586789 -0.8119048597 -0.0768526185
H 1.0984776270 1.8380515597 0.1863934905
H -0.3621314256 2.0318335634 -0.8008020401
H -0.4903565677 1.8867380344 0.9684831609
H 0.3765868801 -0.0059203118 -2.2080313291
H 1.4442090218 -1.1039630656 -1.2896442324
H -1.3644937759 -1.7349967754 -2.1677438947
H -0.1676660672 -3.8650376649 -1.1982144537
H -0.1911456299 -3.7247157556 1.3974370776
H -1.3011591951 -1.4401061567 2.1265779393
H -2.3648224292 -0.4299568399 -0.0993076423