16

C -0.0137694897 1.4948565846 0.0242604378
C 0.0000407708 -0.0062050620 -0.0119588345
N -0.1233184574 -0.6113846930 -1.1929964913
C -0.1064952000 -1.9498994786 -1.1841507469
C 0.0295111808 -2.7183939265 -0.0359789683
C 0.0494865058 -4.2189192750 -0.0158095777
C 0.1485012719 -1.9466325634 1.1231388779
F 0.2843189842 -2.5799578535 2.2846056961
N 0.1378987100 -0.6405860647 1.1673886506
H 0.9151534745 1.8716314543 0.4640500577
H -0.1304661916 1.8952200394 -0.9826131184
H -0.8319919875 1.8508567310 0.6583305829
H -0.2075634975 -2.4396000718 -2.1513543809
H 0.9854314908 -4.5993364904 0.4064225217
H -0.7626649211 -4.6200134015 0.5994352402
H -0.0573820742 -4.6205653891 -1.0266892969