19

C -0.2278542587 1.3199714474 0.0248616374
O -0.1426918908 -0.0826486131 -0.0759934784
C 0.7889877443 -0.5061737026 -1.0451506452
C 0.7809677705 -2.0139167484 -1.0407621933
N -0.0884054242 -2.7000009778 -1.9971171298
C 1.3774150094 -2.8404867460 -2.1440495414
C 2.0010251270 -2.2555230468 -3.3983117219
C 1.9615814246 -4.0980415669 -1.7216930623
N 2.4225393208 -5.1102979864 -1.4031272053
H 0.7378829372 1.7679473384 0.3080459638
H -0.5550702996 1.7780143762 -0.9215811575
H -0.9635505040 1.5458711437 0.7999584157
H 0.5199395272 -0.1233103277 -2.0406153349
H 1.7994334744 -0.1341415154 -0.8001706623
H 0.8587196508 -2.4342608361 -0.0402936999
H -0.4976916962 -3.5365478343 -1.5888092922
H 1.4740041772 -1.3475719194 -3.6932734012
H 3.0569851983 -2.0213350949 -3.2353333782
H 1.9326155619 -2.9717874600 -4.2219199731