21

C -0.7327711555 1.3166889122 0.2769113763
C -0.2447676159 -0.1227211838 0.1546109935
C 0.7952079826 -0.3532650835 -0.9802555615
C 1.9287904581 -0.3906006001 0.0761748277
C 0.8699638932 -0.5734541810 1.1932667515
C 1.0088922587 0.2517712091 2.4413503365
O 1.6181544039 1.3041825388 2.4782653458
C 0.3220060627 -0.2391645443 3.7084125912
O 0.4481802876 0.6787105138 4.7507272473
H 0.1006594171 2.0219625412 0.3455139346
H -1.3311048460 1.5810478814 -0.6015436278
H -1.3613228720 1.4599390090 1.1626265332
H -1.1022625972 -0.8009423409 0.1351529794
H 0.6566239949 -1.3143474458 -1.4824058098
H 0.8544743819 0.4287101146 -1.7417332925
H 2.6775210775 -1.1798720985 -0.0164918584
H 2.4373744300 0.5690199887 0.1877042230
H 0.7175672453 -1.6235237224 1.4607005407
H -0.7373818170 -0.4399733169 3.4750949556
H 0.7651295859 -1.2164305638 3.9702625306
H 1.0044936442 1.3876323421 4.3878440730