14

C -0.1506246396 1.4102750485 0.0757344175
N -0.1780098515 -0.0439291515 0.0990882771
C 0.6302191259 -0.6480729498 0.8575638100
O 1.5313192650 0.0181033774 1.6586141262
N 2.4305153057 -0.6580576480 2.5025992520
C 2.3517971593 -1.9402709105 2.4733687330
N 1.5086880757 -2.7406158503 1.7297782476
C 0.6876689343 -2.1148029219 0.9588817984
O -0.1680125439 -2.7800590477 0.1993103256
H 0.8315297815 1.7902259742 -0.2340398135
H -0.9058116696 1.7688205705 -0.6259059769
H -0.3569486526 1.8335335373 1.0673126668
H 3.0514616803 -2.4477703120 3.1294662827
H -0.0150727704 -3.7229679962 0.3704253735