17

C 0.0051951623 1.4339239404 0.0112419250
N -0.2168305347 0.0168660685 -0.2289608733
C 0.6920647832 -0.5629193366 -1.1841015378
C 0.6773627025 -2.0691785719 -1.1250091601
O 0.2172923694 -2.7006724097 -0.2042314088
C 1.3495260220 -2.8655403535 -2.2795298859
O 1.4180646472 -4.2178073431 -1.9575422353
C 0.5975248237 -2.6264083683 -3.5303963524
N 0.0104436308 -2.4193057130 -4.5038304409
H 1.0321293511 1.6816589771 0.3359105863
H -0.1971598961 2.0004716639 -0.9047656096
H -0.6910335065 1.7840658053 0.7775856412
H -0.1890404913 -0.5177791762 0.6314984931
H 0.4455662660 -0.2398250319 -2.2050965171
H 1.7586753397 -0.2764683929 -1.0369818156
H 2.3626225875 -2.4611356441 -2.4265156522
H 0.8475299932 -4.3235265740 -1.1765133968