17

O -0.1725076435 -0.0647415214 0.0278142305
C -0.0188928383 1.1197026650 0.0150909365
O -1.1027621286 1.9799932779 -0.0838203067
C -0.7386107791 3.3890129129 -0.0031712023
C 0.6566562125 3.3033410358 0.5605965292
C 2.1067333112 3.8705219284 0.5487489775
C 2.2010016230 2.4115591930 1.1460139107
C 0.9554964367 2.7591167933 1.9970390734
C 1.2247444632 1.9919554027 -0.0009554219
H -0.7786386026 3.8252235866 -1.0078449060
H -1.4779133420 3.8774381228 0.6362265663
H 2.5632493428 4.0304155596 -0.4311929423
H 2.3285658059 4.6879991954 1.2387099243
H 3.1065750151 1.8987736112 1.4680108073
H 1.0877648059 3.5118460275 2.7776407817
H 0.3520719234 1.9204006040 2.3506675740
H 1.6376639946 2.0327997655 -1.0151486921