19

C -0.0376295276 1.5116635528 -0.0133107822
C 0.0493536010 0.0053088820 -0.0170361399
C -0.7858552350 -0.7879274045 0.9446896387
C 0.7364531500 -0.7782279108 1.1274797617
C 1.4305636299 -1.9212899531 0.4510433953
C 1.2470601990 -1.9028484390 -0.8691849520
C 0.4456643249 -0.7016674157 -1.3186311457
C 1.3136818767 -0.1500679578 2.2758161951
C 1.8052218255 0.3738712941 3.2418207272
H 0.8787030220 1.9600102971 -0.4126834123
H -0.8756663016 1.8559015163 -0.6306461670
H -0.1825622594 1.8977432078 0.9993081565
H -1.3627071901 -0.2247842049 1.6709924960
H -1.2316206228 -1.7257243187 0.6285439538
H 1.9814851847 -2.6661371305 1.0124281462
H 1.6065661140 -2.6561415897 -1.5606251350
H -0.4338316726 -0.9867117381 -1.9107241881
H 1.0452865542 -0.0397162358 -1.9590273953
H 2.2402422770 0.8348500684 4.0933477368