18

N -0.1180023962 1.5410774607 0.2596954912
C 0.0953653018 0.1961637449 0.1403574466
O 1.2046830492 -0.3024743058 0.1218862290
C -1.1270808680 -0.5833824839 0.0216584575
C -2.1065330894 -1.2822100472 -0.0767926261
C -3.2587396760 -2.1431008288 -0.2265292277
C -3.8727404940 -2.3354570463 -1.6547851810
C -4.1041190463 -3.8298713339 -1.3096335758
C -3.0658724497 -3.6946582012 -0.1650909528
H 0.6796796589 2.1356546329 0.4144481305
H -1.0441269930 1.9168841051 0.3627216789
H -4.0453570119 -1.8386611925 0.4727913570
H -4.7377692336 -1.7188111144 -1.9068300776
H -3.1076659978 -2.2074223313 -2.4239944424
H -5.1128555488 -4.0062451482 -0.9253023134
H -3.8977931877 -4.5628268366 -2.0915896357
H -2.0600910216 -3.9711352177 -0.4892220829
H -3.2782046958 -4.1804020259 0.7892040046