16

C -0.1232083608 1.4892127406 -0.0477296582
C -0.0597473914 -0.0017236789 -0.0715685390
N -0.2553864370 -0.7287246583 -1.1104603986
C -0.0564793133 -2.1229221602 -0.6744882384
C 1.1287455175 -2.6665790050 -1.4849714085
O 2.1753146150 -3.0277212552 -1.0249961776
C 0.1823950730 -2.0803122716 0.8294193240
N 0.2970882133 -3.0808111524 1.5968719267
N 0.2199347769 -0.7087807270 1.0940350271
H 0.8339085286 1.9134516731 0.2750664555
H -0.3574431464 1.8545591582 -1.0472507132
H -0.8918805943 1.8361877127 0.6516199068
H -0.9353301614 -2.7309479278 -0.9224531322
H 0.9333501174 -2.6526723204 -2.5781439234
H 0.4619758610 -2.8081771602 2.5671439711
H 0.3707672219 -0.3020555676 2.0020787880