21

C -0.1666167872 1.4712959521 -0.0091976993
C -0.1239639787 -0.0703514724 0.0549993798
C -1.4749274329 -0.6309015336 0.0999264965
C -2.5879836499 -1.0861160975 0.1128489139
C 0.6419616465 -0.6434000339 -1.1477361834
C 2.2032447231 -0.5800133202 -1.2356623399
C 2.2688232952 -1.7439825890 -0.2025100578
C 1.1289262454 -2.1260859960 -1.1931302605
C 2.0902537053 -1.6784934954 -2.3332748460
H 0.8486889762 1.8790546749 0.0008276566
H -0.6636993042 1.8061237517 -0.9246977739
H -0.7143797431 1.8823183510 0.8427013139
H 0.3831625731 -0.3503693653 0.9855800621
H -3.5689835248 -1.4914065746 0.1363490912
H 0.1354839911 -0.3236113802 -2.0661940040
H 2.8284240662 0.3141859430 -1.2653101043
H 3.1663506491 -2.3673872163 -0.2406086619
H 1.9982257730 -1.5298974737 0.8325660846
H 0.5028365548 -3.0185851581 -1.1701987768
H 1.6294244549 -1.3840473753 -3.2802633655
H 2.9771363568 -2.2974190112 -2.4918786152