20

C 0.0296389377 1.5453780202 0.1415948227
C -0.0268133422 0.0148506982 0.1517519715
C -1.4401081336 -0.5422307873 -0.0224527019
O -2.3323547609 -0.0556100850 0.9466658636
C -2.0265128129 -0.4264745284 -1.4509646813
N -1.6282819539 -1.8299368093 -1.7161205025
C -1.5003118652 -2.1083159820 -0.2751049680
C -0.3075069139 -2.9369993340 0.1280390819
O -0.0695862092 -3.2496158919 1.2692845536
H 1.0539365726 1.8952352489 0.2980108037
H -0.3186078949 1.9519082481 -0.8134497484
H -0.6007036368 1.9675878531 0.9285604612
H 0.6048853600 -0.3936042840 -0.6463926364
H 0.3858053256 -0.3706348254 1.0942572897
H -1.9264132807 -0.1678045479 1.8142642668
H -3.1086614223 -0.2566792958 -1.3980566995
H -1.5757588294 0.3071125215 -2.1273212712
H -2.3156869492 -2.3879699168 -2.2095829132
H -2.3988937955 -2.4962461636 0.2232583954
H 0.3681420246 -3.2091751486 -0.7147828577