19

C -0.1334843913 1.5294046249 -0.0947787565
C -0.0024778714 0.0160930251 -0.0011707679
O 0.6897570700 -0.4256655776 -1.1647237856
C 0.6799651193 -1.8310811413 -1.3220730511
C 0.9643245331 -2.5741073551 -0.0479903102
C 0.9906135524 -1.9648464276 1.1354807779
C 0.7347887363 -0.4787793476 1.2634161263
C 2.0794754817 0.2154975810 1.4491737283
O 2.4737808729 0.6750850687 2.4898384943
H 0.8484733421 2.0083721459 -0.1511679892
H -0.6944081112 1.8022210665 -0.9921969129
H -0.6586624840 1.9227120300 0.7806340135
H -1.0086116013 -0.4351145705 0.0151967347
H -0.2889731908 -2.1665398204 -1.7360546013
H 1.4397278568 -2.0590410717 -2.0790099321
H 1.1238178145 -3.6456368377 -0.1335676177
H 1.2142408513 -2.5128601155 2.0456854307
H 0.1358017352 -0.2711961156 2.1566226901
H 2.7016667344 0.2334053386 0.5283366186