23

C -1.4975478190 -0.2355805161 -0.3881915026
C -0.0269939394 0.0173250760 -0.0188909962
C 0.2011149811 1.5003554291 0.3149719344
O 0.3060629970 -0.7744012220 1.1310724648
C 0.9312552236 -0.4706987785 -1.1290085191
C 0.7506721149 0.2478964950 -2.4668484264
C 2.4267306759 -0.5903885056 -0.7252711867
O 2.4645223303 -1.9780015747 -1.1119508698
C 1.0363561151 -2.0112240757 -1.3007883808
H -1.8206542166 0.3724512266 -1.2374252916
H -1.6614383669 -1.2897313753 -0.6296992720
H -2.1442973104 0.0189923391 0.4596170490
H -0.4134635849 1.7878045955 1.1760985267
H 1.2477959147 1.6833378388 0.5745771503
H -0.0739076528 2.1575336426 -0.5143507278
H -0.2702719308 -0.5025849322 1.8525270661
H 0.9363381291 1.3233254095 -2.3838418070
H 1.4619661531 -0.1530097928 -3.1955479135
H -0.2543179256 0.1066155958 -2.8766597805
H 3.1327907074 0.0170228482 -1.3055128489
H 2.6189530631 -0.4616340442 0.3449773518
H 0.5363973176 -2.5898064164 -0.5170512424
H 0.7615694036 -2.4061480824 -2.2870320979