14

C -0.0057172783 1.4289820488 -0.0791111679
N 0.0210201639 -0.0154208335 -0.0048358167
N 0.0308511105 -0.7868342192 -1.1289084446
C 0.0544314417 -2.0184979203 -0.6319580240
N 0.0602882207 -2.0882308992 0.7416548511
C 0.0388554950 -0.8198142067 1.0761626483
O 0.0339645866 -0.3103749260 2.3125738187
C 0.0721367572 -3.1684615992 -1.4618965547
C 0.0872902364 -4.1510360441 -2.1544648585
H 0.8757301861 1.7933088773 -0.6125913811
H -0.9041914020 1.7607911908 -0.6053777853
H -0.0088384219 1.8252055254 0.9365684595
H 0.0490770382 -1.0590742500 2.9224488642
H 0.1006683261 -5.0169458642 -2.7689259189