17

C 0.0124730575 1.4559528444 0.0225768395
C -0.0206293421 -0.0322638728 -0.0477629902
N -0.0554529772 -0.7172705014 -1.1199321759
C -0.0349945719 -2.1393480074 -0.7506088482
C 0.0444101791 -2.1534845858 0.7751600143
C 1.2295558408 -1.5247320071 1.4388917292
C 2.4354579026 -1.2334433450 0.7215382059
C 3.4665677522 -1.0002824564 0.1478248717
N -0.0410566456 -0.7487982269 1.2084017383
H 0.9353105457 1.7837815705 0.5145487899
H -0.0336087505 1.8820619869 -0.9796397171
H -0.8223852778 1.8271338395 0.6252267245
H -0.9491930567 -2.6309539902 -1.1018747449
H 0.8119090642 -2.6348403071 -1.2389099918
H -0.5359655613 -2.8741658335 1.3425233310
H 1.3758429051 -1.7431916412 2.4936857090
H 4.3731378259 -0.7933924864 -0.3653878453