20

C -0.2094180566 1.6110151270 -0.0274636538
C -0.0370237138 0.0867141592 -0.0031337058
C 1.1541028975 -0.4123455808 -0.9006714196
C 1.9982338696 -0.5542646366 0.3708245462
C 3.2073206873 -1.4080638743 0.5905937786
C 3.3276452159 0.0994173359 0.6204214536
C 0.7543076840 -0.4231226756 1.2567399435
C -1.3106100244 -0.5814471478 -0.2424948143
N -2.3168548496 -1.1196204287 -0.4315957151
H 0.7559166142 2.0923601398 0.1538374640
H -0.5869447795 1.9468529307 -0.9975879588
H -0.9100961629 1.9381386915 0.7461606527
H 0.9374425445 -1.3689383978 -1.3828357052
H 1.4922576064 0.3007611335 -1.6574662169
H 3.2883028886 -1.9462160456 1.5297536925
H 3.6203623205 -1.9372776968 -0.2623516677
H 3.8217325676 0.5891337383 -0.2130251839
H 3.4894636420 0.5801636129 1.5802526152
H 0.7975644218 0.2820304128 2.0913033121
H 0.3809832168 -1.3839411377 1.6199905327