20

C -0.0070990918 1.5244911857 -0.0191191229
C -0.0071632337 -0.0197301703 -0.0185078050
C 0.7591076949 -0.5291467301 1.2215827074
C -1.4513833738 -0.5446657536 0.0044097117
C 0.7118646905 -0.4994993092 -1.2569188071
N 0.1544051869 -1.2653815675 -2.1842866171
N 1.1626889783 -1.4283366332 -3.0759827417
C 2.2615340744 -0.7695420764 -2.6606545587
N 2.0186850630 -0.1694607834 -1.5154349802
H 1.0133699163 1.9124910028 -0.0700406737
H -0.5640876811 1.9169216422 -0.8761729684
H -0.4785745668 1.9031333981 0.8940194527
H 0.2890418080 -0.1542925364 2.1370049091
H 0.7567501447 -1.6232618629 1.2626908045
H 1.7984436616 -0.1917464791 1.2011740777
H -2.0141929231 -0.1992988786 -0.8670372541
H -1.4775359340 -1.6377254961 0.0019903461
H -1.9601701371 -0.1894825171 0.9065296720
H 1.0170807483 -1.9817413039 -3.9039091930
H 3.1895703044 -0.7574301010 -3.2128185191