16

O -0.0510884692 1.4715222316 -0.1549744916
C -0.0269799594 0.0613766197 -0.0932173573
C -1.3728295115 -0.6379278046 -0.1238901956
C -1.7655745163 -0.8392427799 -1.5903802281
C -0.7926004151 -1.7825288465 -0.9295873296
C 0.3223429276 -0.7558046464 -1.3704885169
C -0.6708297055 -0.2169870467 -2.4433333628
O -0.5993759189 -0.9039894900 -3.6785136989
H 0.8469450682 1.7964624114 -0.0357929581
H 0.5611194857 -0.2903026340 0.7660663732
H -2.1129488190 -0.6854196061 0.6643471173
H -2.7932308794 -1.0254062160 -1.8734454256
H -0.8025687053 -2.8475867954 -0.7599577588
H 1.3522271625 -0.9855437285 -1.6415240922
H -0.6860336373 0.8707845562 -2.5885316801
H 0.1753765630 -0.5798695948 -4.1485218149