20

C 0.9586526016 0.9970694580 0.4955660908
C 0.4718841413 -0.3696880284 0.3695054055
C 0.0513102054 -1.4949423200 0.2709453501
C -0.4510357808 -2.8682963611 0.1514170482
C -1.9049699832 -2.9152115085 -0.3645717312
O -2.0275771761 -2.4942656590 -1.7065794793
N 0.3491479142 -3.7753228960 -0.6963530021
C 1.1293655803 -3.2105910637 -1.8003507250
C 1.8025976373 -3.7304839189 -0.5808913571
H 2.0513124573 1.0385165694 0.4287527244
H 0.5523750279 1.6390538771 -0.2935833356
H 0.6704588635 1.4316654610 1.4590828167
H -0.4581468932 -3.3230980512 1.1519981481
H -2.2723166399 -3.9428623329 -0.2296811632
H -2.5254360880 -2.2425523199 0.2345074146
H -1.5614701786 -3.1426883075 -2.2443074999
H 1.1235516651 -3.7951298747 -2.7165533217
H 1.1184113928 -2.1324655283 -1.9329556844
H 2.2342197666 -2.9881474344 0.0868358707
H 2.2999450065 -4.6961778910 -0.5867997998