22

C 0.1654876812 1.1960420840 -0.1687275007
C -0.0132373937 -0.3100494677 0.0128572320
O 0.8960135375 -0.8254189334 0.9805613979
C -1.4669733798 -0.6881577889 0.3319299910
C -1.7164009377 -1.9330173495 1.1503388708
C -1.9618669680 -0.5591432945 1.7423061572
N -2.3301411495 -0.2705570561 -0.7560541370
C -2.6171345562 -1.2360535325 -1.8163788460
C -3.6834178642 -0.7889630998 -0.8789336971
H 1.1966030148 1.4245246687 -0.4529403827
H -0.5151915114 1.5735044288 -0.9338071430
H -0.0627236040 1.7231432364 0.7667992815
H 0.2544464391 -0.8179638009 -0.9230331780
H 0.9428905779 -0.1922022625 1.7042329317
H -2.5786792140 -2.5529383970 0.9304880773
H -0.8424047347 -2.4741843548 1.4905307732
H -1.2791673503 -0.2041137752 2.5075602262
H -2.9896582445 -0.2425958263 1.8850138570
H -2.5745772823 -0.8541012941 -2.8323660638
H -2.2472414879 -2.2515479943 -1.6879402726
H -4.0436057114 -1.5150222546 -0.1539993306
H -4.4285198610 -0.0634653859 -1.1939734844