12

C -0.0181292918 1.4937814144 0.0225943361
C -0.0125044968 0.0113425493 0.0224364372
N -0.0486055821 -0.7338962945 -1.0440899500
O -0.0269348833 -2.0994547434 -0.6100286617
C 0.0215063363 -2.0705624189 0.7199595414
N 0.0618284401 -2.9000827787 1.7322398455
N 0.0973150729 -2.0580296631 2.8166237050
N 0.0823843531 -0.7988543819 2.5070035118
N 0.0319351745 -0.7944046709 1.1419289274
H 0.8857747694 1.8759103943 0.5063219172
H -0.0626306261 1.8557522152 -1.0046374840
H -0.8809111762 1.8691637582 0.5808548542