20

C 0.1762900543 1.4196251646 0.1663711183
N 0.2230248195 -0.0294238639 0.0780672253
C 0.5128571863 -0.5887508598 -1.0172165125
O 0.8682806719 0.1322274621 -2.1260950111
C 0.5898352239 -0.3499811893 -3.4411790597
C 0.4261768850 -1.8306508577 -3.5474056914
C 0.4306037629 -2.6245224855 -2.4838960652
C 0.6098632498 -2.1021289248 -1.0869258759
C 1.9494027654 -2.5779183116 -0.4775882227
H 1.1218928951 1.7973310059 0.5764042215
H 0.0048337845 1.9194126945 -0.7938365130
H -0.6131611228 1.7052963246 0.8686009029
H -0.3126552143 0.1615651529 -3.8110079120
H 1.4216698947 -0.0074765811 -4.0699853366
H 0.2972997149 -2.2214871398 -4.5528875817
H 0.3214143835 -3.7003186087 -2.5948112283
H -0.1934175299 -2.4871512561 -0.4492715246
H 2.7957857326 -2.1722861965 -1.0404171033
H 2.0260716525 -2.2468163895 0.5604471089
H 2.0161849601 -3.6704045504 -0.5059035990