16

N 0.1323519862 1.3028265442 0.2728421918
C 0.0825873503 -0.0782568437 0.1008153669
N -1.0701583394 -0.7251260710 -0.0384659580
N -0.7012603393 -2.0140172631 -0.2557920110
C 0.6378609780 -2.1888461033 -0.2409043195
C 1.2009350316 -0.9503045919 -0.0165846810
C 2.6581231092 -0.5813188361 0.0534782003
C 3.0191798073 0.1225003940 1.2864904779
C 3.2872239428 0.7237744959 2.2930543845
H 0.8456742642 1.5876041665 0.9332939511
H -0.7710704457 1.6798513982 0.5292732569
H -1.4152554488 -2.7055114512 -0.3977038450
H 1.0906585012 -3.1569267206 -0.3915600878
H 3.2717511594 -1.4851932396 -0.0390229175
H 2.9301372720 0.0568488014 -0.7994520459
H 3.5438573411 1.2355253404 3.1874023564