18

O -0.1021480784 1.5463356728 -0.3248561689
C 0.0038902698 0.2632304192 0.2555466982
C -1.3051299750 -0.4901698511 0.1472886159
O -1.6448863808 -0.6555596107 -1.3094416426
C -1.3588221147 -1.9862295496 -1.1700861528
N -0.8403129956 -2.8792048092 -1.8918682878
C -0.3761079259 -3.8789312743 -0.8785826649
C -0.2048271199 -3.0880823013 0.4774908011
C -1.3268377321 -2.0468590197 0.3163076291
H -0.3728534532 1.4108636253 -1.2410340476
H 0.8112326286 -0.3253337585 -0.2059907871
H 0.2542169280 0.4066077538 1.3123567273
H -2.1191839469 0.0459397188 0.6385779296
H -1.1019338318 -4.6963703844 -0.7774584874
H 0.5647576647 -4.3169219467 -1.2204881151
H -0.3055404123 -3.7208567923 1.3620864203
H 0.7853755376 -2.6232617530 0.5005730398
H -2.2660910321 -2.3661193592 0.7746959726