21

C 0.1671349558 1.6748762781 -0.4082820804
C 0.2174178495 0.1816278397 -0.1936265687
O -0.9226231923 -0.5093010044 -0.6544729985
C 1.4755289850 -0.6309592922 -0.3179976763
O 2.6084864967 0.0680279682 0.1992293274
C 2.0646691214 -0.0321126535 1.5694821137
C 2.8373755768 -1.1158858155 2.3183468271
C 2.1085093843 1.2873509538 2.3260124848
C 0.7459797796 -0.5780049758 1.0118779242
H 1.1504219677 2.1243660328 -0.2658119946
H -0.1409901469 1.8795104501 -1.4416691272
H -0.5566042868 2.1584908748 0.2552818681
H -0.9711807594 -0.3854130949 -1.6093254058
H 1.6336146554 -1.4297115444 -1.0352236454
H 3.8763666965 -0.8038624839 2.4618996921
H 2.3922228556 -1.2971234116 3.3028710141
H 2.8307287086 -2.0538154850 1.7574159566
H 1.5257362397 2.0694908024 1.8410285859
H 1.7153790480 1.1468318695 3.3383459307
H 3.1444015775 1.6318823757 2.4136071266
H 0.1252961572 -1.3252562939 1.4889195458