23

C -0.0586117090 1.6295114928 -0.0014948876
C -0.0220096202 0.1017402028 0.0821597819
C -1.4210052816 -0.5540701870 -0.0014595459
C -2.1022634100 -0.1801864218 -1.2413985981
C -2.6180923606 0.1285218062 -2.2828229364
C -1.3853537904 -2.0977877590 0.1251143309
C -0.6429419473 -2.5972785390 1.3668684256
O -2.7441293339 -2.5133490559 0.1636246106
C -2.9838632788 -3.7955674962 -0.3648763705
H 0.9509532858 2.0452750868 0.0706997070
H -0.4992582372 1.9624672102 -0.9448174912
H -0.6537232469 2.0547800324 0.8144308293
H 0.6053543937 -0.2995082547 -0.7235201087
H 0.4448096867 -0.1954168302 1.0262685093
H -2.0227467095 -0.1923976530 0.8449623222
H -3.0964907891 0.3996357671 -3.1910407483
H -0.9036318139 -2.5028534238 -0.7791244946
H -0.7831922232 -3.6763114581 1.4778853798
H 0.4323277141 -2.4116949985 1.3020552728
H -1.0307148254 -2.1120601494 2.2686328789
H -2.4616788294 -4.5894384568 0.1909563657
H -4.0593083800 -3.9764609456 -0.2925577784
H -2.6845034940 -3.8600092492 -1.4221114944