19

C -0.0095338827 1.5757918547 0.0101093513
C -0.0350662701 0.0744337208 0.0832452977
C 1.1248225060 -0.8102735743 -0.3414919223
C 0.5923384037 -0.9327443545 1.0559379969
C 1.4005703324 -0.7821931304 2.3084238019
N -0.5953704472 -1.8283632639 1.0206497418
C -1.7224428417 -1.0151738791 1.5205007587
C -1.2697573576 -0.7903955964 0.1289489174
H 0.9798983553 1.9662904486 0.2703998415
H -0.2436149738 1.9309275142 -1.0009728653
H -0.7369000204 2.0231608398 0.6964917555
H 0.9737941778 -1.6226594649 -1.0478276494
H 2.0807442121 -0.3015462313 -0.4339282838
H 2.1488219589 0.0087695119 2.1985992356
H 0.7689458376 -0.5322232487 3.1678230570
H 1.9287274830 -1.7139449813 2.5409349158
H -2.6289429683 -1.5948098050 1.6689272418
H -1.5344880924 -0.2582202091 2.2786549377
H -1.8617535128 -1.1014263713 -0.7277317998