19

C 0.0576201287 1.4856175936 0.4113488572
N -0.1997061617 0.0546339712 0.4909069183
C 0.6535248679 -0.6962349783 1.0057105658
C 0.7715552145 -2.1815573764 1.2560373183
C 2.1696813980 -1.8159264366 1.8142589838
O 1.9017583388 -0.3983543170 1.5587757414
C 2.4545294290 -2.0944150649 3.2652285131
C 3.1690694942 -1.0982851853 4.0967596662
N 1.7359145835 -1.3742605891 4.3227789809
H 1.0464516661 1.7853128443 0.7777054562
H -0.0447665118 1.8079568790 -0.6303183639
H -0.7070608085 2.0194190853 0.9864866644
H 0.0695587317 -2.5724674525 1.9954224167
H 0.7509574632 -2.8064973624 0.3622863737
H 3.0010772216 -2.1534776720 1.1862023439
H 2.6036070142 -3.1534898282 3.4717377707
H 3.8335938455 -1.4283670337 4.8896103592
H 3.4366124812 -0.1564759976 3.6269605180
H 1.1977693840 -0.6192578391 3.9009570663