14

O -0.0555332005 -0.0511805193 0.1805504117
C -0.0551997585 1.1653183118 0.1286616317
C 1.1624569276 1.9640456675 0.1230598551
C 2.1880986098 2.5915949164 0.1101238955
N -1.1991964906 1.9017888024 0.0869464772
C -1.4669194962 3.2985639389 -0.2889386632
C -2.9278834431 2.8472812313 -0.5320050277
O -3.9273214015 3.4007937537 -0.8645190271
C -2.5547086324 1.3959037557 -0.1617506132
H 3.1028530220 3.1330097697 0.1016746638
H -1.3354404740 4.0293790127 0.5162772110
H -0.9398825354 3.6470999202 -1.1845426258
H -2.6212277146 0.6709087117 -0.9813428568
H -3.0649173025 0.9886754373 0.7177659877