24

C -0.1695021943 1.5930107969 -0.0036311354
C -0.1098086573 0.0631718395 0.0012068229
C -1.4951012003 -0.5922411870 0.0254809002
C -1.4367046807 -2.1226271669 0.0283157280
C -2.8094953329 -2.8143425148 0.0394112494
C -2.6849348149 -4.3349764697 -0.1179676141
N -3.5554789979 -2.4815277589 1.2525257575
C -4.8126338274 -1.9641090899 1.2512961934
O -5.4585558060 -1.6806899759 0.2641323271
H 0.8326293189 2.0327056887 -0.0219523979
H -0.7127062127 1.9644026678 -0.8795600551
H -0.6836603964 1.9721328110 0.8865962849
H 0.4410744079 -0.2847851040 -0.8828901150
H 0.4686695867 -0.2790196519 0.8700678134
H -2.0471054091 -0.2452932591 0.9080445150
H -2.0745863792 -0.2536907263 -0.8439320584
H -0.8910691292 -2.4694933029 -0.8585031226
H -0.8526591311 -2.4713256352 0.8936564252
H -3.4203962074 -2.4192853129 -0.7775666991
H -2.1055936792 -4.7705576560 0.7049700047
H -3.6719225394 -4.8051179726 -0.1270163851
H -2.1750675736 -4.5861579634 -1.0532376181
H -3.1411248656 -2.7080425710 2.1441578342
H -5.1944526589 -1.8189721756 2.2823541548