20

C -0.0225268260 1.6312738694 0.1608904814
C 0.0231341222 0.1070993820 -0.0102061702
C 0.8329030155 -0.5616340160 1.1097390399
C -1.3898927068 -0.4791296505 -0.0682528709
C -2.3217548074 -0.1381312197 -1.2490954036
N -1.6604277025 -0.6544373053 -2.4523584540
C -2.5039747235 -1.5839368950 -1.6170541044
C -1.6066158764 -1.9765530419 -0.4631144345
O -1.3046871529 -3.0163613465 0.0463016799
H 0.9884324919 2.0516846162 0.1762733880
H -0.5700358432 2.1123387160 -0.6563960197
H -0.5112655920 1.9080564944 1.1031240963
H 0.5043797253 -0.1147087721 -0.9695654829
H 1.8687158568 -0.2071530568 1.1046724803
H 0.4072083178 -0.3281340558 2.0934736470
H 0.8391168114 -1.6494232896 1.0012889046
H -1.9096565015 -0.3257939519 0.8881682181
H -3.0649744886 0.6469689762 -1.2956581895
H -2.2364657378 -0.4133403802 -3.2594238730
H -3.3422595724 -2.1099882929 -2.0554979527