15

O 0.0524138678 0.0010937161 -0.0328024945
C 0.0119399899 1.1910498422 0.0331296657
C -1.1511026119 2.2131551699 0.0396888802
C -1.4651613974 2.8471824291 1.4242493926
N -0.2776808477 3.7842236257 1.2926770841
C 0.8746870969 3.2834806885 1.9615434434
N 1.6950373346 2.5464660786 1.3216097171
C 1.0954698344 2.3255059248 -0.0083021308
C -0.0760067067 3.3325540142 -0.1299607890
H -1.9839498986 2.0138546680 -0.6355048842
H -2.4017212781 3.4104044376 1.4152608148
H -1.4419737829 2.1965681974 2.3019840713
H 1.0153754350 3.5416846783 3.0078531231
H 1.8449817953 2.2483324199 -0.7967745431
H -0.0905007407 4.1148316696 -0.8862234707