15

O -0.0630684320 1.4252135691 0.0221415432
C -0.0288137500 0.0154311804 0.0053410940
C -1.4186449481 -0.5930720834 0.0446184832
O -2.0710968794 -0.1679698676 -1.1785338278
C -3.3286446974 -0.5040921705 -1.3612548424
N -4.0648028007 -0.1642724743 -2.3793354765
C -5.2447377888 -0.7798927752 -2.0571446531
N -5.2662140573 -1.4511856498 -0.9381185063
O -3.9442710865 -1.2655717883 -0.4512613847
H -0.5416494593 1.7088487252 -0.7646480141
H 0.5114600999 -0.3735547536 -0.8711888327
H 0.5140808222 -0.3027321139 0.9011443169
H -1.3851982774 -1.6868222184 0.0779942034
H -1.9885135189 -0.2185564657 0.8997841594
H -6.1256804763 -0.7258771140 -2.6812231126