13

O -0.1482166638 1.4556826130 0.1264157403
C -0.0317847202 0.0628056238 0.0419077910
C 0.8818874115 -0.5127754738 1.0197440604
C 1.6603806111 -0.9750744231 1.8112537646
C -1.3892598494 -0.6664275448 -0.0130301811
O -2.0451447843 -0.2327768829 -1.1887171019
C -1.1019947628 -1.3213103500 -1.3142649109
C 0.2427563082 -0.6135167905 -1.3911361757
O 1.1710780908 -0.6097098868 -2.1352194373
H 0.7408483973 1.8275702938 0.1460227720
H 2.3457553392 -1.3834546691 2.5131374301
H -1.9802835998 -1.0332735818 0.8164724030
H -1.4545213080 -2.2552399477 -1.7331921744