14

N -0.0099521095 1.2717073199 -0.1020341285
C -0.0239937242 -0.0838592595 -0.0365201427
N -1.1299563771 -0.7808717233 -0.0274168150
C -0.6562438882 -2.0833722818 -0.0267249421
C 0.6805766043 -2.2736499804 -0.0290473728
C 1.2910909928 -0.9049126264 -0.0375184695
N 0.9584303199 -3.6253173606 -0.0073469435
C -0.2242308658 -4.1654644319 0.0026388271
O -1.2833509271 -3.2765938762 -0.0072599600
H 0.8209599327 1.7666817285 0.1736189339
H -0.8877548827 1.7430392275 0.0533534745
H 1.8883462637 -0.6690965758 -0.9253605707
H 1.9012529444 -0.6680877764 0.8422632006
H -0.4872717331 -5.2099415437 0.0156265888