16

O -0.2562866140 -0.0111663769 -0.2023630978
C -0.0176329677 1.1514990074 -0.0037026978
C 1.3368974014 1.8013576351 -0.1695473574
C 1.2751191634 3.0175409705 -1.1220023191
C 2.5723072353 3.7611641761 -1.1905532878
N 2.9761304776 4.5718377106 -0.2062738934
N 4.1542593906 5.0069020585 -0.6317164794
N 4.5651660030 4.5613722146 -1.8087381173
C 3.5682018547 3.7591479287 -2.1850715395
H -0.8209879125 1.8521235096 0.3281019180
H 1.6632409519 2.1545091599 0.8180192589
H 2.0514512626 1.0519060434 -0.5198781154
H 0.9993877507 2.6819727016 -2.1269324664
H 0.4867209625 3.6999918523 -0.7845544535
H 4.7037634352 5.6557958841 -0.0916032354
H 3.6040040555 3.2332589546 -3.1260373667