21

C 0.2491964212 1.4863681671 0.1159864926
C -0.0793699506 0.0133232262 -0.1563940884
C 0.6739162569 -0.5459849457 -1.3338202300
O 0.3789086323 0.1218901792 -2.5542646275
C 0.5028616042 -0.8403808575 -3.6073359795
C 1.4020479261 -1.9241326892 -3.0194586915
C 2.7396672324 -1.2853805424 -2.5190096742
C 2.0870022831 -1.0819684075 -1.1526020919
C 0.9175412416 -2.0002860795 -1.5434143371
H 1.3090176540 1.6160892863 0.3586558632
H 0.0306779393 2.0959612413 -0.7647825935
H -0.3396884193 1.8702471887 0.9544856837
H 0.1510414424 -0.5952583199 0.7261720239
H -1.1542145324 -0.0967577191 -0.3457032352
H -0.4867874554 -1.2380417759 -3.8827902068
H 0.9371227409 -0.3408600408 -4.4802095693
H 1.4716640331 -2.8389624976 -3.6064270837
H 3.5442057239 -2.0237086696 -2.4741692345
H 3.0927237610 -0.3960255146 -3.0526807275
H 2.6006813100 -1.0135280182 -0.1994095338
H 0.4401430354 -2.8230212414 -1.0267027889