18

O 0.0527429531 -0.0253396015 0.0859210099
C 0.1030563530 1.1554253938 0.2545786885
O 1.0018243907 1.9409271395 -0.3716425750
C 0.9487159682 3.3358422682 -0.1505488361
C 0.5953918645 4.0352627409 1.1913599370
N 1.3784124110 5.1991956517 0.6215954927
C 2.2537438321 4.1445481006 -0.0303850455
C 0.5007580660 5.5642256231 -0.5416878103
C 0.1472751120 4.1753948200 -1.1618192494
H -0.5619168848 1.7179037880 0.9358461387
H -0.4489691619 4.2529089537 1.4303861528
H 1.1130500245 3.6179549073 2.0576550586
H 2.9598270278 3.7345244511 0.6937001720
H 2.7679736233 4.4593731401 -0.9417432878
H -0.3720945262 6.1115899039 -0.1792099746
H 1.0562935071 6.2124074298 -1.2226074438
H 0.5109446813 4.0393992333 -2.1829758453
H -0.9209923419 3.9426916067 -1.1412025524