23

C -0.0693770300 1.2242943892 -0.2004576571
O -0.1490971973 -0.0091183501 0.4854677980
C -1.3321912603 -0.6987054524 0.2244768523
C -1.3846131541 -1.6861081333 -0.9275744504
C -0.2114182576 -1.8618150091 -1.8680048543
C -1.3281644592 -2.1721138741 0.5183546975
C -0.1196025041 -2.8417394655 1.0947001811
C -0.1998178449 -3.4843293387 2.4582240031
C -0.0800520006 -4.3459537449 1.2254103685
H 0.8788930503 1.6889720577 0.0804036299
H -0.0968556545 1.0902036513 -1.2907199556
H -0.8928297890 1.8961940237 0.0861578669
H -2.2315700709 -0.1228995310 0.4523050945
H -2.3567169769 -1.7872848975 -1.4046360278
H 0.7282111694 -1.5634768512 -1.3978786465
H -0.1111414142 -2.9050501465 -2.1863689109
H -0.3398701783 -1.2521093302 -2.7691159479
H -2.2643740354 -2.5660809603 0.9083776906
H 0.8206213965 -2.3547823181 0.8661391630
H 0.6574292416 -3.4009552350 3.1170756705
H -1.1555989118 -3.4647942686 2.9721367428
H -0.9567825852 -4.9031966929 0.9112489337
H 0.8584910365 -4.8567846727 1.0394156884