19

C -0.4142621310 1.4037567870 -0.1500947676
C 0.1448358350 0.0272610914 0.1672102091
C 1.0212807010 -0.6045417896 -0.9545235209
N 2.3346045724 -0.8270705172 -0.3444121470
C 2.2455592837 -0.3821656573 0.8460383279
O 1.0642066336 0.1240136644 1.2872388365
N 3.2681843592 -0.2885442274 1.7715366561
C 3.2831147057 -1.1846042586 2.9281442730
C 4.2707167086 -1.3380629161 1.8181852039
H 0.3899263173 2.0840637582 -0.4474834033
H -1.1304221899 1.3344487718 -0.9757316752
H -0.9278175842 1.8301411001 0.7160431076
H -0.6616534077 -0.6452953782 0.4798568114
H 0.6057802549 -1.5491775988 -1.3224712281
H 1.1104916620 0.0657666164 -1.8192889181
H 3.5728664941 -0.7226197581 3.8665977486
H 2.4899065053 -1.9235692637 3.0009536440
H 4.1406671712 -2.1689705475 1.1317244808
H 5.2914220888 -0.9928264069 1.9492332213