16

O -0.0861711186 1.4601361516 -0.0106291773
C 0.0484821803 0.0507529482 0.0781400946
C -1.3646566855 -0.5216289949 0.0102290494
N -2.0421936546 -0.2324452038 -1.2350370270
C -2.5188169448 -1.3039278135 -1.9437646868
O -3.0825991246 -1.2550524295 -3.0124882874
C -2.2040861409 -2.5568927300 -1.1221208709
C -1.3757585133 -2.0606350892 0.0514852618
O -0.7950856297 -2.7180536002 0.8735969346
H 0.7920186088 1.8502495775 -0.0482072768
H 0.6470651608 -0.3508736883 -0.7534493301
H 0.5100901864 -0.2680908493 1.0224163904
H -1.9245628357 -0.1366463897 0.8757942677
H -2.1161064622 0.7064304136 -1.5951580715
H -3.1311031957 -3.0225482872 -0.7697024481
H -1.6730563707 -3.3089216053 -1.7113121626