25

O -0.1388582575 1.5224810863 -0.1166395088
C 0.0318282850 0.1161747789 0.0026156879
C -1.3558951779 -0.5132412375 0.0513081608
C -1.3703192564 -2.0494241391 0.0558125732
C -0.7369976676 -2.6527915833 1.3241779191
C -0.7976625797 -4.1878426336 1.3312764285
C -2.2330491473 -4.6981685426 1.1498647683
C -2.8697716077 -4.1126672841 -0.1174365790
C -2.8057551980 -2.5789563548 -0.1194968921
H 0.7309553699 1.9319872782 -0.1025901285
H 0.5923530902 -0.2897643690 -0.8565397741
H 0.6030525490 -0.1317239624 0.9100058730
H -1.8824660927 -0.1323232014 0.9361632188
H -1.9122168704 -0.1458088695 -0.8199726793
H -0.7822456249 -2.3977593080 -0.8086775429
H 0.3038381500 -2.3263729130 1.4264162071
H -1.2709647596 -2.2631973430 2.2036020486
H -0.1711600384 -4.5766757584 0.5160901751
H -0.3688524239 -4.5762364945 2.2622410735
H -2.2467692944 -5.7934486560 1.1131459396
H -2.8333196947 -4.4076659138 2.0235329937
H -2.3388769932 -4.4978724822 -0.9993996393
H -3.9095586263 -4.4462205143 -0.2121122923
H -3.4290019223 -2.1889727271 0.6987064450
H -3.2346404114 -2.1828698058 -1.0478641859