14

C -0.0678645346 1.5046041802 -0.1014923863
C -0.0046667717 0.0193373674 -0.0115744106
N -0.0678808163 -0.7866682803 -1.0526812270
N 0.0249848295 -2.0271738573 -0.5302345612
C -0.0082810739 -3.1508760709 -1.3692636745
O 0.0679147853 -4.2827684155 -0.9882969955
N 0.1472752259 -2.0745435115 0.8153275431
C 0.1295999387 -0.8047482785 1.1499277103
O 0.2250363310 -0.3554326915 2.4066753949
H 0.8366332267 1.9613970882 0.3136494589
H -0.1715325904 1.8127046966 -1.1430826238
H -0.9167097756 1.8961940592 0.4688171331
H -0.1142069368 -2.8162326742 -2.4136461782
H 0.3058096222 -1.1189885419 2.9935566467