23

C 0.0161386085 1.5973668736 -0.0150028229
C 0.0582352826 0.0658292044 0.0456722360
C 0.7572408708 -0.5831971310 -1.1761677005
C 1.5123903479 -1.8259228388 -0.6405762818
C 2.8657464930 -2.0408807995 -1.3312826764
O 3.5395837413 -3.2119895536 -0.8971394741
C 1.5984789037 -1.5351445031 0.8400270353
C 0.8275702249 -0.5152768424 1.2240516801
C 0.6364097589 -0.0117149714 2.6210721388
H 1.0288958443 2.0156366230 -0.0417972655
H -0.5087819661 1.9349063606 -0.9148094501
H -0.5030051738 2.0246963847 0.8489491898
H -0.9821763429 -0.2913541367 0.1108648079
H 0.0611763717 -0.8247156884 -1.9839559602
H 1.4863209375 0.1293035646 -1.5849707261
H 0.9278214240 -2.7436502375 -0.8041184455
H 2.7121100344 -2.1703389985 -2.4085175214
H 3.4918615570 -1.1439792161 -1.1947758200
H 3.8001389758 -3.0773799989 0.0189640216
H 2.1869361529 -2.1395128660 1.5254257131
H 1.2232550438 -0.5896833038 3.3401304916
H 0.9276870998 1.0414982023 2.7149087516
H -0.4185301501 -0.0687047675 2.9204127086