17

N 0.0372247917 1.2803796856 0.0995899013
C -0.0350423098 0.0147266516 0.0443425943
N -1.2338442630 -0.6686399973 -0.0660836851
C -1.4848557576 -2.1167689627 -0.0492819626
C -1.5560962976 -2.7479525220 1.3686669301
C -3.0689519279 -2.3797459304 1.4545003730
C -3.0117658467 -1.7942668523 0.0063731718
C -2.6020103671 -0.3135789527 -0.0263224025
O -3.1631562251 0.7399126622 0.0014812084
H 1.0112418914 1.5704773475 0.1698307142
H 0.8146015515 -0.6813362379 0.0666096876
H -1.0040917456 -2.6679250944 -0.8582873252
H -1.3805409054 -3.8262036280 1.3563066120
H -0.8951688738 -2.2950948917 2.1108930736
H -3.7222159444 -3.2499052792 1.5361292359
H -3.3533844566 -1.6621063868 2.2261719225
H -3.7396635241 -2.1297243715 -0.7290298195