19

C 0.0122766013 1.6243814609 -0.1902861851
C 0.0646357861 0.0965341326 -0.1338483166
C -1.3096107395 -0.5306596394 0.1746420854
C -1.2943909807 -2.0198258284 0.2092044588
C -1.5191021150 -2.9461841407 1.1884097569
N -1.9321673064 -2.7665488266 2.5180217183
C -1.3317554704 -4.1877602964 0.5163934529
N -1.0166738808 -4.0286806357 -0.7453708030
O -0.9978954741 -2.6616824665 -0.9502311905
H 0.9971072999 2.0456994276 -0.4129567958
H -0.6805719667 1.9685017608 -0.9660456210
H -0.3230471460 2.0479694898 0.7633580346
H 0.4255808748 -0.3034073724 -1.0873985272
H 0.7844537835 -0.2276129876 0.6273961310
H -1.6783712102 -0.1619749578 1.1397481340
H -2.0359879365 -0.1909662581 -0.5758503245
H -1.7401012397 -1.8350801422 2.8638348724
H -1.5118834001 -3.4388831329 3.1473165873
H -1.4182666995 -5.1876002870 0.9196494423