17

N 0.0783831857 1.3908492320 0.1129635982
C -0.0739569817 0.0268303671 0.0130416176
C -1.1456745352 -0.8160807877 0.0033984706
C -2.6417759701 -0.9072562198 0.0397942603
C -2.8746078108 -2.3955110156 -0.3884705190
C -1.5758299199 -3.1854303165 -0.0344953456
C -0.5441710115 -2.0943436990 -0.0432814181
N 0.7605577840 -2.0828035391 -0.0677850220
O 1.0686324095 -0.6875668186 -0.0333496525
H 0.9689584136 1.7282232842 -0.2254541901
H -0.6990397642 1.9255626841 -0.2449225853
H -3.0383615659 -0.7221356088 1.0469840654
H -3.1578698544 -0.2141781282 -0.6333159424
H -3.7648052098 -2.8276349190 0.0750345626
H -3.0242038873 -2.4297721593 -1.4722685446
H -1.6410550347 -3.6330336161 0.9645171959
H -1.3669036673 -3.9949537296 -0.7380027211