21

O -0.1710480291 1.4625958328 0.1626880864
C 0.0112235841 0.0591796404 0.0135158647
C 0.8339752591 -0.5626794321 1.1676995408
C 0.4529031984 -2.0355841788 1.3888334153
C -0.0145269597 -2.7065021195 0.0595840229
C -1.3868749522 -2.0455870540 0.3373668492
O -2.4952366079 -2.7664994659 -0.1414652057
C -1.0284363864 -2.1146222930 1.8496535937
C -1.3871366516 -0.5765988084 -0.1158506941
H 0.6981238149 1.8764206763 0.1581297276
H 0.5499351213 -0.1379693683 -0.9248443389
H 1.9039618629 -0.4631276113 0.9460676159
H 0.6403530781 0.0093256984 2.0832448041
H 1.1963149052 -2.5649111495 1.9870570244
H 0.5050655249 -2.4783131223 -0.8747047603
H -0.0964805495 -3.7900767187 0.1730445564
H -3.2880808418 -2.2419883906 0.0159974786
H -1.2778767937 -3.0987555504 2.2544586498
H -1.4054705752 -1.3289754957 2.5122727074
H -2.0917779382 0.0023216728 0.4947895789
H -1.7249742838 -0.5154503524 -1.1557036371