17

O -0.5154252528 0.1868325299 -0.1302065282
C -0.2171407990 1.3197457100 0.0749984714
O -1.0088830481 2.3235445918 0.5714514911
C 0.0902480522 3.2903055401 0.4949187047
C 1.0287069229 2.1988791230 -0.0680036128
C 2.2582006775 1.7998829417 0.7897994615
C 3.4330010532 2.2008722281 -0.0685814187
C 3.0643361989 2.5220513409 -1.3059086478
C 1.5738760343 2.3960635333 -1.5069576795
H -0.1644069920 4.1076944687 -0.1835237173
H 0.3337344210 3.6737038585 1.4883865267
H 2.2480608267 2.2889261401 1.7707706073
H 2.2621133245 0.7182879808 0.9813525405
H 4.4520357695 2.1785684813 0.3001876200
H 3.7338220536 2.8042722345 -2.1103091443
H 1.3337497280 1.5270735377 -2.1344537414
H 1.1251104794 3.2672362396 -1.9981176632