19

C 0.1779718924 1.4562687836 0.0873322058
O -0.1224376256 0.0753560576 0.1150695022
C 0.5786733810 -0.6479659820 1.1149355782
C -0.0641705100 -2.0426928250 1.1898183860
C -1.5127315406 -1.9650032942 1.6042371528
C -2.1247795865 -2.9763013244 2.4729606508
O -1.7521946594 -1.6989950950 2.9927509701
C 2.0175124360 -0.7324640709 0.8313974518
C 3.1930560798 -0.8127527938 0.5929847858
H 1.2362384328 1.6369645228 -0.1440368531
H -0.4409108504 1.8997902243 -0.6957591493
H -0.0591375582 1.9387673440 1.0477295174
H 0.4422347980 -0.1529492560 2.0911193824
H 0.0208453274 -2.5146416009 0.2047821662
H 0.4950512382 -2.6500439152 1.9072442753
H -2.1588278021 -1.4040239068 0.9310648892
H -3.1959360415 -3.1648995615 2.4154088633
H -1.5257144862 -3.8164343950 2.8232389879
H 4.2328935249 -0.8789775015 0.3865297172