23

C 0.2412726613 1.5764413658 -0.1334853373
C -0.0190961529 0.0847129363 0.0810695855
O 0.4732450942 -0.6620086074 -1.0353968140
C 1.3430097226 -1.7270419779 -0.6116258649
C 0.6815893388 -3.0691721234 -0.9675574384
C 2.6807253434 -1.5699395934 -1.3487327742
C 1.4653673483 -1.5273689188 0.8923513147
C 2.3357336438 -2.3855603841 1.7548501184
C 0.6863595690 -0.5161170170 1.2646048259
H 1.3158992755 1.7751600018 -0.1827503917
H -0.2178446907 1.9071970913 -1.0696164577
H -0.1873907899 2.1642191074 0.6854904987
H -1.1103615205 -0.0667096061 0.1573383670
H 0.5018848865 -3.1185621628 -2.0455798196
H 1.3171002953 -3.9160462530 -0.6884144567
H -0.2779066043 -3.1705319253 -0.4528039571
H 3.1513122157 -0.6177725683 -1.0890966173
H 3.3715335013 -2.3822231785 -1.1004736475
H 2.5105422569 -1.5859577393 -2.4292674260
H 3.3879286274 -2.3222585505 1.4519951273
H 2.2692490809 -2.0881881056 2.8045413833
H 2.0529978357 -3.4430191790 1.6848025539
H 0.5546250716 -0.1491932321 2.2760821775