13

O 0.0639784700 1.1533757669 0.1862936751
N 0.0428077429 -0.2451132923 0.1758826546
C -1.1287397766 -0.6793777149 0.0016637874
C -2.5237703930 -0.1541522443 -0.2217315967
O -3.0017907854 -1.5209540746 -0.3304979105
C -1.6898047127 -2.0847433517 -0.1012711417
C -1.1893466311 -2.8891064133 -1.2946608387
O -0.3608938558 -3.7539367473 -1.2137100492
H 0.9977260201 1.3461592395 0.3279528757
H -2.9713096790 0.3820828661 0.6236780044
H -2.6783912907 0.4227593732 -1.1414639016
H -1.6319022953 -2.6924506704 0.8091850035
H -1.6601169135 -2.5862620868 -2.2558184923