23

C 0.0244120686 1.5595995072 -0.0799931827
C 0.0116844437 0.0327919860 0.0576777869
C 0.6283803573 -0.5920140738 -1.2193660823
O 1.1636573226 -1.8975154879 -1.0398390987
C 1.7007823319 -2.1068283551 0.2578771193
C 2.2505931011 -0.8022528189 0.8961342705
C 0.7668395688 -0.5111976808 1.3023238043
C 0.4868799631 0.2452069823 2.5898264079
C 0.5668658655 -2.0593677927 1.3088096120
H 1.0479959965 1.9518822875 -0.0630446354
H -0.4282769284 1.8640909093 -1.0302887053
H -0.5368970067 2.0466816412 0.7216183560
H -1.0333485193 -0.2936704423 0.1490118762
H -0.1178618294 -0.6677906082 -2.0164693774
H 1.4212418939 0.0782822819 -1.5863572610
H 2.3414122752 -2.9882274446 0.1919698780
H 2.8633591199 -1.0290312010 1.7729258201
H 2.7869035280 -0.0913396534 0.2622062513
H 0.8500176611 1.2773121237 2.5498518117
H -0.5878768905 0.2788354885 2.8061663285
H 0.9796078934 -0.2465726363 3.4355857972
H -0.4033252120 -2.4607199076 1.0027572690
H 0.8698420457 -2.5003230152 2.2636701640