16

C -0.0111148082 -3.8052131390 -0.0731676336
C 0.0067835370 -2.5981048838 -0.0305792721
C 0.0269883182 -1.2397441744 0.0172922729
C 0.0421667027 -0.0284234511 0.0649037627
C 0.0365301140 1.4006442154 0.0959446797
C 0.5133099043 2.2014452439 1.2593623787
C 1.6476843411 1.5111433150 2.0089694680
C 2.3859450798 1.4785038259 0.6445276776
N 1.2723264802 2.2324559016 -0.0448262188
H -0.0287387317 -4.8660810339 -0.1110981329
H -0.7778057357 1.8553754537 -0.4637280423
H -0.0620725991 3.0532868386 1.6098280417
H 2.1320416301 2.1623275133 2.7380961892
H 1.4056241167 0.5569983530 2.4831739039
H 3.2915163440 2.0862071633 0.6176665669
H 2.5908460665 0.4988098988 0.2066646284