19

C 0.2041142604 1.1123974645 1.1965986452
C -0.2055612685 0.3494378861 -0.0723898752
O 0.8226316661 -0.5363795496 -0.4963462162
C -1.5115875355 -0.3624188810 0.0910048439
C -1.8474467316 -1.6429835545 -0.0939632957
C -3.3384631370 -1.6307120921 0.2853808398
C -3.8490637170 -0.3809690371 -0.4933793550
C -2.8683732982 0.2282885922 0.5519910037
O -3.3326809211 -0.7931937076 1.4940437286
H 1.1675190322 1.6026220752 1.0346755292
H -0.5348292740 1.8738784325 1.4641649702
H 0.2960930882 0.4241194179 2.0442151641
H -0.2951831702 1.0757818795 -0.8930503191
H 0.9361311769 -1.1927368221 0.2009310288
H -1.2600147962 -2.4787582627 -0.4422909024
H -3.8924573157 -2.5633305316 0.3804265809
H -3.6134451301 -0.2906840269 -1.5557143049
H -4.8930641105 -0.1426573002 -0.2765673022
H -2.9285732382 1.2511173975 0.9224318463