19

C -0.1244676806 1.5731543544 -0.0539007066
C -0.1368030019 0.0437140228 -0.0988360718
C 0.8429324577 -0.5293927879 -1.1426294029
C 0.8751766522 -2.0192195476 -1.2056630982
C 1.8287201597 -2.9425112065 -0.8848345115
N 1.3817894296 -4.2389317973 -1.1066774070
C 0.1685437941 -4.0854619955 -1.5569050352
O -0.6900460026 -5.0547587496 -1.9222888395
N -0.2100384251 -2.7850689685 -1.6443684519
H 0.8713982955 1.9525171730 0.2008161269
H -0.4016609039 2.0020380358 -1.0235549737
H -0.8272520987 1.9555948986 0.6924991085
H 0.1187733944 -0.3654933920 0.8854816973
H -1.1529673344 -0.3092717059 -0.3184090148
H 0.5982153891 -0.1079031987 -2.1291362864
H 1.8571904443 -0.1844718470 -0.9119049970
H 2.8219962400 -2.7539315343 -0.5063083660
H -0.2233883237 -5.8886243776 -1.7842721579
H -1.0999987857 -2.4516226062 -1.9730581322