16

O -0.0548116891 -0.0003293204 0.1860052413
C -0.0481834295 1.1838253729 -0.0484955733
C -1.2293166062 2.1075399014 -0.1495415182
C -0.7429140533 3.3250370458 -0.4381848638
N -0.7295286327 4.5620682471 0.3317269796
C 0.7878876262 4.3296244065 0.3533406373
C 1.2639597626 3.0989334046 1.2110661715
C 1.1879454132 2.1112031659 -0.0451731263
C 0.7156087531 3.3486460655 -0.8314637936
H -2.1777222688 1.8678491735 0.3129165226
H -0.9002977921 5.3938573359 -0.2347824854
H 1.3812829197 5.2430709394 0.4069710235
H 2.2979662132 3.2355862420 1.5334221172
H 0.6525422418 2.8390864972 2.0762335885
H 2.1210334128 1.6057678511 -0.2908724706
H 1.0003919792 3.5771298817 -1.8585346102