21

C 0.0031238436 1.5564637278 -0.0131717997
C 0.0519583755 0.0470666888 -0.0560678204
O -1.1171563733 -0.5811110164 0.4201590815
C 0.6430799376 -0.7781394069 -1.1940189702
C -0.1146699363 -1.8215055257 -1.9620865492
C 1.9214835871 -0.0986733086 -1.6671281622
O 2.4489943758 -0.0296916429 -0.3153952174
C 1.3142812656 -0.7576359374 0.1821965729
C 1.5443636963 -1.7612558643 1.2626731474
H 0.9678864213 1.9923801911 -0.2781069090
H -0.7668794868 1.9445295906 -0.6877353541
H -0.2388028995 1.8967992406 1.0018641516
H -1.2215161986 -0.3377963324 1.3468317626
H -0.5806362642 -1.3887151018 -2.8560842645
H 0.5472061529 -2.6297620395 -2.2931298695
H -0.9094494362 -2.2512988137 -1.3500225229
H 2.5462613086 -0.7518967340 -2.2891468998
H 1.8451666197 0.8880373484 -2.1399543513
H 1.9829677497 -1.2797774294 2.1450331875
H 0.5965365575 -2.2213834443 1.5523050407
H 2.2304814639 -2.5489263803 0.9358890961