20

C -0.6148364371 1.5433000498 0.7224299303
C -0.4640295185 0.0328097536 0.9372072411
C -1.6387477453 -0.7344523018 0.3685672324
N -1.6486023781 -0.9670147063 -1.0848136779
C -1.5868758914 -2.1189865251 -0.1808904663
C -0.3126696702 -2.9618762159 -0.2164718293
N -0.0064225613 -3.6836382082 1.0231509349
C -0.4032548931 -3.9290228597 -1.3236444982
N -0.5190748157 -4.6857599352 -2.1887194606
H 0.2399612774 2.0884545217 1.1328074104
H -0.6847798686 1.7710152119 -0.3453801652
H -1.5193440309 1.9247228298 1.2091347441
H 0.4641049953 -0.3070443731 0.4670252030
H -0.3795480786 -0.1847584712 2.0103037962
H -2.5931426251 -0.4674570884 0.8248933832
H -2.5769954345 -0.8603941540 -1.4820845203
H -2.4881081260 -2.7199539291 -0.0589508600
H 0.5304625045 -2.3008340318 -0.4415931995
H 0.0579664520 -3.0122732406 1.7829362416
H -0.7693685347 -4.3143886564 1.2536133401