23

C 0.2047951492 1.5352660410 -0.1531800790
C 0.1243400537 0.0226420678 0.0329627568
C 0.7123830882 -0.4688944989 1.3500330897
O 1.0905207342 0.3021266810 2.2041016883
C 0.8295790140 -1.9815503987 1.5127763093
C 2.1472780166 -2.4990474004 0.8562456423
C 2.4898796308 -3.7562611888 1.6672774747
C 2.1660466390 -3.3371784041 3.1098667735
C 0.8937055855 -2.4626310850 2.9891449994
H 1.2442844401 1.8742353352 -0.1530009095
H -0.2560107241 1.8356700153 -1.0984594230
H -0.3037381313 2.0539062519 0.6630381424
H -0.9189463911 -0.3241508833 -0.0006487975
H 0.6226780961 -0.5114428464 -0.7874710146
H -0.0137585349 -2.4496530562 0.9926350599
H 2.0406529315 -2.6841748623 -0.2161703119
H 2.9402486439 -1.7522496344 0.9865873869
H 1.8424684204 -4.5864141295 1.3572144066
H 3.5261049888 -4.0803209484 1.5314276902
H 2.0312914340 -4.1880818689 3.7832321472
H 2.9933527616 -2.7392779468 3.5087015570
H 0.9268860849 -1.6044630855 3.6628587043
H -0.0032109213 -3.0401235744 3.2313899968