13

O 0.1753072220 1.2556102209 0.5973626498
C 0.1514173241 -0.0202226274 0.2285054874
N 0.9978690200 -0.6545538858 -0.5197562609
C 0.4801444237 -1.9460089522 -0.5539450423
C -0.6497578456 -2.0104735870 0.1807161974
N -1.5722853130 -3.0000797753 0.4764573367
C -2.6519416081 -3.3059691750 -0.3318512053
O -2.8948742449 -2.7928458424 -1.3920843046
O -0.8746919859 -0.7310053093 0.7021099368
H 0.9548687646 1.6494462479 0.1839360386
H 0.9565356434 -2.7378996778 -1.1091879420
H -1.5213682466 -3.4682794956 1.3706805601
H -3.2674992538 -4.1070283210 0.1230948383