23

C -0.0827052712 1.6129403196 0.0106509526
C -0.0857626961 0.0805139397 -0.0228290897
C 0.7302403378 -0.5077027042 -1.1772113896
C 2.2591881792 -0.2140380334 -1.1337240200
C 2.8922647573 -1.4564572322 -1.7590102923
C 2.6906322445 -2.8036412129 -1.0790983257
C 1.4729749648 -2.7616764028 -0.1570293118
C 0.6824440694 -2.0421500327 -1.3047336964
C 1.8427065448 -2.4029488494 -2.2741320182
H 0.9301490119 2.0087873334 0.1388962605
H -0.4844087350 2.0289996953 -0.9203358624
H -0.6937228499 1.9935055511 0.8352378663
H 0.2974036847 -0.3049333561 0.9308995979
H -1.1216307501 -0.2756931697 -0.1002973343
H 0.3343950094 -0.0959823916 -2.1175722526
H 2.5174404498 0.6884580344 -1.6957869240
H 2.6039394034 -0.0550639848 -0.1042208168
H 3.8176965520 -1.3597600339 -2.3165220789
H 3.4974716353 -3.5266076857 -1.0347639274
H 1.0785284686 -3.7644558464 0.0267200196
H 1.5673792357 -2.2427314469 0.8037585501
H -0.3106807534 -2.4417391643 -1.5147776588
H 1.7830237669 -2.8137873867 -3.2732071382