21

C 0.4832111172 1.3992451202 0.4852707043
C 0.0740150617 -0.0127868073 0.0649029409
C 0.7424184955 -0.4482277417 -1.2331809415
O 0.4263747003 -1.0053240173 1.0368161243
C -0.2742731392 -0.9515605662 2.2256884428
C 0.1469766914 -1.8965242192 3.2941758527
C 0.3749517940 -0.3974624543 3.5027799661
C 1.7061070658 0.1257042422 3.4915753567
C 2.8202629437 0.5804928085 3.4992334283
H 1.5630026781 1.4519563439 0.6475697363
H 0.2070083415 2.1144309982 -0.2965193027
H -0.0125244361 1.7038994142 1.4105178426
H -1.0210062962 -0.0411513532 -0.0669845041
H 1.8308848714 -0.4372508711 -1.1199405630
H 0.4351144868 -1.4623142303 -1.5013831115
H 0.4721441978 0.2282526912 -2.0491770745
H -1.3401656646 -0.7449190642 2.1169665954
H -0.6071343837 -2.3885126916 3.8975896882
H 1.0332299459 -2.4841968350 3.0861500520
H -0.3047937583 0.0949634563 4.1932791592
H 3.8060879267 0.9737991165 3.5058998174