13

O -0.0107582186 0.2169578080 -0.7079552756
C -0.0168993412 1.2675765354 -0.1390162174
C -1.1369362308 2.2047212055 0.3606692313
C -0.0314884291 3.2233724678 0.6888448345
C -0.0521641173 4.6812483275 0.5886538952
O -0.0259457754 4.0126633415 1.8601272423
C 1.0911628887 2.2342208666 0.3302435082
H -1.8881027457 2.4854336422 -0.3824911140
H -1.6457281760 1.8192774233 1.2509191386
H 0.8577305068 5.2197480378 0.3269982094
H -0.9828031944 5.1953712704 0.3521322679
H 1.6340782573 1.8626956930 1.2061399117
H 1.8140810057 2.5344464409 -0.4330329221