21

C -0.2149975866 1.4448719703 -0.0716019196
O -0.0923354331 0.0382823661 -0.1738988177
C -1.2716467015 -0.6580672522 0.0717680402
C -0.9925031546 -2.1360934258 -0.1711511777
C -2.2507164773 -2.9999772205 -0.3129485253
C -3.2957101413 -2.9373084801 0.7737895727
C -3.6243609975 -1.9356032860 1.5909434002
C -3.0269026615 -0.5559478861 1.7036861052
O -1.6501882055 -0.4344265672 1.4183044389
H 0.7564284798 1.8667731085 -0.3379821949
H -0.9745579165 1.8303578927 -0.7695880855
H -0.4812580946 1.7540814207 0.9447048762
H -2.0824499328 -0.2840345525 -0.5887546808
H -0.3919360400 -2.2278840411 -1.0816733321
H -0.3799069599 -2.4836888559 0.6668139287
H -2.7468577688 -2.7519348372 -1.2650018292
H -1.9353757417 -4.0436556954 -0.4278042844
H -3.9004572294 -3.8397938232 0.8498963279
H -4.4694516815 -2.0927756552 2.2599716063
H -3.6091264713 0.1401243011 1.0699084560
H -3.1377176843 -0.2016883110 2.7341466048