18

N -0.0232963980 -1.1837231265 0.0164992614
C -0.0295334879 -0.0283892089 0.0153417580
C -0.0170251418 1.4325597345 0.0164534990
C 1.4114147734 2.0097715406 0.0041372242
C 1.4018521490 3.5377631882 0.0284103733
N 2.7636908804 4.0564456759 -0.0224476999
C 2.8126957979 5.5136066752 -0.0037306992
C 4.1967002450 5.9946666820 -0.0089138240
N 5.2866299897 6.3756257635 0.0110903424
H -0.5768793869 1.7846288186 -0.8580169569
H -0.5634845630 1.7822298519 0.9003932387
H 1.9592079947 1.6267798962 0.8731034215
H 1.9461677237 1.6646084478 -0.8852747922
H 0.8655100053 3.9166494741 -0.8522294473
H 0.8383651735 3.8938732561 0.9127081902
H 3.3051839355 3.6907678486 0.7548103995
H 2.3112942897 5.8949462452 -0.9022198284
H 2.2966211299 5.9727949869 0.8597745198