19

C 0.0532969641 1.5693172705 -0.1410152187
C 1.3300527177 0.7763433995 -0.0010291288
C 2.1112896891 0.8034999261 1.2783033086
N 1.5436909788 1.5395395874 2.4174324154
C 1.5971838817 0.0700183902 2.4813657052
C 0.3116540695 -0.6950627992 2.3927800047
C -1.0046803335 0.0048934245 2.3582370317
N -0.4970139403 -0.6428193660 1.1583733826
C -0.0217956512 0.0715073885 0.0027683782
H -0.2157496597 2.1888504530 0.7054820612
H -0.1871475186 1.9891712607 -1.1115887572
H 1.9404079686 0.6405370525 -0.8875117320
H 3.1901522866 0.8348271445 1.1507689765
H 2.2788876631 1.9482904505 2.9859504284
H 2.3368892855 -0.3783160324 3.1395010832
H 0.3689115672 -1.6922671971 2.8255333255
H -1.8836513887 -0.4635721141 2.7952192045
H -0.9726386411 1.0879398125 2.4328068394
H -0.2590489588 -0.4718857316 -0.9074233484