22

C 1.3947326686 -4.0006652810 1.4477322848
C 0.9797743961 -2.6728372703 0.8505968233
N 0.5939271014 -1.5046704243 1.6494719719
C 0.6089744638 -1.5435840674 3.1033653705
C 1.8366058325 -1.4385815706 0.8776098649
C 3.2009778245 -1.4198899240 1.5440014822
C 1.7815536760 -0.5072444844 -0.3050246160
C 0.5921587121 0.2790818620 -0.6412833764
O 1.7189873155 0.8926611748 -0.0054820643
H 2.0842119977 -3.9064547286 2.2878911924
H 0.5159464339 -4.5542172062 1.7969622716
H 1.8851645184 -4.6131935121 0.6836525601
H 0.3406677868 -2.7938524765 -0.0257688920
H 1.3892396392 -2.1667748598 3.5612759597
H 0.7309192024 -0.5227655572 3.4782329925
H -0.3607290881 -1.9139965669 3.4517363336
H 3.9760006421 -1.6906042441 0.8184116835
H 3.4237415182 -0.4089896313 1.9006995802
H 3.2859832715 -2.1054056950 2.3872687763
H 2.4834438398 -0.7520843366 -1.1059863750
H 0.4218461292 0.5791101712 -1.6748350077
H -0.2882561418 0.1726586282 -0.0138024258