23

O -0.0571448383 1.4475565633 -0.6430661083
C 0.0004315457 0.1261855868 -0.1259388117
C -1.3743314588 -0.4866271576 0.0726765478
C -2.3126255824 0.2730699595 0.9974189172
C -1.8819973946 0.2570056372 2.4615005675
O -2.8784525705 0.9103595439 3.2186528400
C -2.5656633579 0.9843748277 4.5871812323
C -1.9762518126 -1.1725791304 -1.1371414594
C -1.4698625038 -1.9923034815 0.0239448765
H -0.5707366274 1.4121903631 -1.4574409439
H 0.6008597531 -0.5317906777 -0.7750859087
H 0.5357221073 0.2115581709 0.8260015742
H -2.3868091873 1.3143541503 0.6666154092
H -3.3190094091 -0.1561992880 0.9387539295
H -1.7507949248 -0.7813179084 2.8132042879
H -0.9126246403 0.7664488399 2.5923648808
H -3.3896643387 1.5013213125 5.0855264094
H -2.4504658227 -0.0152499651 5.0371647719
H -1.6347016927 1.5464483425 4.7655882534
H -3.0482412084 -1.1015677887 -1.2858494107
H -1.4006514709 -1.1934652221 -2.0578939218
H -0.5590824032 -2.5658149864 -0.1148684068
H -2.2019407619 -2.4731110816 0.6641326937