20

C 0.0439112735 1.5278583851 -0.1231360134
C -0.0226754883 0.0118136367 -0.0682127458
O 0.6568978996 -0.5043049323 -1.2038237616
C 0.7384694949 -1.9190006303 -1.2886013001
C -0.5056025664 -2.5279015723 -1.9340917761
C 1.9994092998 -2.1706052556 -2.1455712868
O 1.9373132645 -1.4615541865 -3.3612051898
C 3.2129052801 -1.8140255838 -1.3736574622
N 4.1565067497 -1.5398609776 -0.7660889777
H 1.0839391425 1.8652342732 -0.1220700995
H -0.4409934059 1.9027905112 -1.0290044270
H -0.4632200963 1.9594534541 0.7446073129
H 0.4546715768 -0.3656404671 0.8490261696
H -1.0694577008 -0.3272482541 -0.0604804920
H 0.9008830551 -2.3482564520 -0.2889094622
H -1.4049481538 -2.2511535014 -1.3780089226
H -0.6036092661 -2.1739973660 -2.9630774532
H -0.4403537577 -3.6206014265 -1.9428877571
H 2.0638066910 -3.2334626512 -2.4011205139
H 1.6913070179 -0.5564751533 -3.1239988215