17

C -0.0710628247 1.5125841734 -0.0224417835
C 0.0156549467 -0.0074744977 -0.0095723094
N 0.8973514514 -0.4055007779 -1.1839473670
C 1.6422096580 -1.2703689455 -0.6409462849
O 2.9757859478 -0.9928866801 -0.2866747557
C 2.3790104457 -1.0267124547 1.0800312622
C 0.7949516638 -0.6124421537 1.1937228400
C 1.2771443104 -1.9383168953 0.7468652474
N 0.8215410707 -3.2469054697 1.0230260405
H 0.9301356460 1.9511280767 -0.0293786225
H -0.6057161140 1.8609504890 -0.9094439141
H -0.6055186641 1.8602129918 0.8696796975
H -0.9954989636 -0.4401575374 -0.0489541541
H 3.0868475649 -0.9238337803 1.8943962800
H 0.4606552911 -0.4471066355 2.2183492088
H 1.5690284697 -3.9311620316 0.9700994549
H 0.3982640702 -3.3047470312 1.9422967898