16

O 0.0711896586 -0.0029710242 -0.1040931868
C 0.0241244966 1.1742643974 0.0865592568
C -1.0584361645 2.2798221421 0.0636908140
C -0.8094283399 3.0613897455 1.3643370804
C 0.7330175845 3.1029873593 1.3008473804
C 1.6075923130 4.0989472728 1.9121267733
O 1.5067430205 2.7646885256 2.4405543295
C 1.0000143999 2.3764632962 -0.0085468664
N -0.0926998132 2.9985274783 -0.8669463999
H -2.0787275788 2.1142863454 -0.2753423829
H -1.2602366892 4.0554929747 1.3215924901
H -1.1574286442 2.5380517911 2.2579482889
H 2.5617023908 4.3459723000 1.4487878549
H 1.1775753614 4.8800581139 2.5377655791
H 2.0157521744 2.3205861669 -0.3923462040
H -0.0975132498 2.5248173251 -1.7712257576