18

C 0.0448450482 1.5765813868 0.0453116753
C -0.0090217166 0.0369693922 0.0223517835
C 0.7628408787 -0.5162300761 1.1396833499
N 1.4006840937 -0.9423072570 2.0036293476
C -1.4670840380 -0.5396973743 0.0328154575
C -1.4486047590 -2.0780025442 0.0404744648
N -2.1662051711 -0.0692670097 1.2276993906
C -2.1301238498 -0.0812226631 -1.2159063733
N -2.6753205419 0.2966750722 -2.1632102526
H 1.0783527675 1.9169916035 -0.0475479379
H -0.5302133348 1.9853089636 -0.7895711559
H -0.3512636899 1.9680449138 0.9853223328
H 0.4630515805 -0.3143290249 -0.9032390354
H -0.9955352864 -2.4272776317 0.9703920728
H -2.4675963476 -2.4686843560 -0.0286028505
H -0.8794831030 -2.4663180262 -0.8074658297
H -2.3917695547 0.9177572305 1.1580546888
H -3.0450184859 -0.5656832695 1.3362836216