16

C -0.0817216303 1.5617871201 -0.0001097665
C 0.1288666128 0.0765870501 -0.0306216098
O -0.6659602127 -0.7063500533 0.8947759338
C 0.7557173761 -0.7423447262 1.0479160006
C 1.4323935701 -1.9550586876 0.4106306476
C 1.0935619709 -1.7904868361 -1.0555160780
C 0.4103272665 -0.6711972526 -1.2988396681
C 1.2773052838 -0.1783036649 2.2675321638
N 1.7195049312 0.2656544539 3.2393255595
H 0.7418319505 2.0761682351 -0.5049408726
H -1.0113551829 1.8211419808 -0.5173882091
H -0.1470679341 1.9238140216 1.0279464706
H 2.5138770654 -1.9412248061 0.5896942787
H 1.0465041999 -2.8910437189 0.8300998002
H 1.3688262558 -2.5340344327 -1.7940952208
H 0.0655611872 -0.3268684331 -2.2659314799