16

C 0.0872740114 1.5691794392 0.0787358400
C -0.0638748143 0.0893784079 -0.0459554229
C 0.3541457180 -0.7514516245 -1.2844327140
C -0.5683890899 -1.8325848753 -0.7249783385
C -0.4497079061 -1.6830913350 0.7886236870
O 0.5065078491 -0.6747337511 1.0644697478
C -1.3978374388 -0.7855617947 0.0409102262
C -2.7780946713 -0.5069357977 0.1199751820
N -3.9081543984 -0.2571057367 0.1813476525
H 1.1502721227 1.8328655393 0.0781261691
H -0.3967319479 2.0760042330 -0.7606928526
H -0.3573248932 1.9264125050 1.0111495902
H -0.0382936797 -0.3310503189 -2.2129635749
H 1.4221333602 -0.9701459270 -1.3732486663
H -0.9468966564 -2.7272565402 -1.2007321236
H -0.6405883153 -2.4561701334 1.5199906180