18

C -0.1308751144 1.4716061976 -0.0125448568
N -0.0030213745 0.0344802285 0.1750881881
C -1.1595520229 -0.7299928801 0.0786999666
N -2.3805750554 -0.2037043309 0.0840045521
N -3.2095707757 -1.2799881862 0.0457403743
C -2.5323367147 -2.4695625590 -0.0047964071
N -3.1165757122 -3.7522511166 -0.0651633781
C -1.1921542910 -2.1496464133 0.0247402345
N -0.0733887445 -3.0052186168 -0.0514512370
H 0.8556642447 1.9313286473 0.0873039013
H -0.5614336913 1.7505118505 -0.9860773792
H -0.7858146903 1.8791345857 0.7617392248
H 0.7506034013 -0.3782376656 -0.3599588446
H -4.1982240231 -1.1311132476 -0.0488213388
H -3.7190412668 -3.9441752963 0.7286263096
H -3.6553365490 -3.9018947120 -0.9123788676
H -0.3845305541 -3.9704186581 -0.0983681816
H 0.5237644940 -2.9081989071 0.7649491092