18

C 0.1834665782 1.5156692710 -0.0137922684
O 1.2479696270 0.5681461082 -0.0955324647
C -0.0973858055 0.0744668333 -0.0602521037
C -0.4947894706 -0.6990206326 1.1659019727
C -2.0190741659 -0.9738738924 1.4306983176
C -1.7171020477 -2.4760606858 1.5112368460
C -1.1210378853 -2.9436632506 0.2159421071
C -0.2417164215 -2.2165629521 1.1975112483
H 0.1027512476 2.0474249512 0.9341042620
H 0.0298658939 2.1287035578 -0.9011298435
H -0.4338511461 -0.3373409351 -1.0132559882
H -0.0403597063 -0.2160781246 2.0354906366
H -2.3572346539 -0.5345059479 2.3711556501
H -2.7149808070 -0.6749329658 0.6386744007
H -2.1506891107 -3.1644303247 2.2259262556
H -0.9342248718 -4.0103350103 0.1442627585
H -1.4194022751 -2.4878110662 -0.7257130010
H 0.6407794504 -2.6842344036 1.6166322742