21

C -0.0433295169 1.4741967437 0.0051056378
C -0.0487508111 -0.0288633408 -0.0053442111
C 0.8404135081 -0.9861311411 -0.8949169037
C 1.9881387819 -0.9992338807 0.1335363823
C 0.7059849682 -0.9987234376 0.9886664227
C -0.0519222956 -1.9345532291 -0.0183148730
C -1.2395877084 -0.9857959620 -0.0967451499
C -2.5732502581 -0.9883710836 0.5732132300
C -2.4644779395 -0.9781773969 -0.9494576125
H 0.9764706580 1.8670257556 0.0800346041
H -0.4893866180 1.8768001393 -0.9114034702
H -0.6146124742 1.8649861033 0.8547894110
H 0.8856074570 -0.9806993599 -1.9855409927
H 2.6021752159 -1.9047774990 0.1713012013
H 2.6227701504 -0.1084987945 0.1847843875
H 0.5958489819 -1.0078393311 2.0746315277
H -0.0303607147 -3.0253599020 -0.0240690541
H -2.9175082510 -1.9012972388 1.0496774850
H -2.9175979049 -0.0801041795 1.0589955864
H -2.7371416114 -0.0631868333 -1.4671018894
H -2.7366487574 -1.8843469521 -1.4821339594