17

N 0.2776957930 0.9530748976 0.7655538427
C 0.1240419463 -0.1089815699 -0.0595695006
O 0.9625458687 -0.4829598062 -0.8514902799
C -1.2364038178 -0.8592716637 0.0231915275
C -0.9934418883 -2.3786616696 0.1531036332
C -2.2588001034 -3.2037650646 -0.0474986018
O -1.8866675930 -4.5653017574 0.0662265026
C -2.1175581087 -0.3459002291 1.0709391896
N -2.7816886399 0.0869486416 1.9135741297
H 1.1502326053 1.4545083972 0.7316739090
H -0.4214855470 1.2230647492 1.4368518956
H -1.7230790869 -0.6657988929 -0.9420471257
H -0.2496113477 -2.6477107547 -0.5997832980
H -0.5677092599 -2.6046985421 1.1359219568
H -3.0138860802 -2.9283888707 0.7052904442
H -2.6891361573 -2.9842495224 -1.0394303193
H -2.6817875033 -5.1028718824 0.0084265143