23

C -0.4526708247 1.5236975564 -0.0773665686
C 0.0170375610 0.0692245874 0.0725166151
C 0.7470343419 -0.4456029652 -1.1389920912
C 0.0207606550 -0.9840409425 -2.3639685841
C 1.0196160395 -1.8391013055 -1.6507205454
O 2.3433244362 -1.5247402805 -2.0789095296
C 2.2274778592 -0.1734394137 -1.5065424601
C 2.5507978411 0.9030835169 -2.5321067185
C 3.1402562789 -0.0863979163 -0.2890553826
H 0.3947427333 2.2027103693 -0.2199005945
H -1.1137311946 1.6343089315 -0.9429449934
H -0.9981673072 1.8555767639 0.8114899201
H 0.6533343483 -0.0202151119 0.9614593160
H -0.8519806196 -0.5741963673 0.2584631351
H -1.0231418090 -1.2245259451 -2.1813574595
H 0.2387448835 -0.6378131451 -3.3697618142
H 0.8371760335 -2.8254939135 -1.2383335648
H 1.8805144837 0.8571029710 -3.3928702976
H 2.4686504391 1.8983180227 -2.0825799334
H 3.5766655579 0.7790699117 -2.8946013142
H 4.1834192314 -0.1870877096 -0.6038928100
H 3.0290215544 0.8751391868 0.2237135601
H 2.9199766473 -0.8880588114 0.4207612652