13

C -0.0239518389 1.4737289852 0.0419305293
C -0.0084102077 -0.0234793610 0.0012216508
N -0.0420793134 -0.5727476010 -1.1685425172
O -0.0286199977 -1.9589422741 -1.2344888284
C 0.0178415864 -2.6977303754 -0.1172398287
C 0.0542534141 -2.1750601814 1.1244071048
F 0.0993858412 -2.9691075343 2.1846821139
C 0.0442463693 -0.7407069428 1.3066840922
O 0.0739083793 -0.1523163857 2.3739803592
H 0.8671248573 1.8388496569 0.5615916116
H -0.0634633360 1.8839060945 -0.9672323770
H -0.8850137968 1.8190096350 0.6222019595
H 0.0227045130 -3.7607537458 -0.3277226200