14

C 0.0098170098 1.4163225970 -0.0367503168
O 0.0038713918 -0.0192921268 -0.0058143497
C 0.5796053173 -0.6535968521 -1.0122609545
C 0.7253303065 -1.9903355858 -1.2497146307
C 1.4250866641 -2.0123486498 -2.4843888844
C 1.8546508384 -3.2272395380 -3.2247473790
O 2.4463405245 -3.2275682320 -4.2722620756
N 1.6810367344 -0.8046407236 -2.9533422708
O 1.1345917759 0.0634249614 -2.0019966319
H 1.0339470667 1.7991968692 -0.0393122546
H -0.5188128670 1.7866622258 -0.9192715065
H -0.5069582589 1.7260749379 0.8707238190
H 0.3881377349 -2.8118567859 -0.6427083562
H 1.5740115516 -4.1733759673 -2.7114119285