14

C -0.0313197500 1.4511750453 0.0006743600
N -0.0449683780 -0.0085112006 0.0068752125
C -1.1826711771 -0.7164095052 -0.1524584865
C -1.1743004355 -2.0790820072 -0.1436491046
C 0.1035942873 -2.6584410163 0.0429994178
F 0.1550475327 -3.9834679843 0.0577940281
N 1.2164808180 -2.0306005062 0.1992184986
C 1.2239067039 -0.6518855538 0.1925640833
O 2.2080083583 0.0398799162 0.3299193694
H 0.6182335336 1.8128015239 -0.7992364765
H -1.0479659524 1.8185435920 -0.1467417897
H 0.3686250255 1.8225042025 0.9465587123
H -2.0917636005 -0.1411658685 -0.2861459648
H -2.0674654759 -2.6713329378 -0.2685295898