27

C 0.0505007878 1.5627308772 0.0338026202
C -0.0537600883 0.0668308563 0.3627293021
C -1.4246589465 -0.5355675797 0.0781765097
C -2.5472000606 0.0159849949 0.9419876635
C -1.7671269597 -0.8879965006 -1.3549974253
C -1.5573059411 -1.9892201775 -0.3402967065
C -0.4105762764 -2.9801072375 -0.4585869885
C -0.0424480387 -3.5676035092 0.9123648986
C -0.7652260466 -4.0932375452 -1.4566725639
H 1.0660513822 1.9299722491 0.2125413158
H -0.1951421191 1.7511804023 -1.0167918040
H -0.6278315923 2.1645054447 0.6461956780
H 0.7119554436 -0.4670188008 -0.2090366997
H 0.1952988211 -0.0871044837 1.4219375026
H -2.6850882963 1.0926032726 0.7935731388
H -3.4996929584 -0.4697182586 0.7080532513
H -2.3429916515 -0.1486195997 2.0071578893
H -2.7694253965 -0.6882961521 -1.7205588795
H -0.9911733747 -0.7507326574 -2.1034722920
H -2.4721042467 -2.4638048933 0.0149710849
H 0.4699873445 -2.4567009203 -0.8517777734
H -0.8963645316 -4.0994988146 1.3489908771
H 0.7840350353 -4.2815498172 0.8292442426
H 0.2555684177 -2.7841888361 1.6157359004
H -1.0059187526 -3.6808593244 -2.4414277370
H 0.0655060472 -4.7971757229 -1.5749921097
H -1.6365175917 -4.6632633060 -1.1123386054