19

C -0.3548823050 1.4510829982 0.4277970368
O -0.6691392607 0.1100571269 0.7239186644
C -0.7914882283 -0.6910163453 -0.4313158296
C -1.0128591430 -2.1007754242 0.0104144512
O -1.5312828581 -3.0310329000 -0.9549264983
C -2.2250584622 -2.8839199525 0.3026206895
C -1.4968246979 -3.7707492965 1.3118272111
C -0.1794601173 -2.9614356249 0.9818571323
O 0.9056530652 -3.6456716910 0.4221240710
H -0.2713512619 1.9832815526 1.3780969652
H 0.5999648590 1.5355560928 -0.1142538949
H -1.1386415414 1.9290720346 -0.1806389449
H -1.6318538279 -0.3656864889 -1.0658066700
H 0.1253695971 -0.6321384828 -1.0434047984
H -3.2677785636 -2.5938761009 0.2518431850
H -1.8299617638 -3.6305585155 2.3428397675
H -1.4719374642 -4.8361299152 1.0702731162
H 0.1906012063 -2.3966328104 1.8389697492
H 0.5784444677 -4.0324908672 -0.4004572234