16

O 0.1144799972 0.1203376974 -0.3232538934
C 0.0128178307 1.2960890192 -0.1494233950
C -1.1289042680 2.0702649477 0.5018723402
C -0.8558596998 3.5270792059 0.1187692655
C 0.6594048348 3.5271484645 -0.1864010123
C 1.5130620497 3.9758920957 1.0151825584
C 2.9476729601 3.9350853042 0.7424105297
N 4.0814844122 3.9237445542 0.5232301923
O 0.9878448780 2.1767777033 -0.5339127763
H -2.0872059377 1.6807961695 0.1567670362
H -1.0803808582 1.8980542291 1.5825406437
H -1.4100094229 3.7981265298 -0.7831902274
H -1.1190880505 4.2452144197 0.8981495007
H 0.9082889602 4.1466800971 -1.0511259587
H 1.2376954542 5.0024652623 1.2827009415
H 1.2961368199 3.3444808604 1.8844758250