18

N -0.0690387072 1.2662376558 -0.2574734484
C 0.0052367403 0.0392758675 0.0361233986
O 1.1986849175 -0.5871130203 0.2666211359
C 1.2097398313 -1.8505712224 0.9584673710
C -0.0798263496 -2.6299452549 0.7385050366
C -0.3577176008 -2.9488005849 -0.7519230216
C -1.2470758587 -1.7602230939 -1.2009236188
C -1.2251647576 -0.8463474371 0.0458443698
O -1.1496373097 -1.7675589922 1.1364738751
H 0.8624220010 1.6887482282 -0.2539947754
H 2.0847982217 -2.3928596514 0.5876189400
H 1.3412798618 -1.6544084018 2.0293578260
H -0.0935832301 -3.5103150319 1.3861146627
H 0.5676779234 -3.0191760525 -1.3286134813
H -0.8832567356 -3.9005554093 -0.8491635261
H -0.8773255065 -1.2537006071 -2.0942874086
H -2.2723741237 -2.0838528971 -1.3923654826
H -2.1103662878 -0.2243521146 0.1659844670