18

C 0.8051382239 1.4390518153 0.1757540693
O 0.9122188179 0.0128756413 0.2583529498
C -0.1195866932 -0.6095021211 0.8612407858
O -1.0999750062 -0.0422545807 1.2709151209
C 0.1395670670 -2.1154946929 0.9232092089
N 1.3429840039 -2.4016858764 1.7230613478
C 1.0874759007 -3.5738883823 2.5751863322
C -0.4124376259 -3.6915815192 2.5507954937
C -0.9407162367 -2.8794574983 1.6426333126
H 0.7503679753 1.8789807568 1.1747983244
H 1.7043595861 1.7763291652 -0.3400701382
H -0.0886281710 1.7274651695 -0.3834105753
H 0.2289873932 -2.4559242608 -0.1255770445
H 2.1696265710 -2.4980038307 1.1512281888
H 1.5603935852 -4.4983709497 2.1987969239
H 1.4773474401 -3.4156073787 3.5911200823
H -0.9566699293 -4.3654361095 3.2006566578
H -1.9888060921 -2.7480304679 1.4127646497