19

C 0.4905611872 1.3636093682 -0.2768601031
C -0.0519507857 -0.0543525899 -0.0387014766
O -1.4492376684 -0.0256557904 0.1990998236
C 0.2854779041 -1.0358548249 -1.1718427010
C 1.6639180846 -1.6301910232 -0.8193496468
O 2.6539048120 -0.7214698760 -1.2954895852
C 1.6614820695 -1.7278837093 0.7185911142
C 0.6560197027 -0.6777083642 1.1834083420
O 0.3706441103 -0.3982487913 2.3209173641
H 1.5547717532 1.3445295198 -0.5221666232
H -0.0567545574 1.8153293846 -1.1094102794
H 0.3376654730 1.9767786199 0.6170495571
H -1.5574323021 0.2511989444 1.1195584391
H -0.4693651385 -1.8279345544 -1.1744239234
H 0.3047420167 -0.5725434149 -2.1603145578
H 1.8019443800 -2.6131543783 -1.2876679967
H 3.5187313145 -1.0563873469 -1.0377525382
H 1.2952349031 -2.7053431845 1.0568724639
H 2.6456317511 -1.5814105286 1.1734083275