17

C -0.1541698557 1.5291642098 0.0474081767
N 0.0997954989 0.0938585863 -0.0228750853
C 0.7204947303 -0.4637569451 -1.2118936497
C 2.2451334633 -0.3548479068 -1.1534620583
O 2.8246281014 0.6086249867 -0.2856778531
C 2.3108380211 0.4064824837 0.9770443958
N 2.6833238164 1.0039690510 2.0236075125
C 1.1548290487 -0.5551139544 0.8331177355
C 1.5530162627 -1.4287685494 -0.3832582578
H 0.7151065237 2.1604420729 -0.1858923029
H -0.9524085042 1.7670196327 -0.6634364366
H -0.5093070126 1.7803617248 1.0507840066
H 0.1693354457 -0.6015917809 -2.1367201854
H 2.8532282623 -0.5571649494 -2.0254959647
H 3.4498228962 1.6483482553 1.8190436716
H 0.7967646172 -0.9860397943 1.7653057705
H 1.7030136748 -2.4972213229 -0.4299299456