17

C -0.2134281223 1.4220263456 0.1437891983
N -0.0723232750 -0.0122847967 0.0073587913
C 0.5725443740 -0.5723614004 -0.9329249757
C 1.3813389618 0.1525003181 -1.9927532387
O 1.0161850918 1.1632222611 -2.5361668281
N 0.6844108585 -1.9728039868 -0.9326714737
C 0.2802312264 -2.7126746510 0.2623067581
C 0.9979690183 -2.6694394398 -2.0824204244
O 1.0712957310 -3.8720331198 -2.1655279397
H -0.1214722513 1.6760573578 1.2045528656
H 0.4857791929 2.0254433315 -0.4427384221
H -1.2290397753 1.7006754152 -0.1624753169
H 2.3881818623 -0.2778482350 -2.1824130869
H -0.7847046613 -2.5669692489 0.4576808640
H 0.4925173925 -3.7643572998 0.0800044986
H 0.8383614043 -2.3484835129 1.1270883878
H 1.1726165415 -2.0048405782 -2.9481823376