23

C -0.0426836939 1.5705566717 0.0085905607
C 0.0364966062 0.0398474976 0.0384368770
C 0.8171074855 -0.4574345215 1.2595706321
C -1.3888261595 -0.5650160517 -0.0100113116
C -1.4169030761 -2.0188143565 -0.1286417716
C -1.4120352207 -3.2209256131 -0.2233468416
C -1.4408584142 -4.6779804035 -0.3897338333
C -2.8764994839 -5.2222558111 -0.3508911791
O -0.7600727334 -5.0898634440 -1.5751665649
H 0.9574673206 2.0150935661 0.0050644367
H -0.5724985254 1.9290816259 -0.8805758031
H -0.5717912868 1.9534628403 0.8897446083
H 0.5614497694 -0.2974601833 -0.8646971011
H 1.8391354498 -0.0652134297 1.2572519928
H 0.3370318602 -0.1284690966 2.1895536770
H 0.8704497846 -1.5493929125 1.2761013652
H -1.9353390435 -0.2635727114 0.8952008339
H -1.9375573598 -0.1232086304 -0.8523144866
H -0.8698942139 -5.1421336691 0.4238805130
H -3.4751954267 -4.7775105145 -1.1524072221
H -2.8585635677 -6.3070753449 -0.4850508607
H -3.3572287631 -4.9864116990 0.6030676948
H -1.1163652379 -4.5683988288 -2.3029646057