22

C -0.0765635276 1.5548846687 -0.0272892174
C -0.0220332097 0.0288386279 0.0751461422
C 0.8645873437 -0.4663469379 1.2261374682
C 0.8753525087 -1.9830106570 1.3362721074
C 1.6115292988 -2.7419508082 2.4625013303
C 0.9817634031 -2.1803086883 3.7654238082
C -0.3271975409 -2.7780960872 3.2526258651
C 0.3901045434 -3.7403901720 2.3848685242
N -0.4085154502 -2.6598979108 1.7480167761
H 0.9211794777 1.9791190630 -0.1884173308
H -0.7125563041 1.8765036674 -0.8580602749
H -0.4787506455 1.9996687577 0.8899281576
H -1.0323099759 -0.3738230641 0.2116272674
H 0.3470914130 -0.3898369638 -0.8704597378
H 1.8969002769 -0.1180585479 1.0776257171
H 0.5177857399 -0.0185109537 2.1643841801
H 1.1403477105 -2.4188020306 0.3651843801
H 2.6738263765 -2.9749638511 2.4099764133
H 1.3303899220 -2.7362516142 4.6398929551
H 1.0530829466 -1.1066811475 3.9631122171
H -1.2735852015 -2.8892624415 3.7649672191
H 0.2734723045 -4.7956435590 2.1766065922