21

C 0.0196759997 1.5439132427 0.0367874484
C 0.0308428216 0.0444219379 -0.0109081988
C 0.4880896859 -0.9356358522 -1.0921951516
C 1.2649008834 -1.7596363280 -0.0676189443
C 0.6636198532 -0.8620478528 1.0801612411
C -0.3426049160 -1.5444075362 1.9642466668
C -1.4825948605 -2.0070651469 1.4519101677
C -1.8342390019 -1.8439608745 -0.0060464522
C -0.9798451473 -0.8018796113 -0.7286227388
H 1.0237526191 1.9500396230 0.2088298397
H -0.3542193658 1.9661129383 -0.9022277158
H -0.6272560986 1.9098811883 0.8438413363
H 0.8216625535 -0.7220544253 -2.1021406543
H 1.0474798023 -2.8307855169 -0.0070945405
H 2.3455457699 -1.6240606160 -0.1636891082
H 1.4394218489 -0.3567553374 1.6582942555
H -0.1118926464 -1.6813029687 3.0171172248
H -2.2066340458 -2.5209724356 2.0789689833
H -1.7699478709 -2.8159497393 -0.5176111863
H -2.8903942573 -1.5528848091 -0.0844283053
H -1.5245059471 -0.2523161001 -1.4932313075