19

C -0.0727841308 1.6278293914 0.1587982797
C 0.0074493711 0.1044132173 0.0667489758
C 0.7418668480 -0.4784994213 1.2965320287
O 1.1973181994 -1.8035682695 1.1160689297
C -1.3945230077 -0.5127154303 -0.0641006972
O -2.1337984511 -0.1884265977 1.0998901564
O 0.6141978669 -0.2913015297 -1.1884110457
C 1.9488805502 -0.2610492466 -1.3531013327
O 2.4638578697 -0.5843036250 -2.3826731860
H 0.9242819844 2.0712538407 0.2380655261
H -0.5598953182 2.0325453548 -0.7325782522
H -0.6570420834 1.9195608220 1.0347450686
H 1.6315568885 0.1142916675 1.5267718650
H 0.0585734234 -0.3844185347 2.1503355306
H 0.4354411351 -2.3876507480 1.0532749710
H -1.8620374112 -0.1168868555 -0.9757219050
H -1.2940161133 -1.6015370298 -0.1972044693
H -3.0363647023 -0.4979146399 0.9847330645
H 2.5063965513 0.0954672644 -0.4725462581