20

C 0.4221745637 0.7042783935 0.8667154096
C 0.0503967380 -0.2634725031 -0.2647809149
C -1.3845804634 -0.7556165979 -0.1936460349
C -2.4562820916 0.2745081190 -0.5339216052
N -3.7791296618 -0.1814129725 -0.1629644554
C -4.8613807712 -0.0658000578 -0.9755613450
O -4.8610206586 0.4508192059 -2.0734249065
C -1.6807621636 -2.1860642026 -0.3391883127
O -1.6883276288 -1.5663703284 0.9579037234
H 1.4831797430 0.9642701170 0.8145633718
H -0.1462011994 1.6379433178 0.8174342022
H 0.2315309745 0.2417537758 1.8393317013
H 0.2112986509 0.2117570562 -1.2408931660
H 0.7149295913 -1.1326335326 -0.2260828438
H -2.2223176277 1.2200258746 -0.0274737548
H -2.4668881373 0.4769965016 -1.6084505161
H -3.8616088930 -0.6602125776 0.7212727894
H -5.7678598252 -0.5046139717 -0.5135092486
H -2.6551290181 -2.5053923176 -0.7025822725
H -0.8648923617 -2.8859205494 -0.5109775413