19

C -0.0895333202 1.6045614247 0.0749143150
C -0.0049824074 0.0894209520 0.0292159741
O -1.3187447984 -0.4756934069 0.0915299319
C 0.8070096981 -0.6528582839 -1.0897613047
C 2.1770699649 -0.0013744542 -0.9166073022
O 2.2777884065 -0.0001013545 0.5392795899
C 1.0547735554 -0.6412718718 0.9236524484
C 0.9884144762 -1.8471108328 -0.0696963248
O -0.0188379543 -2.8010379040 0.0482561777
H 0.8960013724 2.0595704438 0.1801317694
H -0.5763183726 1.9945762549 -0.8244973070
H -0.6871770020 1.9198134569 0.9396983322
H -1.7371999495 -0.1571345359 0.8992961470
H 0.4117524519 -0.7859484762 -2.0963869727
H 2.9924962229 -0.5924870892 -1.3479998498
H 2.2468999665 1.0243710490 -1.2947017570
H 0.9916453174 -0.7249479046 2.0090296001
H 1.9361621028 -2.3848612327 -0.1569973933
H -0.8533151006 -2.3118591947 0.0819151158