16

O 0.4413129757 0.1759946206 1.0431785871
C -0.0475579332 0.1211555939 -0.2862608766
C -1.4832211196 -0.4563506559 -0.4030863797
O -1.9503708766 -0.2441200819 -1.7036688958
C -1.5153374103 -1.9521323844 -0.0801244120
O -1.7629704045 -2.7445192331 -0.9577567934
C -1.2263422864 -2.3646758797 1.3611148784
C -1.1020974453 -3.8044446651 1.5475411865
N -0.9943442087 -4.9408801818 1.7187008139
H 0.0308707164 0.9239444755 1.4889409706
H -0.0650676309 1.1083797949 -0.7627839451
H 0.6453833494 -0.5076079553 -0.8539655500
H -2.1222428984 0.0718823807 0.3253313307
H -2.0720037562 -1.1282879884 -2.0870030781
H -0.3240126790 -1.8403878416 1.6987167105
H -2.0405983524 -1.9815641785 1.9905706132