23

C -0.0351978649 1.4699240342 0.0548727758
C -0.0072984312 0.0146520442 0.0048192088
C 0.0304911110 -1.1885054238 -0.0303845377
C 0.0437994909 -2.6565505287 -0.0766178801
C -1.4142024973 -3.1656518437 0.0067779513
C 0.6790049471 -3.1122916763 -1.4099953551
C 0.8702540409 -3.1694739412 1.1540637781
C 0.8679585829 -4.6880536661 1.3474582903
O 2.2020860175 -2.6730295308 1.1264839760
H 0.7763891570 1.8609393522 0.6786296340
H 0.0770914080 1.9061104203 -0.9441610566
H -0.9794200876 1.8389759488 0.4710273100
H -2.0231555895 -2.6880849389 -0.7653357626
H -1.4657306509 -4.2482559026 -0.1418740669
H -1.8583552662 -2.9261711434 0.9780141947
H 1.7030575217 -2.7404860452 -1.5034452470
H 0.6863307771 -4.2037061986 -1.4959413470
H 0.1090340178 -2.7134997044 -2.2532569747
H 0.4239459325 -2.7042699413 2.0403086769
H 1.2869124212 -5.2089382174 0.4784880170
H 1.4866445947 -4.9334553397 2.2149963007
H -0.1360438105 -5.0821671409 1.5230853845
H 2.6953319177 -3.1835933567 0.4760284395