19

C -0.7247506076 1.5084385355 0.0761719554
C -0.2632393740 0.0662261577 -0.0399625471
C 0.5384248424 -0.4532271169 -1.2821606181
C 0.9131588301 0.4763664695 -2.4494738813
C -0.2456904640 0.8467757861 -3.2603953043
N -1.1785451283 1.1257133700 -3.8831621978
C 1.6397379266 -0.8281922766 -0.2952279827
C 2.0595862341 0.3180675816 0.5338710960
N 0.8248002568 -0.3891542672 0.9111218103
H 0.0718041392 2.2358298244 -0.1049949480
H -1.5255587163 1.7085474226 -0.6422325305
H -1.1158649359 1.6880643342 1.0826777289
H -1.1195874374 -0.5886553573 0.1380911999
H 0.0547631010 -1.3416941966 -1.6937821202
H 1.3923994146 1.3924375727 -2.0907778062
H 1.6431651249 -0.0255416377 -3.0958757775
H 2.1802513403 -1.7693824606 -0.3006729925
H 2.8658107515 0.1464716045 1.2403270455
H 2.0158268619 1.3343447440 0.1525904901