14

O 0.0207405106 1.3976620036 0.0083625047
C -0.0075966623 0.0224501684 0.0619178962
C -0.3553845979 -0.8093335794 1.2887815157
C -1.5160484880 -0.1786382818 1.9802861792
N -1.7956933471 0.0906750136 3.1663447834
O -2.2719328879 -0.0044456460 0.8071164395
C -1.2948077999 -0.7510690285 0.0494258226
C -1.7145363067 -1.8073901832 -0.8842177704
O -2.8571532036 -2.0807315211 -1.1454118617
H -0.8535131353 1.7249410827 0.2588749732
H 0.7988121437 -0.4112351961 -0.5236855845
H 0.2600516097 -1.6149260841 1.6632167502
H -2.7235993199 0.5068653603 3.2551030077
H -0.8513175853 -2.3373697384 -1.3459968956