25

C 0.0382156101 1.6323736378 0.0682503932
C 0.0027077969 0.1026846434 0.0121585314
C 0.7007019173 -0.4714483591 -1.2255080180
C 0.6708741367 -2.0029681383 -1.2889045592
C 1.3658693939 -2.5586752616 -2.5367442094
C 1.4518415931 -4.1045631546 -2.5887855545
C 0.0692102018 -4.7845245932 -2.6620056438
C 2.2868969974 -4.5257600595 -3.7136888766
C 2.9589154594 -4.8581286123 -4.6539138656
H 1.0689258247 2.0038841676 0.0832172552
H -0.4571647711 2.0720618597 -0.8046843978
H -0.4652998269 2.0123740389 0.9627186006
H 0.4726799734 -0.3084523718 0.9155579660
H -1.0400903470 -0.2409470641 0.0313287033
H 0.2297951166 -0.0613866231 -2.1299868576
H 1.7438556542 -0.1265407710 -1.2469056012
H 1.1535159388 -2.4126270561 -0.3900666091
H -0.3725872768 -2.3400320416 -1.2549438015
H 0.8515588091 -2.2059100115 -3.4399642657
H 2.3852132811 -2.1587558870 -2.5901649829
H 1.9436816386 -4.4400278318 -1.6638965959
H -0.4787406121 -4.4456569011 -3.5468759360
H 0.1774386420 -5.8701468329 -2.7276598405
H -0.5281364205 -4.5546039876 -1.7758458761
H 3.5599800093 -5.1574873693 -5.4762043483