22

C 0.1126750528 1.5293274079 0.1365781846
C 0.0262975222 0.0057659796 0.0144024201
C 0.6551271303 -0.5296977769 -1.2676477573
O 2.0312239612 -0.1420230347 -1.3003822099
C 2.8035116598 -1.1235628400 -1.9798449317
C 2.0241198735 -2.4130544987 -1.8495270972
N 1.6011909955 -2.6708382330 -0.4542705054
C 0.6572227474 -2.0501573965 -1.4130357141
C -0.5983872318 -2.7632762060 -1.8370470959
H 1.1549689502 1.8567084071 0.1153979621
H -0.4118037164 2.0255443586 -0.6882432290
H -0.3373573348 1.8742331653 1.0725878083
H 0.5314241787 -0.4765866679 0.8573980888
H -1.0247066229 -0.3113006561 0.0398597991
H 0.1279653054 -0.1086216597 -2.1440819495
H 2.9308901591 -0.8724543067 -3.0460812115
H 3.7909207615 -1.1540205134 -1.5072496077
H 2.2194121116 -3.2431875521 -2.5208622113
H 1.3672151266 -3.6574985397 -0.3600759752
H -1.3701559450 -2.7038825506 -1.0610592568
H -1.0132088521 -2.3229912512 -2.7504452858
H -0.4028410828 -3.8224689854 -2.0333332947