23

C 0.0828532998 1.4493312224 -0.8740144535
C -0.4176061016 0.0126077235 -1.0553579351
C -1.1087170942 -0.5622618000 0.1965957352
C -2.5127014046 0.0346472447 0.4023486350
C -1.1761180345 -2.0885847191 0.1997988341
C -1.6363116591 -2.7306143729 1.5099788083
O -1.4320031665 -4.1243810107 1.5175896241
C -1.3117247950 -2.8761971892 -1.0321405950
O -0.0434110381 -2.7889940382 -0.3532662969
H 0.5789519665 1.8046297776 -1.7824164444
H -0.7311307263 2.1471927487 -0.6527810024
H 0.8070425365 1.5132311727 -0.0542649265
H -1.1124107649 -0.0229638743 -1.9046731591
H 0.4276121932 -0.6335746405 -1.3108365965
H -0.4930261155 -0.2848493768 1.0657888740
H -2.9566354663 -0.2678146136 1.3549140892
H -2.4746663760 1.1272362981 0.3962689198
H -3.1893944483 -0.2810773601 -0.3998121110
H -1.1025709806 -2.2391936056 2.3420678316
H -2.7067594039 -2.5606324410 1.6629765393
H -0.5560732790 -4.2552993382 1.1285955653
H -1.7847582108 -3.8536913217 -0.9821760434
H -1.3435128507 -2.3799953259 -1.9988180121