14

N -0.3396204909 1.3703002110 -0.1282510040
C -0.1199274220 0.0399113512 0.0019483892
C -1.0232973043 -1.0109354189 0.0777966681
C -2.5204077891 -0.9764042197 0.0054294365
C -2.9169916880 -0.3940299756 -1.3415937643
O -2.8653392320 0.7901837920 -1.5863721155
N -0.2747940926 -2.1365745356 0.2464036572
N 0.9507795409 -1.9135784459 0.2944821238
O 1.1055708374 -0.4202813067 0.1281555292
H 0.4529452722 1.9373050992 -0.3850157978
H -1.2279047991 1.6216690471 -0.5473105196
H -2.9059825273 -1.9915520244 0.1222255283
H -2.9446283547 -0.3412454732 0.7932976322
H -3.2103149305 -1.1194795905 -2.1281920534