18

O 0.1065291342 1.2059471270 -0.5337461610
C -0.0637079673 -0.0279824148 0.1493749392
C -1.4951811004 -0.4816335571 0.1668332234
C -2.6632188940 -0.1360904730 1.0715190212
N -3.4203381020 -1.3198102204 0.4859438976
C -3.6537770686 -0.8470375027 -0.9403716681
C -2.1551852806 -0.9460783817 -1.1483956305
O -1.3992581361 -0.8568002762 -2.3023963365
C -2.0561046191 -1.8807923894 0.0271880808
H -0.1500866021 1.0447734043 -1.4490890187
H 0.5622334472 -0.8177193448 -0.2932482143
H 0.2951581463 0.1363419330 1.1710897341
H -2.4551347097 -0.3258783146 2.1283907405
H -3.1711523090 0.8282477971 0.9622399831
H -4.2148859147 -1.6118083130 -1.4866060029
H -4.1599486984 0.1205467696 -1.0288041945
H -1.6255811075 -1.5877970171 -2.8879645142
H -1.6811529783 -2.8781145063 0.2092169407