16

C -0.0515945905 1.5369762307 0.0030869271
C -0.0184858825 0.0422532133 -0.0184188940
C 0.0286640714 -0.7922736823 -1.1337859708
N -0.0021605810 -0.5294482894 -2.5014197260
N 0.0329898830 -2.0624843344 -0.6438814987
C -0.0061231086 -1.9762321459 0.7376019364
C 0.0135273706 -3.1748066038 1.5605612998
O -0.0282954273 -3.2123705481 2.7688200743
N -0.0416341038 -0.7088306868 1.1157340199
H 0.5139781588 1.9668069247 -0.8320051433
H -1.0738898342 1.9305690209 -0.0540451946
H 0.3888214975 1.9005730802 0.9341260316
H -0.0190905058 0.4634576395 -2.6925610325
H 0.7546347955 -0.9583101196 -3.0226138130
H 0.0040739572 -2.9066045830 -1.1931445226
H 0.0704227399 -4.1130516061 0.9545736163