21

C 0.1657519362 1.3840918933 0.0408035191
O 0.0734507632 -0.0172224632 0.1404408073
C -1.2167339473 -0.5068235806 -0.1523452778
C -1.1935944752 -2.0171096025 0.0045016911
C -1.0459833418 -2.4661618015 1.4920663005
C -2.5477547056 -2.7889703262 1.4757774651
O -3.3849471490 -2.9261871618 2.3207755945
C -2.6037397074 -2.7099274461 -0.0604852795
C -3.8163560640 -2.0742040937 -0.7282945243
H 1.1937668214 1.6624702373 0.2847583334
H -0.0666247174 1.7380449899 -0.9761487271
H -0.5159928119 1.8900568911 0.7427387999
H -1.9586549102 -0.0559519834 0.5316271275
H -1.5135553203 -0.2260829817 -1.1772256944
H -0.4497135745 -2.4339108651 -0.6770147734
H -0.4390511237 -3.3682304350 1.6180303096
H -0.7081060253 -1.7151232168 2.2095318038
H -2.4659883806 -3.7307957780 -0.4417018624
H -3.9863791156 -1.0523771094 -0.3772481440
H -3.7076258037 -2.0474673553 -1.8170246896
H -4.7137180273 -2.6537064713 -0.4921122692