17

C -0.0392741159 1.5038481001 0.0537811534
C -0.3596792144 0.0338385627 -0.1489045945
O -1.3578081996 -0.5014557385 0.2991957843
N 0.5581711043 -0.6769354756 -0.8729294099
C 0.4357668451 -2.1051465610 -0.9884883990
C -0.5650531730 -2.6999223694 -2.0052261533
O 0.5497508816 -3.3546575958 -2.7062548077
C 1.4715634223 -2.7482914576 -1.8896589754
N 2.7234898824 -2.6993356234 -1.9301154585
H 0.3997657104 1.6395998197 1.0476331349
H 0.6599117377 1.8961343594 -0.6891901651
H -0.9684232717 2.0747033638 0.0197576432
H 1.4319279006 -0.2638713138 -1.1588069713
H 0.3489011417 -2.5755760300 -0.0044278099
H -1.2748886665 -3.4334830171 -1.6220925525
H -1.0557211128 -1.9702196826 -2.6512970075
H 3.0990085478 -3.2257032511 -2.7206261810