12

N -0.0666517095 1.3262171264 0.0082453283
C 0.0654540375 -0.0166193686 0.0029183325
O 1.1140212488 -0.6333408427 -0.0076258967
C -1.2496046239 -0.7637518147 0.0111499606
C -1.2758205194 -2.1567982895 0.0069330679
N -2.4349645891 -2.7964270481 0.0142819685
N -3.5570176856 -2.0723103844 0.0256507333
N -3.5360672243 -0.7606324007 0.0296464020
N -2.3872252313 -0.0861891121 0.0224869095
H 0.7596105758 1.9003867032 0.0032586472
H -0.9837169174 1.7439516385 0.0169142388
H -0.3631551617 -2.7422788473 -0.0023091319