23

C 0.0931892744 1.5305969000 -0.1066668194
C -0.0279172489 0.0282608133 0.1677383815
C -1.4557512046 -0.4936841055 0.0482329777
C -2.1247379323 -0.5542826959 -1.3757959512
C -2.3063583885 -2.0682681154 -1.1797884797
C -3.3354358052 -2.9670858408 -1.7844238622
O -0.9814450291 -2.5993306128 -0.9772510043
C -1.6660703207 -2.0209907493 0.1517827068
C -1.8091078377 -2.8534048691 1.3848032381
H 1.1307111189 1.8676449596 -0.0175075308
H -0.2506532081 1.7804867397 -1.1162924757
H -0.5080045838 2.1144823448 0.5997233363
H 0.6045555712 -0.5343138697 -0.5279293887
H 0.3499379296 -0.1878225277 1.1763030485
H -2.1148130525 0.0303059427 0.7510188984
H -3.0649341195 0.0004167430 -1.4319392945
H -1.4898935522 -0.2801188429 -2.2232365966
H -3.1551034208 -3.0958590808 -2.8580431426
H -3.3086353685 -3.9557046685 -1.3179764203
H -4.3392606227 -2.5471357409 -1.6617842857
H -0.8566777483 -2.9198763328 1.9234146911
H -2.5484625135 -2.4169188323 2.0645282206
H -2.1219346771 -3.8702088888 1.1318822327