16

O -0.1978436917 1.3188000589 -0.3612318599
C -0.0187826629 -0.0151678746 0.0009883840
C -0.3669481191 -0.4425379804 1.3993834467
C -1.2735495010 -0.7908904487 0.2293684697
C 1.1816788993 -0.6396171802 -0.7499800389
C 2.4128795939 0.0913870731 -0.4327118605
C 3.3853457380 0.7395454564 -0.1569274062
C 1.3370555456 -2.0758785423 -0.4845087338
N 1.4332850039 -3.2074660721 -0.2741266894
H 0.5610486170 1.8168028797 -0.0311339458
H 0.1973345726 -1.2449558840 1.8611665615
H -0.6961099323 0.3407292364 2.0721186123
H -2.1965531969 -0.2334759583 0.1228912986
H -1.3172536467 -1.8260134566 -0.0890324780
H 0.9723716055 -0.5252235853 -1.8226604759
H 4.2626741346 1.2912216481 0.0780377954