18

C 0.2192307879 1.5926551374 -0.2687163408
C 0.1225331945 0.1480196181 -0.1237552363
C 0.0521652715 -1.0487195026 -0.0135398596
C -0.0650209424 -2.4876409040 0.1520674183
C 0.0358914380 -3.0713447134 1.6177889102
C -1.1493549828 -4.0164377771 1.3027109209
C -1.5124158387 -3.1207340676 0.0930875584
C 0.8476410430 -3.1960275792 -0.7517780646
N 1.5567759956 -3.7806875456 -1.4529565927
H 0.9666817589 1.8621986933 -1.0225071500
H -0.7381089345 2.0254070804 -0.5786405687
H 0.5103378470 2.0676100723 0.6744168429
H 0.9945055291 -3.5103069420 1.8958764242
H -0.2292719354 -2.2902157896 2.3323512693
H -0.8091708971 -5.0061240673 0.9893191837
H -1.9082518584 -4.1352920035 2.0772060320
H -2.2478735793 -2.3546052744 0.3445259500
H -1.7903433370 -3.5991401153 -0.8465107973