20

C 0.5268540263 0.6689761813 0.6664710657
C -0.3336610236 0.4379931196 -0.5870675673
C 0.4380133471 -0.1686003022 -1.7116125879
N 0.7353055343 0.3814096771 -2.8248228457
C 1.5358122997 -0.5767580961 -3.5470418777
C 2.8491215340 -0.9752297659 -2.8939492913
C 1.6209911302 -1.8110710104 -2.6630999389
C 1.4896285602 -3.2574098852 -3.0338903205
O 0.8710776760 -1.4504178469 -1.5031321440
H 0.9532863703 -0.2713969635 1.0254578896
H 1.3499878448 1.3574842440 0.4523937845
H -0.0769229452 1.1008081914 1.4694416989
H -1.1670709752 -0.2301017082 -0.3391028280
H -0.7519799313 1.3792974981 -0.9497437105
H 1.4369736637 -0.5891858816 -4.6263018943
H 3.6049732051 -1.4054490390 -3.5423436451
H 3.2272045843 -0.3546501924 -2.0880145403
H 2.0178134113 -3.4530648898 -3.9711019852
H 1.9208971282 -3.9043048908 -2.2624378610
H 0.4386870697 -3.5331844894 -3.1652537711