12

O 0.0762439899 1.3357678195 0.0072736437
C -0.0228992578 0.0067217254 0.0009861637
C -1.1818412932 -0.6914714425 0.0034499681
F -2.3549666315 -0.0603979451 0.0127875676
N -1.2001451892 -2.0401932353 -0.0033664336
C -0.0834519718 -2.6903615761 -0.0125218517
C 1.2229353776 -2.0471983884 -0.0160277748
N 2.3311795402 -2.6579518424 -0.0249474204
O 1.1611392802 -0.6391152165 -0.0084939663
H 1.0133540173 1.5722762344 0.0035910440
H -0.0904777049 -3.7748780394 -0.0180368494
H 3.1235377033 -2.0169442037 -0.0257942008