20

C 0.4272078091 1.5996473541 -0.1462209340
C -0.0152695021 0.1650849927 0.1245990977
C 0.6253283846 -0.8995009709 -0.8180762728
C 1.6139309391 -1.2877345811 0.3154107951
C 0.7068570254 -0.5195280451 1.3237781322
O 1.3411257043 0.3743408593 2.2092157225
C -0.2186076282 -1.4355418325 2.1154717190
O 0.5909436136 -2.0830494709 3.0958536986
H 1.5153408433 1.6737794349 -0.2332913816
H -0.0141380095 1.9610037918 -1.0812907429
H 0.1190335254 2.2670167711 0.6631563366
H -1.1095562665 0.1279461884 0.1872422067
H -0.0634317277 -1.7072143337 -1.0796038398
H 1.0665710018 -0.5141463739 -1.7406425329
H 1.7855277597 -2.3490794038 0.5090014167
H 2.5784141440 -0.7850288164 0.2168452422
H 1.5855430514 -0.1515016229 2.9820297807
H -1.0002135034 -0.8249483598 2.5913820091
H -0.7042489444 -2.1665502179 1.4524042746
H 0.0172632701 -2.4996377234 3.7445249725