16

C -0.2591771846 1.5496179779 0.2894967829
C -0.0479863997 0.0902412118 0.0516875144
C 0.1368212008 -0.6038670995 -1.1275666687
N 0.2940157167 -1.8893134921 -0.7258145211
N 0.2042826505 -2.0067447497 0.6082339220
N 0.0054235968 -0.8088712142 1.0798900375
C 0.1895681891 -0.2156921761 -2.5464369019
C 1.3566741299 -0.5113118691 -3.4006523342
O 0.1698293209 -1.3033080697 -3.4799555913
H 0.6873013190 2.1022091679 0.3083096707
H -0.8876363531 1.9999576740 -0.4855484249
H -0.7464126604 1.6940630183 1.2562710275
H 0.3815501519 -2.7037709923 -1.3142301415
H -0.4339931657 0.6341732074 -2.8212860315
H 1.5576647618 0.1149315446 -4.2681309681
H 2.2221493562 -1.0049882492 -2.9627587618