15

O -0.1461360030 1.4300317050 0.4082241333
C -0.0583323059 0.0787158606 0.0194889198
C 0.7098307569 -0.6651302672 1.1186123109
O -0.2740661386 -1.1092944021 2.0742545412
C -1.5099995899 -1.1262147254 1.5319129853
O -2.4908040134 -1.4782095643 2.1188944427
C -1.4170403219 -0.6380174362 0.0768958479
C -2.6401237468 0.1504907829 -0.3360306846
O -2.5970262154 1.2248031894 -0.8861905659
H -0.8099993849 1.8419640148 -0.1627770901
H 0.4323488362 -0.0348478060 -0.9563548685
H 1.2430737203 -1.5400276230 0.7325336315
H 1.4046083137 -0.0002074734 1.6323699393
H -1.4079654999 -1.5465719310 -0.5450163268
H -3.6026686671 -0.3412563343 -0.0971817759