21

C -0.0429499071 1.4943846218 0.0505553374
C 0.0489988711 -0.0179030261 0.0062202026
C 1.4233743632 -0.6312862610 -0.1706488274
C 0.7047808707 -0.7349570584 1.1690272597
O 1.1663541262 0.0680838981 2.2250470541
C 0.1329435239 -2.0451552974 1.5771734701
C -0.7062144736 -2.7435088593 0.8117314658
C -1.1559846910 -2.2380493752 -0.5347437510
C -1.1735464852 -0.6987727800 -0.5961529658
H 0.8035769338 1.9281070647 0.5850498308
H -0.0661575994 1.9087759992 -0.9641390807
H -0.9579454473 1.8142897334 0.5620546933
H 1.5481420947 -1.5361633976 -0.7557619921
H 2.2604048007 0.0587205045 -0.2166298530
H 2.0288905405 -0.2656510369 2.4937259085
H 0.4443984477 -2.4139776008 2.5512301417
H -1.0750883337 -3.7086470200 1.1467804978
H -0.5010038776 -2.6378929942 -1.3218924954
H -2.1555801145 -2.6204320447 -0.7697848888
H -2.0537225788 -0.3382972822 -0.0474396396
H -1.3018541042 -0.3727573178 -1.6355258280