23

C 0.0153437256 1.4961589191 0.1808252459
C -0.0427245455 -0.0200461756 0.0191457159
C -1.4658292622 -0.4853671435 -0.3188687973
C 1.0318201304 -0.6834242656 -0.9424702435
C 1.2922949349 -1.7893900303 0.1394392321
C 2.6390642321 -2.1067235701 0.8202388086
C 2.3521270111 -1.8265042260 2.3332502976
C 1.2360670927 -0.7832372734 2.2874625054
C 0.6291208720 -0.8467452527 1.1067628589
H 1.0285806270 1.8277831876 0.4261952365
H -0.2971026704 1.9999052885 -0.7414052902
H -0.6521634026 1.8321414526 0.9827028113
H -1.8039369294 -0.0317906375 -1.2574089716
H -1.5216771258 -1.5723433536 -0.4309805615
H -2.1684047050 -0.1939507672 0.4691193541
H 0.6663620154 -1.0125700982 -1.9195280218
H 1.9001640296 -0.0325530404 -1.0784041553
H 0.7151266297 -2.6950937899 -0.0817451874
H 3.0030798423 -3.1220837548 0.6372769458
H 3.4099241830 -1.4113100141 0.4681903897
H 2.0420019211 -2.7414302598 2.8585548683
H 3.2391844469 -1.4572835071 2.8597773698
H 1.0607575172 -0.0694821581 3.0843937685