18

C 0.0776972048 1.5470069779 -0.1578905937
C -0.0339390978 0.0615609471 0.0803432234
N 1.1915537530 -0.7483711608 0.0294993598
C 0.4641152097 -0.6393896776 1.3055866926
C 1.1668739266 0.0552744108 2.4357632431
N 0.6055280712 0.1269802401 3.5715327971
N 2.4339575260 0.5473565607 2.0713683429
C 3.3142251682 1.2208939474 2.8749332435
O 3.1220458438 1.5372973227 4.0286972498
H 0.9749535785 1.9642088514 0.3034710204
H 0.1151914030 1.7605866505 -1.2312018586
H -0.7921216668 2.0629324081 0.2608013521
H -0.9232997151 -0.3926824115 -0.3547069686
H 1.0389031247 -1.6501504262 -0.4105522434
H -0.1297906439 -1.4796929924 1.6514128146
H 1.2004598034 0.6264793112 4.2334674925
H 2.7133087778 0.3046465903 1.1265939430
H 4.2538607331 1.4559049103 2.3387679594