20

C -0.0663686012 1.5141451208 0.3283031384
C 0.0039282320 0.0226611466 0.0630893917
C 1.2945429524 -0.5736477211 -0.4665568311
C 0.8704103208 -0.8198355423 0.9615390760
C -1.3072027667 -0.6083083913 -0.3919629641
O -2.2846202344 -0.4936786835 0.6078349975
C -1.8725795421 0.0213008698 -1.6835385186
N -1.0421172952 0.0713643360 -2.7526613931
O -3.0301883725 0.4077922827 -1.7142184246
H 0.8787158642 1.8863839864 0.7342580100
H -0.2825517132 2.0785973222 -0.5862783237
H -0.8592409193 1.7245721889 1.0514275711
H 1.2477095805 -1.4157941807 -1.1518191044
H 2.1274058133 0.0977609829 -0.6473973754
H 1.4193689567 -0.3169462749 1.7500611991
H 0.5233463235 -1.8128853104 1.2250235671
H -1.1155515939 -1.6726560867 -0.6175634453
H -3.0622567390 -0.1309856041 0.1479409173
H -0.0602653353 -0.1205883002 -2.6527420582
H -1.3697886703 0.5217523891 -3.5917825398