23

C 0.1684165366 1.6943736984 0.0162340419
C 0.2392223344 0.1664776553 -0.0741316015
C 0.6399510039 -0.5042205197 1.2461844816
C -0.3650162947 -0.3730015755 2.4061635171
C 0.1129922026 -1.4262072936 3.4123281662
C 0.4781502823 -2.6353657597 2.5277765616
C 0.9336310096 -2.0493659948 1.1571893753
C 0.1919653403 -2.7179358998 0.0209819195
O 0.7045825479 -3.1709996718 -0.9702132421
H 1.1277858123 2.1146855785 0.3389337914
H -0.0765610343 2.1338194218 -0.9554157605
H -0.5941404554 2.0231938674 0.7294894929
H -0.7323295407 -0.2214051983 -0.4080642917
H 0.9593405291 -0.1171140724 -0.8513664324
H 1.5793125367 -0.0409592291 1.5779163563
H -0.3975972065 0.6366752294 2.8248831575
H -1.3785381556 -0.6134127978 2.0563090429
H 1.0031924879 -1.0575036114 3.9358906646
H -0.6317975119 -1.6717825296 4.1745287432
H 1.2443785255 -3.2761247968 2.9703716466
H -0.4098112239 -3.2645657712 2.3842535786
H 1.9970222791 -2.2144869013 0.9680841882
H -0.9142237151 -2.7791583579 0.1663357028