21

C 0.7287407394 1.5471426391 0.1540046428
C -0.0208120987 0.2269620600 0.0066878338
C 0.6374586744 -0.7883872242 -0.9926840367
O 1.5294823191 -0.3214317297 -1.9757129074
C 1.1880422516 -1.5658863761 0.2121816016
C 1.6977743690 -2.9685465050 0.2935425408
C 2.6511458740 -1.8121848402 0.4766367343
C 0.2458065995 -0.8059850258 1.1577453551
O 0.7326545006 -0.3572373647 2.3993986624
H 1.8003418400 1.4051519606 0.3480186330
H 0.6425330419 2.1445852421 -0.7580710469
H 0.3247934496 2.1303184901 0.9864614167
H -1.0783375097 0.4295868398 -0.1842579000
H -0.1171426034 -1.3603536753 -1.5407482108
H 2.2332566685 0.1626839869 -1.5313281807
H 1.4375104723 -3.5535462249 1.1702686220
H 1.7649866520 -3.5388426172 -0.6277907291
H 3.3555929238 -1.6061705356 -0.3234952747
H 3.0277006942 -1.6208963672 1.4768933972
H -0.6519077748 -1.3843815378 1.3954626449
H 1.5464939468 0.1318463751 2.2393782118