16

C -0.1547377333 1.5761968514 0.0429469047
C 0.0008440796 0.0448315690 0.0127043945
C 0.7131819691 -0.4708147253 -1.2021343715
C 2.0490795346 -0.7358037987 -1.3669326708
N 3.1211105525 -0.6962703602 -0.5031949800
O 2.3039061406 -1.1787115140 -2.6041714293
N 1.0926856562 -1.2277026078 -3.3308040883
C 0.1912230902 -0.8038940544 -2.4808452786
H 0.8204380393 2.0742539994 0.0222468086
H -0.7191442411 1.9285755659 -0.8258839703
H -0.6819706866 1.9007349677 0.9459318368
H 0.5325497884 -0.2851258917 0.9143491543
H -0.9916791962 -0.4169331650 0.0723175204
H 3.0597724989 0.0146606723 0.2102771153
H 4.0180116739 -0.6962247826 -0.9686013550
H -0.8398059461 -0.7526199758 -2.8072497809