19

C 0.3131387034 1.4316694907 0.0583200060
C 0.0035411880 -0.0567208964 -0.1116392843
O 0.7030787208 -0.8410247135 0.8561672823
C -1.4784228208 -0.3667897543 0.0766561139
C -1.8842807495 -1.7204534977 0.5548738070
N -2.0101214055 -0.5510309491 1.4397366897
C -2.3941579187 0.3446913161 -0.8968275042
N -3.6504034869 0.5506678211 -0.4245074818
O -2.0182957714 0.6632434451 -2.0130490447
H 1.3892694420 1.6102055164 -0.0501789095
H -0.2012672144 2.0155263995 -0.7076453746
H 0.0056045814 1.7829792396 1.0486156833
H 0.2783239176 -0.3661490128 -1.1284970256
H 1.6271027705 -0.5766045985 0.8378296012
H -2.8254828540 -2.1410937591 0.2143362949
H -1.0897714063 -2.4292225745 0.7587504264
H -1.2214946371 -0.5491174236 2.0841281496
H -3.8192885652 0.4208125335 0.5615416360
H -4.2968467840 1.0696961875 -0.9944105357