16

C 0.3041115694 1.5045054963 0.1668810981
C -0.1376061944 0.0764926181 -0.1534602485
N 0.6175283652 -0.5064092828 -1.2568399189
C 1.7886524366 -1.1664957936 -1.2461306081
C 2.0566402830 -1.4303447920 -2.5775887525
C 3.2154807892 -2.1403171660 -3.1282688838
O 3.4184384621 -2.3520501650 -4.2983514730
N 1.0313220901 -0.9116684910 -3.3244018989
N 0.1719409019 -0.3574553890 -2.5347775789
H 1.3531453642 1.5350597134 0.4751702278
H 0.1807098957 2.1473528709 -0.7081736531
H -0.3046366465 1.9057855637 0.9819987209
H -0.0209613606 -0.5800034632 0.7132779886
H -1.1859765391 0.0522974327 -0.4579751212
H 2.3211318832 -1.3965687257 -0.3377708453
H 3.9293839299 -2.4849143767 -2.3448087034