15

C -0.0158418692 1.4366451442 -0.0616298252
N -0.0065570631 -0.0052028490 0.0290706792
N -0.0358793132 -0.7578313451 -1.1059041884
C -0.0191811948 -2.0407357246 -0.7309521200
C 0.0215109241 -2.0997801179 0.6693883344
C 0.0288745633 -0.7969461327 1.1311765833
C 0.0703934791 -0.8613892926 2.5613848884
C 0.0843125790 -2.1988314725 2.8322538686
O 0.0554179715 -2.9818016954 1.7054969861
H 0.8863230045 1.8643723802 0.3885421416
H -0.0470570632 1.6938152159 -1.1199198868
H -0.8949606110 1.8561283978 0.4390702384
H -0.0370594214 -2.8208873325 -1.4747268272
H 0.0877924785 -0.0678575187 3.2905511145
H 0.1136347458 -2.7420697771 3.7631062331