14

C -0.0460916853 1.5357026328 0.0753357063
C 0.0136346980 0.0003228195 -0.0284553294
C 0.6971538208 -0.4638787141 -1.2266881614
C 1.2663211099 -0.8276024848 -2.2249097385
C 1.9262203786 -1.2824442828 -3.3815741795
N 2.4405831305 -0.5196786598 -4.3160722554
O 2.9598471920 -1.3799617560 -5.2129774110
N 2.7337721302 -2.6899637525 -4.7738200493
N 2.1191439060 -2.6309790345 -3.6850210926
H 0.9591692210 1.9637559958 0.0989497198
H -0.5775825694 1.9632278053 -0.7785064246
H -0.5684950169 1.8278724533 0.9901471396
H 0.5208716449 -0.4156002551 0.8512820725
H -1.0016678504 -0.4159918871 -0.0172650465