16

N -0.1486496922 1.2789110630 0.3177532917
C 0.0137442725 0.0796186807 -0.0576474760
O 1.1689135955 -0.3689235999 -0.6114050081
C 1.3554600564 -1.7850590579 -0.8071715986
C 0.1142215601 -2.5160707028 -1.2931478472
C -0.9274857047 -2.9255474702 -0.2873794409
O -0.8346528431 -2.0647092796 0.8491903469
C -1.1223015593 -0.9040116802 0.0007942497
C -1.2238797257 -1.8009149974 -1.2352320897
H 0.7112887055 1.8136941285 0.1726046323
H 2.1569283860 -1.8537846875 -1.5451949167
H 1.7081837448 -2.2163261456 0.1356598392
H 0.2391117340 -3.1762664984 -2.1454052311
H -1.3379521824 -3.9180369507 -0.1509805740
H -2.0345059527 -0.4042444676 0.3239609053
H -1.9061729347 -1.6957955644 -2.0660522630