18

O 0.0896807448 1.4036621694 0.2065084438
C 0.1409900793 0.0225359737 -0.1151953466
C -1.2461439629 -0.5828637901 -0.0927248521
C -1.5318938335 -2.0976148067 -0.1130431842
C -0.8883660069 -2.6739577012 1.1726100894
C -2.1818781718 -2.6300069011 1.9705007114
C -1.1978549190 -1.5096140219 2.1160945324
N -1.9508866664 -0.5378859855 1.2551193907
C -2.7554228544 -1.7813590927 0.8134841863
H -0.5235756065 1.4886905045 0.9466110814
H 0.5766861470 -0.0557117251 -1.1178258571
H 0.8014875227 -0.5261604596 0.5746335330
H -1.8931052235 -0.0534392749 -0.8022957593
H -1.5693213675 -2.7073594010 -1.0150028812
H -0.0342638773 -3.3268110187 1.2852024732
H -2.6181398662 -3.3053120760 2.6928724340
H -0.5836205430 -1.2106872239 2.9547350428
H -3.7888859148 -1.6493826490 0.5002559120