18

C 0.0389264550 1.4543538828 0.1544033863
N -0.0276546833 0.0015246938 0.1603232206
C -1.2585551231 -0.6084465361 0.1224353592
O -2.3055457945 0.0159551901 0.1978968404
N -1.2328334082 -1.9989842224 0.0474070015
C -0.0161972408 -2.7905610204 0.0153173763
C -2.4918121651 -2.6637783376 -0.2139647394
C -2.5662033646 -3.2293416211 -1.5733983163
N -2.5917724107 -3.6841343856 -2.6353389794
H -0.1347535042 1.8821625479 -0.8411223165
H -0.7276330335 1.8417076563 0.8254610717
H 1.0232555694 1.7681740339 0.5102524655
H 0.7576163393 -0.4854521687 -0.2374772158
H 0.7167645862 -2.3827949803 0.7159785575
H -0.2447315363 -3.8099096307 0.3386818761
H 0.4328660917 -2.8539043337 -0.9862292218
H -2.6605587343 -3.4753484260 0.5050664351
H -3.2800974330 -1.9183722921 -0.0830942810