14

N 0.0551642561 1.4416050258 0.0585283206
C -0.0210356326 0.0518395880 -0.0443716724
C -1.1825692561 -0.6328902720 -0.1415999510
O -1.1789169315 -1.9995474077 -0.3290479681
C -0.0310183479 -2.6926831961 -0.4053568512
O -0.0181852343 -3.8906127176 -0.5785311927
C 1.2031341998 -1.8687630028 -0.2604430158
N 2.3403727526 -2.5932607798 -0.2998795623
N 1.2025613357 -0.5807496821 -0.0982069148
H 0.9102276908 1.7326549202 0.5125831029
H -0.7560271345 1.8811667941 0.4695389682
H -2.1825382702 -0.2289984585 -0.1081506434
H 2.2612538732 -3.5728343140 -0.5170224199
H 3.2307650190 -2.1277224975 -0.3111499301