17

O 0.0370677772 1.4039606899 -0.0757994010
C 0.0553040262 -0.0071453097 -0.0395178028
C -1.3589500227 -0.5729852845 0.0377895340
O -2.0401203056 -0.1089875044 -1.1266056858
C -3.3832884263 -0.5271774838 -1.2139325868
C -3.5402278282 -2.0069501928 -1.0221709342
C -2.5832085806 -2.7443621525 -0.4478387750
C -1.3874140320 -2.1012805625 0.1298053680
O -0.5139986626 -2.7216407270 0.7017019387
H -0.5563732956 1.6464645959 -0.7960466679
H 0.5584768218 -0.4340627346 -0.9207420763
H 0.6131121541 -0.3141655272 0.8468247486
H -1.8532680669 -0.1710894981 0.9414257456
H -4.0160850444 0.0086479587 -0.4803932603
H -3.7358890303 -0.2333425929 -2.2088539252
H -4.4692274823 -2.4543978966 -1.3675140361
H -2.6632781820 -3.8194906178 -0.3243341838