17

C -0.3576637721 1.4220953268 0.1868917138
C 0.2503492507 0.0653954235 -0.0950557333
C 1.1997846127 -0.0760983367 -1.3088600092
C 2.2392701614 -0.5169651552 -0.2418364784
O 1.3283810239 -0.2600671172 0.8259979870
C 2.6506134164 -1.9723842644 -0.3426590469
O 2.1659758122 -2.8765339400 0.2923438543
C 3.7465875152 -2.2907698696 -1.3690108586
O 4.2512230980 -1.4571802810 -2.0756937239
H 0.4009247605 2.2090613685 0.1324942077
H -1.1473916099 1.6444859031 -0.5390855422
H -0.7995191709 1.4384939114 1.1879786902
H -0.5195228393 -0.7159807618 -0.0581073533
H 0.9241608293 -0.8222696637 -2.0554000383
H 1.4503669544 0.8610002658 -1.8072965598
H 3.1405045894 0.1057367956 -0.1909110803
H 4.0163575181 -3.3678620950 -1.3981844189