21

C -0.2649626191 1.4899638933 -0.0125388379
C 0.1332139839 0.0036100777 0.0255057201
C 0.8527123251 -0.4505626954 -1.2081459440
C 2.1109472325 -0.8891182009 -1.3169115527
C 2.4310287710 -1.3640934329 -2.6978033505
C 1.6251293722 -2.5693267937 -3.1417071323
C 1.1560172546 -1.1718224021 -3.4855343197
C 0.1384787758 -0.5014241911 -2.5629895854
O -1.1397614061 -1.1276036118 -2.5077633182
H 0.6165463325 2.1299827453 -0.1201553518
H -0.9382259711 1.6987359592 -0.8494494382
H -0.7823907893 1.7753902956 0.9084833870
H 0.7559067432 -0.1902632796 0.9060233451
H -0.7786624855 -0.5968023968 0.1391701817
H 2.8188754237 -0.9583682777 -0.4969514510
H 3.4106096996 -1.1922148266 -3.1291659508
H 2.0036712247 -3.1654061686 -3.9657697638
H 1.1173963199 -3.1409062729 -2.3698763589
H 1.1764235441 -0.8834290055 -4.5291850430
H -0.0823259143 0.5120513955 -2.9212248927
H -0.9891438075 -2.0664933312 -2.3495806730