17

C 0.0604026559 1.6118552639 -0.0256615743
C 0.0782141849 0.0908723203 -0.0030667558
C 0.7783369810 -0.7199004458 -1.1040327500
C 1.2400423561 -1.7605532595 -0.1841002502
N 2.2642982242 -0.8177061673 -0.8056037101
C 2.4012989488 -0.2251893947 0.5129709696
N 3.3892007231 0.2104511391 1.1563915492
C 1.0360822642 -0.6441519874 0.9742539403
O 0.7165292766 -0.7546322495 2.2976638099
H 1.0621922741 2.0235233105 -0.1808180508
H -0.5871265525 1.9823369794 -0.8268743485
H -0.3216550020 2.0038150161 0.9221680914
H -0.9301490338 -0.3162437400 0.1288254428
H 0.5213289472 -0.7977406825 -2.1522549251
H 1.3552024592 -2.8341659087 -0.2131525158
H 4.2253076259 0.2499982565 0.5693676614
H 1.5429094569 -0.7266805107 2.7987584760