17

N -0.0057106152 1.2984219723 0.0815464811
C -0.0314419125 -0.0640973029 0.0326760078
N -1.0926622768 -0.7939400467 0.0256778913
C -0.5400563890 -2.1857679542 -0.0066773773
C 0.7184541051 -2.0676935205 0.8905433458
C 1.2404612366 -0.9215684381 -0.0131722114
N 1.2517645891 -1.5578181336 -1.3691443983
C 0.2038914996 -2.3062913060 -1.3435062532
N -0.2153663542 -3.1195053806 -2.3546527735
H 0.8151659636 1.7545971628 -0.2823728001
H -0.8783030110 1.7639444852 -0.1221922284
H -1.2926696236 -2.9388436978 0.2243856663
H 0.4727332001 -1.7744429030 1.9144765935
H 1.3783302954 -2.9390438848 0.8793242383
H 2.1865354061 -0.4385355664 0.2288248866
H 0.2045666398 -2.9531800629 -3.2577755383
H -1.1943489429 -3.3549847428 -2.3773404403