16

O -0.7365503177 0.8990594287 -0.5798050303
C 0.1380099442 1.0470569305 0.2367304930
C 1.3897625320 1.8279844455 -0.0012045021
N 1.4579943254 3.1392959280 0.8450370837
C 1.8937322869 3.8056452874 -0.3986983373
C 3.0344542719 3.0075586362 -1.0926301334
C 3.6710996690 1.9101610265 -0.3140962511
C 2.7271429492 1.1691084100 0.2749621656
C 1.5810091499 2.6587262564 -1.3051461588
H 0.0548235062 0.6132746635 1.2595058759
H 0.4900776002 3.4341832883 0.9878672981
H 1.8091068118 4.8790392226 -0.5178501400
H 3.5703093194 3.5475403313 -1.8640494366
H 4.7415296557 1.7967654374 -0.1949121174
H 2.8679061360 0.3686900888 0.9892298383
H 1.0588695700 2.5578721589 -2.2478274978