19

C -0.2519587781 1.3278289865 0.0225328236
C -0.0300849104 -0.1843688868 -0.0225929982
C 0.5723106486 -0.6442660145 -1.3420739750
O 0.9509374850 0.1008473553 -2.2113753973
C 0.8652020610 -0.6383790355 1.1416283235
O 0.3080835833 -0.2854986909 2.4304716949
C 0.2604927374 -1.6621583220 2.8558314961
C 0.8821585522 -2.1398443759 1.5251599385
O 0.0704872134 -2.9342981179 0.6902760524
H 0.6877626609 1.8629555040 -0.1417067786
H -0.9465234350 1.6394621407 -0.7613405850
H -0.6575205096 1.6174878380 0.9941473213
H -0.9828407943 -0.7204992061 0.0833734483
H 0.6456813106 -1.7459074717 -1.4556758602
H 1.8652792342 -0.1979817316 1.0280187017
H 0.8542670179 -1.8323553176 3.7618907355
H -0.7660042584 -2.0153777470 3.0136207593
H 1.8892017965 -2.5616824409 1.6201644038
H 0.1590226246 -3.8544124363 0.9566749753