22

C -0.1164654965 1.5281671896 0.0966020438
C 0.0131207762 0.0000898526 0.0595289166
C 0.6767819873 -0.4783027511 -1.2385315986
C 0.7959382478 -0.5266008024 1.2575451055
O 0.0749254796 -0.1842237817 2.4589910458
C 0.6455730611 -0.5502406213 3.6207087052
O 1.6967635545 -1.1350938070 3.7061198871
C -0.2130334883 -0.1236658006 4.8098496129
N 0.3054362808 -0.5007530787 6.1125982907
H 0.8690166796 2.0041048708 0.0234474665
H -0.7223838328 1.8892465187 -0.7403221742
H -0.5844748471 1.8621459627 1.0259225128
H -0.9940777145 -0.4342605522 0.1148957845
H 1.6956563292 -0.0837443014 -1.3293334687
H 0.7356975478 -1.5707853182 -1.2836197273
H 0.1116556025 -0.1363149817 -2.1107064646
H 0.9136100556 -1.6143915090 1.2159323965
H 1.7990362784 -0.0874648354 1.3071930710
H -0.3386725713 0.9645615074 4.7586520163
H -1.2166306665 -0.5418587025 4.6705700926
H 0.4151152747 -1.5108616896 6.1436535026
H 1.2508217720 -0.1389812391 6.2064936632