20

N 0.0452962258 1.1955110745 0.6686369354
C 0.0465860550 0.0460412886 0.1333446781
O 1.2179186065 -0.6499382733 -0.0845267916
C 1.6296829764 -0.8659054781 -1.4399450129
C 0.9565506441 -2.0569456330 -2.1127541809
C -0.5156974920 -1.8381496510 -2.4750755253
C -1.4838280391 -1.5743371295 -1.3358335584
C -1.3539417781 -2.1477823434 0.0424939736
C -1.2324444304 -0.6434636801 -0.1576019563
H 1.0097222702 1.4945538829 0.8288759509
H 1.4706685145 0.0525271587 -2.0227685466
H 2.7080341257 -1.0369004150 -1.3750599358
H 1.5103839009 -2.2711959337 -3.0356194752
H 1.0753559341 -2.9375139620 -1.4709160975
H -0.5820750676 -1.0022690236 -3.1854962716
H -0.8728648828 -2.7222074677 -3.0188076178
H -2.5081045418 -1.4990305615 -1.6932547638
H -2.2392573665 -2.5200497747 0.5453400959
H -0.4375289723 -2.6651848163 0.3003677597
H -2.0758592324 -0.0370245018 0.1488761900