22

C -0.2088053132 1.5428460425 0.0168283896
C -0.0352179508 0.0325050559 -0.0344159721
C 1.0728762855 -0.5712248909 -0.9964918319
O 1.9318516525 0.3150190929 -1.6600979188
C 1.6690681678 -1.3081357369 0.2163767624
C 2.3751813141 -2.6278218589 0.2341237368
N 2.0773224693 -0.1801293180 1.1033201841
C 0.6696874713 -0.6798431933 1.1313710003
C 0.0451306195 -1.1751234096 2.3994420448
H 0.7205039364 2.0333692344 0.3168234657
H -0.4973223437 1.9345285189 -0.9634754411
H -0.9865892248 1.8255936276 0.7346750263
H -0.9935338037 -0.4576894713 -0.2414025568
H 0.6496343877 -1.2375356901 -1.7526160002
H 2.4348866426 0.7488768911 -0.9563508176
H 3.3595504721 -2.5532482066 -0.2423576036
H 2.5245499274 -2.9892889352 1.2579516192
H 1.8005648668 -3.3863796961 -0.3083169760
H 2.5625130312 -0.5841735989 1.9039676528
H -0.2047680677 -0.3449250034 3.0705003703
H -0.8804631570 -1.7223108448 2.1901652057
H 0.7183208366 -1.8490568295 2.9416161101