17

C 0.0181259709 1.4655252606 0.1100773679
C -0.0462746834 -0.0208582762 0.0307184114
C -0.0572978635 -0.8718899741 -1.0221179362
C -0.0091137827 -0.6384690178 -2.4928242976
C -0.0229247613 -2.2283032669 -0.3388810834
O -0.8988122940 -2.0489270689 0.8087494043
C -0.0063638422 -0.9736365779 1.2132915264
C 1.1481724210 -1.9332346370 0.6933651271
O 2.2359553229 -2.2990649397 0.9774609072
H 0.9131302497 1.7947617136 0.6525459848
H 0.0450265561 1.9221675844 -0.8828875497
H -0.8456085384 1.8749044505 0.6479378696
H 0.0259910788 0.4278334905 -2.7315573031
H 0.8753612274 -1.1092460470 -2.9397863824
H -0.8838958853 -1.0693949989 -2.9948010761
H -0.1642801368 -3.1535506661 -0.8930487278
H -0.1308920192 -0.6243623391 2.2358682877