20

C -0.6592227623 1.5702539424 -0.1871882498
N -1.0365388155 0.1720703600 -0.2393244018
C -0.2378969172 -0.8160801648 0.2295047908
O 0.8572430185 -0.6269092289 0.7318522939
C -0.7835664212 -2.2707601413 0.1032332868
C 0.2363526930 -3.0679269810 -0.7467499688
C -0.8473383358 -2.8592121600 1.5342852221
C -2.1066352444 -2.3348836608 -0.5194440767
C -3.1947670240 -2.4008815116 -1.0303326384
H -0.6112804410 2.0059357491 -1.1913657770
H -1.3696071467 2.1510114335 0.4116534756
H 0.3271880510 1.6270655973 0.2743749580
H -1.9247385158 -0.0918029735 -0.6365816427
H 1.2272606252 -2.9632360302 -0.3007020050
H -0.0418091231 -4.1246360140 -0.7768144221
H 0.2711410887 -2.6916154214 -1.7727553443
H -1.5887262180 -2.3333980744 2.1420540149
H -1.1213606858 -3.9167175447 1.4954872572
H 0.1319216366 -2.7523288896 2.0048750015
H -4.1548789920 -2.4716827362 -1.4792786841