19

C 0.3374378804 1.5333356166 0.0069393731
C -0.0376992789 0.0564338348 -0.1039825912
O 0.7974735202 -0.5145687663 -1.0883814859
C 0.5354584575 -1.8704610771 -1.3898267529
C 1.4996014697 -2.7870816921 -0.6466293738
C 1.4804830834 -2.6612420883 0.8450495351
C 0.8704238783 -1.7588177421 1.6256818376
C 0.0133035259 -0.5950924300 1.2928353929
O -0.6710426406 -0.1006223442 2.1705241535
H 1.3883996986 1.6352716776 0.2936776905
H 0.1934877011 2.0253317077 -0.9578133048
H -0.2859618862 2.0132897960 0.7623414086
H -1.0923832938 -0.0209232858 -0.4192108929
H -0.5057402035 -2.1303986387 -1.1468935490
H 0.6640087768 -1.9980535667 -2.4707488713
H 1.2972124787 -3.8326878450 -0.9189514890
H 2.5235492456 -2.5882790493 -0.9954734689
H 2.0442731834 -3.4381666936 1.3604589509
H 0.9423698633 -1.8823946937 2.7035895374