15

C 0.0063812662 1.3597536423 -0.0477426548
O -0.0464669600 -0.0618751258 0.0983779056
C -1.2748504943 -0.5836491594 0.1076892624
N -2.3740742442 0.0558689451 -0.0097767100
C -3.4276061730 -0.9660960075 0.0832971086
C -2.7023337201 -2.3356691870 -0.0665978726
N -1.3308392097 -1.9592682252 0.2997728123
H 1.0656973718 1.6189084602 -0.0446871814
H -0.4631795973 1.6682441094 -0.9856592418
H -0.5125397774 1.8502019132 0.7799566239
H -3.9279141852 -0.8938931966 1.0584557899
H -4.1920972472 -0.8149186859 -0.6843713433
H -3.0980051569 -3.1085253903 0.5975234498
H -2.7571064064 -2.7065936737 -1.0999102224
H -0.5654853864 -2.4950125090 -0.0844851463