18

C -0.0079555888 1.5582796657 -0.1898596026
C -0.0451205643 0.0644284406 0.0004733809
O 1.2243829139 -0.6335851443 -0.1025776741
C 0.5689033668 -0.6099838475 1.1375196644
C 1.1165586095 -0.1971143966 2.4901761332
C -0.1054394669 -0.8232852865 3.2369824512
C 0.8580770066 -1.6198185377 4.1076064735
N 1.5951951755 -1.6591882324 2.7710370345
C 0.2178837720 -1.7751433893 2.0401445720
H 0.8224409689 2.0016496663 0.3654014666
H 0.1152622289 1.8074820536 -1.2488413291
H -0.9434191725 2.0121206959 0.1552292925
H -0.8577090729 -0.4529090856 -0.5129542734
H 1.7279909150 0.6525685887 2.7941463213
H -1.0625206024 -0.3450043517 3.4706133354
H 1.4068157156 -1.0895418229 4.8925319563
H 0.5429491116 -2.6069964300 4.4605211374
H -0.2131423664 -2.7518322365 1.8197282800