16

C 0.1686777826 1.5351541496 -0.0053493091
C 0.0145535262 0.0326831008 -0.0653903283
C -1.1968949566 -0.5659412785 0.6357992571
C -2.4992806608 -0.4181283661 -0.1279353573
F -2.4392457075 -1.0045361973 -1.3348755373
F -3.5107781535 -0.9870163322 0.5445271005
F -2.8323405596 0.8694758231 -0.3307740298
C 0.6469867674 -0.7382269450 -1.1464184785
O 1.2213768835 -0.7068579951 0.1631304791
H 1.0822803873 1.8428663485 -0.5188256784
H -0.6859675713 2.0359309718 -0.4664970971
H 0.2334903661 1.8692228994 1.0361570673
H -1.0291925727 -1.6349566164 0.7866290339
H -1.3410468081 -0.1080226557 1.6195911227
H 0.2232447562 -1.6928244425 -1.4522759584
H 1.2102303307 -0.2135302045 -1.9164758764