19

O -0.1367295422 1.3936763014 -0.0424711245
C 0.0177141803 -0.0274379843 0.0025689687
C 0.6154426047 -0.5508476983 1.3386413956
C -0.5706438347 -1.3734874913 1.9493845297
C -1.7666933401 -0.4879987934 1.5320760068
C -1.4378178984 -0.6076981507 0.0167724492
O -2.2826358918 -0.0127568442 -0.9204676517
C -1.2964218288 -2.1122287290 -0.1163690453
C -0.7866065633 -2.5715817906 1.0289339679
H 0.7025871316 1.7891645824 -0.2928989617
H 0.5687136628 -0.3698658258 -0.8803157999
H 1.5142557401 -1.1560571873 1.1998672977
H 0.8681501512 0.3025821059 1.9749799468
H -0.4557090951 -1.5980587655 3.0099260570
H -2.7377385075 -0.9252642655 1.7713490328
H -1.7062459157 0.5394759174 1.9028784025
H -2.0137382765 0.9148440994 -0.9601923839
H -1.5000646635 -2.6458476192 -1.0356904596
H -0.4735872530 -3.5842317315 1.2514262119