20

C 0.0779609135 1.3475392089 0.8875965825
C 0.1316988336 -0.1132306338 0.5047594538
C 0.9789438744 -0.5143984961 -0.6457358145
N 1.4407676725 -0.7447620003 0.7710006977
C 1.4159971024 -2.2288854921 0.4780152375
C 0.1848195105 -2.9070865930 -0.1390011404
C -1.3129849159 -2.8411823081 0.1481127140
C 1.0687499618 -2.0260095789 -0.9721939607
O 1.7677482822 -2.4533046935 -2.0875860039
H 1.0237964147 1.8434654606 0.6529433038
H -0.7278701127 1.8595610792 0.3510797272
H -0.1019366474 1.4557055620 1.9618798447
H -0.7631594106 -0.6696518679 0.7424625242
H 1.4942140413 0.2097764623 -1.2706377594
H 2.1905558362 -2.8214678607 0.9486921560
H 0.5111030414 -3.9327826886 -0.3168952414
H -1.8057805589 -2.0161503028 -0.3722189426
H -1.7901210462 -3.7657290526 -0.1925101087
H -1.5261737731 -2.7454919312 1.2179384813
H 1.1387544704 -2.5855641635 -2.8059133709