18

C -0.6634323429 0.9532898544 0.2180236300
O 0.0523770246 -0.2625063666 0.0914847297
C 0.8218809846 -0.3480823905 -1.0867084123
C 1.8260707875 -1.4793856903 -0.9395688249
C 2.2181058788 -2.0186131390 0.3651816640
O 1.3049246362 -2.7268016838 -0.4839051739
C -0.0196640118 -0.6312399593 -2.3512189595
N -1.1674362924 -1.3155787717 -2.0987423446
O 0.3557877094 -0.2842879766 -3.4530263034
H 0.0165938700 1.8171798927 0.2222092223
H -1.3938030582 1.0821335438 -0.5917393851
H -1.1928093864 0.9121621391 1.1724360963
H 1.3721878899 0.5842591915 -1.2800807510
H 2.5158132184 -1.5517243601 -1.7801976778
H 3.1980209352 -2.4791799838 0.4801754329
H 1.7755400353 -1.5969867237 1.2628029922
H -1.2904089601 -1.7323744376 -1.1896170461
H -1.6730322380 -1.6940468785 -2.8836406287