21

C -0.0448636014 1.5052631025 0.0138833836
C -0.0048472860 0.0034712544 -0.0398867565
C -0.9197423359 -0.8630883815 0.8201017314
C -1.5492427824 -2.1393683622 0.2607232314
C -0.3344020359 -2.9873756710 -0.2134069146
C 0.8427055841 -2.0024438630 -0.1986842428
C 0.5690841870 -1.0073200911 0.9581287589
C 0.5948062590 -0.8086799063 -1.1850108527
O -0.1119406595 -0.9999371758 -2.3922148433
H 0.9272555555 1.9359678947 -0.2530549680
H -0.7870707673 1.9084180517 -0.6851585793
H -0.3055686961 1.8635229684 1.0153986693
H -1.4574202628 -0.3096725989 1.5834826799
H -2.1196049987 -2.6560974001 1.0393214911
H -2.2620288949 -1.9350790928 -0.5485908927
H -0.1469963217 -3.8130398027 0.4804502408
H -0.4813646220 -3.4199033907 -1.2076644589
H 1.8245608032 -2.4713510086 -0.2649503936
H 1.1531606058 -0.8375450189 1.8527270906
H 1.5531956513 -0.3698313952 -1.4808251988
H -1.0262034912 -1.2075177829 -2.1779488359