16

F -0.1713331376 0.1461065818 -0.1926632887
C 0.0013788037 1.4568427448 0.0565267937
F 1.3255430162 1.6863000043 0.0625824364
F -0.5178539263 2.1320555582 -0.9798308728
C -0.6460213227 1.8673158666 1.3610230665
C -0.0717728623 1.1154248342 2.5685061647
C -0.7342526959 1.5478599188 3.8532465781
C 0.0161570992 1.7259699020 5.1012707259
O -0.3956329754 2.8545319788 4.3268397833
H -0.4986813222 2.9441473093 1.4819558670
H -1.7212233792 1.6879090014 1.2591852282
H -0.2097367146 0.0366237192 2.4327247302
H 1.0042856867 1.3031919524 2.6346026189
H -1.7988704049 1.3167712761 3.9319429739
H -0.4869142514 1.6070562354 6.0596812342
H 1.0882023566 1.5334952768 5.1122408402