16

N 0.0758391626 1.3115512764 0.5160001150
C 0.0725011753 0.0101768106 0.0188529855
N -1.0937609160 -0.6348768321 -0.1735482957
N -0.6752026787 -1.8193130685 -0.6606332430
C -1.0249258310 -3.2455489041 -0.7369100476
C 0.5399129317 -3.4831086847 -0.9171699532
O 0.9923659828 -4.0581278624 -2.1096317752
C 0.6599552881 -1.9723001724 -0.7088195991
C 1.2224115781 -0.7860925779 -0.2779391588
H 0.7867145514 1.9013172931 0.1065213618
H -0.8361193180 1.7430556043 0.4419801981
H -1.4444065338 -3.6505717541 0.1888659032
H -1.6525653009 -3.5174621622 -1.5904395961
H 0.9641564557 -4.0829862409 -0.1087374137
H 0.7798137878 -3.4555867811 -2.8312602383
H 2.2572267347 -0.5050414239 -0.1765538530