16

C 0.0934631195 1.4688619463 -0.0462106576
N -0.1327731925 0.0454251941 0.1266778992
C 0.5391179282 -0.7193839961 1.0518293911
C 0.6109693297 -2.0891135464 1.0034263026
C 1.2886795166 -2.8233423156 2.0400494092
O 1.4137586817 -4.0436752338 2.0978311176
C 1.8586730120 -1.9401861271 3.0852361113
N 1.7890407795 -0.6502736300 3.1128062581
N 1.1342938096 -0.0557731570 2.0884614916
H 1.1493254487 1.7256243522 -0.2156640557
H -0.4823865778 1.8071858975 -0.9088840487
H -0.2709366679 2.0358457663 0.8190994845
H -0.3835178819 -0.4623754362 -0.7059127993
H 0.1517410177 -2.6293668036 0.1838250130
H 2.3878663491 -2.4085162883 3.9099711663
H 1.0876577677 0.9451686676 2.1661978468