21

C 0.0716608805 1.5751418605 0.1025079150
C 0.0551174914 0.0310270265 0.0271214535
C 0.9064970443 -0.5593092351 1.1745444030
C -1.4036647853 -0.5165974583 0.0646219857
C -2.2158950373 -0.1717682047 1.3258711274
C -3.5551019195 -0.8753887105 1.3127066296
O -4.6240626236 -0.3291248582 1.3962947287
C 0.6392683227 -0.3870827047 -1.2533241042
C 1.1094327074 -0.7344648114 -2.3040442066
H 1.0925839820 1.9505627735 -0.0064259202
H -0.5364692802 2.0124986547 -0.6944232587
H -0.3161975631 1.9212674219 1.0649679916
H 0.5403053223 -0.2230912256 2.1492385835
H 0.8894676551 -1.6528728839 1.1537196176
H 1.9465891087 -0.2367070590 1.0787155869
H -1.9329455715 -0.1365511617 -0.8161315500
H -1.3585626726 -1.6064596193 -0.0494720644
H -1.6816504462 -0.5180887663 2.2213780117
H -2.3955462588 0.9012471034 1.4258145440
H -3.4858225422 -1.9848464538 1.2120375018
H 1.5282668858 -1.0381432182 -3.2314960957