17

N -0.0596912735 1.3596034609 -0.0529756778
C -0.0770953257 -0.0320550327 0.0054160329
C -1.1276933901 -0.9179103850 -0.1186856841
N -0.5591625764 -2.1341129121 0.1178315236
C -1.1616939251 -3.4509910150 0.0427548661
C -1.1674011514 -4.0088924625 -1.3897199050
O -1.7917035716 -5.2759679311 -1.4424934047
N 0.7491485926 -2.0105728894 0.3683966538
N 1.0481197241 -0.7374513469 0.3001657560
H 0.8917366993 1.7012339234 -0.1067887722
H -0.6150081925 1.7450760045 -0.8046090980
H -2.1770288227 -0.7960482202 -0.3241951446
H -0.5773098498 -4.1015155764 0.6988047845
H -2.1842988769 -3.4019060140 0.4262030616
H -1.7502424673 -3.3489350373 -2.0403368273
H -0.1381485513 -4.0292252306 -1.7738307414
H -1.1957950017 -5.9218059556 -1.0497199234