23

C 0.9218567552 1.1392945720 -0.0766939501
O 0.9894536854 -0.2322917036 -0.3838922136
C -0.1060082533 -0.6767819625 -1.1497751816
C 0.0073614311 -2.1860332165 -1.3926931341
O -1.1478254398 -2.6180619859 -2.1092140797
C 1.3074262166 -2.6199106487 -2.0564001919
C 1.6410383569 -1.9595436379 -3.3813428157
C 2.4509080477 -2.9896879364 -1.1445885067
C 1.6879864552 -4.0705506276 -1.8683926922
H 0.9134388308 1.7618561789 -0.9857545643
H 0.0225662332 1.3825947142 0.5111366378
H 1.8076221608 1.3881452965 0.5129013026
H -1.0588905824 -0.4778527442 -0.6339862382
H -0.1466620618 -0.1417570147 -2.1162143011
H -0.0636513788 -2.6891660625 -0.4219584896
H -1.0956841543 -2.2575604714 -3.0007709681
H 1.8190292134 -0.8853253270 -3.2640643048
H 2.5463053483 -2.3970755073 -3.8124832408
H 0.8425174127 -2.0932916949 -4.1231176933
H 3.4565276141 -2.7576966220 -1.4792243727
H 2.3056470939 -2.8766971085 -0.0764480732
H 1.0159612777 -4.7016950372 -1.2968242523
H 2.1759785377 -4.5784899831 -2.6936149464