15

O 0.0934832258 1.4020690184 0.1387236283
C 0.0715645976 0.0364165391 0.0437382294
C 0.0661139228 -0.7653109535 -1.0804872983
N 0.0421230192 -2.1045423201 -0.6899097266
C 0.0314189796 -2.1555059547 0.6813111526
C 0.0497171472 -0.8431736590 1.1550679682
N 0.0396122809 -0.8970650696 2.5303279323
C 0.0153223631 -2.2248586883 2.9099421408
C 0.0093021829 -3.0395132056 1.7946898713
H 0.1050874822 1.7723038524 -0.7486751262
H 0.0778399608 -0.4899638904 -2.1231022386
H 0.0305139438 -2.8837433704 -1.3205386846
H 0.0484531256 -0.1127137566 3.1558450277
H 0.0038769538 -2.4924674505 3.9546788694
H -0.0085380553 -4.1178614110 1.8030147642