18

C 0.2765560019 0.9400245025 -0.4551349434
O -0.2707014773 0.2554782361 0.6769779262
C -1.3627050500 -0.5076157395 0.4015958506
C -1.4456289259 -1.8577084017 0.1638359212
O -0.4153094752 -2.7550210870 0.0981632766
C -2.8193963607 -2.1942083363 -0.0217368135
C -3.3607654275 -3.5585948328 -0.3147246038
C -3.5260739806 -1.0191918387 0.1155143982
N -2.6437680696 0.0082121724 0.3553594208
H 1.1626503527 1.4722662522 -0.1020641758
H 0.5581179410 0.2327579004 -1.2441379002
H -0.4400095288 1.6612468044 -0.8668176870
H 0.3745358496 -2.3127934083 0.4289530176
H -3.0663553487 -4.2817450516 0.4544270898
H -4.4536247050 -3.5433711377 -0.3609467454
H -2.9913878815 -3.9483672690 -1.2706768529
H -4.5876222871 -0.8392761477 0.0589879747
H -2.8878893673 0.9391574424 0.6430107664