17

N 0.5526618680 0.1497919669 0.8632873064
C -0.0958517409 0.2090674673 -0.3298566822
O 0.1584357741 1.0252572631 -1.1936729508
C -1.2246758920 -0.8164807979 -0.5196107364
C -0.9851783423 -2.2127139148 0.0706515547
O -0.9191809951 -2.2009613811 1.4944809572
C -2.0607780926 -3.2060456776 -0.4219495390
C -1.8766518615 -4.5511600233 0.1176500169
N -1.7303245018 -5.6166040431 0.5388214849
H 1.3146156526 0.7892447442 1.0185513023
H 0.3424545456 -0.5740022500 1.5338262448
H -2.1446099952 -0.3968344416 -0.0872517564
H -1.3871068469 -0.8801822186 -1.5983809054
H -0.0037600059 -2.5827001507 -0.2429739145
H -1.7729162395 -1.9112324075 1.8387411771
H -3.0577421346 -2.8434975685 -0.1392488774
H -2.0440802821 -3.2561701467 -1.5160791221