14

N -0.0056696363 1.3408919571 0.1490751859
C 0.0019354988 -0.0271246251 0.0650471160
N -1.1920859589 -0.6329474770 0.0196329065
C -1.1528631146 -1.9715819033 -0.0085224414
C 0.0266088586 -2.6714720561 0.0110862939
F 0.0710556430 -4.0179951919 -0.0254609077
C 1.2301184168 -1.9463813753 0.0481756730
N 2.4317957773 -2.5894163844 0.0955281838
N 1.2101368644 -0.6152500899 0.0659100911
H 0.8522539196 1.8074108786 -0.0933222342
H -0.8653236540 1.7909022267 -0.1182252496
H -2.1001029193 -2.5039573329 -0.0517835825
H 2.4577343081 -3.5586908936 -0.1722994061
H 3.2457544766 -2.0304423430 -0.1018443188