21

C -0.1139158086 1.4979997666 0.0224898416
C 0.0416248916 0.0041602522 0.0092544499
C 0.4620518282 -0.7209518656 -1.2907608649
C 0.4911479523 -2.1620985705 -0.7013086757
C 1.9193805959 -2.4740978688 -0.2260202224
C 2.1955185570 -1.3437659026 0.8151912543
C 0.7928609966 -0.8124121708 1.1223558355
C -0.2634602204 -1.8230139336 0.6286401721
O -1.1796101234 -0.7465191617 0.3306558414
H 0.8490020260 1.9830480718 -0.1690799970
H -0.8159967343 1.8189036840 -0.7545111328
H -0.4901645998 1.8426290241 0.9898393646
H -0.3057306408 -0.5799996639 -2.0549108122
H 1.4279259318 -0.4022648594 -1.6945246297
H 0.0366348352 -2.9286885403 -1.3293078492
H 1.9602706733 -3.4573371901 0.2572690137
H 2.6417693055 -2.4877557188 -1.0473727682
H 2.6851564567 -1.7296019132 1.7137071926
H 2.8495948496 -0.5634487553 0.4115280504
H 0.6173796649 -0.4049112368 2.1179987230
H -0.6881088774 -2.6312646574 1.2242066331