19

C -0.3982451846 1.4335220379 -0.1019185895
C -0.0442861160 -0.0326043934 0.0370441099
C 1.3190726301 -0.6267826553 -0.3007846786
C 2.5167769889 0.2939335253 -0.4141554757
C 2.6157889816 1.0130508842 0.9419124957
O 3.2943224477 1.9785571588 1.1735128928
C 1.6998956580 0.3016372170 1.9504675331
C 0.8185003997 -0.6218643623 1.1289576500
O 0.4496078997 -1.8442356172 1.6989475620
H 0.4195972206 2.1024026884 0.1793109207
H -0.6675197025 1.6697689724 -1.1371888790
H -1.2572563305 1.6900417284 0.5280298082
H -0.8542395585 -0.7051731298 -0.2355200668
H 1.3246972562 -1.5628343013 -0.8463654859
H 3.4403431301 -0.2800706756 -0.5617566040
H 2.4711935544 1.0307237679 -1.2222889517
H 2.3246403749 -0.3059919389 2.6174026839
H 1.1776922375 1.0366600863 2.5708139921
H -0.2887637575 -1.6854868729 2.2971133929