22

C 0.0844457231 1.4196700416 -0.3013899043
C -0.0051903007 -0.0269051931 0.1838803108
O 0.6160968829 -0.1988608475 1.4577986302
C -1.4323348424 -0.5479528917 0.1952411996
C -2.4404923920 0.0038358115 1.1990516574
C -3.6179585389 -0.9998053789 1.1810807780
C -2.9913639958 -2.3531789368 0.7676056704
C -1.7778273437 -1.9727909976 -0.0634642110
N -1.9455593365 -0.9607565826 -1.1230446072
H 1.1277425920 1.7451794602 -0.3392390312
H -0.3511964757 1.5133507898 -1.3000687182
H -0.4607016562 2.0959422830 0.3695371857
H 0.5643690208 -0.6623949804 -0.5027594450
H 0.3570956654 0.5421195888 2.0149981491
H -1.9677263691 0.0207997116 2.1885410641
H -2.7642772306 1.0263494754 0.9743691802
H -4.1320995697 -1.0545253422 2.1436363884
H -4.3717535467 -0.6883832035 0.4505079357
H -2.6528208463 -2.9122144691 1.6482718337
H -3.6983410885 -2.9962081172 0.2317021127
H -1.0189594754 -2.7230622692 -0.2671824054
H -2.9236887859 -0.7081195622 -1.2432843138