16

C 0.0466113552 1.3794065437 -0.3190028334
C 0.0360227131 -0.1190750063 -0.3861094730
N 0.9590721208 -0.7911698951 -0.9233421685
O -1.1176884977 -0.5940077400 0.2110622098
C -1.1784904018 -1.9594390631 0.5270320608
C -2.5296544563 -2.3936830947 1.1124969299
O -2.6998834897 -3.3620772788 0.0250948415
C -1.5438163142 -2.9657481839 -0.5910548406
O -1.0794425243 -3.3496644754 -1.6145736373
H 0.9358262444 1.7585072683 -0.8199281552
H -0.8489558612 1.7820132289 -0.8025981026
H 0.0326689302 1.7170464615 0.7219502060
H 0.7783588019 -1.7936487629 -0.9597182314
H -0.2974669453 -2.2751517676 1.0983613793
H -2.5124796124 -2.8959741092 2.0802110925
H -3.2982109627 -1.6207563155 1.0743859622