19

C 0.0496905017 1.5693516106 -0.3517967630
C -0.0141298521 0.0994995936 0.0945095938
C -1.4124599596 -0.4297187712 0.1621057462
C -2.1250098958 -0.8621798027 1.2482995645
C -1.8115011462 -0.9828152356 2.6999834913
N -3.3740262956 -1.2303336030 0.7339461422
C -3.3279241905 -0.9982540713 -0.6000157573
O -4.4038583573 -1.2668467431 -1.3621107848
N -2.1842784004 -0.5208155971 -0.9978451411
H 1.0866101146 1.9089616388 -0.4417146001
H -0.4394907679 1.6921728951 -1.3218104731
H -0.4616212772 2.2192385740 0.3658976373
H 0.5641327252 -0.5108437396 -0.6111194042
H 0.4697556249 -0.0141195847 1.0708764548
H -2.4745364685 -0.3667327111 3.3213230408
H -1.8963935129 -2.0167520960 3.0592661661
H -0.7876973506 -0.6541356313 2.8907356069
H -4.1579951785 -1.6009148051 1.2430935780
H -4.1547195133 -1.0320728203 -2.2648240882