22

C 0.0262299979 1.5281532984 -0.0361217814
C -0.0087234701 0.0156928164 0.0286569410
C -1.2440604745 -0.6315379406 -0.6027988705
C -1.8454449492 -1.7818102259 0.2082927367
O -2.7784604261 -2.4298409052 -0.6471713952
C -0.7650575056 -2.7347996266 0.7237165637
C 0.1776288819 -2.0058904667 1.6914949658
C 0.6968909942 -0.6924535896 1.1383024352
N 1.3095927416 -0.6213910667 -0.2000464410
H 0.9686839543 1.9091392459 0.3648367748
H -0.0626754368 1.8733568395 -1.0727867719
H -0.8009606341 1.9652846711 0.5349343272
H -2.0181985504 0.1257769313 -0.7603272943
H -0.9941115834 -1.0182549514 -1.5997033509
H -2.3663700136 -1.3558444033 1.0837155021
H -3.1929565666 -3.1425024823 -0.1502442918
H -1.2308816532 -3.5853181835 1.2369316599
H -0.2208381129 -3.1547862931 -0.1317632325
H -0.3598590112 -1.7940589258 2.6255875831
H 1.0205809612 -2.6528124832 1.9648966527
H 1.2200524981 -0.0808141728 1.8728208098
H 1.1841863885 -1.5076969160 -0.6847665024