10

F 0.0571029380 0.0619397018 0.0021614202
C -0.0570211886 1.3629830715 0.0111480085
C -1.2370996930 2.0109973689 0.0308115775
C -1.2169328331 3.4541720677 0.0392048790
O -2.1650160880 4.2110182935 0.0549135884
C 0.1923214497 3.9666565846 0.0222176068
F 0.3289954116 5.2685602939 0.0269928010
N 1.2875328521 3.3019316077 0.0036588871
O 1.1540134483 1.9115968453 -0.0021060446
H -2.1675717070 1.4614353752 0.0400480560