19

C 0.8851340430 1.4251830399 0.2636994228
N 0.5463038653 0.0107535927 0.1830399556
C 0.2085781467 -0.4581533301 -0.9417099789
C -0.1766558332 -1.9117160683 -1.1117590181
C 0.4539894919 -2.4938879875 -2.3684712716
N -0.4613651690 -2.7905510377 -3.4831976766
C 0.4127945851 -1.6028302352 -3.5550550334
C -0.2661820248 -0.2736387400 -3.2961264736
O 0.1888539206 0.3198015063 -2.0663629713
H 1.0543509668 1.6918732810 1.3099476406
H 1.7990283815 1.6546376081 -0.3004511919
H 0.0923347889 2.0689577197 -0.1388622406
H 0.1166010753 -2.4404751688 -0.2051354163
H -1.2662560162 -1.9910529063 -1.2081788777
H 1.3234486804 -3.1304719662 -2.2342277379
H -0.0737272220 -3.5331893475 -4.0599509996
H 1.2456027443 -1.6105876060 -4.2514272822
H -0.0374746482 0.4681282066 -4.0638982898
H -1.3516198764 -0.4188792506 -3.2626116096