16

C 0.1669806921 1.5022867412 -0.1363997848
C -0.0742369283 0.0050665950 0.1206653795
C 0.6261500667 -0.5016500070 1.3346536443
N 0.0991583072 -0.9841946340 2.4206227679
C 1.1801311134 -1.2949084342 3.2341349135
N 0.9648049821 -1.9020731928 4.4663401395
C 2.3296200793 -0.9728300626 2.5846107764
O 1.9734093711 -0.4587767910 1.3523994813
H 1.2329419813 1.7088629100 -0.2644337510
H -0.3549629422 1.8232255900 -1.0424031459
H -0.1976616579 2.1060988325 0.6998826626
H -1.1388494256 -0.1976710026 0.2587461454
H 0.2582397633 -0.5721749534 -0.7509337966
H 0.0394136437 -1.6993339971 4.8199847253
H 1.6711428511 -1.6965573809 5.1587133515
H 3.3805602027 -1.0338652233 2.8007859409