23

C 0.2554971066 1.6689179366 0.1092136570
C 0.0178891103 0.1560283551 0.0634350530
C 0.5238757804 -0.5197350314 -1.2189234189
C 0.5890690217 -2.0566838451 -1.1900441116
C 0.5946789018 -2.4848504582 -2.6738442726
C 0.2783794657 -3.9601483682 -2.9070356695
C -0.3995970023 -1.5024486556 -3.3167883069
C -0.3118235562 -0.2243531719 -2.4766623474
O -0.8318049008 0.8280549351 -2.7537892203
H 1.3260677044 1.8982812662 0.0533964521
H -0.2401771251 2.1629207937 -0.7283781831
H -0.1262407679 2.0947816785 1.0424600467
H 0.5128897704 -0.3206801892 0.9190843804
H -1.0535265091 -0.0547548742 0.1752896378
H 1.5322227889 -0.1354873277 -1.4449957179
H 1.4536199615 -2.4358068642 -0.6374244595
H -0.3097879127 -2.4541810282 -0.6973803770
H 1.5939974225 -2.2732910086 -3.0793487170
H -0.7155415581 -4.2126820852 -2.5192232746
H 0.2930253410 -4.2091422319 -3.9732459353
H 1.0060764846 -4.6059294121 -2.4038185024
H -0.2348556910 -1.2929112533 -4.3768693163
H -1.4283770869 -1.8797933603 -3.2243604665