20

C -0.0770693697 1.4626348319 -0.1497797174
C 1.3506543556 1.9363954387 0.2573296143
C 2.2404109986 0.7354848491 -0.1058561971
C 3.4949829776 0.3237136777 0.7066292925
C 3.4205457632 -1.2121362204 0.7528175117
N 2.4760198701 -1.7101045118 1.7711428208
C 2.0568297960 -1.6653976939 0.3381404747
C 1.2825511130 -0.4351575195 0.0363624873
C 0.0108479493 -0.0480570573 -0.0044050944
H -0.8604744631 1.9027374882 0.4770466581
H -0.3129659110 1.7521848639 -1.1851300376
H 1.6437234966 2.8728453040 -0.2257269130
H 1.3800642519 2.0937061575 1.3418845659
H 2.5389287492 0.8065670806 -1.1644603709
H 4.4237982136 0.6660555203 0.2416700325
H 3.4605178572 0.7205475692 1.7265840045
H 4.3053762355 -1.8026005828 0.5364659298
H 2.7144981197 -2.6737656455 2.0013372822
H 1.8833817332 -2.6029052855 -0.1795379806
H -0.8618180864 -0.6867076345 0.0718243865