23

C 0.0411032928 1.7227211821 -0.0522535316
C -0.0719963853 0.1950237341 -0.0166941214
C 0.6820506079 -0.4877399119 -1.1687412589
C 2.2249181175 -0.2953401856 -1.0773827085
C 2.7877321266 -1.7071308834 -1.2968445133
O 1.7835093789 -2.5773977390 -0.8028749178
C 0.5371830850 -2.0391283512 -1.2518042465
C -0.5487390436 -2.7259158338 -0.4358639486
O -0.5132437713 -4.1268969214 -0.6335481626
H 1.0815416647 2.0537536851 0.0299413626
H -0.3602189168 2.1252690039 -0.9893142677
H -0.5167450558 2.1781464568 0.7716606014
H 0.3087755895 -0.1782575356 0.9424340002
H -1.1328660530 -0.0797551213 -0.0567340766
H 0.3100048706 -0.0614101369 -2.1072047480
H 2.6112109835 0.4250264150 -1.8023733567
H 2.4979171799 0.0612111983 -0.0789945101
H 2.9697183029 -1.8983044297 -2.3674471282
H 3.7122303603 -1.9076348528 -0.7495066713
H 0.3942876822 -2.3273110700 -2.3068610329
H -0.4293139573 -2.4702665016 0.6274863869
H -1.5380006717 -2.3843519682 -0.7576587675
H 0.4061828225 -4.3874734928 -0.5035255627