19

O -0.0600005632 1.0911335300 -0.9768393810
C -0.0274940943 0.2104007085 0.1580838675
C -1.3804281732 -0.4437118989 0.2640433536
C -1.8719841904 -1.2437148013 -0.9404172150
O -1.0093527357 -1.4008952255 -2.0272705684
C -1.5147624612 -1.9428879734 0.3274567465
C -0.4766593705 -3.0367781603 0.5274516214
C -1.6017745333 -3.7174393780 1.3397815595
O -2.4827243421 -2.5813718071 1.1553216034
H 0.8064496623 1.5019715721 -1.0636701932
H 0.7563292105 -0.5468746244 0.0227217121
H 0.2037265813 0.7715195742 1.0740683237
H -2.1468463257 0.1190898926 0.7887692735
H -2.9319562298 -1.1632849741 -1.1817670426
H -0.6615615943 -0.5189982712 -2.2221221597
H -0.1605965915 -3.5398579750 -0.3867888595
H 0.4014229692 -2.7537482675 1.1119646940
H -2.0176645364 -4.6271112300 0.8921351250
H -1.3935454216 -3.8971030907 2.3998236193