17

O -0.1656937361 -0.1364793653 -0.2710793497
C -0.1205132426 1.0566933721 -0.0734980959
N 1.0168276520 1.7665277372 0.2344874599
C 0.9616213223 3.2275360639 0.3136895642
C 2.0279883892 3.8104667849 1.2197844512
N 2.2171857610 3.1890671954 2.5294793041
C 3.2568034002 3.0145538799 1.4631726056
C 3.3326272028 1.6687699134 0.8543418795
C 2.2463627731 1.1036124012 0.3197461309
H -1.0105829896 1.7128146505 -0.1177760817
H 1.1087827698 3.6617096767 -0.6861251627
H -0.0378375690 3.5157144903 0.6556060111
H 2.1204492173 4.8915420726 1.1336611116
H 2.5286066102 3.8881232838 3.2004041783
H 4.1914958964 3.5508429188 1.5973578455
H 4.2621888251 1.1147761568 0.8914410303
H 2.2147169680 0.0938008779 -0.0676390523