20

C 0.0285972794 1.5370098486 -0.0377717229
C 0.0558629190 0.0098117321 0.0961593541
C 0.6911471615 -0.4155987197 1.4254186123
C -1.3696526839 -0.5679239078 -0.0735500896
C -1.4223312996 -2.0625052877 -0.1450733348
N -1.0124369710 -2.7356039461 -1.2272058175
N -1.2061337919 -4.0048715665 -0.8934617193
N -1.7111295636 -4.2356471169 0.3087365132
C -1.8561798512 -3.0063326906 0.8061021719
H 1.0355366296 1.9579580264 0.0487832175
H -0.3838796963 1.8474242542 -1.0035812933
H -0.5874910170 1.9890558313 0.7491310462
H 0.6648865278 -0.3975261944 -0.7212670879
H 0.7285851545 -1.5043386322 1.5253190668
H 1.7144519386 -0.0356151752 1.5092763754
H 0.1208676531 -0.0203282030 2.2753608669
H -1.9981639985 -0.2287261215 0.7592179478
H -1.8092887569 -0.1557764379 -0.9888165883
H -0.9913463149 -4.7562139649 -1.5287527310
H -2.2571483088 -2.8526612881 1.7955553927