18

C -0.0421592915 1.5496360544 0.1352715242
C 0.0879926135 0.0630073331 0.0208531026
N -0.7687272685 -0.8751884356 0.7575783280
C 0.7292718434 -0.9243126056 0.9650381492
C 1.2150300752 -1.7305905126 -0.2162777555
O 1.8827369665 -2.7158290467 -0.3656307588
C 0.5844503456 -0.7255392283 -1.2156408642
C -0.3711001592 -1.3035737278 -2.2565584718
O 0.3239552317 -2.1812166216 -3.1264271956
H 0.8527130257 2.0523394866 -0.2451465387
H -0.9005717687 1.9144346642 -0.4397802129
H -0.1850334454 1.8526413024 1.1781873888
H -1.1386741391 -0.3855847328 1.5742548152
H 1.1480317316 -0.8011964135 1.9560340997
H 1.4048213061 -0.1951209244 -1.7154276190
H -1.2077096677 -1.8019792321 -1.7485657276
H -0.7875837350 -0.5100601239 -2.8869213516
H 0.7930774757 -2.8210526058 -2.5768808919