18

C 0.0890457833 1.4051789259 -0.0994315450
N 0.1645256759 -0.0413167318 -0.0681719665
C 0.5605999737 -0.6383525418 0.9942946384
N 0.9425533736 0.0330347827 2.1790401661
C 1.3255368763 -0.6503008597 3.1930761138
N 1.4008360121 -2.0121561653 3.2351603435
C 1.0421710497 -2.7410870473 2.1096844475
C 0.6266381517 -2.1123676619 0.9949430483
C 0.2288500217 -2.8518690414 -0.2444219216
H 0.7175105139 1.7795902468 -0.9180706245
H -0.9389927040 1.7056790007 -0.3406242112
H 0.3917236606 1.8958662616 0.8317780812
H 1.6222769202 -0.1445523562 4.1116098185
H 1.7121015716 -2.4773344348 4.0708071445
H 1.1205384566 -3.8178265500 2.1968567058
H 0.3219477324 -3.9343410053 -0.1159342620
H -0.8024008056 -2.6078528180 -0.5188403558
H 0.8450483063 -2.5341382742 -1.0915781912