17

C 0.0617625864 1.8326039581 0.2199977017
C -0.0082155025 0.3313087695 0.0074894278
O -1.3578189391 0.0439802235 -0.3360037865
C -1.6803276258 -0.7291834812 -1.3965005619
O -2.8041063659 -1.0777682534 -1.5991496844
C 1.1368583282 -0.4784716794 -0.6921310350
C 2.0224286922 -0.3050128380 0.5633637044
C 0.5983713588 -0.6978688760 1.0135764079
O 0.5860284039 -1.7082548579 -0.0719169468
H -0.1485412147 2.3465862250 -0.7228234148
H -0.7080618268 2.1314437295 0.9366952320
H 1.0299096180 2.1707570706 0.5889132278
H -0.8294154711 -0.9582276783 -2.0544484922
H 1.4381698417 -0.5253716532 -1.7386827972
H 2.7498570345 -1.1066031552 0.6828165539
H 2.4271087687 0.6742489343 0.8165572971
H 0.2233151836 -1.0029278481 1.9896558560