17

C 0.0509490291 1.6217595660 0.2342737078
C -0.0721360491 0.1192801885 0.1593904063
C -1.3819773252 -0.4289348625 -0.4164880754
C -1.6670430438 0.0632618962 -1.7597238316
C -1.8938595670 0.4750612848 -2.8653574302
O 1.0927783735 -0.5842649434 -0.2451824355
C 0.6649634622 -0.7801898794 1.0996754407
C 1.5265122057 -0.2539174301 2.2040313962
O 2.3986341060 0.5668139014 2.0770736188
H 1.0203865405 1.9070108480 0.6419199599
H -0.0516631286 2.0416111314 -0.7702351296
H -0.7446666539 2.0436016261 0.8575227891
H -1.3294645282 -1.5231124661 -0.4288229432
H -2.2040431218 -0.1555776088 0.2581106082
H -2.0951033403 0.8303484307 -3.8456855965
H 0.2243871133 -1.7570798678 1.3100730325
H 1.2804172576 -0.6921183449 3.1979079227