15

C -0.1863458300 1.3912758093 0.0681900515
N -0.1815997285 -0.0582775058 0.0716066816
C 0.6105188240 -0.6426320669 0.8864373459
N 1.4838726125 -0.0423665699 1.7865034831
N 2.3239333237 -0.6692361354 2.6504981786
C 2.2846273053 -1.9607844449 2.6081270173
N 1.4912070692 -2.7332224529 1.7900986384
C 0.7023557636 -2.1093536724 0.9788970501
O -0.0917306911 -2.7891124975 0.1603611498
H 0.7976752239 1.8174114145 -0.1920597452
H -0.9042788070 1.7499176656 -0.6726333475
H -0.4784874651 1.8158923000 1.0438783612
H 1.5279668415 0.9622083295 1.8335495623
H 2.9440737298 -2.4886691227 3.2860953167
H 0.0788593580 -3.7276605405 0.3346795362