17

C 0.3347231601 1.4997800380 0.2117093253
C -0.2813364963 0.1521004121 -0.1838402726
C 0.3987615162 -0.4508496217 -1.3870657363
O 1.6866864862 -1.0608700688 -1.1735307866
C 0.6164751649 -1.8942761335 -1.5311902681
C 0.0894829224 -3.1111495769 -0.7755369107
O -0.0059564599 -3.8248177397 -2.0509065626
C 0.5385753363 -2.7771827931 -2.7681427874
O 0.7827913767 -2.7265846651 -3.9273249344
H 1.3949593476 1.3827048668 0.4535964913
H 0.2530559724 2.2268559949 -0.6030283361
H -0.1715466020 1.9177807517 1.0860573217
H -0.2170183898 -0.5508699985 0.6540998250
H -1.3462926624 0.2774155624 -0.4174086449
H 0.3501519514 0.1304838270 -2.3092738416
H 0.8079465594 -3.5908409855 -0.1078708694
H -0.8908124635 -3.0212096803 -0.3033421225