16

C 0.1038691371 1.4196572123 0.4241731483
O -0.2546678322 0.4195251370 -0.5325640896
C -1.2719364443 -0.3865262967 -0.1801870361
C -1.9086984614 -0.7488254626 0.9915081863
O -1.6576283260 -0.3161765842 2.2522852307
N -2.8730386849 -1.6441834958 0.7013428814
N -2.8794302786 -1.8777582311 -0.5894607892
N -1.9111952882 -1.1119418967 -1.1331988404
C -1.6453040050 -1.1382729609 -2.5544786990
H 0.9291719977 1.9758227856 -0.0214096817
H -0.7385267270 2.0933708425 0.6156724304
H 0.4227037781 0.9671529691 1.3671561477
H -2.3049673635 -0.7527281416 2.8202772189
H -1.7172024988 -0.1317863924 -2.9747498392
H -0.6464053445 -1.5353401877 -2.7558073158
H -2.3973178484 -1.7848682566 -3.0060135427