17

C -0.6138135409 1.2696875454 -0.3493209897
C -0.5471220174 -0.1661703718 0.1041498337
O -0.3406825333 -0.5456133245 1.2288242019
O -0.7506132846 -1.0056994443 -0.9428303134
C -0.6634865197 -2.4100251138 -0.6575086579
C -1.9779662080 -2.9546736462 -0.1219001970
O -3.0047199378 -2.8659704903 -1.1121061102
C -3.8621309113 -1.8283119500 -1.0355804212
O -4.6945973964 -1.6176201284 -1.8636668989
H 0.1852247084 1.4675313580 -1.0697016454
H -1.5622449033 1.4613982972 -0.8583918586
H -0.5080279237 1.9279290500 0.5118694146
H -0.4192034277 -2.8816084973 -1.6113574166
H 0.1309761761 -2.5933601416 0.0703720311
H -1.8641638487 -4.0152132640 0.1196102873
H -2.2669184879 -2.4192646939 0.7888071624
H -3.7169024037 -1.2193575043 -0.1221960922