18

O 0.1560343882 1.3679806908 -0.0581649764
C 0.0433646278 -0.0269971348 0.1604858110
C -1.4081212628 -0.5262070027 0.0639446664
C -2.0796257517 -0.4646953328 -1.3789284818
C -2.2371210705 -1.9855020537 -1.3322537768
N -0.8673361722 -2.5380943320 -1.2031505887
C -1.5907416720 -2.0673205131 0.0011667303
C -2.2560706900 0.0702607253 1.0826234217
C -2.9594899663 0.5392572829 1.9377124475
H -0.0557974774 1.5395001514 -0.9812248499
H 0.6522960421 -0.6055447936 -0.5442215448
H 0.4220273221 -0.2054050476 1.1719013272
H -3.0221296030 0.0818938210 -1.3641854666
H -1.4423527505 -0.0948835251 -2.1879440434
H -3.0381342728 -2.5799130362 -1.7526985563
H -0.9449640213 -3.5546700444 -1.2147981331
H -1.7814601556 -2.7213204540 0.8425843770
H -3.5724636440 0.9681014385 2.6912116269