23

C -0.1195166791 1.6232846549 0.1374456705
C -0.0880911902 0.0947382637 0.0568143560
C 0.8062523789 -0.5321655569 1.1338131999
O 0.3390625776 -0.1426949197 2.4293003989
C 0.1774212721 -1.2842835356 3.2651141477
C 0.4905905076 -2.4570151575 2.3842379443
C 0.8447595674 -2.0474818062 1.1681518516
C 1.2652840421 -2.8908147479 -0.0037539045
C 0.1009766237 -3.3134946096 -0.9197780898
H 0.8801198514 2.0466460952 -0.0129582522
H -0.7795851309 2.0453025156 -0.6264651600
H -0.4755442685 1.9460662991 1.1188584411
H -1.1008842107 -0.3108017591 0.1681146050
H 0.2797754176 -0.2181877036 -0.9285891801
H 1.8313774839 -0.1391429658 0.9924154358
H 0.8589686083 -1.2207096449 4.1300684944
H -0.8474691401 -1.3059866039 3.6677007303
H 0.4489507953 -3.4833408387 2.7300182206
H 2.0110729648 -2.3460339035 -0.5967946475
H 1.7655854804 -3.7926346660 0.3663211267
H 0.4669285511 -3.9293048136 -1.7475222605
H -0.6366289308 -3.8970933272 -0.3607562334
H -0.4139533219 -2.4482594389 -1.3459027248