25

C -0.2302797574 1.2534891135 -0.0831077221
O -0.3066396420 -0.0593418861 0.4138225882
C 0.6993382872 -0.5308249507 1.2886153847
C 1.9546454948 0.2698199892 1.5183618301
C 0.8934612955 0.1779420348 2.6029813456
C 0.7267950461 -2.0681704175 1.1800351247
C 1.1060441072 -2.4495098440 -0.2652107786
C 1.7374611738 -2.7172330780 2.1426478163
C -0.6805052177 -2.6086226071 1.5095293004
H 0.6407476103 1.4041166388 -0.7360640032
H -1.1371609119 1.4091905858 -0.6732574610
H -0.2076085677 2.0139154130 0.7118433074
H 2.8896845338 -0.2582125841 1.6622984811
H 2.0700457158 1.2221172782 1.0156060674
H 0.2925733340 1.0635322631 2.7817648093
H 1.1062194725 -0.3963951757 3.4963041916
H 2.1147943154 -2.1000246771 -0.5111868894
H 1.0872042118 -3.5369526763 -0.3938744889
H 0.4087123535 -2.0058029096 -0.9786036138
H 1.5053088161 -2.5125603298 3.1920211255
H 1.7090748107 -3.8040515918 2.0135385453
H 2.7655260615 -2.3976009912 1.9477398294
H -1.4295303726 -2.1850210715 0.8382823728
H -0.7027630666 -3.6992655614 1.4113573615
H -0.9651358942 -2.3568745546 2.5368961159