19

C -0.1749297737 1.3569862222 0.0962086923
N 0.0903380723 -0.0680203693 0.0170667683
C 0.6837472742 -0.5864987193 -0.9803841095
N 1.0034166718 -1.9312899577 -1.0411064149
C 1.3407010828 -2.4309416291 -2.3718656516
C 0.1567145838 -3.0979963299 -3.0831176262
C 1.8230038330 -1.1502508864 -3.0812221659
C 1.1928353725 -0.0019085952 -2.2978202409
O 1.1102887698 1.1419211670 -2.6667418586
H 0.2769874722 1.7458795779 1.0175357125
H 0.1810558552 1.9457672762 -0.7515662157
H -1.2569640629 1.5072989989 0.2023878360
H 0.5805962132 -2.5410872055 -0.3573655260
H 2.1554943801 -3.1591365432 -2.2870670333
H -0.6632231091 -2.3863856808 -3.2290019716
H 0.4604503379 -3.4813065710 -4.0628711875
H -0.2257530035 -3.9394568890 -2.4962230913
H 2.9112057280 -1.0414161486 -3.0083462947
H 1.5557168826 -1.0981231873 -4.1383981214