19

C 0.0262320501 1.4369146595 0.0320579322
C -0.0746006318 -0.0628306260 -0.1203492356
C 0.8368178215 -0.7842634234 -1.1371313873
C 0.3108821056 -2.2067737511 -1.0023873666
C -0.8577488095 -2.1981032503 -0.3279278561
C -0.7542237526 -2.3938170667 1.1970676522
C -0.6855711768 -0.8238416923 1.1778396139
C -1.3766830309 -0.7486900959 -0.1545431129
O -2.5684048228 -0.1963510540 -0.5737415693
H 0.9825692998 1.7308830201 0.4788380892
H -0.0471257571 1.9239425622 -0.9470350937
H -0.7792831500 1.8350647434 0.6549218336
H 0.7674377490 -0.2954135684 -2.1205557216
H 1.9007035570 -0.7883685043 -0.8656472108
H 1.0108551515 -3.0362099174 -0.9359023957
H -1.6594919967 -2.7117376257 1.7290591887
H 0.1057062940 -2.9673970592 1.5536675922
H -0.8641264103 -0.2014713941 2.0515738898
H -3.2931654600 -0.7135830762 -0.2044865123