17

C -0.0134568230 1.4660741690 0.0021759352
N -0.0132087612 0.0123345576 0.0263204445
C -1.3542847893 -0.5381118482 -0.0634090537
C -1.3523052245 -2.0566793072 -0.1244360845
O -2.2364026243 -2.7059612450 -0.6296781987
N -0.2602887172 -2.6631894571 0.4834908032
C 0.7810357861 -2.0350808256 1.1551000404
O 1.6528402098 -2.6665862791 1.7024776250
C 0.7056287618 -0.5172463060 1.1719005718
H 1.0169562907 1.8335580526 0.0006707762
H -0.5028096134 1.8181634913 -0.9107125832
H -0.5372926076 1.9129103088 0.8681420848
H -2.0002920689 -0.2453143103 0.7916316527
H -1.8471697930 -0.1826678463 -0.9711858230
H -0.2404185759 -3.6764091410 0.4674601643
H 1.7331678675 -0.1464590581 1.1758477506
H 0.2512949025 -0.2224291956 2.1418545146