23

C 0.1513506840 0.8917222246 -1.5190185566
C -0.1711156716 0.5424143078 -0.0622247536
C -1.4674064614 -0.2550053460 0.0718681771
C -1.5076641395 -1.6947103808 -0.4663446109
C -0.5920007211 -2.5908760398 0.3461597271
C -1.9111144522 -2.2114561343 0.9224341136
O -2.7821356420 -3.2161738601 1.3074643843
C -1.9175381610 -0.7889802161 1.4942985460
C -1.1026854131 -0.4925043470 2.7485202844
H 1.0767862517 1.4709108764 -1.5958135553
H 0.2730368656 -0.0137078557 -2.1230973946
H -0.6518728819 1.4851753310 -1.9707577760
H 0.6669004649 -0.0171228318 0.3691995203
H -0.2542439422 1.4652998022 0.5265661323
H -2.2804744862 0.3345806003 -0.3668557620
H -1.8596773254 -1.9961551655 -1.4457166985
H -0.5600306578 -3.6185734338 -0.0012465754
H 0.3486163126 -2.2314727701 0.7557383855
H -3.6814081536 -2.8772366451 1.2331164850
H -2.9559593764 -0.4772369724 1.6647204510
H -0.0574572220 -0.7970862163 2.6417638431
H -1.1156025797 0.5755265876 2.9914223092
H -1.5163601719 -1.0331959752 3.6066399541