23

C -0.1057757765 1.5460434169 -0.2641633276
C 0.0344110213 0.0463903810 0.0219769062
C -1.3146084222 -0.6422865903 0.0967000715
O -2.0352134183 -0.6128592760 -1.1597639973
C -2.5014799327 -1.9688296881 -0.9713843797
C -2.4860182422 -2.7769726204 -2.2517724243
C -1.4616179282 -2.1832597145 0.1746630769
C -0.2330700391 -3.0089985431 -0.1774252623
O -1.9979796788 -2.5752341765 1.4237330548
H 0.8738779412 2.0270335676 -0.3407974181
H -0.6408610069 1.7074550225 -1.2041501695
H -0.6661126292 2.0496098069 0.5311472065
H 0.6432811472 -0.4214915141 -0.7595753337
H 0.5557225828 -0.1100062154 0.9753013838
H -1.9215088513 -0.1899275924 0.8964378653
H -3.5110798944 -1.9698435941 -0.5330547219
H -1.4914681997 -2.7976433947 -2.7048103868
H -2.8096515190 -3.8067006333 -2.0633106544
H -3.1775482370 -2.3365967328 -2.9772300825
H 0.2249108388 -2.6852827438 -1.1147653524
H 0.5149104349 -2.9318431626 0.6172686691
H -0.5019105525 -4.0666091459 -0.2919599602
H -1.9888575782 -3.5369893869 1.4712562669