18

C 0.5175159079 1.4475107310 -0.0706149018
N 0.4799212572 -0.0064762859 -0.0825882809
C 0.4059724512 -0.6349708094 1.0027461889
C 0.3554258626 -2.1490677382 1.1422261011
C 0.4979558658 -2.3896550455 2.6352336452
O -0.2039753230 -3.4364227006 3.2254957197
C 1.7357505213 -1.8282632615 3.3122658289
C 0.4526765190 -1.0307515448 3.2553785953
O 0.3580167795 -0.0445609297 2.2521627094
H 1.1823135812 1.7910962189 -0.8692076913
H -0.4813054180 1.8438197532 -0.2922200058
H 0.8488131574 1.8756195626 0.8824462619
H -0.6204985617 -2.5217557218 0.8135316711
H 1.1220067603 -2.6177295555 0.5203446198
H 0.3073137406 -4.2445503735 3.1076679915
H 1.9859116229 -2.2575328058 4.2764243803
H 2.5778994565 -1.5005636530 2.7105724858
H -0.1103264107 -0.7931318705 4.1484794709