16

C -0.0016169979 1.4782737002 0.0500081251
C -0.0585753114 -0.0061174707 -0.0364847243
C -0.0637618095 -0.8433841745 -1.0768300552
C 0.0080507224 -2.2437898984 -0.4652909559
O -0.7250660170 -2.0629322530 0.7703858787
C 0.0199384461 -0.9498034047 1.1738581183
O 1.3992382932 -1.4743488058 1.1959066665
C 1.4195525195 -2.3327359304 0.1269831114
N 2.3828736206 -3.0296184436 -0.2867199328
H 0.9221649423 1.8020615585 0.5459776260
H -0.0350261029 1.9383881219 -0.9405010021
H -0.8346419181 1.8764653030 0.6422649528
H -0.0018471048 -0.6221948106 -2.1324904243
H -0.3334001835 -3.1029363810 -1.0331765131
H -0.2375832346 -0.5973200075 2.1699459637
H 3.2135249255 -2.8810842034 0.2895970554