19

C 0.4175905711 1.5876892610 0.1330402702
C 0.2593089338 0.0912283908 -0.0143644421
C 0.6269663153 -0.7153378131 -1.2437750601
C 1.9447280105 -0.2262453014 -1.8612677172
N 2.5999446864 -0.4326888057 -0.5492641719
C 1.3755449341 -0.9120073648 0.0750784824
C 3.5304745886 0.3526456861 0.1001721986
N 4.3720667337 1.0536845391 -0.7551203179
O 3.6026050963 0.4233040496 1.3124015516
H 1.3354859234 1.9558592038 -0.3312938397
H -0.4238908910 2.1139834215 -0.3304273244
H 0.4554750970 1.8669532465 1.1902198961
H -0.6477713499 -0.3017727286 0.4428625326
H -0.0614403446 -1.3874210107 -1.7371898859
H 2.3387026777 -0.8983921571 -2.6317254752
H 1.9713222156 0.8047746490 -2.2322736203
H 1.3972423295 -1.7475638565 0.7631250901
H 4.5583048034 0.6539043235 -1.6625247129
H 5.1884747790 1.4155365969 -0.2856720840