21

C -0.0196582032 1.5486630767 -0.3182800589
O 1.3321444820 1.9919053294 -0.2423269182
C 2.2073739031 0.8911425466 0.0169408372
C 1.4089034240 -0.3635643615 -0.3598769791
C -0.0320328212 0.0395523782 -0.0007150685
C -0.4138299053 -0.2797302907 1.4507406343
C 0.4542064289 0.2426502526 2.5673216567
C 1.6997568547 0.7222088910 2.5727994710
C 2.6993990030 0.9279109136 1.4651869410
H -0.6304824077 2.1237122653 0.3889949779
H -0.4012072794 1.7434748650 -1.3305855413
H 3.0813119206 1.0173440379 -0.6339947972
H 1.4955442475 -0.5509742054 -1.4346838895
H 1.7476902774 -1.2590234197 0.1680747324
H -0.7521319526 -0.4718014907 -0.6468616066
H -1.4386018673 0.0778945087 1.6237126060
H -0.4800477332 -1.3736638737 1.5606809206
H -0.0337291860 0.1774338193 3.5394771272
H 2.0950907125 1.0013659811 3.5491341736
H 3.5029395078 0.1823945444 1.5765094866
H 3.1862988343 1.8995683321 1.6200031547