22

C -0.0185797007 1.4414085908 -0.0755179396
C -0.0857487532 -0.0791736125 0.0867475215
C 0.8012152740 -0.5743587423 1.2178599298
O 0.6794811713 -1.9995188713 1.2862312582
C 1.3565650604 -2.6048691297 2.2755031092
N 1.3281905956 -3.8567250771 2.4058123931
C 2.0553619284 -4.4531944757 3.5123214594
C 1.1070566219 -5.3946914679 4.2622498590
O 0.5537077420 -6.3581490749 3.3931270446
H 0.9996794745 1.7758004347 -0.3023719869
H -0.6657050543 1.7738933222 -0.8915642237
H -0.3425072021 1.9565485958 0.8354683704
H -1.1149680050 -0.3973539044 0.2862925772
H 0.2217511573 -0.5764336809 -0.8397489106
H 1.8501998486 -0.3003156875 1.0372381681
H 0.4954821975 -0.1281722061 2.1747343034
H 1.9180686969 -1.9236157857 2.9337554369
H 2.8798161683 -5.0504971579 3.1023077168
H 2.4830137787 -3.7089445047 4.2054631204
H 1.6532451553 -5.9330575182 5.0447399338
H 0.3225232372 -4.7940820132 4.7535484172
H 0.2948686977 -5.8670003534 2.6017776816