17

O 0.1184645799 0.0550175517 -0.7369930064
C 0.0335074910 1.1327019868 -0.2280890526
C -1.0889241887 1.9412179877 0.4373511004
N -0.1328617784 3.0727175797 0.6198875887
C 0.2069194836 3.3932533029 2.0138658906
C 1.2142757971 2.3191885366 2.4788455370
C 2.0327635223 2.0430686041 1.2033167735
C 1.0175038470 2.2760885011 0.0605062253
H -1.9458981608 2.1826901873 -0.2008408952
H -1.4628800282 1.4828372041 1.3643224885
H 0.6734291024 4.3857546932 2.0439840905
H -0.6986668393 3.4406199216 2.6251867785
H 1.8329469477 2.6488228525 3.3172437683
H 0.6873929278 1.4127628292 2.7983095065
H 2.8568374006 2.7577108577 1.1105641817
H 2.4615248426 1.0384110594 1.1682291706
H 1.4790844234 2.7095349043 -0.8323802961