20

O 0.3928761396 1.1154109197 -0.5487470369
C 0.1028971987 -0.0698461451 0.1643164485
C -1.3638398980 -0.4721026601 0.1028787120
C -2.2767773188 0.3137900769 1.0068751048
O -2.1383546114 1.7108136908 0.6832934599
C -2.9224391726 2.5732356405 1.3608677516
N -2.7731174389 3.8149830235 1.2009982942
C -1.9031472424 -0.9386716187 -1.2255344800
C -1.7118625491 -1.9284523945 -0.1056191505
H -0.2315324673 1.7873236676 -0.2490217645
H 0.7162114527 -0.8550108780 -0.2908329490
H 0.4123050317 0.0085467794 1.2213957642
H -3.3223968221 0.0063112049 0.8753243948
H -2.0017083832 0.1664160523 2.0606063093
H -3.6560284009 2.0772239029 2.0113151205
H -3.4481554310 4.3257536955 1.7660074638
H -2.9163434198 -0.6604642457 -1.4954297411
H -1.2103938503 -0.9575023569 -2.0589353565
H -0.8922037343 -2.6355908591 -0.1720197152
H -2.5942803528 -2.3235501359 0.3877863602