18

C 0.0486300521 1.4442391962 -0.0882627514
N 0.0005710829 0.0076685035 0.1186434383
C -1.3660056671 -0.5547190049 0.3669764834
C -1.0958287129 -1.4089101291 1.6242347340
C -0.2690408397 -0.3975653117 2.4777548871
O 0.1500856053 -0.9991058236 3.6783111650
C 0.7472228424 -0.5007140527 1.2828340770
C 0.2907643836 -1.9842197981 1.2453646843
O 0.7826551913 -3.0554669568 1.0867305905
H 1.0816104390 1.7522972074 -0.2786837801
H -0.5412254419 1.6966655710 -0.9753761604
H -0.3384189470 2.0442234304 0.7553212898
H -2.1029648701 0.2344919853 0.5666470998
H -1.7169478138 -1.1469814336 -0.4846417096
H -1.9060214904 -2.0037563161 2.0395082305
H -0.7351820668 0.5827528165 2.6318412306
H 0.8921614147 -0.4964272999 4.0296756398
H 1.7868409285 -0.1812133639 1.3360654015