16

C -0.1927136280 1.4853862085 0.0694184795
C 0.0823194879 -0.0344966281 -0.0269352231
C 0.7924246607 -0.3722603369 -1.2604653093
C 1.3789752261 -0.6255804448 -2.2784347294
C 0.8197157536 -0.5301989456 1.1880639069
C 2.0387654412 -1.1084295064 1.3042267722
O 2.2617909171 -1.3701667888 2.6296127527
C 1.1457272956 -0.9278856702 3.2469979647
N 0.2561663293 -0.4220452047 2.4589745230
H 0.7469466452 2.0438390155 0.0589582114
H -0.8030649454 1.8150699380 -0.7748832026
H -0.7201236158 1.7009443286 1.0012046065
H -0.8920177409 -0.5428810980 -0.0418437710
H 1.8869200258 -0.8565358712 -3.1819801417
H 2.8118693443 -1.3906371592 0.6127572503
H 1.1053991632 -1.0398654968 4.3192210801