18

C -0.4137502261 1.3901631626 -0.1953877622
N -0.0269522824 -0.0067582789 0.0227702526
C 1.3221014619 -0.4861063692 -0.3716319481
C 2.3621661245 0.4401022727 -0.8897978514
O 2.6311057999 1.5215463104 -0.4149116660
C 0.8733682393 -0.3788935295 1.0706933778
C 1.4703641642 0.5907314169 2.0823285584
C 2.8417824289 0.2303719026 2.6122952915
O 0.8361100706 1.5347843458 2.4878630050
H 0.3978395090 2.1144610293 -0.0885324375
H -0.8344548322 1.4607403368 -1.2028449423
H -1.1912891983 1.6331632882 0.5310656188
H 1.3141526275 -1.4620793763 -0.8528496747
H 2.8960156317 0.0677084201 -1.7909299528
H 0.6420914725 -1.3385336905 1.5413608175
H 2.9382203263 -0.8476336530 2.7783877849
H 3.5894452359 0.5195905668 1.8660973162
H 3.0344195669 0.7744709951 3.5380693823