21

C -0.7748941128 1.1775791824 -0.0453250131
C 0.1190103504 -0.0536080738 -0.0513234326
C 1.4975814631 0.0359436724 -0.7911907940
C 2.1523553208 -0.6397474273 0.4219192319
C 3.0488396417 -1.8145628947 0.4367321061
N 3.5055756789 -0.4996526337 0.9432832229
C 0.8915673535 -0.4329231243 1.2297084991
C 0.7777477815 0.1623552128 2.5781507338
N 0.4791028295 -1.2699794074 2.3484179060
H -0.2269339504 2.0608097224 0.2994596861
H -1.1586158343 1.3889406844 -1.0493145245
H -1.6402052306 1.0420000564 0.6138664223
H -0.4415832148 -0.9227547939 -0.4158436803
H 1.5757695198 -0.4772813698 -1.7526195799
H 1.8219765375 1.0750784363 -0.9150893900
H 2.9168436052 -2.5721929338 1.2034703714
H 3.4408665774 -2.1743690822 -0.5117984230
H 4.1003000496 -0.0478575712 0.2517400725
H 1.6826022700 0.3492882494 3.1486960533
H -0.0470683721 0.8418282726 2.7781078941
H -0.5285947939 -1.4143023970 2.3234200378