22

C 0.1740040031 1.2850073649 -0.4201035114
C -0.2028415026 -0.1957809240 -0.2943704371
C -1.6357502940 -0.4701834808 0.2031609966
O -1.8473520912 0.1467539231 1.4770544769
C -2.7313570873 -0.0354588764 -0.8287318653
C -3.1734587128 -1.3029455288 -1.5299424063
N -2.0473938383 -2.0933205947 -2.0796835853
C -2.6575938964 -2.4748689574 -0.7839815489
C -1.8740724888 -1.9932083339 0.4175178558
H 1.1957958706 1.3869588956 -0.7976957755
H -0.4817833702 1.8267996052 -1.1100333661
H 0.1453501241 1.7991363119 0.5480179629
H -0.0853739376 -0.6978758780 -1.2591875319
H 0.4890288366 -0.6767558888 0.4076947863
H -1.6700202573 1.0881850486 1.3839240804
H -3.5759661644 0.3855043642 -0.2729595086
H -2.3730996156 0.7257166591 -1.5285363903
H -4.1257674547 -1.3259914700 -2.0504262852
H -2.4005471124 -2.7108897555 -2.8064922621
H -3.2099513166 -3.4073404467 -0.7269221053
H -0.9344025342 -2.5355910038 0.5591693798
H -2.4751204499 -2.1182395739 1.3238205308