21

C 0.4546502789 1.6006188746 -0.0572505822
C 0.2412570902 0.1036463002 -0.0104895636
C 1.4046069764 -0.8291603203 0.2762922542
C 0.2995474751 -0.6399630260 1.2897252603
O 0.5520774998 0.1086108725 2.4378084680
C 1.2064508825 -0.6259133776 3.4547553876
C 1.4382499055 0.2892349675 4.6241034829
C 2.5247646768 0.0429856782 5.5783952759
O 2.6291430974 1.0782940207 4.6025265125
H 1.1492772297 1.9199477632 0.7226929980
H 0.8587352342 1.9064281863 -1.0281306355
H -0.4874003675 2.1372966724 0.0988105636
H -0.4962695057 -0.2709930827 -0.7157647632
H 1.4791894351 -1.7708730908 -0.2567790634
H 2.3553096408 -0.3594045353 0.5078175019
H -0.3960646112 -1.4665998637 1.4462496272
H 0.5835170689 -1.4807942867 3.7702231295
H 2.1687914197 -1.0221265285 3.0986896133
H 0.5525838886 0.8248648270 4.9667240264
H 2.4198167696 0.3733025300 6.6107118792
H 3.1899617950 -0.8074738409 5.4308159577