17

O -0.2583999566 1.5723671828 0.2187178426
C -0.0486793731 0.1901540376 0.3853477931
C -1.2434914533 -0.5976640190 -0.1767014855
N -1.4927980666 -0.1391331309 -1.5436930450
C -2.0988825058 -0.9325719053 -2.3350514364
N -2.5093922534 -2.2112849898 -2.0578379002
C -1.8543007264 -2.9808194493 -1.0105254368
C -1.0741388864 -2.1014461056 -0.0298329636
O -0.3751514332 -2.6134728029 0.8108119918
H -0.5801745835 1.6685590802 -0.6889378706
H 0.8681553021 -0.1516137918 -0.1218243768
H 0.0682393625 -0.0111572714 1.4523724576
H -2.1292229559 -0.3329026094 0.4279156278
H -2.3617148977 -0.5843108387 -3.3347405150
H -2.8938834013 -2.7372959782 -2.8267379936
H -2.5908118700 -3.5523093444 -0.4320133989
H -1.1380693912 -3.7045371140 -1.4215926707