16

O -0.7254591692 0.9426886734 0.7015066141
C 0.1943877396 0.8583834943 -0.0729343157
C 1.3852142837 1.7689885027 -0.0682241170
C 1.5559987624 2.8031326532 1.0754492055
C 1.7182770541 3.9495819253 0.0355296380
C 1.5322512432 2.9372900115 -1.1347142536
C 2.8462538694 2.2364071595 -1.5301417369
O 3.7618729364 2.4754384261 -2.2653912542
N 2.6092182672 1.2015998488 -0.6357131185
H 0.2153506595 0.0967067752 -0.8839515730
H 0.6466114952 2.8803681362 1.6731390969
H 2.4051203857 2.6152356609 1.7351487783
H 0.9172745381 4.6886191720 0.0820853113
H 2.6748712180 4.4753289809 0.0282947801
H 0.8018894210 3.1459772921 -1.9140576755
H 3.2822137856 0.5818993079 -0.2021185198