19

C 0.0274947555 1.6115479090 0.0053332844
C 0.0368937249 0.0836239918 0.0732486102
C 0.5911835696 -0.5714788662 -1.2084218478
C 1.9853218640 -0.1780556405 -1.4539748662
N 3.0798617051 0.1520098160 -1.6223384015
C 0.4874711765 -2.0957877192 -1.2038927958
N 0.1001860406 -2.7275486196 -0.1803437143
O 0.8519682018 -2.5680992780 -2.4194420943
C 0.8740148083 -3.9786868056 -2.6009492669
H 1.0364205641 2.0141586442 -0.1266065818
H -0.5888397346 1.9719536283 -0.8260457635
H -0.3827031035 2.0303343911 0.9284695932
H 0.6258889484 -0.2645727663 0.9256833668
H -0.9742320932 -0.3043436332 0.2219890102
H 0.0126112472 -0.2217223295 -2.0745443118
H 0.0665491927 -3.7359763419 -0.3188640791
H -0.1263692915 -4.4110405933 -2.4798411839
H 1.2194827037 -4.1449414138 -3.6212118345
H 1.5660604403 -4.4562604732 -1.8980367634