18

C 0.4380746040 -0.9535421455 -1.2059399527
N -0.2654097825 -0.5869117446 0.0158541044
C 0.5077882538 -0.7419326649 1.2391989533
C 1.8151902990 -0.0576471054 1.2592807804
C 2.8672052948 0.5244678951 1.2377410201
C -0.3321017696 -0.1879113434 2.3993686358
O -1.1152926041 0.7190315252 2.2919044886
O -0.0562459075 -0.8312659556 3.5406551646
C -0.7414700330 -0.3408608033 4.7034906514
H 0.6759943339 -2.0234347420 -1.1839504169
H -0.2247248795 -0.7791471591 -2.0577248196
H 1.3771266907 -0.4029993992 -1.3726222596
H -0.6076738980 0.3675786595 -0.0231304125
H 0.6744510478 -1.8102981950 1.4229877719
H 3.8001702242 1.0321648831 1.2254591067
H -0.4849280261 0.7056451117 4.8849020769
H -1.8229946439 -0.4232705322 4.5728533719
H -0.4054689840 -0.9669535145 5.5294876151