23

C -0.0657607475 1.4218413216 0.0585752009
C 1.3225648541 0.8182832748 0.0214081232
C 2.0647973331 0.5782381369 1.3276720031
C 1.0524804149 -0.1676077956 2.2352192246
C 0.0780718195 -0.8813410602 1.2753241365
C 0.4899832765 -2.2738077996 0.7600611275
C -0.2610421909 -2.4088571787 -0.5816668597
C -0.2981120939 -0.9730318898 -1.1849138582
C 0.0941799215 -0.0685052066 -0.0217210091
H -0.4341591355 1.8673600077 0.9789859051
H -0.3935033183 1.9393868309 -0.8379607715
H 1.9059163826 0.9809178194 -0.8798826556
H 2.9418078902 -0.0495158936 1.1295646501
H 2.4351729648 1.4966274660 1.7969912518
H 1.5433808440 -0.8593563378 2.9266649271
H 0.5030235955 0.5503220447 2.8526446988
H -0.9278333904 -0.9443246855 1.7112477762
H 1.5740552880 -2.2953494597 0.5897138911
H 0.2553669666 -3.0803193925 1.4615322569
H 0.2015947048 -3.1373414691 -1.2532668299
H -1.2831685979 -2.7564525898 -0.3944073680
H 0.3986389339 -0.8675369214 -2.0235177349
H -1.2946339055 -0.7359462119 -1.5726781160