21

C -0.0577301739 1.5858456296 -0.0779472686
C -0.0918251337 0.0576178822 -0.1756071072
C -1.4540137175 -0.5248846430 0.2174324907
C -1.5589881688 -2.0491654058 0.0574279543
C -0.6543188047 -2.8352831851 1.0362934058
C -2.9857985000 -2.5195783524 0.2541537919
O -3.8487716616 -1.9092998390 0.8434448591
C -3.3794547660 -3.8837589440 -0.3406936758
O -2.6512527346 -4.5623984100 -1.0159441077
H 0.9230811134 1.9808144494 -0.3599710743
H -0.8039097696 2.0416418376 -0.7379181262
H -0.2717950602 1.9214668985 0.9427403225
H 0.1527582807 -0.2491504507 -1.2015112056
H 0.6961267721 -0.3597538328 0.4626490775
H -1.6918598372 -0.2570824742 1.2539835330
H -2.2340766413 -0.0540576561 -0.3937770007
H -1.2682920159 -2.3453398464 -0.9590836657
H 0.3948258854 -2.5804977197 0.8700814765
H -0.9052074254 -2.5926467152 2.0742078160
H -0.7600826473 -3.9135841102 0.8940380673
H -4.4260965739 -4.1645279127 -0.0951373328