16

C 0.1359909183 -1.1902157398 0.8057210258
C -0.0005866014 -0.0805619538 0.3654263723
C -0.1927309264 1.2675243152 -0.1737872636
N 1.0921488013 1.9845486329 -0.2421742363
C 1.6048539590 2.8111622348 -1.2892127620
C 0.5811510005 3.8898017809 -1.8283048605
O -0.6772280761 3.7052679340 -1.1698535384
C 0.3689657491 4.3985453988 -0.4799332037
C 1.3848540320 3.3386383481 0.1088252320
H 0.2609916999 -2.1699094956 1.1952046966
H -0.6461548330 1.2062090018 -1.1673966234
H -0.9012893295 1.8176810474 0.4522168703
H 2.5238225904 2.5462783845 -1.8010330202
H 0.5883080783 4.3856287618 -2.7909064522
H 0.1666792011 5.3965156476 -0.1116508607
H 2.0998589767 3.5628010913 0.8931357439