18

C -0.0147235683 1.4851104590 0.0175258569
C 0.0505796483 -0.0286482477 -0.0108705111
C 0.9621101558 -0.6998198195 -1.0054600102
C 1.2028723710 -1.9530909807 -0.5958798763
C 0.4589176548 -2.1634169512 0.6856838345
C 0.3109934656 -0.7782308306 1.3461112479
C -1.2169630196 -1.0573164997 1.4962846484
C -1.3449629771 -0.7494152135 0.0596424477
N -1.0901427247 -2.1519276175 0.4928172646
H 0.9761792665 1.9196626778 0.1870421896
H -0.3962725687 1.8833228983 -0.9295591397
H -0.6801031246 1.8331957618 0.8148294087
H 1.2766619392 -0.2515538919 -1.9413706908
H 1.7434667827 -2.7212964627 -1.1346192726
H 0.7225234410 -3.0170206818 1.3080961213
H 1.0180776312 -0.3788730380 2.0733177163
H -1.9097306130 -1.0733231676 2.3261647712
H -2.2159127200 -0.5673583947 -0.5574971564