15

C -0.0477178785 1.4755184456 0.0278452648
C -0.0026968328 -0.0208216087 -0.0014351620
N -0.0223261658 -0.5734288079 -1.1622642623
O 0.0196971264 -1.9812338636 -1.2034045327
C 0.0911432456 -2.7098729617 -0.0775353126
N 0.1857282198 -4.0390878556 -0.3731189154
C 0.1071775034 -2.1642764211 1.1720031872
C 0.0591302451 -0.7430907058 1.3127042302
O 0.0633844770 -0.1080932920 2.3604969433
H 0.8350798993 1.8587775471 0.5483929439
H -0.0945446521 1.8824017501 -0.9827608211
H -0.9143730329 1.8049535783 0.6087250753
H -0.1043751773 -4.3113976774 -1.2997559061
H -0.0370747029 -4.6882830135 0.3636053883
H 0.1631453757 -2.7953715339 2.0497392992