18

N -0.0886556796 1.3373835286 -0.3796579498
C 0.0586485365 0.0795530184 0.1356387201
O 1.1435878143 -0.3342078768 0.5055132954
C -1.2351183671 -0.7118810789 0.1789675838
C -1.1145491053 -2.2737169041 0.2403346442
C -0.8563763531 -2.1193146390 1.7732526324
C -1.8846399244 -0.9868283918 1.5826906764
O -3.0917501563 -1.6709944302 1.2237188853
C -2.6027163110 -2.6381178575 0.2579814614
H 0.7127557603 1.9469212854 -0.3689973197
H -0.9859586297 1.7223614063 -0.6156347177
H -1.9496815480 -0.3185094138 -0.5506732348
H -0.4481096329 -2.8270050357 -0.4184862888
H -1.1547402689 -2.9408971946 2.4288910829
H 0.1512197290 -1.7688242349 1.9798333782
H -2.1032508449 -0.2080169517 2.3117747905
H -3.1105226746 -2.4924851369 -0.7023273145
H -2.7947425143 -3.6565596030 0.6145093148