16

N -0.1796423974 1.4638597086 0.1352188921
C 0.3228719523 0.1308462868 -0.1828589953
C 0.9353229172 -0.4751525211 1.0667656580
N -0.0363552905 -0.9789844310 2.0554774867
C 0.8362433151 -1.9534466421 1.3722393516
C 0.2354903579 -2.8874532289 0.4612406395
C -0.2305034677 -3.6982688890 -0.2935641910
C 2.1198537354 0.1854142531 1.5738049980
N 3.0720321482 0.6885028211 1.9953063717
H -0.4754948427 1.9387796321 -0.7106181175
H -0.9976851104 1.3809172522 0.7314717929
H -0.4319244213 -0.5759696830 -0.5550643469
H 1.0994288745 0.2206494790 -0.9500449930
H 0.2977332685 -0.8211986330 3.0034648107
H 1.6695961638 -2.3546621761 1.9443353043
H -0.6503614029 -4.4106834686 -0.9604109518