17

C -0.2410149528 1.4200954641 -0.0538387439
N 0.0432733839 -0.0047250095 0.0460164656
C 1.3931914687 -0.4676588902 -0.1913466255
C 0.8103130505 -0.5202690291 1.1987517527
C 1.3663336610 0.3877552028 2.2872351436
C 0.3207009042 -1.7846143403 1.6876812979
C -0.0698391746 -2.8410933699 2.1277238568
C -0.5137933903 -4.0356667927 2.6147730001
N -0.8897743680 -5.0529230773 3.0324570458
H 0.6041035943 2.0779348593 0.1965619931
H -0.5380183401 1.6317552601 -1.0853812769
H -1.0832240215 1.6678628583 0.5985161717
H 1.4967654555 -1.3752555705 -0.7791034740
H 2.1787203962 0.2735563918 -0.3411451013
H 1.8100346972 1.2925152977 1.8688168094
H 0.5809628033 0.6769283933 2.9921103562
H 2.1430239723 -0.1393388678 2.8481810288