16

O -0.3582721985 1.1831096949 0.9966523013
N -0.1350269925 -0.1421562159 0.6080064399
C -1.0456585207 -0.5813307617 -0.1845272935
C -0.8605335927 -1.9999046382 -0.6843194715
C -2.1725607512 -2.7069352943 -0.9403091867
O -3.1866516959 -2.5870982615 0.0464831957
C -3.3774604872 -1.9020427670 -1.2161549038
C -3.2644151049 -0.4246847597 -1.1895907589
C -2.1870898089 0.1862730012 -0.6759742608
H 0.4029366401 1.3590956207 1.5592238224
H -0.3100326136 -1.9777001817 -1.6358714698
H -0.2431141193 -2.5584276993 0.0244166899
H -2.0909846384 -3.6956025080 -1.3938739684
H -4.1731074943 -2.3267479890 -1.8240658590
H -4.0979020482 0.1541401490 -1.5753771982
H -2.1339991438 1.2647592306 -0.5961007384