21

C -0.1671993641 1.5280299719 0.0300071695
C -0.0001718591 0.0154460471 -0.0078221350
C 1.1257741585 -0.5880914763 -0.9039161673
C 2.1253274616 -0.2793048336 0.2535238792
C 0.8927797132 -0.6188033629 1.1228536594
O 0.8257065235 -0.2259486250 2.4539993395
C 0.7261355484 -2.1198741673 0.8446763973
O -0.5501723216 -2.5132876010 1.3359835798
C 0.8889704798 -2.1024661097 -0.7098725129
H 0.7819598483 2.0673245571 0.0875472425
H -0.6934905796 1.8801602329 -0.8637762527
H -0.7598901595 1.8204269680 0.9031721220
H -0.9799398653 -0.4581024012 -0.1250271296
H 1.3020496285 -0.2303783252 -1.9179292720
H 3.0107914496 -0.9153606688 0.3526996213
H 2.4158796797 0.7682167805 0.3184560911
H 0.1107972311 -0.7382724831 2.8528222604
H 1.5139501922 -2.6989575838 1.3452840177
H -0.6210697639 -3.4703378470 1.2788075819
H -0.0234941904 -2.4545487825 -1.2008201843
H 1.7295106590 -2.7133042700 -1.0528279078