17

O 0.0508351739 1.3812913337 0.0021678486
C 0.0202818630 -0.0277315436 -0.0648313061
C 0.7646460600 -0.7163606208 1.1138358770
C 0.0352487348 -2.0686104897 1.3441078874
C 0.1206559884 -2.5596084869 2.7186249114
N 0.1847188168 -2.9547286711 3.8028288515
C -1.3944221061 -1.7986771354 0.8688206081
N -1.9330590703 -0.5176600694 1.3591248258
C -1.3829183109 -0.6134013263 -0.0131374468
H -0.4709751914 1.6270330114 0.7766533775
H 0.4881514050 -0.2873156074 -1.0208337777
H 1.8293243982 -0.8501656328 0.9174169088
H 0.6636868372 -0.0905130261 2.0022205238
H 0.4626286617 -2.8398004390 0.6912521653
H -2.0672889066 -2.6354042922 0.7176589137
H -2.9484270008 -0.5473785405 1.3296521815
H -2.0476934329 -0.5139326840 -0.8643083499