18

C -0.2723121994 1.6225906697 -0.1091412035
C 0.0064157323 0.1326880690 0.0056662122
C 1.1733902452 -0.5875735660 -0.7184078468
C 2.4527950844 0.1349741303 -0.2527527166
C 2.1277247197 0.1376392617 1.2793731402
O 2.0289187220 1.4079038641 1.8984932430
C 0.7472136231 -0.5475297378 1.1886947819
O 1.0681987097 -1.6513149126 0.2872595217
H 0.6021231355 2.2318245563 0.1184882317
H -0.6216281565 1.8648209343 -1.1193506294
H -1.0637753047 1.9150665046 0.5891034086
H -0.9005783503 -0.4494470019 -0.1796779621
H 1.1090607724 -0.9373929839 -1.7492945985
H 3.3468391871 -0.4418283076 -0.4989800284
H 2.5586066588 1.1479292581 -0.6510895342
H 2.8175864224 -0.5102700518 1.8336010206
H 2.9169824291 1.7623602119 2.0006717045
H 0.2597501592 -0.8431175084 2.1176123951