20

C 0.1071262105 1.5440689466 -0.0608754347
C -0.0124694094 0.0209472206 0.0154806128
C -1.4734053749 -0.5182448855 0.0144683475
C -1.4562063043 -2.0705072622 0.0191744378
C -2.1584434767 -0.0509550195 1.2210923130
C -2.6617800675 0.2966628536 2.2549414028
C -2.2711916969 -0.0482839224 -1.2366224602
N -1.6463908011 -0.2673815003 -2.4332038983
O -3.3828824562 0.4289718959 -1.1724686990
H 1.1560735963 1.8505952129 -0.0090275619
H -0.3102971803 1.9331703710 -0.9948693517
H -0.4273366528 2.0155339687 0.7682412477
H 0.5412476077 -0.4443411627 -0.8107089676
H 0.4640407211 -0.3431194968 0.9322395047
H -0.9381787389 -2.4339345302 0.9106650542
H -2.4748470417 -2.4654934711 0.0287122198
H -0.9422017351 -2.4571406235 -0.8655431216
H -3.1356952108 0.6161346950 3.1499030773
H -0.6895592272 -0.5616066574 -2.5068000472
H -2.1175600717 0.0505263874 -3.2641665655