17

C 0.0303626390 1.4848050540 0.0572833930
C -0.0168563783 -0.0068927198 -0.0204505054
C -0.0856666645 -0.7930046521 -1.0979932105
C -0.1159956183 -2.2522867589 -0.7141496420
N -0.0379189139 -2.2792706515 0.7697026322
C 1.2283997235 -1.7772141091 1.3501089490
C 2.4083628733 -1.5892249135 0.5468114194
N 3.3743673885 -1.4829640523 -0.0811896264
C 0.0316107281 -0.8743882184 1.1976186378
H 0.9731950355 1.8279748529 0.5001691911
H -0.0651132214 1.9378222204 -0.9321622111
H -0.7766524478 1.8736724322 0.6904212629
H -0.0885167777 -0.4536465487 -2.1270747253
H -1.0489992280 -2.7460067691 -1.0127608946
H 0.7079739630 -2.8285307233 -1.1516647931
H 1.4382517394 -2.2019486291 2.3284777036
H -0.5066962203 -0.5883322038 2.0987632993