21

C -0.0189898499 1.3911314253 -0.0993793410
O -0.0876195808 -0.0122240518 0.0074771438
C 0.7402512215 -0.5339016338 1.0217345031
C 0.6581407407 -2.0505526855 1.0130983844
C -0.5803828652 -2.6976358465 0.5019665163
N 0.6603543929 -2.7208046510 -0.2990270944
C 1.4452044942 -2.7812172621 2.0677258480
C 2.4281606023 -2.1262689656 2.9694096106
N 1.1462575728 -2.6223796367 3.5032155992
H 1.0027073725 1.7318915902 -0.3269904295
H -0.6826157215 1.6879355024 -0.9145737936
H -0.3489921175 1.8850921599 0.8273025613
H 1.7847089398 -0.2222445822 0.8513961681
H 0.4391958566 -0.1325825877 2.0058113696
H -0.8817565639 -3.6598839124 0.9065185412
H -1.3878037641 -2.0526226447 0.1735157319
H 0.5818837199 -2.0054716965 -1.0195584356
H 1.6305455480 -3.8133312283 1.7811582402
H 3.3050807923 -2.6759343722 3.3001270733
H 2.5818069474 -1.0534982541 2.8939009155
H 0.5054838821 -1.8431523966 3.6381713874