16

O 0.0692862100 1.4319000085 0.1899123805
C 0.0679401477 0.0176590345 0.1797168379
C -1.3354562263 -0.5575781427 -0.0958327849
C -1.3432775985 -2.0487823581 -0.0949683162
N -0.6985565529 -2.8395617443 -0.9451099646
C -1.0085583036 -4.0840039360 -0.4917876543
O -0.5528088034 -5.1972897332 -1.0804192997
N -1.7919744066 -4.1397218278 0.5691161959
N -1.9901630179 -2.8090757143 0.8069222391
H -0.0544157451 1.7376771085 -0.7142964474
H 0.7771273033 -0.3949151758 -0.5502055074
H 0.4034314028 -0.2935177529 1.1742669955
H -2.0344385288 -0.1716406796 0.6532256077
H -1.6790084996 -0.2017990117 -1.0748658123
H -0.0116689380 -4.9112848711 -1.8258547256
H -2.5730551130 -2.5244605740 1.5764158758