15

N -0.1616494182 1.5112610276 0.1558627732
C 0.0673361303 0.1596832155 -0.0026777697
N -0.8890785520 -0.7322687453 0.0032295156
H -1.8637381508 -0.4157542594 0.0223994983
C -0.8770907031 -2.1038260736 -0.0047703911
C -2.1453923297 -2.7467955912 -0.0251601532
O -3.2740484200 -2.2787246979 -0.0361732350
O -1.8744616575 -4.1177299586 -0.0263323465
C -0.5089654835 -4.2788345467 -0.0064925105
C 0.1512721411 -3.0959195450 0.0084004853
H 0.5039051889 2.1102363461 -0.3122919151
H -1.1132440314 1.8233840637 0.0125494523
H 1.0941194860 -0.1771205728 -0.0352990860
H -0.1611535100 -5.2985299497 -0.0060062695
H 1.2221850299 -2.9655662629 0.0272711618