18

C -0.2004693209 1.4374857732 0.0517978289
C 0.0447554621 -0.0633093410 0.0169146509
C 0.8765202105 -0.6422047965 -1.1691354431
C 1.9017096921 -1.1816427091 -0.1334572997
N 1.0960684907 -0.5533681891 0.9255431180
C 1.0949677620 -0.5669427615 2.2704317397
O 0.2201405795 -0.0714973511 2.9690354759
C 2.2859610462 -1.2437833456 2.9489186934
O 3.2003921373 -1.7821284126 2.3802494546
H 0.7290116726 1.9894791644 -0.1217471515
H -0.9182473606 1.7158437351 -0.7269844654
H -0.6047298206 1.7315335665 1.0229926853
H -0.8979014829 -0.5969055720 0.1891843570
H 0.3721647409 -1.4047332955 -1.7629388064
H 1.2761585974 0.1242406490 -1.8353819864
H 1.9584705459 -2.2701442656 -0.0496716345
H 2.9186238411 -0.7894517190 -0.2083337439
H 2.2039450668 -1.1839525496 4.0537655473