21

C 0.9481563928 -0.3849527724 -0.5081748917
N -0.3737432893 -0.1010609436 -1.0431267256
C -0.4967149398 -0.4922528277 -2.4416999396
C -1.4834418386 -0.5262796409 -0.1948473173
C -2.7176445620 0.2896947346 -0.5970665301
O -3.8442233296 -0.1272508273 -0.6307069226
C -1.7738200915 -2.0172320343 -0.1127013239
C -1.0996197727 -2.8487572954 0.9195947827
N -2.5380629036 -2.5635353333 1.0155598012
H 1.6995826544 0.1329054950 -1.1138427444
H 1.0238755732 -0.0069458751 0.5163388650
H 1.2061779623 -1.4580561378 -0.4990724738
H -0.3172740695 -1.5664988459 -2.6220580171
H -1.4965487698 -0.2509082505 -2.8165534750
H 0.2289079546 0.0699475073 -3.0385883027
H -1.2460561810 -0.1731985714 0.8237863202
H -2.4651982484 1.3433676589 -0.8536061206
H -2.0347224495 -2.4806769087 -1.0607445301
H -0.8520532280 -3.8856170550 0.7102536244
H -0.4175464038 -2.3546657267 1.6079660547
H -2.7162751002 -1.8371142299 1.7053854267