18

C -0.0108482610 1.3792753282 -0.0941548590
N 0.0047408969 -0.0653425658 -0.1735085090
C -1.2086477380 -0.8503987752 0.0171093353
C -0.7295764277 -2.2976151821 0.0095051462
C 0.0310383700 -2.7230432699 -1.2075201241
O -0.0148570721 -2.0423492317 -2.4202383172
C 0.8001708310 -2.2454957336 0.0132566687
C 1.1710766485 -0.7908380352 0.0209077916
O 2.2773106077 -0.3115568677 0.1462920110
H 1.0225326171 1.7248835916 -0.1533448080
H -0.5914933247 1.8131936424 -0.9153255839
H -0.4463606347 1.7219009720 0.8544081105
H -1.6918127693 -0.5946961523 0.9711307676
H -1.9313135870 -0.6535279955 -0.7858183476
H -1.2853083832 -3.0229749841 0.5911687137
H 0.0871916195 -3.7904299564 -1.3932117589
H 0.1249308608 -1.1024173776 -2.2505334446
H 1.4434100564 -2.9236174470 0.5579098879