21

C -0.2363695211 1.5484369438 -0.1847534170
C -0.0264970030 0.0512197145 -0.0027003329
C 1.2257402385 -0.5752839538 -0.6556920279
O 1.7187282044 -1.0476193363 0.6135448080
C 0.5836064816 -0.4896914032 1.3231777855
C 1.0215303643 0.4803664203 2.4135245038
C 1.7932681061 -0.2373148981 3.4960043966
C 1.7277547506 0.1655854250 4.9047494478
O 1.0134886652 -0.9813098150 4.4407808283
H 0.6730114192 2.1189397239 0.0286830207
H -0.5263422003 1.7686576083 -1.2178585845
H -1.0317686289 1.9254156831 0.4668497973
H -0.9451398096 -0.4799550032 -0.2654685366
H 1.0437428514 -1.3984459674 -1.3575183409
H 1.9160617545 0.1401335116 -1.1232815552
H -0.0115735649 -1.2904460932 1.7818100729
H 1.6535541064 1.2653853293 1.9821941106
H 0.1398353604 0.9584309816 2.8567178282
H 2.6853132307 -0.7604847768 3.1516554977
H 2.5650031351 -0.0408413122 5.5702549648
H 1.1102047792 1.0170271380 5.1902835627