15

F 0.3267788016 0.0888901412 0.2044892959
C -0.0076057248 1.3702815598 0.0388146117
F 1.1123445466 2.0547171104 -0.2621411895
F -0.8157059107 1.4508737611 -1.0315043799
C -0.6548208501 1.9436548376 1.2603189116
C -0.8012943573 3.4399246613 1.5768017875
C -0.5943332726 3.0965664214 3.0917407769
C -0.4463680022 1.6146822774 2.7101360960
N -1.6116870807 1.1272300954 1.9820047718
H 0.0162037179 4.0395323477 1.1740499270
H -1.7536757391 3.8903718749 1.2823814211
H 0.3224385405 3.5337171730 3.4922012250
H -1.4194999567 3.3228214172 3.7739291485
H 0.2073480798 0.8800154593 3.1646619505
H -2.4687805623 1.6318450623 2.2014278059