22

C -0.2615358876 1.3852546270 0.4451865221
C -0.3710666495 -0.1265802158 0.2289512288
C -1.6342650082 -0.5659528229 -0.5552979614
C -1.6530119908 -0.0563438032 -2.0000404036
C -1.6910317913 -2.0909425685 -0.5315524270
O -1.1812750064 -2.7934630941 -1.3766906201
N -2.2732994759 -2.6255868565 0.6255754096
C -3.7022504277 -2.6104197311 0.8984024342
C -2.9727288757 -3.8877893849 0.6068706994
H 0.6142632460 1.6231607083 1.0570460337
H -0.1590273544 1.9299112084 -0.4979098891
H -1.1445366561 1.7766775595 0.9631501471
H 0.5132653410 -0.4950028595 -0.3053274114
H -0.3790720055 -0.6302695688 1.2018597529
H -2.5082291510 -0.1825448866 -0.0132452623
H -2.5651983288 -0.3699285306 -2.5168525678
H -1.6081771772 1.0350676884 -2.0340284627
H -0.8045602190 -0.4632276393 -2.5558773642
H -3.9931212652 -2.3621990680 1.9155936135
H -4.3626236977 -2.2244900750 0.1250655514
H -3.1182469994 -4.3503043305 -0.3655130097
H -2.7410533798 -4.5718846363 1.4180081964