21

C 0.4151668869 1.7638180984 -0.6891078011
C 0.4214654491 0.2748501725 -0.4210319235
O -0.7488778230 -0.3558410205 -0.9024641418
C 1.6315618519 -0.6176602986 -0.4945133866
C 2.8736171821 0.0264664139 0.1376536471
C 2.1172198595 0.1002098054 1.5075700647
C 2.0807316300 1.3843543402 2.3171416314
O 3.3949367544 1.6030566298 2.8166649872
C 0.8529437109 -0.4394501123 0.8315775630
H 1.3441920338 2.2532960527 -0.3943253922
H 0.2810269238 1.9444369323 -1.7636787290
H -0.4158211289 2.2461920709 -0.1646426923
H -0.7277944081 -0.3103358680 -1.8648608589
H 1.6328691016 -1.4783476988 -1.1533591042
H 3.7383317283 -0.6380192851 0.1745350437
H 3.1984289455 0.9784316489 -0.2940088262
H 2.5217144135 -0.6758519270 2.1652737179
H 1.7469860323 2.2339853341 1.7056553229
H 1.3532725892 1.2700008434 3.1383515151
H 3.3977333559 2.4310928586 3.3053505020
H 0.1493134714 -1.1251085509 1.2891095510