19

O -0.0271224609 1.4492828525 0.0324597861
C -0.0377080219 0.0664202900 0.0337081879
C -0.3367623014 -0.7528906039 -1.1852893741
C -1.2698215782 -0.8299732335 0.0094981625
C -0.6498714979 -1.7221134292 1.0772946275
C -1.4209319908 -2.0736021738 2.3658819072
C -1.1781654423 -3.5354072412 1.9466076131
O -0.4595262283 -3.1202126885 0.7674939500
C 0.6134815631 -0.8040324590 1.1163057189
H 0.7345006153 1.7448837398 -0.4782295990
H -0.7410743620 -0.1858800076 -2.0178739393
H 0.2697220248 -1.6115141840 -1.4613042086
H -2.3194381305 -0.5727795474 -0.0725878454
H -0.9369764107 -1.7615713980 3.2931483875
H -2.4645488971 -1.7530614238 2.3798649708
H -0.5502660369 -4.1301237172 2.6209446701
H -2.0752284278 -4.1142923530 1.6959415422
H 1.5633626830 -1.2876291965 0.8665023362
H 0.7050025807 -0.2800657959 2.0714540162