19

O 0.3866682395 0.8716363464 0.5739134253
C 0.1564923585 -0.4097596020 0.0382637919
C -1.3163589657 -0.8186862630 -0.1038730467
C -2.2617544108 -1.2600017377 0.9682102842
C -2.4567482804 0.0744456494 0.2829575480
C -1.0565457504 -1.3997372394 -1.5050788273
C 0.2642706435 -0.6187344547 -1.4801932097
C 0.7971728242 0.3245593419 -2.4571823065
O 1.4498402306 -0.9296869595 -2.1837782771
H 1.2850247216 0.9041080845 0.9145432134
H 0.7371663572 -1.1764285669 0.5721308525
H -2.9560008036 -2.0616576447 0.7372000526
H -1.9054218196 -1.2586067627 1.9938477317
H -2.2123604834 0.9728121128 0.8386783371
H -3.2835528372 0.1777586225 -0.4126564517
H -0.8950790909 -2.4827846250 -1.5012880475
H -1.7687918085 -1.1460688723 -2.2941363548
H 0.3359959266 0.4041381128 -3.4405758923
H 1.3245639787 1.2113768177 -2.1104080031