20

C -0.6038411119 1.3550054078 -0.1576543390
N -0.0218240486 0.0316248410 -0.0683735287
C 1.1468976642 -0.3572174875 -0.8996915089
C 1.8220605711 -0.9374683762 0.3546312954
O 2.4009696998 -2.1912115507 0.3977282367
C 2.0361033016 0.1154176380 1.4101139188
C 2.5902328097 1.5022963241 1.1740773418
O 4.0092950916 1.4881080914 1.0335842331
C 0.6299028896 -0.4319036851 1.1454108274
H 0.0980244623 2.1895779572 0.0107257746
H -1.0524354458 1.4874080725 -1.1480616651
H -1.4064802691 1.4415316101 0.5825000224
H 0.8906086659 -1.1254939513 -1.6369260126
H 1.6709871733 0.4653015214 -1.4046688227
H 3.3502985449 -2.0832581692 0.2733156777
H 2.4276870732 -0.3478400592 2.3185928916
H 2.2155030980 1.9267911409 0.2406722550
H 2.2791102591 2.1806081903 1.9837241307
H 4.3824994892 1.2057082361 1.8747489657
H 0.0561530018 -0.9018320515 1.9379764262