17

C -0.0059479260 1.5091975241 0.0272057082
C 1.2987250960 0.7186019579 0.0309597850
C -0.0193301598 0.0188810805 -0.0402915773
O -0.4559161135 -0.7328828810 1.0822759634
C -1.0644381440 -1.9024508807 0.4744361074
O -0.2634878229 -2.1379623473 -0.6611194600
C -0.4954908274 -0.8336026124 -1.2340925903
C -2.0197248356 -0.7473453823 -1.2173220473
C -2.3860055471 -1.4348928089 -0.1350093975
H -0.3181053422 1.9618572371 0.9615591016
H -0.2639726330 2.0796154880 -0.8596344498
H 1.9247266517 0.7458921131 -0.8552255200
H 1.8385217114 0.6502706017 0.9685571057
H -1.0435575135 -2.7291152459 1.1805510025
H 0.0376210471 -0.7036211432 -2.1731860463
H -2.6204962563 -0.1364688219 -1.8758582976
H -3.3609721647 -1.5368640788 0.3194348424