17

C -0.1413336086 1.4711772539 0.0810790983
C -0.0260351071 -0.0334951241 -0.0854670404
C 0.8701858569 -0.4582397927 -1.2380758583
N 0.9627587417 -1.9040522274 -1.2301505034
C 1.2498818812 -2.5656886788 -0.0598187819
N 1.6692069686 -3.7678832512 -0.0459238134
C 1.0192820707 -1.7876194480 1.2361501375
O 1.3206060198 -2.2542319392 2.3004899440
O 0.4966109762 -0.5468626960 1.1644189966
H 0.8452404008 1.9227849423 0.2195216228
H -0.6114136543 1.9149339498 -0.8014402673
H -0.7524946142 1.7063448350 0.9552800041
H -1.0180371996 -0.4794535668 -0.2312676849
H 0.4209399692 -0.1336110327 -2.1810724741
H 1.8506914642 0.0368252959 -1.1447934407
H 1.3012992690 -2.3707417217 -2.0596013648
H 1.7798208956 -4.0590475483 0.9262413958