21

C 0.0395633797 1.6450157068 -0.0759222892
C -0.0784876000 0.1183695480 -0.0282207456
C 0.6634967889 -0.5629758741 -1.1678346791
O 2.0677368125 -0.2735612008 -1.0460608225
C 2.7593004631 -1.1446102411 -1.9145406418
C 1.9009041832 -2.4103851561 -2.0061581184
O 2.2047516055 -3.4410501457 -2.5454392850
C 0.5948800647 -2.1013104796 -1.2622038212
C 0.5955008218 -2.8487236180 0.0826875108
H 1.0875129923 1.9514090057 -0.0301224191
H -0.3875745427 2.0459316903 -1.0018340148
H -0.4905051897 2.1051991356 0.7630005255
H 0.3114519044 -0.2547281759 0.9245445380
H -1.1331271069 -0.1796821235 -0.0803432596
H 0.3022802811 -0.1443256694 -2.1249135460
H 2.8775258586 -0.7200207996 -2.9264757375
H 3.7555137582 -1.3560485494 -1.5154272586
H -0.2510091612 -2.4387899355 -1.8680175986
H 1.4189961636 -2.5151457327 0.7215705901
H -0.3412568307 -2.6895854636 0.6233963183
H 0.7141253534 -3.9211835512 -0.0936639955