20

N -0.0348506998 1.3160167776 0.2286839548
C 0.0121875080 0.0726282655 -0.0162065214
C -1.2806648293 -0.7202362461 -0.0814269533
C -1.4469583269 -1.7236892076 -1.2404801701
C -0.6423960236 -2.9887162189 -1.0089505713
C 0.2236789357 -3.6048960906 -2.0741738330
C 0.8590287893 -2.8730610382 -0.9112462632
C 1.4763681694 -1.5178658539 -1.1398391421
O 1.2228537765 -0.5728967766 -0.0852205684
H 0.9176793492 1.6849822747 0.2854246159
H -1.3738818498 -1.2694646605 0.8655350276
H -2.0784078297 0.0245669715 -0.0969081130
H -2.5090425156 -1.9773397842 -1.3289912932
H -1.1752249847 -1.2514498448 -2.1909445629
H -1.1001333621 -3.6803390943 -0.3065436887
H 0.3162325412 -4.6844638647 -2.1105775169
H 0.2514636434 -3.1261286892 -3.0485792152
H 1.3532730694 -3.4762144694 -0.1559540733
H 2.5667405695 -1.5919629267 -1.1755671684
H 1.1486387899 -1.0917711436 -2.0954197640