23

C -0.5733306689 0.2730979764 -2.8018954124
C -0.2877881300 -0.5602168903 -1.5441541732
C 0.8041519316 0.0874540685 -0.6812611489
C -1.5731701700 -0.8013856224 -0.7394804470
C -2.5104022078 -1.9242870853 -1.1747549539
C -1.7518549706 -2.0621705972 0.1143990041
C -0.6735327400 -3.1074926519 0.2981298582
C -2.1993817320 0.3903724664 -0.2240165515
C -2.7169930088 1.3881237530 0.2077303384
H 0.3385327655 0.4063628458 -3.3928551084
H -1.3225920794 -0.2102651555 -3.4368574245
H -0.9514094331 1.2645806346 -2.5331747556
H 0.0742228879 -1.5411354787 -1.8725881525
H 1.7216108550 0.2325580432 -1.2608285529
H 0.4772234316 1.0655725048 -0.3142176167
H 1.0468809242 -0.5316537179 0.1878104596
H -3.5778942914 -1.7405664609 -1.1443722623
H -2.1790363188 -2.5227302709 -2.0186350496
H -2.3415337637 -1.8866691423 1.0096461893
H -0.1151394701 -3.2982856533 -0.6219507571
H 0.0431738832 -2.8152215259 1.0729728914
H -1.1236520812 -4.0578424349 0.6064900975
H -3.1761580634 2.2659670846 0.5892635081