16

O -0.1236043727 0.0785259452 0.1664762796
C -0.0235983002 1.2523116982 0.0243491057
O -1.0317688888 2.1527088303 -0.2606254676
C -0.0944339507 3.2803108103 -0.3124258513
C -0.0148060797 4.1696732884 0.9328514796
C 1.5381186109 4.3252695218 0.9961629699
N 1.5606944512 2.8352604894 1.3426262158
C 0.2475279493 3.1349759474 2.0511643221
C 1.0793955801 2.3261000696 0.0268204245
H -0.1597630273 3.7908987674 -1.2719120428
H -0.7133150187 5.0009274643 1.0272859555
H 2.0863094226 4.5970800233 0.0893129056
H 1.8903502087 4.9153097550 1.8440282260
H 0.4610098363 3.5939421138 3.0173188395
H -0.4292085397 2.2896448810 2.1824425092
H 1.9026726985 2.1764639647 -0.6702761914