19

C 0.2783495653 0.9774489759 0.3064838042
O -0.3623870736 -0.0944537560 -0.3580590080
C 0.4358616436 -0.6695016822 -1.3482708948
C 1.4784570991 -1.7052584609 -1.0417587686
C 0.1664362314 -2.0628653803 -1.7898173144
C -0.2974281428 -2.9161640881 -0.6123405557
O -0.3095595211 -4.2809887431 -1.0031704281
C 1.0311913758 -2.5532982871 0.1659304818
O 1.8247295342 -3.6763343986 0.4374446838
H 1.2049161945 0.6532025682 0.8009131775
H 0.5247686197 1.7928806181 -0.3903137099
H -0.4190536084 1.3535177886 1.0583690651
H 0.7041096741 0.0208601811 -2.1510590361
H 2.4974456836 -1.6489239316 -1.4072594572
H -0.0090198396 -2.3268465436 -2.8260433586
H -1.2452851577 -2.6307063436 -0.1437385549
H -0.6391960836 -4.7939738131 -0.2574552226
H 0.9088876240 -2.0070221067 1.1049291425
H 1.6199516116 -4.3148035072 -0.2615767159