17

O 0.1244604667 1.3828906075 -0.1056866426
C 0.0399076043 -0.0109857677 -0.0154513166
C 0.4122692502 -0.6302783752 1.3707130336
C -0.7797551370 -0.1275240235 2.1947356808
C -1.8527564319 -0.1144799090 1.3907738997
C -1.4045173483 -0.6081890266 0.0094599098
C -1.0835950845 -2.1062312012 0.2323650192
O 0.1904566448 -2.5614550562 -0.2577712679
C 0.0849197952 -2.1204385457 1.1078922975
H -0.4088207686 1.7486257727 0.6120557942
H 0.6436726076 -0.4078275206 -0.8277011434
H 1.4061989774 -0.4087660619 1.7581353885
H -0.7468894366 0.1125484870 3.2496371124
H -2.8705765285 0.1383693223 1.6584335640
H -2.0519320591 -0.3667153522 -0.8329201471
H -1.8734549641 -2.8509064926 0.2589473944
H 0.2695929524 -2.8769625271 1.8646575734