18

C -0.2163982371 1.4573573711 0.0221165198
C 0.0575187970 -0.0261223153 -0.0535052905
O 1.1403624754 -0.5354229089 -0.1864111308
O -1.0926619126 -0.7277284717 0.0492391682
C -0.9571888138 -2.1602271520 -0.0021563640
C -2.3636318201 -2.7332042147 0.0646911089
C -2.3395243720 -4.2590712900 0.1058717698
N -3.5438307450 -4.8546552647 -0.1337950564
O -1.3300201645 -4.8959253748 0.3367192707
H 0.7201834686 2.0040237746 -0.0794640557
H -0.9104720483 1.7534249479 -0.7694787094
H -0.6891852810 1.7029054851 0.9774141541
H -0.4435263555 -2.4485280815 -0.9226841643
H -0.3467884125 -2.5094668485 0.8327990611
H -2.8670729390 -2.3658719724 0.9678839993
H -2.9594170605 -2.3841904761 -0.7863271852
H -4.3887104431 -4.3279925116 -0.2683659808
H -3.6043705361 -5.8559978167 -0.0487234747