18

C 0.0483368909 1.5512587627 0.0464593095
C 0.0305858968 0.0318268011 -0.0060426458
C 1.2176747673 -0.6156235886 -0.8384489590
C 1.8990580376 -0.7455803045 0.5024175020
C 2.8816851635 -0.2077214916 1.2282357342
C 2.3151376601 0.1446471240 2.5489938321
N 2.9298649477 0.6318124338 3.5407824565
O 0.9356118281 -0.0659346688 2.5058587508
C 0.6297779462 -0.6945379545 1.2734643012
H 1.0419404057 1.9301554371 0.3050692777
H -0.2332842000 1.9735815595 -0.9230479579
H -0.6555569319 1.9215906139 0.7973852959
H -0.9594552941 -0.3409746919 -0.2813528182
H 0.9255296027 -1.5657905366 -1.2930712459
H 1.7108491224 0.0098306681 -1.5847781762
H 3.8756811624 0.0989614125 0.9376289502
H 2.2783335428 0.8515626321 4.2952227971
H 0.1108087819 -1.6383066784 1.4688568157