19

O -0.3664374257 0.8243894243 0.3773888044
C 0.2116083591 1.7622441214 -0.1362475508
N 1.5398830532 1.8258063252 -0.3988913085
C 2.4665949793 0.7482288046 -0.0900125931
C 3.2095559498 0.2492805523 -1.3624192555
C 4.4746376586 1.0846703814 -1.4134129104
N 4.2202831754 2.5286155490 -1.1814092185
C 4.7118653982 1.6730249757 -0.0724535271
C 3.6026917333 1.2244337038 0.8599654177
H -0.3101852396 2.6886708046 -0.4504619125
H 1.9410061774 2.6466942813 -0.8300440349
H 1.8614878590 -0.0373563536 0.3617291527
H 3.4816358726 -0.8070943716 -1.2538018134
H 2.5820697159 0.3453847276 -2.2524516943
H 5.2918713160 0.8024101636 -2.0688103909
H 4.9931775309 3.0717710934 -1.5564054800
H 5.7125862820 1.8458405968 0.3093562482
H 3.2524152802 2.0081227305 1.5369244242
H 3.9634482845 0.3880379798 1.4699212229