21

C -0.1659589484 1.5851085175 0.0780189213
C 0.0204100250 0.0621230575 0.0091253352
C 0.8054630200 -0.4148876714 -1.2005300905
C 1.8127595261 -1.2351308808 -0.8872919748
C 2.7713179292 -1.9279969302 -1.8014664147
C 1.9046194236 -1.4025806334 0.6057034587
O 2.1926593741 -2.6648457400 1.1308986013
C 2.2617350008 -0.1485674638 1.3706758637
C 0.8060280168 -0.5417329070 1.1763855751
H 0.7978028153 2.1012494442 0.1283612186
H -0.6978697412 1.9544157451 -0.8053730383
H -0.7476309081 1.8682653260 0.9611820286
H -0.9830453388 -0.3894866982 -0.0122989653
H 0.5643759026 -0.0852935729 -2.2066316594
H 2.5344251779 -1.7432914167 -2.8522552379
H 3.8041839135 -1.5998076505 -1.6223955161
H 2.7508399563 -3.0102490518 -1.6274798769
H 3.1479587007 -2.7383481131 1.2252436749
H 2.6448212498 -0.2870132140 2.3773406631
H 2.6793610496 0.6948792457 0.8302816994
H 0.2740342654 -0.8702785520 2.0611822842