19

C 0.1572262130 1.4871553693 0.0613604192
C -0.0356765637 -0.0119994185 0.1088775103
C -1.4827545165 -0.4519359685 -0.1288197695
O -1.8608659218 -0.2099778978 -1.4672749006
O 0.7893941668 -0.7101558977 -0.9029200979
C 1.3695930176 -1.5705518104 0.0941030846
C 2.6607769562 -1.0009703854 0.6974434398
O 1.9040689666 -0.2503129110 1.6855147091
C 0.6618634006 -0.8139914248 1.2325698042
H 1.2073813720 1.7457929101 0.2043493955
H -0.1897326322 1.8710135737 -0.9015232845
H -0.4285017089 1.9674949242 0.8524185654
H -1.5890725331 -1.5188867426 0.1310786640
H -2.1652648666 0.1159092746 0.5127311453
H -1.1571290258 -0.5973758926 -2.0047315904
H 1.3026338633 -2.6310193618 -0.1520504289
H 3.3120538057 -1.7397819223 1.1808450945
H 3.2442419169 -0.3595167810 0.0293490705
H 0.0562123898 -1.2252133877 2.0429642494