18

N 0.0119340948 1.3496404751 -0.1331342255
C 0.0850370631 0.0051984892 0.0405400792
O 1.1198488955 -0.5987507547 0.2508474844
C -1.2831133403 -0.7119650910 0.0304753195
O -2.2087132180 0.1492544292 -0.6591358005
C -1.1854810841 -2.1312483230 -0.5870215900
C -1.9752566555 -3.0746527188 0.3541394302
C -2.1688537334 -2.2444537599 1.5970322787
C -1.7660194904 -0.9843008315 1.4414943901
H 0.8737769849 1.8648279069 -0.2026869752
H -0.8493924621 1.7507395592 -0.4636250373
H -3.0936718155 -0.0934099432 -0.3678693485
H -1.5652169564 -2.1199404700 -1.6108542551
H -0.1326081539 -2.4168734765 -0.6088622358
H -2.9421427725 -3.3876183231 -0.0624855675
H -1.4243651413 -3.9987510135 0.5621011653
H -2.5992319433 -2.6484705259 2.5076109927
H -1.8091413315 -0.1974285986 2.1859295951