23

C -0.1409607204 1.5538986910 0.0633711175
C 0.0415414279 0.0534581840 0.0727263915
C 1.3582095825 -0.6451277693 -0.1940778858
C 2.6650217370 0.1319125412 -0.0405432387
C 2.7018674570 0.5192996482 1.4290256072
C 3.8003449454 1.3649237615 1.9922963272
C 1.6390384334 0.0255302294 2.0746624086
C 0.7143263534 -0.7435674695 1.1871608670
C 0.0581159162 -1.9956433438 1.7232607406
H 0.6752827852 2.0694512754 0.5743736625
H -0.1896010754 1.9336895980 -0.9638650888
H -1.0743155064 1.8360711937 0.5634631911
H -0.8048968909 -0.4769895509 -0.3615850462
H 1.3452464091 -1.4962765413 -0.8667322168
H 3.5340133353 -0.4845927644 -0.3096047581
H 2.7118559463 1.0176529514 -0.6901987347
H 3.8366079529 2.3510399098 1.5112360779
H 3.6781981341 1.5201128599 3.0678783541
H 4.7823530170 0.9036322968 1.8235922574
H 1.4403277361 0.1675197447 3.1329182618
H -0.6392594560 -1.7638019709 2.5376066525
H -0.5103217665 -2.5095247344 0.9414068432
H 0.8014585171 -2.6996412203 2.1151665290