19

C 0.5982823852 1.2081561522 -0.4069029402
C 0.1835721520 -0.1817162821 0.0300525403
N 1.2467852023 -1.1131604488 0.4586308670
C 0.2900437699 -0.6413676050 1.4570106237
C 0.8918415069 0.1979501292 2.5785206209
O 2.1618617417 0.7154172815 2.2471172243
C -0.9248830097 -0.8879486912 -0.7296233068
N -1.7076569645 -0.1129962438 -1.5243026658
O -1.0957173623 -2.0928388607 -0.6209382796
H 1.4261546340 1.5600368451 0.2082294844
H 0.9093465057 1.2166531967 -1.4571937074
H -0.2242760672 1.9230989924 -0.2827151537
H 0.9794915935 -2.0475598678 0.1488611214
H -0.4779617487 -1.3449342832 1.7698071795
H 0.2352993238 1.0412801458 2.8255204041
H 0.9498645852 -0.4392454923 3.4768932683
H 2.5485645770 0.0601348036 1.6452426529
H -1.5559090893 0.8716710970 -1.6434798621
H -2.4436063355 -0.5619175786 -2.0438033512