16

O 0.1108259296 1.4118629874 -0.1405677654
C 0.0918944018 0.0140523215 -0.0400928979
C 0.1972983812 -0.5553645143 1.3988764679
O 0.9781346078 -0.4399960050 2.3049880606
N -1.0090270824 -1.1945302592 1.2513274561
C -1.3293338013 -0.6281119651 -0.0553214620
C -2.5752675550 0.2420001621 -0.2992416783
O -2.9242051666 -0.5388296983 -1.4630967061
C -1.8663608641 -1.4837784570 -1.2155474238
H 0.7839324835 1.7375266368 0.4684508515
H 0.7802271136 -0.4630004244 -0.7514581076
H -1.5766330544 -1.7077288945 1.9119864987
H -3.3360744089 0.1755760650 0.4901619308
H -2.3777712237 1.2914632737 -0.5366604907
H -1.2034344475 -1.6081987356 -2.0802623764
H -2.2477169934 -2.4679827131 -0.9098962875