17

C 0.0846440609 1.5195826934 0.0090358198
C -0.0188698316 -0.0170318695 0.0030426797
C -1.3967299574 -0.4923695792 0.0126195193
C -2.5470966059 -0.8595315940 0.0206493855
C -3.8844275700 -1.3062807965 0.0305362440
C -5.0966074661 -0.6269741723 0.0423083302
C -6.0762303315 -1.6359700949 0.0477601678
N -5.5379205315 -2.8551070978 0.0399162876
N -4.2158860238 -2.6323417295 0.0295216603
H 1.1340839016 1.8274752058 0.0014883099
H -0.4069920793 1.9455271317 -0.8694942061
H -0.3919549089 1.9376219872 0.8995690289
H 0.4975111729 -0.4164989699 -0.8797178629
H 0.5123387945 -0.4243687370 0.8733157036
H -5.2297326529 0.4418338021 0.0462615985
H -7.1507041583 -1.5271939263 0.0569357540
H -3.5779370728 -3.4105918535 0.0219867601