16

C -0.4937422088 1.4932343550 0.2376065200
C -0.0442403286 0.0669540123 0.0075437972
N 0.0291055023 -0.7057184074 1.1366162395
N 0.2326981866 -0.5009676689 -1.1148501135
C 0.1472251705 0.0618194956 -2.3424852554
C 0.4269580907 -0.4577050668 -3.5739040208
N 0.1930381849 0.4910697647 -4.5567180412
C -0.2119814011 1.5300477103 -3.9052938468
O -0.2740720744 1.3717612178 -2.5604289083
H 0.2373823822 2.1934185032 -0.1722012127
H -1.4360237831 1.6806554425 -0.2824006259
H -0.6343975818 1.7018512250 1.3007825026
H 0.1310619253 -0.2605405809 2.0322214008
H 0.4613877485 -1.6102661288 1.0271271527
H 0.7784012308 -1.4503320046 -3.8019882664
H -0.5034546643 2.4938988510 -4.2929973517