17

O 0.1124436614 1.4215411033 0.0225104876
C 0.0344039180 0.0024971293 0.0369134497
C -1.4338884786 -0.3957019004 0.0549373919
N -2.1100426943 -0.0800873761 -1.1881793230
C -2.4449774847 1.3381674073 -1.4795103035
C -3.8355765473 0.8617589529 -1.9125640114
O -4.7680633268 1.3466586939 -2.4784412932
C -3.5166172951 -0.5224562729 -1.3247635911
H 1.0282520364 1.6744433837 -0.1232968451
H 0.5098098383 -0.4340903050 -0.8531715693
H 0.5283084899 -0.4121080950 0.9299077685
H -1.4895437537 -1.4801324176 0.2054576675
H -1.9182596241 0.0828245226 0.9292299120
H -2.4905178954 1.9853540940 -0.5904732193
H -1.8174211417 1.8259060045 -2.2305581260
H -3.6776920025 -1.3968813026 -1.9645706463
H -4.0442600798 -0.6779312120 -0.3682282990