21

C 0.4288613924 0.7713217341 1.6039231580
C -0.2342052287 -0.6134347375 1.6155336507
C -0.7902319377 -0.9671532011 3.0024967653
C -1.3319977726 -0.6691389940 0.5698336228
N -0.9330451235 -0.8026359861 -0.8424200812
C -1.7220626843 -1.8705637738 -0.2177576025
C -1.0284908247 -3.2222150861 -0.1163742866
C -1.6252275968 -4.0791189277 0.9081073983
N -2.1102014325 -4.7412051871 1.7218221170
H 1.2511322028 0.8178460714 2.3248111032
H 0.8279764107 1.0028628721 0.6121171888
H -0.2917641579 1.5533995945 1.8724021741
H 0.5329881623 -1.3490873401 1.3463487357
H -1.5653899803 -0.2535474362 3.3066405570
H -1.2327768777 -1.9676594945 3.0178097420
H 0.0012485976 -0.9344291429 3.7577496444
H -2.1547328539 0.0172880611 0.7781378614
H -1.5124520925 -0.2308537311 -1.4499065649
H -2.7746452377 -1.9482132526 -0.4840507860
H -1.0871098250 -3.7376056837 -1.0823150471
H 0.0343029699 -3.0864853985 0.1000793296