17

N 0.5141653352 0.2549493756 -1.0007595510
C -0.0491633376 0.1872993848 0.2341430931
O 0.4604141084 0.6242614519 1.2508237593
C -1.3700356560 -0.5169738968 0.2639985015
C -2.3278468919 -0.5302866502 1.4562948891
C -2.6666203509 -2.0252716840 1.1169963055
O -3.9777944489 -2.3264458025 0.6896715629
C -1.6850392121 -1.9663193690 -0.0555532515
N -2.0358638007 -0.9005643560 -0.9777802620
H 1.3865255664 0.7436261786 -1.1089276977
H -0.0257698022 -0.0199885656 -1.8049251920
H -1.8071575573 -0.4134631960 2.4072560835
H -3.1612120924 0.1772646689 1.3992557898
H -2.3279525380 -2.7087844697 1.9054419822
H -4.5721749928 -2.2208125003 1.4395949486
H -1.0312448610 -2.7583346932 -0.4010518427
H -3.0354352182 -0.7047610865 -0.9696093486