17

C -0.0088525939 1.4307200605 0.0758329360
C 1.4417787879 1.9489974149 0.0199924247
O 2.2178044870 1.4514901317 1.1193819268
C 1.9646660384 0.1303458782 1.2976920879
C 0.9297871508 -0.6157922852 0.7896045862
N -0.1099346032 -0.0288855201 0.0170468807
C 1.1018430176 -1.9443357129 1.2857980489
C 2.2311911316 -1.9466145494 2.0687750069
N 2.7544775101 -0.6649097028 2.0780515905
H -0.4577896331 1.7732215049 1.0165412461
H -0.5818488691 1.8707070162 -0.7457740334
H 1.9152037934 1.6389744540 -0.9225907962
H 1.4787000948 3.0386135482 0.0947953322
H -0.0950913011 -0.3547386619 -0.9441222285
H 0.4647100089 -2.7923576533 1.0873870241
H 2.7092672858 -2.7387232179 2.6199892890
H 3.5649725342 -0.3527684152 2.5823321183