21

C 0.0824453408 1.1746239869 0.3685859191
C -0.3895719335 -0.2371804920 0.0611679707
O -1.0167631619 -0.8890386944 0.8656885642
C -0.0858670078 -0.7877182456 -1.3348049489
C -1.2489410523 -0.3596287582 -2.2375314666
C 1.4017641821 -0.7041256038 -1.8432727098
C 1.7596475413 -1.7374855703 -0.7316046455
C 0.4437462007 -2.2627540851 -1.3821850273
C 1.1083304173 -1.9338828513 -2.7517857868
H 1.1764055291 1.1873570541 0.4380492182
H -0.1893871351 1.8689725805 -0.4331153407
H -0.3433186255 1.5107631064 1.3149904738
H -1.3496778934 0.7312766649 -2.2606656343
H -1.1357174618 -0.6967584910 -3.2688304468
H -2.1877544864 -0.7677787367 -1.8494277432
H 1.9568382521 0.1964693581 -2.1137393547
H 2.6559518162 -2.3367925593 -0.9083912655
H 1.7074532327 -1.4118571521 0.3093676617
H -0.1132872878 -3.1584553899 -1.1086766715
H 0.4666481954 -1.7955141228 -3.6213683541
H 1.9782684576 -2.5426252484 -3.0112067019