18

O -0.6843647130 0.8469988890 -0.6897725780
C 0.1513287873 0.9852517973 0.1710579639
C 1.3255130280 1.8955915585 0.0776469031
C 1.5045227428 2.7578396193 -1.1988668989
C 2.9120508397 2.1205682555 -1.4362439036
C 2.7465676011 1.2633510796 -0.1550508256
N 3.2660930346 1.7431144545 1.1837859742
C 3.1268272561 3.2083857047 1.2588092350
C 1.9068288288 2.4010902332 1.4118973521
H 0.1098159149 0.3841799456 1.1089087799
H 0.7666001343 2.4929872006 -1.9573654083
H 1.4812094763 3.8383497481 -1.0412460886
H 2.9631965900 1.5062969377 -2.3379413478
H 3.7679098555 2.7997084580 -1.4419876263
H 2.8892197698 0.1863575403 -0.2378161515
H 3.5650036874 3.6056828068 2.1696117879
H 3.2892939071 3.8303655232 0.3852713433
H 1.3908957292 2.3044811283 2.3633189592