22

C 0.1007791170 1.0933326445 -0.7419292875
C -0.0564444994 -0.0053876877 0.3187266573
C -1.4551530225 -0.6009095134 0.3562041975
C -2.5495487922 0.3045707450 0.8841219153
O -1.8451802230 -1.3515874182 -0.8217002608
C -1.6745243957 -2.0610612642 0.4103435784
C -0.5864054628 -3.0952602019 0.4346784527
C -0.6260942264 -4.2042446922 -0.5523995317
N 0.3987497010 -3.1501313951 -0.6525267549
H 1.1330317908 1.4536579485 -0.7716669732
H -0.1534504239 0.7081504742 -1.7339946276
H -0.5436267649 1.9547135523 -0.5411474468
H 0.6765750972 -0.7944799651 0.1366745136
H 0.1653542790 0.4028519319 1.3130530790
H -2.6188732156 1.2234471200 0.2939957076
H -3.5195346259 -0.1964856061 0.8415538613
H -2.3472371132 0.5875618714 1.9228181208
H -2.6118980442 -2.3955126313 0.8629324024
H -0.1785105697 -3.2965909109 1.4238213835
H -0.2540224125 -5.1882833977 -0.2823950745
H -1.4352184467 -4.2010590272 -1.2782280150
H 0.0963116136 -2.4863034166 -1.3647054474