17

O -0.0505213303 0.4893835056 1.3451416743
C -0.0764521967 1.2195827218 0.3825738430
C -1.3908371366 1.5067432322 -0.3388860969
C -1.3527720003 1.7379197140 -1.8667721019
C -0.7085266242 3.0643482772 -2.2306653796
O -1.3328066850 4.0152080159 -2.6359805216
C 0.8111922383 3.1582577440 -2.0549185672
O 1.4014333780 2.0298566010 -1.4542550228
C 1.2183289769 1.9192842577 -0.0576556663
H -2.0568686006 0.6738153640 -0.1012151465
H -1.8250549086 2.3936500184 0.1459532572
H -0.8102960280 0.9191040579 -2.3507698310
H -2.3759373644 1.7613900342 -2.2479090133
H 1.2510413617 3.2509211877 -3.0544303843
H 1.0425482390 4.0850511691 -1.5081459490
H 1.2511995398 2.9117400945 0.4243077809
H 2.0475074309 1.3287802449 0.3387532452