15

N 0.2067861483 1.3146576846 -0.2869230792
C 0.0656799369 -0.0333587294 -0.1364169594
N -1.0465559127 -0.6728633809 -0.1407742463
C -0.7810977054 -2.0988363972 0.0619472763
C 0.7342193365 -2.2792466381 0.1041703659
O 1.3854534464 -1.8701876133 -1.0865694537
C 1.2909324143 -0.9061336687 -0.0103755674
C 2.5950417174 -0.4742230971 0.5421185176
O 2.7998851263 0.6265700942 0.9998238087
H 1.0479100144 1.7105834593 0.1083629037
H -0.6373904258 1.8547228060 -0.1676348340
H -1.2350811368 -2.4386387334 1.0016180279
H -1.2205125147 -2.6968907222 -0.7456790182
H 1.2208659591 -3.0762028503 0.6616131569
H 3.3896571358 -1.2458995537 0.4793594313