16

C 0.0014218264 1.4895065374 0.1101537393
C 1.3875957612 2.1669956406 -0.0706392960
C 2.1509946961 1.3809758994 -1.0739582059
C 1.9689819102 0.0645793465 -1.3500492147
C 0.9191742823 -0.6976686649 -0.6957175590
C 0.0156222134 -0.0276293440 0.0334780364
N 2.9387783219 -0.3511841278 -2.2591254378
C 3.6364880240 0.7158573199 -2.4718396922
O 3.2291025989 1.8195710516 -1.7823275173
H -0.4391074369 1.8178818548 1.0562857575
H -0.6740372300 1.8565293602 -0.6782849496
H 1.2608361700 3.2116786127 -0.3701715780
H 1.9362627486 2.1793168870 0.8835709857
H 0.8979018263 -1.7762969093 -0.8023314509
H -0.7890702224 -0.5560298325 0.5347706512
H 4.4851236400 0.8459118083 -3.1243240886