15

C 0.0591104478 1.4581089810 -0.0147462264
O 0.0354808130 0.0341518179 0.0160143331
C 0.5952063149 -0.5907644754 -1.0355537759
C 0.6831834736 -1.9387984347 -1.2103925109
C 0.2602318492 -3.1225610901 -0.4274298440
O 1.3279521161 -2.1230296953 -2.4180547863
C 1.5776293585 -0.8850357858 -2.8757158952
N 1.1688024039 0.0724965209 -2.1034996201
H 1.0853445392 1.8381716577 -0.0456701916
H -0.4823703446 1.8460765949 -0.8835640701
H -0.4307562707 1.7817723439 0.9048416046
H -0.4497147593 -3.7489654673 -0.9802749982
H 1.1106412684 -3.7549886388 -0.1465493913
H -0.2279108798 -2.7817804960 0.4885982457
H 2.0847929099 -0.8033490928 -3.8239328433