23

C 0.2459130618 1.4094237613 0.2599257683
C -0.0570291457 -0.0883932802 0.2285207459
O 0.3659337279 -0.7064265704 1.4462466764
C -1.5413453412 -0.4640205899 -0.1106585546
C -2.5036340321 -0.0075188383 0.9982330223
C -1.9504718021 0.1625457678 -1.4569414488
C -1.5271530827 -2.0064342724 -0.2927499456
C -1.9032000187 -2.8978123898 0.8736677157
O -1.1727777133 -2.4801211606 -1.3495407636
H 1.2975085501 1.5525102970 0.5243576644
H 0.0718975848 1.8827438803 -0.7088393368
H -0.3645695237 1.9330955972 1.0052741463
H 0.5615620663 -0.5533351618 -0.5471260669
H 0.0825885761 -0.1467799508 2.1765266193
H -2.5202185242 1.0842510047 1.0733106737
H -3.5283308279 -0.3270751621 0.7836555976
H -2.2306642331 -0.4105894020 1.9770769002
H -1.2420830077 -0.1032852506 -2.2438365672
H -2.9333905516 -0.2064844125 -1.7660349037
H -2.0132232868 1.2514251346 -1.3826409228
H -1.8078409883 -3.9411291524 0.5706092004
H -1.2311567463 -2.6858137454 1.7109140364
H -2.9254787316 -2.7055878837 1.2141714228