19

C 0.0263419993 1.4516133024 -0.0010018602
N -0.0353635835 0.0084384037 -0.0030884071
C -0.0410209328 -0.8051218514 -1.1366793668
C 0.0068739135 -2.1111811130 -0.7177012531
N -0.0950459162 -3.2799363361 -1.5035714091
C 0.0660028542 -2.1208200204 0.7162268545
C 0.0904092492 -3.3271506377 1.6026865178
C 0.0485355806 -0.7951561851 1.0931091592
O 0.0935345215 -0.2005890778 2.3174286250
H 1.0376920548 1.8214405088 -0.2137958724
H -0.6558645384 1.8513129490 -0.7569349628
H -0.2793558458 1.8228466923 0.9778821221
H -0.1013057029 -0.3721831581 -2.1216016194
H 0.0044558892 -3.0785357222 -2.4911606802
H 0.6046608791 -3.9691284068 -1.2513477399
H 1.0732025050 -3.8179790838 1.6417427047
H -0.1766949592 -3.0813113383 2.6384681606
H -0.6309937668 -4.0795438663 1.2629894091
H 0.0898034991 -0.8937727894 2.9843428982