21

C -0.1612975867 1.5772809172 0.0063837018
C -0.0025544316 0.0551325334 -0.0257662761
C 0.6914885604 -0.4353715935 -1.3054074793
C 0.6366171271 -1.9651234862 -1.4175176533
C 1.0761837150 -2.6522136995 -0.1459962823
O 2.3075547542 -2.2050332091 0.4405592137
C 1.0785746713 -1.9425692367 1.1444599655
C 0.7380863031 -0.4535677798 1.2321099258
O 1.9273763032 0.2788276276 1.4951272405
H 0.8166196402 2.0651379196 0.0110089971
H -0.7238854820 1.9292462222 -0.8643580803
H -0.6951901819 1.9015243837 0.9062514881
H -1.0047425286 -0.4003671768 0.0038153573
H 0.2177816569 0.0121941609 -2.1853659349
H 1.7340174988 -0.0965077741 -1.3080623313
H -0.3920483301 -2.2876293772 -1.6290015226
H 1.2510935928 -2.3210762505 -2.2531431996
H 0.9618822764 -3.7370246747 -0.1301777523
H 0.9775387674 -2.5184153197 2.0635021036
H 0.0881932683 -0.2942837341 2.1011102262
H 2.6312906158 -0.1822512526 1.0204467023