13

C -0.0180656648 1.4834362378 0.0228000006
C -0.0053496695 -0.0124954079 -0.0006693905
N 0.1434494410 -0.6222054666 -1.1899545046
C 0.1488044330 -1.9411360982 -1.1619313811
C 0.0054798785 -2.6261752470 0.0531969761
N -0.1394476614 -1.9634307864 1.2073540068
N -0.1446981178 -0.6431650757 1.1781143678
C 0.0091342892 -4.0583039159 0.1016396101
N 0.0183041956 -5.2146737824 0.0899026134
H 0.9162769794 1.8718963632 -0.3944821886
H -0.8294000437 1.8604406657 -0.6077587487
H -0.1450017434 1.8450045689 1.0427300976
H 0.2666066738 -2.4766568856 -2.1005632889