17

C -0.0956726155 1.5896052244 -0.1393249514
C -0.0491771850 0.0633816219 -0.0340622285
C 0.9593269362 -0.5604181915 -1.0873404873
N 2.3071653439 -0.5774884391 -0.4374217153
C 2.0084619559 -0.5709272828 0.7871492797
O 2.6323581471 -0.2065675998 1.9491554743
C 1.3081872253 0.2416623582 2.4558918933
C 0.6030668598 -0.4747824165 1.2618916187
H 0.9049315189 2.0265790415 -0.0534615305
H -0.5039724474 1.8925961184 -1.1085144286
H -0.7276705753 2.0263684591 0.6406560401
H -1.0567085512 -0.3400989438 -0.1715683637
H 0.6562631092 -1.5730184987 -1.3842191621
H 1.0151875532 0.0447412344 -1.9970870100
H 1.1182945868 -0.1651182485 3.4500078640
H 1.2697128043 1.3328954633 2.4597360481
H 0.1689910137 -1.4250490806 1.5824628691