23

C -0.1418926505 1.5828476143 -0.0774632567
C 0.0009393458 0.0621277471 -0.0035815951
C 0.6498128839 -0.5804799421 -1.2603337875
C 1.3091776562 -1.9047602151 -0.7930624785
C 1.5982410182 -1.7356313723 0.7131311040
C 2.9147123899 -1.0965026885 1.2030424387
C 3.2035660122 0.2223009322 0.5481775217
C 2.1595367032 0.1693955516 1.6315918979
C 0.8223075080 -0.4659323081 1.1911725032
H 0.8383834188 2.0673688143 -0.1383276662
H -0.7212494693 1.8860539248 -0.9563562768
H -0.6527704419 1.9785923019 0.8072473298
H -1.0051836007 -0.3682808700 0.0987048582
H -0.0905416001 -0.7496231841 -2.0492498583
H 1.3946672816 0.0982989766 -1.6884097433
H 0.6100973812 -2.7362702150 -0.9366512457
H 2.2077305774 -2.1448155125 -1.3703282840
H 1.3641133846 -2.6391472710 1.2797723852
H 3.6869770187 -1.6342892150 1.7407669428
H 4.1377264034 0.6790186641 0.8627230545
H 2.9625701758 0.4178188825 -0.4896236265
H 2.2824340358 0.7480416993 2.5398382484
H 0.1913199879 -0.6463774352 2.0650962943