24

C -0.0764282005 1.5585264417 0.0118806987
C -0.0429743247 0.0226630061 -0.0058122290
C -1.4875373673 -0.5118011022 0.0353169517
C 0.6984965347 -0.4656506153 -1.2672026605
C 0.7672342481 -1.9969688130 -1.3432622511
C 1.1512918222 -2.6420604467 -0.0219709000
C 2.3922204241 -2.2719083797 0.7044357494
N 1.0880916780 -1.8993122486 1.2496213053
C 0.7392569149 -0.4662882934 1.2331543389
H 0.9308701070 1.9806959392 -0.0746626367
H -0.6746776604 1.9467313906 -0.8200549239
H -0.5185515927 1.9343898379 0.9416538141
H -2.0285418859 -0.2551373404 -0.8825899950
H -1.5227235308 -1.5974767896 0.1578093784
H -2.0322860644 -0.0713422926 0.8773470885
H 0.2050479309 -0.0776663947 -2.1663392913
H 1.7103067741 -0.0389358199 -1.2665110398
H -0.2139722970 -2.3836348837 -1.6410028383
H 1.4653893158 -2.3116513145 -2.1284801602
H 0.8066416634 -3.6706051118 0.0806350585
H 2.9506260803 -3.0158789661 1.2683552119
H 3.0090586081 -1.4802391296 0.2789924545
H 1.6569901727 0.1296325742 1.3285075560
H 0.1434144393 -0.2647965779 2.1327039398