20

C -0.1458196513 1.5389579418 -0.0423254364
C 0.0661749642 0.0466369426 0.0325746186
C 1.1267853633 -0.6808219932 -0.8329236965
N 1.2377624334 -1.7256293887 0.2656071533
C 0.8136167367 -0.6274176379 1.2090972940
C 0.1265140860 -2.6391667588 -0.0063028390
C -1.0171879331 -2.8619129966 0.9504851199
C -1.2024842526 -1.9713678132 -0.2617375563
O -1.2211736029 -0.5693166740 -0.1241876614
H 0.7980245420 2.0693948921 0.1144681194
H -0.5486859712 1.8211525678 -1.0198023595
H -0.8593953076 1.8605702388 0.7223946399
H 0.8285439616 -1.0657887983 -1.8109320152
H 2.0608197519 -0.1183057655 -0.9144171990
H 1.7037806541 -0.0728349494 1.5210288105
H 0.2472553422 -0.9196362252 2.0932883236
H 0.4309844638 -3.4743774214 -0.6308772215
H -1.4878676494 -3.8390327316 0.9147331227
H -1.0134805575 -2.4125491935 1.9353422426
H -1.8674915535 -2.3002154457 -1.0541825597