19

C 0.0368669472 1.4846400611 -0.2034607067
C -0.0277041605 -0.0494093597 -0.0300090702
N 0.7473370190 -0.5877113186 1.0975159070
C 2.1799638206 -0.3445016088 1.0444704563
C 2.8821677432 -1.2457686892 2.0792125413
C 4.3319205484 -1.0703623254 2.0749710128
N 5.4770331448 -0.9171472980 2.0537228801
C -1.4195361918 -0.4866085852 0.1010211976
C -2.5711662509 -0.8063012044 0.2235870005
H 1.0670538389 1.8151019073 -0.3628578165
H -0.5595831404 1.7973770207 -1.0648183906
H -0.3597303339 1.9861148114 0.6849705986
H 0.3905675013 -0.5106987731 -0.9360925330
H 0.3546085035 -0.2411488842 1.9678432070
H 2.5363671434 -0.6106886869 0.0429679617
H 2.4796903890 0.7012989335 1.2194354778
H 2.5070071450 -1.0234711278 3.0853887025
H 2.6373890512 -2.2924426349 1.8739036262
H -3.5852477380 -1.1060352077 0.3223152975