22

C -0.3374061621 1.3701987450 0.0914074399
N -0.0257594408 -0.0432137138 0.2365037491
C 1.2886614806 -0.5014510539 -0.2017824247
C 0.9307379163 -0.5088832534 1.2499802008
C 1.6330132100 0.4669711437 2.1795114415
C 0.5149781366 -1.8275721567 1.8877277697
C -0.6566755565 -1.6642622161 2.8806971629
C -1.0892301879 -2.9303708293 3.4576954902
C -1.4245147403 -3.9885386243 3.9195378608
H 0.5278204667 2.0459872657 0.1734225065
H -0.7882506605 1.5269512273 -0.8940128161
H -1.0735280755 1.6629629950 0.8472887604
H 1.3102999929 -1.4242075793 -0.7774661777
H 2.0038055147 0.2527624023 -0.5312981924
H 1.9924801894 1.3550388460 1.6562714444
H 0.9758940583 0.8006899611 2.9902297653
H 2.5013238170 -0.0166950496 2.6394072791
H 0.2034689056 -2.5213380184 1.1021148066
H 1.3712410271 -2.2814789541 2.4004051322
H -0.3755733093 -0.9788635852 3.6900626455
H -1.4924592151 -1.1934108128 2.3486409544
H -1.7322583671 -4.9165055992 4.3330270316