16

C 0.0282681088 1.5668587445 0.0235077626
C -0.0310916268 0.0338435061 -0.0007116342
O 0.6413641987 -0.5200027984 1.1131510168
C -1.4837396837 -0.4786432590 -0.0200489519
O -2.0129891310 -0.1752116461 1.2677879950
C 0.7056598124 -0.5033658241 -1.2358136083
F 1.9734775552 -0.0863200836 -1.2721269204
F 0.7142373216 -1.8407878458 -1.2722351113
F 0.1013267669 -0.0753501687 -2.3621396134
H 1.0629105722 1.8920172715 0.1445829368
H -0.3761243552 1.9966597089 -0.8969145209
H -0.5600270177 1.9321997373 0.8681160453
H -0.0097959382 -0.5202781310 1.8274939095
H -2.0565679058 0.0137137891 -0.8156857118
H -1.4798099070 -1.5600204075 -0.2000823524
H -2.8007285303 -0.7067286232 1.4096120688