19

C 0.0037277165 1.5247193213 -0.0625790768
N -0.0027680201 0.0858540492 0.0828335748
C 0.4985807908 -0.5956037736 -0.8551284353
N 0.5596487507 -1.9795953309 -0.8470572822
C 1.1100409304 -2.8984196620 -1.8559868056
C 0.7020066243 -4.0820782968 -0.9293123275
C 1.8023088678 -4.9885431354 -0.3926163331
C 0.1857303009 -2.9983293885 0.0441525143
O -0.3157529308 -2.9881092532 1.1291439924
H 0.5479616914 1.9749489216 0.7756817502
H 0.4586887565 1.8772580452 -1.0035525103
H -1.0239129847 1.9026491225 -0.0109361322
H 0.9355577046 -0.1666612500 -1.7707607597
H 0.5974215523 -2.8525667809 -2.8215037635
H 2.1891337410 -2.7879513262 -2.0048282180
H -0.1237621496 -4.6705142375 -1.3400117912
H 2.6416584597 -4.4035756959 -0.0024469664
H 1.4168421736 -5.6056131151 0.4239256048
H 2.1833603346 -5.6537618737 -1.1736161147