19

C 0.5034811743 1.5035371745 0.6727822478
C -0.0914431187 0.2309740563 0.1026481391
O 0.7617074534 -0.2058785981 -0.9761425031
C 0.3749751380 -1.3286570612 -1.6109197657
O -0.6036039622 -1.9703636287 -1.3236932632
C 1.3402019550 -1.6310697020 -2.7210188637
O 1.4160606080 -2.9859457296 -3.1483822278
C 0.8729098315 -2.0461227270 -4.0679421428
C -0.5720947628 -2.2014642100 -4.4601583147
H 1.5123047614 1.3260920009 1.0557762227
H 0.5570486777 2.2860162000 -0.0893417866
H -0.1188540765 1.8662693524 1.4961133925
H -0.1497028396 -0.5673568194 0.8489102687
H -1.1017564091 0.3870874083 -0.2884160576
H 2.2915926789 -1.1090753012 -2.6387396720
H 1.5536705577 -1.7949781129 -4.8846935514
H -1.1915596085 -2.4125803808 -3.5883798159
H -0.9301700635 -1.2896474219 -4.9502544736
H -0.6718121049 -3.0252009595 -5.1746327327