20

C 0.2168130799 1.5437892757 0.3714160107
C 0.0678446278 0.0385194765 0.1204217921
C -1.4010494971 -0.3977712759 0.1828209644
C 0.6850090697 -0.3699020546 -1.2372700538
N 2.0988807514 -0.0445511585 -1.3258968362
C 2.9617343177 -0.9206132739 -0.9933830355
N 2.7737066589 -2.2280703719 -0.5803196729
C 4.3648089388 -0.5525334421 -1.1013919729
N 5.4885341949 -0.2903571704 -1.1666561554
H 1.2630655023 1.8521084582 0.3144267121
H -0.3422721540 2.1161955783 -0.3783424247
H -0.1740311170 1.8152039133 1.3573311566
H 0.6189941804 -0.4943215718 0.9095517170
H -1.9886728941 0.0982191459 -0.5985063686
H -1.5116414064 -1.4791640067 0.0459450631
H -1.8459152085 -0.1344901064 1.1475928766
H 0.4819198611 -1.4366712726 -1.4269722196
H 0.1732378895 0.1884398611 -2.0304973989
H 1.8805146408 -2.4691567978 -0.1838924166
H 3.5620087437 -2.7001704163 -0.1677401875