23

C 0.0475402720 1.5739194407 0.0046567792
C 0.0116761214 0.0434794381 -0.0007766592
C -1.4113250646 -0.5253755979 0.0130576429
C -1.4511302911 -2.0567702666 0.0115360024
C -2.8720445897 -2.6173307808 0.0152190729
N -2.8591317746 -4.0784589486 0.0539253161
C -4.1979040221 -4.6511527921 0.0102359424
C -4.1487037429 -6.1160132661 -0.0008487306
N -4.1116654035 -7.2699031683 -0.0336358761
H 1.0754838910 1.9492027143 -0.0056489801
H -0.4657768667 1.9856203813 -0.8715233800
H -0.4454055636 1.9786317440 0.8956113052
H 0.5425750662 -0.3330395778 -0.8851535410
H 0.5622275537 -0.3401579059 0.8681714609
H -1.9433913607 -0.1483453502 0.8976159939
H -1.9627877238 -0.1426791067 -0.8571091599
H -0.9177307710 -2.4332064309 -0.8732086031
H -0.9166145883 -2.4504614457 0.8841815114
H -3.4051416010 -2.2647429129 0.9087183949
H -3.4310260107 -2.2224261983 -0.8551312878
H -2.3144162786 -4.4380366677 -0.7240404494
H -4.7474408406 -4.3320583550 0.9050433203
H -4.8034311507 -4.3258930271 -0.8568058653