16

C 0.0423971849 1.4039929856 0.0914507669
N 0.1203115533 -0.0340064915 -0.0301842619
C 0.6409620133 -0.6457988430 -1.1102337533
N 1.1108601435 0.0259383382 -2.1215870849
C 1.6181665229 -0.7201043043 -3.1689544753
C 1.6402670563 -2.0589413022 -3.1751277455
O 1.1471165670 -2.7814714559 -2.1130957407
C 0.6284592106 -2.1313749040 -1.0388167778
N 0.1558347157 -2.7336008644 -0.0236139521
H 1.0377306570 1.8591930609 0.0401162552
H -0.5588475183 1.8366615866 -0.7159192537
H -0.4153191995 1.6513280791 1.0506339242
H -0.2149430647 -0.6478580980 0.6960540007
H 2.0109612485 -0.1671138035 -4.0141486835
H 2.0201494422 -2.6994542666 -3.9569367139
H 0.2190349772 -3.7461639967 -0.1262426343