22

C -0.2598329050 1.6418329451 -0.1419078823
C -0.0224334751 0.1419932598 0.0205676859
C 0.7356135054 -0.2441613160 1.2894649174
C 2.2548495800 -0.0122909523 1.2251671022
C 2.9053770525 -0.5804806753 2.4675233723
N 4.4393394787 -0.4324673370 2.3914986108
H 4.6851016361 0.5556264443 2.2881322819
H 4.9235148075 -0.8055288015 3.2135373425
H 4.7872986777 -0.9193334880 1.5611480381
C -1.3811019642 -0.7120660566 -0.0422633690
O -2.2988868103 -0.1773813678 -0.6821549080
O -1.3171117338 -1.8201465622 0.5346417633
H 0.6641269524 2.2160718929 -0.3122989396
H -0.9384616328 1.7937610563 -0.9827268016
H -0.7522949028 2.0567887334 0.7467234773
H 0.5631348242 -0.2175951056 -0.8419830352
H 0.3300536889 0.3030590261 2.1526910316
H 0.5089905575 -1.3085880453 1.4390859602
H 2.6579277756 -0.5180893412 0.3360481779
H 2.4930513255 1.0575942771 1.1335446429
H 2.6063414529 -0.0637619242 3.3820296600
H 2.7184848991 -1.6503528918 2.5807826114