17

C -0.1337379578 1.5777497492 -0.0200769371
C -0.0592579913 0.0485552018 -0.0103900786
C -1.3440773452 -0.5553613225 -0.3346196586
C -2.4085748709 -1.0476883855 -0.6032050360
C 1.1763913412 -0.6099477186 -0.6970369180
C 2.1037875932 -0.3269429723 0.5273243523
O 2.5762138256 -1.6996241071 0.6372268978
C 1.1661154651 -1.8211953750 0.2845497536
C 0.7105979018 -0.6208494743 1.1690897109
H 0.8362270535 2.0208836492 0.2248736366
H -0.4391557635 1.9438820379 -1.0048868168
H -0.8674785455 1.9338912630 0.7092836071
H -3.3469426158 -1.4842918312 -0.8399899640
H 1.4505048553 -0.6164620836 -1.7518465275
H 2.8092042373 0.4823525494 0.7081258945
H 0.7299806214 -2.8111434081 0.1699051786
H 0.4569075454 -0.6397188022 2.2288482850