19

O -0.3270398836 1.5050007160 -0.3508661844
C 0.0136219295 0.1642357703 0.0083956481
C -1.2060225083 -0.7864116971 0.1591272307
C -1.2062900984 -1.6985093854 -1.0927742319
C 0.1753312178 -1.4913647749 -1.6800752039
C 0.8368041119 -0.5060892711 -1.0632663960
C 0.6826927970 -2.2683945537 -2.8270423757
C 0.3682306577 -3.6956597677 -3.0359885382
O -0.2855782564 -2.6933080579 -3.8040367508
H -0.6571628370 1.4827595942 -1.2562449261
H 0.5521028211 0.2771968235 0.9548673735
H -1.0866121769 -1.3940863915 1.0610534192
H -2.1249339454 -0.2073477980 0.2767191453
H -1.3961136123 -2.7454672746 -0.8321415717
H -1.9738347582 -1.4298860743 -1.8279665976
H 1.8240921090 -0.1484169740 -1.3363273992
H 1.6135762833 -1.9021803909 -3.2605260155
H 1.0802964310 -4.3168275232 -3.5783460095
H -0.2587533217 -4.2241945697 -2.3203965063