19

C 0.0581620702 1.5886798534 0.1290212572
C -0.0838732255 0.0647249130 -0.0362313245
C 0.6659988536 -0.4768336531 -1.2185710259
C 0.1566903828 -0.8578242477 -2.4424596008
N 1.2096721672 -1.2535916505 -3.2020542482
N 2.3841609325 -1.1634428103 -2.5570999412
C 2.0675950041 -0.6923864814 -1.3495507383
C 3.1523618737 -0.4297578332 -0.3505811868
O 3.4347127137 0.9613631480 -0.1797547573
H 1.1124035642 1.8600959924 0.2267581535
H -0.3496279148 2.1131516284 -0.7415015397
H -0.4788228159 1.9361621702 1.0175831201
H 0.2733780238 -0.4259952566 0.8780482168
H -1.1434002714 -0.2007607016 -0.1278133691
H -0.8550050390 -0.8824417383 -2.8175086524
H 1.1942572996 -1.6089721602 -4.1426429979
H 2.8597671182 -0.7846937776 0.6427475477
H 4.0507779185 -0.9817176086 -0.6571526871
H 3.6361222546 1.3137039338 -1.0533947063