18

O 0.3930715540 0.9777925340 -0.7698025653
C 0.0283593112 -0.1455803362 -0.0122894733
C 0.4910846217 -0.1309663219 1.4658806497
C -0.5303985608 -0.9926037527 2.2509002560
C -1.5686900166 -1.4899997346 1.2144202689
O -2.8502615196 -1.7517677872 1.7222336385
C -1.5004830090 -0.4328789572 0.0720904560
C -2.2290330429 0.7749751573 0.4473684874
N -2.7756061125 1.7359326533 0.7892436119
H 0.0219107579 1.7630645658 -0.3488156720
H 0.4761913885 -0.9976147585 -0.5347302600
H 1.5192718320 -0.4874700290 1.5565374688
H 0.4820999261 0.9033988823 1.8254158220
H -0.0737278821 -1.8320743043 2.7793233063
H -1.0483534068 -0.3891145031 3.0037094532
H -1.2365355132 -2.4388233288 0.7798583608
H -3.1921383731 -0.9414035647 2.1198296354
H -1.9054440646 -0.8110791545 -0.8696005645