18

C -0.1446637031 1.4957545328 -0.0144351940
C -0.0452219860 0.0131359831 -0.0308094538
C -0.0060120199 -1.0577086388 -1.0745585275
C 1.2678556196 -1.5902991797 -0.4502145248
N 0.9118386052 -0.8573830629 0.8299099403
C -0.3041913833 -1.6302253881 1.2832280194
C -1.0677030460 -1.1082472494 0.0705073125
C -2.4637281310 -1.0671193677 -0.1810283683
C -3.6534387723 -1.0340137177 -0.3665113201
H 0.7873140586 1.9605944564 -0.3536749232
H -0.9530437575 1.8227959232 -0.6761113394
H -0.3598528662 1.8650598240 0.9938220606
H -0.3260727144 -1.0045057661 -2.1077553097
H 1.4104520119 -2.6698292360 -0.3320169346
H 2.1663050727 -1.1451038406 -0.8860641505
H -0.1462518920 -2.7082142039 1.3977964178
H -0.6832133030 -1.2097765263 2.2175537310
H -4.7012734033 -1.0077218124 -0.5344663857