15

O -0.0710528679 -0.1132985219 -0.0762915503
C -0.0652207720 1.0930567840 -0.0267792562
C 1.2450232350 1.9026770599 0.0255897750
C 2.4482295246 1.0815253743 0.0097541785
N 3.4157483389 0.4519706639 -0.0016975889
C -1.3035604881 1.9152976926 -0.0113090977
C -2.4986612213 1.3832998022 -0.7951070658
C -2.5207731568 1.3221162097 0.6901548780
H 1.2610097130 2.5993235837 -0.8221444593
H 1.2352908519 2.5279224549 0.9273592891
H -1.1737039425 2.9907815598 0.0348930300
H -3.1145451105 2.1163321591 -1.3026595471
H -2.3275387240 0.4577940207 -1.3323178773
H -2.3645335883 0.3553542928 1.1542713853
H -3.1524040022 2.0116232043 1.2377695466