15

F -0.2443769744 0.0986449417 -0.1184116768
C -0.0116591048 1.4101045909 0.0482700633
F 1.3074082480 1.5775132252 0.1904739572
F -0.3861979959 2.0243007789 -1.0886142757
C -0.7738720807 1.9576889541 1.2167611835
C -0.2631670774 3.0525275873 2.0621530000
N -0.3351542891 1.6978181148 2.6407464187
C -1.7903195971 1.4812220072 2.9885662627
C -2.2359908432 1.6333285371 1.5094460239
H 0.7552412522 3.3838005961 1.8930602146
H -0.9515944390 3.8195090498 2.4109094820
H -1.9310115213 0.4789403789 3.3947550887
H -2.1738814581 2.2169745615 3.7015372541
H -2.9663258210 2.4063691429 1.2597356449
H -2.5486933881 0.6864608936 1.0682658189