21

C 0.0972002048 1.4692246325 -0.1114955191
C -0.0970546479 -0.0460027868 0.0461066080
C -1.5890920938 -0.4094962567 0.0337130067
O 0.5424287614 -0.7063883394 -1.0701216922
C 1.5614190207 -1.5856182080 -0.6203756131
C 1.5598438833 -1.4681202196 0.8826262547
C 2.4984963868 -2.2440273301 1.7440348531
O 2.2649127203 -1.9295333516 3.1042845424
C 0.6244843168 -0.6004359639 1.2502776605
H 1.1615610417 1.7180679815 -0.1236482212
H -0.3504221070 1.8098102284 -1.0502050869
H -0.3767502958 2.0120950028 0.7129893443
H -2.0476494013 -0.0821994746 -0.9044441760
H -1.7189920211 -1.4910141641 0.1252381327
H -2.1165113320 0.0747656330 0.8622235907
H 1.3521265301 -2.6143824650 -0.9587819460
H 2.5316201227 -1.2994260436 -1.0602652417
H 2.3607111489 -3.3230939415 1.5502979420
H 3.5376787813 -2.0117282453 1.4491127901
H 2.8817727754 -2.4374716034 3.6386014875
H 0.3912259448 -0.3125732444 2.2662608234