21

C -0.2422874934 1.5068397259 0.1598285045
C -0.3560675300 0.0330765092 0.5079184008
O -1.0775988070 -0.6172695092 -0.5286022037
C -1.2444738944 -1.9825101940 -0.3182231442
C -2.3742137906 -2.4632447519 0.5635461831
C -2.4482192638 -2.6223113277 -0.9415965914
C -3.4217080386 -1.7758347009 -1.7503377159
C -4.7784810032 -2.3142051549 -1.7471894353
C -5.8892795477 -2.7735731223 -1.7402239697
H 0.3145171453 2.0391669202 0.9367189894
H 0.2783006739 1.6381163402 -0.7929600646
H -1.2344323349 1.9591242024 0.0728252491
H 0.6432933958 -0.4208289941 0.6081935843
H -0.8726266229 -0.1055924476 1.4700882395
H -0.3112384338 -2.5485177397 -0.3076358353
H -2.2298204391 -3.3423395345 1.1817435344
H -3.0062229128 -1.6978732077 1.0023684060
H -2.3083579532 -3.6275507399 -1.3273949474
H -3.4196131606 -0.7543291388 -1.3565612391
H -3.0637958866 -1.6972061529 -2.7852825719
H -6.8741090924 -3.1696752018 -1.7363619025