20

O -0.1628893177 0.0223613356 0.1144405514
C -0.0848869612 1.2176737080 0.0125385375
N -1.0250479461 2.2121705401 -0.1403801338
C -0.0883534814 3.3300166148 0.0867699137
C -0.2608141249 4.0459466526 1.4437983888
C 1.0471940905 4.1616333840 2.2410824634
C 1.6922613537 2.7825313187 2.4254047768
C 2.1450967859 2.2090238462 1.0754245933
C 1.0603339364 2.2608712746 0.0010036089
H -2.0285559503 2.1730165623 -0.0250301857
H -0.0854983591 4.0494632684 -0.7378680330
H -0.7060538635 5.0347013346 1.2896538011
H -0.9762230891 3.4723888625 2.0454526234
H 1.7505818237 4.8281535580 1.7228507303
H 0.8382502326 4.6240221172 3.2117644130
H 2.5536015397 2.8475192032 3.0985741545
H 0.9716045889 2.1055769391 2.9034762782
H 3.0133578185 2.7833797749 0.7288950466
H 2.4806883139 1.1714442487 1.1830308059
H 1.5154234296 2.2643300965 -0.9940791442