21

C -0.1263460218 1.5871678022 -0.0274949086
C 0.0359501522 0.0766955066 -0.1402609684
C 0.7888343926 -0.5112402928 -1.3409255311
C 2.2407143766 -0.1224278700 -1.3165762901
C 1.7788234426 -1.2297242687 -0.4111366090
C 2.3270470243 -2.6188601142 -0.4735908726
O 1.3119507048 -3.5282693952 -0.0556867491
C 1.0755343749 -0.6434417377 0.8075016914
O 1.9242937838 0.1567524212 1.6092332082
H 0.8350764113 2.1041235422 -0.0790386100
H -0.7628258296 1.9711210394 -0.8320308856
H -0.5973182422 1.8617056155 0.9238665579
H -0.9397516798 -0.4082278892 -0.0331825402
H 0.3232848739 -0.9060679292 -2.2363563221
H 2.8162748174 -0.4490787959 -2.1776327976
H 2.5709633873 0.8209971482 -0.8947194287
H 2.6584621777 -2.8388358570 -1.5015598649
H 3.2120080496 -2.6969388346 0.1786056248
H 1.7215251404 -4.3867916318 0.0852568453
H 0.5965056785 -1.4299561249 1.4008915939
H 1.4221697555 0.4536812657 2.3746238563