16

C -0.1128121817 1.5266902833 0.0238019831
C 0.1041302783 0.0516359826 0.0219796626
O -0.8288089632 -0.8158735157 0.6617997763
C 0.5484218299 -0.9192788413 1.0255622909
C 1.2976099460 -1.7540417717 -0.0591894243
N 0.3293579315 -2.1342284366 -1.1221474084
C 0.8295386000 -0.7726619399 -1.1151411752
C 2.6468513621 -2.2977072415 0.0385513448
O 3.3076974396 -2.3067262138 1.0521258808
H 0.8093325797 2.0546124415 -0.2402436240
H -0.8840792098 1.8064464987 -0.7024477597
H -0.4349404941 1.8584038793 1.0139131661
H 0.8329362850 -0.8221653952 2.0648896768
H 0.8418859427 -2.6578129258 -1.8345139503
H 1.4119164438 -0.3544026598 -1.9272638641
H 3.0436840701 -2.6999909742 -0.9241849954