18

O 0.2342826914 1.4020562933 0.0030509607
C 0.0081159238 0.0160579300 0.0161693164
C -1.3575858552 -0.3807816389 0.6005872589
O -0.7389811130 -1.3193548317 1.5076864127
C 0.5874298653 -0.8655153191 1.1670817823
C 1.5130989687 -1.9383380420 0.5654127467
C 1.3361519573 -1.8303395360 -0.9445400889
N -0.0469322207 -2.0684265568 -1.3903369096
C 0.4416127324 -0.6810384533 -1.2691963986
H 1.1303021255 1.5629705072 -0.3129030285
H -1.8419481171 0.4479235770 1.1308517869
H -2.0596600945 -0.8716110020 -0.0784159530
H 1.0448871181 -0.3181733407 2.0004405432
H 2.5559495944 -1.7339173756 0.8328596035
H 1.2518248313 -2.9303905422 0.9450436796
H 2.1508479384 -2.1206823773 -1.6013732777
H -0.0497903376 -2.3368580212 -2.3713252995
H 0.5516467415 -0.0760058810 -2.1647776052