16

C -0.1876231811 1.5449077990 -0.0281939266
N 0.1768051136 0.1277790262 0.0623434242
C 1.3941267482 -0.5170944615 -0.3004902476
C 2.6986623313 0.1902563868 0.2316525692
O 2.3273114988 1.4026058879 0.9004362720
C 2.1965285538 0.1657821421 1.5968091454
C 0.8566236920 -0.5563087532 1.1274347532
C 0.2538502595 -1.6008540933 1.8832820210
C -0.2148946642 -2.4720676052 2.5685623400
H 0.4750548926 2.0832283602 -0.7087181514
H -1.2140684041 1.6106415119 -0.4063764420
H -0.1402063932 2.0335212020 0.9468726593
H 1.3996428389 -1.3091469603 -1.0420634708
H 3.7029440439 0.1063387789 -0.1632959880
H 2.6922996413 0.0421875649 2.5513790427
H -0.6426208313 -3.2446816963 3.1580521095