17

O 0.2221543340 1.4204209251 -0.0075411697
C 0.0932030838 0.0098116513 -0.0521279892
C -1.3900899382 -0.4399491640 -0.0015572941
C -2.1212128015 0.1222104728 -1.2038298726
O -2.8548389945 -0.5146450923 -1.9222683581
C -1.5057136919 -1.9799273393 0.1199405264
O -0.6651632526 -2.4588344102 1.1368467525
C -2.9366874859 -2.4188719786 0.4011410346
O -3.1995559592 -3.0299169963 1.4111469605
H 0.0980776245 1.7044928748 0.9035297947
H 0.5436440538 -0.3091942402 -0.9988149595
H 0.6342997688 -0.4865610164 0.7585856948
H -1.8275371984 0.0250519949 0.8963115175
H -1.9100017440 1.1927656896 -1.3985687028
H -1.2241176455 -2.4163268709 -0.8535144188
H -1.2555179355 -2.9207431953 1.7560544713
H -3.6968337578 -2.1565118550 -0.3514332375