20

C -0.1759401665 1.4516144540 0.0416213804
C 0.0089202627 -0.0606145353 0.0557832356
C 1.1604150250 -0.5861886785 -0.8474902760
N 1.9886676656 -1.0308363568 0.3322569215
C 0.8249416868 -0.6038364486 1.2314850709
C 1.1759491329 -2.0158855967 1.0426432084
C 0.3828374690 -3.2072025649 0.5067482862
O 0.9322128311 -4.0517561677 1.5405868898
C 1.7677306805 -2.9888390276 2.0544860114
H 0.7793450689 1.9659376523 0.1935639702
H -0.5907354792 1.7852878081 -0.9154327435
H -0.8606142230 1.7741075038 0.8334713205
H -0.9602544651 -0.5543023207 -0.0826018627
H 0.9262347301 -1.3927196164 -1.5504161292
H 1.6833301630 0.2080956924 -1.3850692024
H 0.9925722002 -0.0847950154 2.1721882631
H -0.7108565170 -3.1389494458 0.5656844837
H 0.6699438738 -3.5481473108 -0.4971669136
H 2.8364941869 -3.1921566548 1.9165779711
H 1.5643590043 -2.7817119608 3.1121754848