21

C -0.2202346951 1.5486206864 -0.1007434684
N 0.0953555974 0.1322493313 0.0635642597
C 0.7538249067 -0.4708937841 -1.0906168005
C 1.2392060499 -1.9023102497 -0.7787701027
C 2.3730452056 -1.9501472895 0.2499794091
C 2.9213954698 -3.3603913542 0.4376561715
O 3.9385114969 -3.2967480699 1.4234054481
C -0.1883868770 -0.5087239874 -2.2256700549
N -0.9068040838 -0.5440856625 -3.1298224491
H 0.6506995378 2.1743846587 -0.3632393931
H -0.9688299855 1.6675855297 -0.8899511618
H -0.6504793031 1.9284044432 0.8293933771
H 0.6964293688 0.0092849957 0.8698537543
H 1.6244719773 0.1204668660 -1.4383176015
H 0.3792133560 -2.4859226067 -0.4330157030
H 1.5785439170 -2.3538635900 -1.7175333346
H 3.1971456998 -1.2957735320 -0.0602677458
H 2.0378711601 -1.5958154483 1.2320138863
H 2.1068987521 -4.0369799529 0.7436838157
H 3.3136381712 -3.7359289482 -0.5215101675
H 4.2901320982 -4.1822403456 1.5533220712