22

C -0.5243742421 0.5890267110 -1.8654491667
N 0.0663748981 -0.3303995421 -0.9014434079
C 1.5208327987 -0.4556028318 -0.7979701464
C 2.4828151773 0.3211638951 -1.6686876782
O 2.4919470777 -0.1467371508 -3.0131040134
C 0.7223374387 0.1675886437 0.3085743298
C 0.8073377262 1.6163546682 0.6791295707
C -0.1352179607 2.1580278612 1.7304988816
C 1.3258689735 1.9854958121 2.0502147240
H -0.0459729127 1.5748226814 -1.9424299843
H -0.4868077012 0.1253691777 -2.8547280944
H -1.5729449695 0.7484288141 -1.5949026828
H 1.8440080877 -1.4906981919 -0.6546173964
H 2.2202772949 1.3786432355 -1.7340428180
H 3.4883938005 0.2667283553 -1.2211921591
H 2.6646869011 -1.0939683532 -2.9922391721
H 0.5249823323 -0.4616509529 1.1790723713
H 1.0634256187 2.3069905127 -0.1153480901
H -0.5230996320 3.1623307426 1.6025597841
H -0.8372310232 1.4631542157 2.1795893160
H 1.6068995837 1.1764944084 2.7166564453
H 1.9459819226 2.8700919979 2.1411483870