17

O -1.1061516652 1.7216583794 0.0923561671
C -0.4616122967 0.4641923336 -0.0656696248
C -1.5360036368 -0.5998532097 0.0985190471
N -2.5921588467 -0.4001512954 -0.8784916999
C -3.1262673096 -1.4146004134 -1.5916017946
O -2.8059270380 -2.5832352835 -1.4921355318
C -4.2359549102 -1.0309747163 -2.6006549465
C -4.5096413191 0.3924345785 -2.7430202469
N -4.6918281692 1.5313693336 -2.8236185796
H -0.5054476586 2.4179746225 -0.1873127079
H -0.0001548299 0.3738768343 -1.0597867712
H 0.3216655798 0.3124133440 0.6919366884
H -1.1278193572 -1.6013131498 -0.0498546147
H -1.9448141395 -0.5431077645 1.1155117404
H -2.9000034705 0.5507448249 -1.0226476038
H -3.9469882999 -1.4538070389 -3.5673924817
H -5.1466508927 -1.5535428194 -2.2908812195