19

C 0.0203459715 1.5390651297 0.0315670940
C -0.0432714208 0.0384338794 0.1290620802
C -1.3356792900 -0.7017102581 -0.2386847843
C -1.3291979117 -2.0073006537 0.5667720021
C -2.6279604689 -2.6740324303 0.9330108663
O -0.2506231588 -2.8872949064 0.2235343379
C -0.0901058788 -2.0508498863 1.3713974185
C 0.7044578302 -0.7868065383 1.1009400775
O 1.1474830510 -0.6630971455 -0.2523599080
H 0.9962673131 1.8995914912 0.3661668075
H -0.1242280163 1.8661960182 -1.0042219987
H -0.7581231081 2.0078045190 0.6427518007
H -2.2034197802 -0.0954934315 0.0453116733
H -1.3989349434 -0.8922284019 -1.3149499927
H -3.1720243863 -2.9824395989 0.0332026961
H -2.4393658993 -3.5660350801 1.5356069579
H -3.2743629466 -1.9951906411 1.4992397668
H -0.0075556144 -2.5585505215 2.3290549846
H 1.3634754279 -0.3774259538 1.8623767302