17

O -0.0185279360 0.2839881841 -0.8747755935
C -0.0115758291 1.3016213010 -0.2411247362
C -1.0888534351 2.1299546118 0.5064057148
C -0.0223382272 3.2368148754 0.6619015270
C -0.1832313010 4.6926070286 0.4794012848
N 0.2140500126 4.1267306301 1.7899956320
C 1.0428014106 2.3330566804 0.0696949664
C 2.4258362441 2.0430877926 0.5444265230
N 2.1992062632 2.7149558761 -0.7344017160
H -1.9767473231 2.3717802903 -0.0836786217
H -1.4003882613 1.6593137016 1.4452506496
H 0.5966051912 5.2538684714 -0.0266174179
H -1.1893033842 5.0880108264 0.3637156163
H -0.5836903275 4.1160988121 2.4215800263
H 2.8257307868 2.6768216351 1.3301837107
H 2.7489661363 1.0053707667 0.5508901303
H 2.2970049697 2.0544250962 -1.5048743460