19

C 0.1581942291 1.2441159469 0.7575276180
C 0.0153078593 -0.0974094189 0.0268942789
C -1.3792273071 -0.6992686874 0.1217912873
C -2.4871198041 0.0749351286 -0.5807144718
C -3.8887696392 -0.5300062699 -0.4716988342
C -1.5003116278 -2.1426459593 0.3827388168
O -1.7056018591 -1.1929775654 1.4338477642
H 1.1983920844 1.5826499225 0.7411283524
H -0.4495364699 2.0303737609 0.2996727224
H -0.1493089147 1.1424505770 1.8026173319
H 0.2812146072 0.0190683219 -1.0317043346
H 0.7263467727 -0.8129141268 0.4534823555
H -2.5044869210 1.0879287152 -0.1605481331
H -2.2047476995 0.1918740244 -1.6351849342
H -4.6376442510 0.1708347004 -0.8513486392
H -3.9820587789 -1.4535537370 -1.0513724258
H -4.1270905886 -0.7546668405 0.5714167814
H -2.3875296360 -2.6920030561 0.0752899926
H -0.5971541858 -2.7463781364 0.4697802416