16

N 0.1320170851 1.3590908760 0.2240723021
C 0.0094897815 0.0108679399 0.0906489600
C -1.0958338429 -0.7642059673 0.1507835464
C -2.5212697192 -0.3605836174 0.3302175413
O -2.6880314295 0.9702700275 -0.1725135390
C -0.6909348707 -2.1585075260 -0.0020101965
O -1.3574490896 -3.1584648361 -0.0197440255
O 0.6902526721 -2.2045456039 -0.1438246433
C 1.2076752248 -0.8856010218 -0.0999993464
H 0.9546619989 1.8001282531 -0.1557566330
H -0.7323407373 1.8726875333 0.1172376992
H -3.1638579162 -1.0743393146 -0.2038431115
H -2.8075316399 -0.4038770216 1.3937130499
H -3.5736449193 1.2652165685 0.0577016711
H 1.7409295017 -0.6684717707 -1.0355049750
H 1.9211552605 -0.7931074988 0.7289498000