21

C -0.0097441606 1.5621544834 0.0040827210
C 0.0601411378 0.0229728671 -0.0371966415
C 0.7616062391 -0.4389821130 -1.2348409439
C 1.3353967332 -0.8086176651 -2.2251946999
C 0.7017578745 -0.5348164478 1.2555345965
C 0.7834012022 -2.0710927256 1.3363749725
C 2.1295108281 -2.3050957960 2.0390874012
C 2.9533689774 -1.1311581424 1.5064464329
O 2.0373174297 -0.0436499878 1.3947529697
H 0.9956872099 1.9774456236 0.0980775627
H -0.4702005171 1.9560698901 -0.9051832759
H -0.6030661715 1.8894991586 0.8639687276
H -0.9666745236 -0.3702128943 -0.0707015449
H 1.8394188869 -1.1311877369 -3.1022803600
H 0.1136907842 -0.1381238281 2.0969808078
H -0.0670520183 -2.5000100268 1.8715494591
H 0.8032711198 -2.4984419802 0.3290399437
H 2.0194665012 -2.2281404556 3.1259851890
H 2.5730199936 -3.2771081322 1.8092588330
H 3.7644627816 -0.8233111378 2.1737470684
H 3.3834656216 -1.3665309433 0.5220392410