18

C -0.0426126861 1.4504895762 0.0371198480
C -0.0418074417 -0.0449163180 0.0492749985
C 0.4121951890 -1.0511192337 -1.0050182783
C 1.1520703984 -0.9571973628 0.3006476712
N 0.5484575636 -2.1956057416 0.8971841917
C -0.5068924812 -1.6760841294 1.8413654357
C -1.1396174396 -0.9871427310 0.6123722375
O -2.4294657410 -0.4935994164 0.5159612190
C -0.4527078692 -2.0977392386 -0.2726750243
H 0.8475374768 1.8367674117 -0.4710835306
H -0.9230948804 1.8400254897 -0.4844475226
H -0.0485733753 1.8594481293 1.0542506673
H 0.7447062419 -0.9306514163 -2.0267704300
H 2.1579981687 -0.6245621489 0.5258887458
H -1.0988009410 -2.5165605907 2.2217153874
H -0.1378953682 -1.0676247056 2.6728642081
H -3.0428956594 -1.1719425866 0.8177126815
H -0.9064375452 -3.0114001173 -0.6537720658