19

C -0.0429995160 1.5159465308 0.0221103802
C 1.2619220656 0.7394738655 -0.0064848302
C -0.0497049215 0.0186751448 0.0201951246
C -0.4909253248 -0.9444348628 1.0976685406
C -1.8679402223 -1.4816793170 0.7348252113
O -2.6991903374 -0.7290477238 -0.1205643487
C -2.0277159678 -0.6458077455 -1.3855908944
C -0.5650752063 -0.9551791479 -1.0649313899
C -0.6826944427 -2.0476420957 0.0414930757
H -0.3140410936 2.0298317582 0.9386022722
H -0.3418472875 2.0365152790 -0.8827384437
H 1.8331560173 0.7371982646 -0.9298697453
H 1.8719457944 0.7310530382 0.8915427629
H -0.0831927625 -1.0223748027 2.1000694949
H -2.4154813322 -2.0440332499 1.4819311139
H -2.4522883396 -1.3756070707 -2.0923712414
H -2.1774656382 0.3624551887 -1.7848482885
H 0.0765410943 -1.1356321004 -1.9273492364
H -0.3602075693 -3.0791190034 0.0056683321