19

C -0.0349398883 1.4410065184 0.0399603107
C 0.0198456056 -0.0751633049 -0.0266203538
O 0.6928608258 -0.4456115946 -1.2156152342
C 0.8010284297 -1.8231135065 -1.3799829530
C 1.5359759845 -2.1478379507 -2.6762172496
O 1.9548218733 -1.3058484903 -3.4349431542
C 1.6873207988 -3.5708906777 -2.9167585398
C 1.8140370828 -4.7541013186 -3.1184960764
C 1.9732876819 -6.1753772074 -3.3733204427
H 0.9748319104 1.8603279605 0.0433806094
H -0.5692337078 1.8426452274 -0.8253148644
H -0.5504431644 1.7630430558 0.9496798660
H 0.5480031491 -0.4846413069 0.8513338304
H -0.9974671295 -0.5022772666 -0.0178912711
H 1.3513786678 -2.3035165984 -0.5494553561
H -0.1861147248 -2.3207614133 -1.4168611337
H 2.5034368241 -6.3532322562 -4.3144603806
H 2.5406860880 -6.6545123172 -2.5680689349
H 0.9988858331 -6.6722620129 -3.4331670419