14

C -0.0123162938 1.3837709045 0.0087439447
O 0.0329658801 -0.0479549345 -0.0519846856
C 0.6391865018 -0.5828706285 -1.1154318370
N 1.1542690753 0.1511272615 -2.0349677469
O 1.7561674439 -0.5463135591 -3.0884498087
C 1.7988657850 -1.9394143677 -3.1417882130
N 2.3584897544 -2.5164195088 -4.1180113943
N 1.2196042477 -2.6820999914 -2.1111832881
C 0.6714716757 -2.0398830423 -1.1533002538
H 0.9995476235 1.7984516398 0.0209972490
H -0.5482006279 1.7866690104 -0.8552464535
H -0.5375974055 1.6201149277 0.9333925807
H 2.7258424100 -1.8264976894 -4.7744524451
H 0.2098043198 -2.5870424520 -0.3324187186