15

O -0.0299993104 0.0585071134 0.4485832455
C -0.0218823501 1.1925595196 0.0471126503
O -1.1996169993 1.8319011961 -0.1858766724
C -1.2019365973 3.0474801450 -0.9410988710
C -0.0665927276 3.9831756429 -0.5985869043
C -0.1188995832 5.3764945917 -1.0690458827
O -0.3469332029 5.0748840454 0.3028223646
C 1.2169877672 3.2902326869 -0.3694942630
C 1.2243834294 1.9766798759 -0.1283902160
H -1.1503258850 2.7944312269 -2.0087296802
H -2.1612327769 3.5280590143 -0.7392417174
H 0.8077855872 5.9035685299 -1.2932207981
H -0.9906318328 5.7152188296 -1.6290443951
H 2.1301407217 3.8780446566 -0.3759098738
H 2.1349402900 1.4173777957 0.0497496637