18

O -0.2165113076 1.5290706298 -0.9095093695
C 0.0551877223 0.4354493813 -0.0461371467
C -1.2175453255 -0.3340358437 0.2291902683
N -1.6678622129 -1.2108856016 -0.8465408917
C -1.2803899604 -1.8243326342 0.4394425020
C -0.0705550694 -2.7013117714 0.4575733781
O 0.8585028155 -2.6070627793 -0.3175957864
C -0.0259645546 -3.7691455060 1.5426060933
O 1.1674161069 -4.4857165190 1.5018303850
H -0.4723470071 1.1497567369 -1.7577619153
H 0.8133245514 -0.2355567372 -0.4621741331
H 0.4410646911 0.8658822887 0.8838340894
H -1.9773249027 0.2353421385 0.7635568455
H -2.6814127132 -1.2072535668 -0.9257133169
H -2.0782336041 -2.1654497235 1.0968575027
H -0.1681596102 -3.2771840279 2.5202608604
H -0.9019472303 -4.4278142254 1.4034916971
H 1.6511609009 -4.1232966593 0.7413149678