19

C 0.1633820511 1.5334494623 -0.5263263499
C -0.1625988479 0.1165850323 -0.0416317664
C -0.1650674038 0.0137428160 1.4874678104
N -1.4483135426 -0.3250834502 -0.5846096786
C -1.5767762826 -1.3890970808 -1.4086850732
O -0.6656500364 -2.0955945242 -1.7934006674
C -3.0150245730 -1.7130021974 -1.8876236267
C -4.0654096161 -0.8331366621 -1.3946806353
N -4.8554496436 -0.1022169572 -0.9716864735
H 1.1403981896 1.8506565376 -0.1495551113
H 0.1846940319 1.5776521767 -1.6185291664
H -0.5816734418 2.2538303699 -0.1686119622
H 0.5697982416 -0.5837952407 -0.4507240797
H -0.9233164101 0.6731926050 1.9258728433
H -0.3744585554 -1.0097013189 1.8100035270
H 0.8074473456 0.3102297657 1.8917545133
H -2.2757790511 0.1937606113 -0.3279174516
H -2.9987811924 -1.6972323634 -2.9816827150
H -3.2251747531 -2.7456439019 -1.5927003066