22

C 0.1079281499 1.3542760809 -0.0391338680
O -0.0269940235 -0.0497775715 -0.0310898168
C -1.3549683396 -0.5647803954 0.0343794392
C -2.0778387132 -0.1218204906 1.3141308231
C -2.1906037841 -0.2592062376 -1.2426664524
C -3.0024023047 -1.5506007009 -1.4800942644
N -2.2678831009 -2.6785872954 -0.8713236918
C -0.8520416013 -2.7314489994 -1.2637268734
C -1.2458295698 -2.0878292265 0.0117102851
H 1.1675017804 1.5643390899 -0.2067543878
H -0.4713607301 1.8259320479 -0.8463366753
H -0.1875300663 1.8156254881 0.9135082984
H -2.2631331816 0.9559433778 1.3253428010
H -3.0463504680 -0.6253184190 1.3928410636
H -1.4849169001 -0.3820510820 2.1964288778
H -2.8362876598 0.6150379817 -1.1294166028
H -1.5065280003 -0.0567507096 -2.0714471906
H -3.9765098885 -1.4934225675 -0.9817994510
H -3.1897299988 -1.7496000669 -2.5401388740
H -0.4196076718 -3.7273323939 -1.2495633084
H -0.4983748384 -2.0979437245 -2.0724170199
H -1.0651967391 -2.5896596659 0.9583302987