21

C -0.1937506889 1.5449047384 0.0765214245
C 0.0216664272 0.0302339524 -0.0375014635
C 0.7859317419 -0.3698313214 -1.3264509745
C 2.3130058939 -0.2060176962 -1.1838570139
C 2.7539149281 -0.7100658762 0.1925140071
O 2.3355054024 -2.0591333910 0.3932835820
C 1.1032888149 -2.0078846733 1.1157476175
C 0.7866011055 -0.5031815370 1.1886252705
O 2.1114558172 0.0460224619 1.1992575761
H 0.7609952016 2.0746103135 0.1335980198
H -0.7479096417 1.9257426218 -0.7871284279
H -0.7645142021 1.7955797916 0.9774715421
H -0.9628206611 -0.4564132716 -0.0550436392
H 0.5752036791 -1.4193996050 -1.5555107307
H 0.4159793183 0.2124327088 -2.1767137318
H 2.8317739370 -0.7640619319 -1.9700540202
H 2.6179147211 0.8428932179 -1.2709405542
H 3.8351702074 -0.6468411055 0.3475106521
H 0.3351810581 -2.5843313441 0.5882623562
H 1.2454466506 -2.4363843832 2.1153944591
H 0.2990584796 -0.2141749900 2.1231351187