14

O -0.6168577733 1.0081631216 0.1580164796
C 0.0833999107 -0.1878839723 -0.1276513448
C 1.0832221380 0.0192781238 -1.2053523730
N 1.8545506357 0.2079856333 -2.0439102442
C 0.7243623465 -0.7903503969 1.0439096261
C 1.2345900161 -1.2644855247 2.0258150402
C 1.8735788868 -1.8408082689 3.1779069151
C 1.3490990747 -1.6182828278 4.5414526862
O 1.1566819303 -2.8627666354 3.8851195237
H 0.0000679213 1.6220248555 0.5745554498
H -0.6768278059 -0.8766842607 -0.5167182752
H 2.9385781811 -2.0397471787 3.0670016175
H 2.0461595529 -1.6246376833 5.3780004573
H 0.4558375650 -1.0104762456 4.6700907817