20

O 0.5875301480 -0.1598747183 1.3942011139
C -0.0170280036 0.2360870980 0.1731833466
C -1.3876883541 -0.4222042764 -0.0400507365
C -2.0907090178 -0.0657254376 -1.3856748219
C -2.0894263672 -1.3827051202 -2.1768807781
C -0.6420751464 -1.8867070665 -2.3686229549
N -0.7113350990 -2.7413724353 -1.1305058216
C -2.2033230357 -2.5076981829 -1.1136920024
C -1.3682556350 -1.9498414827 -0.0380858173
H 0.8538535822 -1.0802106209 1.3008546043
H -0.1421505048 1.3224773520 0.2385865933
H 0.6492391388 0.0389680238 -0.6787959965
H -2.0110005468 -0.1103947522 0.8064106826
H -3.1145162233 0.2773133990 -1.2045978520
H -1.5718301553 0.7308572468 -1.9319010001
H -2.7464070701 -1.3995833528 -3.0462505526
H -0.5312990151 -2.5584974218 -3.2236894056
H 0.1650141372 -1.1464978822 -2.3941998472
H -2.9258531157 -3.3119167320 -1.0390775047
H -1.2951248662 -2.4702486080 0.9113987206