21

C -0.0200547366 1.5444281737 0.0711890305
C 0.0159570774 0.0433781896 -0.0185756226
C 0.0603947666 -0.5963996953 -1.1910805588
C 0.0653945342 -2.1004444364 -1.3595593780
C -0.2575725787 -2.8263194161 -0.0365949574
C 0.4541758525 -2.1638223625 1.1459979478
C 0.0142228063 -0.7034704003 1.2964231075
C -0.9691351669 -2.4849008674 -2.4056132249
O -0.7358489313 -3.0503116459 -3.4417360856
H 0.8541577811 1.9290018635 0.6120181474
H -0.0449818016 2.0118583105 -0.9165493592
H -0.9023596526 1.8816381601 0.6308484093
H 0.0937821113 -0.0147077726 -2.1106396846
H 1.0358103286 -2.4329461162 -1.7504900443
H -1.3427401950 -2.7948443831 0.1361511276
H 0.0176527870 -3.8823302836 -0.1207625063
H 0.2524124135 -2.7179689484 2.0686801388
H 1.5384692752 -2.2019775800 0.9834960540
H 0.6668619301 -0.1828532443 2.0091990054
H -0.9929515372 -0.6534882568 1.7375075864
H -2.0097792341 -2.1890767784 -2.1301219532