16

C -0.2537155260 0.9612549953 0.2464545264
C 1.0224251794 1.2078761836 -0.5792230174
C 1.7333234368 0.4336400737 0.5646913902
O 0.4619682793 0.1238768966 1.1835160567
C 2.4989896949 -0.7981537933 0.2325858642
C 2.0630901200 -2.1020081060 0.2160306515
N 3.1607004679 -2.8005606386 -0.1575394808
N 4.2177070982 -1.9936435325 -0.3635518564
N 3.8170069556 -0.7785037163 -0.1231102768
H -0.6680304167 1.8515040990 0.7359262097
H -1.0667591228 0.4174126958 -0.2471561631
H 1.0502931472 0.6915342310 -1.5393832505
H 1.3277446282 2.2457422712 -0.7134343172
H 2.3442740648 1.0853166393 1.2028124255
H 1.1156567764 -2.5558551830 0.4465012361
H 3.2709000668 -3.7950271359 -0.2753361381