16

O -0.0975813697 0.0175150923 -0.2287595948
C -0.0793368719 1.1987702540 -0.0783765778
C -1.1527748613 2.3081919872 0.0262232447
C -2.2042589698 2.2288455117 1.1000965696
C -2.7183213189 0.9353720153 1.5718711562
O -1.7958335400 1.6959078460 2.3628238578
C 0.0494857346 3.2517526420 0.1713146969
C 0.9472294790 2.8293609598 1.2538776841
N 1.0482749664 2.1087589452 -0.0602247976
H -1.6334289016 2.4279388204 -0.9520249054
H -2.8542480185 3.1015540766 1.1794194165
H -3.7286972681 0.8763119279 1.9717019323
H -2.3145295780 0.0203836380 1.1452637909
H 0.1759496793 4.1791657882 -0.3734430630
H 1.8305498334 3.4277619330 1.4490298367
H 0.5483716252 2.2913698524 2.1070566828