23

C -0.0959777538 1.5425601806 0.2064423078
C 0.0272177964 0.0225630257 0.0367612180
C 0.8678623753 -0.5881081645 1.1653454017
C -1.3429620003 -0.6781645961 -0.0585704406
C -2.1769131565 -0.2439314830 -1.2511645850
C -3.5953861486 -0.6731020652 -1.4149145286
N -3.2732834802 0.7345531532 -1.2135124120
C -3.6957625454 1.3303788058 0.0438410217
H 0.8919230949 2.0147887364 0.2233209238
H -0.6698023137 1.9948639970 -0.6077263368
H -0.5962667119 1.7920518440 1.1499090701
H 0.5517768431 -0.1653656197 -0.9118423040
H 0.3908505849 -0.4275340379 2.1399181845
H 0.9951137913 -1.6677752084 1.0320991536
H 1.8638943980 -0.1352390588 1.2074208415
H -1.1705491304 -1.7596524902 -0.1428520346
H -1.8963238463 -0.5370998266 0.8777351258
H -1.5888547754 -0.1503440318 -2.1653141015
H -3.9927601204 -0.9475575555 -2.3893057388
H -4.0425505505 -1.2109231469 -0.5779430149
H -3.6951267307 0.6435736575 0.9055531860
H -3.0527286055 2.1823753870 0.2838820448
H -4.7183068444 1.7023511672 -0.0796751828