14

N 0.0011737003 1.2711189590 0.2124085582
C 0.0284689354 0.0181412112 0.1334780705
O 1.1694438945 -0.7268423957 -0.0361778279
C 0.9297159400 -2.1282651280 0.0531519955
C -0.5643477991 -2.3016527979 0.3138971930
O -1.1191920043 -3.3294333649 0.5689783691
C -1.1895120992 -0.8979233872 0.1668705349
C -2.2043858660 -0.5778767736 1.1485617049
C -3.0478926573 -0.3469749216 1.9698102913
H 0.9443106576 1.6595104201 0.1550517629
H 1.2193776490 -2.6203272950 -0.8826872830
H 1.5156483167 -2.5610524154 0.8709726425
H -1.6315208377 -0.8807194182 -0.8427269301
H -3.7913935600 -0.1271917927 2.6955957481