21

C 0.0590463138 1.3701187647 -0.4170465267
C -0.0340420193 -0.0544554700 0.1643900771
C 0.6536758545 -0.2042910318 1.5487672997
C 2.1525786465 0.0145536709 1.5078707639
C 3.0444995903 -0.6488069277 2.5031459452
N 3.1199079476 -1.0075209741 1.0932452359
C 2.6783762705 -2.3414382337 0.7132428698
C -1.4384282632 -0.4658655246 0.2681518699
N -2.5451736764 -0.7856126491 0.3636719620
H 1.1035533883 1.6484514021 -0.5737097694
H -0.4578366575 1.4316387154 -1.3775937715
H -0.3971112427 2.0957896601 0.2626810799
H 0.4472882189 -0.7485128172 -0.5356231927
H 0.2103906476 0.5249379404 2.2379540987
H 0.4184525027 -1.1905135239 1.9566083331
H 2.4449432701 1.0095929662 1.1757166553
H 3.9050126556 -0.1290082819 2.9166817216
H 2.5753810788 -1.3592817059 3.1844109674
H 1.8317943561 -2.7366345970 1.2959557982
H 2.4022493616 -2.3486577048 -0.3465847931
H 3.5183997263 -3.0311356681 0.8422676656