16

O -0.3104792693 1.3148807931 0.0947997029
C 0.0528100988 -0.0467339903 -0.0324128337
C 0.7562253485 -0.2977786768 -1.3104131213
N 1.3355151481 -0.4715454639 -2.2949200055
C 0.8841962007 -0.5466841657 1.1190871424
C 2.3266748559 -0.1681826255 1.5098935480
C 2.4697473650 -1.5967962710 2.1459145668
C 1.0244852314 -1.8861177521 1.7193976507
O 0.1939980269 -0.8818159715 2.3213024930
H 0.4936002109 1.8474206695 0.0859085408
H -0.8889059275 -0.6049684781 -0.0367323717
H 2.9857936495 -0.0280245340 0.6503203584
H 2.4087197023 0.6838663832 2.1877564274
H 3.2041484920 -2.2134285907 1.6239981630
H 2.6472694558 -1.6421369552 3.2221671806
H 0.5525543908 -2.8289580909 1.4678105783