18

C -0.3662465616 1.4160169256 -0.1206433056
N -0.0084569181 0.0108288016 0.0748265271
C 1.2845103349 -0.5183020756 -0.3362157486
C 2.4161922199 0.2940252308 -0.8594436469
O 2.6169989830 1.4700266467 -0.6554648492
C 0.8745545889 -0.3954767983 1.1475622690
C 1.5461217189 0.5601231553 2.1047132868
C 0.4568908061 -1.7202062337 1.7343778133
O 0.7874507660 -2.1159378600 2.8213004763
H 0.4663960103 2.1178607237 -0.0323244120
H -0.8010177888 1.5139687883 -1.1193742605
H -1.1401742550 1.6668527632 0.6102742004
H 1.2323699788 -1.5065191276 -0.7934277344
H 3.1049776113 -0.2949569693 -1.5040349617
H 2.0857767766 1.3528673138 1.5889359083
H 0.7957900752 1.0123519646 2.7616940174
H 2.2360185104 -0.0001902928 2.7395676350
H -0.2006476969 -2.3084190163 1.0576195553