18

C -0.4985837122 1.3585446163 -0.0207687744
C 0.0779536804 -0.0524817421 0.0272969873
C 0.9473767058 -0.5238786721 -1.1769535232
N 1.9226309126 -1.4841210421 -0.6646716064
C 2.1464176045 -1.2200425616 0.7530135006
C 1.0296273679 -0.2773556891 1.2144558635
O 0.9183405153 0.2245797716 2.3008344128
C 0.0800609927 -1.1393719397 -2.2489051416
O 0.0212910031 -2.3258846282 -2.4572453690
H 0.2817710297 2.0914457800 -0.2508302060
H -1.2847624714 1.4504845952 -0.7754846990
H -0.9204859330 1.6159480644 0.9542268169
H -0.7338574265 -0.7823868127 0.1716715083
H 1.4485643184 0.3566446955 -1.6103347072
H 1.5700111901 -2.4191680571 -0.8375924062
H 2.1499496513 -2.1326538610 1.3579391518
H 3.1085200123 -0.7192805986 0.9321303918
H -0.5397315609 -0.4200225288 -2.8251379198