20

C -0.0979297644 1.5666188135 0.0748568044
C 0.0777847897 0.0469379862 0.0122982291
C 0.8852966919 -0.4401386993 -1.2460066371
C 1.4866972069 -1.7601317007 -0.7482984817
C 2.9471041555 -2.2932833044 -0.7600824965
N 3.8304860510 -1.2838022238 -0.1445947342
C 3.0074047245 -2.1848237683 0.7380799510
C 1.6670192670 -1.4977929395 0.7308188046
C 0.8976081546 -0.5167760306 1.1836580453
H 0.8739545958 2.0698164000 0.1235511661
H -0.6247636749 1.9359044840 -0.8115898681
H -0.6771051011 1.8665831117 0.9549448275
H -0.9246265395 -0.4099154129 -0.0054015654
H 0.2594253047 -0.5236172147 -2.1398728591
H 1.6865774345 0.2799623103 -1.4458605423
H 0.8165640816 -2.6141300990 -0.9184992335
H 3.3520861172 -3.0630757455 -1.4060409125
H 4.7731051997 -1.6776113287 -0.1542467184
H 3.4880106139 -2.8152637481 1.4747266848
H 0.8706686912 -0.0838570403 2.1774560762