15

O -0.0580876023 0.0914422616 -0.7220028132
C -0.0693665725 1.1844161414 -0.2137140018
C 1.1336347792 2.0530578064 -0.1467539183
C 1.0742182322 3.5562913127 -0.3002042867
O -0.1911442292 4.1675003169 -0.2803577647
C -0.7215121743 4.1645949137 1.0392088067
C 0.2739797685 3.4106457299 1.9313684869
O 0.1832398020 3.2668490344 3.1211903748
C 1.4179272440 3.0064638851 1.0445998505
H -0.9987328105 1.5970642739 0.2313201891
H 2.0249232546 1.5741425262 -0.5400349109
H 1.7789801806 4.0519892655 -0.9579770323
H -0.8334500106 5.1934711650 1.4044557506
H -1.7078704107 3.6864002708 1.0594485324
H 2.4086111490 2.9736437066 1.4782777570