17

C 0.1225956672 1.4105676917 0.1939729255
C 0.0419582628 -0.0363716534 0.0970441136
C -0.0467914985 -1.2378754303 0.0213092224
C -0.1312525370 -2.6803620626 -0.0652426877
O -1.1827324382 -3.2751119439 0.0414423857
C 1.1927096564 -3.3933850817 -0.3335802690
C 1.1151161933 -4.8837172456 -0.1154765228
C 2.3220683435 -5.6822341827 0.1253599316
O 1.4403094959 -5.3475941092 1.1971832460
H 1.1544409050 1.7641757688 0.1004084629
H -0.4728506858 1.8851556697 -0.5935210377
H -0.2694005252 1.7551007940 1.1570460955
H 1.4683296447 -3.1703003531 -1.3748371313
H 1.9779497428 -2.9570395816 0.2927109675
H 0.2460484596 -5.3692819780 -0.5548047552
H 2.3409446634 -6.7335327269 -0.1585910468
H 3.2959282202 -5.1935080153 0.1506681499