18

O -0.0019397925 1.4251775359 0.1045216254
C 0.0351652371 0.0125126328 0.0421104311
C -1.3913468744 -0.5493900534 -0.1117055164
C -1.1677504887 -1.8668794320 -0.8370865869
C -1.0316133858 -1.8679783936 -2.3297665658
C -1.3950336580 -0.7294112385 -3.1203863755
C -1.6918034180 0.2147578871 -3.8052137662
N 0.1766252671 -1.8843373594 -1.4556808882
C 0.7837939399 -0.5625525312 -1.1852732155
H 0.8816662133 1.7418832879 0.3153192195
H 0.4859372068 -0.4000276524 0.9581256463
H -1.8908664305 -0.6892470313 0.8487663038
H -1.9829359439 0.1547574005 -0.7051919830
H -1.4809034459 -2.7905883946 -0.3575959067
H -1.1699621621 -2.8199031776 -2.8383241627
H -1.9606272848 1.0466449769 -4.4081995844
H 0.6716773536 0.1257762559 -2.0300596844
H 1.8513380767 -0.7081202328 -0.9949243305