13

C -0.0283484669 1.5683111263 0.0090130902
C -0.0060584978 0.0644206861 0.0042715584
C 0.0350102848 -0.6808455955 -1.1369391547
F 0.0582374562 -0.1288982564 -2.3270131866
O 0.0552858679 -1.9753625981 -1.1820060256
C 0.0334906784 -2.7752345334 0.0924598579
O 0.0551863883 -3.9487196535 -0.0738391901
N -0.0073849807 -2.0431339069 1.2333031619
C -0.0250813951 -0.7359093081 1.1734083903
H 0.8605326486 1.9907374451 -0.4700971776
H -0.9027468822 1.9647520071 -0.5166867234
H -0.0609643822 1.9388841516 1.0367618995
H -0.0580115193 -0.2233422543 2.1356715198