18

C 0.0153251433 1.3990851686 0.0274346674
O 0.0112459528 -0.0115503397 0.0551556013
C -1.2138483943 -0.6060033132 0.0491332572
C -1.3868643652 -1.9671371449 0.0653158651
N -2.7590816088 -2.2118361455 0.0692618376
C -3.3778337494 -3.5186726912 0.0283150187
C -3.4121037494 -1.0208234066 0.0421016332
O -4.7724815879 -1.0368388982 0.0237751587
C -2.5027334507 0.0162628512 0.0324563341
H 1.0625286179 1.7083008615 0.0312828929
H -0.4705869759 1.7893716787 -0.8776561067
H -0.4871296030 1.8245973165 0.9073208543
H -0.6732243583 -2.7719142794 0.0822128320
H -2.8890447145 -4.1843790474 0.7455200634
H -4.4302458633 -3.4234420191 0.2962461077
H -3.3088339124 -3.9677349943 -0.9696673859
H -5.0827150950 -0.1299221229 0.0968773570
H -2.7354466159 1.0682381159 0.0209133019