18

C -0.1366095070 1.5357374593 0.0433126552
C 1.3927009686 1.5193332327 -0.2160261403
C 1.4636056179 0.1410014821 0.5141260075
C -0.0721808510 0.0024009494 0.2692444198
C 2.3974647226 -0.9133779036 0.0374181517
C 2.5578874173 -1.4711493018 -1.2138413905
N 3.5513200922 -2.3750100413 -1.0479740161
N 3.9957720244 -2.3951878644 0.2206506988
N 3.2984683564 -1.5130462328 0.8760238609
H -0.3833106204 2.0690592433 0.9657004699
H -0.7843372908 1.9060689913 -0.7543009231
H 1.6190131356 1.4123880878 -1.2816610585
H 1.9994646649 2.3329918066 0.1880080111
H 1.6579823925 0.2939575788 1.5787843659
H -0.6711861119 -0.4325499053 1.0726467443
H -0.2753430576 -0.5492296819 -0.6541558578
H 2.0740434859 -1.3099387182 -2.1622227299
H 3.9665909804 -2.9934327320 -1.7263534488