19

C -0.0594764187 1.5203514517 0.1728626680
C -0.0169927219 -0.0028841014 -0.0008757362
C -1.4288745465 -0.6008507791 0.0056086219
C 0.7245263125 -0.4078936480 -1.2959410339
C 2.1709537921 -0.0405764726 -1.2877099800
N 2.6945898521 0.8074685027 -2.1346392061
O 4.0500378605 0.8492040438 -1.7680357152
C 4.1745261833 0.0157092781 -0.7368027243
N 3.0766673221 -0.5673067226 -0.3808400700
H 0.9432370771 1.9578940708 0.1770992806
H -0.6226101100 1.9908566014 -0.6419043187
H -0.5475812206 1.7905138965 1.1146218057
H 0.5437448658 -0.4316145859 0.8391894628
H -2.0225728549 -0.2153247168 -0.8318912206
H -1.4031364553 -1.6924708438 -0.0768978074
H -1.9566178116 -0.3460358207 0.9301076114
H 0.6533271845 -1.4945045937 -1.4237926251
H 0.2515409815 0.0585321773 -2.1662544903
H 5.1602494380 -0.0923912679 -0.3078024525