12

O 0.0287841470 0.0096592876 -0.0322719821
C -0.0459235770 1.1969349386 0.0331311662
C -1.2762335799 2.0901106496 0.1352059046
O -0.7569027324 3.3669286060 0.4620997116
C 0.5811572658 3.3842427136 0.0061880780
O 1.0392941829 2.0268491511 0.0335216454
C 0.7082198090 3.9361822525 -1.3467590054
C 0.8036777753 4.4065974489 -2.4471118345
H -1.8174419919 2.0883493712 -0.8212601316
H -1.9461199478 1.7534378299 0.9285049929
H 1.1767184218 3.9569514054 0.7223148090
H 0.8924525073 4.8218232056 -3.4214576841