21

C 0.0006861237 1.5407758219 0.2467177518
O 1.4396385911 1.5770184245 0.1051168757
C 1.5045245276 0.1387305697 -0.0487544839
C -0.0439999439 0.0257872570 -0.0424966958
C -0.3532986777 -0.5505158577 -1.4473310094
C -0.0415969133 0.4639497432 -2.5707015523
C 1.5173290134 0.5810679616 -2.5356920831
C 1.9214224242 -0.4185994963 -1.4307549515
C 0.8466464260 -1.5239670302 -1.5910454579
H -0.3032142950 1.8042513586 1.2677836505
H -0.5015619142 2.2164822770 -0.4538434740
H 2.0637162594 -0.3202268616 0.7744958997
H -0.4992401689 -0.5791118485 0.7437078464
H -1.3449660257 -1.0002693376 -1.5276828400
H -0.3857314499 0.0637010054 -3.5293155297
H -0.5429061643 1.4248088164 -2.4349478198
H 1.9597704244 0.2887302441 -3.4921175452
H 1.8541265615 1.5911062810 -2.3003282402
H 2.9613469454 -0.7457817910 -1.4835560378
H 0.8818955393 -2.2836357811 -0.8028099155
H 0.8874776968 -2.0256383263 -2.5628492781