20

C -0.0407620744 1.5280313633 0.1118673145
C 0.0596886676 0.0024655825 0.0316284556
C 0.7043243766 -0.4830996383 -1.2718249473
C 0.8102174453 -2.0094623950 -1.3427814497
C 1.4751377218 -2.5225393038 -2.6524261380
C 1.6013826904 -4.0508879233 -2.5739287852
O 2.5683607709 -4.5960347677 -2.1198550701
C 0.7129669765 -2.1352387439 -3.8383383301
N 0.0954958749 -1.8608953888 -4.7761946250
H 0.9492914671 1.9936683966 0.0562310577
H -0.6416006736 1.9287759989 -0.7116415113
H -0.5059654715 1.8458467427 1.0497362641
H 0.6381448753 -0.3740875201 0.8854138850
H -0.9418659720 -0.4373042080 0.1246370073
H 0.1233653647 -0.1165940161 -2.1272092152
H 1.7072775340 -0.0460716683 -1.3697039967
H 1.4148802974 -2.3877640292 -0.5113915795
H -0.1853023367 -2.4598693261 -1.2488730812
H 2.4892652040 -2.1150468766 -2.7225448251
H 0.7109190217 -4.6136463887 -2.9256242698