17

C 0.1135019925 1.4884169618 0.0514511266
C 1.3469931710 0.5867030014 -0.0281075279
N 2.2071887903 0.3991470374 1.1050657894
C 1.8429874429 -0.4249684316 1.9946799119
O 0.7073584470 -1.1665888093 2.0947591331
C -0.3380824123 -0.9309260477 1.1614146033
C -0.5914449390 -1.9971720027 0.0651862522
N -0.7078754054 -0.8908742042 -0.9315621407
C -0.0315339519 0.0070279436 0.0067407249
H -0.0936934984 2.0028326341 0.9855596785
H -0.1245807457 2.0546279419 -0.8435576141
H 1.8877021345 0.6261350613 -0.9701764590
H 2.4822433685 -0.6359540197 2.8489351851
H -1.2346150987 -0.6827597499 1.7367098026
H 0.2873401497 -2.6406205740 -0.0624570685
H -1.4899310740 -2.6120398069 0.1599741493
H -0.2084386710 -1.0523359256 -1.8010989566