15

O 0.0745830949 1.3462270654 -0.2030958001
C 0.0598589768 -0.0553539545 -0.0340267434
C -1.3659272012 -0.5595088428 0.2160138054
O -2.1918557248 -0.1159786081 -0.8745237287
C -2.7830304947 -1.2327651863 -1.5391310834
C -2.3028444616 -2.4363508110 -0.7782957759
C -1.5156031852 -2.0545353003 0.2206236102
H -0.6092876553 1.5343913112 -0.8578103446
H 0.4712595009 -0.5780839101 -0.9129951402
H 0.6984014322 -0.2851201811 0.8264643228
H -1.7375141410 -0.0932317473 1.1420502724
H -3.8794879508 -1.1336016095 -1.5229524157
H -2.4757997440 -1.2513532790 -2.5963862874
H -2.5849934975 -3.4492904975 -1.0361234733
H -1.0258581986 -2.6934284991 0.9443462419