18

C -0.1189037397 1.4808504945 -0.0030758410
C 0.0694788751 -0.0138413425 -0.0054729400
C 0.7479544665 -0.7163754255 -1.1978639903
C 0.4544410929 -2.1206594967 -0.6023731776
C 1.0273706847 -1.9390033004 0.8044233839
C 0.7989343312 -0.6736272153 1.1636037427
C -1.0540899369 -1.9642071546 -0.4153973171
N -1.9318443483 -2.8599167183 -0.5587931896
O -1.2712327214 -0.6612370895 -0.0622474695
H 0.8545143609 1.9800416591 0.0174082715
H -0.6601420001 1.8053729452 -0.8957283371
H -0.6864273314 1.7980894276 0.8767246803
H 0.2392154222 -0.5165475684 -2.1455881885
H 1.8146218288 -0.5021163585 -1.2777667590
H 0.7418212605 -3.0110455156 -1.1541222554
H 1.4400226821 -2.7415871873 1.4005945946
H 0.9827517450 -0.1990669884 2.1183688185
H -2.8616354221 -2.4821767952 -0.3649319365