17

O 0.1988525704 1.3364668109 -0.1815423569
C 0.1015946122 -0.0473565940 0.0355627827
C 0.1776539181 -0.5223015905 1.5086272975
N -1.3055208334 -0.6316058469 1.5165858020
C -1.3555368342 -0.6153084051 0.0551821928
C -2.4929005544 0.0152759149 -0.7664965457
O -2.5951215597 -1.2153904588 -1.5605105605
C -1.6644694789 -1.8519579168 -0.7682961427
N -1.2657378250 -3.0413303162 -0.7442445389
H -0.3108070471 1.7839719867 0.5039979864
H 0.7812696477 -0.5244204610 -0.6701772258
H 0.7064525998 -1.4763456570 1.6139592737
H 0.5829763581 0.1997136035 2.2262196683
H -1.6854539530 -1.4669914068 1.9495451888
H -3.4168547109 0.2026912026 -0.2137930858
H -2.2195480391 0.8707187832 -1.3877502831
H -1.7270544806 -3.6117608189 -1.4549841228