20

O -0.1876317431 1.5138145825 -0.1809687456
C -0.0213299482 0.1068475713 -0.0217361655
C -1.4310164121 -0.4924946015 0.0522345768
C -1.4821530828 -1.9175197709 0.6200303307
C -0.8102648614 -3.0140872122 -0.2203710547
C 0.7182838045 -2.8773095851 -0.3762428316
C 1.1571369786 -1.7504056090 -1.2826580964
C 0.8243451428 -0.4692529593 -1.1371916548
H 0.6878019882 1.9115706518 -0.2229317960
H 0.4759434358 -0.0985001631 0.9447483186
H -2.0219093057 0.1689672745 0.6954381502
H -1.8848062088 -0.4581465424 -0.9451969635
H -1.0328614459 -1.9159963103 1.6237487792
H -2.5343200758 -2.1899082781 0.7644223137
H -1.0212550276 -3.9812348421 0.2522140689
H -1.2682178243 -3.0483433275 -1.2169502100
H 1.1632501019 -2.7502968385 0.6225846111
H 1.1182124984 -3.8203759119 -0.7623311958
H 1.7810537761 -2.0248493299 -2.1300517587
H 1.1660499894 0.2595223518 -1.8701172865