15

C 0.2223622122 1.4869264127 0.1398582361
C 0.0584718537 0.0115944983 0.0053912548
C -0.0687291658 -0.8176807163 -1.0850679243
N -0.1922561837 -2.1071511461 -0.6639796296
N -0.1468363521 -2.1374186136 0.6302718910
N 0.0038675506 -0.8552149902 1.0557996291
C 0.0694736334 -0.5992298092 2.4786897707
C 1.3631574725 -0.0495728015 2.9039685027
N 2.3695521942 0.4066955683 3.2387566178
H 1.1609153601 1.7478353771 0.6402397687
H 0.2264477808 1.9481174334 -0.8495674349
H -0.5954967000 1.9381370653 0.7137990320
H -0.0779209362 -0.5583662845 -2.1316246370
H -0.7253331542 0.0899385802 2.7850621716
H -0.1056100356 -1.5595406639 2.9705388912