17

O -0.0473782827 1.4201853628 0.0676463486
C 0.0732666456 0.0034037652 -0.0371095450
C 0.9240876161 -0.5466947982 1.0833013697
C 0.5541553338 -1.5796788157 1.8431486171
C -0.7067148916 -2.3191774833 1.6062797607
C -2.0742598711 -1.6303242931 1.5879395050
O -1.9709108915 -0.2536964490 1.2534718519
C -1.3208429206 -0.6115090993 -0.0145825695
C -1.4561439378 -2.1077337550 0.3083548761
H -0.5218153407 1.5774205932 0.8947895103
H 0.5459801986 -0.1712922627 -1.0132992040
H 1.8543558720 -0.0171914207 1.2675930841
H 1.1806755782 -1.9074929633 2.6680274505
H -0.7589589535 -3.3344905697 1.9886274239
H -2.9324279369 -1.9512671769 2.1669220838
H -1.9307178144 -0.2611529875 -0.8516027679
H -1.7352000435 -2.8941974467 -0.3791603651