19

C -0.0294015567 1.3653158642 0.1661936135
O 0.0173760156 0.0185649307 -0.2507069372
C -1.2037047672 -0.6556837949 -0.1020446892
C -1.2861134645 -2.0363769680 -0.7195203242
C -0.7091559029 -3.0792068566 0.2184469288
O 0.2628723890 -2.7192435562 1.1668556935
C -0.3297950133 -1.7371477710 2.0253485371
C -1.5893153287 -1.2723499327 1.2921041344
C -2.0551840007 -2.5392547124 0.5263241551
H 0.9522876686 1.8018294485 -0.0318760911
H -0.7912801956 1.9351717233 -0.3890314429
H -0.2464896854 1.4624926205 1.2408699750
H -2.0302003205 -0.0265698991 -0.4664126751
H -1.4720424365 -2.2493007479 -1.7663406975
H -0.5734463985 -4.0803917932 -0.1726266911
H -0.5700850481 -2.1833607608 3.0018868456
H 0.3935293445 -0.9290276569 2.1698927152
H -2.3035984825 -0.7252068017 1.9057308860
H -2.9901856167 -3.0739231457 0.6150646139