23

C -0.0394566933 1.5289848865 0.1239153700
C 0.0008032489 0.0740102559 0.0732257308
C 0.0471420618 -1.1287912856 0.0314174024
C 0.0685430174 -2.5864562988 -0.0214478804
C -1.3385938187 -3.1955164748 -0.1871059320
C -1.3866524024 -4.7332132087 -0.0503247365
C -2.8431811752 -5.2122693580 -0.1297509219
C -0.5380145463 -5.4389664910 -1.1117124903
O -0.8173850794 -5.1310739005 1.2055883312
H 0.6572664430 1.9734569154 -0.5957962078
H -1.0402154904 1.9097570199 -0.1096368037
H 0.2310400679 1.9030927606 1.1178335709
H 0.7149040585 -2.9098635275 -0.8464774027
H 0.5161629284 -2.9946823736 0.8922845788
H -1.9965344885 -2.7600943172 0.5763471151
H -1.7577770018 -2.8984510179 -1.1552671102
H -3.2894973030 -4.9768133711 -1.1012792652
H -2.8925306355 -6.2942551182 0.0224518810
H -3.4550364681 -4.7287500586 0.6413410477
H 0.5193589024 -5.1883800199 -0.9992729160
H -0.6356272741 -6.5231700773 -1.0077359128
H -0.8598992524 -5.1556307392 -2.1181638877
H -1.3737733394 -4.7732551404 1.9062839492