18

C 0.0153943468 1.5684071136 -0.1293578007
C 0.0479709602 0.0802706708 0.0620880200
O 0.5211202378 -0.5760925896 -1.1550094802
C 0.5205358970 -2.0043301489 -0.8810137618
C 0.0127455295 -1.9273047093 0.5448602650
C -0.4433173132 -2.4074979906 1.9302204049
N -0.5984665662 -0.8816014977 2.0793785783
C 0.6775710879 -0.6964830120 1.2196742144
C -1.0684526596 -0.8138496181 0.6041981402
H 1.0136682576 1.9488329192 -0.3653823401
H -0.6535932329 1.8368319680 -0.9523937909
H -0.3388625652 2.0538519679 0.7841714975
H -0.1492675879 -2.5153190863 -1.5809291046
H 1.5355152251 -2.4020728362 -0.9870561553
H -1.3898101995 -2.9515929431 2.0017606134
H 0.3073354631 -2.8375122713 2.6000072809
H 1.6687096368 -0.6429089502 1.6718213935
H -2.1222237572 -0.8977306461 0.3355090055