21

C -0.0635793523 1.6351707656 -0.2738354166
N 0.0650386894 0.2108529557 -0.0179284458
C 1.2902039265 -0.5464539397 -0.2057437939
C 2.6402775935 0.1652218540 -0.2749937250
C 2.7747696630 0.9866039416 1.0338458303
C 1.6707502720 0.4752168272 1.9702432650
C 1.9509287493 0.1343245816 3.3888781549
N 1.1298871163 1.3136221519 3.0552175735
C 0.7048733157 -0.3508112518 1.1608605428
H 0.8460417532 2.2356974157 -0.1378596722
H -0.4001602562 1.7719641295 -1.3070248094
H -0.8337129955 2.0396088930 0.3892335635
H 1.1814842795 -1.4727959298 -0.7656648865
H 3.4260392030 -0.5947227762 -0.3390085627
H 2.7370889985 0.7923272392 -1.1680822168
H 3.7668456350 0.8735424223 1.4814144843
H 2.6391223987 2.0564711529 0.8412075774
H 1.4110487995 -0.6734214580 3.8772660684
H 2.9632683045 0.2864087116 3.7557235553
H 1.6910870030 2.1579064425 3.1468382112
H 0.1299157134 -1.1096960788 1.6862746224