16

C 0.0235378270 1.4813615844 -0.1210290920
C 0.0299439657 -0.0180867535 0.0536269570
N 1.1469431466 -0.6030609127 0.2090909614
N -1.2269639130 -0.6779212129 0.0212341292
C -1.2811188775 -2.1367057861 0.0594511515
C -0.9409874841 -2.6992969426 1.3719499895
N -0.6685340026 -3.1575548993 2.3964684924
C -2.4482499193 -0.0239256401 -0.0938325108
O -3.5129206876 -0.5910967809 -0.1548368401
H 1.0621016113 1.8082372127 -0.1102285729
H -0.4383140630 1.7848444314 -1.0657590528
H -0.5098898451 1.9828325848 0.6928899730
H 1.0782410929 -1.6080974156 0.3575203290
H -2.3090445679 -2.4115727263 -0.1903584844
H -0.6127962206 -2.5591074091 -0.6979897381
H -2.3510723627 1.0681745758 -0.1263346920