20

C -0.0932820673 1.5493991966 -0.0587379416
C 0.0082070751 0.0260097149 0.0182476282
N 0.7023713546 -0.4557697078 1.2101084271
C 0.0037807951 -0.1478619105 2.4475801064
C 0.6917058360 -0.7192999255 3.6505802943
C 1.5938556742 -1.7028150683 3.5739400826
C 1.8792003269 -2.3548196789 2.2842470745
O 2.6728523946 -3.2654505943 2.1649686990
C 1.0384635532 -1.8700256454 1.1056889040
H 0.8936291528 2.0057464245 0.0620024349
H -0.4945268164 1.8446672714 -1.0328367537
H -0.7592632203 1.9638026202 0.7037315977
H -1.0036915722 -0.4193556188 -0.0663007849
H 0.5762876647 -0.3338787334 -0.8467554536
H -0.0608512477 0.9393571111 2.5649662016
H -1.0497533613 -0.5108981138 2.4403432357
H 0.4189093096 -0.2887579513 4.6107747182
H 2.1096450456 -2.0949227297 4.4443381327
H 0.1396154324 -2.5229624653 1.0539482545
H 1.6103646703 -2.0459013659 0.1909378223