16

O 0.6832769664 0.3639990470 0.9156652225
C -0.0397410114 0.3058792530 -0.3032413230
C -1.3930357007 -0.3487991191 -0.1617960695
C -2.0890969465 -0.6644362612 1.1834954162
O -3.3415611308 -0.2219758858 1.5668004297
C -1.8670240342 -1.7585955237 0.2126845017
O -2.9231132204 -1.6924558784 -0.7905042110
C -2.4223345770 -0.4580729147 -1.2331183089
N -2.7363439816 0.2298584999 -2.2302985021
H 0.3061282656 1.0710627741 1.4488319791
H -0.1822241252 1.3025037973 -0.7436365119
H 0.5848288526 -0.2647050254 -0.9990069641
H -1.3782132523 -0.6296036549 2.0038965401
H -3.9793192495 -0.5820844296 0.9367467704
H -1.3525825356 -2.7044844110 0.3232444549
H -3.4907392594 -0.2018909875 -2.7660096340