15

O 0.0240748287 0.2567050543 0.6854312478
C -0.0457139600 1.3264927959 0.1615994060
C -1.3350237899 2.0948600647 -0.2298779394
C -0.7615891514 3.4508333985 -0.4276711910
C -0.8908572905 4.6679043959 0.0846963318
C 0.4328700089 5.3822601340 -0.0118169097
O 1.3533657614 4.4026462672 -0.5261727082
C 0.6537399150 3.2620156135 -0.8896822846
O 1.0582191958 2.0518268894 -0.1893374009
H -1.7327614596 1.6407220361 -1.1462664220
H -2.0882134963 2.0016019585 0.5523640254
H -1.7448300684 5.0786305569 0.6074737379
H 0.4291243536 6.2520640050 -0.6831055518
H 0.7749391337 5.7240225707 0.9741393314
H 0.8140976689 3.0523329595 -1.9560252128