18

C -0.7614045405 1.2269428655 0.1032280333
C -0.1125483933 -0.1355615875 0.0062107004
C 0.7489828262 -0.5822820778 -1.1687113527
C 1.2583543011 0.3999474761 -2.1962465361
O 2.6619166939 0.6734551778 -1.9880504104
C 3.0460659804 1.0561010587 -0.7456785584
N 4.1442161782 1.6158934634 -0.4817721103
O 2.1549624121 0.8335745080 0.2584024015
C 1.3642016257 -0.3305039293 0.1806908516
H -0.0619927110 2.0307696815 -0.1340313434
H -1.6232931399 1.3045365017 -0.5676890114
H -1.1152709474 1.4004819165 1.1242936361
H -0.7075885495 -0.9425316874 0.4254681502
H 0.6553825636 -1.6109791520 -1.4975841717
H 1.2061298685 -0.0082619472 -3.2062264646
H 0.7081286100 1.3462601075 -2.1833400954
H 4.6463605885 1.7996814899 -1.3487533550
H 1.7545156934 -1.1422587753 0.7870219162