20

O -0.0719037831 1.4397347027 0.1594572626
C 0.0141047744 0.0190272226 0.1676991072
C -1.3732288083 -0.5281163322 -0.0427671944
C -2.3904680852 -0.3698663855 1.1222143082
C -2.6936223561 -1.8986445734 1.0754590916
C -1.6906805019 -2.0716855232 -0.0959580301
C -2.3003302900 -1.8908450291 -1.5113160642
C -2.0023830918 -0.3613589609 -1.4547962161
H 0.8111853807 1.7961794480 0.2934260154
H 0.6833901704 -0.3430931224 -0.6311773907
H 0.4191328159 -0.3489098961 1.1257405480
H -1.9265775986 -0.0436636504 2.0568982239
H -3.2326095296 0.2958807359 0.9157205267
H -2.3986690734 -2.4265274380 1.9859807599
H -3.7260532471 -2.1786179105 0.8449119715
H -0.9247360963 -2.8418326203 0.0183608920
H -1.7451868668 -2.4107955315 -2.2963053718
H -3.3534218028 -2.1743812383 -1.6010530724
H -2.8707384455 0.3011855389 -1.5000176608
H -1.2852961550 -0.0260408963 -2.2088084364