21

C 0.0617616837 1.3728370381 0.1009982820
O -0.0092656069 -0.0066513424 -0.1667097620
C -1.3115459618 -0.5596273096 -0.0149150028
C -1.3212751351 -1.9721660400 -0.6374311358
C -2.1743670502 -2.8467413830 0.3101869098
C -2.1974117855 -2.0443640047 1.5940465648
C -2.7273699597 -2.6332725146 2.8602453639
O -2.6872218996 -1.6710144451 3.8976866818
C -1.7346699823 -0.8074063032 1.4162999291
H 1.0855405236 1.6921300398 -0.1113290127
H -0.6277272611 1.9484089818 -0.5380064099
H -0.1666273424 1.6124203541 1.1504904758
H -2.0294505464 0.1131147627 -0.5184508184
H -1.6797057958 -1.9782934938 -1.6691711314
H -0.2841431482 -2.3189410420 -0.6436900373
H -3.1941111540 -2.9862813779 -0.0753482509
H -1.7610299361 -3.8538884453 0.4466648265
H -3.7565814160 -2.9970774572 2.6873344038
H -2.1286622482 -3.5265651365 3.1152114659
H -3.0063826707 -2.0862394486 4.7036041041
H -1.6956719072 -0.0521327926 2.1902710538