23

C 0.1472246972 1.6457295754 -0.0461971684
C 0.0541112020 0.1283886612 0.0186197854
C 0.9217298309 -0.7350948676 -0.9485388794
C 1.2910303639 -1.6903279930 0.2283008827
C 0.8166909562 -3.1149499889 0.1104777367
O 1.5729272792 -3.7434564990 -0.9186178196
C 2.6871269310 -1.4182240708 0.8375779731
C 2.0813640563 -0.2635690762 1.6912041963
C 0.6464840558 -0.6540656090 1.2229113937
H 1.1824046639 1.9945390595 0.0309328981
H -0.2514788532 2.0190977231 -0.9962779082
H -0.4245198242 2.1162725907 0.7619632067
H -0.9970330611 -0.1645185718 -0.0882409224
H 0.3887551227 -1.2035578603 -1.7792815525
H 1.7868497272 -0.2052213841 -1.3596525971
H 0.9512636307 -3.6329960498 1.0750045482
H -0.2616408987 -3.1325825724 -0.1229734539
H 1.2747297829 -4.6542714474 -0.9983262535
H 3.0409472697 -2.2516770578 1.4521324352
H 3.4798724096 -1.1552123371 0.1319444223
H 2.2427818548 -0.3627996212 2.7669964307
H 2.4003869993 0.7408750142 1.4015661835
H -0.0448589259 -0.9438138577 2.0180524724