21

C -0.5357927070 1.4970483388 0.0891340578
C -0.0503083603 0.0555153740 0.0079489006
C 1.1089734674 -0.3687268766 -0.9505851065
C 1.6360004111 -1.3486652825 0.1374441488
C 2.8638282065 -0.8731588392 0.9717666753
O 3.5096420578 0.3354523133 0.5287465443
C 2.6972007303 1.1379320812 1.4214897197
C 1.9214771193 -0.0992091555 1.9296295017
C 0.6718459241 -0.6747690733 1.1770770686
H 0.2722149296 2.2109532077 0.2648584469
H -1.0284570282 1.7872082503 -0.8460564723
H -1.2670638501 1.6183758394 0.8966599234
H -0.9192026603 -0.5706903688 -0.2312010905
H 0.7980116225 -0.8253216689 -1.8927602772
H 1.8282496891 0.4239568017 -1.1698933535
H 1.5879761097 -2.4125442825 -0.0986975920
H 3.5820121147 -1.6386066792 1.2802665387
H 3.3180210872 1.6072979531 2.1950597897
H 2.1494309348 1.9203423133 0.8899066659
H 1.9188243986 -0.2411151972 3.0101433406
H 0.0350703933 -1.2618824990 1.8426240501