19

C 0.4488920064 0.9143188111 -0.5089875339
N 0.0350651006 -0.2540905924 0.2630046443
C 0.4595121444 -0.1812214292 1.6514963265
C -1.2949300149 -0.6596019300 0.0853940614
C -2.2856993848 -0.8152359649 1.0095746222
O -3.3919342425 -1.3216273267 0.4325737316
N -3.1494663296 -1.4982769472 -0.9208257201
C -1.9121239037 -1.1169761849 -1.1309946443
C -1.3190245443 -1.2315067212 -2.4982650850
H 1.5364555846 1.0182622381 -0.4470201034
H 0.1813582866 0.7920135418 -1.5593916409
H -0.0097823713 1.8492167786 -0.1436593396
H -0.0328574970 0.6330491959 2.2135526876
H 0.2409532827 -1.1280496122 2.1530720662
H 1.5390877404 -0.0094967217 1.6900679656
H -2.3445014943 -0.6433551331 2.0716438840
H -1.9516325437 -1.8658918838 -3.1220145773
H -1.2324253236 -0.2550933395 -2.9878054452
H -0.3157616961 -1.6657320187 -2.4458711296