19

C 0.0512123606 1.5158249363 -0.0900033185
C -0.0847423707 0.0205008177 -0.0404477846
O 0.3258377111 -0.6447489803 -1.2282239294
C -0.5112011430 -1.7903374896 -0.8170013141
C 0.4087401030 -2.6878513727 -0.0360032510
C 0.9595268488 -2.0750756603 1.0162719420
C 0.3739665435 -0.7275911534 1.3333224811
C -1.1507122584 -0.9682821075 1.6045896056
C -1.3716064698 -0.8235487984 0.0979658732
H 1.1063642531 1.7952060159 -0.1856198142
H -0.4901446032 1.9248671390 -0.9482767573
H -0.3393584522 1.9740180273 0.8238204346
H -1.0062115537 -2.2486643540 -1.6737055672
H 0.6702020952 -3.6799375293 -0.3842492366
H 1.7347607254 -2.5104348659 1.6379764575
H 0.9401274297 -0.1453363365 2.0609748522
H -1.4177224069 -1.9034836795 2.1022674504
H -1.6099513708 -0.1254212343 2.1308407423
H -2.3369393718 -0.5342023941 -0.3207779260