16

C 0.1469101998 1.3676389099 0.0718515702
N -0.0820921439 -0.0619674072 0.0417129692
C -1.3231087819 -0.5974524513 0.0292652805
O -2.3725193810 0.0007932782 0.0411088131
O -1.2015076194 -1.9746050465 0.0001451461
C -2.3615797335 -2.7024445707 -0.0161743933
N -2.2843387139 -3.9539952217 -0.0427043749
C -3.5339563539 -4.6894103318 -0.0593771982
H 0.7041203814 1.6995263531 -0.8108828478
H -0.8268928060 1.8579568630 0.0804764054
H 0.7013900315 1.6623744068 0.9693480357
H 0.6941190751 -0.7027277706 0.0292009723
H -3.2627556390 -2.0851669798 -0.0038006695
H -4.4313038463 -4.0514590027 -0.0466012831
H -3.5699471024 -5.3220769306 -0.9531057289
H -3.5715049866 -5.3595264782 0.8065576132