21

C -0.1093948225 1.5776635806 0.0512584847
C 0.1600852254 0.0769104139 -0.1126326758
C 0.7595921729 -0.5491060968 1.1410058772
C -0.1198483865 -0.8731947022 2.3807545665
C -0.6921034201 -2.1632303793 1.6747748547
C -0.8426155056 -3.2275812735 2.7505661045
C 0.2314705932 -3.0569516168 3.5237741329
C 0.9685785602 -1.9002887799 2.8697812487
C 0.8415168727 -2.0887969408 1.3115953620
H 0.8096601110 2.1189415979 0.3025892849
H -0.5114647310 2.0141400524 -0.8683583175
H -0.8312601382 1.7652937198 0.8534492428
H -0.7690532215 -0.4312189926 -0.3937539976
H 0.8545124962 -0.0770115377 -0.9494778335
H 1.6947650452 -0.0337247788 1.3987893967
H -0.6819634307 -0.1814764648 3.0155184636
H -1.4487608782 -2.0786143319 0.8962879382
H -1.6499764626 -3.9414611637 2.8357397664
H 0.5391268193 -3.5927968818 4.4107584365
H 1.9045003223 -1.5296630194 3.2904921084
H 1.3971163684 -2.8068249946 0.7003744657