18

O 0.0855168337 1.3575929395 -0.2711803365
C 0.0120077337 -0.0448522696 0.0081926149
C 0.7095454614 -0.3901991880 1.3513925240
C -0.2922691805 -0.3404372991 2.5066251246
C -1.3620371251 0.7578987012 2.3200611088
C -2.0266063954 -0.3491657002 1.4730774704
C -1.4935186287 -0.3951427453 0.0409349445
O -1.3004180734 -1.3573969313 2.2385071314
H 1.0148895536 1.6088027677 -0.2773158975
H 0.4991429274 -0.5970923317 -0.8078158860
H 1.1259321842 -1.4030320927 1.3136102136
H 1.5463590814 0.3011106960 1.5147302617
H 0.1752517575 -0.4712321103 3.4865894386
H -1.9120117842 0.9431300590 3.2439655995
H -1.0792781769 1.6878445410 1.8296200728
H -3.1093150907 -0.4892932645 1.5319220607
H -2.0201125599 0.3072080735 -0.6127798597
H -1.6564269080 -1.4060531152 -0.3462482057