19

C -0.0197603864 1.5244663421 -0.0468092514
C 0.0167800346 -0.0088665790 0.0213987286
C 0.6487117062 -0.4656882887 1.3400024350
O -1.3247901113 -0.5192324141 0.0581577047
C 0.7612425931 -0.5650642987 -1.2099379295
C 0.8092488944 -2.0857791313 -1.3027619545
O 1.3330159745 -2.4138743717 -2.5846514552
H 0.9878084782 1.9509493825 -0.0080625220
H -0.4856497293 1.8613251919 -0.9806520697
H -0.5998403173 1.9248489991 0.7895172523
H 0.1230619288 -0.0107490396 2.1842722552
H 0.5814723863 -1.5506382270 1.4509889411
H 1.7020178479 -0.1742430143 1.3880238758
H -1.7809293439 -0.1980355203 -0.7274826133
H 0.2640786376 -0.1961442884 -2.1174439888
H 1.7823112406 -0.1666894001 -1.2373838436
H 1.4431863645 -2.5008137029 -0.5046618219
H -0.2039126503 -2.4885637088 -1.1641548696
H 1.3605667719 -3.3722491709 -2.6571874431