15

C 0.7909535825 1.1915193040 -0.6057876155
C 0.0216515778 0.0878141468 0.0319134582
N -1.2744595359 -0.0282458949 -0.0919307625
O -1.5730528215 -1.1802335055 0.6524778249
C -0.4110618278 -1.6252375432 1.1379653729
C -0.4172622952 -2.8490781116 2.0049833780
C -0.9771387145 -4.0247197984 1.3450904399
C -1.4342917679 -4.9943308952 0.8055780430
N 0.6091728716 -0.8992873676 0.8008532566
H 1.5422782742 0.7831816488 -1.2882034984
H 0.1206428658 1.8497012495 -1.1601302247
H 1.3203581372 1.7726611891 0.1551026033
H 0.6183862377 -3.0295727599 2.3071359028
H -0.9864188466 -2.6303104358 2.9181070655
H -1.8414344172 -5.8500549361 0.3260987558