18

C -0.0191287215 1.3511445549 0.2275450238
O -0.0793111474 -0.0137811297 -0.1669978143
C -1.3419617230 -0.5473592700 -0.0563042117
C -1.8870807155 -1.0851333083 1.2217659140
O -3.0393063402 -0.6411457559 1.8864089108
C -1.7577458589 -2.0148397335 0.0272533787
N -2.6914693872 -1.8821825591 -1.1545647423
C -3.7367255096 -0.8512326450 -0.9158190069
C -2.3558621726 -0.4206705651 -1.2158102374
H 1.0146441517 1.6748380876 0.0909670632
H -0.6763923098 1.9795337629 -0.3891004968
H -0.3046904373 1.4741000649 1.2808769832
H -1.0490840716 -1.2851499201 1.8960151558
H -3.3899258733 -1.3850667891 2.3897296754
H -1.1736446427 -2.9260468052 0.0762955738
H -4.4407140878 -0.8159011931 -1.7437551261
H -4.1551067635 -0.7087455719 0.0689434290
H -2.0486731199 0.0257520155 -2.1564891921