18

C -0.1481405928 1.5825119857 -0.0241930704
C 0.0208704028 0.0847224407 0.0836928995
C 1.3435708654 -0.5951605886 -0.1777098594
C 2.5244881236 0.1567910868 -0.5050952266
N 3.4816571761 0.7115054024 -0.8417156592
C 0.7488483555 -0.5917464646 1.2391470440
C 1.3898219158 0.1957645746 2.3436598499
C 1.2658114579 -0.4115407741 3.7279062317
O 1.9635807451 1.2446252569 2.1500889062
H 0.7264695151 2.1151083221 0.3481876763
H -0.3115972720 1.8618142621 -1.0698312110
H -1.0209650044 1.9075130672 0.5509422700
H -0.8307423081 -0.4884910957 -0.2729245233
H 1.3109235053 -1.5578606925 -0.6781523422
H 0.3465919668 -1.5515958415 1.5460596786
H 1.7438007205 -1.3978832340 3.7512351244
H 1.7371974635 0.2426844309 4.4614597014
H 0.2113115339 -0.5627769085 3.9863098900