22

C -0.9082142007 0.8098824193 0.0265226908
N 0.0584668397 -0.2799396570 -0.0060420800
C 1.4007330939 -0.0222250636 -0.5140200996
C 1.1818548067 -0.3683354528 0.9191146735
C 1.5180335895 0.5820431799 2.0862906096
C 0.4639453145 0.4163336798 3.2078730070
C 2.9072156668 0.1523932748 2.6275960413
C 1.6128539157 1.9942009545 1.7004482953
C 1.7468379842 3.1635130279 1.4500305510
H -0.4933583063 1.7892996305 0.2941802055
H -1.3633384670 0.8886468528 -0.9664046631
H -1.7050321661 0.5613623631 0.7355941482
H 1.7993620850 -0.7533722173 -1.2138795377
H 1.6766477311 1.0105134318 -0.7218697609
H 1.3731250002 -1.3988524378 1.2219130840
H 0.3893956284 -0.6376049988 3.4950920471
H 0.7479065406 0.9961269113 4.0906853744
H -0.5216642143 0.7532836529 2.8804178188
H 3.6709792361 0.2388573782 1.8505512352
H 3.1997792814 0.7839600481 3.4704400204
H 2.8735236682 -0.8872837302 2.9688712486
H 1.8482372924 4.1930805827 1.2097202204