20

C -0.1985060232 1.3976387957 0.0158601988
O -0.0301643706 -0.0116094553 0.0222062101
C 0.6996140861 -0.5556955794 1.0878675812
C 0.1110448545 -0.2449273957 2.4578996159
C 0.9046652939 -2.0569242644 0.7636158008
N 2.3087671425 -2.1875528120 0.3693418802
C 2.8393836350 -1.0497225634 0.5588935100
C 4.2612982845 -0.6794930828 0.3126875455
O 2.0573594304 -0.0419741312 1.0545123711
H 0.7590762124 1.9159449785 0.1370318271
H -0.6212776689 1.6507324543 -0.9587689853
H -0.8929938593 1.7356596748 0.7958689878
H -0.9285274025 -0.5824895229 2.4992776309
H 0.6809435772 -0.7628614416 3.2327645933
H 0.1433311602 0.8251670469 2.6753844699
H 0.6951170389 -2.6993596534 1.6260013324
H 0.2389924616 -2.3518945656 -0.0517302706
H 4.8088318020 -1.5497980474 -0.0475450355
H 4.3212606531 0.1247815267 -0.4274629494
H 4.7225705121 -0.3091258321 1.2337204956