20

O 1.8446172228 4.2069961332 -0.0764118754
C 1.0050344324 3.3396596291 0.0214054185
N 1.2065083984 1.9865115580 0.0229563337
C 2.4045539883 1.2466302440 -0.1002294825
C 2.3319126394 -0.0843755288 -0.2370872818
C 3.5300827855 -0.9799996787 -0.3997616745
C 4.7977566121 -0.1854591161 -0.7401028450
C 4.9046410162 1.0517491696 0.1555494922
C 3.7136716821 1.9991423440 -0.0485883919
H -0.0759930183 3.5634001652 0.1284389293
H 0.3633924356 1.4318791586 0.0663847825
H 1.3539062639 -0.5639028240 -0.2398473543
H 3.6898283209 -1.5617447632 0.5214097329
H 3.3278501402 -1.7241557722 -1.1807776408
H 5.6829562257 -0.8211649259 -0.6331237831
H 4.7574837303 0.1304400371 -1.7904847013
H 4.9391134140 0.7328756272 1.2055547858
H 5.8354509469 1.5946266244 -0.0381057059
H 3.8323655484 2.5803536363 -0.9710280827
H 3.6749909852 2.7459186321 0.7477918343