19

C -0.2577172709 1.2900510550 -1.2869124597
C 0.2558213816 -0.0801939354 -0.8995480852
O 1.6223068094 -0.3168092592 -1.2997473264
C 2.0544937926 -0.5734579492 0.0533268842
C 3.1554848796 0.3540067459 0.5212428595
C 0.6152824939 -0.2984961279 0.6106370267
O 0.4766731132 0.8053417322 1.4437620417
C -0.0434175578 -1.5032985093 1.2302465332
O -0.5964207001 -1.4467065250 2.3030910809
H 0.3356277033 2.0794083913 -0.8222737154
H -0.2092123902 1.3992023690 -2.3747530189
H -1.2994028759 1.4101540809 -0.9728677968
H -0.4006220194 -0.8626351367 -1.3075978910
H 2.3686836116 -1.6220986962 0.1594892443
H 2.8297446317 1.3953741026 0.4993509917
H 3.4538202474 0.1064792685 1.5449050389
H 4.0265348434 0.2377616651 -0.1310035430
H -0.0197607427 0.4901168079 2.2172049893
H 0.0074798596 -2.4446605293 0.6470411461