22

C 0.0266645170 3.0157857154 2.1748137136
C 0.0828666902 1.7204156897 1.3598781749
C 0.9744404163 1.9386114479 0.1125370632
C 1.0168686197 0.8324861095 -0.8354131495
C 1.0580737519 -0.0573048756 -1.6435054357
N 0.6698577184 0.6655596025 2.1822813111
C -0.0763366670 0.1508515781 3.3256129134
C 0.1918525941 -0.7207422597 2.1463825289
C -0.9527513883 -1.2066868596 1.2835968718
H 1.0278438408 3.2897318444 2.5228618882
H -0.3712588506 3.8383782976 1.5728813049
H -0.6147244148 2.8975646186 3.0522382252
H -0.9351048574 1.4762928381 1.0175395182
H 0.6237235931 2.8372051395 -0.4105338037
H 1.9906031759 2.1519343074 0.4661353598
H 1.1033440373 -0.8428808140 -2.3562481800
H 0.4810278988 0.0504951431 4.2540490870
H -1.1098866221 0.4734519440 3.4554336420
H 1.0111404277 -1.4345455091 2.2215888206
H -1.8139044268 -0.5337207085 1.3135686293
H -0.6422402172 -1.3172214435 0.2412448142
H -1.2893509971 -2.1834092956 1.6482007127