25

C 0.9604935915 1.5381164450 0.2313177647
C 0.1743872017 0.2406450603 -0.0011047594
C 0.5190434877 -0.4635630887 -1.3111729848
C 0.2671764210 0.3469168831 -2.5810917401
C -1.2096160417 0.6849875953 -2.8219305130
C 1.7427288831 -1.3747004076 -1.3136250916
C 0.3527188676 -1.9655322102 -1.4135831442
C -0.2114369170 -2.8238017937 -0.3011963380
O -0.0643561156 -2.4109590805 -2.6857612988
H 2.0396056915 1.3595338104 0.1720900576
H 0.7103139426 2.3074089070 -0.5050855825
H 0.7420249470 1.9494652134 1.2218090447
H 0.3705579041 -0.4326412518 0.8387907512
H -0.9009694981 0.4554325859 0.0338767398
H 0.8578410977 1.2701882323 -2.5370612220
H 0.6395968823 -0.2187672873 -3.4375541503
H -1.8041955399 -0.2297673347 -2.9023902313
H -1.6312787452 1.2946075372 -2.0158672581
H -1.3300605250 1.2481745460 -3.7530114858
H 2.3550857094 -1.3924584166 -2.2095395804
H 2.2932341116 -1.5027088376 -0.3859283683
H 0.1266782341 -2.5099499886 0.6882138799
H -1.3061376119 -2.8083546323 -0.3174440147
H 0.1092466606 -3.8648112691 -0.4366669389
H 0.3434937909 -3.2698835976 -2.8417334858