20

C 0.5344284876 1.4824554944 -0.4187705887
C 0.0791273964 0.0806003310 -0.0181516647
C 0.5312580823 -1.1092738602 -0.9271036942
C 1.2558845337 -1.7545522344 0.2746582425
C 2.6956209431 -1.2135241050 0.5219562661
C 2.1427114903 -0.3417597582 1.6876276653
O 2.6144110679 0.9634999190 1.9115344691
C 0.6906267331 -0.6388723679 1.2340025542
H 1.5961560206 1.5113347791 -0.6932265233
H -0.0172145763 1.8224547290 -1.3024251518
H 0.3624388158 2.2105405323 0.3808590339
H -1.0103357020 0.0993510152 0.0819154131
H -0.3082117920 -1.7000402080 -1.3035437405
H 1.1710595351 -0.8483728178 -1.7773315736
H 1.1078057766 -2.8188637932 0.4566920542
H 3.4592317652 -1.9441128283 0.7990656153
H 3.0802677631 -0.6259650078 -0.3190986249
H 2.3085479885 -0.8646030493 2.6355800292
H 2.5248319119 1.4620500398 1.0949100060
H -0.0282885909 -0.8337825098 2.0320313129