23

C -0.2604093391 1.5297723358 0.0380539821
C -0.0241924128 0.0113183253 0.0168175664
C 0.4560050401 -0.5047361797 -1.3609795011
C 1.7636601272 0.0803620311 -1.9141720290
O 2.9456051353 -0.2852241508 -1.2243614658
C 3.0896606828 0.3145593977 0.0530926000
C 2.3634165616 -0.4377386885 1.1481871822
C 1.5563119534 0.2993063312 2.1915101558
C 0.8554299819 -0.5371977340 1.1486823686
H 0.6558377731 2.1139392821 -0.0844055233
H -0.9376105684 1.8170680408 -0.7737902631
H -0.7212342214 1.8361792952 0.9817269913
H -1.0140337875 -0.4383044639 0.1717571332
H 0.5629987540 -1.5953046914 -1.3143642208
H -0.3249738651 -0.2966706344 -2.1059982809
H 1.9031825880 -0.2878545113 -2.9363814864
H 1.6930361716 1.1792061306 -1.9753322028
H 4.1653175563 0.3219153953 0.2622414631
H 2.7628045242 1.3648740832 0.0147785731
H 2.8857994493 -1.3305285076 1.4807488084
H 1.5754062474 -0.0538735716 3.2168861344
H 1.5019361413 1.3793672481 2.1014778684
H 0.4947455069 -1.4947939330 1.5155370862