19

C 0.1208179961 1.5955391406 -0.0939684064
C -0.0053556784 0.0821033927 -0.0038240399
C -1.3888222383 -0.4909109004 -0.3603347327
C -1.6369626374 -1.6004490585 0.6900066627
O -0.8128310521 -1.2962464646 1.8246512398
C 0.2991832927 -0.5627231535 1.3967521435
C 1.5040387261 -1.3015980273 0.7614461260
O 1.0163358862 -2.0768838323 -0.3433952251
C 1.2288989715 -0.6792766418 -0.5471149484
H 1.1154131972 1.9336962967 0.2180149871
H -0.0396960964 1.9451078898 -1.1203152752
H -0.6175828381 2.0880619042 0.5471867022
H -2.1439551758 0.2966468255 -0.2725259149
H -1.4342866988 -0.8874638294 -1.3778444235
H -2.6726120020 -1.6277102242 1.0435253662
H -1.3736517874 -2.5828233758 0.2876875479
H 0.6020421053 0.1343414413 2.1841886039
H 2.4346144433 -1.6261462613 1.2133802500
H 1.9057019761 -0.3865017319 -1.3427376934