20

O -0.1766164805 1.3765775829 0.0292173023
C -0.2076446404 0.0107406832 0.4191120501
C -1.2820425347 -0.6724265890 -0.4161345086
C -1.3396531813 -2.1730318193 -0.1490950284
O -0.3908673431 -2.8055220582 0.2776496304
N -2.5461652817 -2.7568411552 -0.4331503306
C -2.7322605203 -4.1767620294 -0.3964694448
C -2.9315267302 -4.8530914153 0.9324199923
C -4.0928858753 -4.6965074067 -0.0175398223
H 0.5325257084 1.8070980675 0.5150760742
H 0.7521381390 -0.4917680129 0.2464434156
H -0.4437368428 -0.0974525531 1.4887980455
H -2.2548741744 -0.2026578839 -0.2333645620
H -1.0523803445 -0.5144499154 -1.4778780079
H -3.2451663389 -2.2013950324 -0.9011109583
H -2.1729524779 -4.7317118695 -1.1457815053
H -2.4943690992 -5.8353090573 1.0672283171
H -2.9114913067 -4.2213301395 1.8118381127
H -4.8537108474 -3.9663738564 0.2376919043
H -4.4661629483 -5.5693032300 -0.5407282863