19

C 0.0308573603 1.4856146395 -0.0435411403
C -0.0496881579 -0.0021458773 0.1361210908
C -1.1605050503 -0.7255479186 0.1335722050
C -2.5689370998 -0.6824177634 -0.4053956223
O -2.4380816660 -2.0869892376 -0.7799237369
C -1.2214517509 -2.2178126213 0.0077177201
C 0.0695166111 -2.6985386782 -0.6434952617
O 1.1149739466 -2.1916508574 0.1841380231
C 1.2520734581 -0.7769735044 0.2008368709
H 0.6500294477 1.7484296666 -0.9104506217
H -0.9595777273 1.9259777923 -0.1845052860
H 0.4897421199 1.9688636891 0.8284952729
H -3.3711312642 -0.5435729424 0.3328929587
H -2.7582325588 -0.0331023762 -1.2684033499
H -1.4188880108 -2.7802751466 0.9303527280
H 0.1935743169 -3.7843311550 -0.6504482258
H 0.1319455350 -2.3207259781 -1.6747962770
H 1.8754087768 -0.4494784391 -0.6516819705
H 1.8190965236 -0.5475916519 1.1118154425