17

C -0.0733058079 1.5280917430 -0.0068503878
C 0.0674869613 0.0379482088 -0.0215182793
C 0.0759282649 -0.9012288512 -1.1821335152
C 1.2759006157 -1.7915698584 -1.0723763370
C 1.7555651289 -1.7297637032 0.1725509316
C 0.8507349460 -0.8541352349 1.0083736384
C -0.5197679866 -1.5944573597 1.1577217372
O -1.0322681277 -2.1522176115 2.0886105688
C -1.0440951659 -1.0529682495 -0.1223155651
H 0.8893211107 2.0141373227 -0.2011100272
H -0.7792955256 1.8604187273 -0.7743713952
H -0.4388864706 1.8829634667 0.9626697663
H -0.2892445097 -0.5594092831 -2.1452700124
H 1.6472663688 -2.3989543767 -1.8870527716
H 2.5725640033 -2.3061043468 0.5860714384
H 1.2522285533 -0.4153762517 1.9205640241
H -2.0866804490 -0.9591046717 -0.3983846740