18

O 0.7195899401 0.2822435527 0.7730178065
C -0.1551490114 0.4621908174 -0.3262747234
C -1.4594895173 -0.3473896233 -0.2116484360
C -2.2425637789 -0.3036786473 -1.5238627110
O -2.5292948641 1.0528458326 -1.8240440232
C -1.1935157160 -1.7964522747 0.2154341356
C -1.0172180931 -2.0038617988 1.7015306555
O -1.0604985071 -1.1395563139 2.5430570046
H 0.1976859361 0.3618526367 1.5807718217
H -0.4034590822 1.5196590565 -0.4825735656
H 0.4035445229 0.1260993716 -1.2105120671
H -2.0855115457 0.1207167501 0.5587570902
H -1.6478409284 -0.7725997273 -2.3263017130
H -3.1691971971 -0.8911671535 -1.4176898141
H -2.9678111330 1.0896226723 -2.6788082483
H -2.0187495554 -2.4620129392 -0.0833181476
H -0.3013855558 -2.2111912144 -0.2757357085
H -0.8575378935 -3.0650916772 1.9959867636