18

O 0.0509408827 -0.0839523686 -0.0550839268
C 0.0541743995 1.1379975124 0.0086192153
C -1.2086897456 1.8590287187 0.2058052502
C -1.5003770745 3.1785021198 0.1391227744
N -0.7041006913 4.2317092444 -0.2135712296
C 0.4538043683 4.1025508806 -1.0876906081
C 1.5876872399 3.2644170171 -0.5291294151
C 1.7271294235 2.9690572802 0.9285536290
C 1.3768408907 1.8453885136 -0.0428837859
H -2.0294617752 1.1961904214 0.4561402069
H -2.5080212428 3.4852458969 0.4113511460
H -1.1818153359 5.1140348798 -0.2880334588
H 0.1514559265 3.6861020417 -2.0623737511
H 0.8221079791 5.1177606408 -1.2672413503
H 2.5076358700 3.4057782738 -1.0906011872
H 2.7155338810 2.9545923206 1.3733724903
H 0.9385620504 3.3143328716 1.5871605828
H 2.1715704238 1.1417223852 -0.2641153920