21

C 0.0602531620 1.5844882672 0.0114437506
C -0.0463749507 0.0816702768 0.0082621654
C 0.3674681261 -0.7542892365 -1.2398103941
C -0.6195642466 -1.8063542832 -0.7451247118
C -0.5396800457 -1.8152675047 0.7950522386
C 0.4938907536 -0.7684158742 1.1970642223
C -1.3824230621 -0.7962546994 0.0724668024
C -2.8325611954 -0.4619050838 0.1496074066
O -3.5565563950 -1.6863974036 0.1802329482
H 1.1112530589 1.8943707061 -0.0413865421
H -0.4572015338 2.0284924354 -0.8463626734
H -0.3652225896 2.0182185652 0.9233521632
H 0.0213281892 -0.2867459081 -2.1672867740
H 1.4283724653 -1.0168485593 -1.3372094586
H -1.0298749388 -2.6527679729 -1.2797082566
H -0.8929692610 -2.6680407585 1.3594248240
H 1.5590167121 -1.0314695495 1.1811215668
H 0.2458667284 -0.3118283051 2.1607191292
H -3.0369600647 0.1407847627 1.0512840850
H -3.1287984038 0.1508792489 -0.7191519594
H -4.4936416985 -1.4757528734 0.2277411477