16

C -0.0381360641 1.5562776656 0.0822541177
C -0.0039136076 0.0322548267 0.0644516260
O -1.2894840398 -0.5466855855 0.1873409769
C 0.7046089823 -0.4978492521 -1.2155223572
O 2.0200351149 0.0183506230 -1.3561679805
C 0.6951306690 -1.9612365761 -1.2548029291
C 0.7521537603 -3.1682418110 -1.2589946879
C 0.8097226022 -4.5322185069 -1.2685588568
N 0.8623080544 -5.6926869813 -1.2767729995
H 0.9686294863 1.9700258113 -0.0055365658
H -0.6304059467 1.9383014845 -0.7595272084
H -0.4935244103 1.9092143265 1.0108267153
H 0.5612494514 -0.3374352942 0.9294507284
H -1.8826638629 -0.0997191837 -0.4270405058
H 0.1518219865 -0.1200316766 -2.0865870154
H 2.5852510740 -0.4224100000 -0.7109950478