14

N -0.0289097111 1.3756853950 0.1280063696
C 0.0329880316 -0.0120667457 0.0468160789
N -1.1296466770 -0.6584318598 0.0441312360
N -1.1606004475 -1.9902512681 0.0374459337
C -0.0292461541 -2.6899236419 0.0333676269
N -0.1555664113 -4.0740367480 0.1006822916
C 1.2346927859 -2.0645294460 0.0199282724
C 1.2665125714 -0.6953338933 0.0268024948
H 0.6835378004 1.8709432323 -0.3883594842
H -0.9590189849 1.7207908141 -0.0699379027
H -1.1006342990 -4.3735922210 -0.1005420707
H 0.5332963038 -4.5966849608 -0.4206592842
H 2.1453684494 -2.6544624160 0.0169713981
H 2.2036094722 -0.1483411411 0.0295488897