19

C 0.0156137683 1.5615531831 0.1263458632
C -0.1024484854 0.0401665367 -0.0236913116
C 0.6867183048 -0.5172951638 -1.2089043798
O 0.1894749028 -0.0132938734 -2.4406087912
C 2.2483965926 -0.5157874003 -1.1651654573
N 2.3185741139 -1.9923782569 -1.4612295291
C 1.6468796913 -2.6472683797 -0.3259255396
C 0.8020632851 -2.0330348146 -1.3671722165
H 1.0598590884 1.8744188058 0.2397098325
H -0.4037155955 2.0877283076 -0.7384531105
H -0.5307789467 1.9113894477 1.0066635648
H 0.2417741949 -0.4418782667 0.8978268847
H -1.1544899791 -0.2399649240 -0.1556905810
H 0.3409979591 0.9373602642 -2.4587085417
H 2.6827048606 0.0538646823 -1.9890397966
H 2.7338825125 -0.2354216640 -0.2231759832
H 1.7462676263 -3.7285202774 -0.3415122042
H 1.7220669269 -2.2040739340 0.6651046311
H 0.1992357893 -2.6045628725 -2.0651738940