13

C -0.0484175382 1.4463826860 0.0950903321
N -0.0543251239 -0.0022268567 -0.0320956148
C -1.1705462590 -0.7426137201 -0.0015494931
N -1.2629173048 -2.0521102745 0.0241786109
C -2.6201514809 -2.2136347663 0.0105752971
N -3.3451735290 -1.1189630896 -0.0167237479
O -2.3580193351 -0.1128025273 -0.0211112453
C -3.2485957855 -3.4974746348 0.0256123972
N -3.7464425873 -4.5397626704 0.0383187353
H 0.9288270069 1.8177694059 -0.2164698522
H -0.8084860581 1.8786142093 -0.5590517954
H -0.2437221834 1.7762722466 1.1224907739
H 0.8010167283 -0.5169756180 0.0980576223