21

C -0.0107482539 1.5676175034 -0.0550455476
C 0.0693574654 0.0541610185 0.0497000631
O 0.9199603358 -0.5019572285 -0.9903097070
C 1.8405178709 -1.2958474568 -0.2305931290
C 2.2656570552 -0.3562019343 0.9224004894
C 0.7579163529 -0.5448673879 1.2996660390
C 0.2010052769 -0.2033613261 2.6610422385
O -1.1861443758 -0.4977281721 2.7767771041
C 0.9366983596 -2.0221723895 0.7944535814
H 0.9542016099 2.0467844424 0.1329668438
H -0.3351751474 1.8502848696 -1.0607623644
H -0.7427884372 1.9575182146 0.6596907979
H -0.9389690182 -0.3632371658 -0.0609488030
H 2.5363990598 -1.7995154538 -0.8996864559
H 2.9356630210 -0.8282831525 1.6439908636
H 2.6242926171 0.6394380650 0.6549438304
H 0.7850889641 -0.7145680862 3.4427950132
H 0.2895078629 0.8732095334 2.8462310662
H -1.2943496606 -1.4461232091 2.6509295053
H 0.0638963152 -2.5481189349 0.3975092169
H 1.4879208563 -2.6479034095 1.5000443341