19

C -1.4200448352 0.7913635031 1.2242176285
C -0.4447638340 0.5177209932 0.0635557319
O 0.8834542612 0.5546886567 0.5162516079
C -0.7265175838 -0.8356536159 -0.5833979861
O 0.0933004272 -1.7237659729 -0.4870097041
C -2.0389389779 -1.1125410560 -1.3415819071
C -2.9042522676 -2.1029735638 -0.5205804573
C -2.7895625447 0.0746430530 -1.7358704795
C -3.4356376371 1.0292363837 -2.0774424650
H -1.1357701139 1.7357777356 1.6945335937
H -2.4533484489 0.8716711098 0.8780429364
H -1.3459840441 0.0011309234 1.9775317346
H -0.5952945641 1.2888012218 -0.7064863149
H 1.2169876245 -0.3508154598 0.4152806250
H -1.7155935990 -1.6380278312 -2.2492345566
H -3.2567389896 -1.6414103654 0.4051233682
H -3.7755729605 -2.4069757037 -1.1046123401
H -2.3094527182 -2.9853804039 -0.2755034480
H -3.9954877144 1.8796179725 -2.3804688376