23

C -0.1039751343 1.3081818029 -0.0916987185
O -0.0582644632 -0.0832982173 0.1244178228
C 0.7403227169 -0.5616739684 1.2220775284
C 2.1712609876 -0.0236940017 1.1571725638
C 0.0314114683 -0.2586000989 2.5700844596
C -1.0028867930 -1.3801339738 2.7014511173
C -0.2045800808 -2.6189023822 2.2627724474
O -0.9864025355 -3.7154639073 1.8171868680
C 0.6677033672 -2.1093518870 1.0995427067
H 0.8590343811 1.7159281333 -0.4295947267
H -0.8423760086 1.4743124228 -0.8807396278
H -0.4213196038 1.8727019129 0.7974106732
H 2.2166835339 1.0520191521 1.3537920920
H 2.7919025566 -0.5217226842 1.9079827357
H 2.6089620666 -0.2132998727 0.1717446640
H 0.7623065670 -0.3194307212 3.3863060931
H -0.3983885126 0.7457914413 2.6029266057
H -1.4300037006 -1.4715272201 3.7053451673
H -1.8208845380 -1.2247437433 1.9898430050
H 0.4422061703 -2.9353450778 3.0982116952
H -1.5027168075 -4.0344230335 2.5640312026
H 0.1760779807 -2.3587614090 0.1568134487
H 1.6584818217 -2.5697785071 1.0948621061