12

O -0.0745808112 1.3170553559 0.0095967189
N 1.3830220486 1.7533165479 -0.0008640032
N 2.0935033612 0.7476951430 -0.0147790822
C 1.3264682600 -0.4176019329 -0.0129046787
C -0.0122345636 -0.0024963826 0.0021586479
C -1.0197336334 -0.9661325697 0.0066906101
C -0.5747736544 -2.2799867885 -0.0045933595
C 0.8024380145 -2.5826110742 -0.0194383057
N 1.7670683064 -1.6665076434 -0.0238137480
H -2.0701503538 -0.7039126847 0.0181319139
H -1.2898159867 -3.0949927948 -0.0021193550
H 1.1237415522 -3.6198422759 -0.0281515484