17

O -0.1582430829 -0.0822235511 -0.4549077725
C -0.0844417980 1.0648650622 -0.1570848483
C -1.1654189611 2.1895718531 0.2018335513
C -0.0073291110 2.8452557148 0.9849881473
C 1.0187891430 4.0328491253 1.0813525114
C 2.0216055326 2.8035747988 1.1510609219
O 1.7175966427 2.2121077532 2.3967800933
C 0.2792070517 2.1499665488 2.3349126989
C 1.0244355032 2.1432490654 0.1056987337
H -1.4505839766 2.7259928640 -0.7072214920
H -2.0642789369 1.8687054917 0.7331641427
H 1.0981737064 4.6240853477 0.1691053527
H 0.9987247532 4.6681514690 1.9704480730
H 3.0982280955 2.8867535732 1.0125581043
H -0.1621971471 2.6751816140 3.1890461261
H -0.0441505203 1.1007253375 2.3578991507
H 1.1151476754 2.6794558921 -0.8465080143