19

O -0.1047503273 1.5743010287 -0.1322853978
C 0.0402317420 0.1701225271 0.0406199020
C 0.6672717179 -0.5116361602 -1.1813090065
C -0.1350744170 -0.2754168171 -2.4722232441
C 0.4782802688 -1.0064297781 -3.6436930440
O 0.8952032302 -0.4823978886 -4.6441210452
C 0.8265105408 -0.1367889868 1.3008534929
C 0.1675949762 -0.3924247102 2.5838433292
O 0.7072655307 -1.4668348918 1.8054553776
H 0.7658722295 1.9461745675 -0.3149723205
H -0.9798552017 -0.2089440242 0.1754817357
H 1.6940425938 -0.1394327827 -1.3112941522
H 0.7491189303 -1.5843237716 -0.9687606273
H -1.1554214907 -0.6606586640 -2.3317818175
H -0.2011436266 0.7891298105 -2.7060447341
H 0.5351710841 -2.1135258217 -3.5126909265
H 1.8461674603 0.2591281807 1.3142272815
H 0.6921503081 -0.1830196416 3.5144445808
H -0.9191848193 -0.3577229260 2.6422330759