19

C -0.2428615237 1.5436905348 0.0784666439
N 0.1511153423 0.1361307440 0.1677865268
C 1.3548260335 -0.5116259398 -0.2618798971
C 2.6936770896 0.1667995630 0.2100009414
N 2.3686388563 1.4313915400 0.9126989907
C 2.2403668993 0.1311377094 1.6126149404
C 0.8961751882 -0.5659206078 1.1760014741
C 0.2535433278 -1.6603055449 1.9735060024
O -0.4407365753 -1.1590772612 3.1100277365
H 0.3796350455 2.0912909814 -0.6308125167
H -1.2866358540 1.5874184052 -0.2585375446
H -0.1605643271 2.0457125122 1.0446185321
H 1.3177887659 -1.2722983117 -1.0361982712
H 3.6731456006 -0.0197721268 -0.2099414413
H 3.2536559451 1.8421922628 1.2103855731
H 2.7889907100 -0.0885549215 2.5187904887
H -0.4085597366 -2.2380569026 1.3128274431
H 1.0153282817 -2.3405245541 2.3710029661
H -1.1275793690 -0.5694622223 2.7805247617