15

C -0.0731674151 1.5357758973 0.0531490418
C -0.0055628612 0.0361663080 -0.0196283514
C 0.0064923383 -0.6655156726 -1.2164599524
C 0.0712445256 -2.0634953751 -1.1823077258
O 0.0824793847 -2.7377326314 -2.3535672512
N 0.1227412991 -2.7751338478 -0.0645799169
C 0.1115784855 -2.1063542228 1.0955197501
C 0.0492687814 -0.7291145107 1.1500397756
F 0.0407130460 -0.1067221943 2.3387570984
H 0.7964909748 1.9406784564 0.5809514146
H -0.1104613250 1.9770606248 -0.9447831890
H -0.9577602633 1.8601439802 0.6109142237
H -0.0331596024 -0.1515921395 -2.1696881430
H 0.1294359436 -3.6745992381 -2.1190880932
H 0.1536144381 -2.6852806645 2.0136306587