20

O 0.0708444581 1.3727282166 0.2048082864
C 0.0456071585 -0.0287372593 0.0373237516
C -1.3814412882 -0.5547744617 -0.0505421468
C -1.4618164834 -2.0708472349 -0.2547853421
N -2.7625015289 -2.6680798053 0.1008917352
C -3.0148451129 -2.9048706252 1.5247213218
C -3.7458711206 -1.8326862431 0.8058161502
C -3.4153106787 -0.3818268469 1.0967187898
O -2.0165814407 -0.1784201903 1.1738120044
H -0.5381955436 1.5577345108 0.9298937045
H 0.5842166869 -0.2564601903 -0.8885591011
H 0.5609551242 -0.5449749462 0.8639760249
H -1.8957898172 -0.0370032401 -0.8768896036
H -1.2652699666 -2.2967818798 -1.3097012777
H -0.6784357448 -2.5662500745 0.3315204226
H -3.5021036826 -3.8466743647 1.7638619324
H -2.2517769115 -2.5856418328 2.2319237468
H -4.7766521902 -2.0032645502 0.4977904679
H -3.8447444524 0.2632070941 0.3122333807
H -3.8377386752 -0.0703826962 2.0578667521