18

C -0.0402276027 1.6479049976 0.0015086557
C 0.0149949575 0.1117852226 -0.0125580685
C 0.5037842447 -0.7320107282 -1.2380389589
C 2.0242396661 -0.5752073126 -1.2622216772
C 2.7185304828 0.5168177404 -0.5338836953
N 2.3927085626 -0.7115642743 0.2059100217
C 1.0268199749 -0.7980633786 0.7851386308
C 0.4740177525 -1.8921538987 -0.1843965911
O 0.1126355800 -3.0226723513 -0.1320660692
H 0.4078597847 2.0940338938 -0.8894473526
H -1.0818549444 1.9794915199 0.0358593658
H 0.4599777789 2.0694730830 0.8790473115
H -0.9811046260 -0.2562407882 0.2559234548
H -0.0368847145 -0.7747638824 -2.1806064147
H 2.5795795348 -1.1943817523 -1.9602145511
H 3.7873814193 0.6079514994 -0.7088702776
H 2.2342830211 1.4504444996 -0.2958912617
H 1.0126524177 -0.8857007098 1.8689838774