17

C 0.0666387609 1.3810887363 0.1098777531
N 0.1774856007 -0.0630142027 0.1356400684
C 0.4622914713 -0.6459011329 -0.9491460441
N 0.5934153764 -2.0417962909 -1.0335961976
C 0.3923593921 -2.8470282518 0.1798015434
C 0.9061556993 -2.5661097952 -2.2683393885
O 1.0730385634 -1.8987830886 -3.2755847715
C 1.0664029799 -4.0836675952 -2.4419896604
O 0.9519334049 -4.9388443275 -1.6066005997
H 0.7789625125 1.8133886906 0.8217549428
H 0.2484676727 1.8240858267 -0.8811076065
H -0.9343039432 1.6751611243 0.4455892525
H 0.6333378123 -0.1562824285 -1.9093461911
H -0.4310773604 -3.5495573726 0.0482323239
H 1.2925074734 -3.4111607927 0.4256093399
H 0.1610867450 -2.1454282461 0.9789145679
H 1.3157422188 -4.2950039532 -3.5015170826