16

C 0.5757505117 1.1783171162 -0.3081432281
C 0.2328548421 -0.2977904062 -0.2748445022
N 0.3208670950 -0.8562392630 1.0054683949
C 0.1004811389 -2.1645312945 1.4223829550
O -0.2493025692 -3.0942915835 0.7506282549
N -0.0950772914 -1.0328367310 -1.2604420222
C -0.1851839741 -0.4457631601 -2.5889749880
C 1.1064378311 0.0140024844 -3.1235689853
N 2.1313916309 0.3811237425 -3.5119602765
H 0.5566721969 1.6317843776 0.6855970378
H 1.5707546320 1.3248100240 -0.7396979727
H -0.1329979535 1.7217961430 -0.9386603999
H 0.6102982056 -0.2269910903 1.7378424816
H 0.2955329329 -2.2389746348 2.5126408196
H -0.5762872761 -1.2088961983 -3.2690958634
H -0.8877622528 0.4006510039 -2.6327939356