15

N -0.1711325557 1.4871968858 0.1246094690
C -0.0318612582 0.0528294761 0.0403403412
C 0.8823021807 -0.4568413240 1.1706203457
C 2.2125165131 0.1479021015 1.1270829792
N 3.2494542327 0.6563860771 1.0972631601
C -1.3535645849 -0.7396743416 -0.0920747823
O -0.8996462235 -1.3260700860 -1.3500942697
C 0.2735589119 -0.6076108773 -1.3362007505
O 1.1201639648 -0.5726988352 -2.1666675919
H 0.7416936021 1.9341028266 0.0913055436
H -0.7055481814 1.8483643747 -0.6597009772
H 0.4188445198 -0.2040529152 2.1305426188
H 0.9810077232 -1.5458098700 1.1187976096
H -1.5469351959 -1.5124113991 0.6549425518
H -2.2398478587 -0.1199520834 -0.2426493674