18

C 0.0449909463 1.4872793353 0.0504978007
C -0.0608004032 -0.0013823332 -0.0433602682
C -0.0399500973 -0.7761194313 -1.1387236943
C 0.0405681854 -2.2246309815 -0.7247181039
O -0.2862480332 -3.2079065943 -1.6562430000
C 1.4223781564 -2.4082977283 -0.0252120326
N 0.8550442598 -2.0631122069 1.3110087199
C -0.1275873245 -0.8819205332 1.1573826135
C -0.5135668422 -2.2450374999 0.7472224555
H 0.9623721697 1.7867171458 0.5722072723
H 0.0510715087 1.9506443132 -0.9394812837
H -0.7910616639 1.9110635112 0.6207697547
H 0.1331522754 -0.4506557235 -2.1588390766
H -1.1061376662 -2.9491257207 -2.0906601811
H 1.6955977881 -3.4658304349 0.0060639130
H 2.2644711560 -1.8011225614 -0.3722493458
H -0.3879508406 -0.4842701223 2.1318164809
H -1.2687585649 -2.8902754942 1.1863840957