15

C -0.0686621097 1.5464019322 0.0787139839
C 0.1459112311 0.0725954760 -0.0019773546
O -0.7792243153 -0.8045683668 0.6427495964
C 0.6062301848 -0.9507051465 0.9628611540
C 1.2566795992 -1.7796724820 -0.1812584403
O 0.3970256949 -2.7942861603 -0.7720772970
C -0.0970309932 -1.9009734885 -1.7081728078
O -0.8812267285 -2.1171600251 -2.5700668644
C 0.7644322582 -0.7332831635 -1.1950775934
H 0.8423283930 2.0881426784 -0.1936838395
H -0.8653485170 1.8560882687 -0.6063196416
H -0.3595107134 1.8299313267 1.0934506119
H 0.8885237426 -0.8918207966 2.0075869873
H 2.2891049511 -2.1043673859 -0.0746404670
H 1.4143847721 -0.2105037467 -1.8924470079