16

O 0.2091306598 1.1139740174 -0.5524864610
C 0.0037925202 0.0251414444 0.3309239600
C -1.4108146780 -0.5241184639 0.2330469865
C -1.8779600731 -1.1419849366 -1.0481327276
O -0.9117583920 -1.2628242403 -2.0598300597
C -1.6400610977 -2.0430391065 0.1644872070
O -0.5400407242 -2.8924288793 0.1066867180
C -2.7792151521 -2.6027171296 0.8478818463
N -3.7161863339 -3.0150747594 1.3865539731
H 0.1425089727 0.7609761640 -1.4468454531
H 0.7285757884 -0.7804538181 0.1656660193
H 0.1713028862 0.4111590698 1.3400447624
H -2.1718489828 0.0394291247 0.7630018029
H -2.8936894747 -0.9648522586 -1.3885015431
H -1.2956413603 -1.7495701486 -2.7972258393
H -0.2072902485 -2.8442188093 -0.8013331417