21

C -0.2292411838 1.5262045187 0.0056153142
C -0.0009059040 0.0330507044 -0.0624445656
C 0.6437761541 -0.6701608277 -1.2044871432
C 1.4452621006 0.1173102106 -2.1954456060
N 2.8127861812 -0.3849805734 -2.4354615963
C 2.6061161284 0.7136604584 -1.4753142120
C 3.2590435703 2.0289181467 -1.8148770284
C 2.4823550147 0.2947294148 -0.0078356253
N 1.3186131704 -0.6130923598 0.1212759941
H 0.4474426722 2.0963041022 -0.6325696788
H -1.2530743276 1.7523650791 -0.3102344554
H -0.1176807789 1.8891891730 1.0336876654
H -0.7761281700 -0.5330654742 0.4525343844
H 0.2756726574 -1.6479599013 -1.5115566132
H 0.9633450694 0.5886550174 -3.0475241251
H 2.9488375462 -1.2705885022 -1.9493881247
H 3.2657564916 2.1855181108 -2.8960269323
H 2.7372596105 2.8677681134 -1.3402373988
H 4.2992123317 2.0456432250 -1.4693290740
H 3.3767897282 -0.2443413180 0.3295760334
H 2.3716289373 1.1686009922 0.6448274474