22

C -0.4406571470 1.3810407792 -0.1827312290
C -0.0656235319 -0.0984677575 -0.1341440673
C 0.7123981085 -0.5492438134 -1.3650980620
O 0.8456846804 0.1350632394 -2.3586011544
N 1.3380451607 -1.7814161684 -1.2316773931
C 0.7527735459 -3.0527589742 -0.8575645432
C 1.3956413831 -2.8507269719 -2.2097696097
C 0.4974707542 -2.7678965447 -3.4286994670
C 2.7762867494 -3.4230530251 -2.4622489082
H 0.4533032064 2.0099672040 -0.2066568919
H -1.0180362619 1.6044009503 -1.0825818988
H -1.0340729088 1.6578190013 0.6933788722
H 0.5254197924 -0.3367216367 0.7576478642
H -0.9680620506 -0.7214731719 -0.0617616381
H 1.2720381226 -3.6112951369 -0.0817982492
H -0.3327048403 -3.1263217860 -0.8219127037
H -0.5073564371 -2.4264810940 -3.1674691283
H 0.9054244547 -2.0633423602 -4.1583598517
H 0.4154785863 -3.7519872651 -3.9016190516
H 2.7059761500 -4.4502986506 -2.8357040811
H 3.3061477573 -2.8264094864 -3.2121697114
H 3.3721162658 -3.4236132812 -1.5462759369