19

C -0.6000626622 1.2506008793 0.1145080272
C -0.0247031739 -0.1536171312 0.2205828597
O 0.2744851489 -0.6356985783 1.2923071546
C 0.1124760430 -0.8815141385 -1.0768327378
C 0.9025227232 -2.1640058965 -1.3141113923
C 0.7271952853 -3.1298152365 -0.1436271182
O -0.7236421017 -3.0203516759 -0.2412522444
C -0.5990970686 -2.2040827393 -1.3963968858
C -1.6079613715 -2.3838350159 -2.4838178636
H 0.0658398723 1.8901356627 -0.4768826505
H -1.5664237650 1.2326905236 -0.4020223465
H -0.7212985128 1.6747780466 1.1117637556
H 0.1152107169 -0.2345789426 -1.9510604207
H 1.6573851014 -2.2245851980 -2.0873104882
H 1.0404379690 -4.1485652518 -0.3960120695
H 1.0977998110 -2.8280067965 0.8346272738
H -2.6073628044 -2.1107175664 -2.1275313977
H -1.3680529941 -1.7550518617 -3.3453712960
H -1.6392441868 -3.4288015131 -2.8078025098