19

C 0.0110701677 1.5056892828 -0.0364973734
C -0.0127940896 0.0104222124 -0.0481941523
C -0.0989067178 -0.7780617216 -1.1283222443
C -0.0341191422 -2.2162478387 -0.7475373243
O 1.2081362212 -2.5917267574 -0.0931325242
C 0.0744978427 -2.2591524402 0.7160163308
C 0.0739563868 -0.8213864188 1.2349603515
C 1.2980443705 -0.5409240659 2.1124599729
O 1.1576535804 0.7498552470 2.6919108411
H 0.9362075311 1.8838708362 0.4086646404
H -0.0892855184 1.9093471856 -1.0478467587
H -0.8018854508 1.9052807972 0.5819548677
H -0.1756044515 -0.4311262488 -2.1520697536
H -0.4870565633 -3.0030890369 -1.3426318436
H -0.3134722825 -3.0680608505 1.3302312362
H -0.8166434667 -0.6492339142 1.8562090699
H 1.3592418971 -1.3148230274 2.8940671718
H 2.2042242210 -0.6169938033 1.4971072074
H 1.9656792241 0.9512334226 3.1727745747