18

N -0.1006874536 1.3203992695 0.1603090816
C 0.0403535031 -0.0634674740 0.0373009856
N -1.0385739752 -0.8520961037 -0.0108049024
N -0.5085006459 -2.0942432690 -0.0756156351
C -1.1566730681 -3.3867266418 -0.0119912751
C 0.0193017053 -4.3271404839 -0.3818785371
C 1.3208886620 -3.5347958832 -0.0428004120
C 0.8395504661 -2.1163463279 -0.0570966923
C 1.2558035302 -0.8009932651 0.0120407280
H 0.5722008179 1.8391810258 -0.3878190761
H -1.0419110607 1.6145330952 -0.0681782799
H -1.5463591116 -3.5779537001 0.9965196662
H -1.9924877064 -3.4459970052 -0.7143712458
H -0.0390470852 -5.2824225646 0.1431384361
H -0.0095696228 -4.5362357917 -1.4546754729
H 1.7077318706 -3.8069032268 0.9471701826
H 2.1203748155 -3.7333173112 -0.7619751696
H 2.2625213887 -0.4178761323 0.0445102483