19

C 0.2686687661 1.6637422381 -0.1252070860
C 0.0064021805 0.1640024710 0.0627780906
C 0.6226837291 -0.6661466656 -1.0766403509
O 1.9980621109 -0.7816549421 -0.7362280518
C 2.0803044569 -0.9598983257 0.6758890174
C 0.7614969840 -0.4334127756 1.2542089184
C 0.5979277548 0.0303319244 2.6488895489
N 0.0962992769 -1.2984633459 2.2431495605
H 1.3355017269 1.8501264320 -0.2815943657
H -0.2706742104 2.0454403216 -0.9984885288
H -0.0527339285 2.2410655760 0.7467772049
H -1.0703978757 -0.0174722362 0.1550817107
H 0.1455717332 -1.6579894122 -1.1391865997
H 0.5605927115 -0.1865559570 -2.0575526777
H 2.1963891432 -2.0200669135 0.9402355243
H 2.9587389207 -0.4107390375 1.0310442454
H 1.4419604812 0.0101251835 3.3342710433
H -0.1203618818 0.8219964661 2.8498807199
H -0.9138435295 -1.2593649314 2.1240204865