23

C -0.0961852249 1.5293948895 -0.0010958094
C 0.0068003359 -0.0016321471 0.0116934136
C 0.8843089447 -0.5037604955 -1.1709786289
C 2.2280852403 -0.7459072066 -0.5294374554
C 2.1629989222 -0.7625474836 0.8053500628
C 3.2946577988 -1.0040686565 1.7547678611
C 0.7521181941 -0.5282881082 1.2545101195
C 0.3933718808 -0.1000645108 2.6572176621
C 0.0901687031 -1.5057714516 2.2117300706
H 0.8998220610 1.9839885985 0.0362694327
H -0.5911574156 1.8754129709 -0.9147650548
H -0.6684979119 1.9064293013 0.8518643881
H -1.0029314466 -0.4220349273 -0.0416523180
H 0.4866553035 -1.4306628228 -1.6085900371
H 0.9231115982 0.2281209984 -1.9868938398
H 3.1315026158 -0.9239298238 -1.1034340689
H 4.2224059212 -1.2153002035 1.2166444511
H 3.4697472899 -0.1346028738 2.4006026129
H 3.0931055418 -1.8529429521 2.4204987029
H 1.1947178195 0.0479288901 3.3737278240
H -0.4388019288 0.5843415867 2.7836845265
H -0.9446017568 -1.7704991026 2.0194942871
H 0.6868833237 -2.3156319797 2.6186489371