23

C 1.1608424840 0.3115192513 1.1499223595
C 0.0903837624 0.2341930616 0.0547251988
C 0.5987079966 -0.4688790400 -1.2035193136
C 0.9488009286 -1.9629954262 -1.2116987687
C -0.2623316803 -2.8527380440 -1.4623656951
C -1.6743968949 -2.3417980568 -1.1842099349
C -1.7800112096 -1.0503230234 -2.0442042338
C -0.3297588816 -0.7335556584 -2.4439738477
C 0.3645767000 -2.1160736035 -2.6090231634
H 1.4848809339 -0.6890968612 1.4559337449
H 2.0473508368 0.8526980268 0.7999232595
H 0.7867248981 0.8263422027 2.0403319969
H -0.7948138692 -0.2730414793 0.4520415221
H -0.2318849344 1.2501930580 -0.2117130066
H 1.4808119091 0.0758172382 -1.5645965671
H 1.8654404271 -2.3949562768 -0.8242495352
H -0.0613393990 -3.9146256698 -1.3639659055
H -2.4165352643 -3.0864032719 -1.4909232716
H -1.8456951383 -2.1496768825 -0.1200759197
H -2.3752035754 -1.2401300789 -2.9444616238
H -2.2584796748 -0.2233133054 -1.5102217689
H -0.2410558956 -0.0096973147 -3.2549550199
H 0.7870980606 -2.5521843258 -3.5042672261