20

C -0.0369056193 1.5170127898 0.0370515944
C 0.0121733500 0.0037686255 0.0318273382
C -1.2139113411 -0.6625605504 -0.5755745596
C -1.1874778756 -2.2038656980 -0.5925983138
C -0.7219403698 -2.8119110246 0.7212575971
O 0.6606566791 -3.1933789525 0.7950523428
C 0.2260990245 -2.0668552214 1.5680166377
C 0.7169156641 -0.7093009530 1.1418985080
N 1.3564851937 -0.5558814897 -0.1766850204
H 0.8676092938 1.9274705156 0.4921746354
H -0.1053708036 1.9074844074 -0.9848404409
H -0.9068876385 1.8808035710 0.5954386764
H -2.0898816344 -0.3219715104 -0.0070161774
H -1.3579401994 -0.2948766018 -1.5990636206
H -2.1899070818 -2.5705725253 -0.8338685481
H -0.5302320794 -2.5688945710 -1.3899090864
H -1.3927857022 -3.5263802359 1.1965786766
H 0.2230557335 -2.2416670878 2.6431176394
H 1.1798888701 -0.1252037520 1.9341875004
H 1.3265689264 -1.4588984754 -0.6469373192