20

C -0.3814692959 1.3310264148 0.1155708050
N -0.0668583029 -0.0857924736 0.2197568575
C 1.2691146694 -0.5195760291 -0.1964732305
C 0.8811230705 -0.5664225861 1.2325213174
C 1.4665508498 0.3005248898 2.3426471547
O 1.1703978740 -0.3668573459 3.5686793688
C 0.1313317700 -1.3108653256 3.3355960983
C 0.4138083124 -1.8569794370 1.9273224262
O -0.6672849510 -2.4690057695 1.2841505851
H 0.4841423206 1.9924270200 0.2741748381
H -0.7789887936 1.5281314726 -0.8845378381
H -1.1527502055 1.5922418478 0.8466970155
H 1.3098754483 -1.4347066374 -0.7825098882
H 1.9704618519 0.2549905604 -0.5061008241
H 2.5547246383 0.4004299076 2.2681429569
H 1.0341668902 1.3116491167 2.3404999738
H 0.1798350217 -2.0633815703 4.1256273468
H -0.8662366155 -0.8411583321 3.3521668751
H 1.2458908143 -2.5717978099 1.9788652328
H -1.0309609770 -1.7783194230 0.7015003788