17

C -0.0067658466 1.4771362968 -0.0608683633
C -0.0279570332 0.0234042230 -0.0140510480
C -0.0474125745 -1.1828790216 0.0177640720
C -0.0379810421 -2.5978656337 0.0852670952
N -0.3281214711 -3.4798914077 -1.0872839860
C -1.1598987956 -3.5879309725 0.1220353656
C -0.3938284830 -4.4203884714 1.1980291266
N 0.9194495072 -4.8251860174 0.6384531794
C 0.7246601637 -3.4568931247 1.1616102848
H 0.7955642418 1.8776749043 0.5687670703
H 0.1629132048 1.8410882921 -1.0805205713
H -0.9507793783 1.9066593749 0.2934333436
H -0.8459568070 -2.8962870895 -1.7457921001
H -2.2263248964 -3.4047745282 0.1103970967
H -0.8487515546 -4.9349620453 2.0334145410
H 1.3966615085 -5.3471709798 1.3747644561
H 1.3275937464 -3.0405301195 1.9572557474