21

C -0.3523531289 1.4743216952 -0.1967241696
C 0.1520956498 0.0386243166 0.0380384632
C 0.9097483668 -0.4929151823 -1.0908796801
C 1.5368880162 -0.8981184912 -2.0367012660
C 2.2812812490 -1.4344800081 -3.1719616191
C 2.0696656608 -2.9418280006 -3.3594890672
C 0.6829544808 -3.3744363706 -3.8831868431
O 1.2471381832 -3.8358580116 -5.1297809133
C 2.5858065593 -3.5353425572 -4.6891980218
H 0.4846763728 2.1563715263 -0.3688682072
H -1.0071312051 1.5176577821 -1.0712634913
H -0.9136818845 1.8290743432 0.6728647071
H 0.7758624805 0.0134680254 0.9409453579
H -0.7018585513 -0.6190512783 0.2459107816
H 1.9808604846 -0.9152238703 -4.0926063391
H 3.3538848316 -1.2334021543 -3.0461131185
H 2.3977346646 -3.4757019319 -2.4654878142
H 0.1980922830 -4.1870362260 -3.3282299655
H -0.0413404399 -2.5634769098 -4.0301198858
H 3.0933157786 -2.8294068068 -5.3606549422
H 3.2012766881 -4.4394114997 -4.5971371558