17

C 0.2007083269 1.3806308020 0.0603885731
N 0.0159598304 -0.0539864226 0.0057086007
C -0.2423895427 -0.7805661034 -1.1295563558
C -0.2291596053 -2.1161284092 -0.8002683989
C 0.0452863290 -2.2103926632 0.5945623488
C 0.1359710452 -3.4552565927 1.4276752516
O 1.0401513814 -3.3266954093 2.5196029116
C 0.1964865308 -0.9186189180 1.0564624035
H 1.2468290934 1.6651124893 -0.1041162968
H -0.4149806251 1.8590445091 -0.7049272761
H -0.1128451531 1.7557289045 1.0376234979
H -0.4038666004 -0.2832855269 -2.0732353256
H -0.4130702368 -2.9378263554 -1.4765350284
H -0.8291461833 -3.6990158922 1.8891223379
H 0.4002315370 -4.3105477711 0.7846942930
H 1.8677968865 -2.9957385101 2.1542403726
H 0.4134474663 -0.5517429208 2.0469275109