18

C 0.9478341827 1.3950989882 -0.1296298451
O 1.0303164033 -0.0094813076 -0.0415392854
C -0.0754101460 -0.6631991387 -0.6156820848
C 0.1191563004 -2.1670571962 -0.4251620117
C 0.1521131262 -2.5878778581 1.0359854698
O -0.9904632044 -2.8126686711 -1.0772883508
C -0.7406024255 -3.6410256962 -2.1074966340
O -1.6034270078 -4.2104666102 -2.7048732350
H 0.9042445264 1.7346468018 -1.1759242057
H 0.0618196524 1.7835096776 0.3957041104
H 1.8459734694 1.8040074009 0.3385697461
H -1.0192536458 -0.3495973574 -0.1393652391
H -0.1577457623 -0.4369300002 -1.6915482445
H 1.0532565244 -2.4599475133 -0.9229623702
H 0.9395323818 -2.0375637897 1.5556708578
H -0.8064925353 -2.3667436315 1.5150669816
H 0.3448186799 -3.6601238332 1.1279349654
H 0.3408270501 -3.7326629151 -2.3313423847