21

C -0.2463421126 1.4570261635 -0.0397437293
C -0.0234422994 -0.0501654287 -0.0475980071
C 1.2089391302 -0.5196075630 -0.8847254859
C 1.2019689623 -2.0675790047 -0.7566515762
C 1.5244119128 -1.8331712206 0.7152984834
C 2.0922612768 -0.4462965928 0.4379761235
C 3.3967779567 0.1888216942 0.7867853839
C 0.7761801782 -0.5544418201 1.1530949471
O 0.5661418887 -0.2540312991 2.4860259262
H 0.6927092743 1.9935266892 0.1345140805
H -0.6617769372 1.7993481048 -0.9935647962
H -0.9411937742 1.7456030256 0.7555080842
H -0.9629298120 -0.5742270560 -0.2745586815
H 1.4383588650 -0.0269321566 -1.8285774154
H 0.2746000433 -2.5886161952 -1.0244436500
H 2.0426673924 -2.5280476769 -1.2844860804
H 1.8707199269 -2.5367587897 1.4637164301
H 4.2251102609 -0.2344180244 0.2065702301
H 3.3828599617 1.2699397789 0.6063905159
H 3.6183529593 0.0350349303 1.8482473384
H -0.0581779741 -0.8925684988 2.8482932085