21

C 0.0357844454 1.5505444700 0.0001411235
C 0.0287026795 0.0183669672 0.0170097968
C -1.4179267063 -0.5069430562 -0.0202976118
C 0.7954545963 -0.5884860588 -1.1527807885
O 2.2290583163 -0.5404591371 -0.9972582413
C 1.5348581410 -1.7739466094 -0.7062318720
C 1.2952116002 -1.9743935658 0.7748907072
C 0.7926763197 -0.5839355529 1.2521153230
O 1.8686959891 0.2250043910 1.6895499328
H 1.0520623757 1.9466178484 -0.0244963202
H -0.5030860700 1.9259704572 -0.8770210714
H -0.4538301621 1.9518859582 0.8931094806
H -1.9242128904 -0.2016555747 -0.9427072065
H -1.4613342877 -1.5994854181 0.0346144152
H -1.9919236932 -0.1046508624 0.8205790480
H 0.4432954523 -0.4578459885 -2.1740686711
H 1.7821422121 -2.6023612277 -1.3646103652
H 0.5425610567 -2.7579967917 0.9209550298
H 2.1926267142 -2.2646449779 1.3281958963
H 0.1211375850 -0.6686413344 2.1110494829
H 2.4786129862 0.2698161036 0.9406760421