15

N -0.1366716786 1.3164448659 -0.1356935283
C -0.0439715948 0.0869927109 0.1309345328
O 1.0774823573 -0.5481285206 0.5989021574
C 0.9355188479 -1.9727762437 0.5422811599
C -0.5129150416 -2.1945403466 0.0725678881
N -1.0925963832 -0.8332879113 -0.0260630396
C -1.5844832001 -1.0341947129 -1.4233966494
C -0.8522001729 -2.3954047366 -1.4279478205
O -0.5999134808 -3.2265980436 -2.2426547111
H 0.7564267995 1.7822491795 0.0112578374
H 1.6750349529 -2.3870588091 -0.1506819573
H 1.1145751238 -2.3820699624 1.5396392620
H -1.0730105638 -2.8703389410 0.7261780635
H -2.6734024320 -1.1158953127 -1.4863623349
H -1.2323115438 -0.2767486458 -2.1296702000