13

O -0.2112807982 0.3656080904 0.8058790607
C 0.1012826788 1.0630155499 -0.1259657710
C 1.3487769343 1.9088906725 -0.1009864659
C 1.5277321772 2.7218438299 1.1712190009
N 2.3490962836 1.5580853172 0.9358917696
C 1.8276073520 2.3974935067 -1.3575966448
C 2.1799741541 2.8032779095 -2.4401661002
C 2.5872477537 3.2667669022 -3.6573801780
N 2.9294580403 3.6621677698 -4.6947768510
H -0.5012496102 1.1253171474 -1.0518792861
H 2.0307956159 3.6795951818 1.0835439327
H 0.7137369379 2.6645859041 1.8887432738
H 1.9564589807 0.7629778286 1.4446315495