19

C -0.2740285393 1.4969919202 0.0982923045
C -0.0835292754 0.0015004865 0.1456682723
N 1.2460035859 -0.5175653003 -0.2423375814
C 0.7808648380 -0.7074332354 1.1288865607
C 1.5439175966 -0.0229697565 2.2557310589
O 1.0490122898 -0.6203189924 3.4653649975
C 0.3911317580 -1.7910325114 3.2035711769
N -0.1425298490 -2.5250898409 4.0795203400
C 0.4070998721 -2.0593358340 1.7139779615
H 0.6423452388 2.0201616052 0.3820624270
H -0.5343690501 1.8157015490 -0.9164044700
H -1.0809617003 1.8117773016 0.7687436657
H -0.9457331596 -0.5726081201 -0.1936735592
H 1.1620010947 -1.3815597756 -0.7726204335
H 2.6213858423 -0.2098410723 2.1692598268
H 1.3787429867 1.0544017643 2.3191654532
H -0.0025266009 -2.1283535648 5.0106806981
H -0.5484773309 -2.4606757271 1.3739562261
H 1.1822306926 -2.8064712559 1.4968635649