17

C -0.0263951720 1.5311226075 0.0052885123
C -0.0238231821 -0.0087967577 -0.0005380102
C 0.7111420282 -0.5397988437 -1.2465934468
O 0.8297783065 -1.9602214829 -1.2335483264
C 1.0980152490 -2.5168867567 -0.0248267814
N 1.1014308671 -1.9778930217 1.1171630634
C 0.7256034700 -0.5791923241 1.2339732587
C -1.4111638438 -0.4957184937 -0.0108780618
N -2.5093797593 -0.8556114850 -0.0190017604
H 1.0014690108 1.9052232448 -0.0251703588
H -0.5684517488 1.9301542911 -0.8565363817
H -0.5043996251 1.9109495695 0.9119053067
H 0.1840112233 -0.2855811238 -2.1681194492
H 1.7137170165 -0.0940814939 -1.2762497427
H 1.3220377257 -3.5739867976 -0.1470968846
H 1.6285595448 0.0229163529 1.3990835644
H 0.1064222892 -0.4631125251 2.1292574685