15

C 0.2431419652 1.4358021745 0.0757683109
O 0.2990698420 0.0025685847 0.0266555943
C 0.8911134397 -0.5048151400 -1.0531489204
O 1.3658129883 0.1318104780 -1.9587905541
C 0.8974340157 -2.0495760986 -1.0058738714
O 0.4125297983 -2.6603826858 -0.0823509143
C 1.5230860482 -2.6676985649 -2.1436628305
C 2.0373609030 -3.2347076491 -3.0769700644
C 2.6592396455 -3.9003163444 -4.2059476548
H 1.2512359088 1.8576687640 0.0626185568
H -0.3135819364 1.8254829135 -0.7801572663
H -0.2641911807 1.6791595055 1.0084532110
H 2.6166741514 -4.9892557692 -4.1037877122
H 2.1582479410 -3.6228287142 -5.1397509629
H 3.7102188600 -3.6045247439 -4.2952491616