18

O -0.5178667852 0.6881221163 0.9026190314
C 0.0970935642 0.9127965620 -0.1070579420
C 1.3163124042 1.8145954735 -0.1805430234
C 1.1998376824 2.8505034669 -1.2648887182
N 1.8476047447 4.1805695784 -1.1627275139
C 0.3771701225 4.0733514683 -1.3784643615
C 0.1114277594 3.7942729278 -2.8858745539
C 1.3843333880 3.6782581026 -3.6803567085
C 0.9703700075 2.5407023152 -2.7829913845
H -0.2061372759 0.4536586691 -1.0749290021
H 1.4475674685 2.2797449134 0.8014465973
H 2.1958862480 1.1804119499 -0.3731647699
H 1.9884273566 4.3735400163 -0.1712293783
H -0.3207424685 4.5186994402 -0.6810902243
H -0.8640807396 3.9022667257 -3.3408359295
H 1.2334845595 3.4840550616 -4.7378957019
H 2.2447042853 4.2878429682 -3.4381564579
H 0.7564486183 1.5477117146 -3.1573884390