18

C -0.0301276484 1.5638782422 -0.0405271686
C 0.0095917396 0.0321209310 0.0120972002
C -1.4172725610 -0.5308766435 0.1510627920
C 0.7032536856 -0.5227668036 -1.2513805079
C 1.0428368956 -1.9858779512 -1.1130706247
O 0.9739519534 -2.8235971679 -1.9602967304
O 1.5230057324 -2.3380182403 0.1364999332
C 1.4267153002 -1.4294447095 1.1720294729
N 0.7698949349 -0.3584751950 1.2099469716
H 0.9821864684 1.9759152641 -0.0867243731
H -0.5863597073 1.9082301317 -0.9182646537
H -0.5133772413 1.9573554911 0.8575401940
H -2.0449719930 -0.1883350230 -0.6775546667
H -1.4195117677 -1.6255261792 0.1508787592
H -1.8630336706 -0.1920547963 1.0895690233
H 0.1004107923 -0.3957423404 -2.1524961101
H 1.6496284290 0.0130731755 -1.4038227950
H 2.0010989881 -1.7884646457 2.0218357738