18

C -0.8417331128 0.8851902123 -0.0359011662
O 0.1419877258 -0.0909417195 0.2571545769
C 0.8459360685 -0.5940557810 -0.8659242665
C 2.2742803257 -0.8614579081 -0.3828300118
O 3.2538667288 -0.5383777847 -0.9968545485
C 0.2166998179 -1.8804782679 -1.3753081338
N 0.8402509040 -2.9777754919 -1.2715212327
O -1.0169668902 -1.6387135237 -1.8834716266
C -1.7731998302 -2.7577541264 -2.3331677214
H -0.4084653471 1.7387946402 -0.5775328289
H -1.6643069542 0.4702676662 -0.6293236333
H -1.2283508185 1.2354543793 0.9240652306
H 0.8873260339 0.1437200120 -1.6784753007
H 2.3172370310 -1.3387994531 0.6162492987
H 0.3299553897 -3.7799139478 -1.6374233703
H -1.2703651993 -3.2677246193 -3.1631492844
H -1.9470530345 -3.4707056389 -1.5190255332
H -2.7270687686 -2.3589534375 -2.6786663380