23

C -0.1950654658 1.3542497024 -0.3154499996
C 0.1394459994 -0.1002006964 -0.0774703332
N 1.5633634824 -0.4592314394 0.0469649304
C 0.6633987868 -0.6565082880 1.1994946196
C 0.9477514208 0.1612170519 2.4384211397
N 1.8589242143 -0.5821357817 3.3038239235
C 3.2924285680 -0.3870128720 3.0964033069
C 2.6316006990 0.1190550774 4.3334498685
C 2.5028078172 1.6012534675 4.6131909956
H 0.4835010815 2.0150214211 0.2277537010
H -0.1106905686 1.5953679794 -1.3807010020
H -1.2214193543 1.5753220087 -0.0021177693
H -0.4849813059 -0.7885756763 -0.6473336857
H 1.7550990441 -1.3444308814 -0.4133049728
H 0.3749249594 -1.6806968185 1.4307413556
H 1.3339724026 1.1451622003 2.1386328745
H 0.0140342542 0.3225858082 2.9928830306
H 3.9053451442 -1.2848863514 3.1129260618
H 3.5959481594 0.3528695242 2.3572356626
H 2.7410116974 -0.4805388568 5.2370162986
H 2.4980214621 2.2027972152 3.7013265992
H 1.5868437650 1.8226070157 5.1729001405
H 3.3488733170 1.9359746598 5.2229251540