16

C -0.0759008534 1.4283658991 -0.0259711720
C -0.1000233360 -0.0510368845 0.0715818187
C -1.0988339530 -0.9502962108 0.2958853197
O -2.4041186795 -0.6030283010 0.5411160377
C -3.3670591841 -1.2557434003 -0.1606515247
N -4.5781417819 -1.0489762214 0.1147812433
C -0.5168761428 -2.2612707757 0.3058239538
C 0.8060996299 -2.0591652370 0.0800581121
O 1.0748265007 -0.7345771674 -0.0578282088
H 0.3195780270 1.7625045018 -0.9916882137
H -1.0934814394 1.8093647400 0.0835032217
H 0.5450971325 1.8756307349 0.7584782553
H -2.9589196188 -1.9168028101 -0.9343027183
H -5.1733054481 -1.5939446679 -0.5055650467
H -1.0146233636 -3.2025288841 0.4753165751
H 1.6520287104 -2.7208374257 -0.0030765831