19

O -0.0106511337 1.4402639082 -0.0082151439
C 0.0529191146 0.0200932912 -0.0199950969
C 0.8957815092 -0.5080211848 1.1511377195
C 0.8505142184 -2.0410268708 1.3105636341
C -0.5166522011 -2.6536030822 1.0536532099
C -1.8607129632 -2.0461429351 1.3764897493
O -1.8550881951 -0.6176270426 1.3974112309
C -1.3392455835 -0.6031677485 0.0234068971
C -1.4015096101 -2.1343445513 -0.0577556250
H -0.4208493968 1.6960911576 0.8263267487
H 0.5127152747 -0.2398906020 -0.9821711601
H 1.9294525308 -0.1690690238 1.0346239602
H 0.5028994810 -0.0436192781 2.0611525482
H 1.5514672852 -2.5028995910 0.6020977165
H 1.2078545671 -2.3110568220 2.3114653680
H -0.5445683030 -3.7390155980 1.1337872601
H -2.6496394768 -2.5484631078 1.9248860407
H -2.0348704251 -0.0724309008 -0.6326310755
H -1.7613913426 -2.7138195180 -0.8970519618