20

C -0.0589146929 1.4982962893 0.0678500093
C 0.0105301281 -0.0091847245 0.0367804989
C 1.0097173935 -0.7997707717 -0.8791680778
C 0.6587886312 -1.9482509783 0.1037928884
C 0.6041087956 -0.8613683952 1.2125365586
N -0.7652404522 -2.1406265110 -0.1837084207
C -1.3056147763 -0.7751244947 -0.2440452743
C -1.4871956866 -3.2797958839 -0.2121406169
O -2.6919418609 -3.3328762836 -0.3694651510
H 0.9247142240 1.9345148210 0.2686635599
H -0.4139275543 1.8976832508 -0.8889212376
H -0.7459294968 1.8464594504 0.8473994596
H 0.7516933251 -0.9413852038 -1.9318444270
H 2.0367600465 -0.4448401384 -0.7731165454
H 1.2198566905 -2.8776464770 0.1845201469
H 1.5922943536 -0.5119285560 1.5184404969
H -0.0268426537 -1.0595682843 2.0829440472
H -2.0765639917 -0.6139008780 0.5165239060
H -1.7344850192 -0.5507836506 -1.2264053544
H -0.8493439735 -4.1785551702 -0.0845326368