18

C -0.0962163990 1.5822255300 0.0500806134
C -0.0415666032 0.0517498000 0.0002291596
C 0.7508791451 -0.5389831362 1.1584287650
C 0.0920666024 -0.5306764911 2.5551360212
O 0.1499626887 -1.9693699863 2.6533636515
C 0.7634382733 -2.0921152912 1.3463396273
C -0.0078573391 -2.9048888922 0.4189489843
C -0.6322262639 -3.5823640267 -0.3536881947
H 0.9084188648 2.0173083308 0.0042492631
H -0.6720848246 1.9834030141 -0.7891071973
H -0.5677393823 1.9368096714 0.9734179547
H -1.0569393064 -0.3611320164 0.0084582514
H 0.4093914324 -0.2729036388 -0.9453750785
H 1.7656201945 -0.1310712184 1.1639875759
H 0.6584999368 -0.0446600151 3.3580637389
H -0.9429414826 -0.1645960703 2.5770989519
H 1.7746027286 -2.5111292390 1.4358018507
H -1.1860142654 -4.1849204146 -1.0307513681