12

F 0.7894313713 0.4366401710 0.2011628986
C -0.0570381603 1.4281224079 -0.0593829729
F 0.6689717947 2.4983064671 -0.4528202949
F -0.8346920740 1.0688774965 -1.0760307934
C -0.9300418833 1.7246914697 1.1976138616
O -1.6231071800 0.8542643884 1.6470918239
N -0.7842276630 3.0159042416 1.6527531359
C -1.4089285933 3.6222598152 2.7480748984
N -2.2326422263 3.0301401941 3.5017465820
H -0.1460695048 3.5928772291 1.1273876939
H -1.0779450065 4.6633490379 2.8437764138
H -2.5564505244 3.6660031614 4.2290904132