14

O -0.2880168983 0.3715536070 -0.7058026058
C 0.0805183402 1.0994654144 0.1775817689
C 1.3288963987 1.9336292994 0.0855551536
C 2.3339746947 1.5711388777 -0.9976842943
C 1.5295081900 2.8122399635 -1.2052427455
C 0.4986272090 2.9031698568 -2.1917169820
C -0.3514986785 3.0198040311 -3.0326822289
C 1.7920558733 2.5065147543 1.3183422560
N 2.1473977831 2.9599016036 2.3217112461
H -0.4809191984 1.2142542620 1.1256335095
H 3.3834403633 1.6762180408 -0.7525173130
H 2.0512785254 0.7003426694 -1.5776352182
H 2.0345419508 3.7469799865 -0.9802906332
H -1.1057067934 3.1066379134 -3.7756668731