20

C -0.0899006346 1.4965837114 0.0996440492
N 0.0016414125 0.0515839734 0.0082086803
C 0.0791086025 -0.6839108899 1.2650925887
C -1.3051151795 -1.1749498506 1.7495053654
C -1.2303935583 -1.8225410878 3.0513233833
C -1.1294197924 -2.3440989652 4.1296397848
C -0.0318487625 -0.6781613951 -1.1546108929
C -0.0802336078 0.0806445424 -2.4737255517
O -0.0170059276 -1.8992732602 -1.1299012357
H -0.2187551513 1.9416375707 -0.8849223456
H -0.9458949214 1.7977284651 0.7172290174
H 0.8154747031 1.9213903892 0.5525459323
H 0.7290779283 -1.5483083111 1.1222783757
H 0.5271048275 -0.0306453732 2.0193961075
H -2.0014139711 -0.3277170084 1.7965845064
H -1.6946417514 -1.8711255838 0.9993512723
H -1.0567760261 -2.8148481678 5.0784366920
H 0.7590524063 0.7743134503 -2.5826435153
H -0.0376520265 -0.6602942846 -3.2711564862
H -1.0060555596 0.6559231052 -2.5767895179