21

C -0.3865316332 1.5474083866 0.1731700709
C 0.0907070418 0.1050895740 -0.0236604521
C -1.1162918266 -0.8314863858 -0.2086746943
C 1.0753052065 -0.0336546888 -1.2091101524
N 1.9152403865 -1.2139696391 -0.9480706390
C 1.9091120903 -1.4676948284 0.5124699645
C 0.9910363234 -0.3729664572 1.1384256278
C 1.4563272682 -2.8291094234 0.8219373909
N 1.1046638839 -3.9079272269 1.0456314131
H 0.4583896767 2.2331012362 0.2990181555
H -0.9702229133 1.8891220936 -0.6886915733
H -1.0257879472 1.6360040276 1.0580227645
H -1.7225711004 -0.5156544298 -1.0646664444
H -0.8108337383 -1.8680939486 -0.3793467762
H -1.7593378091 -0.8215499627 0.6775713783
H 0.5715926923 -0.1352354610 -2.1748211276
H 1.7120203544 0.8600458161 -1.2662394803
H 1.5718503549 -2.0238268492 -1.4467414326
H 2.9249362257 -1.3752548025 0.9167239460
H 1.6219691895 0.4505978865 1.4868434585
H 0.4282176639 -0.7462419073 1.9966095221