21

C -0.0222294787 1.5336059975 0.0534608571
C 0.0571254630 0.0174779565 0.0328908782
C -1.1869020491 -0.6258384556 -0.5595829116
C 1.3295533482 -0.7347229946 -0.2454888762
C 2.5717550948 -0.0350768751 0.3122035636
C 1.9388441575 -0.0523285246 1.7377228893
C 0.6934871111 -0.7721247887 1.1767989397
C 0.0241843248 -1.8226130021 1.8641632779
C -0.5276628675 -2.6980628184 2.4813841454
H 0.8667299250 2.0091497853 0.4713953360
H -0.1546348483 1.9189599486 -0.9643298057
H -0.8840461816 1.8629723278 0.6445775504
H -1.3423088493 -0.2757285210 -1.5861978562
H -1.1131724025 -1.7157943616 -0.5764685958
H -2.0768753718 -0.3648059885 0.0232857740
H 1.3466278747 -1.5385638156 -0.9730744897
H 3.4645713227 -0.6607518922 0.2549696354
H 2.8091297548 0.9427684506 -0.1178584643
H 2.4923910102 -0.6921468187 2.4266255734
H 1.7600297515 0.9099846200 2.2258273223
H -1.0164578296 -3.4713920795 3.0196001467