19

C 0.2044298248 1.6561501183 0.2169541142
C 1.3519207101 0.7213198322 -0.0429436615
O 2.1139582876 0.3290478695 1.0675090405
C 1.4478788490 -0.7045422974 1.8018062025
O 1.4482611089 -0.4433837679 3.1691473746
C 0.2860111899 0.3228273151 3.4843613760
C -0.8159163992 -0.2275049200 2.5626575859
C -0.0355063609 -0.7182484430 1.3173241817
C -0.0357083836 0.1609481711 0.0734223883
H 0.1418018584 2.1179657604 1.1956794832
H -0.1354465336 2.2841618809 -0.6003336468
H 1.9133425837 0.7581500242 -0.9706583898
H 2.0011209850 -1.6397464626 1.6615596129
H 0.0821383717 0.1860099184 4.5490303855
H 0.4716404155 1.3906364586 3.3047934756
H -1.3243153489 -1.0656234670 3.0467611902
H -1.5674002698 0.5247266996 2.3126358444
H -0.3412078284 -1.7306579647 1.0455199793
H -0.5774711805 -0.1846274957 -0.7988038866