19

O -0.4834297199 1.3832589764 -0.0284498484
C -0.2342855290 -0.0005793992 -0.0269513366
C 0.3177520397 -0.6663788002 1.2668770780
C -0.7136545425 -1.8101201944 1.0494840582
C -1.4057801549 -2.3663050988 2.2765432529
O -2.3621074433 -3.3697474188 1.9028630758
C -3.6698012696 -3.1046247699 2.0734720733
O -4.5320000945 -3.8699746255 1.7629883179
C -1.5056853047 -0.8623981012 0.1043715913
H 0.3496929864 1.8452894650 -0.1656474433
H 0.3580331345 -0.3025126494 -0.9023468225
H 1.3775975624 -0.9273392005 1.3141108743
H 0.0561096663 -0.0517619591 2.1347237099
H -0.2700631474 -2.6375028811 0.4878059880
H -0.6884488289 -2.8522400673 2.9464596445
H -1.9052322391 -1.5644662539 2.8374015151
H -3.8492743731 -2.1128914791 2.5343951648
H -2.2690889244 -0.2989497296 0.6512283582
H -1.9468246080 -1.2768072535 -0.8033512915