20

C -0.1145096618 1.5928114009 -0.0080164346
C 0.0272249915 0.0670983095 0.0285784893
C 0.8029369164 -0.5336603793 -1.1727787188
C 1.5806463752 -1.7596606590 -0.6301759697
C 2.9383611435 -1.9933141544 -1.2968780943
C 1.6468956358 -1.4429632085 0.8619888724
C 0.8056632709 -0.4602224151 1.2087994566
C 2.4761958490 -2.1719160566 1.7575916619
N 3.1674020095 -2.7876231972 2.4549730681
H 0.8681808787 2.0758883633 -0.0258725829
H -0.6627916146 1.9096159269 -0.9008941907
H -0.6581385890 1.9640364831 0.8668223317
H -0.9853160775 -0.3647302657 0.0718004261
H 0.1517856525 -0.7887482037 -2.0127304905
H 1.5242409313 0.2100437327 -1.5338168058
H 0.9771891197 -2.6705607018 -0.7545034323
H 3.5821769304 -1.1136488421 -1.1908069565
H 3.4580973386 -2.8474324569 -0.8524728335
H 2.8118470617 -2.1936805047 -2.3654544897
H 0.6618636082 -0.1005968213 2.2217871932