18

C 0.2081254676 1.3478524483 -0.0009594897
O 0.2833407935 -0.0753128651 0.0667209738
C 0.6758641184 -0.5963839889 1.3043138043
C 0.7724666517 -2.1393542754 1.1457507957
C 2.2176174151 -2.4600131149 1.5644757063
C 2.9225003392 -1.1236362169 1.3297080275
O 1.9502034473 -0.1410021357 1.7067862414
C -0.2784790410 -0.1830971338 2.3708379857
N -1.0472027367 0.1116961157 3.1808006994
H 1.1694666801 1.8050422650 0.2525900510
H -0.0553169706 1.5875274413 -1.0320792913
H -0.5666642002 1.7362074198 0.6717463688
H 0.0242392747 -2.6582008957 1.7452244611
H 0.5884712866 -2.3629979539 0.0931690911
H 2.2648203251 -2.7264054629 2.6241161805
H 2.6527029880 -3.2778071760 0.9857645624
H 3.8044250716 -0.9616400964 1.9523516130
H 3.2031265497 -0.9958178044 0.2752768390