20

C -0.1109467296 1.1766017418 -0.6649091068
C -0.0247925608 -0.1800690602 0.0267393878
O 0.4220089399 -0.0288977169 1.3891181194
C -1.3382080895 -0.9705902479 -0.0457131376
C -1.2331309523 -2.3744944908 0.5660788576
O -0.9815966644 -2.3418026330 1.9551689827
C -2.5374750690 -3.1832244341 0.4152859182
C -2.8905083159 -3.4488781158 -0.9748156393
N -3.1519070754 -3.6409560078 -2.0841945250
H 0.8361638829 1.7139970795 -0.5675734148
H -0.3378456043 1.0602586146 -1.7287578893
H -0.9047395353 1.7910188294 -0.2216059254
H 0.7693753716 -0.7734994258 -0.4425673296
H -0.1428328495 0.6306230965 1.8096277532
H -2.1304172893 -0.4118454033 0.4731096560
H -1.6375778429 -1.0575960879 -1.0967899400
H -0.4344554643 -2.9230416802 0.0366947737
H -0.3052650974 -1.6595511293 2.0904254453
H -2.4169305530 -4.1315927339 0.9485166200
H -3.3559969913 -2.6429108050 0.9037073939