23

C 0.1584245115 1.5181273170 -0.7219511939
C 0.1763425640 0.0371265431 -0.4111298326
C 1.4638989049 -0.6646590354 -0.0609996956
O 2.6235164512 0.1187983314 -0.0438652176
C 0.4067166256 -0.4592073585 0.9945248379
C 0.6187579965 0.3491629395 2.2787241240
C 0.2138142316 -0.9219526144 3.0904120117
C -0.7574254892 -0.7568334932 4.2488248585
C -0.3129468882 -1.5673770475 1.7701649935
H 0.9296104611 2.0470651132 -0.1585693833
H 0.3465395199 1.6971005092 -1.7859778457
H -0.8136287054 1.9594925057 -0.4755534082
H -0.5173498675 -0.5583482111 -1.0020268932
H 1.6065394353 -1.6782696860 -0.4408285267
H 3.1847606236 -0.1943583858 0.6732867907
H 1.6204536790 0.7554219937 2.4484065754
H -0.1039764527 1.1645784639 2.3964378805
H 1.1114576490 -1.4488969594 3.4319740379
H -1.6651044104 -0.2329092816 3.9273012587
H -1.0608314511 -1.7278107366 4.6565104746
H -0.3105352609 -0.1776146491 5.0648249579
H -1.4043011777 -1.5010698965 1.6885167102
H -0.0133275699 -2.5997203617 1.5631415653