16

O -0.0689136566 0.0058251342 0.5848483676
C 0.0038400457 1.2133668241 0.4950835567
N 1.0984778567 1.8824030182 0.0660263623
C 2.4002991600 1.3776121250 -0.3752359745
C 2.8210729695 2.8537164146 -0.6652680306
C 1.4063538983 3.2971857315 -0.1341544321
C 1.0223968799 3.8506470262 -1.5361614047
C 2.3869815081 3.3462691466 -2.0584927041
O 2.9227405687 3.3609533272 -3.1254509335
H -0.8220861429 1.9039634966 0.7650264477
H 2.9702940038 0.9034190025 0.4296452107
H 2.3648321142 0.7001630196 -1.2331440046
H 3.7755052549 3.1960754766 -0.2702618681
H 1.2552131696 3.9451106263 0.7298050938
H 0.1265962133 3.4425704977 -2.0097102451
H 0.9745445767 4.9450921430 -1.5678916814