15

O 0.5226863945 1.0491184615 1.2543110396
C 0.2339676720 1.4301591672 0.1391885546
N 1.0737753656 1.3537791383 -0.9311632622
C 2.4204798876 0.8505134630 -0.7856382114
C 3.3698312002 1.8682564883 -0.0713063750
C 4.7095737059 1.3113288618 0.0929491451
C 5.7929444117 0.8100510783 0.2160713623
C 3.3932280599 3.1362813996 -0.8154570934
N 3.3680590484 4.1165921132 -1.4259107710
H -0.7471360032 1.8682890134 -0.1230667797
H 0.8108621344 1.8111854707 -1.7896763224
H 2.3995122228 -0.0526194654 -0.1728846753
H 2.8228336457 0.6040127708 -1.7693386006
H 2.9270131438 2.0628647849 0.9136998509
H 6.7577749607 0.3813333146 0.3349876585