13

N 0.0026228603 1.3105300681 0.0080215803
C -0.0459105788 -0.0344035612 0.0009735407
N -1.1767011477 -0.6920582280 0.0039949853
C -1.1156190711 -2.0386493377 -0.0034993972
F -2.2927814910 -2.6608650830 0.0000825967
C 0.0279317197 -2.7599937471 -0.0139459309
N 1.2167651370 -2.0431867496 -0.0171310618
C 1.2962408007 -0.6771901618 -0.0104262278
O 2.3455846646 -0.0435795453 -0.0132950449
H 0.9128725300 1.7409457589 0.0037103391
H -0.8422970170 1.8532111935 0.0144757799
H 0.0791709255 -3.8374239943 -0.0198918157
H 2.1012179177 -2.5311587026 -0.0249448338