21

C 0.0189051432 1.4284211954 0.2408001488
O -0.1075725417 0.0489232546 0.5155817844
C -1.3103133056 -0.5613953438 0.0882193331
C -2.5317138262 -0.0298723365 0.8338772685
C -1.5208547467 -0.6839669222 -1.4539188020
C -1.7865291950 -2.1993865928 -1.2640590779
C -1.1923098435 -2.1199460628 0.1805314637
C 0.2314162119 -2.6143497296 0.2429399042
O 0.6491903760 -3.3720385536 1.0805018685
H 1.0444962677 1.7063232230 0.4946465054
H -0.1528825037 1.6534712010 -0.8220160219
H -0.6665292682 2.0415017046 0.8415101173
H -2.7283629648 1.0177294387 0.5854035933
H -3.4252189784 -0.6024815756 0.5674656525
H -2.3786717305 -0.1113554549 1.9143276122
H -2.3170124846 -0.0845724118 -1.9018342842
H -0.5880972662 -0.4957242121 -1.9919713344
H -2.8478894731 -2.4541830674 -1.2516000843
H -1.2791094063 -2.8760538451 -1.9556176456
H -1.7591200815 -2.5931636468 0.9844668287
H 0.8887360271 -2.2491899321 -0.5772969404