17

C -1.6281167418 -0.7341895948 -0.4116645749
N -0.2395234349 -0.3760861250 -0.1174770271
C 0.7410043271 -0.6759716346 -1.1172436213
C 2.1175067113 -1.0622527649 -0.6273890532
C 1.2105629982 -2.1043419947 -1.2267504368
C 0.6803437610 0.1358211499 -2.3933595431
F 0.7216625768 1.4541613081 -2.1210845378
F 1.6986234405 -0.1345107570 -3.2279839373
F -0.4576203150 -0.0810928832 -3.0787867718
H -2.0828567280 -0.1810120885 -1.2442797374
H -1.6781249838 -1.8007507008 -0.6515892935
H -2.2291562319 -0.5659438099 0.4868907878
H -0.1685348282 0.5968922378 0.1584216380
H 2.9763157808 -0.7420594626 -1.2039122515
H 2.2428156967 -1.0595536403 0.4480293996
H 0.7353467498 -2.8106312380 -0.5570968854
H 1.4548161414 -2.4881310715 -2.2098469045