14

N 0.0021587936 -1.1474415618 0.1257471681
C 0.0326594718 0.0063764270 0.0619737542
C 0.0423631591 1.4383345301 -0.0686967310
C -0.8757529092 2.0973362576 -1.1002355559
O -0.3905801478 3.4272047523 -1.2113843399
C 1.0249024536 3.3941858876 -1.0448906490
C 1.2713600730 2.2925848902 -0.0283322355
N 0.3709663960 2.2422334244 1.1199900622
H -0.8114000129 1.5500084122 -2.0526756791
H -1.9233267560 2.1477597843 -0.7901777428
H 1.5426131106 3.1579934671 -1.9873798608
H 1.3392818325 4.3874098236 -0.7102225944
H 2.2654816680 1.8844145995 0.1152675960
H -0.2291124324 3.0671022260 1.1372655880