19

C 0.0315476621 1.5416869562 0.0247290346
C 0.0062508826 0.0107494161 -0.0024663810
C 0.6612322782 -0.5079622974 -1.2955863328
O 0.8661794003 -1.9190083455 -1.3343611460
C 1.2816164837 -2.5280665472 -0.1515316105
C 2.2380885679 -1.9782744396 0.8794883609
O 2.1973558565 -0.5554894448 0.9738141317
C 0.7478976841 -0.6033899315 1.1846690076
C 0.7533749287 -2.1377043863 1.1967547196
H 1.0622027586 1.9088655109 0.0677517257
H -0.4412979266 1.9648758302 -0.8678842524
H -0.5013424472 1.9280391104 0.8994038787
H -1.0331577328 -0.3414768563 0.0446574089
H 0.0253905148 -0.2832229114 -2.1573997896
H 1.6198708451 0.0073351513 -1.4331713904
H 1.3830702934 -3.5973830276 -0.3136873283
H 3.1313364723 -2.4767224613 1.2410062955
H 0.4952406011 -0.1327120029 2.1396909609
H 0.2046074371 -2.7752702332 1.8778783772