18

C -0.0959898671 1.5554642773 0.0125553563
C 0.0763099603 0.0365644884 0.0151242565
C 0.7613343039 -0.4755923380 -1.2638227553
C 0.9935255178 -1.9861596542 -1.1790850756
N 1.5861604595 -2.3086138367 0.1122171883
C 1.4769554476 -1.4403001272 1.1671375603
N 0.8035437733 -0.3551577068 1.2261825976
C 2.2257643224 -1.8500110720 2.3429136053
N 2.8354972544 -2.2075543976 3.2571575605
H 0.8779851923 2.0513832920 -0.0516526936
H -0.7075466689 1.8804207439 -0.8353652363
H -0.5767982503 1.8796785809 0.9386765907
H -0.9244265952 -0.4200569295 0.0761191808
H 0.1570685869 -0.2445123488 -2.1457313934
H 1.7233599381 0.0374999255 -1.3799176095
H 0.0447962589 -2.5253197691 -1.3067298513
H 1.6675420689 -2.3227754081 -1.9732789040
H 2.2169444672 -3.0874914999 0.1941071727