21

C -0.0643962981 1.5837071842 -0.2305139205
C -0.0212684491 0.0911113038 0.0993812453
N -1.3330529135 -0.5319455452 0.0467518859
C -1.8467622016 -1.3237930609 -0.9288907226
C -3.1520445307 -1.6200436297 -0.5810388414
C -4.1323433065 -2.4926572666 -1.3098859729
C -4.2417252486 -3.9111065513 -0.7233912331
C -3.3252027790 -0.9374400815 0.6450450013
N -2.2298039477 -0.2803734265 1.0194152928
H 0.9370315097 2.0175467505 -0.1498999925
H -0.4325584906 1.7497061950 -1.2473566650
H -0.7274134580 2.1021835708 0.4659818296
H 0.6219750724 -0.4474212484 -0.6025775252
H 0.3779622117 -0.0648042921 1.1057768181
H -1.2562737630 -1.6146233250 -1.7845223213
H -5.1230406341 -2.0220580539 -1.2939268817
H -3.8464525446 -2.5597770916 -2.3660223450
H -3.2763971804 -4.4254921431 -0.7638380642
H -4.5540595577 -3.8784623361 0.3251209916
H -4.9721237862 -4.5106128800 -1.2766933584
H -4.2075038743 -0.9028827922 1.2692430592