16

C 0.0056606974 1.3714125456 -0.1284352814
C 0.0549954262 -0.1265607913 -0.3111524824
O 1.0849547012 -0.7394510355 -0.4756695937
C -1.2820966690 -0.8628433724 -0.2630084894
N -2.3282101719 -0.1938601037 0.0370802395
N -1.2262539680 -2.1945083268 -0.6456971017
C -0.4445307406 -3.2165858966 0.0176344430
C -1.9432704716 -3.2570682862 0.0314644073
H 1.0201939663 1.7694951689 -0.1631494605
H -0.6105628489 1.8253369326 -0.9102323530
H -0.4764229615 1.6219138825 0.8202289639
H -3.1575961677 -0.7933868736 0.0411299520
H 0.1166492912 -3.8773840148 -0.6356527362
H 0.0584156168 -2.9506206919 0.9423897069
H -2.4452856062 -3.0080029822 0.9648747888
H -2.4786301437 -3.9522554147 -0.6084908130