18

O 0.0505458568 1.4020688020 -0.0974475897
C 0.0811046671 -0.0232468476 -0.0232973876
C 0.8325449664 -0.4984899933 1.1903640406
C 0.1634055462 -1.2029675252 2.0998415290
C -1.2811696600 -1.4954455348 1.8538026762
C -1.7180327249 -1.9895131061 0.4457148410
C -3.0800750832 -1.3644155059 0.7937188177
N -2.1092436886 -0.2904497276 1.3060625524
C -1.3448846510 -0.5594477066 -0.0200375263
H -0.4805563328 1.6944840225 0.6546636179
H 0.5897595420 -0.3427026890 -0.9419801989
H 1.8751652980 -0.2170918243 1.2966742167
H 0.6227265177 -1.5661568454 3.0138591582
H -1.7754452065 -1.9682518053 2.7060924848
H -1.4934627402 -2.9507629522 -0.0296531923
H -3.7133167858 -1.0183134444 -0.0273232638
H -3.6711395876 -1.8281624751 1.5885680030
H -1.8893809936 -0.1695864118 -0.8856273390