20

C 0.0769154884 1.5784096134 0.0631361579
C 1.2987722565 0.7357459213 -0.0378719668
C 2.3508398551 0.6105531141 1.0384686673
C 1.9079315693 0.5873292858 2.5165315228
C 1.8833719542 -0.9417430077 2.3040725042
C 0.5244824052 -1.5383407796 1.9171250046
C -0.4736314532 -0.5427373501 1.3083162712
N -0.0266525296 0.1228734192 0.0747008373
O 2.7370727166 -0.7912227596 1.1368711992
H -0.0950534353 2.1056077876 1.0016961209
H -0.3179186351 2.0879123234 -0.8129399810
H 1.7337343022 0.5912710590 -1.0275475292
H 3.2127127009 1.2415176429 0.7936010749
H 2.7242110869 0.8939226105 3.1723440965
H 0.9949394988 1.1018960768 2.8139235687
H 2.3755255959 -1.5577789802 3.0636448103
H 0.7182532154 -2.3595297961 1.2176861446
H 0.0500127935 -1.9763361169 2.8047763525
H -1.3929224538 -1.0856644394 1.0580799584
H -0.7589399318 0.1908313354 2.0768155355