17

O -0.0691544096 -0.1063149258 -0.1098963684
C 0.0220830290 1.0504130230 0.2344754453
C 1.2214518081 1.8397816771 0.1451314943
C 2.2111792468 2.5312659863 0.0828328987
C 3.4147645037 3.3453487670 -0.0027640090
C 4.2872464263 3.0528943063 -1.2662380559
C 4.9021843147 4.4184512817 -1.6568264369
C 3.9769704823 5.4138671237 -0.9982700947
C 3.1679189997 4.8451620704 -0.1094488630
H -0.8475186986 1.5951394490 0.6566528101
H 3.9993325253 3.1439794896 0.9095526146
H 5.0305852401 2.2756555164 -1.0792909504
H 3.6321906069 2.6993548123 -2.0663931592
H 5.9250527259 4.5313461046 -1.2710938793
H 4.9675261753 4.5480797750 -2.7423913895
H 4.0137093506 6.4763999047 -1.2115890163
H 2.4389270136 5.3482703388 0.5138568395