21

C -0.1123892676 1.7055423820 0.4350677955
C -0.0387978418 0.1969706235 0.2689757310
C 1.0495838577 -0.4918117586 -0.6389093626
C 2.3385175516 -0.0225331902 0.0479815223
C 2.0712112928 -0.1784568880 1.3485813654
C 0.6381009383 -0.7293381597 1.3506302588
C 0.7849273081 -1.8003197714 0.2029687808
C -0.3993995157 -2.6850824182 -0.1471416669
O -0.0717869470 -3.3539004142 -1.3606680391
H 0.8571598479 2.1370322972 0.6944016526
H -0.4588939856 2.1775097772 -0.4914187967
H -0.8263646895 1.9721534540 1.2228093415
H -1.0358624999 -0.1749213635 0.0166716518
H 0.9951637254 -0.4845185946 -1.7269405243
H 3.2332675237 0.3364039290 -0.4404953371
H 2.6845237732 0.0194501280 2.2160858810
H 0.1637980684 -0.9551393488 2.3071610060
H 1.6658534085 -2.4400468064 0.3004555955
H -0.5521582833 -3.4059040263 0.6736726344
H -1.3334708878 -2.1165784146 -0.2544243344
H -0.7963525674 -3.9465305862 -1.5807521456