21

C -0.0674772403 1.5456263004 0.1032826070
C 0.0212208716 0.0470888095 0.0290087845
C -0.8291811164 -0.8487186650 0.8598357176
C 0.6834287504 -0.9263589612 1.0481400160
C 1.2558364513 -1.6969193255 -0.0967606301
O 2.0533147974 -2.5892583797 -0.1909780676
C 0.6188470200 -0.7557915334 -1.1669266605
C -0.3371580263 -1.3608211749 -2.1935927823
C 1.7641226142 -0.0131069956 -1.8697486186
H 0.8775628468 2.0260412609 -0.1670763877
H -0.8398250733 1.9260340653 -0.5759312142
H -0.3334111975 1.8711703315 1.1140680544
H -1.3438682093 -0.3724272743 1.6891950257
H -1.3697455142 -1.6907071493 0.4387842566
H 1.1429219707 -0.7438947823 2.0123441963
H -1.1926448304 -1.8588188130 -1.7301360766
H -0.7238047187 -0.5899217751 -2.8701655733
H 0.1891786595 -2.1037016454 -2.8017464216
H 2.3162282606 -0.7055441261 -2.5113281410
H 1.3770380839 0.7996956129 -2.4937846991
H 2.4741707501 0.4138876803 -1.1543744754