18

C -0.0137809456 1.4414203224 0.0334039495
N 0.0112923688 -0.0016637696 -0.0288418182
C 0.0480604621 -0.7821611960 -1.1973284897
C 0.0643739751 -2.0922247666 -0.9122785966
C 0.0366847557 -2.2243189862 0.5602605797
C -0.7062164299 -3.2962649975 1.3483101481
C 0.7823427847 -3.2714222773 1.3785099166
C 0.0024636857 -0.8169081391 1.0918393763
O -0.0272326347 -0.4462799609 2.2500740163
H 0.8800917406 1.8774731441 -0.4271287301
H -0.9004955536 1.8480447282 -0.4661848025
H -0.0414202684 1.7161179693 1.0895662914
H 0.0591118505 -0.2874570539 -2.1579896433
H 0.0923174580 -2.9052129846 -1.6209973086
H -1.2361212511 -2.9415727053 2.2256764997
H -1.2073519510 -4.0666164063 0.7733906317
H 1.3317948375 -4.0242397974 0.8249047175
H 1.2641145257 -2.8998321032 2.2763929621