14

O -0.0161056873 0.0251311647 -0.5716918280
C 0.0174736875 1.1846794759 -0.2444665026
N -1.0386744033 2.0104008554 0.0039628483
C -0.6998302236 3.3496001952 0.4546340619
C 0.7603347079 3.4979947645 -0.0225263843
C 1.2999054065 2.0480973847 -0.0208014205
C 1.9247318453 1.6825677014 1.2479228093
N 2.4081899347 1.4217807402 2.2649880068
H -1.9726621542 1.6327819639 0.0332467845
H -1.3557395534 4.0988357322 0.0026851368
H -0.7779930331 3.4417682648 1.5460421522
H 0.7774088081 3.8754729764 -1.0479799173
H 1.3405899867 4.1744562922 0.6050050362
H 2.0058930681 1.8492726286 -0.8300807531