18

C -0.1729108663 1.5289969936 0.1532392728
C 0.0540348595 0.0358212465 0.0481406651
C -1.2055570969 -0.8097268052 -0.1768476200
O -0.9035645548 -2.1066756614 0.3212589111
C -0.1139948842 -1.9146786323 1.4895770608
C 0.8169656732 -0.7499026274 1.1595869206
C 1.8518450516 -1.0189935594 0.0513880402
O 1.0813819547 -0.2892642507 -0.9246388613
H 0.7698721203 2.0491804349 0.3420443617
H -0.5892818268 1.9179258274 -0.7825003282
H -0.8720915945 1.7645967712 0.9621355296
H -2.0598275200 -0.3711825108 0.3663148481
H -1.4594176367 -0.8989841605 -1.2358885642
H -0.7487821164 -1.6641594391 2.3563198809
H 0.4036012576 -2.8551175637 1.7001889060
H 1.1663655543 -0.1950779032 2.0305801006
H 2.8397985630 -0.5688459784 0.2079284651
H 1.9749941725 -2.0727206116 -0.2274266390