18

C 0.0609297208 1.4639208092 0.0932470240
C -0.0436960253 -0.0304610522 -0.0751859367
C 0.8361167847 -0.7615998972 -1.1266886924
N 0.5163652251 -2.2151657635 -0.9089141676
C -0.5276617729 -2.1133115437 -0.1992052651
O -0.5160503437 -2.3646664442 1.1810086734
C -0.6555314844 -0.8691778557 1.1894919877
C -1.3414380076 -0.7749872229 -0.0972791806
C -2.7353102194 -0.4516365440 -0.5367428287
H 1.0622752798 1.7510551592 0.4320703721
H -0.1274485729 1.9769056707 -0.8574344941
H -0.6614093367 1.8460940788 0.8217423318
H 0.6439808946 -0.3743509881 -2.1400065963
H 1.9102550125 -0.6745726986 -0.9304010188
H -0.8387291000 -0.4394825925 2.1681685184
H -3.0189082402 0.5554475186 -0.2140334755
H -2.8243726000 -0.4907267534 -1.6273665656
H -3.4568641346 -1.1574822808 -0.1129244361