23

C -0.0229120546 1.5691871653 -0.2392320333
C 0.0036120253 0.0614619693 0.0307777378
C -1.3904491499 -0.5532169596 0.0745775957
C -2.2381185991 -0.6133182411 -1.2308195280
C -2.6986538322 -2.0428130651 -0.8291207271
O -2.7250165546 -3.0473369814 -1.8073970296
C -1.5237230016 -2.0961141652 0.2052261845
O -0.3995342413 -2.7571283264 -0.3485860407
C -0.3155472839 -4.1242095428 0.0162352996
H 0.9894764915 1.9837139646 -0.2726790661
H -0.5050760110 1.7935424644 -1.1969778970
H -0.5761426894 2.1042474559 0.5411005490
H 0.5940244798 -0.4481315701 -0.7378267975
H 0.5137368367 -0.1336910422 0.9829999524
H -1.9730686031 -0.0864713438 0.8778718375
H -3.0108517452 0.1432245144 -1.3837094790
H -1.6013753192 -0.6489078147 -2.1214694576
H -3.6783881312 -2.0429598483 -0.3435135183
H -1.8115712260 -3.1414825625 -2.1063680003
H -1.7392610188 -2.4951981602 1.2051471634
H -0.2170463689 -4.2373241850 1.1060507761
H -1.1935933865 -4.6913092193 -0.3179098655
H 0.5793961331 -4.5292880261 -0.4631873460