19

C -0.0857301716 1.4266712273 0.0520314299
N -0.0453984805 -0.0198083050 -0.0674986344
C 0.6698189994 -0.5912474676 -1.0725472854
N 1.1712923130 -0.0110807078 -2.0923940782
C 1.7520499740 -1.0778293445 -2.9058643327
C 1.6732366549 -2.3470588268 -2.0302956277
O 2.9372183875 -2.6621390799 -1.5513923822
C 2.9828333771 -3.8389337688 -0.7625873237
O 0.7933542294 -1.9520976045 -0.9555330454
H 0.8733822619 1.8562813196 0.3709718156
H -0.3364022946 1.8530849133 -0.9208586721
H -0.8590985346 1.7027746550 0.7725196587
H -0.0833998818 -0.5616014284 0.7809303089
H 1.1973760110 -1.2030334295 -3.8440559938
H 2.7970560378 -0.8713147623 -3.1560213420
H 1.2075184360 -3.2231090113 -2.5010936311
H 4.0302300846 -4.0096499914 -0.5058876421
H 2.3965443044 -3.7297336484 0.1573252440
H 2.6038667722 -4.7076464589 -1.3214735764