19

C 0.0825903586 1.4851544530 0.0630593466
C 0.0035024565 -0.0013528975 0.1305236367
O -0.7163824078 -0.7106834003 -0.8911775075
C -1.2361303327 -1.6501127497 0.0908815999
C -0.4142035474 -1.0213880464 1.2027825884
C 1.0144545181 -0.9165760697 0.7357818997
C 2.0016067684 -1.9025161143 0.1239566398
C 3.0053064729 -1.2321594790 1.0884131512
O 1.9741073838 -0.3763561872 1.6458536488
H 0.7220042561 1.8529516198 0.8697042193
H 0.5245692967 1.7940930449 -0.8914325093
H -0.9053261528 1.9485175078 0.1455737343
H -2.3184297621 -1.5223623996 0.2093229882
H -1.0179851204 -2.6915469469 -0.1768949123
H -0.6927912043 -0.8929238727 2.2407051978
H 1.7977993459 -2.9551957351 0.3305161757
H 2.1930688131 -1.7702817677 -0.9415869026
H 3.4433672500 -1.8791914696 1.8553145563
H 3.7985177274 -0.6455489696 0.6118290491