18

C 0.1179499168 1.3525521192 0.3802041542
C 0.0514430608 -0.1389074457 0.1017706918
O 1.0457843086 -0.8257942322 0.0717801661
C -1.3513561369 -0.7250912302 -0.1328590668
C -1.3256662380 -2.1888227681 -0.6390948655
C -1.6439248933 -3.0745689151 0.5945310818
C -2.2283528682 -2.0978680064 1.5841020204
C -2.0898039012 -0.8324804133 1.1937358145
H 1.1399836024 1.6396715002 0.6299119857
H -0.2103917213 1.9084896807 -0.5059936690
H -0.5567212827 1.6304887373 1.1964848837
H -1.8764858942 -0.0505566894 -0.8225895174
H -2.0996042624 -2.3195552034 -1.4002947824
H -0.3611804225 -2.4318850891 -1.0862046734
H -2.3345074954 -3.8908409542 0.3536953595
H -0.7408119882 -3.5452708374 1.0042052961
H -2.6903569608 -2.4107495335 2.5143931955
H -2.4179364635 0.0375442307 1.7513158751