18

O -0.0114991751 0.0051410554 -0.3711720895
C 0.0215314646 1.1741292721 -0.1185661448
O -1.1038242263 1.9103278583 0.1321993483
C -0.7149021425 3.2744559858 0.4612474271
C 0.6060173771 3.4524582245 -0.2983943019
C 1.2351026390 2.1096368872 0.0686798742
N 1.6486353218 2.1605044655 1.4807362633
C 0.5182781326 2.2818863877 2.4203391726
C -0.4623484530 3.3796930556 1.9703413833
H -1.5271116775 3.9220516943 0.1282917592
H 0.4306127063 3.5318545206 -1.3750495954
H 1.1955451175 4.3030166936 0.0460974395
H 2.0774223662 1.7961674216 -0.5467797443
H 2.1781346155 1.3247599492 1.7059582834
H -0.0452358373 1.3402448723 2.5169707566
H 0.9196966786 2.5164832565 3.4108273496
H -0.0589277063 4.3760647908 2.1820919950
H -1.3984035913 3.2749012390 2.5265955636