18

C -0.0327778285 1.4698802625 -0.0102322217
C -0.0107797230 -0.0188890450 -0.0970538664
C 0.9644640834 -1.0099163287 -0.7885550234
C 0.8005279516 -1.9113611059 0.4230573639
N -0.1265958653 -0.9192288471 1.1145702031
C -1.0928940168 -1.0502241454 -0.0453149989
C -2.5726012605 -0.9758619124 0.1214465675
C -0.1337661246 -2.0850543198 -0.7305469337
O -0.3390990365 -3.1960656972 -1.5007032298
H 0.9192998623 1.8550688173 0.3715903340
H -0.2147127084 1.9221137394 -0.9918181482
H -0.8247656204 1.7967380311 0.6706582535
H 1.7857997323 -0.8986283517 -1.4829750416
H 1.4818315829 -2.5848733857 0.9272706898
H -2.8348804813 -0.1491015144 0.7888614039
H -3.0765100042 -0.8146708646 -0.8382319399
H -2.9640337417 -1.8999113752 0.5607509577
H -0.5083658613 -2.9184772473 -2.4086157600