17

C -0.0732197194 1.5387448088 -0.0047852937
C -0.0264066217 0.0259117911 0.0513055628
N 1.2994940870 -0.5992915156 -0.2070660980
C 0.7251318880 -0.7073881328 1.1152480412
C 1.3427743872 -0.1924031119 2.4106796322
O 0.8538370742 -1.3561336992 3.1137520413
C 0.3189326380 -1.9456530192 1.9090637582
C -1.1874260227 -0.6595745070 -0.4726956112
N -2.1124565965 -1.2162539427 -0.8891994247
H 0.8525302904 1.9475031510 0.4054039835
H -0.1721322074 1.8827278113 -1.0380765529
H -0.9198553114 1.9243256208 0.5705276051
H 1.2000979110 -1.4701030180 -0.7259518595
H 2.4382504024 -0.1388322232 2.3973175224
H 0.9324153827 0.7396053018 2.8167632960
H -0.7554594311 -2.1503486962 1.9795165615
H 0.8479197092 -2.8662651689 1.6281373858