20

C 0.5712220875 1.4604607798 0.8623709997
C 0.1756814034 0.1369706855 0.2231033507
C 0.6230028282 -0.2096187890 -1.2318142797
C 0.9885974667 -1.6613807622 -0.7916017262
N 2.1509185865 -2.2815139159 -1.3820031492
C 3.4728548008 -1.9988150488 -0.8228206677
C 2.8357769315 -3.3311588461 -0.6272834271
C 0.9374153718 -1.1255714830 0.6646626066
O 1.4632906229 -1.4501182104 1.6940266586
H 1.6441204897 1.6456789964 0.7471961579
H 0.0321721889 2.2973791628 0.4076682806
H 0.3488719495 1.4517001919 1.9335480816
H -0.9012614811 -0.0395071497 0.3396736919
H -0.1235468106 -0.1143770834 -2.0203534818
H 1.5220440949 0.3443403842 -1.5157593239
H 0.1299806926 -2.3276612416 -0.9483475444
H 4.2624570249 -1.8692822820 -1.5575094453
H 3.5490323317 -1.3611679268 0.0538888380
H 2.4802735306 -3.5530152538 0.3749167588
H 3.1585637597 -4.1884196379 -1.2119485692