17

O 0.0048484329 -0.0573472927 0.1204126346
C -0.0130644931 1.1481305750 0.0121670006
N -1.1428040006 1.9571287365 -0.0664509619
C -0.8235120123 3.3602658651 0.0629902373
C -0.8030034411 4.0436056221 1.4477550251
C -0.0073951778 3.2491391280 2.4402927754
C 0.7378343084 4.0646912279 1.4260143946
C 0.7380198210 3.3815073602 0.0410331520
N 1.0916088634 1.9875167768 -0.0978021008
H -2.0243816202 1.5563557712 0.2071400039
H -1.3046234115 3.9712826885 -0.7044082242
H -1.4838537012 4.8294020625 1.7519225869
H 0.0012290787 3.6584552293 3.4451380917
H 0.0070255784 2.1639452172 2.4090407017
H 1.4052384078 4.8689454779 1.7111434762
H 1.1805666894 4.0050636614 -0.7393736688
H 1.9910861979 1.6109778532 0.1508152757