21

C -0.0263980634 1.4503678456 0.0050058384
N 0.0398796656 0.0001941150 -0.0322287013
C -1.1840807359 -0.6988735428 0.0140007037
C -1.3070201253 -2.0788554864 0.0236791161
C -0.2444036586 -3.1253083902 0.0030405893
N -2.6613035715 -2.3712013605 0.0453835682
C -3.2292623580 -3.6993698920 0.0523910131
C -3.3787701324 -1.2060364244 0.0276200291
C -2.4980363741 -0.1474792601 0.0129544024
H 0.9889697785 1.8557054119 -0.0186757543
H -0.5531872257 1.8176207741 -0.8821133831
H -0.5414571172 1.8578265996 0.8917499485
H 0.6993915027 -0.3520331366 0.6485943307
H -0.0802272556 -3.6084894401 0.9771427200
H -0.4604345699 -3.9242854168 -0.7169267994
H 0.7020847866 -2.6682805179 -0.3006209029
H -2.8858867979 -4.2761390456 0.9185236961
H -4.3166234359 -3.6183725057 0.1023990876
H -2.9677250603 -4.2561727364 -0.8551408391
H -4.4571547350 -1.2264493062 0.0314461250
H -2.7664004568 0.8967240056 0.0064031520