18

C -0.0202675064 1.5240470219 0.0469989273
C 0.0628611246 0.0346499287 -0.0417252810
C 0.0028091975 -0.7520236580 -1.1297346843
C -0.0179450959 -2.1861820566 -0.6862721867
C -1.2789607351 -2.5387312903 0.1726795387
C -0.4843250328 -2.9484183265 1.3451744140
C 0.7267062793 -2.2105139568 0.6921880567
C 0.1088177619 -0.8761965849 1.1542202932
N -1.2234011630 -1.6546566112 1.3759487416
H 0.8351107736 1.9416582918 0.5927688821
H -0.0497712051 1.9852555637 -0.9441316795
H -0.9203557212 1.8347166973 0.5924138005
H -0.1249270381 -0.4166526888 -2.1528518014
H 0.2530427159 -2.9590857210 -1.4047915169
H -2.2586404970 -2.8468969006 -0.1680350722
H -0.5894415832 -3.7256276767 2.0895120636
H 1.7908544424 -2.4340610303 0.7557641072
H 0.4239413426 -0.4534674316 2.1082812970