19

O -0.1491525097 1.4863728134 -0.2919582796
C -0.0075929919 0.0816977618 -0.1357192168
C -1.2406658073 -0.3709172962 0.6454651829
C -1.3416112601 -1.8752678251 0.8864686769
O -1.5228780132 -2.6086880003 -0.3202673393
C -0.3371666635 -3.0970921284 -0.8941950650
C 0.6330184603 -2.0341692819 -1.4209031538
O 1.7561711202 -2.3520177629 -1.7374885791
C 0.1331646523 -0.6032275153 -1.5189856254
H 0.6392756910 1.8219267728 -0.7307635143
H 0.8974450151 -0.1432782860 0.4535641286
H -1.2463087495 0.1483033433 1.6105786255
H -2.1306687332 -0.0398704303 0.0979985299
H -0.4602896651 -2.2503351208 1.4299587498
H -2.2192076455 -2.0818837794 1.5077585603
H 0.2227311974 -3.7451156746 -0.2021710852
H -0.6333486741 -3.7180402183 -1.7483791889
H -0.8369082847 -0.5701833522 -2.0270761370
H 0.8690482518 -0.0555839498 -2.1154315397