20

C 0.1551411800 1.4191106426 0.3883001137
C 0.0754830664 -0.0746306533 0.0590136077
C -1.3411504083 -0.5298413272 -0.2311714874
C -1.6391141542 -2.0413656456 -0.3082143940
C -2.6792102037 -1.7545388926 0.8112869524
C -2.5528149721 -2.5186544221 2.1222028439
O -2.2187559719 -0.3905015580 0.9263951458
C -4.0721623525 -1.7908597026 0.3226286822
N -5.1595440090 -1.8288664875 -0.0672444608
H 1.1817005582 1.7169439165 0.6196345698
H -0.1896243613 2.0289032097 -0.4537536132
H -0.4721556298 1.6550151862 1.2524788051
H 0.6936078389 -0.3067651298 -0.8186419735
H 0.4717874968 -0.6667649902 0.8931743754
H -1.7566615698 0.0323136954 -1.0786053576
H -2.0317104248 -2.4231608256 -1.2497667865
H -0.8187273688 -2.6745516923 0.0362110800
H -1.5142931763 -2.4879777343 2.4605584419
H -3.1861580490 -2.0632135469 2.8881827672
H -2.8587614688 -3.5610160824 1.9916925780