21

C 0.0095773931 1.4958315846 0.1192335282
C 0.0291070326 -0.0183546545 -0.0137948483
C 0.7406642532 -0.5117920195 -1.2812230312
C 1.0029430546 -1.9919565669 -1.1945738102
C 0.9381033489 -2.6376218890 -0.0307501815
C 0.6571788831 -1.9264984778 1.2344052087
C -0.3245613969 -2.5235437653 2.2345606882
C 1.1514899782 -2.4635006685 2.5481789275
O 0.6927302299 -0.5286283548 1.1455458839
H 1.0309803261 1.8848985295 0.1772307465
H -0.4874832922 1.9511221191 -0.7428415893
H -0.5224061971 1.7948953606 1.0264098879
H -1.0044910161 -0.4014864146 -0.0261205584
H 0.1209252509 -0.2848374378 -2.1584039166
H 1.6810388000 0.0415047073 -1.4186401414
H 1.2355746794 -2.5279018501 -2.1102444624
H 1.0869126590 -3.7119204545 0.0320454138
H -0.9702941817 -1.8171147975 2.7435025893
H -0.7746155087 -3.4848912856 2.0124095663
H 1.7274452671 -3.3823593234 2.5426455684
H 1.4804713468 -1.7202531812 3.2652689306