20

C -0.9881125850 1.2094891408 -0.2956727554
C -0.1012826630 0.0055924285 0.0452906508
C 0.5589433073 -0.5810150961 -1.1880858184
C 1.0169996406 -1.9950636484 -1.3556569960
N -0.0997481370 -1.3797883799 -2.2247181708
C -1.1193728072 -2.2726924724 -1.5465889536
C -1.7994830118 -3.2103200138 -2.5330289584
C 0.0258014152 -2.9519840099 -0.7663506898
O 0.1192535392 -3.9809991046 -0.1591027357
H -0.4155387396 1.9874363212 -0.8120721965
H -1.8140911471 0.9201376038 -0.9534172133
H -1.4142499299 1.6516433121 0.6093757447
H 0.7010366661 0.3176482113 0.7248927197
H -0.6765852531 -0.7463495517 0.5919716296
H 1.2441981585 0.1240656641 -1.6604610817
H 2.0018790837 -2.2466983499 -1.7347868795
H -1.8625453679 -1.7208784625 -0.9646379434
H -1.0612832414 -3.7376626737 -3.1438422299
H -2.3920603295 -3.9522045418 -1.9902679776
H -2.4588656082 -2.6492816572 -3.2008750148