22

C 0.4534072829 1.6084924581 0.1022218830
C -0.0662423434 0.1981981793 -0.0864097427
C 0.4810093292 -0.6390187442 -1.2631197889
C 0.9698178722 -1.6032174098 -0.1694568156
C 0.5473664346 -3.0895803288 -0.1481450265
N 1.9198760129 -3.4435860050 -0.5599264806
C 2.5209213243 -4.6345510676 -0.0037787062
C 2.4186264601 -2.1286969309 -0.1116576781
O 0.5060201712 -0.7354891861 0.8695787822
H 1.5441541951 1.6358081698 0.0153679298
H 0.0256038100 2.2777259441 -0.6525778638
H 0.1782754086 1.9886761507 1.0911106234
H -1.1621286211 0.1856796771 -0.0135135773
H -0.2590050357 -1.0424661266 -1.9562527823
H 1.2797187040 -0.1539250183 -1.8295690596
H 0.3006381380 -3.3971707888 0.8819986700
H -0.2466042660 -3.4227361588 -0.8265668763
H 1.9887563858 -5.5223229870 -0.3621720124
H 3.5628328227 -4.7137336085 -0.3324001203
H 2.5087213693 -4.6512017443 1.1032794920
H 3.1717057778 -1.6655879567 -0.7596993652
H 2.7804309273 -2.1234655175 0.9304848553