22

C 0.0140799708 1.5748915422 0.0238180882
C 0.0144408026 0.0442585791 -0.0156297511
C 0.6768863274 -0.5007952249 -1.2891284349
C 0.4779021309 -2.0185486336 -1.4154158200
C 0.8491129773 -2.7814114372 -0.1550488429
C 2.1838458218 -2.5914803517 0.5163424756
C 0.9315323241 -2.0525092656 1.1721880698
C 0.6928904326 -0.5432126578 1.2370817734
H 1.0375954598 1.9677537005 -0.0049907878
H -0.5267177890 1.9954250469 -0.8308237368
H -0.4583166110 1.9514412064 0.9378294677
H -1.0312610218 -0.2985172499 -0.0217869364
H 0.2573542164 -0.0064930452 -2.1733218794
H 1.7467619763 -0.2487159521 -1.2793177346
H -0.5820696416 -2.2074152713 -1.6336682456
H 1.0414723775 -2.4073668189 -2.2731485169
H 0.4499591253 -3.7915554625 -0.1174212440
H 2.6691424346 -3.4583991738 0.9520257064
H 2.8745025985 -1.8673942490 0.0937133087
H 0.5846399359 -2.6054712708 2.0396795220
H 1.6480342041 -0.0225104372 1.3941997660
H 0.0793496076 -0.3106050936 2.1147543726