17

N 0.4757319274 0.6101150032 -0.7840593438
C -0.0846384086 0.0932583865 0.3340172051
O 0.3940575588 0.1852337563 1.4510145013
C -1.4075151621 -0.6803624851 0.1278018796
C -2.2575780874 -0.2833869975 -1.0770508885
O -1.5987966793 -0.5525647462 -2.3080124555
O -1.1206622894 -2.0733804609 -0.0708797265
C -0.6473473862 -2.7744510935 0.9927571857
N -0.3820856869 -3.9971768076 0.8425766262
H 1.3815688426 1.0436615070 -0.7034815167
H 0.0839054871 0.3942813707 -1.6911932808
H -1.9854378513 -0.5401439473 1.0485924342
H -3.2135219352 -0.8211894478 -1.0222525739
H -2.4639661679 0.7900877643 -1.0530315729
H -1.3793746267 -1.4933972444 -2.2964327133
H -0.5359131470 -2.1685459353 1.8968590788
H -0.0486592778 -4.3882379325 1.7214181410