15

O 0.0153737731 -0.0489591551 0.0339620062
C 0.0421193613 1.1561196506 0.0197997307
N -1.1107948495 1.9416562783 0.0163340762
C -1.0744369094 3.3356493003 -0.0255376184
O -2.0679966387 4.0178254726 -0.0501487631
C 0.3610387278 3.8500541800 -0.0615774931
C 1.1564753793 3.0789586560 -1.1505223724
C 1.2989203778 2.0192966195 -0.0236001341
N 1.1016433390 3.0958611886 1.0189171792
H -2.0112780441 1.4811840190 0.0566979326
H 0.3698528856 4.9377157557 -0.0149496640
H 0.6640401146 2.8072370897 -2.0883108378
H 2.1129968757 3.5646968205 -1.3574521053
H 2.1857200287 1.3931229537 0.0585702315
H 2.0004161788 3.5589946107 1.1496887419