20

C -0.1025990295 1.5215507869 -0.0038071257
C -0.0002547748 -0.0051821238 0.0126982052
C 0.7044405502 -0.5650500515 -1.2313930974
C 0.7561725417 -2.0579117004 -1.2516187074
O -0.4892902776 -2.8327203072 -1.2583097487
C 0.5435362157 -3.8557396811 -1.2732481739
C 1.5139301930 -3.0494859335 -2.1944201645
N 2.6913185613 -3.1129903610 -1.2674997473
C 1.5177866415 -3.0759852646 -0.3348801494
H 0.8888488791 1.9863601142 -0.0463676365
H -0.6684804057 1.8705949895 -0.8746567956
H -0.6074499827 1.8950167601 0.8923773179
H 0.5426665426 -0.3301982414 0.9090048268
H -0.9997974258 -0.4485092901 0.0817792507
H 0.1904378002 -0.2218651096 -2.1387100279
H 1.7364482893 -0.1967791240 -1.2899179388
H 0.2454225775 -4.9051332254 -1.2869431592
H 1.5930285127 -3.0371191955 -3.2822199941
H 3.1000414865 -4.0507111277 -1.2818025883
H 1.6016858648 -3.0976187540 0.7522568241