16

C -0.0530075563 1.5778241791 0.0223167146
C 1.4124020343 2.0028220520 0.0765223256
C 2.2705941346 0.9816707959 -0.0367617622
C 1.5280250971 -0.3040273063 -0.1290155135
N 0.6902328179 -0.6293315938 1.0382462461
C 0.0514813557 0.0649941676 -0.0791146983
C -0.1930363716 -0.8618786974 -1.2630446318
O 0.6361945079 -0.4476159413 -2.3573524256
C 1.2417398310 -1.2214845895 -1.3125406075
H -0.6064862495 1.9066396427 0.9088329569
H -0.5590674144 2.0005269960 -0.8537453386
H 1.7014584530 3.0381131353 0.2294981196
H 3.3503956510 1.0645651826 -0.0294060185
H 0.4366268870 -1.6154041237 1.0467040113
H -1.0697877517 -1.4498660134 -1.5107376595
H 1.7208299141 -2.1483490360 -1.6059417085