20

C -0.1437631698 1.4492181813 -0.0129518762
O -0.0538932244 0.0340735297 -0.0420303448
C 0.6731637385 -0.5464018893 -1.1167812241
C 0.0653763303 -0.2075681689 -2.4919681477
C 2.0804781376 -0.0641443497 -1.0824691662
N 3.1670325134 0.3289907200 -1.0524200839
C 0.6168256129 -2.0488854045 -0.8711458030
C 1.6767940445 -2.9913269267 -1.3793086855
C 1.5326352967 -2.7379704508 0.1009375420
H 0.8473808122 1.9210017813 -0.0410404522
H -0.7521003193 1.8470417306 -0.8354068146
H -0.6279785325 1.7009945314 0.9327555852
H 0.1376110716 0.8576678931 -2.7206388229
H 0.5873355566 -0.7611980510 -3.2758258018
H -0.9880988839 -0.5007945011 -2.4915394066
H -0.4097134660 -2.4005935673 -0.9058107922
H 1.3520147073 -3.9432716441 -1.7835713447
H 2.5451333638 -2.5682123940 -1.8727439912
H 2.3019009130 -2.1435843712 0.5809477491
H 1.1098855873 -3.5155750990 0.7264461015