12

N 0.0327106004 1.3287179817 -0.1016876406
C -0.0585660064 -0.0111955588 -0.0411142271
C -1.1825778323 -0.7811006412 -0.0227416950
C -0.9915600631 -2.1855185137 0.0455008618
F -2.0836359725 -2.9374252486 0.0637818712
N 0.1135050903 -2.8442316279 0.0933100845
O 1.2653398101 -2.0421635726 0.0737914180
C 1.2597736216 -0.6885763984 0.0105938971
O 2.3045938004 -0.0820626165 -0.0013061700
H 0.9602106745 1.7242830270 -0.1067324993
H -0.7747933023 1.9234921764 -0.1429865760
H -2.1878247907 -0.3802791773 -0.0568781645