17

C -0.0141546780 1.5466371161 0.0125809555
N -0.0284051537 0.1042500806 0.1096308717
C -1.2641130599 -0.5619602572 0.5388136874
C -0.3918073090 -1.6190319921 1.3122962128
C 0.7447814747 -0.5387279295 1.1790965326
C -0.8149370327 -1.9812840730 2.6529495729
C -1.1670665300 -2.2542200940 3.7680642127
C -0.1192445404 -2.8064675468 0.5000292170
N 0.0969756797 -3.7413175268 -0.1434992749
H 0.9929044269 1.8883276280 -0.2466554840
H -0.6924360709 1.8688367702 -0.7838148791
H -0.3190093524 2.0472087948 0.9509010492
H -1.8654549960 0.0196039126 1.2543992722
H -1.9018630814 -0.9409557805 -0.2638746149
H 1.7371535629 -0.8988703699 0.8959610194
H 0.8088552983 0.0505605493 2.1067415886
H -1.4771034781 -2.5073694818 4.7521091807