17

C -0.0323469806 1.5916290546 0.2135058533
C -0.0293517447 0.0644261749 0.0149238989
C 0.8687286521 -0.6393231430 1.0493223475
C -1.4319747161 -0.4908785591 0.0448504548
C -2.2803899534 -0.4176183433 1.1550292966
N -3.4999037787 -0.9238481865 1.1185390451
N -3.9066277625 -1.5110549752 -0.0103107362
N -3.1236757803 -1.5872081304 -1.0576174253
N -1.8884078768 -1.0867432831 -1.0535043339
H 0.9870936800 1.9798304801 0.1317471540
H -0.6478327861 2.0909348886 -0.5401744458
H -0.4134546617 1.8688187228 1.2024045286
H 0.3507262951 -0.1575826045 -0.9874134434
H 0.8917062581 -1.7207899038 0.8878765531
H 1.8925603852 -0.2619949544 0.9716300254
H 0.5251997061 -0.4551562091 2.0730744116
H -1.9822136758 0.0524692715 2.0883192257