16

O 0.0861719161 0.1090693522 0.1711892772
C 0.0524439811 1.3047307709 0.1487480947
C -1.0518289754 2.3223369162 0.0915683331
C -0.1333753404 3.1885353937 -0.7871423408
C -0.4492385564 3.6476003881 0.6015782358
C 0.9633693631 3.3423432091 1.0569716040
C 1.9318181404 4.3067224981 1.6067521527
N 1.5164564551 3.1045598684 2.3741170274
C 1.0954296949 2.4060726890 -0.1556597003
H -2.1198805003 2.1768550711 0.0045236538
H -0.3151504092 3.5938835501 -1.7693295482
H -1.1043592773 4.4525629276 0.9128685358
H 2.9681193970 4.3007102002 1.2799152773
H 1.5608170500 5.2808234391 1.9184383088
H 0.8523497353 3.3520481173 3.1036223377
H 2.0499029460 2.1745760190 -0.6186856591