23

C 0.0556881925 1.4326887026 -0.9088200218
C -0.0722664418 -0.0144600713 -0.4618219237
O 0.7955487329 -0.8034586690 -1.2504415466
C 0.8437758813 -2.1798658274 -0.8873798722
C -0.3524490354 -2.9949043640 -1.4477846322
C 0.1138612878 -3.5402589514 -2.7898139032
C 0.7617112647 -2.5724708778 -3.7514733091
C 1.6220067323 -3.4226143662 -2.8481351567
C 2.0967605563 -2.8024690326 -1.5419956397
H 1.0879985849 1.7771365008 -0.8001786314
H -0.2306059606 1.5377550336 -1.9592639723
H -0.5925427186 2.0767601864 -0.3069717521
H 0.1965887613 -0.1156809443 0.6036961077
H -1.1163369756 -0.3520605218 -0.5605121366
H 0.8896116951 -2.2461265832 0.2095609776
H -0.5790250702 -3.8270791359 -0.7699849448
H -1.2568790423 -2.3810759560 -1.5147958130
H -0.3967583685 -4.4064341431 -3.1964036051
H 0.7411438212 -2.8367642313 -4.8036105837
H 0.6898282241 -1.5108110356 -3.5459014824
H 2.2273305113 -4.2034806475 -3.2951843664
H 2.8695625004 -2.0379094203 -1.6647030419
H 2.5019641871 -3.5845821245 -0.8894352303