13

F -0.0058840258 0.0498054516 0.0036049013
C -0.0104335170 1.3791870407 0.0104920930
N -1.1888173324 1.9498870643 0.0298085498
C -1.2202268104 3.2975025110 0.0371519648
C -0.0573472918 4.0751761785 0.0250023083
C 1.1749555753 3.4284982605 0.0045461177
C 1.2163411174 2.0415770480 -0.0031603624
C -2.5049790937 3.9237606831 0.0582779921
C -3.5699969011 4.4831863364 0.0760153468
H -0.1319719336 5.1549088769 0.0316001925
H 2.0954220252 4.0020364151 -0.0052938954
H 2.1422357115 1.4812398802 -0.0189060217
H -4.5184160537 4.9611952838 0.0917381132