19

C -0.1066486910 1.6755499005 0.0753863365
C 1.2620856125 2.0859179168 0.6580483263
C 2.4964357104 1.7637853107 -0.1511726000
O 2.8223315360 0.4021108091 -0.4044948960
C 2.5993131906 1.2413291518 -1.5439658471
C 1.5536173120 0.8937445972 -2.5395033987
C 0.4864136223 0.0866239650 -2.4308427600
C -0.0812509342 -0.4877622780 -1.2159305689
C -0.3266852912 0.2000696958 -0.0943580842
H -0.8762000782 2.0745887761 0.7464707601
H -0.2320747256 2.1767742569 -0.8899262064
H 1.2569103811 3.1716847237 0.8185038696
H 1.3942032048 1.6337902460 1.6496373331
H 3.3612176397 2.3562501814 0.1638642584
H 3.5320566313 1.5190809949 -2.0424370687
H 1.7924765267 1.2679538731 -3.5330665183
H -0.0248416270 -0.1719134914 -3.3581288081
H -0.3777607421 -1.5339022971 -1.2671414899
H -0.7537321283 -0.3295383025 0.7548303722