17

O -0.3807563466 1.6518218352 -0.1254625046
C -0.2021270326 0.2851728893 -0.0779444397
C -1.2750021126 -0.7376495566 0.0229456826
C -2.7001266599 -0.3076150946 -0.3423250770
C -2.6471572537 0.2468771688 -1.7710502572
O -2.6487996939 1.6837469148 -1.7384359391
C -1.2937829888 -0.2311379605 -2.3595857670
O -1.0386329201 -0.1837942838 -3.5405641899
C -0.4203527448 -0.6976449047 -1.2588204155
H -1.1908205692 1.8738351038 -0.6171145369
H 0.7126142467 0.0606747086 0.4621731298
H -1.1626260335 -1.5535602057 0.7289587031
H -3.3590197782 -1.1795450093 -0.3133138649
H -3.1069844800 0.4368504675 0.3489056993
H -3.4734219440 -0.1055761518 -2.3976332006
H -2.4365555778 1.9885796030 -2.6305213743
H 0.3746115891 -1.3940292740 -1.4942807582