19

C -0.1180140770 1.4698153659 -0.1014269796
C 0.0298092565 -0.0512184343 -0.0347552094
O 0.9371771025 -0.5199875526 -1.0303901580
C 0.5717251171 -0.5194223968 1.3185812729
C 0.5577203837 -2.0215017324 1.5060429215
C 1.6748314271 -2.8755190935 0.9690017000
C 1.5275262058 -2.6798762477 2.4574713523
H 0.8479081320 1.9552626241 0.0719849133
H -0.4835559857 1.7836808149 -1.0862908328
H -0.8307383856 1.8325488631 0.6466008664
H -0.9624186223 -0.5101032419 -0.1890911294
H 0.6022353962 -0.2450962593 -1.8895040802
H 1.5974952112 -0.1417512266 1.4209420754
H -0.0210467674 -0.0433507420 2.1104720689
H -0.4360711858 -2.4628055965 1.4680468383
H 1.4274081959 -3.8448126527 0.5501578589
H 2.4865721192 -2.3681087898 0.4612576787
H 2.2502449692 -2.0458008085 2.9615918784
H 1.1780671778 -3.5128828633 3.0578367645