14

N 0.0918758337 -1.1127616126 -0.0086531348
C 0.0352161602 0.0413369007 0.0098579439
C -0.0820099157 1.4752183322 0.0083622360
C -0.7068022523 2.4269058999 1.0686432366
C 0.0290756033 3.2920480657 0.0122009299
O 1.1424511146 2.3050896000 0.0267034406
C -0.6126092486 2.4345269414 -1.0914470820
C -0.6913173420 2.4147041461 -2.5357030320
O -1.8679644623 2.5054044779 -1.6717320533
H -1.7956286684 2.4830706028 1.1156751472
H -0.2198360824 2.3856426057 2.0425759692
H 0.2899017367 4.3468567547 0.0327810744
H -0.4759929254 3.3144600952 -3.1069950392
H -0.5936081214 1.4737864303 -3.0718484764