17

C 0.1257559089 1.3704282278 -0.0214171401
C -0.0310026513 -0.1271757451 -0.1425867640
O 0.8861743044 -0.9003573258 -0.2656555380
C -1.4854988371 -0.6461725958 -0.0642915156
O -1.6292571747 -1.9579019409 -0.5391117969
C -1.4783647953 -2.8657766453 0.5630368350
C -2.1238233067 -2.1565404970 1.7563735744
C -1.9264877279 -0.6808637109 1.4174185411
O -2.0624359556 0.2703255138 2.1390801526
H 1.1793630279 1.6300701035 0.0867575368
H -0.2787529630 1.8552565108 -0.9179662498
H -0.4553720371 1.7368450699 0.8318227699
H -2.1425644147 0.0256961179 -0.6285224193
H -1.9730423900 -3.7974136596 0.2830487620
H -0.4150769250 -3.0632206430 0.7411682859
H -3.2019351973 -2.3483588768 1.8063434535
H -1.6917409855 -2.3931608732 2.7305914424