22

C -0.2642932387 1.4129416681 0.0289732328
C 0.0121885349 -0.0791539062 -0.0515925576
C 0.8925633650 -0.6050837808 -1.2113187753
C 2.0774006291 -0.3474457892 -0.2579603091
N 1.1157703510 -0.5279444386 0.8964335734
C 0.9374479062 -1.9795086012 1.0922151640
C 1.0151131090 -2.7920240539 -0.2365681093
C 0.1282662770 -4.0268761188 -0.2346999523
O 0.6511696046 -1.9954287045 -1.3759997112
H 0.6344196068 2.0126787671 -0.1412349464
H -1.0093411853 1.7033249719 -0.7194963521
H -0.6524184226 1.6704450324 1.0189848167
H -0.9169794389 -0.6439754781 0.0786620624
H 0.8492025960 -0.1522188529 -2.2063644509
H 2.9300599401 -1.0295520131 -0.2807679422
H 2.4452924424 0.6797991612 -0.2872735926
H 1.7091838608 -2.3488489976 1.7781950761
H -0.0314277737 -2.1308601260 1.5819117439
H 2.0572323927 -3.1154873098 -0.3778588179
H -0.9207911092 -3.7460202466 -0.0978091594
H 0.2183183836 -4.5657298537 -1.1821195141
H 0.4163894492 -4.7040816099 0.5762701009