18

C -0.0604391847 1.4056981303 0.0557547282
N -0.0656870701 -0.0382704364 0.0051833118
C 0.0371754965 -0.8293447027 -1.1060311477
C 0.0864928640 -2.1355152704 -0.6590449481
N 0.1174285352 -3.3370866192 -1.3783114212
C 0.0097741306 -2.0262904102 0.7537233557
C 0.0095820154 -3.1574038965 1.7294617348
O 1.0823548037 -4.0776768793 1.4829488953
N -0.0666746588 -0.7501595312 1.1396230489
H 0.9452572393 1.8128975970 -0.1027091547
H -0.7301510368 1.8120388850 -0.7075205456
H -0.4133954656 1.7041305713 1.0428242602
H 0.0600621980 -0.4081581064 -2.0986530703
H 0.5432380302 -3.2515635303 -2.2913976444
H 0.5798929783 -4.0625825418 -0.8422441406
H 0.0400831823 -2.7598281801 2.7522290567
H -0.8977570626 -3.7641843322 1.6322661700
H 1.9011733250 -3.5731851469 1.5414940809