21

C -0.1330021846 1.3591561317 0.0096176825
O 0.1747762975 -0.0188401104 0.0625321114
C 0.7263694766 -0.5260636773 -1.1047507081
C 0.0009894721 -0.5171412194 -2.5034893833
C 1.0605977062 -1.6411604645 -2.7693102466
C 2.3574909176 -0.8308464514 -2.6317634429
C 2.1448266020 -0.0926266637 -1.5407892813
C 0.8049325642 -2.0806852982 -1.2749265248
C 1.7924895923 -2.9253901999 -0.4916477311
H 0.7561275270 1.9733862964 -0.1935759131
H -0.8853804237 1.5771238537 -0.7621345315
H -0.5369474389 1.6356893020 0.9861634748
H -1.0288262965 -0.8844345433 -2.4573030267
H 0.0785894400 0.3858786049 -3.1119748294
H 0.9604512641 -2.3393871098 -3.5980857811
H 3.2238061062 -0.8874261398 -3.2758939203
H 2.7826404318 0.6154305532 -1.0313040829
H -0.2028728713 -2.5013918995 -1.1803156627
H 2.8113777338 -2.5386849855 -0.5730526372
H 1.5185740905 -2.9461001854 0.5684990630
H 1.7887927933 -3.9594357838 -0.8536769586