21

C 0.0756377506 1.2293284214 -0.3487396423
O -0.0921517454 0.1157487620 0.5049170817
C -1.2933594992 -0.5507646074 0.2986685408
C -1.4535640219 -1.6319149146 -0.7513282774
C -0.1953070633 -2.2434280775 -1.3398827017
O 0.6531752876 -2.5757240484 -0.2501824672
C -0.1209876152 -2.7348114420 0.9288453003
C -1.4303168806 -1.9777542237 0.7345860098
C -2.6356668416 -2.4368222154 1.5199519102
H 1.0464409639 1.6713731252 -0.1138743445
H 0.0587607148 0.9391378148 -1.4085151242
H -0.7091995234 1.9844103800 -0.1853613315
H -2.1742849382 0.0781097791 0.4543114626
H -2.3690053768 -1.6762968361 -1.3322853511
H -0.4639740317 -3.1369944439 -1.9278570720
H 0.3688712061 -1.5695936758 -1.9949750574
H -0.3492222582 -3.7977664401 1.1155802189
H 0.4770654311 -2.3596694076 1.7664721357
H -2.4753036855 -2.3194253695 2.5981038640
H -3.5263407305 -1.8588917539 1.2557391890
H -2.8536149326 -3.4938057867 1.3285621664