19

C 0.8353934719 -0.0110076103 -0.7783158643
N -0.1394811905 0.1371807306 0.2948644259
C -0.1440261014 1.4683784717 0.8898473895
C -1.3861355386 -0.4435912729 0.1181752619
N -2.4827658905 0.2311884822 0.4108555805
O -3.5392262764 -0.6640859903 0.2304469136
C -3.0372035781 -1.8340633684 -0.1813563985
C -1.6857312696 -1.7974449534 -0.2830228894
C -0.7716797646 -2.9286583013 -0.6368092097
H 1.8258099553 0.2555669263 -0.3972888501
H 0.8764212152 -1.0419380063 -1.1279216025
H 0.6147189675 0.6386206760 -1.6413466902
H -0.5222864258 2.2397746079 0.2017724681
H -0.7800930056 1.4706024397 1.7758350136
H 0.8801380671 1.7249328031 1.1760339818
H -3.7550724082 -2.6233614865 -0.3502882218
H -1.3160662949 -3.8769623567 -0.6222301971
H -0.3337306474 -2.8222923624 -1.6361443529
H 0.0551860845 -3.0092252390 0.0768167918