16

O 0.6277941626 0.4053855867 -1.1658666526
C 0.1694919067 0.3756447972 0.1669589107
C -1.1854538767 -0.3244562710 0.2557008644
C -1.1926582874 -1.8472134610 -0.0510904137
C -1.5651587056 -1.9783101008 1.4097987259
N -1.7983892450 -2.9326916796 2.1817201629
O -1.5793273601 -0.6076451284 1.6394062788
C -2.2905765094 0.4432356589 -0.4413385359
O -2.0988962897 1.2490606767 -1.3194450028
H -0.0021253415 0.9521505310 -1.6541207663
H 0.8988772911 -0.1894186859 0.7555294951
H 0.0888035494 1.3801036945 0.6080175077
H -1.9571451924 -2.2020633853 -0.7455186275
H -0.2226918196 -2.2511925408 -0.3420994473
H -2.0309943070 -2.6134797970 3.1233500996
H -3.3134779554 0.2009216249 -0.0822320890