18

C -0.0238606152 1.4238458859 -0.3894732033
O -0.0192128647 0.1811588629 0.2796917639
C -1.2198834342 -0.5154422259 0.1575331297
C -1.5889332420 -1.2214408514 -1.2065667397
C -1.6998403554 -2.5376537498 -0.4347934883
N -0.3910046470 -2.8213675270 0.1197947278
C -1.2481540951 -1.8656127997 0.8600425819
C -1.7438278355 -2.2108233958 2.1959095503
O -1.7104250762 -3.3345942195 2.6504551075
H 0.9459927202 1.8917567927 -0.2082046915
H -0.1632074984 1.3055167554 -1.4741778483
H -0.8171137802 2.0869316113 -0.0092872727
H -2.0693629676 0.1009354839 0.4959639366
H -2.5237514021 -0.8653746357 -1.6415770323
H -0.7933979586 -1.2216755244 -1.9545501393
H -2.4652748760 -3.2996599020 -0.5168180167
H -0.4553826910 -3.6904634354 0.6553741734
H -2.1812140609 -1.3651144453 2.7685906411