16

C -0.0736100123 1.5037553087 0.0080393260
O -0.0348958209 0.0757883316 -0.0310050301
C -1.2177534754 -0.5393728340 0.0133395828
N -1.0848031162 -1.9356211695 -0.0296658550
C 0.0428042352 -2.7405020372 -0.1020669477
O 1.1918876899 -2.3947846621 -0.1449133329
N -2.3187501923 0.0870753333 0.0842036749
C -3.5663120750 -0.6480696458 0.1285678731
H 0.9692026895 1.8182826907 -0.0364191287
H -0.6346130349 1.8997221734 -0.8423708536
H -0.5451385952 1.8536287597 0.9299758554
H -1.9608310827 -2.4336175006 -0.0021151307
H -0.2708018138 -3.8050727930 -0.1160183806
H -3.7350746640 -1.2600500405 -0.7723203237
H -3.6416939075 -1.3121290884 1.0049042232
H -4.3965301344 0.0593759637 0.1928259176