18

O 0.5499583663 0.9747381287 0.2803102347
C 0.0968685203 -0.3214680866 0.0812031615
C -1.3955627720 -0.5929212584 0.0037851299
C -2.3735055865 0.5702604182 0.0870516643
C -3.0349225263 0.8453576588 -1.2553558354
O -4.1992787143 1.1374694562 -1.3804297506
C -2.1277272830 0.7083923784 -2.4850676526
N -0.7306078142 0.4967912763 -2.1036787043
C -0.5374320748 -0.6507988350 -1.2507199424
H 0.3464561651 1.4379950038 -0.5503206894
H 0.7253837263 -1.0639354059 0.5622976608
H -1.7471834952 -1.5430583489 0.3908265121
H -3.1566316614 0.4024992401 0.8283338963
H -1.8253835059 1.4747476581 0.3863522397
H -2.5456946463 -0.1044855660 -3.1027841906
H -2.2156463184 1.6300468611 -3.0693005925
H -0.1249865593 0.4699149001 -2.9145291129
H -0.3562583106 -1.6172359793 -1.7197660986