17

C -0.1555225223 1.5319332093 0.1376500114
C -0.0440439902 0.0559621884 -0.0628172282
C 0.0984165206 -0.7338399139 -1.1825356715
C 0.2611563828 -0.7913637229 -2.6705357064
C 0.1829507237 -2.3432667952 -2.8912872880
O 0.3490680515 -3.0059914902 -1.6085788188
C 0.1797206666 -2.0392424149 -0.6784309134
N 0.0953193290 -2.1406517639 0.6292841336
N -0.0327204376 -0.8214051145 0.9873686320
H 0.8235416622 1.9960215115 0.3068286520
H -0.5962850031 2.0048631930 -0.7432927298
H -0.7883090097 1.7728113398 0.9982575023
H -0.5202455772 -0.2805935561 -3.2418857127
H 1.2245237189 -0.3900040732 -3.0079650473
H -0.7963022258 -2.6296607244 -3.2908731694
H 0.9593238629 -2.7221621133 -3.5590920921
H -0.1729571823 -0.6039260396 1.9585220663