18

C -0.0644689386 1.6399912776 0.1201272777
C 0.0308747239 0.1264183013 0.0318167354
C 0.7530432004 -0.5013287419 -1.2226471923
C 1.2617675724 0.3826223119 -2.2444729135
C 1.6919779858 1.1211993556 -3.0900720493
C 1.7767868714 -1.0650628098 -0.1772297839
O 2.7648328917 -1.7466073526 -0.2143357517
N 1.0809420798 -0.4940893686 0.8514670305
C 1.2615321862 -0.5904657454 2.2771710923
H 0.9022855711 2.1056542216 -0.0872598945
H -0.7890843158 2.0165461351 -0.6077923678
H -0.3974551486 1.9484404936 1.1166147756
H -0.9518953628 -0.3306280520 0.2073495992
H 0.1716871851 -1.3159955828 -1.6656977898
H 2.0790920861 1.7644394457 -3.8410722169
H 2.1679324265 -1.1735094372 2.4562528430
H 1.3818561416 0.3973331596 2.7363439178
H 0.4144427138 -1.0969609417 2.7568672281