21

C 0.3445348184 1.5185265487 0.0779222368
C 0.0815907483 0.0097228214 0.0450346227
C 0.5418696438 -0.6137033153 -1.2580453848
O 1.9663566980 -0.4897814719 -1.4663782050
C 2.1203345660 -1.8975264038 -1.7449160082
C 3.2128496921 -2.5421862290 -0.9215911842
C 0.6186558592 -2.1703119574 -1.3941678414
C 0.3332010724 -2.9690460274 -0.2208900300
C 0.0955797388 -3.6390796996 0.7496360696
H 1.4093219807 1.7237013415 -0.0639804799
H -0.2058848988 2.0363698722 -0.7155890170
H 0.0372801550 1.9504135601 1.0348055927
H 0.5947357596 -0.4841182781 0.8767612643
H -0.9893095364 -0.1975806210 0.1670736363
H -0.0060271909 -0.1672485736 -2.1015254795
H 2.3090680562 -2.0561860352 -2.8162064940
H 3.0109552340 -2.4415070776 0.1473619425
H 3.2953570732 -3.6073640704 -1.1613763684
H 4.1711910609 -2.0631681679 -1.1454625386
H 0.0466234128 -2.5514022440 -2.2440964375
H -0.1174431531 -4.2307917218 1.6052945136