18

C -0.2365089988 1.5021405340 -0.0183389680
C -0.1074585587 0.0094715878 0.1462138713
O 1.1726112509 -0.5814960708 -0.1088778619
C 0.6428308312 -0.6659587161 1.2191909833
C 1.4015179640 0.0595534140 2.2803754786
N 0.8545468829 -0.0355830365 3.6375316830
C 2.1570842449 -0.6782676825 3.3489914385
C 2.2194365207 -2.1125908934 3.4126295509
C 2.3049430039 -3.3106144350 3.4620832575
H 0.6030704601 2.0396142438 0.4271547753
H -0.2749877619 1.7614111361 -1.0814624424
H -1.1632874984 1.8557413311 0.4462436435
H -0.9358629456 -0.5588864473 -0.2827754025
H 0.3156392736 -1.6615801768 1.5176565871
H 1.8495730323 0.9984524135 1.9656856589
H 1.0038037699 0.8313287213 4.1468237739
H 3.0500163759 -0.1747654153 3.7141420989
H 2.3729932731 -4.3694272480 3.5064778241