21

C 0.6698474098 -0.3697420989 1.3247217380
O 0.1561174873 0.0805037510 0.0837922314
C 0.7233982204 -0.4924444715 -1.0981167955
C 2.2116796039 -0.1343046436 -1.1926778329
O 2.4222013270 1.2546657611 -1.0378517687
C 0.4827552532 -2.0178998677 -1.2688241528
C -0.3224997013 -2.1148391568 -2.5822287657
O -0.0690691793 -0.9029755953 -3.2789004856
C -0.0578600680 0.1072981626 -2.2894944960
H 0.6115542896 -1.4613003610 1.4265789409
H 1.7112731375 -0.0607904895 1.4873818913
H 0.0479997469 0.0854943337 2.0993248857
H 2.7873679088 -0.7125520430 -0.4512629719
H 2.5775504719 -0.4214297167 -2.1845487173
H 1.7738421249 1.5541354505 -0.3883307229
H 1.4310000938 -2.5588955426 -1.3417336899
H -0.0710341394 -2.4290055951 -0.4219295351
H -0.0217440261 -2.9447280967 -3.2259782815
H -1.3983505885 -2.2146305037 -2.3676669646
H -1.0748076279 0.3585902874 -1.9500945299
H 0.4184550054 0.9977929757 -2.7029201970