17

C 0.0271561745 1.3548301006 -0.0229756501
O -0.0581061031 -0.0622997552 -0.0669567027
C -1.3348711047 -0.5520806866 -0.0348608338
C -2.4118299216 -0.5232579400 1.0858874006
N -3.0647557192 -1.3928904372 -0.0013665863
C -2.5368601250 -0.3462755921 -1.0000964191
C -1.6712302860 -2.0577150107 -0.1167425960
C -1.4068688275 -2.8055885377 -1.3367274983
N -1.1756999546 -3.4106281865 -2.2939574426
H 1.0873287929 1.6079457178 -0.0668252097
H -0.4873889120 1.8144845794 -0.8772794173
H -0.3994789634 1.7553939719 0.9065807059
H -2.2104194479 -1.0600410766 2.0158827082
H -2.9533796385 0.4076864133 1.2599638028
H -3.0842605400 0.5964274571 -0.9498127180
H -2.4548219708 -0.7167134887 -2.0228513537
H -1.4236255031 -2.6647244489 0.7572319400