23

C -0.4262081561 1.2113299651 -0.6368875996
O -0.5498722665 -0.1888158043 -0.5858375070
C -0.8787961358 -0.6655041562 0.6999118884
C -0.9977988505 -2.1848169526 0.6377343364
O -1.1719905936 -2.6083450943 1.9835667279
C -2.1443525508 -2.6445112095 -0.2702955850
C -2.2437585287 -4.1525103399 -0.3790559793
C -3.0188823680 -4.9586657217 0.6475368178
C -3.5409023366 -4.8126598879 -0.7603354333
H -0.1682086610 1.4809966764 -1.6640461379
H -1.3663134897 1.7156384305 -0.3618934468
H 0.3658071626 1.5759799934 0.0363127232
H -0.1028214155 -0.3949980778 1.4336933648
H -1.8306398861 -0.2323932286 1.0515513187
H -0.0492642889 -2.5747878167 0.2303762725
H -1.3641157815 -3.5510025103 1.9615456481
H -3.0864905876 -2.2402291441 0.1238512218
H -1.9919773861 -2.2028679323 -1.2613184468
H -1.3460576782 -4.6306762877 -0.7657616805
H -2.6337285329 -5.9255543463 0.9535791008
H -3.5380219982 -4.4167250914 1.4316014306
H -4.4053317616 -4.1751115049 -0.9139492670
H -3.5075810287 -5.6791376687 -1.4112182179