19

C -0.2958225114 1.3147313624 0.0412125147
O 0.3430214305 0.0745711371 -0.1674023361
C 0.8754778486 -0.4791377726 1.0065863931
C -0.0757111409 -1.2750896617 1.9313754920
C -0.0532267745 -2.5049317447 0.9711193645
O 0.3047998043 -3.4626230252 2.0075776636
C 1.0763702406 -2.2596273300 2.3348665967
C 1.9686274031 -2.2770913530 3.5337913454
C 1.3837648203 -1.9131838908 0.8363887776
H 0.3956270503 2.0609260692 0.4632098956
H -0.6448160150 1.6689035214 -0.9315668694
H -1.1593040232 1.2251912912 0.7171952949
H 1.5508469694 0.2335749300 1.5040344379
H -0.9018715073 -0.9500596720 2.5635908880
H -0.7589973213 -2.8046499971 0.2004045088
H 2.7256862915 -3.0611110083 3.4354979882
H 2.4781362770 -1.3150879697 3.6463999670
H 1.3872937703 -2.4702826398 4.4405458314
H 2.2006469476 -2.2961604864 0.2257786160