21

C -0.5113433040 1.4888452713 0.0740428137
C -0.0367088564 0.0299265825 0.0173664824
C 0.7371966654 -0.3561024207 -1.2805653473
C 2.2116503258 -0.6075472027 -0.8814229227
C 3.0258632906 0.6941554540 -0.8166790074
O 2.6254871772 1.3303982893 0.4027000867
C 2.2560858708 0.3101479972 1.3026682787
C 0.9047732523 -0.3647245776 1.1569299373
C 2.1635152642 -1.0136902168 0.6100457801
H 0.3350799470 2.1761066624 0.0089463220
H -1.2061165464 1.7056668926 -0.7446723951
H -1.0362517088 1.6893398281 1.0144275582
H -0.9239816314 -0.6100098118 0.0914190850
H 0.3167419469 -1.2775399184 -1.6957297235
H 0.6500459277 0.4110281154 -2.0574706137
H 2.6954303402 -1.3520013514 -1.5177692168
H 4.1057506014 0.4823566511 -0.7914702921
H 2.8230444034 1.3856280684 -1.6401221972
H 2.6830807040 0.4308995995 2.2930733751
H 0.4643028327 -0.7338409726 2.0786664279
H 2.6011258074 -1.9339026198 0.9758096686