23

C -0.1388112113 1.6709493527 0.3625567953
C -0.1968219327 0.1422722594 0.2912755365
C -1.6471458827 -0.2900685506 0.0782197356
C 0.9261249690 -0.5439910133 -0.5392332586
C 2.0008827372 -0.2670996208 0.5698974310
C 2.4908506344 -1.7168812958 0.5757255734
C 0.9669143165 -1.8430107057 0.3655369070
C 0.2529432235 -3.1634158769 0.2150084355
C 0.6746988969 -0.6214723446 1.3299480996
H 0.8748359283 2.0492463676 0.5142633844
H -0.5258465634 2.1159506981 -0.5617960787
H -0.7602518633 2.0433018644 1.1856160616
H -2.0439505696 0.1438243859 -0.8475548297
H -1.7744942381 -1.3704860856 0.0161116928
H -2.2788628448 0.0711495006 0.8987249105
H 1.0994842100 -0.5099044879 -1.6185884100
H 2.5845549274 0.6450518065 0.6861973923
H 3.1271576878 -2.0287404547 -0.2604683976
H 2.8874153686 -2.1025909330 1.5219433852
H 0.4198994402 -3.7838492668 1.1034423857
H -0.8256714846 -3.0729219437 0.0737240951
H 0.6549891022 -3.7117492597 -0.6451170140
H 0.5568399485 -0.6771073663 2.4158767671