16

O 0.0745718608 1.3172871838 0.2123287853
C 0.0671089063 -0.0252197706 -0.0003936623
C 0.0770943038 -0.7976099887 -1.1421419369
C 0.0594864393 -2.1517832842 -0.6787507997
C 0.0400122241 -2.1365708804 0.6950098794
C 0.0205277523 -3.5154374188 1.2693852532
C 0.0319985582 -4.3458395762 -0.0114954276
C 0.0540469738 -3.5520579085 -1.1019771142
N 0.0448204048 -0.8278008109 1.1168418580
H 0.0946860286 1.7558752209 -0.6432597394
H 0.0944137149 -0.4274554408 -2.1557222675
H 0.8899414560 -3.7459121529 1.9008537828
H -0.8701845543 -3.7314885075 1.8757689035
H 0.0230068579 -5.4272345570 -0.0011549349
H 0.0659104929 -3.8948144763 -2.1292590740
H 0.0340688204 -0.4743178819 2.0577550642