21

C -0.2982520851 1.5555898664 -0.0508659595
C 0.0297837833 0.0647954382 -0.0259809189
O 0.7042046753 -0.3471762257 -1.2302330470
C 2.0000443777 -0.8053834470 -0.8718798739
C 2.8807061171 0.3478368340 -0.3014870928
C 2.4292562292 -0.0731313490 1.1034781625
C 3.1840563714 0.2119861042 2.3701646506
C 1.9123504856 -1.4042535152 0.5547878430
C 0.9391687714 -0.4064633120 1.1036470336
H 0.6062986258 2.1688628235 -0.0420763878
H -0.8745670334 1.8016420634 -0.9473547835
H -0.9008307077 1.8216768925 0.8248097391
H -0.9152260584 -0.4967251937 0.0240195989
H 2.3989402329 -1.3975571209 -1.6944078596
H 3.9480585679 0.1390784750 -0.4341904588
H 2.6635589673 1.3571683787 -0.6650447590
H 3.1364969640 1.2763649263 2.6298575145
H 2.7771712422 -0.3529833970 3.2156229872
H 4.2421307415 -0.0556560445 2.2665585514
H 2.0486835366 -2.4259396301 0.8841094233
H 0.4985984555 -0.5835762970 2.0788941569