19

C -0.0045884320 1.5199993955 0.0253765911
C 1.3237594581 0.7642819281 0.0110428460
C 0.0260173441 0.0312834572 -0.0046764487
C -0.5698951875 -1.0236470096 0.9270200235
C -1.8144532302 -1.1235781250 -0.0292435325
C -2.2203745263 -2.5904816726 -0.0591357576
O -0.9308352158 -3.2296328639 -0.0711601251
C -0.0482453858 -2.1263900875 -0.0482856127
C -0.5685974098 -0.9851675323 -0.9789998832
H -0.2894591948 2.0198026059 0.9461335353
H -0.2881612348 2.0565613727 -0.8748665173
H 1.9150761196 0.8022038403 -0.8987269598
H 1.9137685772 0.7653891065 0.9224507656
H -0.5746618563 -1.0476496295 2.0175523876
H -2.5814043510 -0.3502457508 -0.0141536711
H -2.7872031782 -2.9046705321 0.8262126106
H -2.7859867176 -2.8686641951 -0.9572163128
H 0.9902449103 -2.4520836937 -0.0541541907
H -0.5718792391 -0.9651398141 -2.0696178779