21

C 0.0276146930 1.5215718540 0.1218091403
C 0.0084346418 0.0261897347 -0.0236219750
C 0.9093242525 -0.7655823559 -1.0063666477
C 0.6910997756 -1.8060192807 0.1106246761
O 0.6583984762 -0.7096065279 1.0691430290
C -0.8060495739 -2.1868260848 0.0018385409
C -1.1546322300 -3.1094676477 -1.1653505795
O -1.1571988662 -2.8084760138 1.2300716711
C -1.3471859383 -0.7181590514 -0.1205065516
H 1.0529234231 1.8896595176 0.2172228356
H -0.4333226067 1.9958378103 -0.7508910128
H -0.5328313616 1.8270726969 1.0114544593
H 0.5614068099 -0.9619993547 -2.0234231056
H 1.9323996032 -0.3871549838 -1.0045946182
H 1.3945050560 -2.6006760523 0.3583076011
H -0.6583632205 -4.0771939058 -1.0423551809
H -2.2363527591 -3.2892136036 -1.1976923482
H -0.8669424913 -2.6894739863 -2.1328253794
H -2.0948107144 -3.0242802918 1.1955468481
H -1.9931187514 -0.4722558083 0.7256009396
H -1.8800789378 -0.5198176647 -1.0554611922