18

C 0.0906554040 1.4240395695 0.0456733464
N 0.0428606493 -0.0234502986 -0.0386981975
C 0.6124353489 -0.6667450886 -1.1116826826
N 1.3314479601 -0.0543075690 -1.9704105855
C 1.9790375301 -0.7474106110 -3.0226031339
C 2.1365344614 -0.0058686675 -4.3333380643
C 3.3344637523 -0.2261542832 -3.4543388582
C 0.3429813253 -2.0981946046 -1.1395865338
N 0.1276003423 -3.2335484080 -1.1877706991
H 1.1309157275 1.7584104756 0.0504975742
H -0.4096803453 1.9093999145 -0.8026352731
H -0.3887877036 1.7344562278 0.9758463296
H -0.7328955538 -0.4917191191 0.4002142230
H 1.8291542310 -1.8247997478 -3.0864493981
H 2.0446241620 -0.5808499387 -5.2478744164
H 1.7181024148 0.9925981686 -4.3739130091
H 3.7189764971 0.6243464635 -2.9044160724
H 4.0790096065 -0.9547830937 -3.7546103593