14

C -0.0252290851 1.4891063464 0.0318204351
C -0.0524951088 -0.0190251544 0.0023891965
O -0.1056898025 -0.7025433131 1.0307369747
C -0.0160577706 -0.7172802514 -1.2492445316
C -0.0338649157 -2.0840815529 -1.4342722180
O -0.0878240203 -3.0103767951 -0.4962530120
N 0.0134384364 -2.3787355788 -2.7730368400
C 0.0571698465 -1.2074533361 -3.3375856738
O 0.0439679855 -0.1509027988 -2.5114844577
H 0.8864299787 1.8629497304 -0.4463473024
H -0.8712834966 1.8974319108 -0.5310149494
H -0.0677452665 1.8315386900 1.0660128939
H -0.1120390039 -2.5092576087 0.3502046398
H 0.1026751827 -0.9954458282 -4.3950082852