16

N 0.0196619133 1.4171870832 0.0899274791
C 0.0226691406 -0.0046191765 0.0411083768
C 0.6916899905 -0.9563756000 1.1220536766
C -0.0310268690 -1.8949159437 0.1335725255
N -0.4660320449 -3.2235252618 -0.3668343860
C -1.1257200683 -2.8041455026 -1.3796246853
N -1.1378358585 -1.3103075165 -1.5572731185
C -1.2104794493 -0.9258022720 -0.0636655881
C 0.3110065422 -1.0375264801 -1.0963587553
H 0.9593403210 1.7882468973 -0.0137392036
H -0.5414845125 1.7968502344 -0.6672383850
H 1.7847480151 -0.9879557154 1.1356705686
H 0.2868551520 -0.8835453220 2.1343210407
H -1.6529476818 -3.4364170668 -2.0847023722
H -2.1500731468 -0.8948092878 0.4905383040
H 1.1661002764 -1.1408259397 -1.7671883172