17

C 0.3395292054 1.5068163765 -0.1812065425
C 0.0187137667 0.0478505640 0.0853300584
O 0.7585619249 -0.8845155259 -0.7472465992
C 1.2905045334 -1.6324542355 0.3677325293
C 2.8197682781 -1.7291527301 0.3975211928
C 3.3522184735 -2.6057771080 -0.6366059504
C 3.7703994387 -3.3381985089 -1.4920726291
C 0.6379861947 -0.6202072832 1.3219966870
O 0.6669725368 -0.4075891319 2.4955085734
H 1.4109607010 1.6995363457 -0.0798440823
H 0.0323009268 1.7808665497 -1.1944563639
H -0.2003245578 2.1403442973 0.5291704559
H -1.0633882347 -0.1348925730 0.0122370333
H 0.8484975317 -2.6364152137 0.4293212836
H 3.2423293174 -0.7227283992 0.2954335694
H 3.1069310983 -2.0953040543 1.3919136031
H 4.1483144148 -3.9800296595 -2.2487682386