15

N -0.0254839984 1.1792920939 -0.6473054149
C -0.0162542804 0.0424580244 -0.0729625698
N 1.1979889139 -0.5299560373 0.3664626546
N 1.6065865723 -1.5543581342 1.1264057581
C 0.8197167758 -2.3890400270 1.7188444363
C -0.6142012250 -2.4868504235 1.7270282393
C -1.5213655565 -1.7706051771 1.0327236894
C -1.3323095552 -0.6891931934 0.0713893703
N -2.2792074027 -0.2658174810 -0.6808965444
H 0.9079287348 1.5960246516 -0.6849396850
H 1.9963246795 0.0119238596 0.0658986327
H 1.3573065043 -3.1324243530 2.3013734288
H -1.0009033199 -3.2749181266 2.3682748781
H -2.5669683082 -2.0381237596 1.1686842492
H -3.1305840244 -0.8048167468 -0.5003486526