22

C -0.0101406448 1.5516433569 0.1962886278
C -0.1088216302 0.0234780216 0.1635068365
C -1.4979500876 -0.5203389432 -0.2270482095
C -1.9022685169 -0.1477030080 -1.6612753988
C -1.5296488558 -2.0278719899 -0.0419346935
C -1.7563518787 -2.6475775065 1.3021105206
C -2.8324576422 -2.7752977640 0.2305884975
C -4.0654083838 -2.0547560950 0.3771600969
N -5.0605084129 -1.4738725339 0.4885650757
H 0.9752971869 1.8690610147 0.5509700416
H -0.1597721303 1.9953813444 -0.7924662183
H -0.7598304657 1.9813141969 0.8701565515
H 0.6409470252 -0.3792563457 -0.5317609309
H 0.1524207234 -0.3722225333 1.1528427243
H -2.2361562224 -0.0824233121 0.4590261575
H -1.1914613939 -0.5609641749 -2.3872401363
H -2.8961092783 -0.5365109573 -1.9007840055
H -1.9299695386 0.9359869716 -1.8014640934
H -0.8584858157 -2.5700152857 -0.7049433148
H -1.2256467436 -3.5530802717 1.5726085136
H -1.9762584829 -1.9855046389 2.1325011573
H -2.9499919611 -3.7474376258 -0.2361499998