16

O -0.1309662976 0.0027775617 0.0313270690
C 0.0052044581 1.2017092414 -0.0639294460
C 1.2802483192 1.8974494607 0.0466709533
C 1.4650959193 3.3542454475 0.5276896374
C 2.6990325864 3.4367908533 1.4039594372
C 3.5380287699 2.3996284586 0.6891932806
C 2.6920280468 1.3163393168 0.1322943796
N 3.2483618590 2.3742956520 -0.7830158742
C 1.8742087095 2.9894642358 -0.8524224610
H -0.8646704070 1.8705736414 -0.2601547354
H 0.5787891367 3.9542478054 0.6916094320
H 3.1523486064 4.4330716710 1.3771215720
H 2.5045041417 3.1631964076 2.4455410161
H 4.5764037159 2.2238649116 0.9439633792
H 2.9550212424 0.2717780412 0.0321139304
H 1.5030530634 3.4029224041 -1.7799668403