15

O 0.0054242670 0.0013166288 0.1320454432
C -0.0141221705 1.1787852977 -0.0464958818
C -1.0879800733 2.2897884550 0.0093119223
C -0.0269039915 2.9725918825 0.9594877244
C 1.0279913735 2.3206437984 -0.0188334312
C 0.6847435561 3.0567125952 -1.3227507327
N -0.0592169381 2.2183485188 -2.2946719172
C -0.8011173725 3.0350781567 -1.3029621274
H -2.1165521746 2.1000163295 0.3067985470
H -0.0425418660 4.0641934079 0.9806527058
H -0.0074507030 2.5599833658 1.9702171256
H 2.0692037868 2.1610538243 0.2511289772
H 1.2719577457 3.9004626956 -1.6648405102
H -0.0780996949 2.6866993557 -3.1989883050
H -1.4215432248 3.8612467480 -1.6289640100