21

C 0.7764308338 -0.1421978954 -1.3608505011
C 0.0710536862 0.0166739149 -0.0264083061
C 0.8506566949 -0.2426574737 1.2153120351
N 0.4672423786 1.1326254301 0.8544331376
C -1.3778105336 -0.3936534266 -0.0610712670
C -2.5397954281 0.1834460693 0.6437219650
C -2.5157644701 1.7047799651 0.7767038127
C -2.2699740669 1.7403940507 -0.7490124000
N -2.4320490317 0.2414491534 -0.8844344139
H 1.8460418057 0.0748511230 -1.2705998269
H 0.6704553995 -1.1648056758 -1.7389127711
H 0.3497230839 0.5282165390 -2.1142022099
H 0.3518824740 -0.6347186190 2.0973860616
H 1.8909015257 -0.5405287943 1.1109043634
H 1.2632706991 1.6184007800 0.4474067959
H -1.4576414616 -1.4748621992 -0.1854231406
H -3.2669336467 -0.4627376929 1.1287403388
H -3.4985489591 2.1002649422 1.0419950264
H -1.7525851699 2.1277882022 1.4276147508
H -3.0565715357 2.2375162812 -1.3196184985
H -1.2994887880 2.1174195858 -1.0830989323