22

C 0.0699161279 1.3942741179 -0.3010652100
C -0.0612106056 -0.0329849632 0.2475364703
C -1.4792340724 -0.5206079382 0.2523603252
C -2.6410334750 -0.0607922863 1.1373277062
C -3.4350282703 -1.2451521261 0.5285425508
C -3.5257237916 -0.8447543453 -0.9498125547
N -2.0406424667 -1.0008252264 -1.0756898666
C -2.0424345734 -1.8910797969 0.1291149920
C -1.4777611196 -3.2696002857 0.1817488095
H 1.1138301834 1.7220574705 -0.3012172464
H -0.3056508432 1.4429355144 -1.3273194928
H -0.5032985408 2.1063778837 0.3020995971
H 0.5429958743 -0.7154779469 -0.3605248556
H 0.3381865914 -0.0798206772 1.2692449215
H -2.4031123325 -0.2225595451 2.1927063262
H -3.0551996027 0.9453429201 1.0030905454
H -4.2574158196 -1.7101392788 1.0704281061
H -4.0070843139 -1.5958358220 -1.5823092673
H -3.9191253942 0.1496647598 -1.1950090251
H -0.4835305635 -3.2883965139 -0.2752358707
H -1.3863862294 -3.6221850047 1.2152292374
H -2.1092376223 -3.9819759197 -0.3615115985