20

C -0.4144426168 1.4963098256 -0.0219922194
C 0.0694997842 0.0424766519 -0.0152448640
C 1.0372540572 -0.3117492802 -1.1291320619
C 1.9944550164 -1.1186906456 -0.6730948374
N 1.8659241777 -1.3434582152 0.7054373739
C 2.6060104123 -2.2399959250 1.4163349975
O 3.4671351804 -2.9573269512 0.9492645075
C 0.8493462390 -0.4212085721 1.2650247474
C 1.5317455134 0.7007864889 2.0539848008
H 0.4146285070 2.2067913626 0.0354358577
H -0.9579564724 1.6983050376 -0.9503892058
H -1.0989526241 1.6981944129 0.8082309915
H -0.8220297196 -0.5948311485 -0.1164353366
H 0.9212421722 0.0089839236 -2.1547315357
H 2.8074456020 -1.6084404318 -1.1876455252
H 2.3235968709 -2.2493297155 2.4872652564
H 0.1875307933 -0.9797500043 1.9334206897
H 2.2242799187 1.2609236208 1.4191390474
H 0.7963485325 1.3966842376 2.4669697074
H 2.1018907858 0.2811686181 2.8879750589