19

C 0.0034623533 1.0767356573 0.2267063273
O -0.2089436039 -0.0969741868 -0.5479105943
C -1.4266957513 -0.7171084252 -0.2520929951
C -1.5498847172 -2.1492611388 -0.7020863586
C -1.3631342749 -1.8284961516 0.7711390594
O -0.1109101608 -2.0713090124 1.3496107419
C -2.4791556456 -2.0700925462 1.7621199164
C -2.6225329924 -3.5408762843 2.1114189345
O -3.6714726119 -4.1324508160 2.1295935700
H 0.9714778069 1.4844055880 -0.0721586089
H -0.7763603868 1.8254651855 0.0293647960
H 0.0162293902 0.8537688212 1.3014385384
H -2.2963989974 -0.0610193658 -0.2997425478
H -2.5160697697 -2.4924806810 -1.0559755185
H -0.6949454554 -2.5670534774 -1.2232326102
H 0.5384305264 -1.6213918890 0.7917288601
H -2.2431437571 -1.5251266485 2.6869184254
H -3.4385816887 -1.7096902939 1.3815615381
H -1.6656465035 -4.0500733851 2.3563287159