19

C 0.1372690009 1.4398550552 0.0130967071
N -0.1302177063 0.0232706165 -0.1783722606
C 0.5583032612 -0.7218156502 -1.0880552208
N 0.7139168130 -1.9947397987 -1.0691511990
C 1.3960326595 -2.3346948627 -2.3003566675
C 2.3725490000 -3.4782566375 -2.2343152489
C 0.6333167444 -2.0035791624 -3.5745447924
C 1.6121773530 -1.0099608683 -3.0063944428
O 1.0770897950 -0.0186592239 -2.1407661231
H 1.0984922447 1.6397631499 0.5077103248
H 0.1406691066 1.9401547863 -0.9562400076
H -0.6627541593 1.8692897478 0.6206469197
H -0.3704814761 -0.5104650641 0.6429168403
H 1.8497859843 -4.4121463143 -2.0032108065
H 2.8942563347 -3.6079946824 -3.1873418426
H 3.1175453388 -3.3075518316 -1.4506429067
H 0.9462744063 -2.5025682687 -4.4863532926
H -0.4283401374 -1.7901798730 -3.5033534773
H 2.4952837366 -0.6722967780 -3.5337375236