19

C -0.4859033743 0.9982283784 -0.3366962670
O 0.4590338586 0.0053257834 0.0247704643
C 0.9640333715 -0.6606557814 -1.0872880565
C 1.5961339694 -2.0000409788 -0.8530695156
C 0.2679057985 -1.9041629662 -1.5608099698
C -1.0679157159 -2.5067035907 -1.0551503060
C -1.3774483184 -2.8574884040 -2.5233098339
O -1.3375679854 -1.6419918098 -3.2797131371
C -0.0935671721 -2.3009294997 -2.9799861232
H -0.0070952255 1.8226908966 -0.8866574321
H -1.2850775599 0.5851778298 -0.9665752571
H -0.9119010199 1.3909607719 0.5893868571
H 1.4098851367 -0.0094616185 -1.8423152477
H 2.4842673171 -2.2546371792 -1.4227117361
H 1.5836576677 -2.3766730470 0.1646555211
H -0.9160171490 -3.3904063459 -0.4292409026
H -1.7762881393 -1.8308799475 -0.5712508484
H -1.9773467663 -3.6694290048 -2.9171614901
H 0.5462580565 -2.5643555968 -3.8143678191