17

O -0.0474157125 0.0529164562 -0.4812965281
C -0.0655080050 1.2056050782 -0.1749108941
C -1.1709731490 2.2212359366 0.1116255651
C -1.6355788411 2.1661480968 1.6030908185
C -0.5189158153 3.1805183916 1.9916911906
C -0.0646745065 3.2686892754 0.5129314429
C 1.0615006963 2.2604402957 0.0959817101
C 2.1437404398 1.9400513650 0.9950826199
C 3.0191988722 1.6600971570 1.7711057510
H -1.9315937880 2.3600417605 -0.6572500112
H -2.6448249754 2.5614784141 1.7324490866
H -1.5922918324 1.1794778636 2.0695983753
H -0.9055138521 4.1231919185 2.3840899479
H 0.2456995736 2.8104321574 2.6785367990
H 0.0104650843 4.2568718076 0.0623637607
H 1.4533040790 2.5502956689 -0.8892350642
H 3.8012098521 1.4102492969 2.4446514100