22

C -0.0110599315 1.5701304277 -0.1129726379
C 0.0104018888 0.0425418962 -0.0536337485
O 0.7888453797 -0.5034683031 -1.1163678377
C 0.6270008692 -0.4773426243 1.2464571075
C 0.5755645756 -2.0052635036 1.3516978915
C 1.3541175146 -2.5689786372 2.5640419911
C 0.7893646514 -2.1246554297 3.9282160821
C 1.3887782153 -4.0344867044 2.4919398221
N 1.4017359130 -5.1890689657 2.4364845054
H 1.0053031502 1.9693707877 -0.0363803394
H -0.4421054787 1.9166935350 -1.0591258281
H -0.6146164360 1.9893073892 0.6988586923
H -1.0262188772 -0.3306971027 -0.1202517407
H 0.3950322868 -0.2286291371 -1.9499731591
H 1.6702172871 -0.1360599943 1.2862054310
H 0.1027447396 -0.0102091639 2.0872298714
H -0.4668213100 -2.3422891511 1.4143012097
H 0.9902549613 -2.4314046576 0.4346486934
H 2.3951083804 -2.2264137786 2.4905516354
H 1.3507836195 -2.5768508880 4.7493512743
H 0.8524056585 -1.0388124556 4.0295600015
H -0.2587388876 -2.4223653890 4.0274506526