19

C -0.1362334913 1.6064475906 0.0397852038
C 0.0184264471 0.0920291867 0.0178057509
C 1.1105001852 -0.5468216711 -0.9388291710
O 1.9991606673 0.3197441119 -1.6163888801
C 1.7327982134 -1.2432562088 0.2577206872
O 2.2247841164 -2.5365792637 0.2529295102
C 2.1427721188 -0.2220815045 1.3083589366
C 0.6928108487 -0.6169385908 1.1872642379
O -0.0867741793 -1.1283325933 2.2068548117
H 0.8222681070 2.1109643690 0.1856908995
H -0.5605246314 1.9693543916 -0.9035990971
H -0.8110071408 1.9154572255 0.8442527098
H -0.9484315247 -0.3846581431 -0.1736020498
H 0.6592242615 -1.2728570323 -1.6271106362
H 1.5233731312 0.7339676635 -2.3434219631
H 3.1556887624 -2.5050009943 0.0039198973
H 2.6461237684 -0.6877486468 2.1528163181
H 2.5229359379 0.7605845586 1.0436404504
H 0.4700735221 -1.6609604089 2.7848912640