14

F -0.9141519369 1.3084728389 -1.1863539773
C -0.0813098372 1.4002253281 -0.1360615934
F 0.6508377001 0.2750775512 -0.1183440237
F 0.7657101831 2.4142825321 -0.3797926680
C -0.8731473567 1.6840070038 1.1240584411
C -1.7153179038 0.6366283470 1.9050043873
C -0.4392735610 0.0089884954 2.5170680881
C -0.3249363249 1.5519365683 2.5725590846
O -1.7336659834 1.5985388646 3.0335354489
H -1.4135583927 2.6190226726 0.9675923537
H -2.6593514788 0.1745329379 1.6191849524
H -0.6008558889 -0.4550789563 3.4899106732
H 0.2370971183 -0.5510783134 1.8762543260
H 0.3963580629 2.1861510699 3.0863008371