17

C 0.0856261563 1.5499846020 -0.1280382951
C 0.0470333424 0.0488225541 0.0453598377
O 0.9258726382 -0.6610107108 -0.8702217896
C 1.4592968013 -1.4728494258 0.1936580553
C 2.9493711171 -1.2402423921 0.4321828887
O 3.0506446014 -0.1140176951 1.3186791093
C 1.8517510645 0.2090969476 1.8807577667
O 1.7460924007 1.0567557495 2.7185345088
C 0.7467202690 -0.6301280053 1.2578229409
H 1.1056580397 1.9337123603 -0.0456848581
H -0.3065780909 1.8177532261 -1.1138627680
H -0.5306756775 2.0361196284 0.6344957865
H -0.9807244258 -0.3229888628 -0.0626568184
H 1.1979140755 -2.5292448059 0.0795721771
H 3.4271935089 -2.1025858928 0.9104670803
H 3.4721010532 -1.0007867062 -0.4969226624
H 0.1105104160 -1.0837103812 2.0153641702