17

N 0.0016659727 -1.1413821471 -0.0448106051
C 0.0102824576 0.0140921969 -0.0288029832
C 0.0653106071 1.4608012535 0.0169669852
C -0.2889067446 2.2903893012 1.2989443979
C 0.4938327843 3.3896713630 0.4934481593
C 1.4207244716 2.2318586641 0.0431073209
C -0.4843525427 3.5505232651 -0.6789380540
C -0.1826914243 2.9510294098 -2.0037700152
N -0.8485006975 2.1318916646 -0.9729199171
H -1.3541049835 2.4445049029 1.4785581538
H 0.2254652834 1.9455722112 2.1969624660
H 0.8818029503 4.2899806947 0.9655697511
H 2.0520730316 1.8766006440 0.8573513917
H 2.0145711668 2.3151341585 -0.8655568315
H -1.3060055176 4.2526686715 -0.5684846954
H -0.8455835207 3.1897726953 -2.8304011127
H 0.8345940355 2.7387795510 -2.3090064218