22

C -0.7572372334 1.0175510500 0.0812122653
C -0.0648875540 -0.3358118509 0.0574181868
C 0.8435029318 -0.7273578298 -1.1205447616
C 0.5020542678 -0.9871372165 -2.5296979656
N 1.3209080513 0.1917884314 -2.1584231240
C 1.8184257725 -1.4243417084 -0.1709976516
C 1.1366323840 -0.6475679010 1.0062356424
C 1.9415487440 0.5660996263 1.4587822141
O 0.7058721097 -1.4187893479 2.1129871609
H -0.0535108186 1.8451795285 -0.0542218122
H -1.5117428404 1.0860458246 -0.7112323132
H -1.2735051847 1.1731936777 1.0338548002
H -0.8007953072 -1.1318699433 0.2191070537
H 1.0330717479 -1.7518658884 -3.0909920141
H -0.5252939039 -0.8257824831 -2.8496097194
H 0.7375107980 1.0260915540 -2.1805341358
H 1.6268682198 -2.4977673572 -0.0874480781
H 2.8815073478 -1.2439501915 -0.3487252553
H 2.2589286907 1.1754774422 0.6075287247
H 1.3587123830 1.1903837801 2.1428803012
H 2.8501392377 0.2411494642 1.9815202423
H 1.4654503563 -1.5763616711 2.6843033595