19

O -0.0377975114 1.3674858661 -0.0696773320
C 0.0381296659 -0.0239002609 -0.0390543168
C -0.3277726419 -0.7872138127 1.2279398109
C -1.2299966338 -0.8143221808 0.0121104495
O -2.3863173085 0.0037823252 0.0361928809
C -3.5397593296 -0.8416687373 -0.0255128700
C -3.0967669805 -2.0777929203 -0.7864770019
C -2.3156108942 -1.8408879921 -2.0524690964
C -1.5826362380 -2.0552192814 -0.7492468653
H -0.9743628777 1.5900834327 -0.1452569273
H 0.8607668608 -0.4066836412 -0.6377607666
H 0.2397922448 -1.6758781172 1.4874451870
H -0.6695825892 -0.1874242574 2.0647753278
H -3.8751484056 -1.1157217094 0.9859495132
H -4.3329884280 -0.2664295216 -0.5136332419
H -3.6578528230 -2.9955525453 -0.6578217673
H -2.2874421836 -2.6477444706 -2.7760164489
H -2.3135075366 -0.8437970367 -2.4816836519
H -0.9980601599 -2.9525749490 -0.5901882127