15

C -0.1922332255 1.4726062066 0.0992502395
N 0.2142255586 0.0769547399 -0.0630733679
C 0.7659042196 -0.5253937229 1.1448327615
C -0.1859916891 -0.5470469374 2.2923996016
N -0.9730866361 -0.5107721387 3.1376917506
C 1.2540435340 -1.8815355287 0.8860774134
C 1.6633801506 -2.9965866480 0.6800120520
C 2.1415631112 -4.3305568569 0.3954160292
O 2.8449527098 -4.9699838612 1.1400247972
H 0.6895767899 2.0799609689 0.3302274653
H -0.6027007600 1.8265924691 -0.8490033359
H -0.9401863631 1.6362148711 0.8898178884
H -0.5623280382 -0.4869135732 -0.3927734289
H 1.6194918511 0.0929769848 1.4591815155
H 1.8070471973 -4.7315480033 -0.5818426514