16

O 0.0298446218 0.0034637027 -0.0359511671
C -0.0006423587 1.2043164828 0.0193225056
C -1.2707038176 2.0636362497 0.0588867294
C -0.8870296201 3.3676658231 0.7606304916
N -0.1144120094 2.9625208346 1.9962299465
C 1.1250648321 3.1564418046 1.2043476016
C 0.4296905864 3.9660626179 0.1057088944
O 0.9482148190 3.1544130025 -0.9549834798
C 1.2315578213 2.1091259946 0.0299661802
H -1.6168182591 2.2420855306 -0.9651191892
H -2.0498707711 1.5273848018 0.6047825276
H -1.7283218618 4.0404878151 0.9321071759
H -0.1689052603 3.6987320900 2.6957827690
H 2.0460914860 3.4103899350 1.7286447930
H 0.4870745377 5.0397873927 -0.0820127661
H 2.1685541237 1.5851472424 -0.1582189225