15

C 0.0072327755 1.4767116124 -0.1368743483
C 1.5518050581 1.2899140722 0.0019636988
C 1.1449730540 0.1774651772 1.0072552462
N -0.0518690313 -0.0647632554 0.0603291928
C 0.7007638499 -0.4140828570 -1.1310282203
N 0.5874553163 -1.1089667816 -2.2353630295
C 1.6681677338 -0.6292142477 -2.9468262167
N 2.3949147904 0.3222229363 -2.3607239562
N 1.7689127594 0.4018531479 -1.1633864431
H -0.4774312190 1.9816004191 0.7007124802
H -0.3836900380 1.8254899354 -1.0939665417
H 2.2964304231 2.0670202143 0.1545802735
H 1.8130764238 -0.6768167048 1.1252585436
H 0.7838650786 0.5443748173 1.9686383607
H 1.9269000954 -1.0049881356 -3.9252908599