20

C 0.7708515669 1.3986412030 -0.3658552160
C 0.0572912852 0.1005655858 0.0304171147
C 0.1161007463 -0.9979055179 -1.0533819583
C 1.3700852266 -1.8141235684 -0.7154189775
O 2.4852421445 -1.1383517771 -1.2870808243
C 1.3947135416 -1.8001383780 0.8208282827
N 0.6949633076 -0.5682978702 1.1780276073
C 0.5606313890 -0.1891394297 2.4703597918
O 1.0466235936 -0.7791386004 3.4165573423
H 1.8023112960 1.1913364907 -0.6571274887
H 0.2559693913 1.8690678631 -1.2103501003
H 0.7719644357 2.1096497980 0.4661055085
H -0.9840738583 0.3303984336 0.2838045425
H -0.7639088548 -1.6444009901 -0.9835313898
H 0.1676573175 -0.5926094724 -2.0655693510
H 1.3086987752 -2.8404879615 -1.1006664154
H 3.2892146426 -1.5653435825 -0.9743397823
H 0.8774054462 -2.6718287032 1.2419486291
H 2.4131494326 -1.8058723880 1.2236650592
H -0.0509271952 0.7291447854 2.5798347756