16

O -0.0020175657 1.3927561497 -0.3602088857
C 0.0791559240 0.0420879145 0.0762127270
C -1.3349412046 -0.4943358602 0.0826435382
C -1.9875812781 -0.8537530534 -1.2795431799
O -1.0829586646 -2.0180788885 -1.3943230049
C -1.5581116370 -2.0281534726 0.0038725233
C -3.0006219953 -1.7954004287 -0.5511798780
C -4.0497753383 -1.2587638073 0.2967221991
N -4.8882993096 -0.8378037578 0.9724109144
H 0.8890334992 1.7529328638 -0.3912190811
H 0.7008144958 -0.5664387992 -0.5921061758
H 0.4967653841 -0.0261103320 1.0934504071
H -1.9730532560 0.0522288633 0.7812725600
H -2.1524353843 -0.2420677172 -2.1645362109
H -1.2145382506 -2.8314476264 0.6552512603
H -3.3550535189 -2.6137562780 -1.1782738532