17

C 0.0551907377 1.4828258708 -0.3137326123
C 0.0028636674 0.0375534509 0.2044530244
O 0.5162223717 -0.0409905542 1.5133231641
C -1.4123465939 -0.5109977927 0.1320616460
N -1.9946354637 -0.8074791083 1.2967656427
C -3.2414667412 -1.2827810011 1.2483281785
C -3.9103911489 -1.4658029535 0.0471831538
C -3.2092152010 -1.1257448905 -1.1070584186
N -1.9660765242 -0.6494321798 -1.0776290698
H 1.0851414739 1.8447421069 -0.2628482322
H -0.2946845310 1.5374076778 -1.3476977763
H -0.5678495222 2.1310900263 0.3106265214
H 0.6177173953 -0.5877506719 -0.4608982541
H -0.2271170818 -0.3123767919 2.0732043650
H -3.7088181193 -1.5221950043 2.2006365855
H -4.9205496566 -1.8540430641 0.0089106455
H -3.6607743021 -1.2414417604 -2.0901128336