19

O -0.1073505735 1.4616279535 0.1341935132
C -0.0014086024 0.0623472389 0.0021386685
C 0.9663561495 -0.4674614668 -1.0869323373
O 1.8052393982 -1.0955562879 -0.1002903903
C 0.9531250098 -0.6705417903 0.9808363127
C -1.4308995186 -0.4476534849 -0.0232709909
C -2.2680030907 -0.2191161666 -1.2999135271
C -2.3932424679 -1.7552873963 -1.3143908454
O -1.5003646270 -1.8801019278 -0.1822121639
H 0.7794054196 1.8359690568 0.1627616397
H 0.5478286910 -1.1951632860 -1.7915325921
H 1.4897319686 0.3214870728 -1.6447354236
H 1.4679350731 -0.0063329721 1.6885675932
H 0.5187316503 -1.5191519420 1.5209278389
H -1.9283262225 -0.1212137302 0.9005348427
H -3.1930633538 0.3424819814 -1.1706999820
H -1.7053290642 0.2050600321 -2.1334620564
H -3.3923527162 -2.1442286023 -1.0828772085
H -2.0053532032 -2.2750517023 -2.1976716915