19

C 0.0545840182 1.5608715889 0.0752160668
C -0.0520387588 0.0283957466 -0.0344745127
C 0.6193957966 -0.5031756565 -1.2154907145
C 1.1793459036 -0.9261876415 -2.1934323389
C 1.8569172621 -1.4168410792 -3.3835728907
O 1.9189797995 -2.8349479322 -3.3586521482
C 2.5748183526 -3.3448498236 -4.5041155094
C 2.6173468000 -4.7990385258 -4.4454962543
C 2.6672195549 -5.9984482231 -4.4249545466
H 1.1002983875 1.8747388442 0.1326574371
H -0.3959369550 2.0451316481 -0.7953504076
H -0.4619003124 1.9142992308 0.9723964781
H 0.3756174964 -0.4338203860 0.8642042288
H -1.1092635816 -0.2651581992 -0.0523096571
H 1.3250738398 -1.0764119283 -4.2895229776
H 2.8752746809 -0.9935604602 -3.4408515708
H 2.0530860233 -3.0257286085 -5.4234998475
H 3.6021362396 -2.9457077527 -4.5720702242
H 2.7066422430 -7.0593171716 -4.3983268408