21

C -0.1636465949 1.6070369292 -0.0220706974
C -0.0543267427 0.0882989037 -0.0057817350
C 1.1541497699 -0.5850377483 -0.7076992634
C 1.5557326061 -0.6034046810 -2.1543679800
C 2.0881979632 -0.3422705545 0.5273134274
O 2.5215634828 -1.7331871439 0.6256663579
C 1.1064980405 -1.8025563295 0.2709980816
C 0.6833610508 -0.5987316880 1.1733270488
C 0.3561990946 -0.6382901738 2.6382020984
H 0.7925001467 2.0841280537 0.2207427730
H -0.4749237146 1.9715515537 -1.0071877654
H -0.9035406364 1.9590645781 0.7051528232
H -1.0207404681 -0.3719897496 -0.2510185437
H 1.7327963645 0.4091340612 -2.5333767664
H 2.4783025366 -1.1799648622 -2.2793303762
H 0.7794959268 -1.0612437111 -2.7774794744
H 2.8240223660 0.4396404126 0.7171617485
H 0.6433085750 -2.7826935901 0.1479424699
H 1.1136370596 -1.2188367269 3.1752539956
H 0.3293870822 0.3684171391 3.0695420652
H -0.6200259087 -1.1028639824 2.8159256624