18

C 0.1731278104 1.5770598908 -0.0858578424
C 0.0469280703 0.0854398875 -0.0254773461
C 0.0467097370 -0.8067477102 -1.0785448903
N -0.0949915882 -2.0446824410 -0.5467347699
N -0.1824723957 -2.0291853446 0.7953292714
C -0.1029540460 -0.7392406679 1.1227078701
C -0.1722330010 -0.3214512401 2.5403855210
C -1.2444181438 -0.8657351561 3.4257112156
N 0.1473777416 -1.2933662187 3.6001451642
H 1.0318313748 1.9359843220 0.4931144685
H 0.3075904253 1.9173533916 -1.1163509930
H -0.7154219362 2.0793861441 0.3131725460
H 0.1358699746 -0.6517532128 -2.1427934354
H -0.1167239295 -2.9267764705 -1.0283894941
H 0.1932679462 0.6834540610 2.7356140790
H -1.6448717797 -0.2552188872 4.2310428907
H -1.9473549658 -1.5565576928 2.9688622307
H 0.2734492957 -2.2005992751 3.1537602540