19

C 0.0257767346 1.4069926880 -0.0264044685
N -0.1007760937 -0.0401215613 0.0916385545
C 0.4728492768 -0.6263665550 1.0390909588
N 1.3677577130 -0.1575904009 2.0914489506
C 0.7980100091 -0.6881556871 3.3642590304
C 1.5251259551 -1.6289793689 2.5031664314
C 0.6666989616 -2.1186920396 1.3256643322
C -0.5429403796 -3.0033691485 1.5828876417
O 1.5250109235 -2.6996250936 0.3532802856
H 0.6929113483 1.8540275585 0.7191427410
H 0.3938921309 1.6487624202 -1.0291790163
H -0.9684525235 1.8584214425 0.0640734341
H 1.3105484246 -0.2974016545 4.2375790471
H -0.2821854374 -0.7498732786 3.4659647979
H 2.5049697177 -2.0286068088 2.7335070248
H -1.1650440232 -2.6270709821 2.3998226909
H -1.1640290411 -3.0474876276 0.6823933823
H -0.2137371474 -4.0176240851 1.8266581136
H 1.1621592906 -2.4759149277 -0.5115771922