13

O 0.4544842452 1.2794072978 -0.1242353971
C 0.1663047726 -0.0308533354 -0.0948166667
C 0.4660973157 -0.9853277514 -1.0391645349
N -0.0540471961 -2.1228525154 -0.4962233810
C -0.0880175318 -3.4674853755 -1.0345709865
C 1.2492712583 -4.0019892660 -1.3135851966
N 2.2947231685 -4.4256920888 -1.5585520341
N -0.6315484018 -1.8847374365 0.6910419525
N -0.4985304363 -0.6078984272 0.9356240229
H 0.1117656347 1.6616767706 0.6940053326
H 0.9849913917 -0.9577275301 -1.9804840869
H -0.5901376545 -4.0832364527 -0.2839428135
H -0.6818346860 -3.4973232194 -1.9550087207