15

O -0.1498414835 0.0531161134 -0.4793925686
C -0.0599727734 1.2178457370 -0.1572145013
N 1.1023181713 1.8500403047 0.1713483383
C 2.3716811197 1.1887671924 0.1738955165
C 3.5331729127 1.8451417470 -0.5902323663
N 3.7276954889 3.1426972866 0.0650603712
C 4.3929587079 1.9151116705 0.6396751476
C 3.2920943508 1.2687585699 1.4532587379
O 3.1897504207 0.8612627267 2.5689480083
H -0.9293127348 1.9002120706 -0.0955203991
H 1.0892647199 2.8313122690 0.4030427283
H 2.2077472764 0.1412786376 -0.0928036950
H 3.8426782266 1.6577248584 -1.6097957114
H 4.4569533643 3.6516005647 -0.4341364510
H 5.4674114924 1.8711194916 0.7544975745