14

O -0.1288931116 1.4254123594 -0.2218777509
C -0.0038645877 0.0302800595 -0.0030794348
C -1.4002315505 -0.5543174855 -0.0020990641
O -2.0107868198 -0.4213229518 -1.2938276604
C -1.3016145134 -0.5858616377 -2.4150136925
O -1.7898319218 -0.5541661007 -3.4976512651
O 0.0517979445 -0.8336636981 -2.2831860614
C 0.7703227843 -0.6112096815 -1.1269646414
N 1.9967386063 -0.8834645455 -1.0441751880
H 0.7587405168 1.7954329439 -0.2881508183
H 0.5039387327 -0.2009431259 0.9405595079
H -1.3739959159 -1.6121040196 0.2834505966
H -2.0495358255 -0.0079902986 0.6832102659
H 2.3474485817 -1.2731317276 -1.9221338434