21

C 0.3921764467 1.4144498806 -0.5127977259
C 0.0297739380 0.0363205451 -0.0236391467
O 1.0907317167 -0.9091677689 0.1627609346
C 0.3526038129 -0.4927030243 1.3179252798
C 1.0816993141 0.2519568076 2.3779716149
C 2.4680112711 0.8058284744 2.2162684497
C 2.2318688924 -0.2286368772 3.2812456143
C 1.5689295593 0.4123383944 4.5052077163
C 0.3924353616 0.8943976245 3.5942356285
H 1.2223328931 1.8377347102 0.0534475915
H 0.6751708722 1.3788983244 -1.5702777007
H -0.4709126609 2.0831657708 -0.4219334376
H -0.8449208051 -0.3996439472 -0.5123782036
H -0.3190395193 -1.2645008033 1.7047369957
H 2.9881237218 0.4459867147 1.3353568890
H 2.6874299096 1.8369904564 2.4892204785
H 2.7479881566 -1.1812349259 3.2641740565
H 1.2413001114 -0.3136979750 5.2523114273
H 2.1518515041 1.1902848178 5.0096027215
H 0.2159221081 1.9732752031 3.5287956423
H -0.5512382043 0.4058391779 3.8517339642