19

O -0.0419813009 1.4933429617 0.4699717472
C 0.0057544336 0.1175980805 0.0997642906
C 0.7554483256 -0.7152361846 1.1098080161
C 0.0339755614 -1.7258687298 1.5892400093
C -1.3381737471 -1.8050944829 0.9657646611
O -2.3917640344 -1.6221457042 1.9184831418
C -2.7300817882 -0.2422464450 1.9254563745
C -2.5953326540 0.2104565656 0.4661019530
C -1.3837302453 -0.6025487155 -0.0270370916
H -0.2494793701 1.5342432532 1.4103459466
H 0.5106380752 0.1265319263 -0.8724207428
H 1.7671292811 -0.4562750704 1.4054027615
H 0.3547796047 -2.4337430158 2.3456240457
H -1.5171040842 -2.7765966093 0.4923800130
H -3.7401476203 -0.1481360852 2.3328702627
H -2.0477528788 0.3275625700 2.5801402823
H -3.4916406180 -0.0734283577 -0.0922661544
H -2.4421564451 1.2857041486 0.3579579157
H -1.5266919751 -0.9379329653 -1.0553638322