18

C -0.6397923589 1.3446785819 -0.1279313920
C 0.0670200702 -0.0031948032 -0.0822535212
C 1.4825980112 -0.1494827637 -0.7104586119
C 1.8827062319 -1.0817124820 0.4638801971
C 0.6400170153 -0.5828333389 1.2569675986
C 0.9808223616 0.4275306453 2.3259652679
F 1.7711374739 1.4214646638 1.8705538402
F -0.1217642538 1.0036313437 2.8361832722
F 1.6355328311 -0.1509906697 3.3479164349
H -0.0104330274 2.1430655213 0.2728872716
H -0.8895218261 1.6001408591 -1.1634236926
H -1.5705660195 1.3295279861 0.4476593445
H -0.5939311350 -0.7687213215 -0.5028421587
H 1.5395119645 -0.5594140782 -1.7211928088
H 2.0328023166 0.7941462349 -0.6815795077
H 1.7920723552 -2.1408715167 0.2138629847
H 2.8561966798 -0.9163382125 0.9288283401
H 0.0305302396 -1.3467458594 1.7454916208