18

C -0.1096927431 1.4570318473 0.0436621501
C 0.0369268528 -0.0535797705 0.0199599974
C -1.1475268991 -0.7801435984 -0.5874538043
C 1.4126682788 -0.6250958063 -0.1677482697
C 0.7868603458 -0.6768836883 1.2169660374
O 1.2188454587 0.2165190564 2.2061346064
C 0.3617547228 -1.9941003634 1.7657365565
O 0.1473296011 -2.9951071266 1.1226816890
H 0.7344675295 1.9412243434 0.5351125767
H -0.1852048335 1.8359787644 -0.9817833934
H -1.0214891732 1.7505833633 0.5748861280
H -1.2717871911 -0.4670661296 -1.6303457645
H -1.0197465026 -1.8627927912 -0.5674108672
H -2.0729607137 -0.5319590771 -0.0557406349
H 1.5119927357 -1.5798045464 -0.6743768799
H 2.2434454418 0.0629303888 -0.2885627630
H 2.1349739828 0.0104464053 2.4199902603
H 0.2634449163 -1.9777367910 2.8743445450