21

C -0.0074665638 1.4658796156 0.3827290208
C 0.0192377115 -0.0288946498 0.1352558202
C -1.3024037453 -0.6058343888 -0.3396641800
C 1.2929311962 -0.6431984575 -0.4436577875
O 2.4092038403 0.1378081269 -0.7329329546
C 0.9557026198 -0.8897974443 0.9989902305
O 1.8319791530 -0.2082608062 1.8641895492
C 0.5832001812 -2.2388297867 1.5625285552
O 0.0521057050 -2.0874875998 2.8828871049
H 0.9599443273 1.8396490866 0.7160756429
H -0.2782959047 1.9971594260 -0.5363675265
H -0.7519350790 1.7222449051 1.1460238529
H -1.6563009399 -0.0600881211 -1.2221351460
H -1.2252615447 -1.6595135925 -0.6241735776
H -2.0831530170 -0.5233036367 0.4277200658
H 1.1661557568 -1.4608635360 -1.1518948652
H 2.8747355435 0.2784473810 0.1017979520
H 1.5052216898 -0.3783099594 2.7574147498
H -0.1080559167 -2.7815864263 0.9081380972
H 1.4853351568 -2.8475424152 1.6836139370
H -0.8129988602 -1.6711202108 2.8008822589