17

N 0.0512208819 1.4633400860 -0.2413279954
C -0.0032414458 0.0426827620 -0.0482616838
C -0.0346078486 -0.6574489402 1.3503119931
O 1.0077403380 -0.5881492312 2.2441916252
C -1.5058824830 -0.1501146910 1.5273526091
C -1.3989993404 -0.6786185898 0.0609686651
C -0.6267028154 -1.9088077140 0.6292393419
C -2.4444890779 -0.7018281640 -0.9212384880
N -3.2843547705 -0.7187368140 -1.7164003878
H -0.3400595797 1.9835362668 0.5355494437
H 1.0126377091 1.7646281425 -0.3504345287
H 0.6662697356 -0.4352504014 -0.7687076892
H 0.7764722686 -1.0765450032 3.0419571098
H -2.1488212918 -0.7333033551 2.1912910497
H -1.6771149789 0.9188970578 1.6615823080
H 0.0244189627 -2.4377622132 -0.0700324550
H -1.2233329637 -2.5916304580 1.2373945223