19

O 0.0241829670 1.4033264895 -0.0151347806
C 0.0534288498 -0.0142763800 0.0266809081
C 0.7964340615 -0.5347721002 1.2686863711
C 0.6418493800 -2.0231283413 1.4403456663
C -0.4453767267 -2.6848916513 1.0409266037
C -1.6240185298 -2.0068101315 0.4119423589
C -2.6230911814 -1.3284345259 1.3959420937
O -2.1975827400 -0.0090903369 0.9933380915
C -1.3660870760 -0.5547650863 -0.0644831335
H -0.6362159056 1.6751145511 0.6353280824
H 0.5979325842 -0.3356288217 -0.8695265286
H 1.8509681368 -0.2514178192 1.1992398418
H 0.3988092086 -0.0130246710 2.1506877040
H 1.4532071831 -2.5624294615 1.9221452731
H -0.5203689025 -3.7574506829 1.2015875599
H -2.1062510818 -2.6499626649 -0.3271772233
H -3.6830844916 -1.4960913631 1.1667632808
H -2.4439957751 -1.5128057547 2.4603381994
H -1.7929329004 -0.3148887781 -1.0463391387