16

C 0.0584204851 1.6037513278 0.0071752562
C 0.0728131608 0.0842732921 -0.0015726687
C 0.7701931192 -0.6767472975 -1.1389985109
C 2.2229010678 -0.8069879120 -0.6866438933
O 2.3739958983 -0.1243625888 0.5498997333
C 1.0761138014 -0.6613441107 0.9266973483
C 1.2064175129 -1.7929956344 -0.1726382872
C 1.0814637897 -3.1983318041 -0.1977933429
N 0.9727697105 -4.3517554398 -0.2085086270
H 1.0741835053 1.9982210473 -0.0685788038
H -0.5289948043 1.9915121071 -0.8314076597
H -0.3907835100 1.9840101551 0.9309192700
H -0.9263408007 -0.3366080600 0.1477285473
H 0.4642138159 -0.8004819266 -2.1697225445
H 3.0809470707 -0.9434406027 -1.3301883307
H 0.9463965175 -0.7802152928 1.9993040637