17

C 0.0932110670 1.4728845454 0.0659672424
C -0.0713187405 -0.0621937036 -0.0214972439
C -1.5467434320 -0.4623429553 -0.0593771774
C 0.7636904351 -0.6323195635 -1.1867692015
O 2.0768059401 -0.9505502344 -0.6656934032
C 2.0632142636 -1.0741462749 0.6819434184
O 2.9983062445 -1.4258477905 1.3347839350
C 0.6582505908 -0.6580335440 1.1750950199
O 0.2653444681 -0.7823888767 2.3007055149
H 1.1476855072 1.7669154390 0.0769540213
H -0.3819529590 1.9469182219 -0.7986555656
H -0.3773211389 1.8541349111 0.9762107087
H -2.0527625724 -0.0051833320 -0.9157473431
H -1.6653838925 -1.5477490950 -0.1311936612
H -2.0458859950 -0.1309215159 0.8549052588
H 0.3270420939 -1.5528252852 -1.5883329605
H 0.9063294099 0.0764457834 -2.0050513130