16

N 0.0350805391 -1.1622895921 -0.0950536347
C -0.0135605259 -0.0069083822 -0.0290359036
C -0.0354116688 1.4200565216 0.0429881374
C -1.1856513819 2.1075519573 0.0127366369
C -1.1767922026 3.6078931174 0.1195626806
O -0.0681125328 4.1082266011 0.8497540721
C 1.1787525799 3.6052232341 0.4606031714
C 1.8394602085 2.6507542587 1.4161426261
C 1.2642818038 2.1483550703 0.1008411623
H -2.1410196656 1.6028857935 -0.0828733391
H -1.2201153590 4.0500414516 -0.8913679311
H -2.0652484496 3.9541208637 0.6565354840
H 1.7895287308 4.3192683365 -0.0877503754
H 2.9183736575 2.6720485726 1.5196456848
H 1.2864474852 2.4270631402 2.3209000193
H 1.9817414614 1.8581979856 -0.6602554311