23

C 0.0253763752 1.5261780096 0.1651462769
C 0.0293863323 0.0064567971 0.0210930000
C 0.4598139222 -0.4243731895 -1.3894433498
C 0.3924359751 -1.9016170338 -1.6904924527
C 0.7592218802 -2.9152140076 -0.9052648431
C 1.3364890363 -2.8470689615 0.4874080458
C 0.6944500620 -1.8314552153 1.4449137029
C 1.2797272288 -1.9402700346 2.8505922829
O 0.8996415070 -0.4886296865 1.0289824708
H 1.0292419299 1.9276839848 -0.0066985352
H -0.6592672835 1.9861932194 -0.5536195608
H -0.2849918512 1.8083068647 1.1744010899
H -0.9873927208 -0.3783674225 0.2064356143
H -0.1664392806 0.1127698210 -2.1113453247
H 1.4859661540 -0.0607771216 -1.5505010731
H 0.0299058489 -2.1524215068 -2.6855077541
H 0.6689511209 -3.9183904744 -1.3174234524
H 1.2633320121 -3.8384509659 0.9496504844
H 2.4115769169 -2.6187107496 0.4311182430
H -0.3894200053 -2.0308783974 1.4866132882
H 2.3552347930 -1.7367340470 2.8321456524
H 0.8073654517 -1.2105492606 3.5130897717
H 1.1237872447 -2.9412840920 3.2636643027