21

C -0.0936414308 1.5447979659 0.0720390701
C -0.0132304554 0.0178569395 -0.0307270486
C 0.7632552452 -0.4999913311 -1.2539058195
C 2.2436179334 -0.0817700602 -1.2474448586
O 2.9511827276 -0.6718326278 -2.3249885750
C 3.1105677991 -2.0705225829 -2.1835137774
C 1.8306898044 -2.7920841612 -1.8002079119
O 1.4650660738 -2.7482378558 -0.4125727181
C 0.6707318111 -2.0101842688 -1.3499172371
H 0.8913531231 1.9990411364 0.2175207603
H -0.5299744365 1.9810305272 -0.8336827908
H -0.7186689727 1.8443876915 0.9187644104
H 0.4450877945 -0.3959270972 0.8759775109
H -1.0304624786 -0.3926559314 -0.0692981226
H 0.3053653719 -0.0929443264 -2.1671495504
H 2.3413572213 0.9978906190 -1.3813778642
H 2.7024527855 -0.3549387881 -0.2842485154
H 3.4627747657 -2.4337196535 -3.1541981865
H 3.8840603655 -2.3012939006 -1.4318949486
H 1.6717716805 -3.7646583832 -2.2659169626
H -0.3301209186 -2.4174503415 -1.5032470241