14

O 0.0010177128 -0.0345525123 -0.0994440587
C -0.0139259802 1.1613088060 0.0329476099
N -1.1390954359 1.9845784974 0.1501703797
C -0.7937139815 3.3600597307 0.0606812097
C 0.7045046251 3.3810275547 0.0404486572
N 1.0905123967 2.0157783533 0.1200355891
C -0.0686336766 3.8812652762 -1.1996486301
C -0.0746962717 3.1374006237 -2.4193415791
N -0.0793378837 2.5247157814 -3.4011704922
H -2.0195027971 1.6212268704 -0.1778992308
H -1.3852328037 4.0673430042 0.6295096731
H 1.2911529783 4.1047837061 0.5933775803
H 1.9715994996 1.6770683791 -0.2317151008
H -0.0852964422 4.9601625690 -1.3152054172