19

C -0.0186599560 1.3699702621 -0.1062652759
C 1.3875497658 1.9659327362 0.0060282812
C 2.1009855747 1.3270216504 1.2154263079
O 2.0848355275 -0.0933179169 1.0297134340
C 0.7625049267 -0.5820479249 1.0273580756
C 0.0987455002 -0.3679622208 2.4060721968
C 0.5358822420 0.9085337878 3.0732820768
C 1.4582485975 1.6978629678 2.5289537082
O 0.0157655740 -0.0543494920 -0.0508173405
H -0.6658501133 1.7704814326 0.6871622831
H -0.4764303595 1.6185928917 -1.0675678852
H 1.9633227358 1.7332243080 -0.8955933944
H 1.3310282823 3.0551724892 0.1086207895
H 3.1590076963 1.6067734274 1.2201446813
H 0.8395053994 -1.6501063297 0.8090247110
H -0.9900743141 -0.3906874237 2.2766980511
H 0.3442105845 -1.2219941756 3.0517683162
H 0.0801418883 1.1559750600 4.0287375241
H 1.7639453478 2.6288838306 2.9975058490