16

O -0.0343185605 -0.0214702796 -0.2383200428
C -0.0260837930 1.1591479444 -0.0946519864
C -1.1499869527 2.2209474780 0.2904079098
C 0.0055214513 3.0432816070 0.8909308183
C 0.7547121152 2.8619502645 2.2130640533
C 1.8360278219 3.1080601862 1.1581281753
N 0.9902975042 4.2182803404 0.4542081350
C 1.1677193916 3.5022726581 -0.8799538428
C 1.0480972848 2.2911719529 0.0471288453
H -1.6045548112 2.6581012737 -0.6030924224
H -1.9410401401 1.8742367984 0.9589956916
H 0.6221032009 3.6467741821 2.9618311621
H 0.7301539097 1.8646658025 2.6602809749
H 2.9142584561 3.2505681041 1.2634635937
H 0.3604350058 3.7015454447 -1.5916498007
H 2.1396482961 3.6836414527 -1.3483348040