18

C 0.4437400381 1.1473681269 -0.3656746485
N -0.2801422977 -0.0127953041 0.1728118087
C 0.3982454048 -0.6980126139 1.2062600431
C 0.7956494558 -2.0055380087 1.1154315580
O 0.6619481714 -2.9224053793 0.1335752803
N 1.4192437203 -2.3210417004 2.2923791024
C 1.9979923215 -3.6003614326 2.6438857104
C 1.3718216279 -1.1725186808 3.0541398323
N 0.7707141770 -0.1878679478 2.4359115420
H 1.3765874943 0.8059933375 -0.8248201230
H -0.1646417174 1.6229939929 -1.1413212846
H 0.6947006706 1.8958501986 0.3984096092
H -1.1953372228 0.2891804147 0.4935586027
H 0.1745576537 -2.4672895703 -0.5683894011
H 2.8102492317 -3.8648171458 1.9601910163
H 2.3965811812 -3.5354707366 3.6579314649
H 1.2439989922 -4.3921931704 2.6092307764
H 1.7975352674 -1.1453568200 4.0464309804