20

C 0.1274921454 1.6487464745 0.0135607361
C -0.2559336411 0.1795581896 -0.1969763262
C 0.6607481305 -0.5176360391 -1.1797390943
O 2.0390531431 -0.6396181437 -0.6488578388
C 2.0582196910 -1.9843992809 -0.8583601710
O 2.9491365892 -2.7519166491 -0.6705882513
C 0.6194564973 -2.0620315033 -1.3961385883
C -0.3350821393 -2.8817129009 -0.5277296416
N 0.6325444956 -2.4415810284 -2.8069986184
H 1.1504729039 1.7295437771 0.3914871427
H 0.0704176781 2.2107434042 -0.9247671288
H -0.5413442580 2.1282337824 0.7338001620
H -0.2377325818 -0.3493308982 0.7619422037
H -1.2824168644 0.1084510380 -0.5798723562
H 0.7053585621 0.0090009493 -2.1367601965
H -0.3029297291 -2.5963239003 0.5273332159
H -1.3665046820 -2.7658829297 -0.8798340435
H -0.0670060871 -3.9402772124 -0.5956927001
H 1.1574002733 -3.3059687961 -2.9127588391
H -0.3128378066 -2.6372627530 -3.1260301863