12

O 0.0275351552 -0.0502399838 0.0020091143
C -0.0114705000 1.1435033813 0.0091115702
C -1.1991540802 2.0791129089 0.0314392210
C -0.7829461724 3.3561410920 0.0321891075
C 0.6874461557 3.3406089935 0.0105531491
N 1.7129633283 4.1541294369 -0.0003291398
C 2.7726570935 3.2597192019 -0.0206521421
N 2.4554209490 1.9782086613 -0.0227988915
N 1.0965533524 2.0469528017 -0.0022891199
H -2.2091893653 1.6983031711 0.0441850251
H -1.3838337119 4.2537858065 0.0457765936
H 3.8017808957 3.5861704088 -0.0341618576