20

O -0.2351420837 1.3944346588 -0.7193156724
C 0.0073992916 0.1722096580 -0.0359583189
C -1.3128399452 -0.5457292448 0.0836195982
C -1.8254438588 -1.4179826143 -1.0320221906
C -1.4365813028 -2.0416337172 0.2849745176
C -0.2450863106 -2.9531811418 0.3854631070
O -0.6636070713 -4.2686354749 -0.0003347489
C 0.1112932397 -5.2915984147 0.4013017198
N -0.1280981354 -6.4651592119 0.0016390504
H 0.5832454843 1.8998398985 -0.7279590020
H 0.7361262531 -0.4454757459 -0.5835538209
H 0.4257033711 0.3590805157 0.9667329521
H -2.0572694943 0.0484209665 0.6062049446
H -2.8754427938 -1.3731828377 -1.2960183223
H -1.1615445495 -1.5855003114 -1.8745412620
H -2.2546577913 -2.3563567770 0.9266390030
H 0.5678441117 -2.6273128639 -0.2750737765
H 0.1442135214 -2.9790012752 1.4132551019
H 0.9171894796 -4.9905276167 1.0867952497
H 0.5356532744 -7.1142164802 0.4190584203