19

C 0.0251190712 1.3554102086 0.0946483674
C 1.4560876707 1.8947467005 -0.0057038428
C 2.2338133410 1.0910059747 -1.0533699785
C 1.3323296148 0.4464966024 -2.1728400148
C 2.3278852052 -0.4516329477 -2.8916473561
C 3.0321479448 -1.0088291206 -1.8969459810
C 2.4118889750 -0.4140346544 -0.6463068940
C 0.8766454566 -0.5469608652 -1.0191405831
O -0.0271031814 -0.0588466702 -0.0689507600
H -0.4339325413 1.5738892148 1.0625642889
H -0.5963392823 1.8265972365 -0.6812940457
H 1.4198540575 2.9568315000 -0.2740008815
H 1.9753635638 1.8269206416 0.9584708918
H 3.1381155947 1.6023809300 -1.3956312579
H 0.6216046716 1.0236799006 -2.7645676966
H 2.3887241686 -0.6104415955 -3.9590019127
H 3.8220465903 -1.7454353371 -1.9366774382
H 2.7827755871 -0.7012104743 0.3380283955
H 0.5332156922 -1.5389415349 -1.3222394406