23

C 0.0034864158 1.4689279499 0.0159326255
C 0.0127376828 -0.0507917941 0.0196021971
C 0.7021625623 -0.7011479529 -1.1999785658
C 0.7532280908 -2.2091612198 -0.8236148923
C 0.4652078151 -2.1908244180 0.6839098444
C -1.0016849810 -1.8528488471 1.1426958129
C -0.3596991629 -1.0230954684 2.2889274526
C 0.7243581862 -0.7529693429 1.2235658654
C -1.3925869053 -0.7323820803 0.1609748081
H 1.0201290374 1.8722412931 -0.0585914537
H -0.5700235485 1.8606162883 -0.8322889579
H -0.4491543618 1.8682436912 0.9304231930
H 0.1623828421 -0.5045340424 -2.1323412774
H 1.7152937338 -0.2977343763 -1.3199831246
H 0.0131553899 -2.8008034278 -1.3733956391
H 1.7316240119 -2.6485940383 -1.0398378632
H 0.9118477813 -2.9980216564 1.2670314230
H -1.7373621581 -2.6347574076 1.3388137067
H -0.9298832959 -0.1805854051 2.6938262534
H 0.0140488403 -1.6438450172 3.1075287183
H 1.7233312849 -0.3904738437 1.4747948670
H -2.1447647002 -0.0636355334 0.5921212297
H -1.7781565109 -1.0933622709 -0.7977750630