19

C 0.0357194392 1.3796357192 -0.4602326460
C -0.0436031404 0.0291810336 0.2299287826
O 0.8727510328 -0.4049867868 0.8990698143
C -1.2983322308 -0.7400731972 0.0451312504
C -1.7503415287 -1.7101404292 1.1237098218
C -1.4270959101 -2.2716176875 -0.2086279710
C -2.5834313607 -2.0272221889 -1.1813211987
C -2.4262188670 -0.4813836358 -0.9461556043
O -3.5034839289 0.2394908046 -0.3876685798
H 0.9180668792 1.9160831468 -0.1098329562
H 0.1087998773 1.2451202961 -1.5461065312
H -0.8700182578 1.9648666910 -0.2697375566
H -1.0003575481 -1.8535387141 1.8929880243
H -2.7801993227 -1.6557071207 1.4634282490
H -0.5924661810 -2.9426666936 -0.3654778453
H -2.3753788990 -2.3210535438 -2.2121682951
H -3.5462222960 -2.4460804598 -0.8722884170
H -2.0562306597 0.0094797923 -1.8561444387
H -4.1838270074 0.3410481939 -1.0613701623