16

N 0.0568738148 -1.1358703131 0.0451120961
C -0.0068356756 0.0210886576 0.0268609762
C -0.0404464826 1.4361423507 0.0101768879
C -1.1124038149 2.2262952711 -0.1275909571
C -0.6906350267 3.6327144133 -0.0886635386
C -1.3055921816 4.7216905427 -0.9349931994
C -1.4885987936 4.7349930513 0.5659940056
O 0.7123722652 3.6378069753 0.0823314637
C 1.1982598906 2.3010295221 0.1535823462
H -2.1380700474 1.9066856084 -0.2498385572
H -0.6053492635 5.4321183015 -1.3595124014
H -2.1511452094 4.4745741188 -1.5675661364
H -2.4618896632 4.4971601048 0.9811029596
H -0.9093462707 5.4542114364 1.1338455591
H 1.7096882149 2.1339033095 1.1120550407
H 1.9247789237 2.1181554595 -0.6507065352