18

C 0.0073344708 1.4303636292 0.0087420482
C 0.0917109475 -0.0584904457 0.1186764249
C 1.0330751123 -0.9550007893 -0.6294421369
C 1.0229116554 -2.2245066241 0.2453469291
C 0.9978931114 -1.7312889301 1.7168244640
O 2.0896405498 -1.0429168175 2.2597288518
C -0.2941377039 -0.9754772781 1.3054201805
C -0.5259101846 -2.0242787229 0.1718396570
N -0.4380887412 -0.9765187962 -0.9462654071
H 0.6987592393 1.9209090286 0.7037653710
H 0.2565176373 1.7520234865 -1.0072503686
H -1.0039553775 1.7847540935 0.2345148806
H 1.7636425165 -0.6164827389 -1.3550445365
H 1.5614874804 -3.1109136903 -0.0818320347
H 0.7685039234 -2.5539934349 2.4017590050
H 2.3225131991 -0.3389006647 1.6436502072
H -1.0441055929 -0.6378493991 2.0178153917
H -1.2843728531 -2.8018789860 0.1448616527