15

C -0.0170048768 1.5548897264 0.0203540852
C -0.0012097805 0.0504970302 -0.0085256204
C -0.0322595756 -0.6546706870 -1.1705382997
N -0.0163371656 -2.0239845621 -1.1666671127
C 0.0313059833 -2.8489236145 -0.0377899824
O 0.0418700310 -4.0637370841 -0.1255392849
C 0.0633176006 -2.0621205762 1.1898666524
F 0.1090037605 -2.7634055407 2.3167095369
C 0.0482626704 -0.7070529311 1.2059726778
H 0.8793697008 1.9563508250 0.5071505687
H -0.0607359246 1.9690178053 -0.9904312782
H -0.8819164296 1.9363856136 0.5752638451
H -0.0705927680 -0.1862461926 -2.1463101480
H -0.0401329751 -2.5319773120 -2.0401890306
H 0.0745082192 -0.1983080603 2.1649419410