10

O 0.1065295088 1.3009116619 0.1210773051
C 0.0701538934 -0.0273088950 0.0607343693
N 0.0907912262 -0.5931744604 -1.1518143969
C 0.0518364802 -1.9225591120 -1.1283020383
N -0.0033240479 -2.6873650673 -0.0378364870
C -0.0180759958 -1.9923465212 1.1030711787
N 0.0161979661 -0.6692397695 1.2271259026
H 0.1434739097 1.6188897381 -0.7924475775
H 0.0665921339 -2.4288508213 -2.0910783864
H -0.0626541547 -2.5644003234 2.0272747704