21

C 0.5734762900 0.2276711260 1.2160931793
O -0.0549103338 0.0599330997 -0.0412657463
C -1.2142935235 -0.7329509330 -0.0154609067
C -2.4296312316 -0.0753734370 0.6094009955
C -2.8052977126 1.2394359748 -0.1077877297
C -3.9434535769 1.9127327617 0.5033346281
C -4.8845389239 2.4445726047 1.0296946217
C -1.3789371274 -1.5923944769 -1.2331914139
C -1.0174396483 -2.2247405629 0.0974644415
H 1.5056605562 0.7672103552 1.0326746773
H -0.0375862342 0.8151345366 1.9153002772
H 0.8047568004 -0.7388145911 1.6851441149
H -3.2752296396 -0.7692406840 0.5706017388
H -2.2522896555 0.1321013653 1.6708552565
H -1.9330445486 1.9030881010 -0.1109231543
H -3.0235379348 1.0255240795 -1.1617735797
H -5.7142444310 2.9269619441 1.4833479589
H -2.3780862869 -1.7452840355 -1.6269099614
H -0.5964532426 -1.5288807946 -1.9800671356
H 0.0001223483 -2.5814211985 0.2106202595
H -1.7657474037 -2.8140822451 0.6164244685