18

C -0.0172927128 -1.1750708787 -0.0311212672
C -0.0322115513 0.0277789996 -0.0034019884
C 0.0056305039 1.4471257929 0.0438341532
C -0.6943200535 2.4756248372 0.8957933174
C 0.6116008681 3.2494895112 1.1086489335
C 1.2570088251 2.3883780883 -0.0223633786
C 1.1050900405 3.0857817089 -1.3741515225
C -0.4324357545 3.2721292318 -1.4652885408
N -1.0405569261 2.3061587993 -0.5197186552
H -0.0198080079 -2.2362821498 -0.0586599558
H -1.4915016574 2.3359389485 1.6178565546
H 0.5949388815 4.3353101080 0.9653408360
H 1.0384762940 3.0257066310 2.0890693629
H 2.2346271389 1.9577392492 0.1864430909
H 1.6473161986 4.0354053460 -1.4197260480
H 1.4729512407 2.4474300469 -2.1846381012
H -0.7479773177 4.2854687033 -1.1990787161
H -0.8165523900 3.0590533164 -2.4660127345