17

C -0.0605775851 1.5714323971 0.0060176731
C 0.0625393354 0.0758783310 -0.0094881814
C 0.6400297988 -0.9331192590 -1.0363746692
C 1.2234979024 -1.8186857780 0.0726051067
C 0.6833539109 -0.7665325235 1.0766764877
O 0.8817702739 -0.5648721655 2.2403211098
C -0.8493364324 -0.8177557614 -0.8692186257
C -1.6774442983 -1.8665751570 -0.3401328613
C -2.3767081494 -2.7432048114 0.0946525728
H 0.8750639414 2.0365658780 0.3321771160
H -0.3090648956 1.9604269178 -0.9862692280
H -0.8474803348 1.8879296627 0.6984248621
H 1.1238198155 -0.6986609247 -1.9758656053
H 0.8365177285 -2.8372992004 0.1470277765
H 2.3165819961 -1.8349476148 0.0999544013
H -1.3287328954 -0.2309807772 -1.6503840046
H -2.9947579519 -3.5128564237 0.4861892495