20

C -0.1071538084 1.5449043417 -0.0303273603
C 0.0503145878 0.0350814146 0.0243216059
O 0.8404853628 -0.4371730363 -1.1044265394
C 1.8818131103 -1.2606540367 -0.5435052705
C 1.1661569582 -1.9324576383 0.6342506820
C 0.8100916420 -0.5568744844 1.2388861235
N 2.0736748755 0.2275631899 1.3126855800
C 3.3122343882 -0.5357829507 1.5215657716
C 2.8381429198 -0.2823506537 0.1366485748
H 0.8522439047 2.0444201822 0.1108834780
H -0.5252497075 1.8368953489 -0.9979117939
H -0.7936433769 1.8821148502 0.7539719758
H -0.9410991256 -0.4366352415 -0.0374403954
H 2.2946845674 -1.8887668290 -1.3324422708
H 0.2876124602 -2.4881857259 0.3028279386
H 1.7801662750 -2.5811395645 1.2568381739
H 0.2579844955 -0.5353549034 2.1789636604
H 4.1233484205 0.0787350735 1.9012055489
H 3.2863894723 -1.5345865600 1.9434833854
H 3.3208022281 0.4593234034 -0.4926951586