20

C 0.0775898348 1.5772595104 0.0014341253
C 0.0405961822 0.0315735444 0.0374573373
C 0.8512435652 -0.4862891518 1.2484363954
C -1.4225949241 -0.4998011463 0.0659116090
C -2.2484413103 -0.0663469987 1.2960988005
C -3.6063435692 -0.6041268243 1.2480021052
N -4.6767707286 -1.0363795040 1.1960645081
C 0.6543545232 -0.4820214392 -1.1932868690
C 1.1508186720 -0.9058152734 -2.2027358030
H 1.1058752475 1.9280344610 -0.1182696310
H -0.5103892453 1.9642789795 -0.8356398696
H -0.3138605908 2.0044104095 0.9299683352
H 0.4661921771 -0.0760640234 2.1872200099
H 0.8176146421 -1.5780162941 1.3050244272
H 1.8982653132 -0.1855160737 1.1588708876
H -1.9350439378 -0.1630891186 -0.8402837461
H -1.3990086182 -1.5928728688 0.0233915505
H -1.7799233394 -0.4090685684 2.2245353737
H -2.3170553477 1.0246737243 1.3588113404
H 1.5919980642 -1.2788548144 -3.0939496466