17

C -0.0528632918 1.3741504361 -0.0747416021
N 0.0871424316 -0.0573974521 0.0322762647
N 0.0675914815 -0.8133475604 -1.0981841894
C 0.0796138324 -2.0600701642 -0.6590337899
O 0.0933617653 -3.1428388883 -1.4758466730
C 0.0919323472 -2.1311921284 0.7465954568
O 0.1173115889 -3.2383142335 1.5455446977
C 0.0875631336 -0.8164038732 1.1701610042
C 0.0908820082 -0.2619688202 2.5541885249
H 0.5519081581 1.8715857904 0.6882404633
H 0.3017784068 1.6714340106 -1.0620951732
H -1.0958881130 1.6974249936 0.0381790423
H 0.0876489227 -2.8182105281 -2.3842582478
H 0.1312644199 -4.0115799660 0.9719187361
H 0.9693316444 0.3653832808 2.7472296373
H -0.7988454762 0.3442812742 2.7619024767
H 0.1073573406 -1.0881617215 3.2683097314