15

O -0.0119216366 -0.0085966750 -0.3021801772
C 0.0059579461 1.1693371562 -0.1072335971
C -1.0133711227 2.2540184836 0.2924798801
O 0.0592566786 3.2316012626 0.3178000457
C 1.0279924321 2.2673792053 -0.0990956116
C 2.4545647763 2.3839859809 0.3926916205
C 3.2516856643 1.2122874725 -0.1761911986
O 2.8301710806 1.5426919690 -1.5352868852
C 2.1253022238 2.6730573069 -1.0542073528
H -1.7726652685 2.4844298564 -0.4629183136
H -1.4835046225 2.1239991302 1.2730343139
H 2.7104279407 3.0348717627 1.2176192460
H 4.3351203910 1.3310530874 -0.0751495199
H 2.9473998227 0.2029239856 0.1144334350
H 2.0784647641 3.5785454357 -1.6485031453