17

C -0.3399635222 1.4566475452 -0.0181809695
C 0.1210334681 -0.0097321129 0.0618380800
C 0.8546139098 -0.4543627574 -1.1571973263
C 2.1615720208 -0.7796125982 -1.3955817756
C 3.3445344934 -0.8229014729 -0.4760117680
O 3.0635223699 -1.4695189236 0.7598732026
N 2.2438433959 -1.1153894131 -2.7287527627
N 1.1266012042 -1.0127843789 -3.2938550657
O 0.1814244840 -0.5848785121 -2.3010877584
H 0.5135306056 2.1324178767 -0.1250878716
H -1.0044849887 1.6117311628 -0.8722415979
H -0.8800128057 1.7311251423 0.8918869689
H 0.7823093976 -0.1669097975 0.9176082309
H -0.7510840313 -0.6593682062 0.2013931788
H 4.1791465334 -1.2937098849 -1.0125666697
H 3.6652535907 0.1872919586 -0.2003239757
H 2.8100164046 -2.3776954779 0.5623334399