16

C -0.1165216751 1.4853108889 -0.0840725379
O -0.0218908138 0.0657621097 0.0562836251
C -1.2407977580 -0.5729152044 0.0426337999
C -1.9453468765 -1.0080428631 1.1418444747
O -1.6750621887 -0.9377684683 2.4686584714
N -3.0858109537 -1.6064327007 0.7095016732
C -3.1284227399 -1.5926189621 -0.6867314482
C -1.9943390800 -0.9530003592 -1.1118576444
O -1.6419165677 -0.6911738074 -2.4047588072
H 0.9052105365 1.8732070838 -0.0773692525
H -0.6057380492 1.7592125083 -1.0268524710
H -0.6833371331 1.9288733758 0.7442182233
H -0.7659452909 -0.6274779857 2.5524674593
H -3.7374948957 -2.0765383842 1.3112527251
H -3.9528482876 -2.0172199845 -1.2307738051
H -0.6962496467 -0.5049185369 -2.4062315754