19

O 0.2290542611 1.3649222283 0.0287173729
C 0.0504479013 -0.0479132385 -0.0239019138
C -1.3923907448 -0.5168243291 -0.2650630412
C -1.1688535506 -1.9916772980 -0.7220508318
C -0.5250010452 -1.3001215859 -1.9473645705
O -0.3406380386 -1.9928532392 -3.1347565143
C -1.6012225660 -0.1810315915 -1.7712700961
C 0.7242601403 -0.6635828703 -1.3088307442
O 1.3154902759 0.3028819096 -2.1444597452
H -0.5646597224 1.7831525784 -0.3215526250
H 0.4769795765 -0.4488134642 0.8993262137
H -2.1302529475 -0.2604540709 0.4946132216
H -0.5391540817 -2.6387671931 -0.1034450457
H -2.1048235787 -2.4949481867 -0.9706401945
H 0.2682438274 -1.4703509855 -3.6718831337
H -2.5792767297 -0.4966518672 -2.1376708569
H -1.3633434151 0.8205421089 -2.1414912986
H 1.4655756194 -1.4345193520 -1.0603407325
H 1.2699270583 1.1349529169 -1.6482552343