17

C 0.0733917344 1.6392990453 -0.1186989449
C -0.2639445833 0.1634612490 -0.0607395543
C -1.6758995558 -0.1712850230 0.4346629674
C -1.8317799160 0.2207278630 1.8880279759
O -2.2273456182 1.2957472911 2.2674246519
C -1.4273241520 -0.7994674242 2.8789115151
N -1.1490081992 -1.5929211746 3.6727532558
C 0.3794255606 -0.7630787833 -1.0290426255
N 0.7543049433 -0.7970033099 0.3947048142
H 1.0942127218 1.7860298542 -0.4845711102
H -0.6061163440 2.1712650678 -0.7931217203
H -0.0094466125 2.1097607408 0.8660367950
H -2.4185376955 0.3892787472 -0.1408319824
H -1.8522086880 -1.2435534218 0.3196421787
H -0.1504330669 -1.6425645232 -1.3852865373
H 1.0772793280 -0.3355392583 -1.7443600492
H 1.6454386133 -0.3298195301 0.5406391303