16

N -0.0260637357 1.3815804752 0.1334337295
C -0.0016123109 0.0040284374 0.0495426354
C -1.1872735252 -0.7596243143 0.0323832651
N -1.1661527278 -2.0807849327 0.0031844940
C 0.0331026573 -2.6822880502 -0.0033521990
C 0.0239187493 -4.1898751106 -0.0304489624
O 1.3577886375 -4.6658305281 -0.0555293644
C 1.2011907780 -1.9278096900 0.0119982901
N 1.1920130055 -0.5911563384 0.0328479443
H 0.8492549439 1.8210601286 -0.1105937288
H -0.8410722418 1.8470957980 -0.2337130506
H -2.1612404685 -0.2734935051 0.0428968998
H -0.5219866505 -4.5559505230 0.8538365412
H -0.5445715020 -4.5242466447 -0.9129503071
H 1.3333948538 -5.6261450267 -0.0588973498
H 2.1695021472 -2.4147473755 0.0008534027