14

O -0.1691872243 0.3416672530 0.2846164191
C 0.0286247940 1.5224407972 0.1153447028
C 1.3377050916 2.1202033311 0.0323661819
C 2.4212036331 2.6503341534 -0.0490617138
C 3.7224883952 3.2458894446 -0.1189393945
C 4.0177451833 4.2611179776 -1.2108614586
N 3.8953949563 4.6737412815 0.1569843330
C 2.8806460078 5.5141395390 0.6151021413
O 2.5084847418 6.5007135866 0.0360669857
H -0.8050219613 2.2450229253 0.0096460370
H 4.5420827361 2.6206827544 0.2264311121
H 5.0174467269 4.2783701383 -1.6344143118
H 3.2077515178 4.5236256726 -1.8851770158
H 2.5129124416 5.2048818254 1.6097412018