19

C -0.9249217286 1.1586616749 0.2500025891
C 0.0247241904 -0.0037164886 -0.0070411723
C 0.9238265209 -0.0250553236 -1.2892657631
C 2.1680717889 -0.3799112232 -0.4334528451
C 2.8820985324 -1.7523519040 -0.5409999174
O 4.1691769308 -1.1304016744 -0.6846959957
C 3.5876061482 0.1864823878 -0.6168504264
C 1.3277319211 -0.0633897416 0.8086512467
O 1.6092856276 0.1700786703 1.9496625016
H -0.4113286507 2.1186966853 0.1334435186
H -1.7696217855 1.1398499818 -0.4455682825
H -1.3196438247 1.1133273679 1.2692421513
H -0.5046910480 -0.9593284671 0.1031603460
H 0.6521966601 -0.7497283674 -2.0596845611
H 1.0082539076 0.9643464378 -1.7490502716
H 2.8278858478 -2.3883654070 0.3511364087
H 2.6005092075 -2.3383657314 -1.4261966624
H 3.7434492382 0.7582570932 -1.5408152270
H 3.9625508561 0.7585877495 0.2405068927