23

O 0.7353074920 0.3297277453 -0.8198333453
C -0.0615342656 -0.3718068750 0.1002559554
C 0.0816082366 -0.1001584798 1.6222316212
C -1.4627789736 -0.2776634322 1.7576670559
C -1.5777334215 -0.0584261491 0.2169839615
C -1.9013602609 -1.6507135560 2.2347638263
C -1.7695182295 -2.0011768413 3.7465395267
C -3.1318805758 -2.7396983025 3.6553518070
C -3.4238669554 -1.9595829341 2.3454185586
H 0.6186502967 1.2713298887 -0.6541771020
H 0.1041163858 -1.4288696317 -0.1267406204
H 0.7306800347 -0.7598280688 2.2044793052
H 0.3858913972 0.9368132769 1.8036580314
H -1.9598596762 0.4840220040 2.3672498051
H -1.7762397569 0.9911897382 -0.0273852862
H -2.2777530756 -0.6841689041 -0.3432737216
H -1.4141073801 -2.4308241856 1.6362924783
H -0.8952665689 -2.5731383771 4.0671310263
H -1.8403625273 -1.1007134203 4.3662607633
H -3.0006379029 -3.8094952746 3.4686318000
H -3.8317978539 -2.6183473042 4.4853683545
H -3.9969172523 -1.0464921158 2.5398057613
H -3.9002587269 -2.4975847707 1.5221083676