18

N -0.0025343925 1.4398008428 -0.3646313816
C 0.0087461727 0.0346730069 -0.1070062810
C -0.1494866774 -0.4823338032 1.2802769125
C -1.2443523238 -0.7983345568 0.2640309832
C -2.4857619644 -0.0726608617 0.3800994054
N -3.4962849221 0.4923188771 0.4289448481
N -1.2722632329 -2.1517096599 -0.2213731349
C -2.3528131216 -3.0430131172 0.2009247064
C -2.2836335962 -2.5420344738 -1.2010733862
H -0.3826271154 1.6401111600 -1.2847862727
H -0.5726536193 1.9401995557 0.3091046923
H 0.6819370559 -0.5234924629 -0.7504980616
H 0.4494097840 -1.3300180009 1.5904230550
H -0.3901624911 0.2259661905 2.0661174291
H -2.0487960227 -4.0569586094 0.4427951557
H -3.1388918435 -2.6315594712 0.8297557654
H -3.0268067362 -1.8040562501 -1.4943467674
H -1.9283048238 -3.1839393957 -2.0015002876