19

C -0.1016107606 1.4707411414 -0.3979630961
C -0.1048567667 -0.0017810399 -0.1303804344
O 0.3081997589 -0.8726568426 -1.2375238531
C 0.0037122146 -1.7861337325 -0.1517414646
C 0.6001741603 -0.8823101160 0.9683622198
C -0.6833567632 -1.0249204610 1.8192290061
C -1.0714237390 0.0530365886 2.8100392993
O -2.4175831541 -0.1921752538 3.1969971841
C -1.2258317321 -0.9869533616 0.3712603945
H 0.9038679537 1.7983069882 -0.6804294130
H -0.7815796795 1.7016849467 -1.2239241862
H -0.4186076009 2.0385290197 0.4800444254
H 0.1193447250 -2.8576566192 -0.3102849448
H 1.6458456146 -0.8306151707 1.2753236994
H -0.7928649525 -2.0046529756 2.2985492996
H -0.3939649365 0.0109586589 3.6790121743
H -0.9643531641 1.0535045970 2.3647504854
H -2.6643051235 0.4590529426 3.8601881284
H -2.2509399745 -1.0517375702 0.0077075458