21

C -0.0333510067 1.5085118687 0.0031020572
C 0.0298142657 -0.0201992628 0.0781444259
C -1.3852571777 -0.5778669824 -0.0979969362
O 0.8953229738 -0.5346215839 -0.9917788321
C 1.8951777950 -1.2649186624 -0.2679222542
C 1.1114196688 -2.0472489799 0.8088269270
C 0.8089213380 -0.5870449742 1.2887515993
C 2.2793500079 -0.2662475822 0.8654353531
O 3.2001868989 -0.7155502547 1.8344507133
H 0.9409700292 1.9804774385 0.1355393368
H -0.4216013167 1.8123572289 -0.9737454181
H -0.7097847496 1.8983933874 0.7710927743
H -1.7830649002 -0.2644934544 -1.0681037443
H -1.4126342501 -1.6673404668 -0.0635110390
H -2.0497737046 -0.1908750291 0.6818346219
H 2.6070970513 -1.7103158924 -0.9635159311
H 0.2921104582 -2.6853219035 0.4790746235
H 1.7641102824 -2.5708985154 1.5039341482
H 0.4377926082 -0.3548020718 2.2865088414
H 2.5105189010 0.7522294666 0.5378506703
H 4.0790277168 -0.6843822743 1.4432931527