16

C -0.0567562390 1.4570985899 0.0289625404
N -0.0007870428 0.0108589811 0.0041992145
C 0.0110152770 -0.8108847486 -1.1007722246
N 0.0265723741 -2.0763451854 -0.7846397407
C 0.0436735101 -2.1075656147 0.6033736407
C 0.0595532334 -3.2838958668 1.3840984660
C 0.0777301360 -4.2549166609 2.0993538029
C 0.0268666251 -0.8149320126 1.1002372939
N -0.0647614867 -0.3179760208 2.4002464956
H 0.9224169297 1.8984236211 0.2484216658
H -0.3881847916 1.8174776554 -0.9465071858
H -0.7681224189 1.7838660201 0.7920242431
H 0.0128102235 -0.4038364002 -2.1014093979
H 0.0890547984 -5.1243398679 2.7079704738
H -0.1356307534 -1.0869388835 3.0573907193
H 0.7207397053 0.2669419739 2.6682150930