21

C -0.2649629298 1.5520518529 -0.0244933359
C 0.0404539481 0.0584282283 -0.0404115700
C 0.6405125218 -0.5983968310 -1.2939713816
C 2.0745865438 -0.2033177031 -1.5863336200
C 2.6707749473 1.1022795688 -1.4810791584
C 3.2247683922 2.1714207619 -1.4858607096
C 1.7855391070 -1.1876406776 -0.4702476266
C 1.2262693034 -0.5516580199 0.8125693945
C 2.1132427973 0.3285534463 1.6860376317
H 0.6072034648 2.1566003836 -0.2772994933
H -1.0549705303 1.7862706575 -0.7470544268
H -0.6213786177 1.8623432515 0.9641972240
H -0.8748312887 -0.4829883882 0.2212109443
H 0.0564703871 -1.0719291026 -2.0756152732
H 2.4369655604 -0.7314311159 -2.4677962809
H 3.6995061264 3.1209774744 -1.4663174274
H 2.2143696120 -2.1824309567 -0.5231908537
H 0.8143514664 -1.3520067868 1.4363409273
H 2.5595265629 1.1522088538 1.1270285598
H 1.5379841348 0.7513542520 2.5173848700
H 2.9285367508 -0.2629891890 2.1178240558