18

C 0.0651691796 -1.2319600587 -0.4081537197
C 0.0525734425 -0.0495117521 -0.1907546201
C -0.0171939600 1.3649271804 0.0899638426
C 0.2536772604 2.3438421979 -1.0150715213
N 1.2689564693 2.0883941582 -0.0050374382
C 1.5444797318 3.1556092956 0.9628342190
C 0.3546237386 3.7328203335 1.6814097670
C -0.8119304487 3.0991461927 1.7630358420
C -1.0434329688 1.7419747159 1.1616217691
H 0.0951514756 -2.2742990922 -0.6080513784
H 0.4845249779 1.9805936956 -2.0122491520
H -0.2981498163 3.2813851792 -0.9736689836
H 2.2564641544 2.7513302005 1.6963651566
H 2.0849482650 3.9462076740 0.4265134053
H 0.4908797631 4.7015805708 2.1553105683
H -1.6432537065 3.5435535616 2.3034270594
H -2.0510249352 1.6736986271 0.7327171590
H -1.0108546227 0.9815546401 1.9535745948