15

C -0.0187839264 1.4541235701 -0.0200619110
N -0.0136912401 -0.0103797248 -0.0033997851
C -0.0581535006 -0.6531345854 1.2183156424
O -0.1012826297 -0.0924073434 2.2894931393
C 0.0359246957 -0.6802825362 -1.2346539171
C 0.0416552839 -2.1951528809 -1.2207865702
N 0.0729837982 0.0402416638 -2.2868055705
H 0.8826014393 1.8249317318 -0.5117528368
H -0.8817933033 1.8179237357 -0.5809178965
H -0.0605486948 1.7884863585 1.0144450694
H -0.0508459837 -1.7493649872 1.1321953393
H -0.8591002853 -2.6039786272 -0.7525467871
H 0.0831959211 -2.5561355639 -2.2497571276
H 0.9065033163 -2.5968335953 -0.6837622604
H 0.1071070893 -0.5469915359 -3.1176467581