14

N 0.0121244162 1.4149120667 0.1628835415
C -0.0330400961 0.0350371005 0.0640402744
C -1.1673143312 -0.7043390343 0.0408245007
F -2.3907624846 -0.1671662008 0.0460044734
N -1.1674490900 -2.0730173812 -0.0007385176
C 0.0091122983 -2.7627970221 -0.0186089400
C 1.1971289130 -2.1053370516 -0.0074259367
C 1.2694063968 -0.6571322937 0.0206571110
O 2.3112004071 0.0028296356 0.0004784495
H 0.9453281673 1.7380669133 -0.0714286404
H -0.7295476678 1.9212609907 -0.2968063643
H -2.0570400820 -2.5442920115 -0.0115348121
H -0.0815547365 -3.8407471768 -0.0454043112
H 2.1268548996 -2.6587113449 -0.0337280182