16

O 0.0784452955 1.3669407340 0.1747065133
C 0.0575427414 0.0222476646 -0.0003510372
C 0.0792162107 -0.7906233920 -1.1082104414
C 0.0180455846 -2.1411874239 -0.6278855928
C 0.0709746288 -3.3900801409 -1.4622183633
C 1.5025706026 -3.8832489367 -1.6064582638
O 1.8690605819 -5.0074396179 -1.3815052379
C -0.0288444709 -2.0882757884 0.7442103230
N -0.0066763355 -0.7566525113 1.1159683386
H 0.1298067464 1.7848463740 -0.6899827034
H 0.1202155295 -0.4699668577 -2.1381993435
H -0.5260267216 -4.2019473447 -1.0378569796
H -0.3123823769 -3.1827336706 -2.4707008036
H 2.2195439062 -3.0942211782 -1.9307807102
H -0.0787746780 -2.8713950627 1.4824694024
H -0.0511417246 -0.3958964776 2.0530584093