18

C -0.0380351192 1.5522828636 -0.2081711858
C 1.5089626241 1.5431729186 0.1016341606
C 1.3259194278 0.1123630973 0.6461657859
C 0.7373509062 -0.2640098943 2.0251544551
C -0.3103955544 -1.0088529195 1.1557542210
C 0.5568534783 -1.9545054628 0.2628977367
C 0.5511374554 -1.0809593498 -0.9284281193
N 1.7908869509 -1.1378382499 -0.0618609013
C -0.0616529683 0.0167375093 -0.0193878684
H -0.6180151324 2.0753637171 0.5569375399
H -0.3509131607 1.9284866544 -1.1851234951
H 2.1200332828 1.5546270824 -0.8044522282
H 1.8892948094 2.3019065502 0.7897323277
H 1.3507811636 -0.8413381671 2.7220633079
H 0.3141863563 0.6065968801 2.5344477700
H -1.2668296582 -1.3862438749 1.5194004789
H 0.6731927942 -3.0271079095 0.3347097599
H 0.5436950042 -1.3077984254 -1.9881652754