17

N 0.0437036429 1.1942551019 0.4886572124
C -0.0210899745 0.0618734893 -0.0641028240
O 0.9559858136 -0.4567297435 -0.9083548897
C 0.8600494042 -1.9023810657 -0.9866545473
C -0.5398998738 -2.2153358672 -0.5242158735
C -1.1145426653 -3.0334364527 0.6511898175
C -1.7069168944 -1.7034532160 1.2508969688
C -1.0867856146 -0.9513711839 0.0637922679
N -1.6433415779 -1.5209598655 -1.1825659106
H 0.9374628741 1.6433160181 0.2814855028
H 1.0892519725 -2.1840785303 -2.0190051470
H 1.6083592171 -2.3533239884 -0.3237826974
H -1.8266617512 -3.8110071721 0.3692970344
H -0.3336616431 -3.4629887981 1.2820728446
H -2.7935239093 -1.6362731221 1.3189545682
H -1.2592330855 -1.4297183897 2.2067723319
H -1.2840388648 -0.9892871043 -1.9737536391