16

O -0.0221427413 0.2835455186 0.5625083081
C 0.0964690320 1.4210580097 0.1470754530
C 1.3217897920 1.9725384015 -0.4112815393
C 1.5311724712 3.3161619185 -0.5658765087
C 1.4863124776 4.1447606494 0.7126840160
N 3.0021158849 3.8764927706 0.7467298077
C 3.5246910018 2.5504466019 0.1001294635
C 2.6716093953 1.3066539576 -0.1871388700
C 3.0151454719 3.6546565396 -0.7209244578
H -0.7698377455 2.1195974024 0.1366729474
H 1.3826190184 5.2281466777 0.6156644635
H 0.8992070455 3.7621804997 1.5499452897
H 4.5774928051 2.4607567309 0.3492457910
H 2.5611059579 0.6018717609 0.6424979266
H 3.1209540228 0.7549576185 -1.0234533738
H 3.5065776503 4.3148366027 -1.4259456070