17

O 0.0458445870 1.3495343259 -0.1024964203
C 0.0682780131 -0.0197636301 -0.0251773658
C -0.2380345132 -0.8815337496 -1.2466908147
C 0.4411517480 -2.2363030253 -1.0342634768
C 0.0434869064 -2.0733727364 0.4622440407
C -1.0712726788 -1.0363636222 0.0125933048
C 0.8849750400 -0.8691059010 0.9125366895
C 2.2003059121 -0.7160338489 1.5237470796
O 0.9840155892 -0.4831100792 2.2749156962
H -0.1072258631 1.6812871151 0.7909903128
H -0.5305875684 -0.4041338259 -2.1735532487
H -0.1188377668 -3.0405779432 -1.5191027605
H 1.5088564748 -2.3367144182 -1.2617226946
H -0.0956206108 -2.9205237356 1.1290517281
H -2.1280629577 -0.9396303165 0.2085980560
H 2.7676478498 -1.5935533048 1.8310780939
H 2.7941600084 0.1741263859 1.3217228898