19

C 0.1235395694 1.5799053457 -0.1138243768
C 0.0913004346 0.0578226846 -0.0133602463
C 0.6694521182 -0.6865435785 -1.2464849414
C 1.1887943722 -2.0138857067 -0.7105438964
N 2.5051736886 -1.8749998084 -0.0619346242
C 1.2961935262 -1.9393387615 0.7711370189
C 0.8141898255 -0.5601145853 1.2429863336
C 1.9058664920 0.2606195301 1.7716311707
N 2.7429866453 0.9218948932 2.2164032487
H 1.1499998904 1.9485860768 -0.2003266556
H -0.4337263940 1.9140080321 -0.9948616997
H -0.3271821361 2.0515714377 0.7651929543
H -0.9526785593 -0.2618930154 0.0895117293
H -0.1001877512 -0.8249738858 -2.0112127670
H 1.4924488062 -0.1225563861 -1.6970379734
H 0.9449794762 -2.9446816795 -1.2123220565
H 2.9863941121 -2.7705282621 -0.0341550550
H 1.1387376251 -2.7961852887 1.4170712920
H 0.0879208085 -0.6761648522 2.0545673045