16

C -0.1564085395 1.6004202337 0.0095953863
C 0.0441454728 0.0844006327 0.0163176008
N 0.9017521476 -0.3999406470 -1.0509249941
C 1.8655906690 -1.3001858253 -0.6642918227
O 2.6320186943 -1.8896083677 -1.3798740808
N 1.8150795907 -1.4299454082 0.7787154537
C 2.2136869411 -0.1565913702 1.4295373958
C 0.7820076982 -0.4790022453 1.2335305976
H 0.8006732810 2.1245988290 0.0764041006
H -0.6629846854 1.9243373147 -0.9054852386
H -0.7794323940 1.9022689175 0.8574181451
H -0.9438467372 -0.3975662989 -0.0353422133
H 0.7277487671 -0.2345440398 -2.0285720879
H 2.6616202099 -0.2757597956 2.4108250735
H 2.6735683323 0.6019181945 0.8021092359
H 0.1818453220 -0.7950624040 2.0802407080