19

C -0.1017643180 1.5971508587 -0.0898817612
C 0.0527312890 0.0758823408 -0.0324497883
C 0.8283243211 -0.5301716458 -1.1845256825
C 1.5991402255 -1.5447831716 -0.8047319487
C 1.4745559313 -1.8263476239 0.6773869134
O 2.6607210337 -2.2128433922 1.3293426192
C 0.8096175629 -0.5007417154 1.2153460048
C 1.8419437053 0.3976778981 1.7208530521
C 2.7261139976 1.1013031390 2.1358076086
H 0.8713289656 2.0939732166 -0.1165484412
H -0.6598579131 1.8859135469 -0.9867479166
H -0.6491119418 1.9736102863 0.7801083353
H -0.9570001161 -0.3617450072 -0.0223165683
H 0.7071211833 -0.1731888384 -2.2021758855
H 2.2157849288 -2.1648890993 -1.4450781485
H 0.7811044936 -2.6615033315 0.8437367789
H 3.2253301213 -1.4306481373 1.3854065783
H 0.1129458204 -0.7209295220 2.0305209059
H 3.4828959795 1.7426185184 2.5156283342