16

C -0.0308766921 1.5800917236 0.0115039337
C 1.4782956506 1.8036829130 0.0113497436
C 2.0948396106 0.6697153261 0.7566262037
C 0.9613489706 -0.2448404712 1.2109171496
C 0.0307138087 0.0361800116 0.0099160518
C 1.0179176027 -0.1896782098 -1.1503988034
N 2.1345708275 0.6940166783 -0.7296179645
H -0.5149546637 1.9898805810 0.9037472714
H -0.5255066949 1.9897209055 -0.8748966611
H 1.9298256066 2.7848084507 -0.0705086216
H 3.0432735923 0.7369199386 1.2754169286
H 1.2605337745 -1.2952189267 1.2840887070
H 0.5317591157 0.0647308941 2.1690268300
H -0.9166356635 -0.4993730677 -0.0212332717
H 1.3700351518 -1.2225697733 -1.2329007624
H 0.6335124725 0.1320587663 -2.1232173648