22

C -0.0497623642 1.5244811537 -0.3588583531
C -0.0283219788 0.1076162973 0.2289324195
C -1.3923075584 -0.5493136828 0.1601459932
C -1.8462730655 -1.3290532219 -1.0397262757
C -1.5954601822 -2.0623316762 0.2753198364
C -0.4266229328 -3.0384087405 0.3929860667
C -0.7604848359 -4.4400318362 -0.1295764607
C -2.7700042754 -2.4652144021 1.0118874871
N -3.7025212647 -2.7943215589 1.6137115337
H 0.9389845749 1.9887421995 -0.2984493962
H -0.3533926985 1.5103769518 -1.4106980215
H -0.7539329921 2.1661641692 0.1813206382
H 0.7117231922 -0.4938580966 -0.3090467943
H 0.3051844800 0.1484404850 1.2733582698
H -2.1729460395 0.0275821171 0.6497849905
H -2.8675204292 -1.2259450801 -1.3864033376
H -1.1187588611 -1.5182871820 -1.8233385273
H 0.4248572290 -2.6345512571 -0.1619441789
H -0.1156948175 -3.0980921117 1.4426424722
H 0.1013510750 -5.1055230397 -0.0253920785
H -1.5954115044 -4.8795096718 0.4242588530
H -1.0395026810 -4.4099278960 -1.1878757765