20

C 0.0880836263 1.4926416010 0.0111463390
C -0.0377200179 -0.0095512082 -0.0082922735
C -0.8618077829 -0.7323605891 0.9978923210
N 0.6106038663 -0.7732136889 1.0914862520
C 1.1847213945 -1.9937670783 0.5007951469
C 0.5810831287 -2.1457273414 -0.8936925157
C 0.8470996767 -3.2634608887 -1.7990113972
O -0.3876260977 -3.1911751685 -1.0797059268
C 0.1821579561 -0.7429646488 -1.3289973653
H 1.0535483271 1.8115145609 -0.3982539202
H -0.7015190280 1.9583054380 -0.5895652379
H 0.0113853106 1.8731546376 1.0327504091
H -1.3444835396 -0.1725298542 1.7942043323
H -1.3882408750 -1.6332836191 0.6921266820
H 2.2712367543 -1.8583978349 0.4384489716
H 0.9811488899 -2.8714283301 1.1209625009
H 0.7708563951 -3.1185473562 -2.8763936641
H 1.5227096363 -4.0614445926 -1.4910283618
H -0.7004874063 -0.7660239612 -1.9735899915
H 0.9971913354 -0.2631925474 -1.8857611710