18

O 0.0004488949 -0.0102034659 -0.3174312401
C -0.0019995974 1.1661854853 -0.0495909981
C -1.2807032248 1.9506043476 0.2597616885
C -1.0181456606 3.4237853993 0.5191639798
C 0.0895242810 4.1219607885 -0.1913413136
C 1.0578574503 3.2219052309 -0.9413888966
C 1.2319211868 2.0379692886 0.0436975214
C 1.1690106415 2.7699446392 1.4126494014
N 0.1858003915 3.8565550769 1.2631353596
H -1.9780244326 1.8244481555 -0.5767876303
H -1.7647126385 1.4797509274 1.1243786760
H -1.8994614612 4.0038153962 0.7805307706
H -0.0119002452 5.1599765904 -0.4923051740
H 0.6862716058 2.9081862611 -1.9224172094
H 2.0145138372 3.7316818430 -1.0971902984
H 2.1333808638 1.4458755968 -0.1166091734
H 0.8907410249 2.1097521529 2.2406653133
H 2.1392184727 3.2166643063 1.6533240133