17

C -0.0782245111 1.5881318114 -0.0957790997
C 0.0778035667 0.0831878512 -0.0108107539
O 0.9176514726 -0.4145802196 -1.1364008782
C 2.0671532190 -0.5069085768 -0.4249956138
N 2.9612123383 0.3922711501 -0.3633771025
C 3.3380045601 0.4277884899 1.0664902634
C 2.2277629119 -0.3874655096 1.7404229551
C 0.7734780271 -0.5054985870 1.2579211362
N 1.8374894585 -1.3778680994 0.7271024901
H 0.9019800268 2.0702684037 -0.1263618408
H -0.6339564624 1.8676258179 -0.9944213912
H -0.6243843768 1.9545549954 0.7803268158
H -0.8825729434 -0.4279116189 -0.1198572857
H 4.3095068092 -0.0405168465 1.2755949602
H 3.3995664896 1.4749409051 1.3781473717
H 2.4070047954 -0.7696408859 2.7429647253
H 0.0924419685 -0.9566360409 1.9769403479