14

C -0.0256103010 1.4652582872 -0.0216906317
C 0.0182426097 -0.0256219447 -0.0443630245
N 0.0430321942 -0.7662214932 -1.1254113779
C 0.0792595147 -2.0469828157 -0.6227306611
O 0.1127655075 -3.1101975091 -1.4244470016
N 0.0790205352 -2.1623622192 0.6811402753
N 0.0390584279 -0.8398808431 1.0667049551
C 0.0238480815 -0.4517521793 2.4125990015
O 0.0433037250 -1.2049668149 3.3417476719
H 0.8459184436 1.8891281161 0.4869049194
H -0.0333745567 1.8201355012 -1.0525655898
H -0.9231064959 1.8371826147 0.4823575457
H 0.1056506514 -2.7804006407 -2.3314535889
H -0.0087625571 0.6480984508 2.5012627066