14

C 0.0251578637 1.5062918750 0.0072362321
C -0.0371890822 0.0121042351 0.0176467950
C -1.1809720477 -0.6943672674 -0.1180509575
C -1.1742555748 -2.1363181739 -0.0998284571
N -2.1724915660 -2.8991189556 -0.2161066138
O 0.1275803445 -2.6996865846 0.0717064596
C 1.1663321462 -1.8848425668 0.1927128486
F 2.2608785088 -2.5857479374 0.3396123669
N 1.2022010989 -0.6188502971 0.1816255776
H 0.6827248496 1.8472672291 -0.7997989862
H -0.9629199320 1.9511059609 -0.1222285937
H 0.4638030837 1.8684826665 0.9433572018
H -2.1436055395 -0.2189921271 -0.2453673015
H -1.9057448233 -3.8817253168 -0.1702878421