18

N 0.1415790446 1.1108142685 0.6848110023
C -0.0056232852 0.0622282566 -0.1734397642
O 0.8772387880 -0.2898909215 -0.9354606388
C -1.3528990072 -0.6476110596 -0.1241276937
C -2.0369341209 -0.5858678756 -1.5053204813
O -3.2069469345 -1.3877497644 -1.5180286122
C -2.9123567849 -2.7180192865 -1.1833779183
O -2.3812111931 -2.8421848253 0.1092064250
C -1.1567294856 -2.1362049681 0.2292285585
H 1.0165896900 1.6096188540 0.6853507604
H -0.5857651346 1.4019278238 1.3130179348
H -2.0201931598 -0.1961122875 0.6179741108
H -2.3524213102 0.4314253665 -1.7511313872
H -1.3204333584 -0.9247619251 -2.2684550763
H -3.8545333352 -3.2688531829 -1.1976289937
H -2.2042668221 -3.1417258756 -1.9214324099
H -0.3924872360 -2.5590890664 -0.4398504407
H -0.8232068250 -2.2621927509 1.2625376645