14

O -0.0113522232 0.0453446314 0.2787789841
C 0.0416976545 1.1964147967 -0.0552295925
C 1.3408873006 2.0119218179 -0.0539471644
C 1.4819609237 2.9002481050 1.2449036851
C 2.6093156405 1.9125906158 1.6317800889
O 3.3045535583 1.7424562007 2.5909280067
N 2.5052734752 1.2608191509 0.4195158603
C 1.4847487663 2.6949159991 -1.3312319176
C 1.5474612215 3.2384820860 -2.4014032042
H -0.8494595870 1.7663759184 -0.3923780520
H 1.7993548357 3.9253941608 1.0556218732
H 0.6206140052 2.8859984029 1.9151924163
H 2.7838704326 0.3237759152 0.1632251670
H 1.6264029162 3.7261785291 -3.3422176408