19

O 0.0066970859 1.1792577328 -0.3998271965
C -0.1649657484 -0.2372838154 -0.3329641089
C -1.5892185523 -0.4744997212 0.1763662697
O -1.7417612168 0.2066175524 1.4134471327
C -2.6504893469 -0.0220744553 -0.8784206374
C -3.0761557105 -1.2889824395 -1.5838495085
O -1.9782676844 -2.0900157416 -2.0570427993
C -2.6121005217 -2.4528227514 -0.8188770466
C -1.8627494016 -1.9833346708 0.4073294579
H 0.9283614632 1.3690985656 -0.5936755122
H -0.0331415762 -0.7113373169 -1.3122709051
H 0.5446739351 -0.6795892072 0.3813896616
H -1.2906194150 1.0538534214 1.3015369113
H -3.5067047495 0.4064819453 -0.3469777041
H -2.2557429352 0.7410584011 -1.5544636980
H -3.9639497409 -1.3102498406 -2.2109562945
H -3.1241627230 -3.4114916320 -0.8252049298
H -0.9437239222 -2.5507612366 0.5873837265
H -2.4954496796 -2.0869350301 1.2952350211