20

C 0.0439771703 1.5359873682 0.0139182175
C 0.0241617172 0.0063156212 0.0663158696
O 0.7565082284 -0.4917443580 1.1850864226
C -1.3787272388 -0.5546498503 0.0336432540
C -2.3790006629 -0.3716819292 1.2179872564
C -3.0295003908 -1.6579930537 0.7161898379
C -1.8038343910 -2.0788191149 0.0027318327
N -3.0046704620 -1.6915342108 -0.7912528392
C -2.3197260656 -0.4163671192 -1.1795175171
H 1.0749935849 1.8981617891 0.0406404918
H -0.4321799122 1.9096691081 -0.8982669086
H -0.4924079666 1.9636856533 0.8698407885
H 0.5676451000 -0.3845070144 -0.8037166174
H 0.3980950241 -0.0766570308 1.9770509736
H -1.9024074260 -0.5468386157 2.1869475981
H -2.9697003667 0.5506506657 1.2524783203
H -3.7896955331 -2.2638342926 1.1909465895
H -1.2750423812 -3.0176929522 -0.0911558179
H -2.9663947213 0.4675488238 -1.2413744949
H -1.8167385368 -0.5757117978 -2.1379372276