19

N -0.1398643386 1.2821591108 0.0101169875
C -0.0704650253 0.0226967160 0.0031963668
O -1.1982855100 -0.7146470295 0.0088149663
C -1.0242940342 -2.1305151455 -0.0001311040
C -2.4090912186 -2.7608155296 0.0091038047
C -2.3413923938 -4.2808050355 0.0004026372
O -3.6817291828 -4.7691104197 0.0099282112
C -3.8261315601 -6.1088198067 0.0063041717
N -4.9796244463 -6.6192322649 0.0128599708
H 0.7959603889 1.6822577649 0.0043431266
H 0.8490001895 -0.5801246962 -0.0075546553
H -0.4627891239 -2.4340727454 -0.8954206502
H -0.4467192853 -2.4433320732 0.8816460170
H -2.9552257961 -2.4260890395 0.8962706931
H -2.9712005363 -2.4167155128 -0.8643922815
H -1.8161371472 -4.6434153412 -0.8949167253
H -1.8000277095 -4.6528650331 0.8821485481
H -2.8713544792 -6.6540152314 -0.0030898160
H -4.9108387712 -7.6346778174 0.0084932211