21

O -0.1383531005 1.3755558492 0.0231952684
C 0.0142262882 -0.0073680799 0.0311095192
C 0.8982715311 -0.8009070046 -0.9832630546
C 0.7050494321 -1.9269887548 0.0748531697
C 0.7521549146 -0.8047983429 1.1534989036
C -0.8099601225 -2.2154686080 -0.0292782958
C -1.3114224351 -0.7575717384 -0.0609014864
C -2.5544375785 -0.2621098145 0.6148467722
C -2.4510077651 -0.2593542123 -0.8977572832
H 0.7321487069 1.7805223639 0.0833589400
H 0.5102708625 -0.9579719609 -1.9932681238
H 1.9280726423 -0.4333063361 -1.0185123515
H 1.3780891871 -2.7815905368 0.1193189810
H 1.7674772971 -0.4375761698 1.3299373744
H 0.2303154644 -0.9654302846 2.1007080197
H -1.0650905494 -2.7719400888 -0.9369534269
H -1.1861343016 -2.7751775320 0.8331862842
H -3.2093857460 -0.9901826347 1.0831405817
H -2.5067087507 0.6976938600 1.1180068481
H -2.3354840050 0.7022518035 -1.3862635111
H -3.0359280520 -0.9855747678 -1.4534722690