18

O 1.4930225439 2.3676774956 2.0934648393
C 1.8455169580 2.4128015263 0.9437185576
C 1.0735832071 1.8334771687 -0.2247384560
C 0.7477591950 2.9189901291 -1.2392720868
C 1.7327089039 3.3421449143 -2.2818399552
N 0.5017123696 2.6610409786 -2.6574405885
C 0.5257229526 1.3052318892 -3.2230528838
C 1.7676869790 0.5303764789 -3.1316397255
C 2.7985971330 -0.0888215300 -3.0907639823
H 2.7990559130 2.9114534882 0.6534326014
H 1.7000455962 1.0622903405 -0.6871856750
H 0.1638153589 1.3635306907 0.1612633303
H 0.0782990960 3.6821244181 -0.8437947226
H 1.8094136507 4.3823480212 -2.5872706548
H 2.6613068431 2.7773125280 -2.3388866753
H -0.2956667700 0.7394551001 -2.7675164039
H 0.2721966053 1.4078407814 -4.2855577679
H 3.7008080346 -0.6486038691 -3.0536124808