15

C -0.5228944156 1.4893782898 -0.0530462503
C 0.2283946191 0.1878436588 0.0145720220
O 1.1673101357 0.0830632319 -1.1129948785
C 2.2101575836 -0.5259677303 -0.5009356634
C 2.1454640465 -0.5374583628 0.8362831354
O 0.9815349306 0.0905871438 1.2461311614
C 3.3925183315 -1.0444914405 1.2975674213
C 4.0980679856 -1.3030095610 0.1498046733
O 3.3668216807 -0.9720861724 -0.9878268115
H 0.1767150291 2.3265918187 -0.0029991028
H -1.0890803294 1.5454935876 -0.9860327832
H -1.2188381648 1.5522306974 0.7873594103
H -0.4280432047 -0.6938952527 -0.0498591012
H 3.7379381890 -1.2167125224 2.3038730495
H 5.0535327131 -1.7567644059 -0.0440090523