12

F 0.2509098467 0.1876669451 -0.5141320577
C 0.1159433681 1.4632466453 -0.2250231166
N -1.1074866981 1.9416358389 -0.2465201180
C -1.2397103846 3.2370614360 0.0477059371
C -0.1412603644 4.0365880848 0.3600485480
N 1.0920585297 3.5378042071 0.3777961107
C 1.2458992433 2.2426049386 0.0860328701
C 2.6484021856 1.7361560819 0.1207335421
O 2.9901596665 0.6047030540 -0.1111537219
H -2.2470217403 3.6438540115 0.0330608900
H -0.2607255194 5.0890507087 0.5977380526
H 3.3639004268 2.5406341979 0.3917779135