17

O -0.0730466448 -0.0371142375 0.4354705963
C -0.0057949319 1.1178704382 0.1055528787
C 1.2939337044 1.9094614698 -0.0218905059
C 1.4669825964 2.8229994070 1.2323681960
C 2.4795423301 2.0342747916 2.0731206139
O 3.3623438902 1.4727255911 1.1208352903
C 2.5695735509 1.0113346274 0.0391520101
C 1.2764403764 2.7409307328 -1.2892959091
O 0.4218262822 2.6900736209 -2.1354262953
H -0.9175136242 1.7150264312 -0.0965915833
H 1.8928868741 3.7874083380 0.9349957450
H 0.5210130726 3.0163964397 1.7460563209
H 3.0632866104 2.6583628649 2.7539444011
H 1.9706908300 1.2514918748 2.6570969479
H 2.2453897058 -0.0258824409 0.1882528777
H 3.1779498717 1.0691705265 -0.8687760445
H 2.1547946857 3.4199375146 -1.3879281599