15

O -0.0645019360 0.0040939335 -0.2098974953
C -0.0093496178 1.1792370635 -0.0220090429
N -1.0097334868 2.1678079165 0.1395020139
C -0.0712209878 3.1843106469 0.5839125269
C 0.6091900140 3.2841405537 1.9429331441
N 1.8221484329 3.3557367662 1.0228441433
C 1.0076837855 4.1917763262 -0.0210729722
C 1.3702706385 3.2651523003 -1.1697120826
C 1.0613455042 2.3439784800 0.0182066760
H -1.9949746983 2.0199365338 0.3247377899
H 0.4628013418 4.1928291884 2.5334693743
H 0.6094051097 2.3931041642 2.5795527738
H 1.0301518682 5.2820548292 0.0492763283
H 0.6725958850 3.2221591368 -2.0080360997
H 2.4108371068 3.2891120607 -1.4987839380