18

C -0.2245340035 1.4152995960 -0.0797076555
C -0.1011290349 -0.0800166684 0.0024659131
N -0.0561784531 -0.7710206669 1.0779171904
O -0.0982198884 0.0384598761 2.2168556296
C -0.0091032775 -0.8588921560 -1.2541031310
C 1.0725584845 -0.7948907363 -2.3779255896
C -0.1269548867 -1.6356544771 -2.8658836886
C -0.1647556190 -2.3748376672 -1.5072949314
O -1.0402566219 -0.6086969401 -2.3080514462
H 0.7387966855 1.8952378667 0.1287084896
H -0.5563926382 1.7111580224 -1.0761603897
H -0.9321512588 1.7771862280 0.6695623717
H -0.0943387187 -0.6104387198 2.9287595147
H 1.1855532586 0.1763816701 -2.8608030086
H 2.0239563045 -1.3001422647 -2.1939535946
H -0.3492626672 -2.0074897105 -3.8651407809
H 0.6731905892 -3.0241554239 -1.2458948521
H -1.1334161442 -2.7875156486 -1.2265298407