19

N 0.5694864020 0.2259960510 0.8014877471
C -0.1948545602 0.4085738865 -0.3090515114
O 0.0550107592 1.2238139994 -1.1768083218
C -1.4439330518 -0.4763998209 -0.3485806411
C -2.0203058914 -0.6947609668 -1.7630898667
C -2.7211766213 -2.0649450273 -1.6523751625
C -1.9563822862 -2.7832240886 -0.5491730913
C -0.4739512257 -2.7367643332 -0.5992676292
N -1.2151295564 -1.8034693984 0.2735546678
H 1.4304893408 0.7404119216 0.8854413315
H 0.3753237805 -0.5432943957 1.4213130821
H -2.1968287382 0.0179615490 0.2801734637
H -2.7010115291 0.1070049717 -2.0524382272
H -1.2181765346 -0.7014219877 -2.5041968263
H -3.7664663129 -1.9458943829 -1.3462253911
H -2.7203538654 -2.6190092992 -2.5959289437
H -2.4500309287 -3.5874666967 -0.0110987126
H 0.1073823522 -3.4799283106 -0.0620997487
H 0.0080661873 -2.3500683313 -1.4934262686