15

C 0.0717309466 1.4467245686 0.0165282953
N -0.0013392114 -0.0046428190 -0.0062654154
C -1.1578537182 -0.6917575473 -0.1263506012
C -1.1899477588 -2.0543334354 -0.1446154511
C 0.0265674790 -2.8211822346 -0.0349270932
O 0.1280624454 -4.0395760950 -0.0386102478
C 1.2126183509 -1.9255019452 0.0903027549
O 2.3964794489 -2.5411238207 0.1985177358
N 1.1981195840 -0.6269240991 0.1033411665
H 0.6873587869 1.8057617844 -0.8129965356
H -0.9344151792 1.8567353988 -0.0762782803
H 0.5163146091 1.7864627295 0.9561571397
H -2.0513962872 -0.0834602369 -0.2064358501
H -2.1314382006 -2.5789875901 -0.2419112220
H 3.0726095445 -1.8524412281 0.2718918848