19

N -0.0346616961 1.2782538089 0.2261264821
C 0.0152612697 0.0364149133 -0.0210396501
C -1.2705159634 -0.7662192504 -0.0794488066
C -1.4192988571 -1.8000395298 -1.2035908006
N -0.6982714375 -3.0232074749 -0.8533724341
C 0.0907320064 -3.6917560433 -1.8770732879
C 0.7598639632 -2.9237977009 -0.7850215076
C 1.4353472710 -1.6140003851 -1.1035114208
O 1.2287767357 -0.6035855327 -0.1055874710
H 0.9152777325 1.6538509884 0.2785009281
H -1.3753971937 -1.3036686535 0.8717989130
H -2.0761278707 -0.0321248356 -0.1287242504
H -2.4777990206 -2.0621545556 -1.3036550015
H -1.1119139209 -1.3719098340 -2.1708498521
H 0.0770044480 -4.7778087980 -1.8561637895
H 0.1111021126 -3.2579427330 -2.8767040334
H 1.1975177148 -3.4658140744 0.0512239993
H 2.5194278118 -1.7541990969 -1.1296649782
H 1.1303470743 -1.2314130927 -2.0837704688