20

C -0.0145958092 1.4513078502 0.1007759672
N -0.0189338360 0.0009261527 0.0023663601
C -0.1114826178 -0.7075643484 1.2627750640
C 0.0426737683 -0.5846950655 -1.2370232782
O 0.1038789106 0.0739305903 -2.2635223731
C 0.0300626210 -2.1089594524 -1.2849418419
C -1.3147397131 -2.8370882956 -1.0093008148
O -1.3181306438 -3.4235035382 -2.3176415917
C -0.1067755827 -2.7238070509 -2.6902263334
H 0.8361669844 1.7935944100 0.7034516041
H 0.0603149821 1.8627260577 -0.9040116384
H -0.9362219318 1.8099518255 0.5766748683
H -1.0385442975 -0.4448908070 1.7898693202
H -0.1003456174 -1.7856701909 1.1157360914
H 0.7295498703 -0.4437783949 1.9178840405
H 0.8653477917 -2.5153877981 -0.7102891193
H -1.2967327126 -3.5932991780 -0.2137162057
H -2.1744791297 -2.1729294148 -0.8478436341
H -0.2749771503 -1.9823618688 -3.4757676026
H 0.6868815434 -3.4169273730 -2.9899103829