15

O 0.0192099810 -0.0224959927 -0.0780573209
C -0.0266185293 1.1827910762 0.0381162251
C -1.2813764560 1.9661303081 0.1150573509
C -1.2066080472 3.3025369893 0.1606426080
C 0.1609662862 3.9669841899 0.1888818167
O 0.6894139147 4.0276050424 -1.1360809972
C 1.3668779914 2.7852291492 -1.3410824277
C 1.2320185555 2.0602275383 0.0280266037
O 1.0602258553 3.1673154300 0.9160732888
H -2.2177310663 1.4185343243 0.0950219246
H -2.0890098576 3.9349209630 0.1430628247
H 0.1457959048 4.9735216999 0.6103190608
H 0.9130259832 2.2254054479 -2.1653304161
H 2.4160266600 2.9895304026 -1.5754906962
H 2.1079555243 1.4831778617 0.3212035346