27

C 0.0590981862 1.3968755971 0.0347643021
O 0.0152263627 -0.0031056135 -0.0802384499
C -1.2782757962 -0.5347996119 0.1381075987
C -1.1886332661 -2.0640480531 0.0499556748
C -0.3382652422 -2.5823370692 1.2221736499
C -2.5832775833 -2.7572473815 -0.1009643429
C -3.1959361006 -2.4085096806 -1.4737318807
C -2.4110765660 -4.2888026582 -0.0464560263
C -3.5644220928 -2.3297230182 1.0090919316
H 1.0894885518 1.7103296914 -0.1517470337
H -0.5991795591 1.8899974844 -0.6989264912
H -0.2388185846 1.7365187766 1.0399714187
H -1.6465406156 -0.2255744704 1.1313561573
H -1.9750912560 -0.1233538410 -0.6081037164
H -0.6343306177 -2.2746205349 -0.8751103297
H -0.8712613124 -2.5001956568 2.1762198650
H -0.0455200333 -3.6263161151 1.0895061387
H 0.5727925311 -1.9842431051 1.2973500541
H -2.5289934180 -2.7077367054 -2.2898930417
H -4.1467834032 -2.9345746202 -1.6123707894
H -3.3996422165 -1.3395270309 -1.5836556876
H -2.0992565048 -4.6326296157 0.9434104879
H -3.3584422629 -4.7852301060 -0.2830526251
H -1.6659467515 -4.6317281347 -0.7733230430
H -3.8043033781 -1.2630384610 0.9551320830
H -4.5069736281 -2.8801906831 0.9153681233
H -3.1650906128 -2.5346896431 2.0074818025