17

N 0.2119990443 1.3908464113 -0.0556343912
C 0.0523616271 -0.0264851137 -0.0260308289
C -1.0157466031 -0.8846797477 0.1309435109
C -2.4567522403 -1.3094966850 -0.0978640053
C -1.8511543899 -2.7498926196 -0.2674361773
N -0.5491191367 -2.1708786912 0.1254916820
C 0.8140717802 -2.2113945871 -0.1006615387
C 1.2020102352 -0.8845378092 -0.1289973630
O 2.4662897380 -0.4017505379 -0.1965346659
H -0.1568702143 1.8357017703 0.7781246966
H -0.2501264952 1.8158664746 -0.8532526250
H -3.1434262762 -1.1889858384 0.7448178501
H -2.9318915309 -0.9161465978 -1.0004850059
H -2.2122956256 -3.5331132945 0.4051469486
H -1.8723812031 -3.1109431989 -1.3001907643
H 1.3960088564 -3.1172046240 -0.0967944229
H 2.3594616841 0.5628757688 -0.1857065699