17

O -0.0662824742 1.3797638540 0.0614206310
C -0.0037826991 -0.0267118967 0.0265271288
C -1.4265648553 -0.6059684355 -0.1388560640
C -1.2593660659 -0.4267248088 -1.6715336870
C 0.2636897858 -0.6116268564 -1.4010453578
C 0.5633048046 -2.0886435264 -1.2610740407
O 1.4810899720 -2.6617936112 -1.7775688047
O -0.3076344660 -2.7787873363 -0.4719248315
C -1.3873235494 -2.0904482146 0.1941118450
H 0.8274163989 1.7240622308 -0.0397793175
H 0.6097150434 -0.4229492359 0.8475034152
H -2.2436615084 -0.1043379661 0.3835001951
H -1.7517127576 -1.1444043365 -2.3318501591
H -1.4803654096 0.5921036053 -1.9863780345
H 1.0060384529 -0.1404759203 -2.0442422717
H -1.2507204476 -2.2506825861 1.2696601115
H -2.3145023945 -2.5863004592 -0.1129621982