23

C 1.4617231518 -1.9007005220 2.5740849650
O 0.8491284718 -1.9127166939 1.3087026764
C -0.4548265071 -2.4540942182 1.3370007543
C -1.0256873445 -2.4032003681 -0.0764305672
C -2.4377309216 -2.9509210950 -0.1510663348
C -2.9564649252 -3.5363433830 -1.4417829581
C -2.6584475151 -4.4309113186 -0.2537089318
O -3.3776130371 -2.3022766137 0.6686818199
C -3.7485292487 -1.0094225275 0.2292934667
H 2.4573329843 -1.4659024271 2.4540049953
H 0.8945084570 -1.2944839283 3.2988252705
H 1.5660346700 -2.9161489760 2.9895954278
H -0.4332899032 -3.4950810597 1.7025841921
H -1.0978186305 -1.8858615549 2.0277266185
H -0.9918587519 -1.3667511980 -0.4324453743
H -0.3781702469 -2.9800433887 -0.7450789121
H -4.0011424644 -3.3651219970 -1.6759312814
H -2.2973918315 -3.5730844825 -2.3024998312
H -1.7910292827 -5.0806195331 -0.2965589932
H -3.5062994540 -4.8324790605 0.2885605365
H -4.5496663220 -0.6697084785 0.8901843492
H -2.9185627345 -0.2917201152 0.2899803052
H -4.1195103642 -1.0240381304 -0.8051710832