17

N -0.2935923683 -1.1282392401 -0.1842618995
C -0.1783326868 0.0187464034 -0.0831685847
C -0.0405035685 1.4497868378 -0.0016282537
C 0.5281993959 2.0777923184 1.2468800290
C 1.0237878146 1.2798029092 2.3949076519
C 2.2973155327 0.8906079119 2.4342983662
C 3.2379340168 1.1835012817 1.2926676746
C 2.4909143895 1.2256306854 -0.0470827652
N 1.2906345613 2.0907719942 0.0066458829
H -0.7930363126 1.9911196281 -0.5693635735
H 0.0978065242 3.0457034115 1.5070183687
H 0.3354259860 1.0837373425 3.2111580641
H 2.6833626109 0.3563036968 3.2972257534
H 3.7548533092 2.1364442437 1.4730689911
H 4.0212923446 0.4209629948 1.2342858802
H 3.1373085923 1.6237555022 -0.8353356456
H 2.2217694681 0.2018121084 -0.3301382498