15

O -0.1361055104 1.4131327188 -0.0164082084
C -0.0311998765 0.0449586549 -0.0123076137
C -0.2291968948 -0.8515615100 -1.1985363861
C -1.1592764228 -0.9575478588 0.0009491507
C -0.4901335540 -1.6890185654 1.1958931362
N 0.8588033532 -2.1387068027 0.8159718661
C 0.6381601403 -0.7133127737 1.1990401851
C 1.3064714968 -0.0950936503 2.2875219038
N 1.8617412167 0.4220595758 3.1627655848
H 0.6533958750 1.7835613145 -0.4294139652
H -0.6866971716 -0.3360783081 -2.0373489873
H 0.4609028117 -1.6468388214 -1.4486680264
H -2.2236417450 -0.7820046278 -0.0650330478
H -1.0093480648 -2.1088749864 2.0470362605
H 1.2753875862 -2.6110831293 1.6190425075