17

O 0.0212704104 0.6472150467 1.2072157098
C -0.0724522743 1.2507074346 0.1808381082
C -1.4363124492 1.6306273582 -0.4323974221
N -1.5703016169 2.7435231978 -1.3373414372
C -1.2438857653 4.0540712621 -0.8043210669
C 0.1888385174 4.1839250680 -0.2255781634
N 1.1514900606 3.7537424407 -1.2139108723
C 1.4219316152 2.5325406639 -1.3495560374
O 1.0696428612 1.4434213799 -0.5800102523
H -1.7704570151 0.7187284417 -0.9437052755
H -2.1024527037 1.7625210326 0.4262251728
H -1.0966040119 2.5766150015 -2.2157882698
H -1.3712527466 4.7813386021 -1.6111219634
H -1.9619173999 4.3085049468 -0.0153787602
H 0.3779997806 5.2333125618 0.0195809291
H 0.2639718521 3.6158301710 0.7141120102
H 2.1217739554 2.1974633305 -2.1119588597