18

C -0.0504718554 1.5510661683 0.0640628511
C -0.0001105896 0.0336097023 -0.0182061381
N -1.3375630466 -0.4942919866 -0.2256227774
C 1.1452237518 -0.5869704504 -0.9333997761
C 1.7260658192 -1.2826852832 0.2986489364
N 2.0784660952 -0.2194161657 1.2509396228
C 0.6679577023 -0.6908049939 1.1854286552
C 0.0182367094 -1.2541382728 2.3218942374
N -0.5043176307 -1.7183777252 3.2449326255
H 0.9274447014 1.9519560472 0.3356619173
H -0.3374910207 1.9732369336 -0.9062715841
H -0.7908830129 1.8660279754 0.8046516025
H -1.7400191550 -0.1016930709 -1.0716102918
H -1.3222192172 -1.5036195017 -0.3436888372
H 0.7277408224 -1.2813837251 -1.6656720547
H 1.8264779755 0.1106815768 -1.4263146642
H 2.1816317726 -2.2629565254 0.3654369359
H 2.5061152384 -0.6524976726 2.0696192993