18

C -0.1278038226 1.3833341219 0.0451164198
N 0.0373449270 -0.0466453942 -0.0003474980
C 0.0071799451 -0.9360091475 -1.0460037686
O -0.0369294217 -0.7739328498 -2.2372992897
C 0.0429599419 -2.1390120715 -0.0811653919
C 0.0442583950 -1.0697956695 1.0710004999
C 1.3020773135 -1.0443881281 1.9452912360
C -1.1706365524 -1.0493374411 1.8834952543
C -2.1634445698 -1.0070463526 2.5602175755
H 0.7364507955 1.8801115761 0.5011289576
H -0.2310379188 1.7337258694 -0.9845463114
H -1.0284872898 1.6555939622 0.6079904715
H -0.8442853358 -2.7712419886 -0.1199013227
H 0.9447405041 -2.7514219396 -0.1356832517
H 2.1954953189 -1.0651139304 1.3146474973
H 1.3287868188 -0.1426347250 2.5638017536
H 1.3172761871 -1.9103092032 2.6128997741
H -3.0454974960 -0.9807349284 3.1515900942