18

O 0.3197106757 1.4423943077 0.2188030484
C 0.0948492156 0.0622435536 -0.0207614657
C 0.7166377188 -0.7437086454 1.1964740713
O -0.3177004671 -1.4745000104 1.9073115064
C -1.4965105182 -0.9123443649 1.4291747484
C -2.9607444421 -1.2698402382 1.0729790966
N -2.7447621491 0.1245602245 0.4180323512
C -2.0590364137 0.4977845015 1.7451609400
C -1.3490263805 -0.4822769994 0.0009712838
H -0.1011124325 1.9356543906 -0.4935043668
H 0.5890762454 -0.2358518737 -0.9546960430
H 1.4631822769 -1.4714132316 0.8693086892
H 1.1895823408 -0.0171608583 1.8657917260
H -3.1365908550 -2.0722026425 0.3530134359
H -3.7162012087 -1.2454841672 1.8613188780
H -2.7620823171 0.5887008026 2.5763933649
H -1.3971964956 1.3563377856 1.6681404774
H -1.4827094734 -1.2471522544 -0.7684531521