14

F -0.1937737594 0.0577449310 -0.0894188891
C -0.0211134166 1.3740902050 0.0749770194
F 1.2993326111 1.6141948256 0.1410269804
F -0.4972261493 1.9809775567 -1.0194641370
C -0.6917058139 1.8694823529 1.3173127669
C -0.2725547580 3.0528513881 2.1269852044
C -0.3633484922 1.6851850870 2.7778916913
C -1.8296968312 1.2795998311 2.9032849814
O -2.0716917531 1.5730276125 1.4938856762
H 0.7402510859 3.4020752690 1.9603467359
H -1.0093993793 3.8218730709 2.3394271833
H 0.4806453431 1.1971091773 3.2441559623
H -1.9759747472 0.2124368839 3.0966765049
H -2.4682838698 1.8757398891 3.5635873096