21

C -0.0354859901 1.5444425021 0.0287147417
C 0.0016260872 0.0163940102 -0.0067628666
C 0.8211133385 -0.5210605351 -1.1768900846
C 1.9924804475 -1.2615486973 -0.6804502616
C 1.4241579222 -1.7154741076 0.6773598212
C 0.5358293305 -2.6889108333 -0.1555244797
N 0.9107071299 -1.9930594894 -1.4340466212
N 0.6991998237 -0.5497444246 1.1705945546
C -0.1464650180 -0.7922501849 2.3241576722
H 0.9796482738 1.9518343145 0.0178638921
H -0.5859734815 1.9411544333 -0.8307844394
H -0.5327228504 1.9001244124 0.9362949084
H -1.0354062550 -0.3596219876 -0.0679694456
H 0.8702330723 0.0583150658 -2.0920614135
H 3.0198029530 -1.1894281164 -1.0145135775
H 2.0799038384 -2.1400404806 1.4386090196
H 0.9275846287 -3.7084594722 -0.1957690928
H -0.5377536019 -2.7253741612 0.0609202248
H 0.4624090325 -1.1584141215 3.1573285120
H -0.6156055066 0.1432704732 2.6435709631
H -0.9531836847 -1.5269948098 2.1418381429