20

C -0.0607235245 1.5329031420 0.0500807340
N 0.0359229286 0.0855280106 0.0099202447
C 0.1021901718 -0.6067958452 1.2918514945
C -1.2873684715 -1.0364760676 1.8102628645
C -1.1776435370 -1.8238220029 3.0938857870
O -1.6755295684 -1.5053936575 4.1434593334
C -0.0383972790 -0.6894814535 -1.1210646490
C -0.1015883401 0.0149151617 -2.4685670904
O -0.0455478210 -1.9090871723 -1.0441226456
H -0.1357510955 1.9439614649 -0.9545420568
H -0.9457928780 1.8565971860 0.6132480212
H 0.8229517960 1.9691453840 0.5326246000
H 0.7292891369 -1.4920224831 1.1643233086
H 0.5848151599 0.0615121710 2.0122067381
H -1.9398380122 -0.1753187350 1.9786744508
H -1.7293520321 -1.6876538743 1.0461388376
H -0.5724844026 -2.7565295943 3.0079381122
H 0.7455485816 0.6903235604 -2.6217332411
H -0.0855173186 -0.7583970197 -3.2356173960
H -1.0207899644 0.5996887749 -2.5768875378