16

O 0.0442152499 0.0155735665 -0.5253592280
C 0.0461578661 1.1383121776 -0.1125445435
O -1.0907854603 1.7764521946 0.2913009845
C -0.8034319558 3.1167250866 0.7571867688
C -0.7126744994 3.0598625866 2.2827945413
C 0.6415458110 2.3409613759 2.4836815965
N 1.4869056093 2.7316004246 1.3210947202
C 0.6435131193 3.4126507463 0.3399167461
C 1.2107973900 2.0828952620 0.0146521509
H -1.5631940882 3.7826295076 0.3483249348
H -0.6722144689 4.0763672047 2.6882759148
H -1.5610648963 2.5379920437 2.7301837731
H 1.1528868375 2.6614431727 3.3938563457
H 0.5257294844 1.2541441219 2.5327184668
H 0.9573805943 4.3594501596 -0.0845758129
H 2.0760055773 1.8953412291 -0.6096915292