15

C -0.0174764883 1.5204200627 -0.0911097302
C -0.0066114253 0.0323320694 0.0422657889
N -0.0338492598 -0.7508217811 -1.0410804868
N -0.0155519301 -2.0433066143 -0.6121479893
C 0.0236065201 -2.1013153872 0.7426044735
C 0.0302138668 -0.7904039223 1.1917597595
N 0.0700411836 -0.9149585291 2.5708536457
C 0.0838714453 -2.2661054118 2.8296991942
N 0.0566724392 -3.0247292278 1.7490472511
H 0.8768135293 1.9730415798 0.3530123398
H -0.0498818866 1.7917025399 -1.1481704649
H -0.8882331384 1.9647993707 0.4050392401
H -0.0309741340 -2.7854913859 -1.2883937065
H 0.0865443628 -0.1850905850 3.2612591111
H 0.1145409154 -2.6410288181 3.8426140338