18

C 0.0241622216 1.5033364978 -0.1383461068
C 0.0699268471 0.0053745686 0.0456935585
N 1.3825485941 -0.6475406169 0.0244039567
C 0.5887654957 -0.6942464073 1.2735988287
C 1.1794771230 0.0782356650 2.4564678864
C 2.2166867681 -0.6663310650 3.1616963602
C 3.0712823574 -1.2806854781 3.7405855401
C -0.0538508170 -1.9382115225 1.6191617029
C -0.5876892004 -2.9774274846 1.9053882018
H 0.8954437011 1.9936780167 0.2998013350
H 0.0153139453 1.7443929641 -1.2067081781
H -0.8821136702 1.9255146429 0.3084053367
H -0.7475053693 -0.5248812214 -0.4405079603
H 1.3405003586 -1.5470090193 -0.4471554290
H 1.5970568256 1.0192636568 2.0882094286
H 0.3701190504 0.3339687601 3.1515888583
H 3.8275372140 -1.8234690054 4.2508580198
H -1.0531727051 -3.8963106316 2.1632888905