15

C -0.2101878511 1.2874677862 -0.1000613770
C -0.2774831526 -0.2071610683 -0.2674971406
O 0.0052562860 -0.8261317043 -1.2604975634
O -0.7106808491 -0.7960785064 0.8770171831
C -0.9489613108 -2.1894940027 0.7772641388
C -2.2363655972 -2.4680744685 -0.0152469586
N -2.4116001710 -3.7868481504 -0.3292712723
O -3.0414939097 -1.6024377603 -0.2750967488
H 0.3291480889 1.7247969720 -0.9393843611
H -1.2298100522 1.6843812544 -0.0744127226
H 0.2696000689 1.5502212071 0.8455645675
H -0.0971654474 -2.6949985639 0.3116440266
H -1.0688210142 -2.5481318209 1.8030401737
H -1.6331045251 -4.4248345148 -0.3289461290
H -3.1876259835 -4.0101344894 -0.9328947762