19

C -0.0143936665 1.3708910740 -0.1017997667
O -0.0206907429 0.0005814871 0.2243609922
C -1.2802526651 -0.6132599500 0.0830708376
C -1.7193891662 -0.9502857062 -1.3774048169
C -1.8728746565 -2.5034702641 -1.2709894235
O -2.3804777525 -2.6348259320 0.0673975640
C -1.2546938867 -2.0418900934 0.7199975530
C -0.0794485268 -2.7866178133 0.0997141293
C -0.4716178727 -3.0849599317 -1.1385158095
H 0.9949347047 1.7448978950 0.0871623995
H -0.2636444885 1.5480218275 -1.1588670661
H -0.7259203375 1.9393257194 0.5179106553
H -2.0496635178 -0.0088237074 0.5839723471
H -2.6762539017 -0.4877766952 -1.6297859513
H -0.9710791174 -0.6431297966 -2.1113203102
H -2.5506047315 -2.9663959547 -1.9870950593
H -1.3668226121 -2.0703619700 1.8025235663
H 0.8868590524 -2.9289337717 0.5609755091
H 0.0978513353 -3.5330863768 -1.9412988598