18

C -0.1365505313 1.4823249933 -0.0303358344
C 0.0117824584 -0.0051974396 -0.0634111661
C 0.9470270563 -0.8441357559 -0.9398190658
C 0.1543853953 -2.0708400924 -0.4329593190
C 0.4620331621 -2.0536364896 1.0833912628
N -0.2730189494 -0.7595226351 1.2219891978
C -1.0189951133 -1.0701842696 -0.0312076867
C 0.0329643298 -3.3312862564 -1.2135861690
O 0.5757002116 -3.5378264567 -2.2714778960
H 0.7732804839 1.9541062071 0.3568875124
H -0.3228348146 1.8783864748 -1.0340235155
H -0.9671158047 1.7707091112 0.6192598229
H 0.7625504611 -0.6579139851 -2.0001110318
H 2.0236156069 -0.8252620960 -0.7405920042
H -0.0755696228 -2.8214969894 1.6466703331
H 1.5170855566 -2.0383999483 1.3798771007
H -2.0974299969 -1.0898039865 -0.1247796332
H -0.6180640689 -4.1046962659 -0.7437667380