21

C -0.0861847860 1.5163586280 -0.0420782494
C 0.0345642800 0.0102042820 0.0080648612
C 1.3465176311 -0.7001386989 -0.2354388698
C 1.4063539276 -1.9543757579 -1.0749064672
O 2.5029835255 0.0939866527 -0.3297420356
C 0.7459286572 -0.7134695640 1.1709295859
C 1.4177015151 0.0878226723 2.2803570858
C 0.1360064487 -1.9340462260 1.6312099848
C -0.3739124065 -2.9419969203 2.0475713396
H 0.8702041933 2.0042723733 0.1547246287
H -0.4251929501 1.8368414843 -1.0338767479
H -0.8157604761 1.8837015062 0.6871534626
H -0.8414984538 -0.5214207571 -0.3537999159
H 1.4559742418 -1.6984634610 -2.1409500420
H 2.2974905596 -2.5381347959 -0.8235870492
H 0.5270732262 -2.5814667423 -0.9165029553
H 2.5595417664 0.4228432326 -1.2340354655
H 1.9754459139 0.9332225741 1.8801428793
H 0.6714634076 0.4543363224 2.9920770666
H 2.1185464405 -0.5484815650 2.8284013750
H -0.8222269318 -3.8327042693 2.4115338983