14

C -0.1503369760 1.6197733320 0.0751987592
C 0.0738420437 0.1141740065 -0.0023875904
O 0.9707675378 -0.2129375507 -1.0534577543
C 1.7047785720 -1.3353691075 -0.6212686550
O 1.7903312938 -1.2486074035 0.8023783792
C 0.8114395376 -0.4306889521 1.2517576715
O 0.6012480734 -0.1752069973 2.3948701962
C -1.2025200095 -0.6187575387 -0.1638781374
N -2.1878185923 -1.2049370301 -0.3059658729
H 0.8167823332 2.1219824474 0.1454798142
H -0.6770396589 1.9716006154 -0.8137020052
H -0.7408120236 1.8502677861 0.9643279611
H 1.2066499722 -2.2775880843 -0.8859472794
H 2.7093633967 -1.2862326934 -1.0441485267