20

C 0.0669249376 1.3980043460 0.1635156582
O -0.0655649299 -0.0018364330 -0.0528842955
C 0.6158560808 -0.4773588730 -1.1520010651
C 1.5542995650 -1.6385134418 -1.0465688223
C 2.0747582955 -0.3311152206 -1.6095479458
C 1.6105349674 -0.1576468745 -3.0662082675
C 0.1516311535 -0.3254112622 -2.5931431434
C -1.0302498950 -0.9314433956 -3.2394886879
N -0.9355398040 0.5368294247 -3.0397489494
H 1.1038948951 1.6641034345 0.4059728424
H -0.2450145993 1.9847420955 -0.7096386645
H -0.5753655739 1.6464542535 1.0113205739
H 1.8750193975 -1.8522984053 -0.0318123801
H 1.4377201221 -2.5138833749 -1.6820358189
H 2.9001050711 0.1932591202 -1.1453810086
H 1.7829842158 0.8476007861 -3.4584446841
H 1.9841283776 -0.8972423245 -3.7819444647
H -0.9849203329 -1.2477644144 -4.2781561891
H -1.7215924276 -1.4960394279 -2.6186822634
H -1.5086888763 0.7933903173 -2.2377942542