15

C 0.0043225744 1.4255342314 -0.0197680167
O -0.0028913854 0.0050777788 -0.0031958593
C 0.5852915464 -0.6236051593 -1.0269477314
C 0.7066669733 -1.9970566388 -1.2207974872
C 1.4088673213 -2.0917489526 -2.4546165616
N 1.6971777159 -0.9129310630 -2.9773286704
N 1.1812188697 -0.0204019810 -2.0832212001
C 0.2385144887 -3.0291302226 -0.3828563617
C -0.1552045842 -3.9229901647 0.3223411559
H 1.0289900941 1.8190661760 -0.0074845133
H -0.5315667988 1.8167374275 -0.8943214982
H -0.5113256254 1.7428816045 0.8863779202
H 1.7049516018 -2.9974895819 -2.9626123722
H 1.2785175448 0.9621503866 -2.2674305065
H -0.5040600464 -4.7067104207 0.9470236627