18

C -0.2735801099 1.3855240676 -0.7530847843
C -0.0773623056 0.0520795291 -0.0698761713
C 1.1141391200 -0.7631252867 -0.3896979832
O 1.0463249774 -0.0262911921 0.8357536505
C -1.2961121525 -0.6106986982 0.4524617687
C -2.6108875581 -0.6121626055 0.0340670779
C -3.3379498395 -1.4579820208 0.9176316870
C -2.4489013534 -1.9393691321 1.8511508516
N -1.2136117399 -1.4276275910 1.5521407742
H 0.6876245274 1.7974742450 -1.0692152603
H -0.9115396951 1.2733888052 -1.6354848234
H -0.7558619632 2.0959388456 -0.0756302461
H 1.0628053867 -1.8459167060 -0.2879907093
H 1.8428537463 -0.3958968746 -1.1117986073
H -3.0049377467 -0.0801960872 -0.8180834978
H -4.3920931060 -1.6843816854 0.8716701771
H -2.5913764613 -2.5900627616 2.6988305176
H -0.3717142367 -1.5092605313 2.0977333483