18

C -0.2151215103 1.5483375890 -0.0890419057
C 0.0002476670 0.0308503962 -0.0245346040
C 0.8176245326 -0.5668472329 -1.1671613613
C 1.8086159138 -1.2460897683 -0.5893801962
C 3.1209197009 -2.0201611905 -0.5739037467
C 3.0845655541 -1.8384399191 0.9914003052
N 1.7670079033 -1.1992451516 0.8065900029
C 0.7795310986 -0.3615352750 1.2777124629
O 0.5582905961 -0.0060884492 2.4110271001
H 0.7375664746 2.0737006223 -0.2065196906
H -0.8576651451 1.8163054000 -0.9328609246
H -0.6850253389 1.8933127856 0.8360233179
H -0.9816239289 -0.4581516369 0.0506349315
H 0.6168944486 -0.4208781301 -2.2173014665
H 3.0495689227 -3.0581215932 -0.9052897053
H 3.9571478895 -1.5384642551 -1.0834663933
H 3.0544367485 -2.7569820496 1.5817105887
H 3.8443405928 -1.1644222816 1.3962625551