11

O -0.1827347082 0.1002363337 -0.0014441068
C 0.0022788361 1.2869376682 0.0078648336
C 1.3522908486 1.8988902261 -0.0019423461
N 2.5263550712 1.3320882807 -0.0200084181
N 3.4499599257 2.3497536228 -0.0212978484
C 2.7723234721 3.4635489760 -0.0043722270
O 1.4331362284 3.2522519668 0.0081214230
C 3.2508984187 4.8664165429 0.0023300011
O 4.4141636606 5.1652601476 -0.0067820761
H -0.8177481073 2.0321051803 0.0219017573
H 2.4299858543 5.6105612348 0.0186638674