19

C 0.3262191267 0.9456477120 -1.1554062929
C 0.0040594877 -0.0942590917 -0.0864780030
O -0.1765243528 -1.4221992747 -0.5804580853
C 0.9875476205 -2.1699915983 -0.8412873784
C 1.4801010542 -2.0426940528 -2.2987907818
C 1.1565554151 -3.1454241849 -3.2620459991
N 0.4529417561 -1.8708442357 -3.3440649292
C 2.6955159898 -1.2815255243 -2.4934766972
N 3.6843012714 -0.6912067381 -2.6022052909
H 1.3168705909 0.7996134600 -1.5930038033
H -0.4155567907 0.9175651193 -1.9587385158
H 0.3064417482 1.9440726536 -0.7056062331
H 0.7806374886 -0.0999895156 0.6929673329
H -0.9467258452 0.1501255462 0.3978737542
H 1.7991478517 -1.9016334347 -0.1528534456
H 0.7187319896 -3.2151400706 -0.6561793566
H 1.8322832828 -3.3502225140 -4.0866602954
H 0.6508039694 -4.0150595100 -2.8495675817
H -0.4513420439 -1.9113620655 -2.8756316779