18

C -0.0122290452 1.5609725290 -0.0188782189
C 0.0551421316 0.0455395788 0.0084688812
O -1.2616445418 -0.4495761433 -0.0646074593
C 1.0109662181 -0.6173904123 -1.0271166359
N 2.3131485698 0.0600826451 -0.6834556473
C 2.2563455951 -0.7962150900 0.5306148485
C 1.4237275558 -1.8916829125 -0.1420730502
O 0.5273240060 -2.0109606984 0.9799139921
C 0.8372609419 -0.5924499024 1.1986640362
H 0.9843892998 2.0014353804 -0.0086177470
H -0.5351935017 1.8902669059 -0.9219810481
H -0.5832458733 1.9154102167 0.8445819852
H -1.2087856973 -1.3674511369 0.2408552688
H 0.6978076838 -0.6565321830 -2.0683691400
H 3.0475834808 -0.3189795615 -1.2811330091
H 3.1365897823 -0.9354349964 1.1557590128
H 1.7576313142 -2.8282278330 -0.5875936912
H 0.6633642402 -0.2579736461 2.2196551421