12

C -0.1964219106 1.4583517991 -0.1138676235
C 0.2059524489 0.0226620191 0.0386571558
O 1.0373573567 -0.4481711618 0.7484509723
O -0.5797367505 -0.7690292026 -0.8152904848
C -0.2850651108 -2.0761265298 -0.8709330422
N -1.0748036945 -3.0154591137 -0.4426250479
O -0.4324553745 -4.1534019422 -0.7821472496
N 0.7689912451 -3.8275470469 -1.4221546367
N 0.8488666146 -2.5760064263 -1.4742518677
H 0.3736313277 2.0682072923 0.5850343363
H -0.0072287203 1.7858319415 -1.1402135969
H -1.2683179617 1.5667567813 0.0718276450