23

C -0.8228835379 0.7937442380 0.4716500365
O -0.5380367192 -0.5769101800 0.3386124945
C 0.1335113560 -0.8847899312 -0.8658120907
C 0.3889214252 -2.3642835962 -0.9121987638
C 1.2288698228 -3.2060748956 0.0950512408
C 0.7159842910 -4.2164729115 -0.9700608520
C -0.6662239603 -3.5118981051 -0.8524078246
C 1.1217527158 -3.1587192874 -2.0489902476
C 0.5896708756 -3.2133833304 -3.4740479636
H 0.0939626932 1.4052650360 0.4714247180
H -1.4744990067 1.1581043480 -0.3390129572
H -1.3375609937 0.9311959184 1.4259363711
H -0.4735521709 -0.5734523577 -1.7348120268
H 1.0890437960 -0.3332473331 -0.9268062312
H 2.3061187666 -3.0139031590 0.1137739503
H 0.8172210833 -3.3032564130 1.1019440417
H 0.9069335712 -5.2903360774 -1.0011039560
H -1.1884974323 -3.6260279025 0.1002459891
H -1.3614442529 -3.6065604728 -1.6881591053
H 2.2019603475 -2.9657828978 -2.0702200916
H -0.4853816155 -3.4007561261 -3.5316058417
H 0.7895845576 -2.2719287288 -3.9982471977
H 1.0927720876 -4.0085359550 -4.0356956224