16

O 0.2290441466 1.5360449978 -1.5421156961
C 0.0122794137 1.5194345718 -0.3508227033
N 0.9305027044 1.1680553475 0.5963012965
C 2.2523814766 0.7800700885 0.2812544814
C 2.7546463520 -0.4426319231 -0.5728121625
C 4.0794160101 0.2389303411 -0.0857761111
C 3.3900023622 1.6042970220 -0.4281350914
C 3.3537148587 0.3689270878 1.2614283979
O 3.5128777786 0.2367208788 2.4358873159
H -0.9632369821 1.7906878448 0.0975050064
H 0.6640860550 1.1823353297 1.5699682852
H 2.5316593734 -1.4430929594 -0.1983931738
H 2.5519146945 -0.3386907376 -1.6389876389
H 5.0992169077 -0.0624385106 -0.3002174681
H 3.2066491042 1.7705933146 -1.4899112435
H 3.7550328744 2.4982794465 0.0801787054