21

C -0.0952745382 1.5925017663 -0.0220384889
C -0.0172014718 0.0632498235 -0.0817092414
C 0.8006119464 -0.5053254641 -1.2512450599
C 2.2553474535 -0.0210376671 -1.2660026521
O 2.9894439211 -0.6030540552 -2.3218315437
C 0.7022271430 -2.0602704248 -1.3295300566
O 0.2143869551 -2.3363942756 -2.6382080284
C -0.4988394769 -1.1891255806 -3.0079039615
O 0.2365582668 -0.0908870715 -2.5179544800
H 0.8708995667 2.0480903657 0.2133987955
H -0.4352892012 1.9951863279 -0.9801244068
H -0.8023319844 1.9084767906 0.7506550359
H 0.3991222737 -0.3345466652 0.8534810734
H -1.0322641973 -0.3457396962 -0.1561667805
H 2.2711172127 1.0762050822 -1.3284097394
H 2.7503031141 -0.3114117520 -0.3326030425
H 2.4584455362 -0.4664422299 -3.1160641948
H 1.6734587010 -2.5459050035 -1.2257851667
H 0.0110685999 -2.4466074348 -0.5669016772
H -0.5550042887 -1.1305847923 -4.0984546377
H -1.5170589918 -1.1973626334 -2.5762476867