19

C -0.0152841652 1.5452637429 0.0106089461
C 0.0019721073 0.0166008526 0.0023476471
C 0.7022135635 -0.5453358589 -1.2405174799
O 0.7940363078 -1.9641777776 -1.1804353861
C 1.4706429410 -2.3789552102 -0.0168584524
O 0.8041254577 -1.9767170332 1.1568991279
C 0.7129430792 -0.5586010140 1.2329938563
C 1.5739758914 -3.8359907146 -0.0251262375
C 1.7016773770 -5.0284934416 -0.0320825275
H 1.0012885297 1.9554137833 0.0088509321
H -0.5344852559 1.9395065466 -0.8689367124
H -0.5276197657 1.9300401451 0.8983300361
H -1.0256387240 -0.3663316039 0.0047593737
H 0.1517481754 -0.3126832622 -2.1560552273
H 1.7124728373 -0.1072991424 -1.3296062381
H 2.4852484813 -1.9299089872 -0.0188263844
H 1.7239773436 -0.1215351910 1.3179634710
H 0.1704976232 -0.3357819394 2.1557355869
H 1.8014922854 -6.0859461644 -0.0381914617