23

C -0.1957732700 1.5874906395 -0.1225184748
C -0.0270366810 0.0652889005 -0.0383430361
C 0.7709250852 -0.5054284203 -1.2387070370
C 2.2346050208 -0.0124720204 -1.3169149953
C 2.9103724525 0.0713400197 0.0327588534
C 2.2161677421 -0.1744264975 1.1352710799
C 2.3239259575 0.0816150028 2.6243600366
C 0.7739227245 0.3185172953 2.6013285697
C 0.7233522546 -0.4105010723 1.2163445857
H 0.7613095407 2.1100462840 -0.0263138295
H -0.6376582698 1.8731040504 -1.0832527155
H -0.8571309940 1.9578259080 0.6669582433
H -1.0287208150 -0.3827907102 -0.0613362304
H 0.7711048383 -1.5995925631 -1.1561447880
H 0.2581998266 -0.2658037197 -2.1773932139
H 2.7987625112 -0.6688909562 -1.9928511611
H 2.2729247142 0.9810293522 -1.7880402589
H 3.9460416237 0.4030654540 0.0676402154
H 2.5858499927 -0.8169807674 3.1949162707
H 2.9630128134 0.9033264163 2.9586597744
H 0.1878636273 -0.1151175345 3.4148880018
H 0.5387921438 1.3818102712 2.5187749514
H 0.5032409607 -1.4736792325 1.3848429783