18

O -0.3431072594 1.5540413361 0.2069078683
C 0.0766968140 0.2061416714 0.2020371629
C -1.0766821100 -0.7305471734 -0.1595406479
N -1.6315969371 -0.2906275013 -1.4369160038
C -2.2352347063 -1.1050945559 -2.1773858972
C -2.8759873365 -0.8105397651 -3.5177795681
O -3.0818389442 -2.1004180794 -4.0768730775
C -3.2222548578 -2.9693328933 -2.9877831729
O -2.4356306453 -2.4333491514 -1.9216380083
H -0.8465331339 1.6608152007 -0.6111495084
H 0.9065949891 0.0454917806 -0.5064600534
H 0.4479632016 -0.0249007768 1.2063082403
H -0.7404806972 -1.7753879510 -0.1834520766
H -1.8560009072 -0.6472071753 0.6097130606
H -3.8245012892 -0.2685010928 -3.3815642770
H -2.2257031988 -0.2305548374 -4.1738434148
H -4.2679705583 -3.0386801574 -2.6469135707
H -2.8392386636 -3.9565290883 -3.2577355156