17

C 0.0918845401 1.5347599056 0.4011974364
C 0.0775447807 0.0938790664 0.2011144695
C 0.0889316507 -1.0990423649 0.0372682789
C 0.0695684894 -2.5182579096 -0.1870232365
C -0.6295510248 -3.3881742640 0.8220743782
N -1.2284494411 -3.1806278334 -0.4947730548
C 1.2828866743 -3.0977348956 -0.9106832745
N 1.0032845482 -4.2263183576 -1.6169719488
O 2.3854781020 -2.6023177352 -0.8085014034
H 1.1075321885 1.9298435203 0.2912055455
H -0.5447972743 2.0471918728 -0.3285432377
H -0.2631930977 1.8038897865 1.4020330172
H -0.2492002415 -4.3895559060 0.9998856414
H -1.0611202388 -2.8884576919 1.6835751958
H -1.9723143979 -2.4897445706 -0.4461995487
H 0.0394589687 -4.4556848515 -1.8033153893
H 1.7394812635 -4.6255323513 -2.1747620890