15

O 0.3045041631 0.0192976400 -0.2559715925
C 0.2782360750 1.2108147098 -0.3098913050
O 0.9018308242 1.9951824394 0.5909485177
C 0.8210744887 3.4144621715 0.4240249980
C 2.2203300579 3.9727284197 0.1908000269
C 2.2141883189 5.4850148064 0.0604666671
O 1.1951881262 6.1409907524 0.1102196515
C 3.5151657647 6.0993062553 -0.1319248581
C 4.6041501355 6.5863954865 -0.2913325026
H -0.2529453031 1.7934497440 -1.0886220265
H 0.1564751113 3.6691698674 -0.4089964221
H 0.3840510725 3.8307755332 1.3345479421
H 2.8907160413 3.6879496845 1.0108314026
H 2.6667133871 3.5446796687 -0.7161012713
H 5.5584352067 7.0340449313 -0.4322869180