20

C 0.2907897140 1.4917021563 -0.1350248799
C 0.1186871978 -0.0138861998 0.0229463335
O 0.8101407894 -0.4910750642 1.1913036627
C -1.3542709881 -0.4800727325 0.0364718694
C -1.4595279700 -2.0142915506 0.0816937596
O -1.1071093991 -2.5292529945 1.3554668966
N -2.0841653794 0.0519843311 1.1839766490
C -2.9258500863 1.1176104116 1.0991322027
O -3.0322665194 1.8480424982 0.1359866800
H 1.3544053912 1.7437340375 -0.1611919743
H -0.1834080840 1.8471223944 -1.0535035144
H -0.1751727275 2.0293588110 0.6973248325
H 0.6131061612 -0.5248301064 -0.8118955396
H 0.5108264580 0.0518168032 1.9306618407
H -1.8387242831 -0.1029718744 -0.8704572975
H -2.4951891314 -2.3186938588 -0.0997264564
H -0.8384879148 -2.4449666401 -0.7182949899
H -0.2123907714 -2.1991419860 1.5300967486
H -2.1714928682 -0.5828876146 1.9659603539
H -3.5063119586 1.2605873089 2.0321002930