21

C -0.2097490631 1.5694158052 0.0392725306
C 0.0471526173 0.0614527379 -0.0144479305
C 0.9923928404 -0.5036561304 -1.1124328560
C 2.2870888998 0.2512733730 -0.7481563864
C 2.3914996429 -0.4911301536 0.5964872499
O 2.6459136546 -1.8025452647 0.0597842616
C 1.3413032826 -1.9736511425 -0.5217394307
C 0.5514272881 -2.0668319024 0.7990045592
C 0.8668282953 -0.5923628880 1.1361055501
H 0.6604325426 2.1541904424 0.3457819614
H -0.5424410753 1.9492327223 -0.9335652979
H -1.0047294132 1.7811869011 0.7623612782
H -0.9338080081 -0.4194162427 -0.0753953036
H 0.6480716920 -0.4712137345 -2.1458457611
H 3.1540184758 0.0105787757 -1.3646304452
H 2.1590620252 1.3323475111 -0.7161897098
H 3.1618207874 -0.2135545819 1.3139947805
H 1.3371442979 -2.8109966695 -1.2177059561
H -0.5212037457 -2.2579937088 0.7266379998
H 1.0145473482 -2.8131938116 1.4457819117
H 0.6917121853 -0.2434815782 2.1533383143