13

N -0.0214233821 1.3897846784 0.1588454165
C 0.0613710214 0.0166884881 0.0402497621
N -1.0263976555 -0.7393814217 0.0024778801
O -0.6036690740 -2.1032616896 -0.0255081161
C 0.7329649108 -2.0917054704 -0.0241443872
C 1.2064572474 -0.8166399495 0.0161804537
O 2.5652275522 -0.7936600560 0.0262644593
C 2.9267974354 -2.1169096527 -0.0096252390
C 1.8571689689 -2.9692615497 -0.0403518394
H 0.6941097128 1.8948408227 -0.3441304199
H -0.9477581623 1.7444320304 -0.0391276620
H 3.9896399540 -2.2971605830 -0.0096873885
H 1.8966382512 -4.0453886970 -0.0698547995