21

C -1.6150587325 -1.0865396377 2.6638759012
C -0.7628879893 -1.1461145312 1.4178738494
N -0.6756680043 0.0547609614 0.5675614985
C 0.5431351785 -0.4635380720 1.1861856968
C 1.3456307372 0.4363058448 2.1334025578
C 2.1785290071 -0.4434612511 3.0934762097
C 2.2765096033 1.3291641637 1.2755907065
C 0.4954375436 1.3340845587 2.9305114668
N -0.1048932719 2.0694126031 3.5898904917
H -1.5690964194 -0.1110395539 3.1465206550
H -2.6605603303 -1.2858912361 2.4050312887
H -1.3002154254 -1.8520936628 3.3817250331
H -0.8453306408 -2.0966826878 0.8886866757
H -0.7217996761 -0.1757691263 -0.4203178333
H 1.2319527949 -1.0148984978 0.5437609121
H 2.8226264883 -1.1111389960 2.5125809218
H 2.8124017413 0.1732105884 3.7357680412
H 1.5318371146 -1.0540259436 3.7281618244
H 1.6903889586 1.9354422166 0.5808178738
H 2.8678824583 1.9970580510 1.9071335598
H 2.9627423443 0.6990705985 0.7008389796