21

C -0.2098400272 1.6402190497 -0.2145685681
C -0.0691955516 0.1189247140 -0.1208307999
C -1.4180581937 -0.5901782256 0.0404931781
C -1.2975948346 -2.1124456253 0.2016258067
O -0.5330280412 -2.4184709376 1.3436562048
C -2.6753905200 -2.8479334015 0.0253294689
C -2.3148273880 -3.1852179855 -1.4566664403
C -0.8680031962 -2.8601825822 -1.0735375225
O 0.2070067850 -3.2721680656 -1.4141588320
H 0.7665000780 2.1222635344 -0.3236854728
H -0.8227537481 1.9333817159 -1.0746196700
H -0.6848616192 2.0502811451 0.6836945439
H 0.4392879960 -0.2617302193 -1.0155254641
H 0.5652088234 -0.1466066133 0.7310003544
H -1.9330587543 -0.2136864288 0.9344357325
H -2.0700256129 -0.3622669910 -0.8129236059
H 0.2206206992 -2.9457538554 1.0509078483
H -2.7171419727 -3.7399384908 0.6524766541
H -3.5644847408 -2.2372037534 0.1878383879
H -2.4915842662 -4.1981144727 -1.8228438396
H -2.7318240749 -2.4705291012 -2.1719912344