17

C -0.0338082095 1.5680224070 0.0513314761
C -0.0083985249 0.0233090620 0.0035266005
C 0.8023355981 -0.4984532496 -1.1877058641
C 1.8138530607 -1.2860714072 -0.8214178137
C 1.8791227600 -1.3861874048 0.6664492786
O 2.1121851835 -0.1046482111 1.3094411407
C 0.7743896192 -0.5758767997 1.1960972683
C -1.3674120592 -0.5177937500 -0.0256600995
C -2.4839133913 -0.9641040239 -0.0364406348
H 0.9874712629 1.9417654236 0.1497829022
H -0.4799789636 1.9738115770 -0.8605593275
H -0.6261882545 1.9149120697 0.9023992815
H 0.5549621120 -0.1993880422 -2.1996786870
H 2.5231068039 -1.7616955862 -1.4871138750
H 2.3081752562 -2.2403270867 1.1802042418
H 0.2528091285 -0.7801055799 2.1267210211
H -3.4696592420 -1.3588130978 -0.0520545193