16

O 0.0058329428 -0.0035455538 0.2899648506
C -0.0134474726 1.1798619310 0.0676656204
C -1.3809494140 1.9147854619 -0.0371258050
N -1.9204442297 1.9670041344 -1.4023040458
C -1.2659643555 2.5868192486 -2.2928790477
N -0.0725333435 3.3319704989 -2.0624514529
C 1.1339490014 2.6196389994 -2.3262871847
N 1.8296651547 2.0182943621 -1.4545062545
C 1.3300008611 1.9518640252 -0.0748629964
H -2.0770258384 1.3311561390 0.5677423904
H -1.3108767985 2.9168397619 0.4120167071
H -1.6131940345 2.5687527957 -3.3247781364
H -0.0629359253 3.6207000687 -1.0893681768
H 1.4526950524 2.6106872255 -3.3674554664
H 1.2450800110 2.9517989367 0.3764358169
H 2.0583395088 1.3877178049 0.5101780111