16

O 0.1258113218 1.3969658689 0.1420069456
C 0.0198072081 -0.0019400067 0.0487124942
C -1.4379943725 -0.5611401273 -0.1055328446
C -1.3430281075 -1.2469963796 -1.4806434448
C -1.1734328425 -0.1829004456 -2.5790694885
O 0.1647627087 0.2947262288 -2.3191956230
C 0.6388961867 -0.5552208529 -1.2591779809
O -0.0013798020 -1.7866390553 -1.4559094794
H 0.0735449613 1.7211829737 -0.7682912677
H 0.5144405592 -0.4224212394 0.9279497893
H -1.6760726185 -1.2914328142 0.6705364670
H -2.1704260225 0.2479396262 -0.0637944996
H -2.0607272500 -2.0370249054 -1.6946956970
H -1.2170521414 -0.6119881247 -3.5856974529
H -1.8889478971 0.6413106567 -2.5002825671
H 1.7226475282 -0.6436003133 -1.3172560305