23

C -0.0589526415 1.4040484525 0.0699735768
O -0.0552662215 0.0378543627 -0.2701653970
C -1.2094383416 -0.6257149471 0.1474989169
C -1.1071442656 -2.1142672852 -0.1940004326
O -0.0708106814 -2.5863582917 -0.5904180403
C -2.3868170890 -2.9661713913 -0.0441486430
C -1.9850919395 -4.4390904676 0.1316615748
C -3.2551202349 -2.5118389064 1.1449429949
C -3.1834364202 -2.8033914107 -1.3618221009
H 0.8789462976 1.8299008818 -0.2935324777
H -0.8992038795 1.9424988114 -0.3973135938
H -0.1203814978 1.5546779087 1.1597474709
H -1.3570940215 -0.5333241441 1.2392891884
H -2.1161549921 -0.1991461960 -0.3175726857
H -1.4479582738 -4.5916942575 1.0730608740
H -2.8765461486 -5.0745393591 0.1410771386
H -1.3283653391 -4.7612483482 -0.6780404890
H -3.6180040921 -1.4857250801 1.0322476928
H -4.1349398863 -3.1587334340 1.2256000381
H -2.7090574824 -2.5798702365 2.0917378110
H -2.5891851612 -3.1317522760 -2.2194205213
H -4.0928740477 -3.4122435842 -1.3226406853
H -3.4859178802 -1.7652864512 -1.5335974606