19

C -0.2411142874 1.4734724003 -0.0540893668
C -0.0357516513 -0.0354430715 -0.0366479138
C 1.1980141835 -0.5372413488 -0.8414122759
O 1.1460289745 -1.9881027462 -0.7070402683
C 1.5201769912 -1.7801692830 0.6549296035
C 2.0943099092 -0.4098809166 0.4578236312
C 3.3974442980 0.2363320018 0.7947180574
C 0.7569527661 -0.5404662819 1.1743200633
O 0.5391166124 -0.2807864922 2.5110311870
H 0.7005098256 2.0070767851 0.1151969717
H -0.6522963149 1.8042766318 -1.0136972503
H -0.9358523093 1.7799029819 0.7342240307
H -0.9632125167 -0.5679369509 -0.2815388717
H 1.4197545423 -0.1913846727 -1.8500100183
H 1.8296149502 -2.6187286597 1.2669336719
H 4.2161961845 -0.1694905873 0.1904298435
H 3.3648003415 1.3200043007 0.6362294160
H 3.6390980633 0.0665303424 1.8490449591
H -0.0970532329 -0.9215163131 2.8488850201