17

C -0.0429005188 1.5441247268 0.0452036548
C 0.1004467466 0.0547934266 0.0014750515
N -0.8140092561 -0.8558185484 0.7179656466
C 0.6355774981 -0.9387707883 0.9954820963
C 1.2541526467 -1.8027398002 -0.1289540863
N 0.5925309207 -3.0649788266 -0.4450269793
C -0.2011562119 -2.7912301433 -1.3973302266
O -0.2259235991 -1.5433296027 -1.9515465618
C 0.6905010128 -0.7748455387 -1.1597368561
H 0.8590624990 2.0396942214 -0.3297144190
H -0.8871664923 1.8774034294 -0.5694142421
H -0.2147785231 1.8919461781 1.0696763950
H -1.2367772466 -0.3215571802 1.4763120772
H 1.0212194946 -0.7836417872 1.9961562945
H 2.3383484490 -1.9058976775 -0.0567727141
H -0.8842840450 -3.4901578338 -1.8668439359
H 1.3773144254 -0.2357245055 -1.8140129347