12

O -0.0375629318 -0.0589683371 -0.0017443716
C -0.0314634855 1.1334120229 0.0073488869
N 1.1740538060 1.9209703303 0.0002515535
N 2.3354989783 1.1999729243 -0.0178244660
N 3.4428379552 1.8078544120 -0.0252041941
C 3.4745161459 3.1967984750 -0.0149758626
C 2.3725462827 3.9728162639 0.0028707533
C 1.0664875161 3.3462776337 0.0122448448
O -0.0091616308 3.9049856829 0.0282438883
H -0.9097538627 1.7900583956 0.0217079894
H 4.4772359568 3.6090617384 -0.0226975483
H 2.4105840198 5.0551274781 0.0107020065