20

O 0.0438137341 1.4245062448 -0.1215639046
C 0.0293329123 0.0147340806 0.0049812619
C 0.6713130667 -0.5445557004 1.2993308841
C -0.1377263999 -1.8046759349 1.5606367232
C -1.5235750476 -1.6968444098 2.0930720853
C -2.1108510341 -0.3245397081 2.3954699807
C -2.3346448527 0.2986412656 0.9958305123
C -1.4209751830 -0.5102802754 0.0545487300
N -1.3097224147 -1.8837731393 0.6367637489
H 0.9539979766 1.7082226965 -0.2478575980
H 0.5246610130 -0.4509928990 -0.8601647529
H 1.7334516747 -0.7712244412 1.1723136885
H 0.5868466224 0.1977846651 2.1012615206
H 0.3999526411 -2.7390992334 1.6962828944
H -1.9421015470 -2.5581911772 2.6072681344
H -3.0460963457 -0.4192458444 2.9529576285
H -1.4369998905 0.2828756342 3.0095063631
H -3.3754324874 0.1566066674 0.6904139172
H -2.1153187489 1.3668866474 0.9550110081
H -1.8402636696 -0.5807497084 -0.9512764758