19

C 0.2166432102 1.3920091139 -0.0993260538
C -0.0332597806 -0.0825130714 -0.0878042279
C -0.2853913759 -0.8830392425 -1.1425241223
C -0.1841963477 -2.2672789363 -0.5711242986
C 0.9704955859 -2.9554328394 -0.6262755974
C 1.5464063727 -3.1345807378 0.7749322445
C 0.5812598054 -2.2855268151 1.6108553653
C -0.0860859893 -0.8746825033 1.2141366457
C -0.6973124978 -2.1876591426 0.8655319814
H 1.2184377753 1.6233847880 0.2850747649
H 0.1347805948 1.8063085253 -1.1077939958
H -0.4941518318 1.9252574599 0.5457611433
H -0.2688123397 -0.6003771647 -2.1868438403
H 1.6200618262 -2.9626590154 -1.4962480290
H 1.5937640967 -4.1625818612 1.1685734777
H 2.5795443913 -2.7614536727 0.7701445494
H 0.5806790411 -2.4277807384 2.6889038800
H -0.4065948705 -0.3354089874 2.1022856254
H -1.6808825564 -2.5397927988 1.1626012674