18

O 0.0333681505 0.0285527994 -1.0162109112
C 0.0263489444 1.1743861992 -0.6386830214
N 1.0260282552 1.7749073890 0.1255011507
C 2.1261522883 0.9689496505 0.4734615250
C 3.2842025398 1.3198973019 1.0359692854
C 3.7736225535 2.6751688308 1.4585683595
C 2.7233613431 3.5491715077 2.1710216060
C 1.5162373603 3.8826363725 1.3431934761
C 0.8285644389 3.1147373410 0.4953597682
H -0.7926592703 1.8801139475 -0.8625075369
H 1.9406311217 -0.0599606703 0.1934998635
H 3.9716556306 0.4941077576 1.1957914488
H 4.6330175737 2.5448684547 2.1253705634
H 4.1514367087 3.2254658810 0.5868237935
H 2.4164188932 3.0423498227 3.0953617422
H 3.1987327565 4.4845358571 2.4869801382
H 1.1320039393 4.8934110596 1.4447193941
H -0.0374166274 3.5392197679 -0.0023284052