23

C -0.0558132353 1.6390547085 -0.0547018050
C 0.0608044856 0.1146388550 0.0508109606
C -1.2962008816 -0.5795204262 -0.0142779750
C -2.0863286958 -0.6282827220 -1.3495104919
C -2.5822523585 -2.0459836445 -0.9630992567
C -2.7693305673 -3.1079569087 -2.0385543232
C -1.3991499413 -2.1486642268 0.0721935765
C -0.1891379294 -2.8687912761 -0.4522758825
O 0.3943672071 -3.7431943157 0.1401171188
H 0.9273758775 2.1166483484 -0.0069146593
H -0.5251659184 1.9373628486 -0.9983664931
H -0.6646011731 2.0455039302 0.7607043276
H 0.7109386590 -0.2549644528 -0.7519926921
H 0.5568416582 -0.1529454294 0.9928267558
H -1.9425075159 -0.1692621814 0.7706477664
H -2.8388478559 0.1425499985 -1.5332854080
H -1.4105027110 -0.6620199915 -2.2122084430
H -3.5068568064 -1.9554247647 -0.3830621733
H -1.8853414083 -3.2090134899 -2.6762128700
H -2.9764735513 -4.0888909068 -1.5972681367
H -3.6134729028 -2.8503644153 -2.6875921247
H -1.6390795322 -2.5704803523 1.0506911368
H 0.1621125170 -2.5463307152 -1.4594013280