17

O -0.0773211089 1.4043793235 -0.0459976103
C 0.0131948668 -0.0067199904 -0.0786995640
C -1.3541517503 -0.6436583588 -0.3793723631
C -1.6374989974 -0.0336860338 -1.7651500498
N -0.4984873602 -0.8725503602 -2.2809316926
C -0.8390252300 -1.8987851596 -1.1963927908
C 0.6564029805 -2.1290921343 -0.9690027474
C 0.6936528502 -0.6293999673 -1.3267436375
H 0.8101777102 1.7565691908 0.0706385362
H 0.4594932631 -0.3829961001 0.8518323948
H -2.0864328130 -0.6941387177 0.4271042347
H -2.5608095132 -0.3996954856 -2.2231661208
H -1.5482844000 1.0457915241 -1.8890033315
H -1.5543594543 -2.6857644643 -1.4397844384
H 1.0248169987 -2.4418649024 0.0107652748
H 1.0700715874 -2.7599354406 -1.7579123375
H 1.5689768404 -0.1309508034 -1.7443745867