17

O -0.1548544200 1.4012936753 -0.0171166944
C -0.0366681321 0.0178466516 -0.0114205965
C 0.1148689719 -0.8464846946 1.2944008110
C -0.3829677272 -1.9579605768 0.3153440317
C -1.3059043408 -0.8323939743 -0.3161818737
C -0.9784170237 -3.2427692844 0.7814150987
O -1.2364727541 -3.5018181444 1.9304288992
C 0.7524170530 -1.9737741186 -0.7285723404
C 0.9903654967 -0.6777852155 -0.9310897359
H 0.6851208192 1.7831646828 0.2593180206
H 1.1153394517 -0.9706924148 1.7135065073
H -0.6175476655 -0.5977360004 2.0658159919
H -2.1576175524 -0.5750971755 0.3192773970
H -1.5970861666 -0.9519689951 -1.3607481189
H -1.1960036483 -3.9737887811 -0.0327448298
H 1.2174900545 -2.8531100751 -1.1516983721
H 1.7042438138 -0.1821084391 -1.5744408557