17

N 0.0827603918 1.4214986479 0.0458282924
C 0.0241778485 -0.0229449708 0.0118443306
C -0.5405434850 -0.7550349998 1.2219406717
C -1.3185593556 -0.7495050380 -0.0722458310
O -2.4013861992 0.1261524532 -0.1652001640
C -1.5147920094 -2.0139999307 -0.8680294727
O -2.7234693970 -2.5916777702 -0.3741528380
C 1.1495403452 -0.6246959022 -0.6649855594
N 2.0275358614 -1.1212897992 -1.2313281853
H 0.1164150812 1.7767960438 -0.9069122234
H -0.7908698198 1.7637241298 0.4363887564
H -0.0492309828 -1.6665953608 1.5414354300
H -0.9048936645 -0.1174053313 2.0200897461
H -3.1846626451 -0.4198677572 -0.0140889961
H -1.6062772217 -1.7626554133 -1.9342327474
H -0.6600508379 -2.6910896872 -0.7448199739
H -3.0229019602 -3.2575040540 -0.9998538759