14

F -0.0120738578 0.0233204052 0.0599699817
C -0.0093276969 1.3620056983 0.0696764074
F 1.2783865280 1.7577481909 0.0863538932
F -0.5519670831 1.7843203007 -1.0795249060
C -0.7644634729 1.9335971296 1.2660069429
C -2.1870573404 1.3141264484 1.4355228510
N -2.0916440211 0.3754333239 2.5657966715
C -0.9395817675 0.5533604522 3.0775180811
N -0.1379325342 1.5494809162 2.5287546304
H -0.7823411637 3.0189450007 1.1333109510
H -2.9217188949 2.0927818022 1.6660305143
H -2.5267209198 0.8007095854 0.5319829633
H -0.5757273213 0.0111405099 3.9451893205
H 0.8675379956 1.4593696264 2.5590787075