17

C 0.2691481650 1.3109594307 -0.7858148410
C -0.0181234735 0.3112284956 0.3162313295
O 0.8076186147 0.0087367048 1.1477142861
C -1.4115279020 -0.2657972267 0.3175436524
N -1.5718476637 -1.6405867239 0.8317493672
C -2.1655839333 -0.5542214384 1.5867379641
C -1.5772764549 -0.2847393545 2.9640963743
C -2.2297472963 -1.1053521739 3.9831080681
N -2.7661975270 -1.7514644378 4.7767696660
H -0.4584211404 2.1306580933 -0.7585120980
H 1.2783743054 1.7075395792 -0.6744682205
H 0.1669551455 0.8302094494 -1.7660080082
H -2.0272130483 0.0307144874 -0.5290838237
H -2.2687964661 -2.1403282867 0.2864471426
H -3.2434332959 -0.4135938041 1.5242938904
H -0.5057367659 -0.4966197240 2.9405435086
H -1.7043620535 0.7706131195 3.2319202223