15

O 0.1535775720 1.3115332267 0.3557283810
C -0.0328420593 -0.0407136305 0.0284108793
C -1.4987577350 -0.4332865346 -0.2057244738
C -1.4303182998 -1.3522559126 -1.4198292254
C -0.2161325257 -1.3287542350 -2.0160025558
C 0.6660565799 -0.4046565209 -1.2922190405
O 1.7288019845 0.0700655360 -1.6317444138
C -2.5533922449 -2.0962610374 -1.8404299458
C -3.5362434296 -2.7156728184 -2.1612165348
H 1.0082322654 1.5553174239 -0.0293097439
H 0.3947142844 -0.6995060129 0.8052855451
H -1.9723678505 -0.9261652980 0.6470911144
H -2.0878243958 0.4603794453 -0.4389742444
H 0.0624504118 -1.8525134387 -2.9203056997
H -4.3949656674 -3.2671740530 -2.4569218319