21

C 0.2129313815 1.5113526668 0.1520011780
C -0.1901927934 0.0533682160 -0.1047937807
C 0.5647655254 -0.5390985903 -1.2780559412
C 1.9092772562 -1.1725660972 -1.1122694652
O 2.4119036939 -1.2318591104 0.1877001649
C 0.7079180715 -2.0566946099 -1.4946837702
C 0.1622704108 -3.0383227304 -0.4671311420
C 0.6605224691 -2.5116403803 -2.8572359182
C 0.6278701073 -2.8953536127 -3.9981372127
H 1.2760419573 1.5794089213 0.4016753491
H 0.0336996134 2.1355409329 -0.7304327472
H -0.3590975824 1.9360624148 0.9827845109
H -0.0069469020 -0.5323218685 0.7988725231
H -1.2669384308 -0.0036117298 -0.3073741406
H 0.4435845038 0.0199084064 -2.2023372057
H 2.6554120035 -1.0079580795 -1.8880892121
H 2.9955010142 -1.9955027315 0.2513595217
H 0.4293132873 -2.7343216946 0.5460609932
H -0.9271844695 -3.1146564622 -0.5343638761
H 0.5762383134 -4.0358151016 -0.6444339970
H 0.5927502696 -3.2329552892 -5.0038382621