19

C 0.0365203546 1.4674991245 -0.0892879273
C -0.0171632038 0.0164378303 -0.0091009991
C -0.0716440320 -1.1864542963 0.0456352410
C -0.0876910206 -2.6037074817 0.1549418806
O -0.3598886998 -3.4029012406 -1.0182631833
C -1.1846173901 -3.6018929666 0.1297544340
C -0.4325485679 -4.5423988748 1.0747057309
C 0.7444455727 -3.4976486809 1.1109191567
C 2.1205514838 -3.9272509923 0.6278029545
H 0.9776013904 1.8527688105 0.3183327126
H -0.0381137171 1.8060107529 -1.1285569193
H -0.7836909895 1.9300586691 0.4710248248
H -2.2516727805 -3.4560050929 0.0041184431
H -0.9161936937 -4.6690113534 2.0459555093
H -0.2001695950 -5.5222933982 0.6496423495
H 0.8010959188 -3.0295682740 2.0980296505
H 2.0554146186 -4.3452533054 -0.3805135068
H 2.8122974332 -3.0783962154 0.6039809342
H 2.5469908179 -4.6890334549 1.2889768241