19

C 0.0021033859 1.6062791284 0.0103013830
C 0.1001901916 0.0873896390 0.0019464165
C 1.1580165710 -0.6818250081 -0.8914538226
N 2.3821957737 0.1337970952 -0.9259004893
C 2.8271194605 0.0708835156 0.2646438065
N 2.1758466222 -0.8194187419 1.1773154706
C 1.3308815303 -1.6610315825 0.3081502639
C 0.6489289464 -0.6946123248 1.2050360912
C -0.0037236613 -0.8484030927 2.5437722377
H 0.9641829866 2.0795186876 0.2178870282
H -0.3520014740 1.9804156895 -0.9558183410
H -0.7100480786 1.9346295083 0.7755138554
H -0.8791713956 -0.3496814269 -0.2238437251
H 0.8441004563 -1.0297577227 -1.8728218624
H 3.6758699456 0.6431242115 0.6262670725
H 1.4278623110 -2.7413012415 0.3359979687
H 0.5370695589 -1.5765068948 3.1529781645
H -0.0160563258 0.1036683013 3.0857442271
H -1.0408239648 -1.1830285403 2.4313542148