19

O -0.1148150560 1.3893663609 0.1727816914
C -0.0176398831 0.0113178913 -0.0169285778
C -0.4196782923 -0.6456509768 -1.3040348638
C -1.2513882522 -0.8551002040 -0.0410347545
C -0.9347796157 -1.9974856841 0.9532869554
C 0.1685062479 -2.8970950722 0.3844361124
O 1.3154573154 -2.0218340819 0.3252548948
C 0.9148564751 -0.7837367377 0.9356419062
C -0.0883504708 -1.2326545976 2.0098941834
H 0.5917841815 1.8098654035 -0.3297860608
H -0.8776186082 0.0103228512 -2.0379135626
H 0.1934471921 -1.4362731587 -1.7174399861
H -2.2378895035 -0.4072065629 -0.0153569789
H -1.8094358789 -2.5384642696 1.3146055245
H 0.3862069029 -3.7470132392 1.0440364634
H -0.0524768770 -3.2812143622 -0.6169389425
H 1.8085443729 -0.2431544897 1.2486158124
H -0.6249780994 -0.3956683530 2.4614792446
H 0.3506850195 -1.8673221772 2.7856627685