14

O 0.0394783592 -0.0896199376 0.0014538600
C -0.0241707292 1.1137260703 0.0090656380
N -1.1878115300 1.8857604413 0.0295548485
C -1.1142662214 3.1871892739 0.0357104443
N 0.0016012435 4.0044317576 0.0244096289
C 1.0753395137 3.2829279417 0.0054923103
C 2.5837399211 3.4249231876 -0.0148957020
C 2.5924997818 1.8493215852 -0.0236171074
N 1.1208578876 1.9357341409 -0.0023954855
H -2.0606335489 3.7257751116 0.0515959012
H 2.9885463461 3.9003654281 -0.9096532398
H 3.0135845152 3.8906407565 0.8732759131
H 2.9833766860 1.3786750766 -0.9271716519
H 3.0086265754 1.3688985763 0.8633632423