17

C -0.0512461455 1.4349955981 -0.0309840971
C 0.0038655434 -0.0187817272 -0.0135338990
C 0.0516757309 -1.2242748908 0.0043015342
C 0.1075941029 -2.6418254487 0.0324118765
C 1.2154106143 -3.5623198378 0.5666622924
C 0.4272273542 -4.7044163481 -0.1169340855
O -0.8019370142 -4.7865634509 0.6649167169
C -1.1622525015 -3.5498915223 0.0674914427
C -0.2333701271 -3.6528929596 -1.0836563667
H 0.8285903893 1.8679433220 0.4582557434
H -0.0811082654 1.8223551202 -1.0558075070
H -0.9378098278 1.8112131276 0.4921285417
H 2.1642751356 -3.3613449546 0.0639915817
H 1.3553739819 -3.6454897894 1.6484931804
H 0.8577238384 -5.6728288671 -0.3587956683
H -2.1674882069 -3.1670774722 0.1790496534
H -0.3316031227 -3.5412322994 -2.1541738199