21

C -0.0117659723 1.5837750324 0.0094794013
C -0.1907152784 0.0643254504 -0.1002222055
C 0.6276639322 -0.5310730028 -1.2424655397
C 2.1894978323 -0.7136507754 -1.1177380357
C 1.9037177163 -1.9627794156 -0.2183300449
C 0.8296911700 -2.0990911108 -1.3628862714
C -0.2132717046 -3.1624242178 -1.5526082120
C 2.0035597463 -1.7042430887 -2.2744077401
O 2.4953938079 -2.0122403884 -3.3170936603
H 1.0256517110 1.8445897161 0.2433650393
H -0.2748720498 2.0831171326 -0.9293509212
H -0.6472591211 1.9993021327 0.7974060143
H 0.0498552038 -0.3989620632 0.8611449606
H -1.2480916720 -0.1632543098 -0.2884191321
H 0.3181299060 -0.0585198504 -2.1822575131
H 2.9468750869 0.0536864052 -0.9762258134
H 2.6788960725 -2.7309063283 -0.1737995051
H 1.5090553862 -1.7504872073 0.7741463956
H -0.9318839078 -3.1737336967 -0.7262659152
H -0.7689199420 -2.9991124437 -2.4819350835
H 0.2478526766 -4.1537127006 -1.6113989178