21

O -0.1436821377 1.5013132181 -0.1290928134
C 0.0031746680 0.1223766700 0.1828649121
C -1.3651417429 -0.5132203102 0.0222196135
C -1.8212384976 -0.7124579564 -1.4357990857
O -1.6597838004 -2.1441369907 -1.3362498568
C -1.4454407938 -2.0644512350 0.0949573111
C -0.2794268308 -2.8808479143 0.5656817350
C -0.2217629545 -3.3263256851 2.0097399301
C -0.4923204546 -4.3317326113 0.9235910552
H 0.7244290813 1.9131532832 -0.0917640273
H 0.7251738895 -0.3599674502 -0.4945022943
H 0.3677850731 -0.0208430154 1.2121901868
H -2.0749763991 0.0129763850 0.6645239243
H -2.8627322532 -0.4307418389 -1.6374709007
H -1.1779892478 -0.2747953630 -2.2075992414
H -2.3481121206 -2.3949307168 0.6338631340
H 0.6673337637 -2.6427745355 0.0911302477
H 0.7445354576 -3.3384828550 2.5009332647
H -1.0448371464 -3.0463862939 2.6593761744
H -1.4981430470 -4.7285483963 0.8351935387
H 0.2887382532 -5.0378008882 0.6660096522