13

O 0.0712118063 1.3824011586 0.1485093511
C 0.0670042152 0.0440275597 0.0784574021
N 0.1018025780 -0.5860407446 -1.0715932107
O 0.0838531242 -1.9557956318 -0.7282960740
C 0.0396030433 -2.0554021457 0.6007421027
N 0.0144562493 -3.3115535445 1.1765765322
C 0.0297539755 -4.5500600147 0.5541368948
O 0.0683484832 -4.7497875059 -0.6295240481
C 0.0259193057 -0.8270619150 1.1969558332
H 0.1026946069 1.7219006440 -0.7564722163
H -0.0193157315 -3.3169111863 2.1847810160
H 0.0002160949 -5.3526724029 1.3166694944
H -0.0072637909 -0.5762665910 2.2425253626