20

C -0.3155168283 1.3894482764 0.0803116926
N 0.0185088499 -0.0279063376 0.1304894333
C 1.3803729666 -0.4174409407 -0.1361343885
C 0.8118094657 -0.5617492367 1.2570205804
C 1.3628224939 0.2784064622 2.3945515725
C 0.3187470997 0.6627199089 3.4535158105
O 0.8933688307 1.4209623618 4.5056448247
C 0.3815586767 -1.9509471805 1.6148473739
O 0.6062308376 -2.4863735259 2.6724182490
H 0.4788842553 2.0593794062 0.4398574251
H -0.5315900260 1.6494973008 -0.9604804038
H -1.2194519427 1.5707756853 0.6685333979
H 1.5219640193 -1.2852160190 -0.7767709894
H 2.1368544897 0.3596560367 -0.2460634840
H 2.1464109679 -0.3147151917 2.8820367467
H 1.8403815880 1.1875453658 2.0195353714
H -0.4511479166 1.3051530021 3.0139796498
H -0.1781710907 -0.2402452976 3.8309429286
H 1.4662671797 0.8337417671 5.0091563058
H -0.1662028563 -2.4647360837 0.7948003535