19

O 0.1887025112 1.3893480580 0.0808205989
C 0.0962221239 -0.0149159801 0.0778175167
C 0.3594285813 -0.6461769575 1.4498941738
C -0.7475859667 -0.0375328290 2.3314102648
C -1.9485296109 0.0391382688 1.3365370749
C -1.3492146337 -0.5557188392 0.0404463915
O -2.0091492233 -0.2337829217 -1.1598201406
C -1.0549861047 -2.0475251571 0.2827113546
O 0.0526022285 -2.0291755777 1.2035856240
H -0.3111059975 1.7011809667 -0.6829892351
H 0.7212174314 -0.4645643170 -0.7054293296
H 1.3719945886 -0.5876102692 1.8481792845
H -0.9403181819 -0.6788314754 3.1938791266
H -0.4649589167 0.9548736233 2.6887071865
H -2.8223239653 -0.5280491786 1.6730363530
H -2.2548679016 1.0725515230 1.1602937647
H -2.9560848123 -0.3499927679 -1.0326562873
H -1.9013458372 -2.5890221375 0.7256484005
H -0.7657742033 -2.5500976318 -0.6490656624