17

O 0.2991910584 1.4521451183 0.1051932204
C 0.1058617198 0.0683222025 0.0480329058
C 0.0940996392 -0.6762929308 1.4013737536
C -0.9615747460 0.0931972990 2.2126167486
C -2.0874827171 0.1407846652 1.1141958872
C -2.5630510096 1.4692898188 0.7484785983
N -2.9710546909 2.5045925835 0.4339637784
C -1.3107585066 -0.5774118034 -0.0201309118
N -0.7657079863 -1.7444937098 0.7590896583
H -0.0403800323 1.8640808500 -0.6965357913
H 0.7789703911 -0.4230335830 -0.6687389223
H 1.0029699815 -0.9866520366 1.9149522758
H -1.2842814803 -0.4608009067 3.0943230200
H -0.6188036343 1.0868074151 2.4992147570
H -2.9477693502 -0.4659721591 1.4053676455
H -1.8473882021 -0.7738058425 -0.9479870551
H -0.1741720944 -2.2884728706 0.1292739515