16

C -0.3742027839 1.1063846806 -0.1172898799
C 1.1006668803 1.0332973089 0.2330696743
C 0.3241961398 -0.2160167727 -0.0127423078
O 0.0915848938 -1.0094842838 1.1303896497
C -0.9117502343 -1.8880685408 1.0393335751
N -1.6509693495 -2.0728927340 -0.0454013563
N -2.4898480977 -3.0630329984 0.3762070534
C -2.2139053863 -3.3993718634 1.6475210403
N -1.2133318492 -2.6738376950 2.1083337080
H -1.0587261767 1.3627495286 0.6828858552
H -0.6692911476 1.4536688628 -1.1008997798
H 1.8357682511 1.3341562734 -0.5045073128
H 1.3748354274 1.2384135381 1.2614618523
H 0.4943878041 -0.7975217654 -0.9130723301
H -3.1903791151 -3.4228229706 -0.2495739857
H -2.7532795162 -4.1606444184 2.1910107341