22

C -0.2341837733 1.5589299678 0.0431854577
C -0.0526969903 0.0333430510 0.0030117856
C 0.3697020299 -0.5062802685 -1.3783774005
C 1.6568729042 0.0567551554 -1.9959135952
O 2.8603723944 -0.3143830871 -1.3455794694
C 3.0129590344 0.2471778730 -0.0537357674
C 2.2537236586 -0.5243198029 1.0063990219
C 1.4911205673 0.1946237059 2.0709679061
N 0.7984972948 -0.5691544783 1.0472188366
H 0.6835086946 2.1194169542 -0.1528933740
H -0.9687662349 1.8562017296 -0.7132181753
H -0.6192835696 1.8748467792 1.0171854775
H -1.0511901297 -0.3840182518 0.1937738556
H 0.4645056007 -1.5955407188 -1.3043989458
H -0.4443880761 -0.3042407206 -2.0869325639
H 1.7527094536 -0.3288110984 -3.0161774568
H 1.5978971838 1.1553638669 -2.0698257893
H 4.0842855068 0.2013352147 0.1724157788
H 2.7239069187 1.3087941714 -0.0613091543
H 2.7147385888 -1.4815557886 1.2497972641
H 1.4332776457 -0.2013640015 3.0825857622
H 1.4869566778 1.2820104574 2.0172111758