15

C 0.0626033162 1.4813800704 -0.0176487348
N 0.0060899216 0.0234218542 0.0011125797
C -0.0478756325 -0.6640099488 1.2075814649
N -0.0500962108 -0.0539277360 2.3227313906
C 0.0068007546 -0.6611759327 -1.1934884199
N -0.0415753807 -1.9695715401 -1.2999201754
O -0.0207462590 -2.2240975999 -2.6523957088
N 0.0400360906 -1.0784160141 -3.3757681759
C 0.0581712442 -0.1051505899 -2.5103836992
H 0.9800553266 1.8293295330 -0.5039417696
H -0.8031770502 1.8980396657 -0.5431177707
H 0.0527659631 1.8182958917 1.0171997773
H -0.0859147496 -1.7447658009 1.0608705104
H -0.0931553038 -0.7215157951 3.0887841396
H 0.1050534398 0.9231926726 -2.8287725782