19

O 0.1198519525 1.3791505407 -0.0455249948
C 0.0623404372 -0.0235633362 0.0573923585
C -1.3896350227 -0.5139165712 0.0530422993
O -2.0596625430 0.0345548309 -1.0893765189
C -1.4762698354 -2.0236733775 0.1199053906
C -1.9209342283 -2.7244438111 1.3633651943
C -2.8270964941 -2.7408138650 0.1432980802
C -4.0926754732 -1.9658057598 0.1625117354
O -5.0908482457 -2.3002944595 -0.4254897577
H -0.5335666205 1.6138780648 -0.7176618490
H 0.6053186626 -0.5160530794 -0.7713694225
H 0.5591593212 -0.3113320345 0.9903733122
H -1.9022048994 -0.0602429265 0.9076632006
H -1.8149039917 -0.4887861036 -1.8614933834
H -0.7241811087 -2.5379097454 -0.4755554032
H -1.4483163010 -3.6574112103 1.6469192372
H -2.2355653178 -2.1076658863 2.1999234163
H -2.8968368802 -3.6647010352 -0.4206210440
H -4.0734027417 -1.0441638346 0.7853679989