17

C 0.5821244750 0.4315165327 -0.3335945710
C -0.7628375841 1.0324609110 0.0253216456
O -0.9572868664 2.2261608090 0.0589240177
C -1.9248805600 0.1130648532 0.3240995534
O -1.8096490864 -1.2864499890 0.0611400453
C -1.9488880982 -0.8874402716 1.4203045426
C -0.8158124512 -1.1550470986 2.3528100540
C -0.9518694592 -0.8690358495 3.7881167946
O -1.0423670832 -2.2044826939 3.2974586744
H 1.0675240070 1.0753232631 -1.0696863115
H 1.2218100621 0.4148246236 0.5565758570
H 0.4870180457 -0.5882142662 -0.7089304073
H -2.8799053142 0.5653101905 0.0572789964
H -2.9237486711 -1.1071639709 1.8590753545
H 0.1771850474 -1.1575949349 1.9091070045
H -0.0630018342 -0.6371642032 4.3722256701
H -1.8808686590 -0.4447379552 4.1666939498