19

C 0.1630512475 1.2423473748 -0.3377693712
N 0.0623344694 0.1288444350 0.5820584581
C -1.1050472846 -0.8193811595 0.6507296564
C -0.0997491585 -1.9355041354 1.0860460412
O -0.2198015627 -2.1332837398 2.4809378133
C 0.3730426977 -3.1674450778 0.2942147594
C 1.9027696650 -2.8344866685 0.1205895684
N 1.9975615046 -1.3436551272 0.0282517910
C 0.9274371613 -0.9492169158 0.5919926053
H 1.1437757010 1.7101347094 -0.2236618627
H 0.0531288156 0.9270409473 -1.3871883490
H -0.6047586765 1.9859962928 -0.1078599770
H -1.8560502808 -0.5504192181 1.3956962016
H -1.5625624495 -0.9867014783 -0.3320762326
H 0.6165245242 -2.4795747459 2.8109417791
H 0.1712995961 -4.1060271176 0.8170530186
H -0.0948393285 -3.2146936983 -0.6939207796
H 2.5071286324 -3.2243214886 0.9522638302
H 2.3117757760 -3.2680746887 -0.7957296906