20

C -0.8243528049 1.3082167264 0.1480835523
C 0.0407363478 0.0647939376 0.0149974612
C 0.7478352374 -0.0347110402 -1.3422091093
N 1.5945497600 -1.2387681211 -1.4128847595
C 2.9966454247 -1.1908635084 -1.0235722434
C 3.2718104373 -0.1156505576 0.0320563369
C 2.1145791340 -0.7288943950 0.8986480352
O 0.9708844091 0.0764778307 1.0986376868
C 1.9696640626 -1.8527630521 -0.1474573637
H -0.2203697144 2.2123834792 0.0234420659
H -1.6175720579 1.3091086556 -0.6058812098
H -1.2866064639 1.3418795111 1.1381859983
H -0.5942423048 -0.8319939141 0.1111872992
H -0.0080747843 -0.1034636255 -2.1322775658
H 1.3339692490 0.8727506883 -1.5337402663
H 3.7205623656 -1.6435296453 -1.6913712704
H 4.2440313762 -0.2452634884 0.5144464735
H 3.1588923425 0.9309175194 -0.2647141672
H 2.4533937374 -1.0521273147 1.8853216832
H 1.7417574668 -2.8984805159 0.0266533828