18

C 0.2134059438 1.5254193346 0.1869297188
C 0.0866091502 0.0219923471 0.0624545845
C -1.2198148419 -0.4697778943 -0.5354871932
C 1.2883915669 -0.8474524024 -0.2672275086
O 2.5733209683 -0.2943512848 -0.0867694361
C 2.7756464936 -0.0342718463 1.2324307595
N 3.8364483702 0.4829329089 1.6614302437
O 1.6724424719 -0.3887456689 1.9658271878
C 0.6845370520 -0.9116543524 1.1014480282
H 1.1729434562 1.8403946007 0.5995179468
H 0.1060648290 1.9948066026 -0.7966440336
H -0.5759865918 1.9198504306 0.8356670066
H -1.3560562980 -0.0714555616 -1.5466324184
H -1.2536433136 -1.5624284151 -0.6011082916
H -2.0703503193 -0.1467811571 0.0744735654
H 1.2658087791 -1.6257389140 -1.0199940736
H 3.7879562548 0.5986217227 2.6705157218
H 0.1431741485 -1.7460389004 1.5303674819