20

C -0.0026780195 1.5680642526 -0.0255434178
C 0.0003822779 0.0351632759 -0.0487396288
C -1.4184985168 -0.5314493567 0.0334339257
O -1.9890254123 -0.1109430059 1.2632515336
C 0.6980860135 -0.5200175146 -1.2860935462
O 2.0728502434 -0.1077770114 -1.2388812487
C 2.8187826043 -0.4680024561 -2.3120677137
N 4.0893979447 0.0206939818 -2.1786343811
O 2.4081861892 -1.1002717819 -3.2566811170
H 1.0169667830 1.9598549457 -0.0432447007
H -0.5324745718 1.9670405678 -0.8995673097
H -0.5072996938 1.9335583819 0.8709062706
H 0.5422252494 -0.3310580816 0.8331844443
H -2.0112786639 -0.1706238269 -0.8238545289
H -1.3846503717 -1.6311432289 -0.0297687112
H -2.9032675688 -0.4068803626 1.2878259396
H 0.6552468209 -1.6142823548 -1.3177791175
H 0.2426347607 -0.1450536507 -2.2095176193
H 4.3949739959 0.3300131936 -1.2716501943
H 4.7779740458 -0.3656463871 -2.8009923186