19

C -0.0264763537 1.5432797342 -0.0134305465
C 0.0446918455 0.0360699715 -0.0063261513
C -0.8262861789 -0.7878172614 0.9215787570
C 0.6724459903 -0.7948071887 1.1027904929
C 1.4685906329 -1.9294188517 0.4618044755
C 1.1672484985 -1.7838613395 -1.0100171876
C 0.4154405403 -0.7001480486 -1.2727378709
C -0.0243550878 -0.2706482981 -2.5487153039
C -0.4159200843 0.1349687903 -3.6142867682
H 0.9231128701 1.9867242790 -0.3329773720
H -0.8044036326 1.8964623015 -0.6987517201
H -0.2588860652 1.9256600911 0.9851108625
H -1.4054652614 -0.2491040893 1.6653679494
H -1.3138454856 -1.6721855127 0.5233831391
H 1.0759588259 -0.3085335236 1.9837241330
H 2.5456366573 -1.8308014869 0.6569910258
H 1.1796546347 -2.9176243224 0.8442276794
H 1.5061996609 -2.4910434854 -1.7575729456
H -0.7540157471 0.4785653507 -4.5601729983