14

O -0.1331513794 -0.0350488187 0.0684408285
C -0.0671597801 1.1593779180 -0.0400384417
C 1.2478530460 1.9280576943 -0.0478277869
N 2.4043088528 1.0613720273 -0.1137571748
C 3.2563315171 1.2954405685 -1.1739083337
O 4.2614740464 0.6838264085 -1.4409252123
C 2.6643123513 2.4725750413 -1.9313707702
O 1.3839864910 2.1226589503 -2.4945402289
C 1.4105909748 2.8396073115 -1.2657232541
H -0.9747642679 1.7978692616 -0.1073904275
H 1.2513379616 2.5528744949 0.8621735725
H 2.3696619963 0.1450425113 0.3089056927
H 3.2888409521 3.1378777983 -2.5162469114
H 0.9883486081 3.8390557029 -1.2705047822