21

C 0.0058740693 1.4758699353 0.2951532614
C -0.0285523615 -0.0239489730 -0.0182425780
C 0.6828858264 -0.4621990958 -1.3106058105
C 0.7123305439 -1.9968871636 -1.4217341168
C 1.5274909664 -2.5732599361 -2.5845639314
C 0.3158660586 0.3156545174 -2.5981452124
O 1.6691721043 0.8719345027 -2.6659036913
C 2.0514577183 0.2071049425 -1.5289900710
O 3.1163530380 0.2295526833 -0.9981001446
H 1.0341320911 1.8371588742 0.3928290624
H -0.4908390014 2.0759074322 -0.4737667663
H -0.5067432180 1.6736215418 1.2409485726
H 0.4357644086 -0.5687837703 0.8119545933
H -1.0683597166 -0.3724456169 -0.0684542189
H 1.1170158955 -2.3856962092 -0.4800788858
H -0.3246183088 -2.3528375107 -1.4784024885
H 1.1412677263 -2.2636400658 -3.5607693701
H 2.5761524898 -2.2665992543 -2.5241583347
H 1.4991358211 -3.6663606673 -2.5574380918
H 0.1024103564 -0.2830656544 -3.4851821444
H -0.4216996677 1.1129508881 -2.4924444630