21

C 0.0373519147 1.5289936957 0.0982497153
C 0.0638771110 0.0178337431 0.0691141756
C 0.8410317413 -0.7970591237 -1.0266087736
C 0.7529491863 -1.9409263901 0.0337543458
C 0.8936306155 -0.8196110728 1.0946991961
C -0.7623198197 -2.1928347033 0.0185696971
O -1.3898986843 -2.4503326107 1.2983423422
C -2.0002672169 -1.1384858812 1.3138982020
C -1.2860401555 -0.7333666777 0.0100739353
H 1.0499766220 1.9456837927 0.1049203250
H -0.4859770299 1.9338060060 -0.7759634195
H -0.4792571295 1.8984688194 0.9918628210
H 0.3545108123 -0.9464314399 -1.9967985582
H 1.8629279719 -0.4384306405 -1.1713192312
H 1.4163540972 -2.8051018060 0.0129420767
H 1.9199139730 -0.4518651017 1.1680757692
H 0.4895267117 -1.0041352316 2.0912609254
H -1.0922945003 -2.9042076455 -0.7451802108
H -3.0920964429 -1.2073260181 1.2298122173
H -1.7481081932 -0.5722644208 2.2194797681
H -1.9233083049 -0.3964677234 -0.8094636188