10

O -0.0447023428 -0.0368322740 0.0040599927
C -0.0382601016 1.1586730490 0.0096849709
N -1.2428923539 1.9167256847 0.0303358145
C -1.1573965201 3.1782860792 0.0354199142
O -0.0009317704 3.9093951414 0.0227994005
C 1.1337071013 3.1527476606 0.0028381877
N 1.1940152141 1.8864464582 -0.0041905348
C 2.3187196175 3.9737279502 -0.0095077288
N 3.2684706734 4.6305738226 -0.0193979085
H -2.0210514475 3.8364849381 0.0508775115