17

O 0.0035764427 0.0646325332 0.1344726228
C -0.0146701951 1.2528756584 0.0309922955
C -1.1849479846 2.2744984448 -0.0031335022
C -0.6973035112 3.0867347500 1.1860312834
C 0.6484486165 3.1056988344 1.1669451509
C 1.1248639473 2.3071063813 -0.0359304292
C 0.6957658608 3.0728298012 -1.3096792900
C -0.0640213010 2.3225635010 -2.3815434875
C -0.8139786116 3.0515007075 -1.2882520737
H -2.1922400450 1.8651927051 0.0498192136
H -1.3463031899 3.5399688558 1.9238258637
H 1.3050805667 3.5773422988 1.8862154650
H 2.1444042202 1.9264145356 -0.0117664954
H 1.2463135177 3.9693206646 -1.5698125925
H -0.0843709626 2.7708095870 -3.3690811567
H -0.0488967237 1.2369431511 -2.3966256523
H -1.3967820474 3.9319802703 -1.5323090954