19

C -0.0548675426 1.3565428227 0.0535120607
O 0.0256344459 -0.0498141219 0.0121948155
C -1.2240783260 -0.6627534418 -0.0097659832
C -1.0807582962 -2.1773694288 -0.0567806088
O 0.0098881971 -2.7227935011 -0.0812363838
C -2.3451176998 -2.9380709105 -0.0368691733
C -2.3882666977 -4.2718467291 -0.7974496067
C -2.2980318740 -4.3133454876 0.6819585200
O -1.1657564197 -4.7224359718 1.3498510565
H 0.9684750917 1.7374237635 0.0673061938
H -0.5752892282 1.7624524078 -0.8283928482
H -0.5796806565 1.7097789308 0.9552118576
H -1.8293100526 -0.4049861241 0.8803453811
H -1.8248681117 -0.3493082510 -0.8849854835
H -3.2629834132 -2.3633411166 0.0273954592
H -3.3236633216 -4.5236508655 -1.2846810966
H -1.4887364722 -4.5143301480 -1.3539407073
H -3.1921103215 -4.5669065624 1.2425591619
H -0.4061521812 -4.3047580646 0.9065826552