16

O 0.1909597845 1.2732657878 -0.5657442304
C 0.0326781263 0.0778866258 0.1801320746
C -1.3284074347 -0.4612206313 0.1356089793
C -2.4676502839 -0.8485999178 0.1060887651
C -3.8239565260 -1.3847614932 0.0450009161
C -3.8246067542 -2.9418673531 -0.1005367388
O -5.1242617473 -3.4536964558 -0.2284531912
C -4.6179487652 -1.0196790453 1.2292954671
N -5.2655793950 -0.7964691582 2.1599352727
H -0.4462469187 1.9133044244 -0.2312720463
H 0.7317769489 -0.6430236333 -0.2574812444
H 0.3309627273 0.2109592621 1.2319177754
H -4.3471507044 -0.9847244022 -0.8333095413
H -3.2874558090 -3.1874614508 -1.0196339479
H -3.2759400748 -3.3740966617 0.7465203416
H -5.5751701339 -3.3612408072 0.6188816084