21

C -0.1126719860 1.3970507657 0.0326276355
O 0.2325776218 0.0383591475 -0.1293153259
C 0.7143631804 -0.5754188630 1.0418580970
C -0.3078135261 -1.2771586473 2.0319625724
C -1.7980818707 -1.2067781389 1.7208093519
C 0.4351301651 -2.5986088030 1.7834015293
C 0.4229696417 -2.9474524253 0.3106520584
C 1.3925461875 -1.9169735859 0.8128270003
O 2.7653481216 -2.0762011919 0.7262952294
H 0.7483619494 1.9939323132 0.3716543848
H -0.4364610827 1.7685030588 -0.9429800073
H -0.9324444571 1.5382751070 0.7513279044
H 1.3810271019 0.1076747400 1.5863359492
H -0.1274871416 -0.9238983344 3.0521665928
H -2.0067774898 -1.4335909294 0.6723216968
H -2.3538118336 -1.9205850022 2.3384979320
H -2.1993136750 -0.2090376416 1.9275147215
H 0.6634227775 -3.3424135223 2.5366026592
H 0.8931833777 -3.8983440929 0.0800043478
H -0.4080267819 -2.6825606376 -0.3354870149
H 3.0108185399 -2.0486714865 -0.2049474246