16

C -0.7215287800 -0.7248451640 -0.8677900218
C -0.2713273328 0.2594619265 -0.3428475428
C 0.2856369854 1.4259148641 0.3077932672
C 0.1500375649 1.5608199530 1.8574754287
C 1.6094341012 2.1265345889 1.9094326272
C 1.8342782062 1.5241421511 0.4814497705
C 1.6814997389 3.5750427210 1.9590344038
C 1.7294837329 4.7767266354 1.9857836846
H -1.1235886352 -1.5883283829 -1.3367642511
H -0.0860736848 2.3372139215 -0.1714621969
H -0.6467063357 2.2028256810 2.2338978389
H 0.0910560706 0.5813696409 2.3363527047
H 2.2398893571 1.6971477960 2.6925475837
H 2.2895608809 0.5334894127 0.5401665236
H 2.3784030011 2.1369457810 -0.2376234826
H 1.7795859593 5.8367811937 2.0188431225