25

C 0.5668863539 0.1641639498 -0.7461342694
C 0.0454842140 -0.1253704134 0.6577885788
O 0.2054062562 0.9871479744 1.5320700920
C -1.4210181505 -0.5712939540 0.6615578014
O -1.5193035503 -1.7608291944 -0.0904612605
C -2.7920112531 -2.4254381035 -0.1707735560
C -3.8478796019 -1.5185444598 -0.8221936361
C -2.5059398335 -3.6336671397 -1.0680908213
C -3.2549008788 -2.8955757166 1.2173132993
H 1.6214855310 0.4507255451 -0.7128301463
H 0.4515741803 -0.7153891662 -1.3838216418
H 0.0008965988 0.9866477749 -1.2041819979
H 0.6400516451 -0.9288871559 1.1070560268
H -0.1912755096 1.7536543080 1.1035562158
H -1.7342642602 -0.7109259460 1.7049909662
H -2.0414785424 0.2340984219 0.2318208209
H -3.4831707357 -1.1373317358 -1.7809043225
H -4.7695326678 -2.0796075828 -1.0046213372
H -4.1041677743 -0.6662249968 -0.1860837063
H -1.7303651346 -4.2608786682 -0.6197738218
H -3.4065505093 -4.2383132300 -1.2086063767
H -2.1515243508 -3.3020948901 -2.0481489523
H -3.5077588396 -2.0563637895 1.8716205091
H -4.1483820024 -3.5210078230 1.1268379201
H -2.4697651543 -3.4855437285 1.6994560255