21

C 0.0194072572 1.6062123751 0.1789864903
C 0.0748870352 0.1061566543 -0.0360839105
C 0.8662755704 -0.4978538736 -1.2472749470
C 1.8999504430 0.3612455968 -1.7984748480
N 2.7204358870 1.0438622112 -2.2442553924
C 1.3689352816 -1.5659548455 -0.2154735402
C 2.8186173140 -2.0107913983 -0.2090559212
N 0.9562877547 -0.6550153323 0.8669612431
C 0.3946895498 -1.2191514232 2.0741201430
H 1.0211870480 2.0413582381 0.1487568218
H -0.5962523242 2.0865101500 -0.5886482691
H -0.4262892475 1.8317201867 1.1535094850
H -0.9477500919 -0.3120220116 -0.0578991512
H 0.2518777747 -0.8860534296 -2.0608817083
H 0.7027763820 -2.4447556392 -0.2867213090
H 3.4903766656 -1.1492058435 -0.1936149978
H 3.0216725492 -2.6234757601 0.6755796513
H 3.0433372020 -2.6164875119 -1.0931485296
H 1.1532352522 -1.8089684014 2.5986509298
H 0.0763092264 -0.4173240709 2.7480008357
H -0.4772953392 -1.8731524712 1.8804324742