18

C -0.0247127895 1.5072920727 0.0087187413
C 0.0032315754 -0.0145216608 0.0205946828
C 1.3429743108 -0.7413626332 -0.1603450063
C 0.6688313563 -0.7334802366 1.1839954609
O 1.1762433237 0.1047468845 2.1745781278
C 0.0789775843 -2.0035311100 1.7515103691
O 1.1184066831 -2.5866017276 2.5366387590
C -1.1593063921 -0.6399204151 -0.5611171248
N -2.0980639775 -1.1340862986 -1.0242381480
H 0.8502351801 1.8992681461 0.5278179116
H -0.0304906303 1.8809258222 -1.0191011405
H -0.9178067886 1.8829180247 0.5157100751
H 1.3523061740 -1.6565058853 -0.7409586613
H 2.2073962462 -0.0988651305 -0.2816313564
H 1.6648483200 -0.4797831215 2.7702757780
H -0.7911106956 -1.7523397117 2.3740552578
H -0.2513181731 -2.6765326554 0.9508236480
H 0.7272102828 -3.2326530538 3.1311679959