23

C -0.0829859755 1.5198844915 0.4796010143
C 0.1727045299 0.0381722531 0.1579011555
C 1.0143912506 -0.6257907371 1.2561530938
C -1.1742272856 -0.6722705671 -0.0208175907
C -1.9170101241 -1.0865590734 -1.2607096768
C -1.1489203176 -1.9466693531 -2.3079822918
C 0.2727436912 -2.3284324979 -1.9688325865
C -0.8589354600 -2.9965626937 -1.2485079590
C -1.5813605517 -2.1240632649 -0.1866861140
H 0.8580911053 2.0747428172 0.5529178627
H -0.6950877631 1.9922795729 -0.2956252287
H -0.6093556881 1.6292534546 1.4356651308
H 0.7332944639 0.0189548204 -0.7793329151
H 1.2438350751 -1.6667754055 1.0093468260
H 1.9594055398 -0.0927556252 1.4068827640
H 0.4755198186 -0.6243755500 2.2109862121
H -1.8980826723 -0.2354619022 0.6726436325
H -2.8936189128 -0.6844974902 -1.5036901328
H -1.5431445097 -2.1001348826 -3.3043906646
H 0.7316116656 -2.9544145172 -2.7302562347
H 0.9772041091 -1.6763012479 -1.4748921930
H -1.0269270611 -4.0646888412 -1.3036167657
H -2.2661442876 -2.5763997905 0.5207946716