22

C -0.1366490963 1.3524950385 -0.4779577355
C 0.1746161199 -0.1215987511 -0.2321116676
C 1.3801999666 -0.7936401057 -1.0500698278
C 2.0941490891 -0.9029513820 0.3156837719
C 2.7203636349 -1.5637579264 1.5838699302
N 1.9265450023 -0.3430210010 2.1793534558
C 2.5389786316 0.4120324511 1.0050565658
C 0.8151680923 -0.7749316475 1.1026102442
C -0.0682980918 -1.8996385726 1.6164332760
H 0.7523210129 1.9823984469 -0.5518142600
H -0.6841535569 1.4620531499 -1.4213771282
H -0.7709948634 1.7554111578 0.3185591587
H -0.7558240808 -0.6713435951 -0.4037356149
H 1.0818129675 -1.7457729500 -1.4966249723
H 1.8661133016 -0.1774719938 -1.8123029196
H 2.3531365818 -2.5425812810 1.8918821941
H 3.7953977296 -1.4696805156 1.7641758437
H 3.6163859143 0.5771816994 1.1032689683
H 2.0298031398 1.3470500790 0.7847386473
H 0.3519461607 -2.3999567466 2.4911886283
H -1.0386395355 -1.4860772612 1.9158595281
H -0.2646224401 -2.6570648831 0.8478669636