15

C 0.0588618475 1.3751256754 0.1749406784
N -0.0422578889 -0.0313960376 -0.1712355463
C -1.2414386021 -0.6844715569 -0.0766547687
N -1.3373831075 -2.0033002493 -0.0096016023
N -2.6785642303 -2.2195145106 0.0132428612
C -3.1815861851 -3.5304778875 0.0802733032
O -4.3446051476 -3.8095318531 0.1112466520
N -3.4380426834 -1.1190008506 -0.0252620500
C -2.5635994648 -0.1351283629 -0.0811180597
H 1.0852894876 1.7052689865 0.0041163383
H -0.5891422840 1.9712757888 -0.4754737938
H -0.2082251824 1.5910336310 1.2199713285
H 0.7517109287 -0.6056717416 0.0681150635
H -2.3393057169 -4.2404643080 0.0989167378
H -2.8841032107 0.8937676363 -0.1209877620