16

C 0.0204393154 1.5380666278 0.1010200658
C 0.0162997753 0.0422549901 -0.0056303447
C 0.5991065723 -0.7935261824 -1.1927259797
C 0.6543658126 -1.8032675237 -0.0096610995
O 0.9508952629 -0.6727824639 0.8675924475
C -0.8399093529 -2.0269352378 0.2728658541
C -1.2950539514 -0.7660313948 0.2779033975
C -2.5862135339 -0.2368820584 0.4627643449
N -3.6307429420 0.2463310054 0.6062983501
H 1.0127254285 1.9350934949 -0.1258512342
H -0.7011119083 1.9711459619 -0.5980605838
H -0.2570569968 1.8488043312 1.1125720921
H -0.0385286700 -1.0133821362 -2.0510125031
H 1.5909041737 -0.4461749794 -1.4903509039
H 1.3514295784 -2.6354174346 0.0598257485
H -1.3654447339 -2.9600862302 0.4097035183