21

C -0.0083681982 1.5929397224 0.0642835404
C -0.0686637942 0.0635373274 0.1296081527
C 0.8471582469 -0.5440422802 1.1880421096
C 0.7636908845 -2.0758351432 1.3321333916
C 2.0735806159 -2.4393682934 2.0541605302
C 3.0466207771 -1.2600415408 1.6793671657
N 2.2707073260 -0.2692406458 0.9119400356
C 3.6266105853 -0.6457427202 2.8855534727
N 4.0819120598 -0.1875693474 3.8439465174
H 1.0082894961 1.9391083515 -0.1398462197
H -0.6676314170 1.9789063947 -0.7189511882
H -0.3215752724 2.0376874398 1.0147344704
H -1.0955061946 -0.2603633299 0.3375360571
H 0.1910832531 -0.3665057652 -0.8490905006
H 0.6134583090 -0.0870295377 2.1613818629
H -0.1216728589 -2.4103402164 1.8799488215
H 0.7297349963 -2.5317067054 0.3346983898
H 1.9289928036 -2.4787319938 3.1362011430
H 2.4832271275 -3.4024305242 1.7432167682
H 3.8840716357 -1.6168475865 1.0724861674
H 2.4456329486 -0.4222500956 -0.0769337077