18

C 0.1606668183 1.5978737283 -0.1218535251
C 0.0304798013 0.0946782435 -0.1040952977
C 0.7225266577 -0.7667642935 -1.1249126418
N 1.2027589657 -0.6734203262 0.2688582104
C 1.0173379233 -1.8384447697 1.1347693960
C 0.0387140367 -2.8810190744 0.6710571955
C -0.4233708071 -2.9492119200 -0.5822205018
C 0.0097006405 -1.9865906214 -1.6150648179
O -0.1864872641 -2.1692093185 -2.8020827408
H 1.1529227397 1.8933878934 -0.4716837632
H -0.5918076315 2.0445266907 -0.7797589268
H 0.0190669010 2.0091066303 0.8836120184
H -0.9337441566 -0.2853079559 0.2357089286
H 1.3496221928 -0.2879547344 -1.8723151417
H 1.9974816343 -2.3179562222 1.2742660319
H 0.7266281101 -1.4722735844 2.1282825646
H -0.2610628969 -3.6231544974 1.4089342721
H -1.0906970254 -3.7386310383 -0.9124179808