19

O 0.0345638699 -0.0353934974 -0.0684572946
C -0.0133148419 1.1668274128 0.0053921342
C -1.3057639575 1.9621780395 0.0378374551
C -1.3323493737 3.0157605413 -1.0918808094
C -0.0824201605 3.9053438981 -1.0655107764
C 1.1989968197 3.0668017826 -1.1374133941
C 1.2751384318 2.0259919041 0.0157791293
C 1.4460236364 2.6610536559 1.3184340966
C 1.5720030441 3.1826843073 2.3949804841
H -2.1445621980 1.2660752422 -0.0314935647
H -1.3601017659 2.4746812658 1.0066316274
H -1.3943996540 2.5007975641 -2.0593662923
H -2.2392380737 3.6225443692 -1.0020315086
H -0.1072590282 4.6124858813 -1.9014184147
H -0.0716874358 4.5018685107 -0.1452230466
H 1.2296165514 2.5173673170 -2.0866950371
H 2.0882510410 3.7033520875 -1.1034833818
H 2.1054885802 1.3345123060 -0.1599805596
H 1.6964058048 3.6346070421 3.3479343431