18

O 0.0949196325 1.3075062914 0.2596477548
C 0.0231878978 -0.0102586191 -0.2202582847
C -1.3800174256 -0.6073145519 -0.0308515602
O -1.6370653886 -0.5480900753 1.3598457875
C -2.7641571939 -1.2647805459 1.7949552479
C -3.3328789593 -0.8523732088 3.1122913007
C -4.1090406376 -0.5908948833 1.8374654400
C -2.3902002273 0.1336149716 -0.8172775745
N -3.1753978848 0.6975470605 -1.4496549785
H -0.2188188121 1.2879328268 1.1714581901
H 0.2743435664 0.0130188292 -1.2842994708
H 0.7296501779 -0.6808716121 0.2919682601
H -1.3815803156 -1.6509720569 -0.3821697289
H -2.7189078118 -2.3258837890 1.5517402271
H -3.6698319826 -1.6272805825 3.7909400476
H -2.8698733765 0.0025873888 3.5916439719
H -4.1580712960 0.4327830415 1.4878311657
H -4.9882873830 -1.1875677451 1.6227935542