14

N -0.1238498185 1.3870597784 0.0439424395
C -0.0324758248 0.0439346421 -0.0088933207
N 1.0872117476 -0.6249684526 0.0253240805
H 1.9715161739 -0.1291080134 0.0684995728
C 1.1876655906 -2.0184960799 0.0146824064
C 2.3274615190 -2.8094398609 0.0387747252
O 3.6172261077 -2.3886890499 0.0829290641
N 1.9321388326 -4.0761366473 0.0108719225
N 0.5739188244 -4.0613056370 -0.0302109906
N 0.1055776824 -2.8234973445 -0.0284794082
H 0.6886578345 1.9777244978 -0.0305881563
H -1.0136304030 1.8188440421 -0.1341543572
H -0.9392946178 -0.5486326621 -0.0504009328
H 4.1590896213 -3.1880022027 0.0917055849