22

C -0.0772518337 1.4071527382 -0.2128106258
O -0.0152246718 0.0023030584 -0.1854594829
C -1.2755101034 -0.5980510598 0.0386521228
C -1.0844794587 -2.0897865239 0.1044579868
C -1.2411989480 -2.9338969195 -1.1088866193
N -2.2934029645 -2.9203345037 -0.0789134815
C -2.1943458262 -4.0396885721 0.8791420934
C -0.7356508432 -4.1085479965 1.3899965795
C -0.2315500669 -2.6581898744 1.2321170542
H 0.9364370133 1.7775791504 -0.3847091178
H -0.7309132768 1.7727885974 -1.0209616394
H -0.4501040987 1.8195960449 0.7386782477
H -1.7090740395 -0.2330198451 0.9870320111
H -1.9848367778 -0.3419807290 -0.7642484373
H -1.5269330130 -2.4732608907 -2.0504268080
H -0.6179201769 -3.8185480388 -1.2142987753
H -2.8828434253 -3.8190917308 1.7024760262
H -2.5307708485 -4.9689276622 0.4086206782
H -0.6749992450 -4.4663617121 2.4207315255
H -0.1383887845 -4.7946426867 0.7823896893
H 0.8393567675 -2.5956724555 1.0241826184
H -0.4183837884 -2.0776787886 2.1437063243