23

C 0.0336837308 1.5710615184 -0.0355834134
C 0.0626616305 0.0323049452 -0.0168295669
C 0.6870061725 -0.5197418985 -1.3071733453
O -0.1063550593 -0.0841259148 -2.4025059995
C 0.7655411838 -0.5158999022 1.1976733939
C 0.2408561873 -1.3449442629 2.1037299152
C 1.1927565061 -1.6707103643 3.2284326308
C 2.5508647739 -1.1582945221 2.6858523728
C 2.1878853674 -0.1352143849 1.5818751637
H 1.0477574533 1.9861088026 -0.0549235374
H -0.4912667944 1.9255077944 -0.9250414979
H -0.4726313543 1.9623254692 0.8518883045
H -0.9731898733 -0.3295050474 -0.0004043807
H 1.7244497487 -0.1609838465 -1.4042764759
H 0.7190068857 -1.6185960588 -1.2515194377
H 0.3073078986 -0.3901837585 -3.2144324197
H -0.7777429318 -1.7192514836 2.0728679656
H 0.8975925450 -1.1497381730 4.1511693490
H 1.2166307919 -2.7379843309 3.4771058426
H 3.1903125286 -0.7344854168 3.4644773853
H 3.0985145209 -1.9939716384 2.2380051963
H 2.8893303147 -0.1653762245 0.7401850672
H 2.2153144935 0.8965212084 1.9604009474