16

C -0.2285595842 0.9863343776 0.3631514705
C 0.9687353964 1.1182860695 -0.5959375594
C 1.7770312325 0.4765036511 0.5635046807
O 0.5605537963 0.2246768143 1.3055500057
C 2.5409393367 -0.7747854895 0.2832833647
N 3.8517833920 -0.7510361939 0.2139969996
O 4.2367174436 -2.0499812306 -0.0972147310
C 3.1389942779 -2.8156519313 -0.1914323829
C 2.0236044994 -2.0801098247 0.0355896412
H -0.5764733938 1.9316326834 0.7982696497
H -1.0945040267 0.4197124348 0.0043330492
H 0.9050408474 0.4877021620 -1.4839614470
H 1.2672390902 2.1261242587 -0.8850796475
H 2.4294485050 1.1885058378 1.0826871389
H 3.3123680471 -3.8563529177 -0.4178427024
H 0.9962533802 -2.4001407515 0.0517786500