20

C -0.1245744799 1.5505927543 0.0128364907
C 0.0270198502 0.0271031799 0.0042273851
C 0.7449179502 -0.5099381688 1.2459834345
C 0.8997159079 -2.0409572549 1.2339021126
C 1.5510414472 -2.5663827451 2.4718907503
N 2.7434800774 -3.1468357775 2.4656859565
N 2.9303091689 -3.4393055074 3.7769476858
C 1.8695814486 -3.0332117598 4.5005055730
N 0.9746242632 -2.4752426474 3.7121935522
H 0.8523069378 2.0453647726 0.0518602229
H -0.6419182929 1.9063338551 -0.8837800517
H -0.6983655112 1.8858483815 0.8839389582
H -0.9641347753 -0.4399793579 -0.0702472063
H 0.5756920104 -0.2821266819 -0.8954825125
H 1.7384267066 -0.0495058878 1.3254296566
H 0.1961717321 -0.2178991073 2.1493131737
H -0.0917540169 -2.5000904797 1.1353293944
H 1.4935781218 -2.3571556476 0.3708306740
H 3.7733353807 -3.9020822508 4.0735863187
H 1.7961315534 -3.1643921996 5.5699085214