20

C -0.0546577834 1.5867305183 -0.0826381857
C 0.0941213820 0.0813706528 0.0260944958
N 1.2789476283 -0.5971912599 -0.7122599463
C 2.1297324129 -0.1514105385 0.4901535807
C 0.8403664731 -0.6358567344 1.1917272937
C 0.4956930109 -0.6942655203 2.6580304073
C 0.9546081780 -1.8260098434 0.1842743387
C -0.1954709132 -2.6368739439 -0.1563263037
C -1.1280742575 -3.3546911852 -0.4061888880
H -0.2262459134 1.8637463458 -1.1281338012
H -0.9296648690 1.9092192290 0.4920317745
H 0.8055231493 2.1552569537 0.2775699728
H -0.8493258842 -0.3909845157 -0.2619532167
H 3.0377268471 -0.7472012002 0.6238135422
H 2.3675565044 0.9112303788 0.4948793885
H 0.4505829786 0.3109272158 3.0910935170
H -0.4784775488 -1.1718697233 2.8072614610
H 1.2425615266 -1.2677639674 3.2176526340
H 1.8371197543 -2.4615713565 0.3103364048
H -1.9531102461 -3.9817040955 -0.6385666794