18

N 0.1317744173 1.3781652165 -0.1572980789
C -0.0194712781 0.0228675349 -0.0003368149
C -1.1940274560 -0.6544223161 0.1365445920
C -1.2047206497 -2.1683892249 0.1367198230
C 0.1088789331 -2.7248876563 -0.3958044868
O 1.2121870631 -2.0849971186 0.2399809962
C 1.2937803319 -0.7309508036 -0.1057397122
C -2.4718683698 0.0121312825 0.3059671177
O -3.5422735141 -0.5608174482 0.3953387269
H 1.0083086956 1.7808320353 0.1364147584
H -0.6638123270 1.9771117814 -0.0083744061
H -1.3832101048 -2.5448577362 1.1519223965
H -2.0459474640 -2.5234549684 -0.4685138514
H 0.2135171703 -3.7913822868 -0.1821095648
H 0.1753424090 -2.5850000995 -1.4873012820
H 1.6779618653 -0.6001968747 -1.1344263640
H 2.0297302798 -0.2774336992 0.5715667832
H -2.4440088720 1.1257950817 0.3734229770