14

O 0.0068575969 1.4112946339 0.0682902413
C 0.0116421292 0.0195978236 0.0263482596
C -1.3783277098 -0.6037104674 -0.0101055659
O -2.0125492994 -0.1652469798 -1.2220621965
C -1.1256333709 -1.2773526671 -1.2973412581
C 0.2784763294 -0.6300841915 -1.4284650858
O 0.4420972800 0.2912592408 -2.4595485972
C 1.3765808552 -1.5886735327 -1.4333295149
N 2.2210727539 -2.3754637402 -1.3779925263
H 0.9141445824 1.7238373928 -0.0208473885
H 0.6523897870 -0.4431471929 0.7868130889
H -2.0229672599 -0.8830636918 0.8131454735
H -1.4928117304 -2.2105479312 -1.7060573854
H -0.3043054938 0.9017800835 -2.3709863948