21

C 0.0946267595 1.4204891506 -0.5430685043
C -0.0468371471 0.0135217276 0.0415319768
C -1.5027195029 -0.4114926616 0.1878120358
O 0.5778204997 -0.9711193325 -0.7863907669
C 1.9673880002 -0.9704989065 -0.7836951558
C 2.6761224243 -2.0874793234 -1.5858800681
C 2.2628144733 -1.4057841670 -2.9126796053
C 2.8039723925 -0.3281478426 -1.9446101478
O 3.8947423330 -1.2473663344 -1.5578031563
H 1.1439279954 1.7191847093 -0.6187057035
H -0.3503307735 1.4632582607 -1.5426094301
H -0.4150934899 2.1506478611 0.0935450426
H 0.4379974618 -0.0108619031 1.0314275572
H -1.9998921725 -0.4073382056 -0.7874162577
H -1.5664397537 -1.4216533774 0.6002775560
H -2.0387769351 0.2728224361 0.8518479690
H 2.3976754687 -0.7941241066 0.2097042350
H 2.7857197923 -3.1457253851 -1.3480199759
H 2.9084198330 -1.6258471371 -3.7636707447
H 1.2007959237 -1.3823505768 -3.1590059858
H 3.0718190973 0.7114759643 -2.1361060104