16

O 0.0195654674 -0.0641196459 0.0809177376
C -0.0539155735 1.1459307529 0.0629105315
C 1.1949506819 1.9462411439 0.0204447733
N 2.1711975160 2.5650913952 -0.0149465895
C -1.2963469508 1.9287935367 0.0827409870
C -2.5118902089 1.3576554086 0.0730686297
C -3.6132613290 2.3772901609 0.0558555146
C -2.8798535777 3.7032094648 0.3893650839
C -1.3845547058 3.4435986428 0.0666192800
H -2.6737537631 0.2862558845 0.0461117840
H -4.0797622394 2.3981738745 -0.9401396785
H -4.4188711500 2.1403136035 0.7592400181
H -3.2843380878 4.5586057668 -0.1553307136
H -2.9890783568 3.9172223635 1.4566514223
H -0.7106303353 3.9198017385 0.7848720311
H -1.1058202772 3.8326026288 -0.9214020215