18

O 0.0192914906 -0.0401126546 -0.1968535966
C -0.0046607680 1.1538954131 -0.0481448793
C -1.2735271491 1.9959418372 0.0955692183
C -0.8479049341 3.4729193887 0.0639376128
C 0.0535398227 3.7862910094 1.2618556439
N 1.1341527020 2.7789118520 1.2788336457
C 1.2246444565 2.0654356950 -0.0064116285
C 1.1184070622 3.0305975003 -1.2013058521
O -0.1329731947 3.7263388759 -1.1494888941
H -1.9510673690 1.7618432526 -0.7312220357
H -1.7865238057 1.7360428850 1.0286068503
H -1.7109383158 4.1415770842 0.0441379339
H 0.4296129861 4.8121282752 1.1518374369
H -0.5216562231 3.7409518459 2.1963130091
H 2.0256460478 3.1977629774 1.5122683290
H 2.1379206687 1.4702633694 -0.0443301044
H 1.9454669431 3.7551269191 -1.1633154720
H 1.1796609398 2.4970521643 -2.1588737373