25

C -1.2200582594 0.4206987402 -1.3320861225
C -0.0036138278 -0.3296052016 -0.8080103251
C 1.4187850207 0.1533109285 -1.1950475464
C 1.9290276727 -0.2475384034 0.2239409117
C 2.5272529978 -1.6602086155 0.2276087958
C 2.8947365519 0.7200284953 0.9049790960
C 0.4256405117 -0.2447451458 0.6963307561
C -0.0258312482 1.0280797518 1.4080265903
O 0.1187740090 -1.3759323403 1.4975824548
H -1.1518251003 1.4973648085 -1.1442289762
H -1.3203109101 0.2846978202 -2.4147071628
H -2.1479536356 0.0597205396 -0.8725462526
H -0.1058589589 -1.3928310775 -1.0474563813
H 1.8998254066 -0.3351697399 -2.0468359453
H 1.4523824361 1.2367999153 -1.3537316747
H 3.4947785209 -1.6522300695 -0.2871884780
H 2.6845272790 -2.0171039957 1.2492806729
H 1.8821580675 -2.3853078225 -0.2742071956
H 2.5314906260 1.7514393049 0.8900979147
H 3.0702248348 0.4382521810 1.9497201544
H 3.8653083794 0.7068801818 0.3957404732
H 0.2077782419 1.9328532808 0.8405659925
H -1.1129783788 1.0136165960 1.5571515956
H 0.4507957276 1.1046441799 2.3893818844
H -0.7885404146 -1.2874837620 1.8076227182