14

O 0.0736312953 0.0629454280 -0.5834290689
C 0.0478281470 1.1659058554 -0.1321975636
C -1.0323133698 2.0265676351 0.5605900389
C -0.0094490968 3.1843155347 0.6098819465
O 0.7682180141 3.1828930887 1.8304663570
C 1.8575239908 2.4785009824 1.2019500409
C 2.2646315673 1.2684342074 1.9189713533
N 2.5964110227 0.3187844446 2.4870146843
C 1.0676334879 2.3282368316 -0.1292146343
H -1.8853484836 2.2096014515 -0.1020605713
H -1.3959079339 1.6728658549 1.5279163619
H -0.3225364437 4.1852082919 0.3142904055
H 2.7317280949 3.1315141067 1.0923836720
H 1.5882646479 2.5709476070 -1.0533797423