12

N 0.1043734761 1.4015098098 0.1680099538
C -0.0115293278 0.0352350948 0.0377700683
C -1.0602293775 -0.8269939723 -0.0145787453
O -0.6160350142 -2.1604467359 -0.0398253802
C 0.7134063192 -2.0767537659 -0.0171081855
N 1.7494678881 -2.8813160095 -0.0440161427
N 2.8122216512 -2.0236061044 -0.0065428516
N 2.4681379700 -0.7666656766 0.0401417051
N 1.1095471557 -0.7939424782 0.0372283892
H 0.9312445693 1.7834769876 -0.2726543182
H -0.7272580871 1.9158686937 -0.0838327469
H -2.1249977531 -0.6838549630 -0.0255067161