16

O -0.0931462192 1.3543274815 0.0709697736
N 0.0490338906 -0.0410783208 0.1344412673
C -1.0722006200 -0.6188925170 0.0545387244
C -2.5168710348 -0.1860566497 -0.1677803593
C -2.8055012231 -1.6568421374 -0.4993978631
C -4.0102531421 -2.4277562769 -0.7750019979
O -3.1178657964 -2.0340292292 -1.8372955204
C -1.4238613289 -2.1144218648 0.0310361079
O -0.7217160948 -3.0240529870 -0.7534571134
H 0.8215289460 1.6546340346 0.1149779922
H -3.0124205534 0.1882379269 0.7337466878
H -2.6821964293 0.5198283258 -0.9853006720
H -4.0266145885 -3.4944750767 -0.5569663478
H -4.9816013743 -1.9363458639 -0.7881744737
H -1.4741319184 -2.5178817113 1.0501773452
H -1.0228123632 -2.8925353041 -1.6629438109