14

O 0.1069126555 1.3478775799 0.2044476050
C 0.0701696303 -0.0181295277 0.0493095879
C -0.0316017734 -0.6740536386 -1.1670815338
C -0.0613308487 -2.0701690972 -1.2180144148
C 0.0131016641 -2.7743254871 -0.0285691177
F -0.0139524351 -4.1137085558 -0.0567714186
C 0.1155973441 -2.1400974615 1.2040036344
C 0.1444908342 -0.7521084703 1.2447541019
O 0.2442887670 -0.1125588562 2.4371313662
H 0.0515503963 1.7756498263 -0.6548726674
H -0.0885427776 -0.0976443962 -2.0862244100
H -0.1404124141 -2.6003684458 -2.1582692998
H 0.1722842826 -2.7139709620 2.1201339664
H 0.2478524747 0.8364846022 2.2572609004