16

O -0.0872111787 -0.0308656004 0.0312109596
C -0.0184721280 1.1774285568 0.0388370011
C 1.2421621348 1.9383297866 0.0395156391
C 1.2068784680 3.2776900061 0.0159384210
C 2.4533717786 4.1101253909 0.0217748145
O 3.6262318130 3.3711388699 0.2766041075
C 3.6682173713 2.1376483475 -0.4297071023
C 2.5554087051 1.1989293034 0.0378644757
H -0.9361645784 1.8087185906 0.0438949148
H 0.2560301216 3.8062915874 -0.0226279557
H 2.5253824799 4.6519601941 -0.9411930048
H 2.3928245900 4.8771790052 0.8039494530
H 3.5782351131 2.3170133909 -1.5136511498
H 4.6574014215 1.7147302232 -0.2381804163
H 2.7743506031 0.8213567999 1.0440868376
H 2.4833917452 0.3196337480 -0.6110055750