18

C -0.1876027676 1.5466164404 0.0903702626
N 0.1502691872 0.1213644612 0.1630033738
C 1.3471049967 -0.5367228689 -0.2735899084
C 2.6829260754 0.1652792139 0.1967012107
O 2.3573790848 1.3769617006 0.8835474857
C 2.2421733921 0.1354976449 1.5856543489
C 0.8966633249 -0.5862362905 1.1664383441
C 0.2604093192 -1.6739725347 1.9778838145
O -0.4233131021 -1.1606120452 3.1141762998
H 0.4451657576 2.0748420022 -0.6253237006
H -1.2317823240 1.6361501212 -0.2330425223
H -0.0769472042 2.0371076514 1.0601565106
H 1.3070162811 -1.2981099670 -1.0463353852
H 3.6666448916 0.0738024298 -0.2467486796
H 2.7883981532 0.0149363697 2.5128804137
H -0.4061892850 -2.2588266676 1.3282791583
H 1.0257007105 -2.3504733119 2.3748706977
H -1.1241156114 -0.5870623495 2.7857065656