21

C 0.1139276850 1.5135332008 0.0175893850
C 0.0116232369 -0.0105076365 0.0049564254
C 0.7412502437 -0.6795942329 -1.2109873062
C 1.3436255933 -1.9859041758 -0.7033034001
C 2.6074464712 -1.8858457213 0.1124902966
C 1.2752038707 -1.9938515385 0.8097976254
C 0.6288511708 -0.6926487558 1.2747102187
C -1.4436458557 -0.4459210718 -0.0631271971
O -2.3951108666 0.2914961864 -0.1022412646
H 1.1622290149 1.8248200692 0.0666375044
H -0.3345274069 1.9458765771 -0.8812047195
H -0.4140376873 1.9366413953 0.8767137453
H 0.0460247469 -0.8603935142 -2.0384188030
H 1.5077145304 0.0011765671 -1.5979879234
H 1.1727017731 -2.8918095647 -1.2736596617
H 3.2637305967 -2.7492392321 0.1376327379
H 3.1268743560 -0.9315126804 0.1409916278
H 1.0539292347 -2.9056042737 1.3528724727
H 1.3569391399 -0.0163337432 1.7364158849
H -0.1381259144 -0.8817787417 2.0340816773
H -1.5811447633 -1.5534419734 -0.0751905857