19

C -0.0752172146 1.5139107541 0.1339191067
C -0.0319954511 0.0071410719 0.0680937922
C 1.2799535445 -0.6794213848 -0.2921111810
C 0.7470997096 -0.8008577008 1.1016658683
O 1.4834353398 -0.2101939712 2.1256510708
C -0.0533545659 -2.0320254387 1.3995181787
O -1.3284642836 -1.7171977248 1.9934947427
C -1.2758136936 -2.0033361016 0.5890829613
C -1.3076852050 -0.7610102554 -0.2939229225
H 0.8437738534 1.9083837256 0.5765957845
H -0.1903896919 1.9573895278 -0.8616951385
H -0.9174549504 1.8549894344 0.7473875192
H 1.2729526781 -1.5495762287 -0.9424095415
H 2.1438778549 -0.0336140007 -0.4084401497
H 0.8632310967 0.0152069771 2.8297890457
H 0.4177590327 -2.9452307242 1.7555138075
H -1.7898478213 -2.9122664927 0.2871452399
H -2.2050951118 -0.1679482872 -0.0839917206
H -1.3418700003 -1.0409696102 -1.3541205039