23

C -0.6300616993 1.2409508675 -0.0431422340
C 0.1775366282 -0.0506555000 -0.0911619670
C 1.6141485444 -0.0276485818 -0.6810657317
C 2.0514799184 -1.0448219399 0.4052342704
C 0.7595341340 -0.7118857708 1.2133115503
C 1.0235412826 0.3104863898 2.3154262283
O 1.8047318195 -0.3152362332 3.3408356204
C -0.0211321343 -1.9164138347 1.7486942341
O 0.7446573275 -2.7589571770 2.5875767668
H -0.0817205094 2.0529178777 0.4462808112
H -0.8666698775 1.5775237704 -1.0587499790
H -1.5796841931 1.1084974794 0.4871236600
H -0.4121563641 -0.8140398271 -0.6122785108
H 1.7278218169 -0.3222813585 -1.7272767679
H 2.0907769553 0.9496828862 -0.5516825897
H 2.0409640073 -2.0770568754 0.0472305898
H 3.0016018365 -0.8676010657 0.9127989311
H 1.5634787885 1.1814068576 1.9167253436
H 0.0682633670 0.6689489933 2.7279561753
H 1.8768414925 0.2890783995 4.0851124266
H -0.9378763710 -1.5624705723 2.2568450764
H -0.3455484585 -2.5380955556 0.9055544982
H 1.1933755986 -2.1762170894 3.2145818676