12

O -0.1815432898 -0.1257078790 0.0014101363
C -0.1077380536 1.0771481685 0.0055915367
C 1.2279246745 1.8453439576 -0.0022297063
C 2.3953824075 0.9882045430 -0.0162737720
C 3.3722550663 0.2802064824 -0.0280016283
C 4.4813080462 -0.5161965760 -0.0412812575
N 5.4282177545 -1.1886414649 -0.0525897099
C -1.2723691728 1.9396630646 0.0186636258
C -2.2248714366 2.6751262187 0.0294746317
H 1.2269708230 2.5149849640 -0.8729967259
H 1.2418387118 2.5064934510 0.8749163460
H -3.0812224008 3.3059692401 0.0392155534