19

O 0.1223007691 1.3956098067 0.0561864451
C 0.0894684472 -0.0176716921 -0.0531891848
C -1.3630201061 -0.4588950100 0.0673563734
C -1.5214220440 -1.9745308306 -0.0302708358
C -2.9708648424 -2.4401172247 0.0373475648
O -3.9032305184 -1.6789660761 0.0240413228
C -3.1489357144 -3.9691531004 0.1305278573
C -4.5205340644 -4.4296309355 0.0081384057
C -5.6521941339 -4.8165110897 -0.0958056695
H 1.0364377354 1.6837818919 -0.0197068832
H 0.5028125550 -0.3538216506 -1.0193351840
H 0.6931942616 -0.4936094484 0.7382073862
H -1.7667119359 -0.1013748676 1.0200976462
H -1.9535909260 0.0262258023 -0.7152134726
H -1.1026047764 -2.3525516300 -0.9752094768
H -0.9535142753 -2.4895984818 0.7574627623
H -2.5097170129 -4.4383651656 -0.6295088671
H -2.7223464354 -4.2824234579 1.0945450971
H -6.6560297228 -5.1497618699 -0.1881896471