23

C -0.2463703215 1.5145859050 -0.1216778446
C 0.0615708697 0.0333822075 -0.0229986900
C 1.3820371017 -0.6476003274 -0.3285303744
C 2.6687704364 0.1493102013 -0.3503796936
O 2.6958134305 1.0134941327 -1.4842828391
C 2.7321198146 0.9027668234 1.0063559442
C 1.7487991805 0.1821428286 1.9579190454
C 0.8208211018 -0.6673326362 1.0830236896
C 0.2385341481 -1.9116177396 1.7138561760
H -0.2757321482 1.8334947423 -1.1681585404
H -1.2274173273 1.7217448830 0.3210301489
H 0.4787067768 2.1487890026 0.3889134584
H -0.7737756152 -0.5667965403 -0.3813603766
H 1.3458857687 -1.5340804756 -0.9540231402
H 3.5069884303 -0.5626147698 -0.4166638885
H 3.5545808117 1.4479321348 -1.5044896686
H 3.7485750598 0.9222922455 1.4117783694
H 2.4428917877 1.9421280168 0.8327227083
H 2.2933219068 -0.4878016394 2.6335921813
H 1.2008921464 0.8856040315 2.5961197806
H -0.4221929361 -1.6599656422 2.5526350373
H -0.3512319620 -2.4861435744 0.9925223196
H 1.0262717588 -2.5690173302 2.1020210367