17

C 0.0028614176 1.5034489163 -0.0325444665
C -0.0106960763 0.0490615392 -0.0196643833
C -0.0158603201 -1.1565173829 -0.0071471916
C 0.0004702035 -2.5756866177 0.0438473854
C -0.3852501690 -3.4525413232 -1.1606494992
C -1.1593500222 -3.6383446444 0.0870581159
C -0.3645836546 -4.5271866842 1.0503387807
C 0.7480407830 -3.4448192811 1.0323938820
O 1.7246522846 -3.2696933007 1.6991611035
H 0.8854243198 1.8890900885 0.4896868104
H 0.0250751181 1.8959167385 -1.0552894362
H -0.8818539136 1.9168535310 0.4647047289
H -0.8563621224 -2.8841302178 -1.9548415222
H 0.2993917094 -4.2243934590 -1.5026073226
H -2.2109183806 -3.4020181186 0.1737191236
H -0.7884527898 -4.5973853495 2.0560544874
H -0.1081569273 -5.5303203245 0.6969251538