22

C 0.4497583616 0.4078819542 -1.3852055870
C 0.0614619653 0.1148262094 0.0671102847
C -0.0310501505 1.4008045906 0.8900258775
N -1.2662413551 -0.5220394664 0.0520798778
C -1.4527116850 -1.9348559244 -0.1466691401
C -0.3356080441 -2.9394852955 -0.3215773866
C -1.7745895707 -1.2880923765 1.1993746457
C -0.9751392019 -1.6304033455 2.4012408829
O 0.2300640059 -1.7442173577 2.4675832286
H 1.4225957314 0.9074080459 -1.4228069837
H 0.5209393158 -0.5107374313 -1.9750701937
H -0.2943209478 1.0571256353 -1.8574832931
H 0.8207530923 -0.5294009782 0.5237265317
H -0.2763996509 1.1874514631 1.9343251071
H 0.9262490845 1.9305019138 0.8745445281
H -0.8026231409 2.0625156787 0.4834302581
H -2.3374468400 -2.1617504051 -0.7431561172
H 0.4724608303 -2.7936252170 0.3950914336
H -0.7316937881 -3.9517886852 -0.1909587819
H 0.0733868743 -2.8768828124 -1.3355279276
H -2.8211505586 -1.0955576464 1.4310031380
H -1.6036379177 -1.7870832794 3.3072180671