18

C -0.5063490903 1.0410485979 -0.1434062064
N -0.1822142881 -0.3785130813 -0.1088986662
C 0.7053185183 -0.8416008353 -1.0941115794
C 1.2699263810 -0.1769449448 -2.1414779022
O 1.9967646510 -1.0477216564 -2.9084438133
C 1.8864150360 -2.2689646629 -2.3320072715
C 1.1105169468 -2.2217528616 -1.2191403561
C 0.6631509493 -3.3209829257 -0.3057291689
O -0.7536980697 -3.4339393387 -0.2486527027
H 0.3779156577 1.6934455096 -0.0671959454
H -1.0149221537 1.2694685663 -1.0854372031
H -1.1871290651 1.2770967908 0.6776063177
H 0.1082084562 -0.6698560067 0.8177425509
H 1.2406569042 0.8416551588 -2.4861746297
H 2.4092393316 -3.0726697616 -2.8250334712
H 1.0439371319 -4.2857696193 -0.6552196016
H 1.0786214959 -3.1661093723 0.7062015493
H -1.1035884930 -2.5360524069 -0.1799444302