24

C -0.0533010982 1.6013694398 -0.1277526070
C -0.0011265543 0.0720688721 -0.0707329687
N 0.6772394973 -0.3320692387 1.1724722044
C 1.6040805968 -1.4591797526 1.1283017721
C 2.1068360710 -0.0693606642 1.2864843351
C -1.4238815664 -0.5701988091 -0.0463146321
C -2.2993338197 -0.0628967443 -1.1947601414
C -1.3430165466 -2.1064501597 -0.1086720213
O -2.0716893627 -0.1769297408 1.1616322323
H 0.9429666147 2.0284268115 0.0163255828
H -0.4240252494 1.9465342198 -1.0953506778
H -0.7128838940 1.9838957840 0.6552007525
H 0.5446423025 -0.3062075940 -0.9534897217
H 1.5707713477 -2.1380178373 1.9759358221
H 1.7725123626 -1.9406187365 0.1668823999
H 2.6145712908 0.3708761265 0.4301381536
H 2.4494705108 0.2924928517 2.2517593325
H -1.8303294558 -0.2585147406 -2.1646962756
H -3.2649610720 -0.5760712869 -1.1730101695
H -2.4894711118 1.0078658188 -1.1034027818
H -0.8023529907 -2.5110813013 0.7498653137
H -2.3545680662 -2.5215806781 -0.0908222365
H -0.8461379225 -2.4493311413 -1.0234502715
H -1.3934881639 -0.2622109887 1.8478031839