18

O -0.0197161906 1.4517632184 -0.0995220838
C 0.0200134976 0.0359813981 -0.0335107181
C -1.3953504633 -0.4541048966 0.0036453498
C -2.5142904256 0.2736357219 0.0194433542
C -3.7365266101 -0.6084912816 0.1034539917
C -3.1503113822 -2.0293755405 -0.0934578315
N -1.6896169617 -1.8405004508 0.0276360921
C -0.8117762998 -2.8739388489 0.1177993136
O 0.3991179002 -2.7829200961 0.1929021055
H 0.8869284745 1.7686037902 -0.0697049238
H 0.5390106493 -0.4034905905 -0.8975599289
H 0.5565037691 -0.3232786019 0.8551774358
H -2.5318814001 1.3518693656 0.0142012775
H -4.2400465301 -0.5069976432 1.0740388868
H -4.4858547078 -0.3789055251 -0.6609379830
H -3.5053692975 -2.7481318010 0.6487585243
H -3.3906011073 -2.4206203434 -1.0883875326
H -1.3380829845 -3.8487403247 0.1180521102