14

O -0.7812502068 1.0097309739 0.8703076419
C 0.1018588258 0.8391672410 0.0790780660
C 1.3381844369 1.7346005924 -0.0518738059
N 2.4224991139 1.0976382778 -0.8527559950
C 2.4972494449 2.1990516395 -1.8462648716
C 1.2198851288 2.7858981186 -1.2463681399
O 0.4454007582 3.6380780859 -1.5235019234
C 1.7343483760 2.3734524479 1.1846535787
C 2.1095791775 2.9022130408 2.1970343464
H 0.1033626209 0.0219492999 -0.6732461915
H 3.2734305927 0.9501698200 -0.3231782893
H 3.3475784183 2.8860856500 -1.7395573698
H 2.4297394494 1.8790450713 -2.8914947040
H 2.4192130936 3.3666302209 3.1009688974