17

C -0.1393854116 1.4694988113 -0.1556870343
O -0.4091750347 0.0863653533 -0.3172987422
C 0.6415743527 -0.6116373643 -0.9660784102
C 1.8054337635 -0.8204995660 0.0270445692
O 2.9467129240 -0.5227717790 -0.1926411282
C 0.1706433980 -1.9204609728 -1.3951654298
C -0.1496659476 -3.0368797315 -1.7164550275
C -0.6045180544 -4.3594667644 -2.1457871584
O -1.0746243591 -4.3919396106 -3.4837327800
H 0.7515809153 1.6539258902 0.4608912683
H 0.0034665029 1.9651360340 -1.1269397112
H -1.0096877914 1.9008780151 0.3423136296
H 1.0326813941 -0.0405995643 -1.8222340085
H 1.4684954564 -1.2606254892 0.9907927814
H 0.2284756683 -5.0698362304 -2.1032347768
H -1.3668838323 -4.7221837804 -1.4380875583
H -1.7555143542 -3.7162899309 -3.5693365231