18

C 0.2311391155 1.5689709680 0.0809376102
C -0.2037848886 0.1240595830 -0.1897488505
C 0.5943767170 -0.5154692652 -1.3052448380
C 1.9101964592 -1.1758332487 -1.0370175639
C 0.7122240904 -2.0369384201 -1.4373255323
C 0.1067504509 -2.9074290816 -0.4864722722
C -0.4151551915 -3.6588050132 0.3070496175
C -0.9976883924 -4.5017021975 1.2062656310
N -1.4945844036 -5.2191814767 1.9744563094
H 1.2848888197 1.6160415060 0.3742392380
H 0.1058877996 2.1946977817 -0.8094184550
H -0.3632405588 2.0117856659 0.8853675371
H -0.0983852618 -0.4738655059 0.7224534995
H -1.2694963838 0.1000567133 -0.4483433857
H 0.5081231390 -0.0125842144 -2.2655772899
H 2.7122997827 -1.0907419260 -1.7610392709
H 2.2348145609 -1.2523799173 -0.0050557172
H 0.7214416156 -2.4256925814 -2.4514312368