23

C 0.0666354830 1.5284391519 0.0951263537
C 0.0549140121 0.0110106191 -0.0030253526
C 0.7002524098 -0.5231367318 -1.2874835186
C 0.8221812983 -2.0538819137 -1.2532593351
C 1.4858320642 -2.5236696464 0.0590084350
C 1.5392225764 -4.0429584406 0.1579877376
O 2.8349687639 -2.0544756525 0.1199917680
C 0.7099577916 -1.9057119184 1.2314282293
O 0.7484223420 -0.4879685504 1.1466650866
H 1.0937980397 1.9055694054 0.0623428996
H -0.4902078216 1.9710688879 -0.7361193809
H -0.3882092198 1.8550477786 1.0340019489
H -0.9878872989 -0.3508208077 0.0453889503
H 0.1147497326 -0.2008850510 -2.1557208480
H 1.6975904759 -0.0781713382 -1.3916086531
H -0.1742247535 -2.5083510036 -1.3340351809
H 1.4128434516 -2.4117682349 -2.1026969776
H 2.1339174764 -4.4503366753 -0.6650790670
H 2.0099571639 -4.3481421630 1.0971877480
H 0.5368615818 -4.4797061653 0.1075930540
H 2.7878180141 -1.1440776556 0.4378340190
H -0.3319933374 -2.2644108706 1.2436652507
H 1.1844771642 -2.1708553639 2.1811196629