21

C 0.0197259702 1.5341557567 0.0121551474
C -0.0504590330 0.0009605445 -0.0134301334
C -1.5161341995 -0.4621349804 -0.0783481137
C 0.7164200952 -0.5274855494 -1.2400472575
O 0.7229477214 -1.9438578229 -1.2973228335
C 1.4236825909 -2.5368126662 -0.2202912933
C 0.9230590712 -2.0709171932 1.1483385070
O 0.8236257030 -2.8314748882 2.0813959404
C 0.6345843595 -0.5810873162 1.2481607697
H 1.0566992715 1.8881410804 0.0286208124
H -0.4699993802 1.9658130751 -0.8675679575
H -0.4827380642 1.9318487344 0.9001114165
H -2.0194260609 -0.0349875136 -0.9523845555
H -1.5848946329 -1.5505983678 -0.1544354620
H -2.0652089637 -0.1452486053 0.8142388236
H 0.2394857416 -0.1922521544 -2.1663816960
H 1.7511581351 -0.1416401027 -1.2311409130
H 1.3016333065 -3.6186729225 -0.2987647079
H 2.5037164860 -2.3033439614 -0.2809251205
H 1.6119353715 -0.0915556481 1.3781474512
H 0.0570876908 -0.3929750487 2.1579601655