17

C 0.1327844871 1.4896982309 -0.2816675487
C -0.0702811184 0.0397966413 0.1007000689
O 0.6230754329 -0.8693330874 -0.8269388853
C 1.3783291295 -1.4169501488 0.1801507739
O 2.2215858555 -2.2477762346 0.0847819076
C 0.7243581563 -0.5754216594 1.2824342809
C 1.6443364638 0.3110994837 2.1372431385
C 2.3565627686 -0.4500711482 3.1556791502
C 2.9258546787 -1.0860441154 4.0005262278
H 1.1936603399 1.7459352341 -0.3436849404
H -0.3199370158 1.6845468123 -1.2578354398
H -0.3452747522 2.1481989158 0.4510207699
H -1.1335449888 -0.2161090404 0.1161792923
H 0.1018711136 -1.1923576938 1.9351739319
H 2.3652890584 0.8361489025 1.5004574590
H 1.0359609106 1.0871582472 2.6195042195
H 3.4419772905 -1.6499226799 4.7375803538