20

C 0.1772977527 1.4824778519 0.1214899448
N 0.2344606755 0.0360228362 0.0284927807
C 0.4944737096 -0.6231910437 -1.1314946191
O 0.7107293970 -0.0317201896 -2.1884215758
C 0.4804414948 -2.1341221091 -1.0413763323
C -0.7733533761 -2.7618786342 -1.7419176237
C 0.0737648167 -3.0106541954 -3.0159829516
C 1.3569339416 -2.8108996680 -2.1620117146
O 2.4444202826 -2.1210307455 -2.6889107744
H 0.9054779329 1.8604929732 0.8470360682
H 0.4144463833 1.8812724434 -0.8650538235
H -0.8213273521 1.8245239661 0.4153405032
H 0.0634405008 -0.5094028707 0.8566844669
H 0.6683648864 -2.4649805953 -0.0156346354
H -1.0768143865 -3.6855912974 -1.2434537841
H -1.6479250358 -2.1164433959 -1.8443745952
H -0.0468251612 -3.9643474807 -3.5347728141
H -0.0351665516 -2.1925040781 -3.7310678699
H 1.7356547691 -3.7694247333 -1.7932270356
H 2.1118815004 -1.2316187138 -2.8910571245