18

C 0.5625887904 1.4785943818 -0.5864131857
N 0.8539565489 0.0865800586 -0.8619826454
C -0.0797083733 -0.8908320204 -0.7710798448
O -1.2518436857 -0.7282429686 -0.4959354516
C 0.4978196983 -2.3124449914 -1.0390723520
O 1.6318419390 -2.2930876985 -1.8965657438
C 1.2877481319 -2.1548815883 -3.2656524725
C 0.8796349791 -2.9248667168 0.2289988677
C 1.1833888655 -3.4079197852 1.2854709783
H 0.8241293652 2.1147587796 -1.4387274417
H -0.5085790950 1.5574046420 -0.3956439018
H 1.1077952081 1.8336242108 0.2954153616
H 1.7914486813 -0.2034741695 -1.0943132411
H -0.3234858777 -2.8858232545 -1.4919338871
H 2.2233047876 -2.1697446533 -3.8284907385
H 0.6537151877 -2.9873600627 -3.6013766500
H 0.7634292935 -1.2099717487 -3.4647781333
H 1.4483704451 -3.8428373048 2.2175344516