23

C -0.0200653340 1.5514806001 -0.0940648820
C 0.0033430967 0.0357855673 0.0678993799
O 0.6309518342 -0.2406636544 1.3096482009
C -1.4058612571 -0.5755416177 -0.0069341012
C -1.4259760608 -2.1099802623 0.0180576866
O -0.7933789786 -2.6288702261 1.2067776472
C -2.8182617219 -2.6731217450 -0.1495890678
C -3.3404271421 -3.0116400830 -1.5248471928
C -3.0038803544 -4.1124852376 -0.5521994897
H 0.9927825496 1.9512131161 0.0053529151
H -0.4147977360 1.8386946295 -1.0735263128
H -0.6417246794 2.0082707051 0.6830706562
H 0.5985252939 -0.3929675278 -0.7605642887
H 0.4839811722 -1.1819794060 1.4820134809
H -2.0032314533 -0.1887533044 0.8313383498
H -1.8977381312 -0.2447253990 -0.9300502953
H -0.7935028585 -2.4873820069 -0.7959781599
H -1.3866861094 -2.4611103474 1.9483165929
H -3.5475617258 -2.2656425144 0.5490193416
H -4.3834578500 -2.8101321048 -1.7412106667
H -2.6765002711 -2.8592061668 -2.3697477495
H -2.1088797752 -4.6977531545 -0.7336517487
H -3.8175323377 -4.6718052200 -0.1044356060