19

C -0.1022453790 1.4954636258 -0.0652457740
C 0.0617471998 0.0099278223 0.0638216615
C 1.3716282553 -0.7246237271 -0.1844318018
C 0.7010943352 -0.7589567772 1.1794699501
C 1.3244359691 -0.2384628562 2.4407307492
O 2.2534479921 -1.1514731230 3.0009500503
O -0.1429411761 -1.8658138175 1.4395823430
C -1.0275101190 -1.9695348327 0.3378658339
O -1.1237268168 -0.6938890958 -0.2592925535
H 0.7996683323 2.0137177021 0.2709691324
H -0.2805865713 1.7720785419 -1.1093894432
H -0.9510402397 1.8439477835 0.5307277577
H 1.3823807635 -1.6165098379 -0.8009406590
H 2.2648970020 -0.1137695212 -0.2651783636
H 1.8814240581 0.6788102859 2.2273536981
H 0.5252465880 0.0080670823 3.1567633213
H 1.7823969684 -1.9825045884 3.1271830926
H -0.6433431913 -2.7057833516 -0.3870109067
H -2.0151906807 -2.2812470652 0.6924078717