16

O 0.5120259008 0.4330266189 -0.9110302150
C 0.0670981494 1.1413773133 -0.0414906967
C 0.8689609046 1.3969870091 1.1821767049
N 1.4805930704 1.6029898498 2.1418479488
C -1.2623268412 1.8355224510 -0.0462754433
C -2.2707422964 1.6043328603 -1.2071248854
C -2.5436875784 0.1773503108 -0.6369741978
C -2.5140040312 1.1197739771 0.5996350585
C -3.3738835820 2.1149436385 -0.2309578697
H -1.1300407723 2.8695773605 0.2925003382
H -2.1212155531 1.8850015253 -2.2488896644
H -3.5192509675 -0.2514637618 -0.8773170518
H -1.7490807988 -0.5604156029 -0.7386912425
H -2.6252100918 0.8567894538 1.6515050452
H -3.3346318361 3.1679472789 0.0597783435
H -4.3945588863 1.7941289274 -0.4502756624