10

O 0.1111822278 1.3992677529 -0.1109291333
C 0.0698495355 0.0398211521 -0.0455893178
C -0.0102865449 -0.8034251586 -1.1352931836
N -0.0263343678 -2.0624563364 -0.6173203444
N 0.0370540728 -2.0954420992 0.7189120161
C 0.0964202153 -0.8127957475 1.0801026174
H 0.1645276320 1.7483386637 0.7834810159
H -0.0548355262 -0.6040944809 -2.1926166752
H -0.0790852146 -2.9291600291 -1.1237071161
H 0.1556388703 -0.5455980669 2.1257268010