15

N 0.1706000909 1.3887051561 0.1031112056
C -0.0048470892 -0.0019260733 0.0021721166
C -1.1229295172 -0.7934917472 -0.0195495762
C -0.6604332616 -2.1600367304 -0.0001348651
C 0.7270943114 -2.0995752004 0.0275669829
N 1.2182063104 -3.3586468517 -0.0305028623
N 0.1948295157 -4.2690343630 -0.0463262977
C -0.9264837014 -3.5514277111 -0.0472785926
N 1.1571559080 -0.7958081143 -0.0144693025
H 0.5380963743 1.7996002158 -0.7507669679
H -0.7050159890 1.8462860469 0.3229479676
H -2.1386118599 -0.4334710868 -0.0746300129
H 2.1600909014 -3.6933490771 0.0626093105
H -1.8743618472 -4.0684034089 -0.0799458849
H 2.0361159333 -0.4456522145 0.3282026888