23

C -0.0686439183 1.6544711496 0.0822541410
C 0.0103967835 0.1248438093 0.1304225008
C -1.3422538749 -0.5654565256 -0.0656306236
C -2.0361409641 -0.2963155843 -1.4176955711
C -3.0486519688 -1.4467710949 -1.5519494353
C -2.2638683796 -2.6676956286 -1.0410881478
C -1.3312666446 -2.1030968965 0.0358929848
C -0.2385450682 -2.9037699508 0.6027974733
O -1.4287429445 -2.6564785704 1.3556756229
H 0.9107594740 2.1045547246 0.2716083476
H -0.4133883225 2.0109165354 -0.8935937803
H -0.7626312989 2.0371420014 0.8390924672
H 0.7142301935 -0.2324352464 -0.6332576187
H 0.4254842962 -0.1764530162 1.1000398286
H -2.0166346045 -0.2241852719 0.7332614841
H -2.5014590627 0.6915173734 -1.4664159679
H -1.2991481666 -0.3505276954 -2.2310611486
H -3.9133177948 -1.2554251259 -0.9054007029
H -3.4248387848 -1.5737651787 -2.5705043930
H -2.8896738285 -3.4650884670 -0.6328058191
H -1.6690013834 -3.0971495695 -1.8562226545
H -0.1031127578 -3.9325784313 0.2663443410
H 0.6637415902 -2.4265453603 0.9805396713