18

O -0.1056802632 -0.0493146387 -0.1476679460
C -0.0324804063 1.1531502535 -0.0420007313
N -1.1041774167 2.0380073802 -0.0449918464
C -0.6927203539 3.3628652436 0.2201055608
C 0.6401858338 3.4404547507 0.2441784963
C 1.6719071823 4.3715807557 0.8142217426
C 2.8069693841 3.3894455618 1.2677599172
C 2.1955120492 1.9629613540 1.2278465144
C 1.2066803705 2.0556826102 0.0491788088
H -2.0592730973 1.7199049004 -0.0640473154
H -1.4402695989 4.1159843550 0.4283227823
H 2.0549704413 5.0936229786 0.0837225238
H 1.2751612457 4.9545387496 1.6517612649
H 3.6433047006 3.4462922500 0.5629889615
H 3.2055253227 3.6413543977 2.2537349048
H 2.9480023757 1.1805036461 1.1062994619
H 1.6458427877 1.7564285655 2.1525839310
H 1.7522667528 1.9486013662 -0.8992276015