18

C 0.4415709461 1.6548853242 -0.1426729501
C 0.0944005445 0.1550144211 0.0126448874
C 0.4552832035 -0.5766698615 -1.1993944103
C 0.7923387764 -1.1541401131 -2.1995429316
C 0.7556568948 -0.4410685038 1.2616751044
C 1.1965331567 -1.8743511270 1.3113992131
N 2.1894492030 -0.8045767293 1.2748188758
C 0.2856273448 0.1084793428 2.5692340776
O -0.7083046645 0.7762915336 2.7144328690
H 1.5210835058 1.7926983894 -0.2532721911
H -0.0458911296 2.0634270959 -1.0308161890
H 0.0987551535 2.2096131742 0.7320331043
H -0.9891246721 0.0773283322 0.1667877218
H 1.0616811252 -1.6635122465 -3.0920068949
H 1.1419266189 -2.4222673073 2.2483103302
H 1.0182798226 -2.4599037480 0.4151423993
H 2.5496097030 -0.7148943924 0.3254627244
H 0.9374995271 -0.1779976144 3.4230819597