22

C -0.0300724985 1.5912221609 0.0057703609
C -0.0155160351 0.0603768703 -0.0131963219
C -1.4239369960 -0.5494357408 0.0348767958
C -1.4155394037 -2.0528827725 0.0164994414
C -1.0116392700 -2.8627693836 -1.2400115074
C -2.0226029049 -3.8690597314 -0.7294362120
C -1.9641123455 -3.8870015594 0.7638403750
C -0.9153646400 -2.8923040544 1.2177752291
N -2.7803216338 -2.8381382601 0.0605204499
H 0.9844707407 2.0001257664 -0.0292137662
H -0.5815502666 1.9918480386 -0.8519461000
H -0.5121213015 1.9706361781 0.9135042538
H 0.5019059538 -0.2898345573 -0.9156685936
H 0.5708584565 -0.3108956013 0.8371881255
H -1.9462458636 -0.2087533393 0.9387445679
H -2.0152892976 -0.1876993897 -0.8167674992
H -1.3680994549 -2.3766028235 -2.1527889548
H 0.0357950687 -3.1595578520 -1.3613521055
H -2.5467221348 -4.6345219158 -1.2909228139
H -2.4434346287 -4.6662025494 1.3460742078
H 0.1380716737 -3.1909358395 1.2496705597
H -1.1988884482 -2.4285114443 2.1670354677