23

C 0.0982783061 1.6833986844 -0.1550382739
C 0.0778317261 0.1646532189 -0.0527851312
C 0.9775793715 -0.7766935151 -0.8892787171
C 2.4431740775 -0.3519024555 -0.9639783427
C 2.9344543300 0.1965349863 0.4042287436
C 2.0626325657 -0.2660468861 1.6066346958
C 2.0302040122 0.7699531733 2.7348707357
C 0.6714896426 -0.6762988258 1.1104837747
O 0.8690435722 -1.7719563715 0.1694707361
H 1.0973876257 2.1165558417 -0.0858113760
H -0.3321188769 2.0002534379 -1.1117930860
H -0.5136038620 2.1305245320 0.6361889466
H -0.9520544283 -0.1819172072 -0.1862389953
H 0.5974362728 -1.1482857089 -1.8460970873
H 3.0177728238 -1.2374807400 -1.2558127125
H 2.5904875609 0.3963329111 -1.7521216851
H 3.9776544697 -0.0886659009 0.5726791675
H 2.9355738204 1.2905384734 0.3751737172
H 2.4901030391 -1.1936625864 2.0080571337
H 1.5723297777 1.7099387833 2.4087517544
H 1.4611895836 0.4019907874 3.5957995573
H 3.0431819408 1.0006970270 3.0814722449
H 0.0056303589 -0.9543973393 1.9348428396