18

C 0.0005056767 1.4985781653 -0.0348565268
C 1.3143536537 0.7353815156 -0.0401918033
C -0.0099732150 0.0102942770 0.0387030232
C -0.4201224972 -0.7467687697 1.2861199395
C 0.0212006434 -2.2071708268 1.1356435142
O -0.4461503878 -2.7366842518 -0.0996381082
C 0.0080592458 -1.9688998640 -1.1802538982
O -0.4515914130 -0.6376597149 -1.1331421378
H -0.2725625175 2.0594125919 0.8525459775
H -0.3217497126 1.9383990192 -0.9717330367
H 1.8514336746 0.6844067743 -0.9803875912
H 1.9423132541 0.7779202471 0.8433945488
H 0.0245936408 -0.3001012520 2.1813468770
H -1.5106304028 -0.7090286302 1.3895441573
H 1.1211701842 -2.2750441183 1.1789182852
H -0.3933914936 -2.8414333696 1.9231265003
H 1.1137432316 -1.9782733852 -1.2103292161
H -0.4034278454 -2.4141376878 -2.0880153146