19

C -0.0471842936 1.5193213784 0.0772873586
C 0.1338291634 0.0240337701 0.0915839511
O 1.4549272855 -0.4952461639 0.0382899865
C 0.6940273580 -0.7360636493 1.2435876563
C 1.1764217142 -0.1143395781 2.5325743021
C 2.5911724930 -0.5821549443 2.9060127687
O 3.0495899505 0.0168562961 4.1051690113
C 0.2344231146 -2.1644254018 1.3232647626
O -0.0136235370 -2.7457133378 2.3490274667
H 0.7060189229 2.0251302260 0.6829181500
H 0.0392188141 1.8890388948 -0.9495798098
H -1.0421089087 1.7869051776 0.4477982165
H -0.5679937319 -0.5170317877 -0.5488118864
H 1.1723096104 0.9762569623 2.4798202615
H 0.4765283398 -0.4152418717 3.3210056918
H 2.6203030214 -1.6798168613 2.9659832328
H 3.2925936835 -0.2756365137 2.1245215307
H 2.5257051594 -0.3384033928 4.8303047374
H 0.1429903704 -2.6502567930 0.3264296917