17

C 0.6817942430 1.2245262566 0.0643834882
C -0.3288903483 0.1147588184 -0.1196483462
O -1.2054845599 -0.1168602434 0.6888494805
C -0.2003695878 -0.7162659625 -1.3550450578
C -1.4659535184 -1.3568949306 -1.9144712537
C -0.4394444486 -2.2646386616 -1.3393599197
N 0.5562003168 -2.7335110451 -2.2644086298
C 1.2664923445 -1.6310830045 -2.7043281600
N 0.8943412205 -0.4855104087 -2.2582953115
H 1.6959305242 0.8126295255 0.0790616107
H 0.6479974038 1.9086768507 -0.7894935673
H 0.4732809537 1.7569643610 0.9927906104
H -2.3462344525 -1.1894757893 -1.3052966380
H -1.5995645060 -1.3338756274 -2.9907534167
H -0.6192920486 -2.8344616870 -0.4362542534
H 1.0184839670 -3.6171708044 -2.1178617782
H 2.0742829667 -1.7662789277 -3.4160139177