22

C -0.6463512759 1.4155254572 -0.1330220210
C 0.0206256975 0.0488676312 0.0080655595
C 0.7140204794 -0.4650244528 -1.2775222807
C 1.7446344435 -1.5036674552 -0.7869761060
C 3.2670006533 -1.1826247454 -0.9110532068
C 3.4146918832 -1.3040531892 0.6330911054
C 1.8672253572 -1.3423412446 0.7660096025
C 1.1420409593 -0.0187720907 1.0650389727
H 0.0887454950 2.1815617963 -0.4078371124
H -1.4202045355 1.4053357592 -0.9082675380
H -1.1198445798 1.7295821676 0.8035018606
H -0.7472696573 -0.6858286258 0.2913882487
H -0.0046039064 -0.8754673796 -1.9938349790
H 1.2186836837 0.3702393574 -1.7807395041
H 1.5050575271 -2.5174920634 -1.1160783952
H 3.8626846783 -1.8788046795 -1.5067149253
H 3.4541059862 -0.1723253718 -1.2873502416
H 3.8861113381 -2.2430138754 0.9355661676
H 3.9272366360 -0.4861555612 1.1479483890
H 1.4654570603 -2.1571522837 1.3747263936
H 1.8234113894 0.8316851068 0.9212024930
H 0.7646185774 0.0457983326 2.0905539275