21

C -0.2035423356 1.3433399102 0.7629508163
C -0.1378732303 -0.1401911036 0.3926234410
C 0.9214056255 -0.8855891494 1.2115678700
N 1.0093504665 -2.3108765900 0.8895763524
C 1.9966030666 -2.7842267128 0.0464491231
O 2.1346584247 -3.9355097517 -0.2958034145
C 0.0931387588 -3.2076450680 1.4372067292
N -0.8291353263 -2.8240617093 2.2156844059
C -1.7149282581 -3.8413929911 2.7451569228
H 0.7553052622 1.8442541500 0.5870675053
H -0.9621409519 1.8624321679 0.1703372988
H -0.4589435400 1.4762507367 1.8198112883
H -1.1078400573 -0.6151500394 0.5666990277
H 0.0894308744 -0.2530344380 -0.6746777368
H 1.9109932959 -0.4481336009 1.0402502426
H 0.6956989549 -0.8024848077 2.2778577626
H 2.6675960742 -1.9702808874 -0.2863499865
H 0.2783152123 -4.2376834363 1.1210130248
H -1.6753643924 -3.8271137815 3.8404930237
H -2.7486879102 -3.6106582992 2.4629078941
H -1.4782886738 -4.8602440284 2.4013115693