19

C 0.1649583915 1.5943445555 -0.1802040094
C 0.0215998623 0.0822399148 0.0213754660
C 0.6172626636 -0.7175769556 -1.1746955717
O 1.5374886132 -1.6664417897 -0.6493025599
C 2.0225879568 -1.1322440938 0.5687592207
C 0.7924694654 -0.5115379486 1.2429736877
C 1.1092789697 0.4371254311 2.3973827471
H 1.2144743426 1.8921645326 -0.2826617809
H -0.3517050667 1.9069332746 -1.0941427401
H -0.2662352247 2.1597294498 0.6512576995
H -1.0437543155 -0.1455134470 0.1264901791
H -0.1351795433 -1.2680820191 -1.7474231943
H 1.1331462058 -0.0321076219 -1.8666018227
H 2.4768298919 -1.9474116438 1.1392037888
H 2.7974493496 -0.3646224162 0.3888762769
H 0.1937964701 -1.3429562556 1.6334608472
H 1.7426560791 1.2715997961 2.0805236213
H 0.1976945929 0.8573045317 2.8343849301
H 1.6391648757 -0.0936804149 3.1956529448