20

O 0.6888567477 0.5878969256 -0.7980937261
C -0.0108538130 -0.2684541673 0.0651517340
C 0.1130786079 -0.0761203120 1.6076229633
C -1.3868031173 -0.3902054892 1.6918179289
C -1.5568384583 -0.1447818829 0.1911539615
C -2.0784113551 -1.4412238108 2.4573863574
C -1.4994329346 -1.5969564096 3.8598880735
C -1.7242515531 -0.0710508311 4.0185524801
N -2.3873394348 0.0440135908 2.6680541289
H 0.4261172620 1.4928722363 -0.5985627232
H 0.2819366089 -1.2809992770 -0.2246647224
H 0.8212851725 -0.7107570239 2.1456210083
H 0.3190196669 0.9731057612 1.8537027147
H -1.8932627413 0.8803500083 -0.0024096872
H -2.1774837450 -0.8354782397 -0.3841815175
H -2.7981098545 -2.1097516094 1.9928193155
H -2.1360355606 -2.1856648423 4.5227378684
H -0.4754958499 -1.9779364450 3.9276301997
H -2.4344031103 0.1932164679 4.8040541267
H -0.8325327879 0.5561750603 4.1216177754