21

C 0.0872506141 1.5367043219 0.1249164420
C -0.0743990230 0.0227804088 -0.0519594340
C -1.5042809464 -0.4668417183 -0.0248388644
C -2.6494439772 0.1119819036 -0.9030785728
C -3.5866236935 -0.5287842952 0.1474252724
C -3.2707691765 -2.0428416435 0.1762408543
C -2.3980417492 -1.9573987699 1.4093758223
C -1.7490075878 -1.9989920483 0.0434796094
C -2.4583237414 -0.4105118005 1.2413825243
H 1.1446934481 1.8181943067 0.1379805290
H -0.3930547973 2.0897234645 -0.6885014950
H -0.3585786625 1.8763773040 1.0660869751
H 0.3875195619 -0.2850993286 -1.0011132649
H 0.4859572352 -0.4987233528 0.7360494276
H -2.6853432625 1.2054281388 -0.8565300559
H -2.7259045512 -0.2176607216 -1.9447528654
H -4.6139397588 -0.2010125154 0.3013660188
H -3.8666754748 -2.8721049012 -0.1819427619
H -2.3047055614 -2.6147890276 2.2633897072
H -1.1723633982 -2.7919245098 -0.4164927165
H -2.4199555274 0.3557639841 2.0122753784