19

C 0.0174741743 1.5103202698 0.1824683098
C -0.1789148435 0.0076725555 -0.0205504999
O -1.4773844180 -0.2704033289 -0.5443618219
C 0.8264385855 -0.5714568607 -1.0217610047
C 0.8096785079 -2.0625324173 -1.1100684024
C -0.1711930247 -3.0063774943 -1.1521578747
C 0.4866367712 -4.2763614748 -1.2495900773
C 1.8174351820 -4.0107070459 -1.2621051416
O 2.0335585228 -2.6701046957 -1.1761118051
H 1.0033405601 1.7270257371 0.6065461592
H -0.0798679688 2.0416278776 -0.7696157570
H -0.7356432254 1.9085140021 0.8718947301
H -0.0451099308 -0.5105695220 0.9420761396
H -2.1274813736 0.0176779564 0.1039493222
H 0.6160393900 -0.1202529009 -2.0012955667
H 1.8363817043 -0.2598820828 -0.7381603163
H -1.2287982775 -2.8053525878 -1.1195034702
H 0.0262592506 -5.2506813291 -1.3026805627
H 2.7016368537 -4.6235320184 -1.3214216304