18

O -0.1875860551 0.4002873734 -0.7575505821
C 0.1791481211 1.0918523914 0.1663736875
C 1.4166397001 1.8961215091 0.1766423033
C 1.8869046778 2.6421667345 1.4198999695
C 2.4919737979 3.9476130633 0.8144638848
N 2.7779187416 3.6492991314 -0.6029467789
C 3.6788567853 2.4351190352 -0.6852613192
C 2.4575161048 1.5529213806 -0.9053608754
C 1.6510615021 2.7968877922 -1.0486666650
H -0.4368910464 1.1837634652 1.0896496116
H 1.0515150560 2.8480039544 2.0971778861
H 2.6289413143 2.0737425326 1.9894310571
H 1.7622916087 4.7630047790 0.8512559030
H 3.4015636895 4.2828157341 1.3201446784
H 4.3135882422 2.4997060081 -1.5726343249
H 4.3052036935 2.2601223077 0.1962414749
H 2.3763090202 0.6257389271 -1.4578798828
H 0.8781487363 3.1092689209 -1.7380787778