23

C -0.2288641254 1.6018217857 0.0897939780
C -0.0387871075 0.0942605663 -0.0994315449
C -1.3702915769 -0.6627318947 -0.1339475467
C -1.2858142601 -2.1837009628 -0.0805754732
C -0.0786045718 -2.8988720025 -0.5227036945
O -0.3368586060 -2.7086148900 0.8695851522
C -2.6339638779 -2.8463776731 -0.0924061818
C -3.2678273814 -3.2875408288 -1.3932607492
C -2.8429889195 -4.3093738095 -0.3707297332
H 0.7326280501 2.1243700982 0.1011333555
H -0.8321397509 2.0331506336 -0.7171652763
H -0.7381088104 1.8208005164 1.0348773796
H 0.5144477204 -0.0824151995 -1.0299192347
H 0.5737235594 -0.3112261561 0.7130025048
H -1.9818991072 -0.3436446924 0.7223771271
H -1.9421243870 -0.3833198687 -1.0285179681
H -0.1424543260 -3.9273936921 -0.8732936169
H 0.7658834352 -2.3406646600 -0.9219371338
H -3.3173214168 -2.4111916303 0.6332031339
H -4.3257288102 -3.1037453516 -1.5440754643
H -2.6676477035 -3.2014206488 -2.2931816250
H -1.9841110612 -4.9313284400 -0.5924288440
H -3.6122876253 -4.8169148996 0.2003542357