22

C -0.0498111727 1.3880570941 0.1008047661
O -0.0393405467 -0.0172573699 0.1121686610
C -1.3179725140 -0.5779940242 -0.1170172183
C -1.1963300429 -2.0857146897 -0.0269524046
C -0.8980739414 -2.7270274380 1.3764659174
C -2.1971199756 -3.5399368354 1.2439702433
C -2.4553641057 -4.9195569782 1.7637250347
N -3.2779962473 -2.5267917751 1.1374213869
C -2.4933673539 -2.9046511057 -0.0721194744
H 0.9712659168 1.7273453408 0.2941091287
H -0.3772827889 1.7887111182 -0.8726384764
H -0.7141528733 1.8004006184 0.8772501066
H -2.0425317746 -0.2165803108 0.6278030539
H -1.6920369148 -0.2825860531 -1.1140611251
H -0.4774250666 -2.4405405873 -0.7706956889
H 0.0026493787 -3.3446540604 1.3690834664
H -0.8620863661 -2.0382851489 2.2237677130
H -2.5698577466 -4.9173933435 2.8544588581
H -3.3708446058 -5.3401609976 1.3323670405
H -1.6279267447 -5.5941784734 1.5184808850
H -4.1587144016 -3.0394039973 1.0815498517
H -2.9952713623 -3.3054781728 -0.9457884157