21

C -0.1181688599 1.5858746182 -0.0333536612
C -0.0184413127 0.0595655251 -0.0258219426
C 0.8570929038 -0.5241585430 -1.1252647634
C 2.2845032758 -0.6058601510 -0.6115889122
C 1.4132579741 -1.8500159904 -0.6496219913
C 1.1203840765 -2.0194058947 0.8541802226
C 2.4977120044 -1.7502009003 1.5263378186
C 2.3041802097 -0.3359820905 0.9041312642
C 0.7636551745 -0.5225644744 1.1484813725
H 0.8755522741 2.0443389630 0.0081530442
H -0.6126813500 1.9463137545 -0.9416659435
H -0.6938255745 1.9502138480 0.8243759306
H -1.0267343699 -0.3754250025 -0.0645716644
H 0.6544580336 -0.3484250814 -2.1758660095
H 3.1490042994 -0.4664720269 -1.2467405072
H 1.5988653535 -2.6855092962 -1.3114613084
H 0.4720205448 -2.8418475026 1.1576584615
H 2.4405476994 -1.7424562954 2.6191784303
H 3.3564965824 -2.3438214763 1.1991564637
H 2.8534695799 0.5349531574 1.2618036675
H 0.4154295610 -0.3072135307 2.1583928082