21

C -0.0149502921 1.5703539037 0.0161631486
C 0.0255260121 0.0403865153 0.0014408124
C 0.6783907215 -0.5057563349 -1.2786068897
C 0.6158581445 -2.0396622323 -1.3386787115
C 0.9388664900 -2.6755771900 -0.0195771287
C 1.0094914793 -1.9985778884 1.1366895834
C 0.7535694464 -0.5159181222 1.2360965432
C 1.3423555549 -2.7380125360 2.3664318637
O 1.4216642125 -2.2406759741 3.4677775434
H 0.9966538951 1.9896192110 -0.0404391914
H -0.5855956549 1.9611116123 -0.8329377393
H -0.4782994789 1.9464816326 0.9342559242
H -1.0096733429 -0.3308111127 0.0306732385
H 0.1985943094 -0.0778383012 -2.1657099943
H 1.7283805616 -0.1841855734 -1.3051138302
H -0.3873375871 -2.3705635853 -1.6488941787
H 1.2936463716 -2.4267389947 -2.1103924771
H 1.1157839805 -3.7505986095 -0.0108016214
H 1.7116395166 0.0068013342 1.3725359913
H 0.1869615189 -0.3136520253 2.1515675483
H 1.5225943708 -3.8269263290 2.2131110553