20

C -0.1047279187 1.5853595868 -0.3271078178
C 0.0115901085 0.0838949278 -0.0993935324
C 1.0661448247 -0.6883306845 -0.9066272500
N 2.3874082199 -0.1724823658 -0.4733220358
C 1.7006424533 -1.2163170602 0.3283406654
C 0.6972115434 -0.4739669767 1.2244370839
C 1.2648301743 0.4870165147 2.2302759173
C 0.4890924930 0.9433764982 3.3911926095
O 1.5035410732 -0.0476645364 3.5427779219
H 0.8795845931 2.0593614274 -0.3071490981
H -0.5600809790 1.7915723435 -1.3021830434
H -0.7317857729 2.0562184133 0.4371367502
H -0.9674933434 -0.3924340318 -0.2085673477
H 0.9472219022 -1.1475451386 -1.8807209765
H 3.0955862574 -0.6427560387 -1.0353366874
H 2.1758631920 -2.1703438211 0.5198868861
H 0.0276892735 -1.1678143001 1.7395577097
H 2.0654122363 1.1262517258 1.8632739406
H 0.7050350161 1.9116191229 3.8414426815
H -0.5331314171 0.5899112636 3.5277107629