21

C -0.1798595115 1.4976237169 0.0772457743
C 0.0187498251 -0.0199254780 -0.0114154689
C 0.7399215219 -0.4222674818 -1.3229097514
C -0.0047983869 -0.0823306031 -2.5290325666
C -0.6391620182 0.1993489752 -3.5107154184
C 0.7927696776 -0.5504447941 1.1932563875
C 0.0996614052 -0.5052015084 2.5749344227
O 0.2627741104 -1.9255045454 2.7573614089
C 0.8208713045 -2.0781931906 1.4378299581
H 0.7854713133 2.0176501394 0.0989875781
H -0.7417296135 1.8680894685 -0.7840523260
H -0.7277361217 1.7727150322 0.9839622490
H -0.9691701776 -0.5005898193 -0.0196124885
H 1.7253969815 0.0632374834 -1.3520045315
H 0.9332766390 -1.5027701285 -1.3157356285
H -1.1895909767 0.4444378250 -4.3849534127
H 1.7933084525 -0.1053971726 1.2144496424
H 0.6024889046 0.0706709364 3.3606613869
H -0.9602608408 -0.2154015557 2.5465432465
H 0.1607041549 -2.6618743417 0.7797611484
H 1.8070376465 -2.5568819179 1.4622621595