12

N -0.0055731903 1.3468234907 0.0079752648
C -0.0189837679 0.0026035287 0.0007315793
N -1.1620850119 -0.6391100056 0.0039803162
C -1.2028241320 -2.0000403500 -0.0032866820
O -2.1710239908 -2.6982500419 -0.0014763974
O 0.0639231443 -2.7091512012 -0.0148147901
C 1.2127174598 -2.0359197514 -0.0179328124
C 1.2386183881 -0.6951958113 -0.0106662282
F 2.3790080340 0.0113554592 -0.0136103710
H 0.8624089861 1.8518628424 0.0055747211
H -0.8826456607 1.8401221276 0.0159347050
H 2.1007523411 -2.6585176071 -0.0267093352