15

C -0.1752293615 1.5322967447 0.0582317975
C 0.1137868730 0.0212827194 -0.0067451653
C -1.2170836316 -0.7340577887 0.0675440387
O -1.6365733010 -1.2587828651 1.0618004547
C 0.8548342876 -0.3803955288 -1.2438643255
N 1.0927674216 0.4322536034 -2.2405830204
O 1.7791973765 -0.3678205571 -3.1616752799
C 1.8678251085 -1.5764754699 -2.6057622830
N 1.3262946367 -1.6673008503 -1.4350453411
H 0.7540961785 2.1013863174 -0.0157952566
H -0.8223325844 1.8476241659 -0.7651110690
H -0.6660389196 1.7747766487 1.0036641660
H 0.6963612041 -0.2947877660 0.8640745355
H -1.8028309707 -0.7180571659 -0.8796231657
H 2.3722415521 -2.3443068377 -3.1740374958