19

C -0.0465680960 1.5341938034 -0.0271638789
C -0.0699526663 0.0251859309 -0.1063416908
C 0.7528576825 -0.6471350373 -1.2126175273
C 0.2108836015 -2.0613495101 -1.1865481854
C -0.8910804800 -2.1442147263 -0.4259068136
C -0.8771408895 -2.9706278618 0.8353387629
O -0.1585055536 -2.0183507162 1.6798775583
C -0.4954460739 -0.7077824566 1.2286203494
C -1.3517028317 -0.7634073972 0.0227012649
H 0.9613993258 1.9040345953 0.1937730827
H -0.3624502016 1.9820446811 -0.9773004650
H -0.7171733109 1.9103994785 0.7518708560
H 0.6375257618 -0.1071784426 -2.1649154006
H 1.8307996449 -0.6720162845 -1.0015390478
H 0.8324243079 -2.9138383983 -1.4429671837
H -1.8588077630 -3.1831028873 1.2753506019
H -0.2843947333 -3.8851149058 0.7762656697
H -0.6758461815 -0.0381129889 2.0639143471
H -2.3711987331 -0.4073820563 -0.0874046298