16

C -0.1128633254 1.5081733154 0.0360559886
C 0.0740416293 0.0180553925 -0.0595675520
O 1.1266470840 -0.5526800074 -0.1804951588
N -1.1249378656 -0.7481511213 0.0021439120
C -1.2454197225 -2.1081280009 -0.0608919937
C -2.5877795085 -2.3430223804 0.0414913607
C -3.3502148279 -3.6251852028 0.0377078160
N -3.2234615410 -1.1231718956 0.1617723722
N -2.3537954209 -0.1725228165 0.1385115214
H 0.8682671256 1.9781942398 -0.0187545814
H -0.7547243268 1.8648700598 -0.7734604177
H -0.6132631998 1.7714103475 0.9712775645
H -0.3837807795 -2.7427521463 -0.1689674556
H -3.9190005073 -3.7433450073 0.9653487455
H -4.0678554219 -3.6497559705 -0.7883630044
H -2.6778341718 -4.4798678060 -0.0649842172