19

C -0.1078969776 1.5900108806 -0.1049610364
C -0.0003927608 0.0644297820 0.0125686427
C 0.7371302235 -0.5612810114 -1.1933422163
N 2.1531289007 -0.2180585613 -1.1436343562
C 2.8333237303 0.0273409527 0.0250050454
O 3.9027600043 0.5982317474 0.0707585490
N 2.1969840542 -0.5129851539 1.1640793204
C 1.5975497530 0.3860849442 2.1403842811
C 0.7350729031 -0.4515341313 1.2489937617
H 0.8712863226 2.0681187595 -0.2022055981
H -0.6930440504 1.8597616120 -0.9903330804
H -0.6058893635 2.0165545341 0.7701310604
H -1.0144403445 -0.3490819264 0.0342807332
H 0.5983432309 -1.6510856329 -1.1798740829
H 0.3237720726 -0.1942254816 -2.1378966678
H 2.6009915931 0.1591493610 -1.9627966531
H 1.7275138290 0.1005964840 3.1805231095
H 1.6710012529 1.4523383970 1.9489294402
H 0.3030383068 -1.3503907257 1.6853935177