17

O 0.1320575302 0.1131824736 0.1024237314
C 0.0484143992 1.3078270482 0.0338726256
C -1.2066240129 2.1936321323 0.0341435430
C -0.4855972378 3.5316961827 -0.0939673490
C 0.6954843342 3.3799785445 0.9956681868
C 1.2123782207 2.3135320087 -0.0621815302
C 2.1522611573 1.8391064743 -1.1984632014
O 1.1409719290 2.3614061162 -2.1603415710
C 0.7146777939 3.2713455226 -1.0850770471
H -1.8534670605 1.9463589348 -0.8124698283
H -1.7848007407 2.0882755586 0.9564755342
H -1.0813804171 4.4423762629 -0.1421700820
H 1.3294639095 4.2631553285 1.0670843368
H 0.4032837842 3.0323458288 1.9895753520
H 3.0975858175 2.3791335233 -1.3076196399
H 2.2808630843 0.7597979572 -1.2976925719
H 1.3053377589 4.1903989829 -1.1767455092