18

C 0.0625595919 1.3112126690 -0.3880329900
C -0.0129044887 -0.1825760405 -0.0595323005
C -1.4434045989 -0.6566125825 0.1401182787
N -2.3223238900 -0.5813676347 -1.0742801457
C -2.7866791915 -1.9795287212 -0.8652767572
C -1.7359938802 -2.1717112047 0.2454991618
O -0.9351415517 -3.0022659203 -0.6499513248
C -1.8842098045 -2.9398173549 -1.6593979969
O -1.8542396108 -3.4839243813 -2.7119055456
H 1.0970332124 1.6265270600 -0.5510236277
H -0.5035292098 1.5326540377 -1.2982013578
H -0.3478725347 1.9219514266 0.4245205663
H 0.4384161664 -0.7685010770 -0.8659579919
H 0.5571786847 -0.4006397394 0.8529394919
H -1.8971371484 -0.1496338116 1.0042731823
H -3.0671870750 0.1005737102 -1.0051252158
H -3.8564045605 -2.1752770143 -0.8069266450
H -1.8712910306 -2.6508458911 1.2125371981