21

C 0.2003829738 1.5387003889 -0.1429906766
C 0.0448604728 0.0562839564 0.1145571513
C -1.0567284951 -0.6149433815 -0.6817842268
O 1.2710009499 -0.7097524063 0.1659340914
C 0.4955395197 -0.5989018316 1.3589862453
C 1.1533590275 0.0165788369 2.5704705798
C 2.4376953552 -0.7148433047 3.0428013824
C 3.1446582288 0.6072541812 2.6905250749
O 1.8914870180 1.2350887367 2.3422801696
H 1.0320093842 1.9498190202 0.4248356097
H 0.3666298238 1.7100231133 -1.2127011013
H -0.7169230330 2.0690978393 0.1362956445
H -0.8913385720 -0.4675462914 -1.7546603513
H -1.0870375494 -1.6894364187 -0.4848788802
H -2.0329413355 -0.1848646100 -0.4330254008
H -0.0284627108 -1.5207991531 1.6372617871
H 0.3896987712 0.1589158823 3.3481314636
H 2.4527377927 -0.9851406924 4.0992275180
H 2.7226376757 -1.5755033835 2.4366150426
H 3.6394682735 1.1279418963 3.5182369767
H 3.8243203390 0.5601124117 1.8325877801