16

O -0.1070454800 1.4477401188 -0.0131800527
C 0.0028253759 0.0374492864 0.0228055594
C -1.4119549691 -0.5260542362 -0.0078374281
C -1.4086388787 -2.0276551377 -0.0474114614
N -2.2649188128 -2.7275067714 0.5553556886
O -0.4204797103 -2.6471691598 -0.8063290635
C 0.6762999919 -2.0120428160 -1.3487269571
O 1.4848907571 -2.6775631361 -1.9237305570
C 0.7598909415 -0.5068430360 -1.1907387438
H 0.7720281849 1.8264641310 0.0903252816
H 0.5038444664 -0.2894915637 0.9478578875
H -1.9958064185 -0.2085804550 0.8558075535
H -1.9112672749 -0.1402533439 -0.9066048698
H -2.1016577611 -3.7216748073 0.3833150601
H 0.3238459920 -0.0570638947 -2.0923328917
H 1.8210727556 -0.2455025383 -1.1823385854