13

N 0.0155571977 1.4423828233 0.1563528235
C -0.0256130731 0.0475783163 0.0384288914
C -1.1501002743 -0.7066346450 0.0131508299
O -1.1472898629 -2.0558069868 -0.0112752138
C 0.0292379358 -2.8182176937 -0.0253125731
O -0.0742701190 -4.0153580759 -0.0472538713
C 1.2499794498 -2.0407566572 -0.0170395900
C 1.2039920661 -0.6930353553 0.0156141983
F 2.3219137490 0.0315366284 0.0116711399
H 0.8328875202 1.8478162948 -0.2792171278
H -0.8252216242 1.9038813400 -0.1626989677
H -2.1538171570 -0.2995756205 0.0210479402
H 2.1887782519 -2.5763153285 -0.0401886895