17

C 0.1310906744 1.4331796576 -0.1241595359
C -0.1805190782 -0.0268782599 0.0621564102
N -0.7675088521 -0.6151438455 1.0140326130
O 0.2924564804 -0.7314095450 -1.0112302342
C 0.1305675313 -2.1290790974 -0.9879292051
C -1.2196667586 -2.7039626404 -1.3357153729
C -0.1049626430 -2.7504039587 -2.3447752914
C 0.9769230899 -2.8239980752 -0.0449891846
N 1.6729514001 -3.4043664675 0.6728597291
H 1.2140539336 1.5803039861 -0.1771049423
H -0.2917386321 1.7937550527 -1.0666663189
H -0.2709479994 2.0236634756 0.7000808713
H -1.0474027803 0.0458396508 1.7346648866
H -1.5178778794 -3.6172247432 -0.8358257662
H -2.0097715867 -1.9769852754 -1.4766379743
H -0.1325586725 -2.0507900941 -3.1718587569
H 0.3781307724 -3.6973650506 -2.5519784477