21

C -0.0328092543 1.5550327587 -0.0312859995
C 0.0420145468 0.0335737054 0.0059771831
C 1.1002095500 -0.6287931259 -0.9501614498
C 1.8948697732 -1.0151297941 0.2823220278
O 2.7456137990 -2.1438613876 0.4136535252
C 3.6206693937 -1.4077754221 1.3110123233
C 2.8273485922 -0.0945658746 1.1134566155
C 1.6831168306 0.1894525777 2.1277445684
C 0.7201681464 -0.6576062396 1.2533948459
H 0.9540817332 2.0184701743 0.0713587862
H -0.4529474786 1.8938584764 -0.9844682956
H -0.6696697727 1.9452039039 0.7702437724
H -0.9585282084 -0.3745942262 -0.1568215677
H 0.6950833681 -1.5079998865 -1.4606957249
H 1.5922453807 0.0109956531 -1.6900758484
H 3.6083304857 -1.8203952414 2.3277772641
H 4.6501072498 -1.4014062239 0.9362953471
H 3.3817259535 0.7447859586 0.6913037455
H 1.8618092497 -0.2261532477 3.1242808653
H 1.4174450454 1.2431192561 2.2455477223
H 0.1002134159 -1.4100152445 1.7427306636