19

O 0.0144523495 1.3745935372 0.0507883332
C 0.0552808850 -0.0063895113 0.0078278877
C 0.6522575274 -0.9353440223 -1.1475117233
C 0.0121203400 -1.8699498621 -0.0895273376
C 0.7009118185 -0.9828805134 1.0172690177
C -0.5608998522 -3.2157854207 0.2078799503
C -1.7287993211 -3.0343246543 0.8446134983
C -2.1173115860 -1.5549867396 1.0052910432
C -1.2026142792 -0.9105601371 -0.0533978622
H 0.9166749298 1.7057166761 0.1191422656
H 0.1575098926 -0.8787409834 -2.1202305581
H 1.7421653342 -0.9460808463 -1.2412721358
H 1.7938556602 -1.0164689791 1.0476391470
H 0.2746236873 -1.0231747490 2.0209343823
H -0.0782510094 -4.1707862506 0.0384283334
H -2.3302859374 -3.8340085295 1.2655355728
H -3.1793672930 -1.3751022560 0.8120628157
H -1.9289812553 -1.2235508109 2.0339974440
H -1.7288602307 -0.8497776178 -1.0118271141