21

C -0.1792149380 1.6463389467 -0.0619183683
C -0.0400300164 0.1183483511 -0.0714757263
C -1.4261976555 -0.5417711388 -0.0052911861
O -2.1309386847 -0.1793657898 1.1633447331
C 0.7559246870 -0.4102237094 -1.2798955391
C 2.2589629672 -0.1921338343 -1.0860032253
O 2.6763876313 -0.7320713242 0.1611330796
C 1.9786083514 -0.1299136894 1.2152636206
O 0.5926697055 -0.3455632030 1.1462005730
H 0.7856050663 2.1571638259 -0.0174670067
H -0.6885649507 1.9807522680 -0.9713947225
H -0.7793891750 1.9510855385 0.7975813710
H -2.0328342160 -0.2218991076 -0.8592536616
H -1.2922042513 -1.6325230576 -0.0686033800
H -1.5372494777 -0.3814183139 1.8968579637
H 0.5761121289 -1.4863961448 -1.3802831296
H 0.4165366248 0.0746443075 -2.2016107025
H 2.8355531806 -0.7068129863 -1.8586555720
H 2.5119384022 0.8796801225 -1.1328850084
H 2.3201820321 -0.6004481965 2.1399178009
H 2.2028358781 0.9518072454 1.2405723864