15

C 0.0576297864 1.4260294293 0.1194694165
O -0.0399844935 0.0042655968 -0.0047229923
C 0.5665088525 -0.5517917287 -1.1135524263
C 0.2490265437 -2.0761625263 -1.1435339760
N -0.6832823058 -2.2453872262 -2.2587501824
C -0.7593244871 -1.1199424970 -2.8260637806
O -0.0338680493 -0.0686901262 -2.3380732665
C 2.0105552470 -0.2292116682 -1.1791540121
N 3.1443758793 -0.0099358203 -1.1901648981
H 1.1039174128 1.7428940763 0.2017015269
H -0.4111597767 1.9254376532 -0.7335314050
H -0.4740966663 1.6823004177 1.0360638284
H 1.1431522064 -2.6846462384 -1.3015990302
H -0.2091756608 -2.3605230150 -0.1935117288
H -1.3535363787 -0.8810393468 -3.6999833135