19

C 0.0599363740 1.5185429477 -0.0552541593
C -0.0095783596 0.0088105470 0.0274502329
C -1.2673067691 -0.6398294272 -0.5826928589
N -1.8940469194 -1.7164319435 0.1830996808
C -0.9271033597 -2.6639919637 0.7409592664
C 0.0540421286 -1.9711708099 1.6904279365
O 0.2869440911 -2.3876098658 2.8045763529
C 0.6440229082 -0.6930043705 1.1893615971
N 1.2748800631 -0.6642646274 -0.1578746516
H 1.0124176921 1.8807405625 0.3384708273
H -0.0214199502 1.8494313133 -1.0970211032
H -0.7561198481 1.9803255632 0.5109473345
H -2.0245192395 0.1323181704 -0.7475734237
H -1.0043830045 -1.0313993573 -1.5764461413
H -2.4298137024 -1.3151942925 0.9468293920
H -1.4436457206 -3.4445407354 1.3044475804
H -0.3968450622 -3.1551778318 -0.0870064866
H 1.1753304472 -0.1224487598 1.9461584758
H 1.1528688509 -1.5625684493 -0.6220803121