21

C -0.1357715686 1.5314045632 0.0438557212
C -0.0172135771 0.0044968493 -0.0072993505
C -1.4306031481 -0.5490882105 -0.2168987480
C 1.1839700735 -0.6443545711 -0.7946939754
C 2.1479655553 -0.1253134510 0.3119687414
C 0.9098000997 -0.7081277257 1.0749639894
C 1.0321323590 -1.9181853460 0.0871893371
C 0.6909398051 -0.7495609464 2.4918021259
C 0.4840809454 -0.7695134112 3.6775453227
H 0.8088000864 2.0607431689 0.1659485578
H -0.6006881898 1.8993986346 -0.8777361324
H -0.7874487017 1.8262824640 0.8738414750
H -1.8632363975 -0.1277980767 -1.1313588204
H -1.4906447979 -1.6340435266 -0.2981103202
H -2.0760927535 -0.2455394304 0.6147992597
H 1.3509416503 -0.6131974676 -1.8720877632
H 3.0734609851 -0.6914584393 0.4383757516
H 2.3380318300 0.9427302201 0.3881170251
H 0.1612628403 -2.5548221856 -0.0503710872
H 1.9348266882 -2.5209692940 0.2090011261
H 0.3071843958 -0.7907027081 4.7241889444