16

O -0.0801691770 0.0003543985 0.1829050919
C 0.0046844396 1.1696486639 -0.1045211256
C 1.2637736393 1.9344643238 -0.0740719051
C 1.2454686788 3.4285699934 0.2541920911
C 1.6337326427 2.9910738764 -1.1227308592
C 3.0987537076 2.7554812574 -1.4470550094
C 3.5634457219 1.6181694137 -0.5110818090
O 4.6781405143 1.1620875484 -0.4257677539
N 2.4675413853 1.2341446873 0.2236720009
H -0.8851183926 1.7720537907 -0.3946170368
H 0.2772713108 3.9049351300 0.3691059241
H 2.0117846651 3.7639114039 0.9448244481
H 0.9409519527 3.1905469235 -1.9318220141
H 3.2400853868 2.4318864831 -2.4822002618
H 3.7297566381 3.6348617949 -1.2916435839
H 2.4840189166 0.4420983510 0.8462452626