16

C -0.0112062326 -1.2041197215 -0.0800232777
C 0.0407969751 -0.0057109509 0.0010453207
C 0.0688961632 1.4202561562 0.1421388750
O 0.2800163048 2.2076938075 -1.0409849476
C 1.2784005747 2.2691449574 -0.0275770671
C 1.1959629836 3.4719441849 0.9068602294
C -0.1432149836 3.3361337334 1.6331454569
N -1.3291215484 3.4126125984 0.7627249356
C -0.8242778527 2.0924900887 1.1797373017
H -0.0489249442 -2.2618020512 -0.1677403975
H 2.2456998325 1.8558390152 -0.3056676885
H 2.0191169221 3.4258188193 1.6284380607
H 1.2778351229 4.4146454904 0.3571863202
H -0.2224291243 3.6893132411 2.6566366271
H -2.1444933484 3.6444364080 1.3260770174
H -1.4128474548 1.4619969733 1.8352372936