21

C -0.0771282025 1.6124383455 0.0312051979
C 0.0150420627 0.0959120435 0.0590696932
C -1.2525772979 -0.5885969735 -0.4408442953
O -1.5393860023 -0.3240206051 -1.8073029075
C 1.2640800454 -0.6759299199 -0.2662471180
C 2.5278242747 0.0359657381 0.2279223454
C 1.9655073409 -0.0670904242 1.6903833790
O 1.7918197429 1.1024176789 2.4662312613
C 0.6817684853 -0.6940671201 1.1628326411
H 0.7704320829 2.0924001097 0.5172226346
H -0.1371373272 1.9804000651 -1.0006543137
H -0.9772864129 1.9454728105 0.5623628800
H -1.1439693262 -1.6759573861 -0.3700120028
H -2.1008307782 -0.3006941282 0.2010466550
H -1.7738589386 0.6055022970 -1.8849107643
H 1.2531566839 -1.4732143574 -0.9995363298
H 3.4426598504 -0.5449136760 0.0899042754
H 2.6918193794 1.0478862203 -0.1533154378
H 2.5381977778 -0.8166126857 2.2531032115
H 2.6560948179 1.3796750965 2.7869928026
H 0.1499477313 -1.4890048189 1.6747836622