15

O -0.1708492382 1.3153956314 0.0663224247
N 0.0087008127 -0.0838582743 0.0744570055
C -1.1093424220 -0.6762925697 0.1210000728
C -1.4512091475 -2.1027004652 -0.0093973371
C -2.7489683246 -2.4347592279 0.7054981118
C -3.2406784657 -1.5440501014 1.7982007063
C -3.2051896186 -0.2853794785 1.3607723689
C -2.5820036984 -0.2901005663 -0.0164216091
N -2.8230145066 -1.7121583711 -0.5723743205
H 0.7341795766 1.6332982354 -0.0199157692
H -0.8265777121 -2.8707392449 -0.4504052595
H -3.0461745285 -3.4787693046 0.6619574428
H -3.5457767151 -1.8990964379 2.7729643037
H -3.4348648526 0.6160113188 1.9122097309
H -2.8247687494 0.5196112663 -0.7012327420