18

C 0.0251143695 1.6462544115 0.0209421794
C 0.0376311114 0.1266431195 -0.0055848671
C 0.7311498822 -0.6444628743 -1.1628704234
C 2.2324133876 -0.3154984127 -1.0445277833
C 2.5920047248 -1.5620366742 -0.3287616692
N 2.4287599832 -0.2954259637 0.4493284090
C 1.0130472794 -0.6643987625 0.8893534532
C 1.0812529404 -1.8317967849 -0.1566884374
O 0.5213601277 -3.0855854505 -0.1170048768
H 1.0383090421 2.0460730005 -0.0779616367
H -0.5829879160 2.0515833625 -0.7952164376
H -0.3907450086 2.0206254178 0.9626446040
H -0.9740828983 -0.2772717040 0.1371099817
H 0.2918990516 -0.7879360851 -2.1490321609
H 2.8435596917 0.3499037589 -1.6418154462
H 3.4842427413 -2.1749575416 -0.2985812882
H 0.9154701657 -0.7578726525 1.9706458938
H -0.4383876657 -3.0040269246 -0.0804237241