21

C -0.0130305623 -1.2820095144 0.1327213682
C -0.0496350792 -0.0814689781 0.0824936610
C -0.0576024447 1.3750707648 0.0209431663
C 1.3605593200 1.9799546092 -0.0400924873
C 1.3729768843 3.5161769195 -0.0633221022
C 2.8059755429 4.1110585764 0.0307634534
C 2.8074099902 5.3730098557 -0.8678106876
C 1.6163792368 5.1444950850 -1.7679458763
C 0.8424196842 4.1520843770 -1.3333901641
H 0.0064310060 -2.3424814805 0.1770615560
H -0.6389132007 1.6953379828 -0.8528364604
H -0.5852480426 1.7742988681 0.8976249933
H 1.9258314851 1.6272152313 0.8305251928
H 1.8790521899 1.5950888528 -0.9260619262
H 0.7671457500 3.8645116656 0.7894302760
H 3.1062080833 4.3186761959 1.0611214392
H 3.5167570201 3.3799732725 -0.3708844007
H 2.6758022863 6.2938006601 -0.2816589415
H 3.7460824659 5.4956582910 -1.4198655765
H 1.4144291681 5.7590384559 -2.6387861359
H -0.0870425934 3.8430474896 -1.7997621476