20

C -0.0440591262 1.5191350701 0.1018493359
C 0.0316842106 0.0110821135 0.0599076768
C 0.8672141259 -0.8161207411 -0.9750466474
N 0.8019086054 -1.9562980316 0.0355694545
C 0.8353376316 -0.8414503682 1.0697659576
C -0.6591792939 -2.2278252878 -0.0818418891
C -1.4761581282 -2.4830157453 1.1932584136
O -1.9291364278 -1.1066622345 1.2358947928
C -1.2737990311 -0.8049181522 -0.0218300385
H 0.9530517210 1.9696591490 0.1488407049
H -0.5505906921 1.9174023931 -0.7846022004
H -0.6049102346 1.8527250105 0.9816185510
H 0.4363564748 -1.0432796882 -1.9559807083
H 1.8947308147 -0.4626832160 -1.0866749092
H 1.8663455322 -0.5025023990 1.1926524493
H 0.3965496481 -1.0624677938 2.0428545094
H -0.8494119847 -2.8788930117 -0.9347215152
H -2.3168357416 -3.1724570715 1.0504932264
H -0.9193118878 -2.7765813689 2.0904225313
H -1.9811507066 -0.4481230564 -0.7770074553