20

C -0.1820222608 1.4785583144 -0.0347081873
C 0.0164683987 -0.0202844217 0.0127095268
C -1.2249149207 -0.9429872102 0.2069653317
C -0.4606807885 -1.7397988148 1.3088132376
C 0.7704427877 -0.8074168034 1.1515250934
C 1.8011578090 -1.2690980747 0.0898074931
N 1.0103204394 -0.5718499678 -0.9273637721
C 1.0803112225 -0.6447883898 -2.2739886765
O 1.9276954708 -1.2618966090 -2.8894102280
H 0.7777886760 2.0037442386 -0.0183792866
H -0.7173082777 1.7773611325 -0.9432977796
H -0.7757768671 1.8120779148 0.8223761076
H -2.0955315082 -0.4035666232 0.5897563239
H -1.5264686951 -1.5022128751 -0.6812809635
H -0.9312276907 -1.6830362472 2.2925852213
H -0.2674114677 -2.7923526595 1.0859097486
H 1.1611243549 -0.3197845243 2.0434943447
H 2.8082786363 -0.8531910876 0.2044469299
H 1.8847367794 -2.3494485223 -0.0695290307
H 0.2736711318 -0.0617562597 -2.7655440342