15

C 0.1315099123 1.5517253618 0.0270864982
C -0.0950838109 0.0356693123 -0.0815418027
C 0.6230767913 -0.5643865674 -1.2453679363
N -0.0006289495 -1.1621200163 -2.2302824322
O 1.0250380799 -1.5596290998 -3.0879996865
C 2.1720995387 -1.1494590425 -2.5152071268
N 1.9934369494 -0.5315724377 -1.3826047311
C 3.3850909540 -1.4270343000 -3.1821766574
C 4.4112035616 -1.6689265060 -3.7587870317
H 1.1976773339 1.7782904451 0.1084701807
H -0.2613150844 2.0705172794 -0.8523549671
H -0.3747242777 1.9484314453 0.9112867766
H 0.2642365761 -0.4551412696 0.8302729099
H -1.1592035058 -0.1943454037 -0.1808494131
H 5.3219106910 -1.8803831908 -4.2642879506