15

O -0.0820561027 1.5447096272 -0.0505495676
C -0.1366771447 0.1624436735 0.0186098295
C -1.5450474362 -0.5336964280 0.1500916717
N -1.3911007053 -1.1451827641 -1.1785374827
C 0.0073869114 -0.6756472936 -1.3109706198
C 0.2470964393 0.1291292155 -2.5087527709
N 0.4228178804 0.8164250483 -3.4213262803
C -1.6242915195 -1.5073442139 1.2977555071
O -1.5183565930 -2.7009435142 1.1579342941
H -0.5587174649 1.8514556638 -0.8323313740
H 0.5790506821 -0.1369672847 0.7865079921
H -2.3705170462 0.1870719758 0.2268657351
H -1.4774833164 -2.1569564251 -1.1443921394
H 0.7739336218 -1.4551232006 -1.2404062433
H -1.7682767061 -1.0469763899 2.2991638583