22

C -0.8644503724 1.0958252024 -0.1156543362
C 0.1536552306 -0.0331358392 -0.0710899397
C 1.5496112329 0.1698572993 -0.7362857715
C 2.1532329724 -0.6107210167 0.4329338669
C 2.9767274758 -1.8326626803 0.3625673711
N 3.5069764744 -0.5918643662 0.9743632708
C 0.8814302570 -0.4217428339 1.2692092553
C 1.0120112476 0.6924166443 2.3007653630
O 0.4463188518 -1.6266280537 1.8728246688
H -0.4447211841 2.0387868981 0.2501105866
H -1.2122743657 1.2666072104 -1.1404409911
H -1.7455149457 0.8638077930 0.4936983385
H -0.2916131767 -0.9568842620 -0.4535980708
H 1.6916815192 -0.2340790025 -1.7417222460
H 1.8538442133 1.2232299111 -0.7343688961
H 2.7917736986 -2.6400505417 1.0638112924
H 3.3557155458 -2.1386732135 -0.6098948340
H 4.1340147723 -0.1235199350 0.3235634343
H 1.3806524061 1.6196053748 1.8528474781
H 0.0444875959 0.9125208674 2.7691366557
H 1.7236459971 0.3895940106 3.0733168729
H -0.1819479362 -1.4087956068 2.5685849512