21

C -0.0117581974 1.5559804947 0.0192282789
C -0.0084073778 0.0243801243 -0.0167833060
O -1.3598021826 -0.4612836766 0.0370097823
C 0.6843255028 -0.5008545261 -1.2883314605
C 0.5891644011 -2.0281154576 -1.3999098622
C 1.0769380034 -2.7119562253 -0.1449049654
O 2.3093890485 -2.2313747705 0.4028900030
C 1.0966418111 -1.9915534933 1.1366527430
C 0.6622024701 -0.5428615264 1.2482857006
H 1.0053895379 1.9586316323 -0.0205174552
H -0.5629141066 1.9605107225 -0.8382428034
H -0.4938482052 1.9162555387 0.9330220584
H -1.8202412122 -0.1313573458 -0.7425615676
H 0.2277798517 -0.0341065134 -2.1706379499
H 1.7357781987 -0.1961099295 -1.2755896326
H -0.4522194184 -2.3268325954 -1.5629332183
H 1.1662439205 -2.3831210782 -2.2619618590
H 0.9753472847 -3.7981242864 -0.1262514756
H 1.0275202957 -2.5751582780 2.0547834094
H 1.5431831892 0.0578437783 1.5003385785
H -0.0500489251 -0.4374499483 2.0727400818