19

C -0.0598991532 1.5754218015 -0.0281815379
C -0.0846507070 0.0461578608 -0.0738510238
C 0.7870882984 -0.5258689911 -1.2090479490
C 0.7662559856 -2.0216243079 -1.2772734055
N 1.7561926228 -2.7342840637 -0.7910830753
O 1.4259123802 -4.0601623036 -1.0049862003
C 0.2209581818 -4.1170175629 -1.6133264473
C -0.2591818715 -2.8620040591 -1.8223980894
N -1.4074993784 -2.4274247963 -2.4993694187
H 0.9590582147 1.9476088726 0.1236455704
H -0.4332841460 2.0078412657 -0.9632086332
H -0.6798799215 1.9583465703 0.7880803369
H 0.2675695285 -0.3650152621 0.8790200457
H -1.1208000707 -0.3009540194 -0.1867262793
H 0.4482501044 -0.1200405645 -2.1710481974
H 1.8230492525 -0.2018893123 -1.0689243370
H -0.1502691827 -5.1034229468 -1.8417676986
H -2.0768923004 -3.1696863302 -2.6556965908
H -1.8711014876 -1.6588193008 -2.0314908196