21

C 0.0369834429 1.6376006638 -0.0095020076
C 0.0550527657 0.1071951180 0.0536809761
O 0.7621079014 -0.3635919426 1.2005992151
C -1.3615201507 -0.5245493653 -0.0166107994
C -2.2354952053 -0.2434393429 1.1878130729
C -3.1519388445 0.9568764543 1.2418757446
C -3.7293608237 -0.4274114412 1.0911850567
C 0.8435597178 -0.4488448504 -1.1318538955
O 0.6755636846 -0.1036983318 -2.2721515963
H 1.0530295113 2.0275917148 0.0999211049
H -0.3582057507 1.9692127887 -0.9726858259
H -0.5855733498 2.0530654950 0.7878409125
H 0.4191107837 0.0988789346 1.9710749333
H -1.8500959493 -0.1755351581 -0.9335624240
H -1.2379095974 -1.6108682909 -0.1169635836
H -1.7975350565 -0.5507168825 2.1343942390
H -3.2814265922 1.4697850016 2.1888246453
H -3.1823646955 1.6114817548 0.3772220912
H -4.1420158784 -0.7003769649 0.1254061097
H -4.2500718613 -0.8653947720 1.9353665206
H 1.5823354678 -1.2298647132 -0.8465957596