23

C -0.0746781795 1.5683902895 0.0085433694
C 0.0119295664 0.0379351679 -0.0045917469
C 0.7385830764 -0.5484067875 1.2105749842
C 0.0267693499 -0.2803707475 2.5590476108
O 0.3443141222 -1.3652926879 3.4280568422
C 0.6360186221 -2.4811415738 2.6277030742
C -0.3445298610 -2.8757007430 1.5499834671
C 0.9065129286 -2.0705414854 1.2106648952
C 1.9924174421 -2.6788949542 0.3572516330
H 0.9225967220 2.0203086117 0.0538202164
H -0.5687928809 1.9436617141 -0.8929259479
H -0.6425094300 1.9343967512 0.8707341619
H -0.9974240556 -0.3899046473 -0.0593946539
H 0.5288826865 -0.2847978579 -0.9167421988
H 1.7495994210 -0.1179438346 1.2520519557
H 0.3472834870 0.6431963710 3.0483593117
H -1.0622977929 -0.2174735435 2.4084963843
H 1.2105532001 -3.2279395073 3.1642158668
H -0.3512980624 -3.9170820841 1.2441927573
H -1.3203443385 -2.4023174897 1.5260582362
H 1.7838355262 -2.5522017386 -0.7119099050
H 2.9648956050 -2.2158961348 0.5633783640
H 2.0878738152 -3.7533539183 0.5438731122