19

C 0.0016426602 1.0882704817 0.1986943967
C -0.5618543878 -0.2345522369 -0.2974898035
O 0.1210689334 -0.6849287056 -1.4897322794
C 1.2516429703 -1.3845466544 -1.3070017847
O 1.7488524735 -1.6232041191 -0.2337588939
C 1.7883921032 -1.8876523125 -2.6435491793
C 3.2224651687 -2.4452864556 -2.6100228554
C 2.5506710749 -3.8062867267 -2.8789341230
O 1.2359179565 -3.1984992944 -2.9189580629
H 1.0382415234 0.9671890336 0.5212092148
H -0.0407885870 1.8486394571 -0.5864773455
H -0.5851549809 1.4425969885 1.0521578774
H -0.4779807975 -1.0100387722 0.4672973483
H -1.6059107312 -0.1360026114 -0.6028574615
H 1.5434908390 -1.1745652530 -3.4376610676
H 3.8767778700 -2.0782519434 -3.4009395584
H 3.7072726636 -2.3476362893 -1.6395041635
H 2.7972751792 -4.2858194370 -3.8330150029
H 2.6318014883 -4.5435241791 -2.0727395457