14

C -0.0119711115 1.4469177815 -0.0704446918
N -0.0067844099 -0.0164693360 -0.0140141256
C -0.0131133382 -0.6713340098 1.2207007362
O -0.0229962448 -0.0894028508 2.2752010264
C 0.0045472452 -0.7473662525 -1.1708755179
N 0.0101428344 -2.0466390821 -1.3088208607
C 0.0209877496 -2.1648780177 -2.6730483867
N 0.0220142123 -1.0501245467 -3.3493265705
O 0.0108627778 -0.0711528027 -2.3223586338
H 0.8802682169 1.8121433281 -0.5842789975
H -0.8981391710 1.8051469178 -0.5994504924
H -0.0220713191 1.7981126553 0.9598568168
H -0.0079688332 -1.7639867788 1.1039871137
H 0.0281641016 -3.1187366956 -3.1810399262