21

C -0.1777561916 1.5109776866 -0.2403462300
C -0.0168986285 0.0251922130 -0.0136499197
C 1.2993424758 -0.6754205405 -0.1946857017
C 0.7017868801 -0.5696712289 1.1970619239
C 1.3284115016 0.2222492598 2.2764693907
C 1.0293940705 0.1722340646 3.5756813603
C 1.9343804495 1.0703527253 4.3637845552
O 2.7825806620 1.6828655167 3.3951506798
C 2.5006926056 1.1643069298 2.1024554795
H 0.7419005575 2.0627302046 -0.0308201387
H -0.4478099396 1.7120552260 -1.2829945791
H -0.9668385646 1.9277522815 0.3949569489
H -0.8897831339 -0.5519857721 -0.3091462124
H 1.3266313917 -1.6498039216 -0.6701788001
H 2.1643372010 -0.0565595660 -0.4121830087
H 0.2331581795 -1.4771480349 1.5668909990
H 0.2603829560 -0.4396254665 4.0313550549
H 1.3903124124 1.8498150583 4.9208766674
H 2.5401863754 0.5155565953 5.0999752456
H 3.3814037449 0.6345056875 1.7017015034
H 2.2943330148 2.0010378613 1.4188130817