18

C -0.8360407604 1.2590371674 -0.0272632258
C 0.0255399055 0.0073144300 0.0286253304
N 1.2705265832 0.0273067395 -0.7978999120
C 2.1322868290 -0.4143265364 0.3095746163
C 2.8834401137 -1.7734906384 0.3346502430
O 4.1222868114 -1.1322593720 0.6704775029
C 3.5312707564 0.1795590431 0.5620360039
C 0.9419289054 -0.1944766444 1.2503160391
O 0.8013979317 -0.1644320996 2.4358770605
H -0.2257925555 2.1521630372 0.1311464824
H -1.3279326014 1.3489173794 -1.0006689223
H -1.6086911574 1.2182916261 0.7467509371
H -0.5931448911 -0.8903485281 -0.1260463626
H 1.2643723045 -0.5837646779 -1.6071075460
H 2.5648885613 -2.4936773901 1.0978982833
H 2.9184093092 -2.2713612607 -0.6458126937
H 3.9206453319 0.7501626290 -0.2902026225
H 3.6430063327 0.7596463159 1.4853006860