22

C 0.0450697888 1.5563765544 0.0445473108
C 0.0042184583 0.0278855466 0.0213582538
O 0.7350382610 -0.5178285788 1.1191100463
C -1.4219668115 -0.5366681725 -0.0178227352
C -2.2469660641 -0.1552932284 -1.2694354518
C -3.2282708393 -1.3393785149 -1.4370237655
N -2.6170587303 -2.5374687382 -0.8292794806
C -1.2399158247 -2.7800319080 -1.2852590817
C -1.4864416356 -2.0605521440 -0.0085100921
H 1.0795871542 1.9027098296 0.1172348535
H -0.4026628708 1.9870538415 -0.8561749105
H -0.5075705121 1.9453538064 0.9097535002
H 0.5412190433 -0.3337544241 -0.8646088786
H 0.3491309220 -0.1664302160 1.9294495807
H -1.9469063138 -0.1765176809 0.8807416237
H -2.7681679222 0.7982611513 -1.1577848987
H -1.5913618937 -0.0567703609 -2.1416307472
H -4.1598199908 -1.1433730345 -0.8943844851
H -3.4905677410 -1.5343269662 -2.4817658511
H -0.9347432288 -3.8219330442 -1.2642581289
H -0.8618891385 -2.2236935030 -2.1399603444
H -1.3186274201 -2.5733025151 0.9325142124