19

O 0.2883583440 1.2058216248 -0.1936158755
C 0.0198003431 -0.1508552313 -0.0356326653
C -0.5197704609 -0.6244119666 1.2885578254
O -0.8858916507 0.4052883385 2.1837889245
C -1.3983352190 -0.7104003220 0.0589400600
C -2.6627971220 0.1066320829 -0.0079340741
O -3.5135192231 -0.0752027336 1.0967756100
C -2.7274229482 1.4508611870 -0.7039118656
C -3.3976688943 0.2347451005 -1.3073686027
H -0.1993693391 1.6642209550 0.5037078280
H 0.7586499992 -0.7509748467 -0.5563732799
H -0.1639649087 -1.5352285157 1.7644272443
H -0.1247074635 0.6115092355 2.7373511741
H -1.5057988834 -1.7223404907 -0.3250971325
H -3.0229993143 0.2345086764 1.8686060723
H -3.3712659268 2.1912888586 -0.2423455357
H -1.8375526871 1.8349703749 -1.1852984029
H -2.9558475074 -0.2051840393 -2.1949067793
H -4.4781287677 0.1714501417 -1.2505096250