21

C -0.1576418666 1.6195909534 -0.0864912079
C 0.0233387613 0.0974948339 -0.0417233714
C 0.6770782736 -0.4712164252 -1.3583672320
C 2.1209280195 -0.0519908203 -1.2678360030
C 2.7556973693 -0.4081152569 -0.1482907950
C 3.3305035557 0.5536207690 0.8790833796
C 2.2016353464 -0.0015724813 1.8004443010
C 0.8285008590 -0.4040795049 1.1767350981
C 2.0471900274 -1.2312366238 0.9258749973
H 0.8016463850 2.1310564339 -0.2106020039
H -0.8100722295 1.9176133612 -0.9148143227
H -0.6072646714 1.9842183026 0.8428373937
H -0.9753438026 -0.3508485286 0.0512199698
H 0.5512515997 -1.5586650420 -1.3644182163
H 0.1761622745 -0.0750801967 -2.2461750416
H 2.4623375732 0.8026652954 -1.8471529534
H 4.2948414599 0.2584801859 1.3092024287
H 3.3524587984 1.6174885962 0.6216532684
H 2.2697420257 0.0193195468 2.8842324805
H 0.1904738766 -0.7688279804 1.9811333193
H 2.1858849649 -2.2794342682 1.1594524108