25

C 0.3904212390 1.2787968595 -0.3405084401
C -0.0894574735 -0.1325980481 0.0304260620
C 0.5270037384 -0.5765961076 1.3640756259
C -1.6230579387 -0.2392958565 0.0919565870
C -2.3307476897 -0.0069581236 -1.2371261737
O -3.7140004790 -0.2644650901 -1.0486667281
C -4.4761557199 -0.0461789611 -2.1915572347
C -4.5928798143 -1.1407757481 -3.2236612073
C -5.7509073932 -0.8158297546 -2.2984289881
H 1.4843254615 1.3283763211 -0.3526456195
H 0.0369408542 1.5910227739 -1.3276844470
H 0.0336959252 2.0152770439 0.3898541444
H 0.2637907885 -0.8245966774 -0.7483408580
H 0.2045838271 0.0798970540 2.1812167312
H 0.2283623502 -1.5981341520 1.6215839303
H 1.6208960860 -0.5448195592 1.3255247175
H -1.9036618873 -1.2390994053 0.4445957372
H -2.0158136010 0.4708567265 0.8313558980
H -2.1902556678 1.0268432645 -1.5901514282
H -1.9232974899 -0.6732719326 -2.0151776529
H -4.4636451230 0.9851594560 -2.5489937815
H -4.6654806591 -0.8697509138 -4.2712841163
H -4.0513806095 -2.0590893150 -3.0256959338
H -5.9549885410 -1.5191775083 -1.4993175886
H -6.6251701331 -0.3191364562 -2.7036619657