20

C 0.1246857175 1.5543996084 0.0518969205
C -0.0123701675 0.0311380561 0.0346464325
C -1.4743833332 -0.4992349616 -0.0393154533
N -2.2337264487 -0.0281318087 -1.2095195493
C -1.4557611221 -2.0504852655 -0.0566442435
C -2.8330923024 -2.7130891791 -0.0144953272
C -2.1941989788 -0.0378833881 1.1667772974
N -2.7228008187 0.3325551124 2.1254177599
H 1.1778863070 1.8412080069 0.1183727596
H -0.2791149103 2.0090817582 -0.8586342351
H -0.3962121415 1.9906165386 0.9098229147
H 0.5182375708 -0.3845270832 -0.8315744693
H 0.4658190935 -0.3909863793 0.9260764379
H -2.3179347335 0.9833686124 -1.1970401876
H -1.7193779164 -0.2730525023 -2.0518672275
H -0.9235258034 -2.3449689471 -0.9707219297
H -0.8424685285 -2.3946020394 0.7830452642
H -2.7325913042 -3.8002843378 -0.0824626639
H -3.3533060478 -2.4812533437 0.9196956897
H -3.4567896518 -2.3674519872 -0.8416132402