18

C 0.0653935461 1.4776978220 0.0476798269
C -0.0413438053 -0.0510649294 -0.0174151713
C -1.5091531780 -0.4934335312 -0.0681840710
C 0.7930494694 -0.6484300718 -1.1940894207
O 1.7871498468 -1.4793909507 -0.5593219265
C 1.5511568819 -1.3694051222 0.7790185186
N 0.5969510015 -0.6315911376 1.1848654758
C 2.4285251133 -2.1195311839 1.6148088145
C 3.1723191979 -2.7547478277 2.3119936532
H 1.1120915542 1.7919908691 0.0986809356
H -0.3899879961 1.9343697775 -0.8379331912
H -0.4467686182 1.8568434071 0.9359424026
H -2.0042861664 -0.0865762598 -0.9567468624
H -1.5849873693 -1.5844014607 -0.0997350461
H -2.0429707183 -0.1413414652 0.8184622419
H 0.2008388232 -1.2775861931 -1.8652787975
H 1.3115670329 0.1133776459 -1.7838580896
H 3.8256378146 -3.3136417482 2.9360716173