19

C -0.3132517247 1.4988745337 -0.0409708974
C 0.0233036852 0.0115437402 -0.0806129327
C 1.0459026562 -0.3922934980 -1.1776752163
N 1.8766760779 -1.3744420266 -0.4763169391
C 3.1437414475 -1.7780383526 -1.0553649159
C 1.6218772781 -1.1976864730 0.8662275459
C 2.3684749664 -1.8538912639 1.9779507761
O 3.2884125514 -2.6271179928 1.8611988743
N 0.6189527142 -0.4545732550 1.1864448773
H 0.5925523504 2.0941262375 0.1127688525
H -0.7794911006 1.8174241887 -0.9792096789
H -1.0038284067 1.7114252374 0.7790908054
H -0.9086071241 -0.5558601195 -0.2188419775
H 0.5833507328 -0.8253876110 -2.0698195189
H 1.6585258202 0.4678965730 -1.4978219455
H 3.8042496243 -0.9146373645 -1.2356005532
H 3.6451322074 -2.4746488202 -0.3865780110
H 2.9649065143 -2.2703376600 -2.0170279587
H 1.9650698898 -1.5485792633 2.9623746637