21

C -0.0786802058 1.5595943291 0.0569282012
C 0.0021575455 0.0253896941 0.0228937823
C 0.7259445632 -0.4726300982 -1.2159609770
C 1.8435911390 -1.1932571860 -1.0932403752
C 2.6562933043 -1.7471817032 -2.2228987702
C 2.2735308157 -1.4585439788 0.3427333650
C 1.0742088859 -2.0224164425 1.1407313503
C 0.7469094054 -0.5181348372 1.2569465233
O 2.1665777479 -0.2169442388 1.1051618341
H 0.9266626147 1.9809887296 0.1444313909
H -0.5377909702 1.9528668644 -0.8556640284
H -0.6749714037 1.9040167298 0.9091487114
H -1.0216004113 -0.3785302481 0.0319565431
H 0.3234920334 -0.2025663618 -2.1899238374
H 2.2195761984 -1.4963093898 -3.1935895007
H 3.6830470560 -1.3594275547 -2.1988494931
H 2.7366995378 -2.8406626304 -2.1607274541
H 3.2605585887 -1.9181217953 0.4367075509
H 0.3734534102 -2.6820098327 0.6256775380
H 1.3751987138 -2.4413571637 2.1027074612
H 0.3419102812 -0.1314977059 2.1970660044