18

C -0.1337257747 1.4656423955 0.0252947352
O -0.0919250213 0.0796143729 0.2790999934
C -1.3087211592 -0.6065268440 0.0228258669
C -1.5541871991 -0.8259264276 -1.4770519173
C -1.2101012182 -1.9191108847 0.7523157621
N -2.2907613770 -2.5179368634 1.1913505737
O -1.8547230999 -3.7073228002 1.7696045818
C -0.5198426783 -3.7744144771 1.6614072144
C -0.0359954473 -2.6785756042 1.0269655658
H 0.8216372173 1.8786019850 0.3578411892
H -0.2608038632 1.6987317916 -1.0414461483
H -0.9453435977 1.9545808336 0.5858362239
H -2.1538837994 -0.0422029488 0.4454101184
H -1.6538625997 0.1269503551 -2.0042848758
H -0.7240490992 -1.3850738314 -1.9185835215
H -2.4768545947 -1.3940881751 -1.6222833868
H -0.0592571187 -4.6534575586 2.0852098283
H 0.9833398403 -2.4230275585 0.7972240466