23

C -0.0635363115 1.6129006585 -0.0448751696
C -0.0253747675 0.1056750332 0.1611588916
O 0.2466856415 -0.1443530977 1.5306740970
C -1.3376028149 -0.5662473497 -0.2343110785
O -1.2083332718 -1.9419817593 0.0878995990
C -2.3897493468 -2.6874325946 -0.0581396126
C -2.8483540412 -3.1090393046 -1.4834174112
C -3.1837695518 -4.5070728997 -0.8928368117
C -2.2599758509 -4.1770329587 0.3128646866
H 0.8843007452 2.0557047807 0.2714797599
H -0.2271563993 1.8608854073 -1.0982174944
H -0.8635617060 2.0618790654 0.5522407905
H 0.7711951813 -0.3281805006 -0.4675490812
H 0.0587117149 -1.0816397400 1.6650368421
H -2.1707869206 -0.1206881402 0.3335921654
H -1.5391257851 -0.4307430882 -1.3079229217
H -3.2124533480 -2.2024405455 0.4900984518
H -3.6490743756 -2.5419404873 -1.9634470201
H -1.9846829883 -3.1543848436 -2.1535666429
H -4.2329505301 -4.5833056082 -0.5952864046
H -2.9303894373 -5.3811502132 -1.4950209001
H -1.2340245436 -4.5111724775 0.1345807320
H -2.5695360225 -4.4860533665 1.3133742929