14

N 0.4834943329 0.0626386762 0.8215023291
C -0.1593907691 0.5424372985 -0.2712806336
O 0.1979608972 1.4963770900 -0.9359644297
C -1.4143050655 -0.2431383371 -0.6419334670
C -1.2977345836 -1.1387544914 -1.8971743275
C -1.5660015346 -2.2995352281 -0.9183655587
O -1.6712587456 -1.3893679889 0.2049153806
H 1.2981219015 0.5411685757 1.1669637361
H 0.0843572098 -0.7132184377 1.3240239471
H -2.2584583727 0.4553882036 -0.6468493905
H -2.0672932622 -0.9749006547 -2.6512843449
H -0.3177131069 -1.1306337901 -2.3745071973
H -2.4999219891 -2.8502345867 -1.0742359470
H -0.7466542421 -3.0151522091 -0.7851445868