19

C 0.1613074465 1.4543370537 -0.4679683339
C -0.0992573517 0.0746114272 0.0780517064
O 1.0087708455 -0.8342369880 0.1582594970
C 0.3731805471 -0.4332342859 1.3758537070
C 1.2222722710 0.3572601614 2.3544460447
O 0.3654370329 0.9639769723 3.3263046373
C 0.7478728775 0.5705157065 4.6438669083
C 1.8822958793 -0.3956886107 4.4494992050
C 2.1578903312 -0.5106775591 3.1562520038
H 1.0809260345 1.8864120354 -0.0695167674
H 0.2519430041 1.4152125948 -1.5585279043
H -0.6723319036 2.1207948963 -0.2228314983
H -1.0065674196 -0.3940175221 -0.3096055266
H -0.2161017922 -1.2151497490 1.8597064930
H 1.7758992291 1.1348795617 1.8079082699
H 1.0478659165 1.4551131055 5.2283212407
H -0.1128670146 0.1192163067 5.1605928726
H 2.3818116182 -0.8951592812 5.2699189138
H 2.9213464682 -1.1222608355 2.6940834609