20

C 0.5944804108 1.3063650881 0.3168952398
C -0.0421154694 -0.0219954211 -0.0998939832
C 0.6104273951 -0.6889852322 -1.3351397766
C 1.5426079567 -1.7586523431 -0.7533199780
C 2.9452636869 -1.3154471917 -0.2349503001
C 2.4779753726 -1.5395861518 1.2329841553
C 1.0595657109 -1.9284364852 0.7186694660
O 0.0248031414 -0.9930696474 0.9519999848
H 1.6760751741 1.2178859500 0.4534902056
H 0.4109848610 2.0704129085 -0.4465798847
H 0.1584831947 1.6509264571 1.2588847877
H -1.1098279103 0.1548583202 -0.2767374224
H -0.1596557538 -1.1612818468 -1.9524577063
H 1.1371533045 0.0359670680 -1.9631012964
H 1.5598093545 -2.6644461645 -1.3615867493
H 3.7646193843 -1.9642482835 -0.5529011761
H 3.2176610760 -0.2869200858 -0.4867556171
H 2.9969656472 -2.3533060395 1.7462641051
H 2.4828493900 -0.6621309294 1.8828043664
H 0.6978500130 -2.9093746100 1.0398957698