17

O -0.1024244835 1.2672751897 -0.4277329217
C 0.0561743374 -0.0698991553 -0.0267734335
C -0.0075452546 -0.3649786447 1.5057031447
C -1.5276411136 -0.1084027071 1.4138661772
C -1.3154524544 -0.8130958960 0.0323584763
C -0.8134108895 -2.1937848091 0.4894962282
O 0.1065829020 -1.8003931837 1.5322702397
C -1.8914364168 -3.1187126526 1.0318854634
O -2.7472330352 -3.6074580030 0.3415665264
H 0.7204112759 1.7338784180 -0.2488409318
H 0.8691838087 -0.5739578078 -0.5663511480
H 0.6563804781 0.0728181971 2.2500205053
H -2.1672787658 -0.5844702230 2.1595056528
H -1.7714216987 0.9446774429 1.2925593515
H -2.0374158855 -0.7832471488 -0.7803655820
H -0.2793855150 -2.7259816165 -0.3088004798
H -1.8213384795 -3.3092888000 2.1259192414