21

C 0.0382174644 1.5546965503 0.2645349068
C 0.0048024917 0.0583058405 -0.0783241575
C -1.3868893419 -0.5096134425 -0.0784227818
C -2.1218912455 -0.9984315086 1.1415519261
C -1.8628951866 -1.9559538835 0.0037830010
C -2.8197133432 -1.6874134675 -1.2076676192
C -3.2431987530 -2.6829975911 -2.2344654373
O -3.7248346966 -0.6256246543 -0.8517572169
C -2.3885504892 -0.2940662153 -1.2667895491
H 1.0607752978 1.9439618738 0.2384046553
H -0.5587798964 2.1374017963 -0.4452366210
H -0.3700416257 1.7349352435 1.2639573076
H 0.4695308336 -0.1024943359 -1.0611509032
H 0.6176534709 -0.4988790892 0.6409826514
H -1.4920449684 -1.1561079564 2.0124907522
H -3.1306703129 -0.6679604828 1.3541406392
H -1.2637014901 -2.8523833407 0.1053274598
H -3.9284683616 -3.4209728695 -1.8014407233
H -3.7537511573 -2.1839180909 -3.0622886213
H -2.3762929290 -3.2233085150 -2.6292389332
H -2.2782297510 0.3984941089 -2.0945278356