18

C -0.0279184871 1.2040495171 0.2031456301
N -0.1857411102 -0.1501738341 -0.2841769999
C 0.6720586696 -0.7011167522 -1.1797355071
O 1.6618354678 -0.1850772233 -1.6408036225
O 0.2400470910 -1.9618901820 -1.5065881286
C 1.0741867544 -2.6794504800 -2.3925163561
C 2.0696335414 -3.6408901469 -1.7941188913
C 0.7780061424 -4.1484827673 -2.4045481255
O -0.2332001097 -4.6499453849 -1.5860421457
H 0.9071453792 1.5914872954 -0.2025252349
H -0.8503307945 1.8504315506 -0.1246062591
H 0.0220300944 1.2272685822 1.2970112886
H -0.9892500463 -0.6921264423 -0.0152910998
H 1.3117772907 -2.1384952977 -3.3004103109
H 3.0094985629 -3.7975114004 -2.3117984449
H 2.1239003512 -3.6668120924 -0.7112145885
H 0.8287874770 -4.6690655635 -3.3565751332
H -0.6641824643 -3.8919870184 -1.1743132305