14

N -0.1698278000 1.1180426200 0.4140281465
C -0.1241890794 -0.0407642219 -0.0601967916
O 0.9834397008 -0.8711990864 -0.0967614617
C 0.6729598189 -1.9817529265 -0.9101690359
C -0.4550300753 -2.9665062067 -0.5385409279
N -1.2251636759 -2.7563555342 0.6678806504
C -1.6457009860 -1.5611386047 0.6143068927
N -1.2678862482 -0.7793375547 -0.5611217493
C -0.6911267502 -1.7953291882 -1.4695006115
H 0.7421994692 1.3946684233 0.7770991826
H 1.5217958504 -2.3419051613 -1.4760132226
H -0.3491919117 -3.9859895959 -0.8867694602
H -2.1944350402 -1.0540120396 1.3988731678
H -0.9973388725 -1.7981054433 -2.5076015194