16

C 0.0607173137 1.5463483597 -0.0035999540
C 0.1072792619 0.0222859580 0.0293410264
N 0.7066425386 -0.5467801722 -1.1953138961
C 1.5223144431 -1.4283855542 -0.8069672456
O 1.6814156139 -1.6468129409 0.5355052783
C 0.9470281857 -0.6028710894 1.1763287718
O 1.8594143925 0.3387762167 1.7076732070
C 2.3759548914 0.0821350766 2.9358461219
O 3.2008838753 0.7780556899 3.4385019685
H 1.0636915727 1.9658361547 -0.0970634737
H -0.5354578727 1.8658812616 -0.8612297894
H -0.3961917434 1.9439664993 0.9070893861
H -0.9159443124 -0.3673130185 0.1015204764
H 2.1301894474 -2.0667661031 -1.4368133482
H 0.3617827855 -1.0504192094 1.9840616100
H 1.9386606169 -0.8197004387 3.4042616407