19

O 0.0187943747 1.4318343244 -0.0867249629
C 0.0625657443 0.0330641860 0.0949382130
C -1.3466945905 -0.5618954286 -0.0006767503
O -1.9596055100 -0.1377111006 -1.2143482073
C -1.3651035969 -2.0856585138 0.0978678890
C -2.7841293781 -2.7205792181 0.0377607072
O -2.7751784063 -3.5139884178 -1.1455652685
C -1.4257810196 -3.7821856209 -1.4068876659
O -0.7164764295 -2.6091883243 -1.0692078601
H -0.5758021832 1.5717166893 -0.8353290463
H 0.7116389860 -0.4570967440 -0.6488149765
H 0.4893877168 -0.1565828844 1.0865758427
H -1.9573940859 -0.1430275080 0.8083653532
H -1.6145924028 -0.7279469810 -1.8987742550
H -0.8286015801 -2.4104183862 1.0004255479
H -2.9786688702 -3.3390959098 0.9237092909
H -3.5711237404 -1.9708710517 -0.0649714348
H -1.0612916628 -4.6321416093 -0.8008263329
H -1.2939097554 -3.9899840514 -2.4717787332