19

C 0.0398195854 1.5277966369 -0.0141272766
C 1.5511664103 1.9300318097 -0.1971811857
C 2.2016663372 0.6074159992 -0.5551380118
C 1.4608137495 -0.4254524303 -0.1369382411
C 0.0254748801 -0.0199836598 -0.0181206476
O -0.1704640127 -0.6917929775 -1.3277290171
C 1.1618864986 -1.3454041984 -1.2784504028
C 2.1763193554 -0.9640463005 -2.3835925133
C 2.9939903121 0.2472344960 -1.7973497239
H -0.3834972145 1.9229107714 0.9144358476
H -0.5774639400 1.9035194380 -0.8359997534
H 1.6956676790 2.6644019483 -0.9961790893
H 1.9554621471 2.3841973511 0.7147931676
H -0.6546571032 -0.4675849775 0.7126675542
H 1.0213000769 -2.4222892194 -1.1460425227
H 2.8191990447 -1.8124542875 -2.6374651623
H 1.6392612165 -0.6818988314 -3.2944394126
H 3.0414766784 1.0947294672 -2.4887798598
H 4.0315737694 -0.0371871155 -1.5877225693