25

C -0.0891932590 1.5937507548 0.0086275411
C -0.0751752910 0.0637837645 -0.0482265647
C 0.7394096544 -0.4888545910 -1.2227910803
C 0.7606606193 -2.0195890194 -1.2864311771
C 1.5799219366 -2.5707066004 -2.4595974627
C 1.5904683000 -4.0928770888 -2.5266804223
C 0.3022060253 -4.8005684341 -3.0117539056
O 0.9970528228 -5.4180809911 -4.1134996777
C 2.2289091047 -4.7516221567 -3.7709152841
H 0.9253472693 1.9952166959 0.1099662455
H -0.5219318088 2.0198688932 -0.9034392216
H -0.6771019289 1.9577787861 0.8570290857
H 0.3301085521 -0.3342922001 0.8915785490
H -1.1054552006 -0.3102941111 -0.1149328309
H 0.3342728031 -0.0914398743 -2.1639841392
H 1.7705335266 -0.1138418526 -1.1572226127
H 1.1643038683 -2.4176734552 -0.3449178784
H -0.2706168251 -2.3934794761 -1.3542533608
H 1.1835776604 -2.1723140581 -3.4042151552
H 2.6138784965 -2.2061611927 -2.3849712825
H 1.9702703633 -4.5078446532 -1.5880900923
H -0.1358583337 -5.5441396522 -2.3348164951
H -0.4932143092 -4.1242790381 -3.3559106098
H 2.5468621880 -4.0483333507 -4.5532856735
H 3.0424721155 -5.4634030087 -3.5841012847