21

O 0.1589000028 1.3741414455 0.2303079140
C 0.0603968888 -0.0109561533 -0.0836015436
C -1.3546054480 -0.5061904915 -0.0765524936
C -2.0277038591 -0.9800301418 1.1882454427
C -1.9008493296 -1.9396068640 0.0375192902
C -2.9220782479 -1.6554534137 -1.0875149402
C -4.3355368650 -1.1117723869 -0.7161252381
C -3.7935143470 0.3530932871 -0.8221226700
C -2.3848639844 -0.1986773076 -1.1934899036
H -0.3019454857 1.5071630791 1.0655296384
H 0.5002081028 -0.1100109123 -1.0826947872
H 0.6685121114 -0.6245812495 0.6023921994
H -1.3486466779 -1.1803285138 2.0128590322
H -2.9914129739 -0.5969715308 1.5081149837
H -1.3494730758 -2.8668486221 0.1486124743
H -2.8569364934 -2.3419950447 -1.9318645073
H -5.0950776592 -1.3451340151 -1.4661941240
H -4.7217408280 -1.4157962837 0.2604377492
H -4.2545210547 0.9257437479 -1.6304386428
H -3.8451729099 0.9562695144 0.0883631939
H -1.9294757965 0.1716558869 -2.1126389476