23

C 0.1914121879 1.5638821028 -0.0767153960
C -0.1357542211 0.0802845278 -0.1055914266
O 0.6231330694 -0.5022903939 -1.1609698764
C 0.7418112477 -1.9070784004 -1.2010662387
C -0.6177566206 -2.6340786083 -1.1798586602
C 1.4856436062 -2.2345560462 -2.5187516228
C 2.8127229314 -1.4908783475 -2.6915827380
C 1.5962058799 -2.4440973412 -0.0484421543
O 2.1362256981 -1.7775114599 0.7942044484
H 1.2520594182 1.7122122081 0.1423376198
H -0.0301562533 2.0257681115 -1.0433949726
H -0.4001231793 2.0691578753 0.6928599957
H 0.1166806069 -0.3809177505 0.8553635647
H -1.2114222585 -0.0686919117 -0.2846906656
H -1.2334822292 -2.2773375125 -2.0103582975
H -0.4801251696 -3.7134119862 -1.2937959009
H -1.1611914007 -2.4620107339 -0.2469252195
H 1.6452184132 -3.3186497257 -2.5675951709
H 0.8051632517 -1.9811238464 -3.3395318330
H 3.2659893924 -1.7402673780 -3.6555098618
H 2.6537742044 -0.4118851798 -2.6499218025
H 3.5306738192 -1.7520367235 -1.9072766624
H 1.6964781559 -3.5567185399 -0.0561831590