17

C -0.0893385143 1.5434608568 0.0168579720
C 0.0195412642 0.0133429311 -0.0005829064
C 0.8064228272 -0.5316752626 -1.1910334380
O 2.1591205822 -0.0781623731 -1.2569663217
C 1.8939352808 -1.3861284673 -0.6872396815
C 1.8008519500 -1.3667725789 0.7974325610
C 0.7916457633 -0.5685921459 1.1931486234
C 0.4457424089 -0.2452873230 2.5251103273
C 0.1043355237 0.0504134328 3.6430160068
H 0.9051560511 1.9892256498 -0.0660868772
H -0.6987586153 1.8974195851 -0.8203090098
H -0.5506477902 1.8881728294 0.9461189042
H -0.9910993784 -0.4170922510 -0.0105282907
H 0.3174651979 -0.6873952970 -2.1493385422
H 2.3215922610 -2.2203599155 -1.2337652008
H 2.4756888656 -1.8957460304 1.4575403801
H -0.1799096276 0.3029319297 4.6344721237