21

C -0.2499266621 1.5885047177 0.0359003244
C -0.0182670764 0.0772024714 0.0107712459
C -1.3213655413 -0.6865437500 -0.2211936831
O -1.9015808315 -0.4360590891 -1.4922202889
C 1.1668619596 -0.3316039970 -0.9164742006
C 2.0974785125 -0.4484291461 0.3320122997
C 0.8190007327 -0.4238994878 1.2278814585
C 2.9410095907 -1.6879067745 0.4163510291
O 4.1304846383 -1.7159123931 0.6015979076
H 0.6811727460 2.1331163752 0.2222732942
H -0.6426916256 1.9431065747 -0.9238792707
H -0.9605166867 1.8668037478 0.8235104679
H -1.1227059708 -1.7640596728 -0.1982230836
H -2.0294455557 -0.4694041049 0.5960575715
H -2.2662957472 0.4537712887 -1.4862953477
H 0.9960340279 -1.2991378725 -1.3992116561
H 1.4772490764 0.3837337370 -1.6807552577
H 2.7360620127 0.4248472182 0.4748591022
H 0.8596154824 0.2189116528 2.1101431190
H 0.5242277612 -1.4305511711 1.5460677609
H 2.3583458271 -2.6336276347 0.2872310175