19

N -0.2578779336 1.3578563729 0.0910446353
C 0.0003248686 -0.0840785055 0.1174371116
C 0.5213019576 -0.5792259447 -1.1760664238
N 0.9305408312 -0.9125293035 -2.2054602646
C 0.9580843500 -0.4551367645 1.2773155540
C 0.3219758610 -0.0647325024 2.6412229476
C -0.1915745341 -1.3789385130 3.1783661669
C 0.2716624822 -2.4191262820 2.4885821127
C 1.1838420430 -1.9918092623 1.3630820732
H 0.5925984540 1.8537220915 -0.1628695348
H -0.9438522742 1.5780583189 -0.6245868926
H -0.9565161532 -0.5896746043 0.2990036757
H 1.8998308365 0.0748679464 1.1046788989
H 1.0704343807 0.3688762633 3.3180482124
H -0.4541050479 0.6962378855 2.5163029725
H -0.8398910492 -1.4387028278 4.0455568857
H 0.0631283193 -3.4613208422 2.7026715182
H 0.9698832145 -2.5009196439 0.4163357697
H 2.2309813136 -2.2259250424 1.5963696115