18

C 0.2455935893 1.4396793114 -0.4352355800
C 0.0365536690 0.0266750942 0.0833805457
O 0.5244356115 -0.9885024857 -0.8354632411
C 1.2759798372 -1.6363228041 0.2085433646
C 2.7450715996 -1.1479754757 0.2704420351
C 2.3481097266 -0.1998722432 1.4492014893
O 2.7854213381 1.1333520970 1.4904553198
C 0.8482160635 -0.5709756954 1.2601105842
H 1.2638930559 1.5861466870 -0.8087282909
H -0.4273049593 1.6309664522 -1.2770983062
H 0.0370715189 2.1779355358 0.3453690979
H -1.0376909709 -0.1278088494 0.2599302602
H 1.0719989132 -2.7068885121 0.2772905756
H 3.5046887212 -1.8941343184 0.5159458123
H 3.0329455401 -0.6362764490 -0.6517863173
H 2.6845016694 -0.6332804974 2.3961379402
H 2.5841532896 1.5490291089 0.6475667772
H 0.2767586371 -0.7783969260 2.1645519933