21

C 0.0687214153 1.5672180378 0.1094666570
C -0.1461856002 0.0544912688 -0.0247885820
C 0.6654956116 -0.5412583094 -1.1742079822
C 2.2170405791 -0.6129770048 -1.1028640626
O 3.0681695038 0.2307654589 -1.0256968721
C 2.2352697712 -2.0877082656 -1.3554283285
C 1.3436229011 -2.7706603991 -0.3193194516
C 0.6814523890 -2.0646046139 -1.4497830645
C -0.1937013141 -2.7440056768 -2.4629883451
H 1.1286639563 1.7991229156 0.2456772036
H -0.2705967047 2.0933652588 -0.7896767136
H -0.4866101872 1.9699288035 0.9618697592
H 0.1221207589 -0.4377792630 0.9173343416
H -1.2107146327 -0.1588763497 -0.1883229221
H 0.4279428943 -0.0050799793 -2.1044732159
H 2.9717193878 -2.6474475552 -1.9194476321
H 1.3613488467 -3.8547163999 -0.3840377708
H 1.3021625339 -2.3954821986 0.6985309158
H -1.2362081976 -2.7745919788 -2.1247741240
H -0.1724223698 -2.2178891499 -3.4237599549
H 0.1259046473 -3.7768493794 -2.6348776951