21

C -0.1988610027 1.5737694891 -0.0240438307
C -0.0327329496 0.0472829742 -0.0018348757
C 1.1708799533 -0.4333575194 -0.8965336870
C 2.0186630348 -0.5571104738 0.3735466227
C 3.2442921958 -1.3872493842 0.5952234663
C 3.3353702897 0.1228739243 0.6204109897
C 0.7730212539 -0.4453188873 1.2584308957
C -1.3003037011 -0.6217063013 -0.2395441100
C -2.3487429792 -1.1783626283 -0.4362655593
H 0.7641631476 2.0615982058 0.1564656167
H -0.5795931220 1.9086668128 -0.9936259209
H -0.9013759101 1.8990054441 0.7491942331
H 0.9673130106 -1.3963128840 -1.3718833029
H 1.5025493252 0.2783701253 -1.6583721226
H 3.3377934800 -1.9205130733 1.5362403203
H 3.6686910612 -1.9105811588 -0.2560311637
H 3.8207135074 0.6190987962 -0.2145183000
H 3.4896168623 0.6091591561 1.5788673753
H 0.8093780113 0.2575126546 2.0960862076
H 0.4150471961 -1.4129212715 1.6193774728
H -3.2728573744 -1.6713666603 -0.6097644574