16

C -0.1037648775 1.4833736209 -0.1175807185
C -0.0751227009 0.0064875811 0.0548764319
C -1.0092557463 -0.9737428909 -0.0770166295
C -0.3033260615 -2.1681867982 0.2461971813
C -0.8072432632 -3.5797788442 0.2393601173
C -0.9780551255 -4.0994811735 -1.1834221365
O -1.9899454320 -4.5867630163 -1.6110364215
N 0.9518749555 -1.9203229634 0.5412771405
O 1.0989514558 -0.5408727033 0.4218517874
H 0.1584438336 1.9912043898 0.8162318602
H 0.6156966297 1.8017932425 -0.8788215270
H -1.1002458389 1.8075388156 -0.4224860759
H -2.0443213602 -0.8678361440 -0.3569975939
H -0.0637653790 -4.2129809778 0.7383983135
H -1.7637196813 -3.6730298602 0.7598270609
H -0.0675027983 -3.9932226179 -1.8140290202