23

C 0.1671969484 1.4074934668 -0.0872064574
O 0.2607089805 0.0066456975 -0.1573044578
C 0.7364129845 -0.5733529418 1.0381413537
C 0.7946374316 -2.0862742262 0.8568014258
C 1.3564377434 -2.7886163382 2.0858355585
C 0.5126558319 -3.0118135541 3.3891967456
C -0.2540330798 -4.1467078420 2.6483231279
C 1.2459261381 -4.3369333224 2.2745945014
C 1.5626965854 -4.0919129516 3.7785614181
H 1.1462749475 1.8752620130 0.1061407086
H -0.2072268226 1.7611854360 -1.0511967887
H -0.5271211025 1.7339438091 0.7041024759
H 1.7369769512 -0.1755672745 1.2850648447
H 0.0730882505 -0.3119658150 1.8812690058
H -0.2072188978 -2.4395382436 0.5973417480
H 1.4344077727 -2.3031644121 -0.0078371527
H 2.3643586342 -2.4064288990 2.2943134008
H 0.0879358519 -2.2471101933 4.0423373032
H -0.6923929579 -4.9222413085 3.2825935048
H -0.9456584991 -3.8625977653 1.8544372772
H 1.6728692014 -5.1070614093 1.6293130132
H 2.5693624458 -3.7376068947 4.0187620340
H 1.2303510408 -4.8634913807 4.4780936994