17

C -0.0857535605 1.2254033133 0.0310731309
O 0.3468320323 -0.1260992354 -0.0473918226
C 0.8727799681 -0.6341916345 1.1508640746
C -0.2426292124 -1.2358487016 2.0882215814
O -1.5219232952 -0.6822977382 2.1137464299
C -0.0677516854 -2.5144457453 1.2520731275
O -0.8945566057 -3.2648821402 0.8177067810
C 1.3583791852 -2.0932100454 0.8211474855
O 1.8230013623 -2.3650488075 -0.4536578790
H 0.7532418929 1.8886835145 0.2863889808
H -0.4608444242 1.4938231588 -0.9589126872
H -0.8818759996 1.3443589997 0.7720412965
H 1.5956991368 0.0489452621 1.6104888987
H 0.1476007673 -1.3419580277 3.1087406934
H -2.0681888175 -1.2189945876 1.5240815939
H 2.1023875600 -2.4289335930 1.5506172275
H 1.2776728957 -1.8428851621 -1.0574570929