19

C -0.4994860693 0.9698268364 -0.3022252158
O 0.3669493997 -0.1030434227 0.0502899287
C 0.9727193750 -0.6885928967 -1.0576786302
C 1.6344122973 -2.0032954849 -0.8457665739
C 0.2900931701 -1.9675476667 -1.5657550513
O -0.8527348347 -2.3805564936 -0.8820983247
C 0.2760999638 -2.1870753978 -3.0411641597
C -0.9959503693 -2.7419945461 -3.6420677413
O 1.2547454096 -1.9088448985 -3.7067550809
H 0.0547716216 1.7717576407 -0.8076919301
H -1.3116357757 0.6326499407 -0.9596560142
H -0.9205044883 1.3562373593 0.6279583595
H 1.3801247018 -0.0031776457 -1.7985289093
H 2.5074868610 -2.2237454193 -1.4484313048
H 1.6122845711 -2.4143969573 0.1575342498
H -0.9324899256 -1.8001337267 -0.1119306549
H -1.8484208614 -2.1060756246 -3.3834081350
H -0.8851148728 -2.8134753678 -4.7243318216
H -1.2127518540 -3.7273688087 -3.2162784705