16

O 0.0613062390 -0.0801916284 -0.0162995766
C 0.0798144930 1.1133207699 -0.1958296738
C 1.3188893541 1.9596085782 -0.0658680768
C 1.3736870757 3.2660281421 -0.8934090898
O 0.2617175534 4.0695506189 -0.4904717792
C 1.4504039191 4.1037506470 0.3148172256
C 1.3937016297 2.8748188360 1.2047183791
C 0.8031255454 2.6718991340 2.5433751083
N 2.2688150098 2.6648677718 2.3402403466
H -0.8422379337 1.6811915853 -0.4382113165
H 2.2153037055 1.3407421328 -0.1608495494
H 1.7719723503 3.4139687536 -1.8894697904
H 1.9144332415 5.0644880980 0.4991760144
H 0.4215317973 3.5168444363 3.1090219644
H 0.3012180162 1.7264586724 2.7330928247
H 2.6295243238 1.7138353120 2.3527005893