13

C 0.0519256505 1.4843811242 -0.0165271087
C 0.0318699976 0.0297190899 -0.0005560704
C 0.0019563309 -1.1737190619 0.0292768578
C -0.0205386028 -2.6405134995 0.0276609067
O -1.2953006877 -3.1886986016 0.2281490861
C 0.5541927691 -3.1106296136 -1.3132934316
O -0.0863370185 -3.8099414153 -2.0553200586
H 0.8498697616 1.8778236160 0.6222813224
H 0.2110985954 1.8703255865 -1.0291267445
H -0.8976351989 1.8900046255 0.3488275372
H 0.6662338663 -3.0063295596 0.8114441209
H -1.5163004496 -3.6329006812 -0.6065767694
H 1.5729386460 -2.7539029393 -1.5570463581