16

C -0.0480960831 -1.2774312787 -0.0704275430
C -0.0128964909 -0.0766231231 -0.0145841951
C 0.0009858653 1.3695536476 0.0257805322
C 0.0653562412 2.1073502912 1.4118656606
C 1.5481123914 1.6504043346 1.5238758597
C 1.3745074173 2.1326364627 0.0551263246
C 0.6049547156 3.3619325490 0.6456980601
C -0.2937126554 4.1236401658 -0.2072521612
N -0.9997745733 4.7485142264 -0.8769023093
H -0.0795632842 -2.3379031952 -0.1198122956
H -0.7310586308 1.7838581732 -0.6728633578
H -0.7022316938 2.1071205268 2.1848468453
H 2.1985012370 2.2522900781 2.1626695322
H 1.7129741666 0.5827861095 1.6630550402
H 2.1193329161 2.1616179639 -0.7392830615
H 1.2154572710 4.0387261182 1.2473990686