12

N -0.0053752976 1.3580036745 0.1513359522
C -0.0327140421 -0.0111499153 0.0429091051
N -1.1806371597 -0.6270759799 0.0057217064
N -1.0992028142 -1.9865024326 -0.0136026044
C 0.0299521705 -2.7684501283 -0.0192948086
O 0.0340162692 -3.9839823877 -0.0386075196
C 1.2247838669 -1.8902664697 -0.0052571392
F 2.3757844066 -2.5156605182 -0.0350334866
N 1.2105028144 -0.6159140998 0.0259447145
H 0.8374674992 1.7946558953 -0.1864251516
H -0.8652732964 1.8288247510 -0.0831665946
H -1.9902526569 -2.4635528793 -0.0338241735