20

O 0.0488845462 1.4137849245 -0.1894790109
C 0.0190032177 0.0042242247 -0.0513087151
C 0.6916522085 -0.5425143368 1.2325834126
N -0.0097440449 -1.7938351183 1.5683315056
C -1.3474794165 -1.6725784270 2.1937421711
C -1.9437992509 -0.3004905256 2.4776664784
C -2.2626709856 0.3023276417 1.0841956652
C -1.4301959978 -0.5135666656 0.0652927298
C -1.2241910464 -1.8833982685 0.7272853408
H 0.9620607713 1.6850062473 -0.3224710456
H 0.4865562045 -0.4723032855 -0.9271603499
H 1.7514587174 -0.7715816082 1.0798851831
H 0.6278728338 0.2033860388 2.0335455138
H -1.5684679071 -2.4876065838 2.8775949601
H -2.8462348434 -0.4085947619 3.0868122382
H -1.2577089690 0.3294266351 3.0553960262
H -3.3251201009 0.1614411313 0.8623314677
H -2.0497127075 1.3710968773 1.0174485774
H -1.9129530976 -0.5624464929 -0.9126085177
H -1.4197850918 -2.8177193468 0.2107626792