20

C 0.0788897240 1.4193710838 -0.0016885962
N 0.0372808134 -0.0327538316 0.0782775708
C -1.2182373986 -0.6278889200 0.0261252683
C -2.4961449731 -0.0952958472 0.0231699365
C -3.3537460636 -1.2231491272 0.0308831569
C -4.8501677905 -1.2443932812 0.0330708949
N -2.6679164843 -2.3601869521 0.0319222373
N -1.3569523820 -1.9804068404 0.0430082683
C -0.3094108909 -2.9706558031 0.0533172763
H 1.1192413420 1.7484571454 0.0516366681
H -0.3732637800 1.8233613454 -0.9206145320
H -0.4554887521 1.8442730213 0.8532346153
H 0.7109731694 -0.4736140937 -0.5341328517
H -2.7697474442 0.9466810576 0.0119550729
H -5.2613293384 -0.7326804724 -0.8445150280
H -5.2059187804 -2.2770038310 0.0273058904
H -5.2576089464 -0.7437682587 0.9187725055
H 0.1490400604 -3.1004840813 -0.9363021218
H 0.4691408645 -2.6876425253 0.7688790033
H -0.7550078989 -3.9179366582 0.3563079549