17

O 0.1033502947 1.2361527216 -0.3515166790
C 1.3718161759 0.6556554644 -0.0558630840
C 2.1052509271 1.0666797072 1.1690224167
C 1.6545287475 1.7295498357 2.2388029849
C 0.2929666327 2.1960623966 2.5431833208
C -0.8264131219 1.4649924033 2.5501802776
C -0.9492075920 0.0290367962 2.2550787258
C -0.5327995151 -0.6562538510 1.1855184154
C 0.1276062979 -0.1569494409 -0.0480826642
H 2.0130742340 0.5400252544 -0.9321011797
H 3.1633601007 0.8152575440 1.1389297095
H 2.3971142764 2.0003211070 2.9898098387
H 0.2246109561 3.2311533525 2.8759235957
H -1.7437694630 1.9455979217 2.8882283276
H -1.4890316519 -0.5377419358 3.0141002682
H -0.7281530938 -1.7263265474 1.1632649292
H -0.0319525852 -0.7955995695 -0.9193129134