19

C 0.0798126694 1.4155585943 0.1606305258
C 0.1585231766 -0.1106753503 0.0697259623
C 0.7443125592 -0.5788221455 -1.2450569356
O 2.1008208220 -0.1758779575 -1.3649047507
C 2.7323392414 -1.1414950614 -2.1689570508
C 3.1445247855 -2.4317988387 -1.4662792324
O 3.1629520645 -2.5391691978 -0.0875015121
C 1.8177896659 -2.3405474555 -2.1892510680
O 0.7587681064 -2.0082170074 -1.3130056780
H 1.0740114911 1.8605002714 0.0690613349
H -0.5501157213 1.8293605171 -0.6343089887
H -0.3471950605 1.7242836776 1.1186044251
H 0.7839461332 -0.5108167581 0.8752962329
H -0.8363638192 -0.5579614096 0.1697653964
H 0.1698012246 -0.1922997339 -2.1059109407
H 3.2631659727 -0.7584708220 -3.0342814858
H 3.9365365782 -3.0025639961 -1.9442027890
H 2.2398768006 -2.4965540472 0.1975573191
H 1.5412982698 -2.9269071593 -3.0590292748