17

C 0.0594686886 1.4820052533 0.0492280242
C -0.0220744527 -0.0085896663 -0.0175784474
C -0.0838907961 -0.7729235447 -1.1138185903
C -0.0577048368 -2.2226882016 -0.7755499196
N 1.1829307270 -2.6335265111 -0.0753630169
C -0.0190566436 -2.2854270796 0.7262795580
C -0.0176821534 -0.8493566577 1.2504369893
C -0.6868498250 -3.3228455135 1.4568091394
N -1.2125743084 -4.1602022101 2.0588297915
H 0.9984152932 1.8040446627 0.5165502768
H 0.0045671053 1.9321017957 -0.9451258157
H -0.7520501746 1.8958188650 0.6608840432
H -0.1041380384 -0.4081259868 -2.1335290153
H -0.5925763299 -2.9612734467 -1.3625950075
H 1.2636446455 -3.6499261118 -0.1030936785
H 0.8632684216 -0.6535869442 1.8719383189
H -0.9021443322 -0.6520009326 1.8685276200