19

C -0.0357950458 1.4665410113 0.1892233065
C 1.4981655721 1.4955450828 -0.1218411943
C 1.2551146232 0.1322560469 -0.7854744935
C 0.4025240159 0.1476293147 -2.1004006133
C -0.4526263859 -0.7908131215 -1.2324534663
C 0.5148592413 -1.9983109792 -1.0181359664
N 1.6569215668 -2.0811488747 -1.9641647889
C 1.7976119113 -1.3007541518 -0.7150185657
N -0.0217026723 -0.0382593525 0.0265004050
H -0.3350560965 1.7473113428 1.2012034508
H -0.6382755970 2.0392024786 -0.5231548447
H 1.8780771522 2.2987737361 -0.7560434723
H 2.1006783017 1.4276112466 0.7875737429
H -0.0670294406 1.1132938425 -2.2755226656
H 0.8411708632 -0.2404019163 -3.0170519042
H -1.5071492078 -1.0132149865 -1.4035333053
H 0.1827270015 -2.8806961071 -0.4854334722
H 2.1112298740 -2.9838590685 -1.8382902152
H 2.4680699628 -1.6183636841 0.0741285226