18

O -0.0483273842 0.0020340611 -0.3473958272
C 0.0523384335 1.1462252537 0.0221030761
C 1.3052350187 1.9278625070 0.0319789395
C 1.2115294349 3.4434603619 -0.1520722009
C 1.5497820872 2.9018442073 1.1817912694
C 0.7910365908 3.1192656659 2.4995306470
N 2.0784835552 3.4109253918 3.2295228120
C 2.8925717384 2.1888927170 3.1085224721
C 2.8344556313 3.0960016113 1.9437244688
H -0.8360382874 1.7095797226 0.3974197803
H 2.1689765106 1.4149348007 -0.3782086174
H 1.9909856071 3.9098039576 -0.7452344469
H 0.2205044275 3.8642801005 -0.2993307152
H 0.1521746448 4.0054717297 2.4952446553
H 0.2366556452 2.2726072390 2.9178532764
H 3.7872902143 2.2179774346 3.7227452784
H 2.3974008525 1.2207485316 3.0649506652
H 3.6779814496 3.6933926768 1.6115288471