17

O -0.0335392274 1.4057992297 -0.3141851161
C -0.0183377233 0.0328860412 0.0558455772
C -1.4631348828 -0.4378733045 0.0959350950
N -2.0618709001 -0.2808470533 -1.2161544777
C -3.3940259795 -0.6033898247 -1.3827268646
C -4.2128128783 -1.4477290710 -0.6586927535
N -5.3919240826 -1.3968268884 -1.3414862065
N -5.3232865140 -0.5838555898 -2.3969794301
N -4.1116444067 -0.0962419189 -2.4287428495
H 0.8625981246 1.6748417154 -0.5339226527
H 0.5383357493 -0.5691190820 -0.6765874696
H 0.4410770113 -0.1122911627 1.0450184862
H -1.4780244082 -1.4972079476 0.3817153785
H -2.0062488517 0.1218057670 0.8766628350
H -1.8249371365 0.6064188221 -1.6414486775
H -4.0737021430 -2.0454649849 0.2240051346
H -6.2564572112 -1.8721906776 -1.1404565986