19

C 0.3306998701 1.4705695889 0.1158004582
O 0.3676673733 0.0690757722 -0.0304099832
C 0.5430933947 -0.6391158240 1.1935829076
C -0.7672889388 -0.7437491895 1.9912468490
C 1.0760818633 -1.9641982666 0.8745965688
C 1.5047976057 -3.0636466255 0.6443225346
C 2.0281288050 -4.3974224199 0.3428849887
C 3.2725571847 -4.7133226565 1.0472224907
C 4.2916186025 -4.9852542895 1.6205014193
H 1.2352110581 1.8512583848 0.6160279961
H 0.2826590813 1.8923765865 -0.8909799462
H -0.5470433433 1.8187513585 0.6798558771
H 1.2895312106 -0.1079108868 1.8092792535
H -1.5249320139 -1.2567865478 1.3937715819
H -0.6042072632 -1.3082431383 2.9133205159
H -1.1396685794 0.2488449211 2.2591788627
H 1.2715882976 -5.1558310014 0.5874521238
H 2.1929002072 -4.4841044755 -0.7400637913
H 5.1937942046 -5.2204721906 2.1285247327