15

O 0.0918122623 1.4957146159 0.0502738844
C -0.0077988802 0.1010149367 -0.0343546501
C -1.4644231601 -0.4267609588 -0.1282635789
C -1.4570420292 -1.4466697279 -1.2768102009
O -2.3477616395 -2.2113101916 -1.5546480232
C -0.1482217354 -1.3016856027 -1.9650153410
C 0.6303872429 -0.4377772053 -1.3070772251
C 0.6859928044 -0.5271237119 1.1744782864
O 1.2447004583 0.1467783425 2.0025329771
H 0.5919503269 1.6775749625 0.8632614413
H -1.8625380626 -0.8717551940 0.7876086083
H -2.1027767362 0.4214288907 -0.3914502852
H 0.0876403211 -1.8304814996 -2.8797768688
H 1.6253517323 -0.1132350308 -1.5907134209
H 0.6358794850 -1.6317838756 1.2418061767