18

C -0.0970435391 1.5602074601 -0.1931745032
C 0.0054889565 0.0813454188 0.1993518036
C -1.3425835376 -0.6083088588 0.1466645117
C -1.9058964538 -1.2833463656 -1.0606386296
O -0.8756000408 -1.9452724201 -1.8193884536
C -0.6552375488 -2.8704591764 -0.7286146685
C 0.7506343485 -3.0339346843 -0.3430534498
N 1.8487410650 -3.2027770473 -0.0250978788
C -1.6157051591 -2.1038638956 0.1830817387
H 0.8821769804 2.0451541664 -0.1454047884
H -0.4770000790 1.6709270705 -1.2140285007
H -0.7724711647 2.1057303034 0.4754055135
H 0.7057801115 -0.4238962917 -0.4703179837
H 0.4187645431 -0.0098437463 1.2105965347
H -2.1254768252 -0.0902402439 0.7016683574
H -2.8229511901 -1.0433680260 -1.5847912738
H -1.0541515707 -3.8565711210 -0.9956478824
H -2.2766728059 -2.5751848320 0.8967900827