17

O -0.0617462314 1.4005974848 -0.0053747558
C -0.1337773661 0.0283126781 -0.3493709287
C -1.1889013770 -0.6025145395 0.5667010760
C -1.3708775444 -2.0256208928 0.3175956806
C -1.5016683693 -3.2023902586 0.0986630631
C -1.6979490400 -4.6317741363 -0.1786252371
O -2.9704882599 -4.9045140007 -0.7599383856
C -0.5963594726 -5.1628829189 -0.9979386155
C 0.2822621454 -5.6051204078 -1.6875127797
H 0.6035936881 1.8174819379 -0.5601785421
H -0.4288252758 -0.1154962988 -1.3994944277
H 0.8294798428 -0.4820922647 -0.2023470215
H -0.8912887403 -0.4335479648 1.6086288613
H -2.1363575122 -0.0682540300 0.4257176366
H -1.7156131169 -5.1785488463 0.7731095626
H -3.0115725746 -4.4207997372 -1.5931486997
H 1.0626169041 -5.9990266445 -2.2908332567