16

C -0.0046708433 1.4466209391 -0.0221292611
N -0.0037644319 -0.0036116735 0.0177569945
C -0.0897632922 -0.8501587727 -1.0539431053
N -0.0630964148 -2.1097049883 -0.6922843655
C 0.0456404452 -2.0877388458 0.6827285921
C 0.0833962254 -0.7924751133 1.1360609336
C 0.1095323969 -3.3108114747 1.5164505250
N 0.0523097275 -4.4628319827 0.7954131154
O 0.2047733617 -3.2673872159 2.7328876385
H 0.9221182123 1.8467055220 0.3988645810
H -0.0864673977 1.7725557541 -1.0604902401
H -0.8523469948 1.8494339145 0.5394949931
H -0.1691150998 -0.4768450980 -2.0647833451
H 0.1626105163 -0.3885242874 2.1308312213
H -0.0291074244 -4.4234494773 -0.2069571888
H 0.0860148335 -5.3435036402 1.2782967414