19

C -0.0170614971 1.5245378046 0.0439331620
C 0.0536011654 0.0179291338 0.0474003823
C 0.9328164294 -0.8175259701 -0.9432824656
C 0.6347898112 -1.9201369175 0.0967659575
C 0.7283553354 -0.8251561215 1.1828230164
O -0.7822029150 -2.1337742695 -0.0461763685
C -1.2778042867 -0.7712292267 -0.0967451898
C -2.2632832146 -0.5143145837 0.9461354011
C -3.0802685618 -0.2732433983 1.7944654666
H 0.9780659967 1.9635221249 0.1649834889
H -0.4361252779 1.8990980612 -0.8972828299
H -0.6513995220 1.8866005981 0.8595889719
H 0.5672880633 -0.9751304838 -1.9615042028
H 1.9735686761 -0.4875090898 -0.9477109479
H 1.1424510679 -2.8816876971 0.1420035863
H 1.7504029445 -0.4980738362 1.3831903496
H 0.1736152145 -0.9838997621 2.1095459695
H -1.7363363396 -0.5931947263 -1.0789109911
H -3.8055244997 -0.0733477002 2.5441575636