14

O 0.4617454140 0.6518768662 -0.8750270948
C -0.1393114227 0.2576938380 0.3370025047
C -1.4718881970 -0.4349924933 0.1637937733
C -1.9757693831 -0.7872914887 -1.0452397751
C -3.2594155135 -1.4461434816 -1.1090140460
O -3.8774064820 -1.8325697393 -2.0785899275
N -3.7845490861 -1.6184459086 0.1928786357
N -3.2504529417 -1.2609713041 1.3637312123
N -2.1186375802 -0.6767238310 1.3671830482
H -0.0123152797 1.4187816741 -1.2129057071
H 0.5533113081 -0.4415329624 0.8203947158
H -0.2725743292 1.0930059131 1.0395944246
H -1.4346292326 -0.5974672297 -1.9630307523
H -4.6855437245 -2.0747962429 0.2714665183