15

O 0.0368009994 -0.0565975012 -0.0116150775
C 0.0120972550 1.1540882592 -0.0042382576
C 1.2387349420 1.9631256624 0.0297372590
C 1.3646698351 3.3052562871 0.0398613262
C 2.8253062767 3.6664103287 0.0762880797
O 3.5215708702 2.4254856434 0.0892443732
C 2.6066462756 1.3360702182 0.0586844579
C 0.3099855461 4.3287632771 0.0196026105
O 0.5594557434 5.5136932361 0.0310177925
H -0.9475460344 1.7079200586 -0.0238566008
H 3.1152837302 4.2657183173 -0.7988665636
H 3.0732588069 4.2598190230 0.9681002342
H 2.7386382374 0.6936061219 0.9411576695
H 2.7813085279 0.7064582627 -0.8257568917
H -0.7359211714 3.9634575555 -0.0060999714