16

C 0.0429787918 1.5201870679 0.3654225900
C -0.0570300941 0.0296708963 -0.0165657660
C 0.8077779969 -0.7767864669 0.9525197978
O 1.8640948472 -1.2751308922 0.6734423468
C -1.4684766370 -0.4786233997 0.0164817115
N -1.9095694181 -1.3700687418 -0.8789195652
N -3.1604045872 -1.5895710670 -0.5029052833
N -3.5903481306 -0.9268800836 0.5598302311
C -2.5229279239 -0.2093637877 0.9128782040
H 1.0737489156 1.8706195920 0.2664823641
H -0.5955875409 2.1237228102 -0.2848939602
H -0.2723215733 1.6906163823 1.4005244739
H 0.3532087684 -0.1312486485 -1.0165301313
H 0.3811489516 -0.8513078692 1.9807060406
H -3.7600018673 -2.2207643275 -1.0101623614
H -2.5628418793 0.4527150155 1.7627602076