20

C -0.0507716226 1.5181177243 0.1219890189
C 0.0021171070 0.0348482035 -0.0312287708
C 0.0124363147 -0.7824539336 -1.1374425500
C -0.0296814594 -0.3656742673 -2.5760843151
C 0.0716139263 -2.1516959777 -0.6843996229
C 0.1015875150 -3.3814560450 -1.5390181288
C 0.0945075898 -2.0946745024 0.6868382218
O 0.1476338589 -3.0455194599 1.6590732238
N 0.0529351058 -0.7905755237 1.0855522055
H 0.8260836471 1.9143719267 0.6517340099
H -0.0821694156 2.0006700446 -0.8571301396
H -0.9393898497 1.8492327448 0.6763186330
H 0.8530225540 -0.7132028787 -3.1283140054
H -0.9055844873 -0.7759882826 -3.0950999656
H -0.0705741111 0.7218396254 -2.6824883292
H 0.9739566043 -3.4059010663 -2.2045377869
H 0.1428379156 -4.2979819894 -0.9369908476
H -0.7872259478 -3.4674292349 -2.1770571415
H 0.1751828158 -3.9072168553 1.2321932327
H 0.0610373493 -0.4933517123 2.0454178878