21

C -0.2060539652 1.5056988539 0.0352021602
C 0.0200877730 -0.0001666791 0.0148965429
C 1.2120390907 -0.5947773803 -0.8374377337
C 2.1536738899 -0.2009201245 0.3507477945
C 0.8820209884 -0.6376852307 1.1605341394
O 0.6226769399 -0.2615601797 2.4776111911
C 0.8007431364 -2.1319807266 0.7645919113
C 0.5096955005 -3.2400535930 1.7137743296
C 1.0216532408 -2.0901311646 -0.5538933122
H 0.7134531458 2.0843924841 0.1515960525
H -0.6878532704 1.8287798499 -0.8942188402
H -0.8698746360 1.7726513475 0.8641032416
H -0.9317115850 -0.5145102007 -0.1489278077
H 1.4064933092 -0.2699980543 -1.8581137078
H 3.0599529319 -0.7976539550 0.4800973612
H 2.3784706154 0.8656496818 0.4205440786
H 1.2997846012 -0.6433665302 3.0462158087
H -0.4368524611 -3.0704153901 2.2416063865
H 0.4495570619 -4.2024358121 1.1979409179
H 1.2830041420 -3.3267802779 2.4897480261
H 1.0452119708 -2.8939200484 -1.2774362906