17

O -0.0613890443 1.4891003229 0.0184554566
C 0.0045781768 0.0924950203 -0.0337860125
C -1.3530529208 -0.6356022463 -0.0937739049
C -2.3909319291 0.1630368333 -0.8854501958
C -1.9113127999 0.3331128868 -2.3521717375
C -0.3947092981 0.2373567871 -2.4800590209
O 0.2647104514 0.7986332988 -3.3201599732
C 0.2180630243 -0.6381370340 -1.3921677896
O -0.7442739450 -1.6370147691 -0.9673703680
H 0.8279096741 1.8510900015 -0.0518275273
H 0.6550140294 -0.3326857826 0.7395694641
H -1.7486260229 -1.0752460335 0.8246867572
H -3.3549069716 -0.3523621813 -0.8611639291
H -2.5237203167 1.1377981900 -0.4071498674
H -2.3125913922 -0.4876380899 -2.9588097617
H -2.2503647609 1.2661749895 -2.8060405351
H 1.1921035454 -1.0476480135 -1.6658310548