19

O -0.0677576171 1.0983080017 -0.8429023943
C -0.0944435880 0.1507516801 0.2355470205
C -1.4619200214 -0.4862467223 0.2416167151
C -1.8870223500 -1.2163764211 -1.0169092795
O -0.9629117398 -1.3338826782 -2.0559092064
C -1.6127894151 -1.9875465064 0.2320059599
C -0.5687632345 -3.0823832813 0.4104456255
O -1.5327708282 -3.9086684820 1.1049317073
C -2.5483356892 -2.8842053730 1.0320993060
H 0.8033723020 1.5078151889 -0.8628344482
H 0.6837429971 -0.6096072899 0.0895866688
H 0.1029807492 0.6512774949 1.1934597336
H -2.2367124857 0.0789719448 0.7529824165
H -2.9261241990 -1.1131176279 -1.3324936481
H -0.6027921380 -0.4467214673 -2.1969747409
H -0.2102315364 -3.5430849270 -0.5166983664
H 0.2901362464 -2.8375147757 1.0502911482
H -2.8272855043 -2.5124154703 2.0278095463
H -3.4508182379 -3.2303227981 0.5112426463