17

O -0.1992920318 0.1436501535 0.3892596990
C 0.0395403030 1.1631240476 -0.2003260917
C 1.4108001883 1.8074011888 -0.2167051752
O 1.3596639765 2.8962985591 -1.1359510510
C 2.4477918530 3.6757281288 -1.1626997995
N 3.4987133630 3.5250538336 -0.4551672152
C 4.3791620701 4.6429084582 -0.8314585709
C 3.7598548532 5.2516361471 -2.1242682433
N 2.3780927592 4.7609835271 -2.0233284932
H -0.7338822821 1.7204005006 -0.7736304330
H 1.6742596071 2.1638406405 0.7861731405
H 2.1744038410 1.0788660478 -0.5111046356
H 4.4003036524 5.3830699606 -0.0209044769
H 5.4058369035 4.2988809986 -0.9840347562
H 3.7965079958 6.3435873624 -2.1467702729
H 4.2574605048 4.8694586718 -3.0262881930
H 1.8463412730 4.6322967440 -2.8724001919