22

C 0.0498268452 1.4383230075 -0.2092326139
C 0.1906412608 -0.0372418329 0.1904132993
C 0.6963926699 -0.1765724751 1.6332023189
C -1.1616561264 -0.7336573718 0.0545575374
C -1.9340866197 -1.2116804844 -1.1517399200
C -1.1708495479 -2.1132459341 -2.1642306301
N 0.2544787914 -2.2447063193 -1.7664897572
C -0.7949707311 -3.0521297495 -1.0928724233
C -1.5413720961 -2.1926169105 -0.0323981528
H 1.0080669013 1.9614002134 -0.1211568832
H -0.2947490383 1.5357910684 -1.2437224191
H -0.6714170713 1.9590177654 0.4338593578
H 0.9056081032 -0.5128436734 -0.4773476192
H 0.8122978753 -1.2291479341 1.9107837528
H 1.6672813633 0.3149039464 1.7573735119
H -0.0002241101 0.2825475363 2.3465164753
H -1.8812778092 -0.2544853560 0.7269536534
H -2.9267796486 -0.8415731165 -1.3779403216
H -1.4870023318 -2.3013948735 -3.1820264069
H 0.6927511882 -2.8561167500 -2.4560642104
H -0.7534941583 -4.1335817082 -1.0913219290
H -2.2005571196 -2.6555600080 0.6919942397