13

O 0.0699913425 1.3315845954 0.0073646797
C -0.0323231817 0.0002527275 0.0009035181
C -1.2030466560 -0.6767754021 0.0035801279
F -2.3722314598 -0.0240723687 0.0132437032
C -1.1685143589 -2.0981344110 -0.0040883421
C 0.0108447669 -2.7643582503 -0.0138864521
C 1.2672185595 -2.0553212991 -0.0168322819
N 2.4183974595 -2.5865391970 -0.0258104158
O 1.1507234738 -0.6385867195 -0.0087614525
H 1.0091359571 1.5583323656 0.0035496012
H -2.1155315212 -2.6268168734 -0.0018290000
H 0.0712698536 -3.8434915242 -0.0199038105
H 3.1564176046 -1.8842631530 -0.0260519953