20

C 0.0816223802 1.5091458926 -0.3638622631
C -0.0189154167 0.0670801549 0.1675251624
C -1.4109958792 -0.4749781719 0.2071824828
C -2.2333807661 -0.7977945332 1.2564675141
C -3.4905169971 -1.2657509704 0.7432667904
C -4.6822718124 -1.7273899347 1.5255831128
C -3.3708275453 -1.2027739788 -0.6246618333
O -4.2115190706 -1.5123249597 -1.6492544705
N -2.1312627998 -0.7296701039 -0.9520168931
H 1.1204934640 1.8549563828 -0.3666518408
H -0.2962500251 1.5854623878 -1.3891744506
H -0.5078431426 2.1917282410 0.2554709603
H 0.6286065707 -0.5827947669 -0.4391083370
H 0.3825400487 0.0264441179 1.1852971747
H -1.9701237745 -0.7132988754 2.3012282983
H -5.1076396108 -0.9289787046 2.1461709234
H -5.4900474282 -2.0813831448 0.8724149547
H -4.4366910079 -2.5594916176 2.1963896877
H -5.0445118105 -1.8111381253 -1.2719385212
H -1.8079803168 -0.6076269397 -1.8958390521