18

C 0.0326397254 1.5426023618 0.0358014924
C -0.0265049000 0.0109864675 -0.0064842533
C -1.4369042476 -0.5318354600 0.0174063150
C -2.6038313247 -0.2999269476 -0.9792555951
N -3.2556638306 -1.2406845240 0.0480598220
C -1.9204491353 -2.0016409890 -0.0134774998
C -2.5443319049 -0.3630276269 1.0916218662
H 1.0668530477 1.8984811461 0.0172715765
H -0.4870078123 1.9832338753 -0.8216453001
H -0.4379114811 1.9326109968 0.9445886723
H 0.4791424427 -0.3553596861 -0.9097477471
H 0.5281238122 -0.4056620051 0.8447301910
H -3.0678872937 0.6899546257 -1.0163380856
H -2.5220143568 -0.7367796315 -1.9792637268
H -1.7848097667 -2.5703468971 -0.9384989514
H -1.7330105689 -2.6253221740 0.8659416294
H -2.4059883990 -0.8597898690 2.0568361671
H -3.0037885262 0.6219310569 1.2154651475