17

C -0.3275652607 1.4796839224 0.0885388697
C 0.0260046928 0.0215788891 0.0174611130
C 1.1284926925 -0.4722528881 -0.9659795127
C 1.8358452664 -1.1299765736 0.2320925678
O 2.9749318145 -1.4368016904 0.4591233813
C 0.6917601765 -0.8500995987 1.1946300328
O 1.0061137098 -0.5018051845 2.4927293523
C -0.5804844702 -1.7036512575 1.0268774839
O -1.1125649490 -0.8617492533 -0.0140075867
H 0.5738683714 2.0968211296 0.1538370191
H -0.8829106608 1.7795402182 -0.8069256812
H -0.9517460604 1.6800487022 0.9634386966
H 0.7589177782 -1.1486043555 -1.7397222081
H 1.7448993195 0.3060408827 -1.4250984147
H 1.9681619222 -0.4341762309 2.5524405222
H -0.4562325020 -2.7467974000 0.7151376598
H -1.1927042907 -1.6607568518 1.9348419950