17

C -0.0337934821 1.5068832961 -0.0296867908
C -0.0028586412 0.0103123921 0.0073585334
C 0.4724732885 -1.0457117312 -0.9657010003
C 1.2788171212 -1.7615690398 0.1127541426
C 0.4760318980 -0.9340732797 1.1579279707
O -0.6603904629 -1.6891430853 1.5972223468
C -1.5331944700 -1.8041789348 0.5425429444
O -2.5325453155 -2.4595761881 0.5990551199
C -1.0150181800 -0.9433594161 -0.5661383098
H 0.9574762386 1.9326721747 0.1611006096
H -0.3653684426 1.8628878031 -1.0102146284
H -0.7225223616 1.9083026381 0.7219624681
H 0.7324176160 -0.9356797157 -2.0117835575
H 1.2060587745 -2.8491655572 0.2061687802
H 2.3290430600 -1.4592349416 0.0840289047
H 0.9840965773 -0.5305022523 2.0308329027
H -1.7082738782 -0.6336386524 -1.3366738762