15

O 0.0138674251 0.0035116830 -0.1004653338
C -0.0239768993 1.2013292718 0.0165153995
C -1.2698878671 2.0936904124 0.0723375969
C -0.6957302464 3.4275101797 0.5260032695
C -0.0568588377 3.3428733027 1.9376485000
C 1.2534574810 3.1091320575 1.2059283893
C 1.1465272934 2.1354912888 0.0691107520
N 0.7062677451 3.5433087089 -0.1160982306
H -1.6850180414 2.1649440407 -0.9407214646
H -2.0387551218 1.6778600313 0.7283988798
H -1.3122716707 4.2984188703 0.3130766350
H -0.0527428786 4.3121083799 2.4404993737
H -0.4233604708 2.5792798096 2.6303347945
H 2.2382608214 3.4163959561 1.5451759021
H 2.0661005178 1.8473365273 -0.4271550534