20

O -0.0496303582 1.4433304882 0.0904417224
C -0.0058679043 0.0254952954 -0.0331617017
C 0.7045282610 -0.5555688273 1.2054375388
O 0.8785734594 -1.9576342810 1.2214646999
C -0.3332222068 -2.6915455977 1.3250809418
C -0.9843888222 -2.8953927762 -0.0260942622
C -2.4549624425 -2.7350774746 -0.2124515501
N -1.5290693366 -1.7621553818 -0.7776446834
C -1.4603301253 -0.4340872134 -0.1699651361
H 0.8546245785 1.7720951025 0.1148613175
H 0.5348421910 -0.2809106835 -0.9410908768
H 1.7159827801 -0.1351128047 1.2634385865
H 0.1518738229 -0.2193234398 2.0990471467
H -0.0652152473 -3.6658380813 1.7476156371
H -1.0170765915 -2.2010001900 2.0331960478
H -0.4562976113 -3.6059592716 -0.6600768797
H -2.9935227394 -3.3543527243 -0.9248571889
H -3.0383800408 -2.4372078139 0.6587700581
H -1.9567722805 -0.3725538609 0.8124102557
H -1.9779325862 0.2679289061 -0.8312900134