22

C -0.7985730696 1.3613455786 0.1102243819
C -0.0453824623 0.0442127472 -0.0174469218
C 1.2026034545 -0.0024714210 -0.9464478901
C 2.0213765537 -0.7074682927 0.1748185909
C 3.2214997678 0.0689606022 0.7309286558
C 2.5887145129 1.2046349668 1.5594353889
C 1.3503518248 0.5479342065 2.2045914373
C 0.8311229008 -0.4743298303 1.1733280053
H -0.1310628314 2.1878719730 0.3768420121
H -1.2812877202 1.6242668718 -0.8380019720
H -1.5812563700 1.3059229212 0.8755231793
H -0.7551320885 -0.7390985705 -0.3045954392
H 1.0842125425 -0.5632208209 -1.8773117803
H 1.5894474977 0.9902640644 -1.2013974304
H 2.2570298619 -1.7497984151 -0.0499743752
H 3.8127630854 -0.5821981605 1.3869748038
H 3.8925790283 0.4342893020 -0.0540607461
H 3.2765300322 1.6280210355 2.2973093374
H 2.2853175076 2.0269711937 0.9006115378
H 1.6545231755 0.0115445064 3.1113112063
H 0.5926241602 1.2761904610 2.5096380124
H 0.4178231862 -1.3574339094 1.6664398459