19

C -0.1641765669 1.5271672664 0.1090378443
C 0.1165196867 0.0626773623 0.0455410449
O -0.7587197751 -0.8389403167 0.7300575651
C 0.6511007137 -0.9146204304 1.0059024010
C 1.2761143317 -1.7757086100 -0.0911188331
C 0.7083539274 -0.7494851179 -1.1633941124
C -0.3272911629 -1.3002114803 -2.1488055361
C 1.7728604633 -0.0255302035 -1.8392168293
C 2.6466491020 0.5856467456 -2.3968142520
H 0.6970878245 2.0969024607 -0.2497587931
H -1.0259894431 1.7835088590 -0.5175201688
H -0.3900815423 1.8258940225 1.1360349335
H 0.9561197072 -0.7950735493 2.0394648747
H 2.3667065228 -1.7908139794 -0.0743073806
H 0.8863672680 -2.7941372184 -0.1624940318
H -1.1359164412 -1.7832008911 -1.5957795920
H -0.7467337880 -0.4982272727 -2.7638246383
H 0.1316405860 -2.0326564144 -2.8193779265
H 3.4191675562 1.1184163575 -2.8939064293