19

C -0.3826825043 1.4009997426 0.1836038894
C 0.0767508481 -0.0316287443 -0.0344034653
C 0.9726412754 -0.3387473940 -1.2740454713
C 2.0384547188 -0.9156137552 -0.3007738373
N 1.1934155860 -0.4783357791 0.8147125584
C 1.1545626375 -0.8018405686 2.1359883569
C 2.4022521453 -1.4880449890 2.6700736363
O 0.1829944378 -0.5445966709 2.8286538386
H 0.4576546609 2.0977138386 0.0968672014
H -1.1378185329 1.6741476728 -0.5615184376
H -0.8194433345 1.5042579036 1.1795717522
H -0.7805392775 -0.7110845706 0.0543434992
H 0.5609410799 -1.0483304900 -1.9919612408
H 1.3007090305 0.5576766324 -1.8034261396
H 2.1679020100 -2.0034124681 -0.3600790751
H 3.0275618459 -0.4455080345 -0.3348660784
H 3.3122399303 -0.9530212997 2.3809772584
H 2.3337776546 -1.5374826237 3.7564987780
H 2.4798426182 -2.5068226422 2.2734534166