14

N 0.0022506717 1.3567013317 -0.0082638807
C 0.0303473169 0.0163548312 -0.0281110793
N 1.1116274969 -0.7075358437 0.0310480220
H 2.0291501337 -0.2802447668 0.0982574731
C 1.1437124485 -2.1159462166 0.0101047004
N 2.3171603171 -2.7693537437 0.0764467844
C 1.8296324390 -4.0247940497 0.0242303378
O 2.6205407811 -5.1193789905 0.0584928124
N 0.4992714014 -4.1334629293 -0.0648477842
N 0.0437310368 -2.8416072713 -0.0741341108
H 0.8363265126 1.9165372575 0.0562186858
H -0.8784109843 1.8366996977 -0.0575138155
H -0.9029549225 -0.5326917836 -0.0983692704
H 3.5253387211 -4.7948234430 0.1230780350