18

C -0.3079764059 1.3798368167 -0.1356831986
C -0.0569975476 -0.0956139168 0.0879012134
C 1.2377302631 -0.8042177846 -0.2358078540
N 2.3762562802 0.1135149244 0.0395826962
C 2.0321908295 0.0704894706 1.4996668242
C 1.9058434801 1.4024314381 2.2041398325
O 1.1715298314 1.5795274393 3.1441738648
C 0.7538807765 -0.7299958986 1.1988494431
O 0.2758603727 -1.7227955091 2.0263749471
H 0.6293026911 1.9418347820 -0.1239757731
H -0.7701945353 1.5427938367 -1.1150625556
H -0.9745712858 1.7960593419 0.6261927973
H -0.9048156364 -0.7436027612 -0.1299627152
H 1.3269102177 -1.6302651946 -0.9303003787
H 3.2596532780 -0.3557351049 -0.1308550296
H 2.7257834294 -0.5568065646 2.0753373051
H 2.5471376915 2.2167089277 1.7968028919
H -0.3509327700 -1.3213971729 2.6401960692