21

C -0.6273566056 0.9812723051 -0.0681091903
C -0.0360062484 -0.3982382047 0.1651711461
C 1.2552523506 -0.7949524109 -0.6379155272
C 1.8055666351 -1.4792938994 0.6589400925
C 0.7495788987 -0.7051737789 1.4535441202
C 1.0449283873 0.2703645028 2.5578761900
C 0.2309267142 -0.9767196768 2.8296360109
C 1.1074622375 -1.5863795640 -1.8403238464
C 0.9639439354 -2.2581712446 -2.8282600236
H 0.1271581622 1.7644059138 0.0621252027
H -1.0291402357 1.0638950496 -1.0835749657
H -1.4478330341 1.1866370589 0.6290482040
H -0.8000036616 -1.1676764703 0.0056212044
H 1.8365708936 0.1089251840 -0.8519010252
H 1.6226041013 -2.5574983346 0.6489933831
H 2.8568994210 -1.2970284710 0.8948636731
H 2.0591066808 0.3142305238 2.9427910447
H 0.5276491873 1.2244744405 2.5606849871
H -0.8336250055 -0.8581147292 3.0086091900
H 0.6906228698 -1.7758996615 3.4028941214
H 0.8440809660 -2.8479622627 -3.7027686219