20

O -0.0177347913 1.0820205045 0.3409904097
C -0.0466222140 -0.3039957148 0.0768846841
C -1.4679581331 -0.7648391326 -0.2559120615
N -2.0134638783 0.0584288684 -1.3447831482
C -1.5943469004 -0.3755361641 -2.6929579221
C -2.8114614154 -1.0446637622 -3.3051025965
O -3.4139917158 -2.0109546287 -2.4341823988
C -3.9720414520 -0.6914842347 -2.4854691152
C -3.4813745926 0.2010897268 -1.3608790816
H -0.6323318877 1.4581790831 -0.3062153458
H 0.6400768785 -0.5689123279 -0.7461369062
H 0.3101291736 -0.8265840016 0.9716558119
H -1.4896967319 -1.8410740062 -0.4846587418
H -2.0914255828 -0.5980020723 0.6277025012
H -1.3024493880 0.4805414818 -3.3174569567
H -0.7309798272 -1.0439689185 -2.6266383742
H -2.8657170397 -1.2561601650 -4.3697552599
H -4.9830102225 -0.6095404981 -2.8757846284
H -3.9017600310 -0.0656591267 -0.3877830319
H -3.7752146185 1.2385706188 -1.5787971579