20

C -0.0552981553 1.4936352755 0.2109253227
C 1.4832367098 1.4484926203 -0.0291404256
C 2.2006422810 1.1900977667 1.3022101240
C 1.4623746072 0.0470897854 2.0450404103
C 0.8078634416 -0.8682199635 1.0020864253
C 1.8249342151 -1.1630561828 -0.1404536805
C 1.2806176185 0.0980836047 -0.8324911331
C -0.0498064922 -0.0255125366 -0.0295528363
H -0.4133435885 1.8936133551 1.1658877866
H -0.5811288103 2.0053111416 -0.6012161267
H 1.9310740077 2.2783673716 -0.5807382831
H 3.2451263600 0.9168719575 1.1151535408
H 2.2203293684 2.1022812321 1.9092039179
H 2.1561407033 -0.5234712459 2.6727800123
H 0.6971845348 0.4540489563 2.7154564713
H 0.3082260463 -1.7228992161 1.4640346569
H 2.8865930721 -1.2261185015 0.1222942782
H 1.5523853216 -2.0570255147 -0.7100319927
H 1.3173819006 0.1992248275 -1.9188728489
H -0.9363667119 -0.5335640533 -0.4138716393