19

C -0.0161925198 1.6347860325 -0.1434907889
C 0.0099748324 0.1322591852 -0.0607586589
C 0.6311833315 -0.8503449065 -0.9850429708
C 1.7187243622 -1.6122711349 -0.2198839638
C 1.2519115577 -1.4357415197 1.2214231026
C 0.1853879480 -0.6176842400 1.2675042501
C -1.1642971910 -1.1479995651 1.6540194284
C -1.7348231814 -1.4246199953 0.4673094007
C -0.9523463243 -0.8258318485 -0.6835795679
H 0.9232016362 2.0708019488 0.2151632549
H -0.1667255399 1.9616408404 -1.1777104887
H -0.8296713568 2.0503103831 0.4621140070
H 0.8335962045 -0.5738833097 -2.0176885374
H 1.7436246893 -2.6889218182 -0.4374473759
H 2.7191278093 -1.2269174501 -0.4735812420
H 1.4534975449 -2.1992465244 1.9668214902
H -1.4869853033 -1.4790562764 2.6316222404
H -2.6643549333 -1.9641094929 0.3249606898
H -1.5092817363 -0.5384250884 -1.5718966997