21

C -0.0084645427 1.3954279910 -0.3169218060
C 0.3238914842 -0.0897587500 -0.1578574685
C 0.8133403027 -0.5081477096 1.2220872828
C 1.1049512060 -1.9920959404 1.3953931906
C -0.1390809698 -2.8485673621 1.2982081078
C -0.4903607107 -3.6146759926 0.0946871334
O 0.0724990018 -4.2602149463 1.2367054644
C 1.4710574637 0.4428638971 2.1318495444
O 0.1049562588 0.0676591539 2.3349776857
H 0.8901108667 2.0196199745 -0.2959587052
H -0.5075673032 1.5741214176 -1.2733660287
H -0.6741475913 1.7259941339 0.4847187742
H -0.5684521017 -0.6855673291 -0.3864231893
H 1.0817622938 -0.3909346046 -0.8927094510
H 1.8354826885 -2.3248827979 0.6487908116
H 1.5531303524 -2.1517533786 2.3822826871
H -0.9490677609 -2.5485690361 1.9640704235
H -1.5321127429 -3.8548788822 -0.1141481637
H 0.1570984470 -3.5663144458 -0.7806539515
H 2.1733791270 0.0703876039 2.8769202013
H 1.6268471405 1.4767295635 1.8325462670