22

C 0.0430302724 1.3486206794 -0.6803262188
C -0.1054957508 -0.0652043804 -0.1127404931
C -1.5488454810 -0.4618210548 0.2435784910
C -2.4621303491 -0.6986209975 -0.9953832219
C -2.1983861541 -2.2236737029 -0.8670910541
C -1.6759948525 -1.9809587182 0.5738321573
N -2.1257083390 0.4496734851 1.2294245786
C -1.7327539350 0.5042098127 2.5265994310
O -0.8729800460 -0.1935427222 3.0264515348
H 1.0902875347 1.5640969826 -0.9117856623
H -0.5312600890 1.4811299449 -1.6041301179
H -0.2989471844 2.1011154556 0.0368243083
H 0.2804100284 -0.7958663575 -0.8342813584
H 0.4959612494 -0.1709194599 0.7956572988
H -3.5054469546 -0.4497792885 -0.7773690408
H -2.1727897603 -0.2058393964 -1.9267820768
H -3.0621278208 -2.8816474600 -0.9789313785
H -1.4159104212 -2.5680871620 -1.5476282101
H -0.7591531812 -2.4861981460 0.8815952795
H -2.4443205536 -2.1590812469 1.3286846569
H -2.8361724178 1.0960381466 0.9237132781
H -2.3011314544 1.2654880465 3.1000051584