22

C -0.0079131822 1.6793755969 -0.0736536313
C -0.1497271708 0.1531474605 -0.0318204949
C 0.6482279361 -0.5270579984 -1.1344756693
N 2.1538871841 -0.3467248014 -1.1090262794
C 2.6637947268 -1.1045190659 0.0496053435
C 2.2911534820 -1.8567316226 -1.1605428736
C 0.7841894640 -2.0888278589 -1.2535596053
C 0.1145054702 -2.9990881958 -0.2317079920
O 0.5083720994 -2.5439656997 -2.5716556412
H 1.0409202698 1.9740128117 0.0240383509
H -0.3763657974 2.0829528739 -1.0229637165
H -0.5735042273 2.1520670275 0.7349393928
H 0.1527344359 -0.2161462016 0.9549714699
H -1.2052826648 -0.1276899410 -0.1461365450
H 0.3146296408 -0.1542818169 -2.1081981098
H 3.7214048553 -0.9306697012 0.2236978481
H 2.0742160050 -1.1857762911 0.9583609300
H 3.0071244825 -2.3452844198 -1.8130610281
H 0.3487160101 -2.7171068291 0.7977283130
H -0.9769363400 -2.9627082597 -0.3401818723
H 0.4360342157 -4.0329683427 -0.3901887501
H -0.4481980651 -2.5970676048 -2.6731416094