19

C 0.1720966988 1.4616891016 -0.0989608548
C -0.0806741538 -0.0335534650 0.0555607506
C -1.5692358046 -0.3745111301 0.1264149909
O 0.4741206014 -0.6949023223 -1.1251698535
C 1.2113517476 -1.7979868908 -0.8023977136
N 1.5960977989 -2.6879425074 -1.6121315721
C 1.4691048035 -1.7897893315 0.6635117657
N 2.1311879940 -0.5233661710 1.0872440649
C 0.6771285332 -0.6695655542 1.2192456738
H 1.2457007975 1.6551118161 -0.1278223190
H -0.2832356429 1.8299359154 -1.0223716338
H -0.2648662042 2.0098135522 0.7419344825
H -2.0732244387 -0.0500442252 -0.7876465358
H -1.7175053434 -1.4530547347 0.2366836411
H -2.0403608164 0.1283400305 0.9773248111
H 1.2563332758 -2.4833959290 -2.5538062129
H 1.6825706316 -2.7174147841 1.1770406663
H 2.5688609490 -0.6834204536 1.9921625879
H 0.2120226128 -0.7071884171 2.1983339205