23

C -0.1366475577 1.5892152797 -0.0921271610
C -0.0621946499 0.0632037560 0.0245935993
C 0.7629543420 -0.4479588086 1.2214342050
C 0.1543314590 -0.0519689773 2.5754133344
C 0.9354332649 -1.9695623234 1.1428754988
C 1.7165755688 -2.6204303906 -0.0463652942
C 2.5109583073 -3.5204010689 0.9465638371
C 1.9521266690 -2.6504642215 2.0826802961
O 2.2664820021 -2.4825757601 3.2270408203
H 0.8647925519 2.0300695286 -0.1545759315
H -0.6849797840 1.8844179330 -0.9921694118
H -0.6451138457 2.0409919857 0.7645460963
H -1.0781758406 -0.3504021791 0.0942727584
H 0.3663763500 -0.3407645008 -0.9011368529
H 1.7661785007 0.0002147442 1.1536548577
H 0.7404517277 -0.4684772520 3.3977400862
H 0.1182730331 1.0342127257 2.6966158543
H -0.8711333365 -0.4319445440 2.6638595184
H -0.0420619210 -2.4569600297 1.2699917344
H 1.1162604947 -3.1393535476 -0.7942937219
H 2.3627892650 -1.8983214706 -0.5523457142
H 2.1329901523 -4.5465071765 1.0045012765
H 3.5996199470 -3.5576800220 0.8596489240