17

N 0.0209437990 1.3565399943 0.4907873615
C 0.0545610142 0.2061006623 -0.2419626589
O 1.0527236626 -0.1528344396 -0.8409738926
C -1.2420796764 -0.5782697938 -0.2465842389
C -1.7274538681 -1.1816391279 -1.5767532172
C -0.7260514833 -2.3754840562 -1.5633047845
C -1.9012016732 -3.3329029511 -1.7216510192
N -2.5344533987 -2.2727332694 -0.8218104648
C -1.1722514783 -2.1082937346 -0.0943804818
H 0.8537313912 1.9211484549 0.5323373257
H -0.7977898691 1.6586424402 0.9874746836
H -2.0393833544 -0.1133373509 0.3426892516
H -2.1565693265 -0.6720299063 -2.4412092707
H 0.2879797191 -2.4015761091 -1.9594006268
H -2.3802005375 -3.4103986236 -2.7035953409
H -1.8357422960 -4.3191781465 -1.2498101253
H -0.9440168743 -2.6959090128 0.7965452293