23

C -0.0409839424 1.5531187735 0.0817241964
C -0.1018925898 0.0316719848 -0.0980053407
C 0.7132567607 -0.4982598146 -1.2849385910
O 0.2642661405 0.0486701193 -2.5111156401
C 2.2607298571 -0.4940154138 -1.0441856785
C 2.1971569625 -2.0173858945 -0.7313610014
C 0.7886181181 -2.0340949371 -1.3346597757
C -0.3168900245 -3.0336549423 -1.1673311533
C 0.3559024837 -2.8578278339 -2.5094786782
H 0.9890736249 1.9084329044 0.1945909631
H -0.4898291930 2.0824026123 -0.7672639686
H -0.5961699360 1.8624869113 0.9720760247
H 0.2551934588 -0.4590486805 0.8152686584
H -1.1447586444 -0.2794495264 -0.2316388172
H 0.2649954580 1.0082511272 -2.4341521881
H 2.7849886860 -0.2886453183 -1.9799269003
H 2.6482308778 0.1617813186 -0.2601443806
H 2.9458161744 -2.6474806115 -1.2180548552
H 2.2101348701 -2.2302066668 0.3424097534
H -0.1064366649 -3.9332945352 -0.5970288187
H -1.3326148595 -2.6662670698 -1.0580719815
H -0.1963941764 -2.3522720396 -3.2933276930
H 1.0259715681 -3.6393830068 -2.8544939839