22

C 0.2258913573 1.3154940959 -0.7432404620
C 0.1669974049 -0.2075393129 -0.5715189351
C 0.7858108013 -0.6956668722 0.7388835163
O 2.1787647294 -0.3923808579 0.7690827602
C 0.1215178323 -0.3901671353 2.1149804676
N 0.2060799796 -1.8337772670 2.5461459914
C -0.6370571367 -2.6244249564 1.6250150676
C -2.0273271727 -2.2478471610 1.1629344295
C 0.6811962350 -2.1696689751 1.1298272672
H 1.2588883699 1.6779568629 -0.7789442040
H -0.2524351090 1.6222346898 -1.6776702334
H -0.2871977261 1.8328997067 0.0755792139
H -0.8723353532 -0.5404429540 -0.6403038668
H 0.7075716554 -0.6930224967 -1.3929302114
H 2.2746942157 0.5634314402 0.8330181007
H 0.7645974658 0.2162490422 2.7557998899
H -0.8893607602 0.0293045782 2.1198983063
H -0.5978444232 -3.6668096092 1.9425093710
H -2.1423096187 -1.1949273742 0.9053044776
H -2.3026870519 -2.8384159459 0.2825912984
H -2.7504537761 -2.4750086813 1.9538514799
H 1.5045912614 -2.8572029365 0.9592127151