19

C -0.0155552219 1.5865840884 0.0317948952
C 0.0284777277 0.0739410953 -0.0431847908
C 0.6987337896 -0.6706026162 -1.2522957210
C -0.3392036684 -1.8130077473 -1.0390525601
O 0.0215726323 -2.6972705145 0.0199981902
C 0.8518040805 -2.0914686386 1.0116619765
C 0.5117091902 -0.6093894224 1.2676973087
C -1.2419775396 -0.6981457922 -0.4555075718
O -2.4118580567 -0.4486525442 -0.4499131279
H 0.9813126068 2.0041722532 0.2105436779
H -0.4054074051 2.0151452707 -0.8965458631
H -0.6690677940 1.9133904689 0.8474180995
H 0.5177105495 -0.1526513190 -2.1978658060
H 1.7561212767 -0.9281251535 -1.1736305751
H -0.6790159403 -2.4207780681 -1.8783308225
H 0.7257201997 -2.6909144928 1.9171711554
H 1.9041750458 -2.1799161491 0.7085788250
H 1.4035037995 -0.0951175659 1.6470045965
H -0.2673372024 -0.5072412327 2.0311686234