18

C -0.0361430741 1.5225299648 0.0285272966
C 1.3831964971 2.1172513293 0.0627783824
N 2.2192312942 1.5767612930 1.1340522256
C 1.9314808750 0.2980389913 1.5772367666
N 2.5768483849 -0.2992156383 2.5748933555
N 1.9755291256 -1.5177829881 2.6505380577
C 0.9952069712 -1.6901560263 1.7329334354
C 0.9231788489 -0.5216099190 1.0046112163
C 0.0103560410 -0.0161639445 -0.0712534112
H -0.5716552421 1.8102958963 0.9411344243
H -0.5808090102 1.9471910524 -0.8212009217
H 1.8650710065 1.9267432833 -0.9084642070
H 1.3345726022 3.2038796999 0.1781723771
H 2.5228527730 2.2207169195 1.8461884816
H 2.3053679670 -2.1762504063 3.3327618328
H 0.4262806979 -2.6056798924 1.6766720848
H -0.9973394363 -0.4348321727 0.0253491572
H 0.3686646184 -0.3022147022 -1.0703543440