21

C -0.2616809391 1.3372698171 0.0171130968
O 0.0295469188 -0.0410521194 -0.0299516606
C 0.6938537270 -0.5731625468 1.1157725605
C -0.2407847232 -0.7071165997 2.3176435985
C 1.2291719605 -1.9414089605 0.6540885544
O 0.1688970021 -2.7463883377 0.1778008934
C 2.3435865579 -1.7751540595 -0.4061260044
C 2.9291481019 -3.0407614845 -0.8243633715
C 3.4217465006 -4.0864349873 -1.1529752472
H 0.6439532206 1.9337499909 0.2053346216
H -0.6677677068 1.6128753312 -0.9593456552
H -1.0059364204 1.5852281289 0.7862300603
H 1.5442190805 0.0791595744 1.3753312689
H 0.3124903949 -1.0847385538 3.1834035985
H -0.6782876459 0.2543937785 2.5991292432
H -1.0434119161 -1.4112727216 2.0860995964
H 1.6447474873 -2.4682417894 1.5197783035
H -0.3197811077 -2.1980232741 -0.4493135100
H 1.9205374430 -1.2453515420 -1.2676519544
H 3.1289156082 -1.1252665684 0.0029515826
H 3.8491442959 -5.0116809261 -1.4495599651