18

C 1.1755669025 0.1568134494 0.2742589268
C -0.1013020569 -0.4249628596 0.8559729711
O -0.2055006055 -0.6319344962 2.0458907119
C -1.2591863981 -0.7241367380 -0.0590692400
C -2.5557256781 -1.0316085374 0.6850575858
C -3.1847662310 0.1721417692 1.2328331635
N -3.6870888402 1.1306527462 1.6373451004
C -1.3541844671 -0.0756864575 -1.4278671593
C -0.9811645715 -1.5194103133 -1.3333739462
H 1.9780540474 0.0337252972 1.0019448272
H 1.4649400004 -0.2938924637 -0.6785676495
H 1.0295634353 1.2288273623 0.0972759761
H -3.2725151913 -1.5147263277 0.0132625043
H -2.3461034393 -1.7193303322 1.5090351426
H -2.3506525982 0.1809095070 -1.7703043319
H -0.5923168785 0.6407077759 -1.7098507293
H 0.0422875073 -1.8103521216 -1.5383396106
H -1.7162664272 -2.2685914902 -1.6061147927