21

C 0.5598916327 1.4259048783 0.1465035745
C -0.2585046597 0.1602224313 -0.1206151912
C 0.2471518794 -0.5512098628 -1.3873508943
O -0.3326560307 -1.8215399811 -1.6035489438
C 0.3855135591 -2.8865666041 -1.0145008110
C 0.2723847603 -2.9615079575 0.5147535365
O 1.1458921325 -3.9690860174 1.0112210146
C 0.6734400699 -1.6564216291 1.2114134820
O -0.3165118674 -0.6633884417 1.0410021707
H 1.6084824806 1.1813156264 0.3490451526
H 0.5315013583 2.1033580675 -0.7140281536
H 0.1593345662 1.9545834305 1.0147594932
H -1.3051011038 0.4393779359 -0.2926332946
H -0.0173036992 0.0740545138 -2.2479436645
H 1.3453554002 -0.6325553757 -1.3721794478
H -0.0158193327 -3.8046554074 -1.4604134940
H 1.4559146752 -2.8280637172 -1.2736822565
H -0.7731384195 -3.1607730062 0.7929434912
H 0.8464074966 -4.8208771525 0.6787827253
H 0.7410637185 -1.8540520774 2.2855737424
H 1.6693864835 -1.3299242437 0.8785779582