20

C 0.0219010877 1.4916023872 -0.0137991996
C 1.4504294045 2.0886141909 -0.0562662913
C 1.9033073347 2.7181719013 -1.3958110147
N 2.5337731320 1.7806252982 -2.3286379672
C 1.8216149836 0.9395769219 -2.9272861517
O 0.4512548131 0.8670957455 -2.8479065994
C -0.0023600962 -0.4068769828 -2.4065478232
O 0.4972065735 -0.7188070450 -1.1517327361
C -0.1046895853 -0.0372479524 -0.0510653385
H -0.4542079815 1.7823168909 0.9320419622
H -0.5889569242 1.9367353353 -0.8047008658
H 1.5022909983 2.8871926277 0.6918448030
H 2.1914140930 1.3399381613 0.2472907401
H 1.0510059359 3.2295916799 -1.8620879430
H 2.6547595441 3.4820549067 -1.1750242034
H 2.2701182253 0.1929320573 -3.5882425197
H -1.0980820910 -0.3465134165 -2.4279328280
H 0.3525573951 -1.1943240615 -3.0841514268
H 0.3839579353 -0.4696810382 0.8277655588
H -1.1721081980 -0.3059475275 -0.0034690157