16

C 0.2205959375 1.5764707826 -0.0466755515
C 0.0664445449 0.0649888428 0.0099657078
O 0.7578840348 -0.5057841870 -1.1054469309
C 1.2431653870 -1.7953888484 -0.7815910807
C 1.4273765171 -1.7762493337 0.7299916322
O 2.1158775973 -0.6094429609 1.1956604030
C 0.6874855896 -0.6039119978 1.2243456352
C 1.6118494945 -2.9990972766 1.4674087744
N 1.7570910517 -4.0023201568 2.0225231066
H 1.2741084727 1.8476299380 0.0550508047
H -0.1485259944 1.9529842901 -1.0037221364
H -0.3517965267 2.0514654316 0.7557658619
H -1.0005995477 -0.2143779856 -0.0158465148
H 0.5312331933 -2.5924107178 -1.0469035131
H 2.1778635323 -1.9575917335 -1.3259249654
H 0.2208439862 -0.5636640670 2.2042242469