18

C 0.0016733633 1.4849149730 -0.0805668138
C -0.0080777801 -0.0117953696 -0.0078595555
N 0.5930883779 -0.8975934256 -1.0795158527
C 0.0393669983 -1.8523576433 -0.0542709645
C 0.6056630847 -0.9599439536 1.0922792572
C -0.3768203474 -1.0118613777 2.2470888305
C -1.5786076615 -1.0171166695 1.6639233347
C -1.2493135806 -0.9687941340 0.1792653105
O -2.2475598068 -0.8798815960 -0.7867006317
H 1.0224118201 1.8569790299 -0.2105522869
H -0.6022493236 1.8343039120 -0.9247074269
H -0.4152397801 1.9113137156 0.8376837292
H -0.0381259262 -0.8912866693 -1.8870736086
H 0.1152401698 -2.9390719846 -0.1580370193
H 1.6808850105 -0.9395345868 1.2550242854
H -0.1247166682 -1.0274852583 3.2981253441
H -2.5675251882 -1.0290704305 2.1017992535
H -2.7909811518 -1.6738432918 -0.7448153450