20

C -0.0912534350 1.5845780158 -0.0539058071
C -0.0522146757 0.0532080481 -0.0335482261
C 0.7704093480 -0.5577631369 -1.1807728519
C 2.2669637190 -0.1940985107 -1.1044994316
C 0.6177834196 -2.0700222333 -1.2694954610
N 0.0682628553 -2.6925774156 -0.2885596839
O 0.0070993636 -4.0661008491 -0.4893243487
C 1.1064862241 -2.7178068278 -2.4438640637
C 1.5259216313 -3.2065231241 -3.4612884569
H 0.8974112925 2.0265776494 0.1029014183
H -0.4766388541 1.9615088009 -1.0083672735
H -0.7458666563 1.9618056144 0.7378107988
H 0.3471880710 -0.2989759651 0.9240564876
H -1.0733850815 -0.3373993562 -0.0900465144
H 0.3838724545 -0.1590890398 -2.1300070393
H 2.8270985508 -0.6676618492 -1.9151027151
H 2.4115140882 0.8863170540 -1.1835339515
H 2.6951235786 -0.5293320728 -0.1536070296
H -0.4283566630 -4.3715885297 0.3143263245
H 1.8915738891 -3.6579903324 -4.3505752350