12

O -0.0110148815 0.0079375418 -0.1809592762
C -0.0577615244 1.1948520235 -0.0477120169
C -1.2756651094 2.0842628542 0.1198344680
C -0.6901404604 3.5148738758 0.0461318735
O 0.7485811808 3.4030596897 0.1163840247
C 1.1813326846 2.1140652362 0.0083802652
O 2.3289401558 1.8029671483 -0.0085448788
C -1.0587987177 4.2147196423 -1.1913542049
N -1.3793494752 4.7569636739 -2.1590073401
H -2.0257248800 1.8830385423 -0.6459658519
H -1.7293294912 1.8953928591 1.0971560400
H -0.9983313215 4.1307997330 0.8944326275