17

O 0.3822205631 -0.0661174184 -0.9707669903
C -0.4578743732 -0.4212299949 0.1073730887
C -1.7389222337 0.4014107534 0.1258470808
O -2.4154205498 0.2192162691 -1.1389616208
C -3.4041856407 -0.6926778587 -1.1896276298
O -3.8416069540 -1.3020604730 -0.2471989367
C -3.9213444177 -0.8631748091 -2.5890566427
C -4.0091467782 0.2754097962 -3.5235128711
O -2.9876247550 -0.7017217898 -3.6562424554
H -0.1408930282 -0.1608496609 -1.7754468791
H -0.7174663828 -1.4913213898 0.0896890984
H 0.1033725845 -0.2313344656 1.0285805270
H -2.4012429082 0.1069833416 0.9423822554
H -1.5126289291 1.4686397397 0.1778196336
H -4.6139886496 -1.6953538038 -2.6845628100
H -4.7816244783 0.2596376207 -4.2903924813
H -3.6771561691 1.2563505134 -3.1925975867