20

C -0.0210811539 1.5459477310 -0.0511641787
C 0.0393747837 0.0224021411 -0.0131963277
N 0.6977767012 -0.4971785262 -1.2044915924
C 0.6859042141 -1.9558476607 -1.2712424680
C 1.4391434490 -2.5061675188 -0.0563893977
N 0.9178304927 -1.9968673842 1.2188346133
C 0.7947071237 -0.5338395404 1.2255215591
C 2.1348919851 0.0699620467 1.3499845498
N 3.1705290938 0.5689934791 1.4639267952
H 0.9823464490 1.9714002232 -0.1340995522
H -0.6101428634 1.8827499169 -0.9110395405
H -0.4970569817 1.9415263414 0.8514758299
H -0.9926536508 -0.3727018325 0.0922270718
H 0.2864179941 -0.0906793022 -2.0367913450
H -0.3409763133 -2.3732959341 -1.2776499230
H 1.1768729458 -2.2735859450 -2.1972478008
H 1.3926491494 -3.5987453311 -0.0317108699
H 2.4936095171 -2.2172234022 -0.1274901786
H -0.0043619926 -2.3871215149 1.3906185855
H 0.2358687171 -0.2525201270 2.1259758498