13

O 0.0359056907 1.3550159643 0.0072918578
C -0.0405065272 0.0117466801 0.0009367585
C -1.1994612752 -0.6863603295 0.0045102993
C -1.1630495739 -2.1256030396 -0.0030246365
C 0.0360198632 -2.7199572321 -0.0134125666
F 0.2472254372 -4.0174770804 -0.0213047370
O 1.2082715321 -2.0615181878 -0.0172691554
C 1.2416750188 -0.6815995105 -0.0104568075
N 2.3280361166 -0.0194430549 -0.0137878749
H 0.9892585473 1.5587821032 0.0024801136
H -2.1480229565 -0.1643427886 0.0129906513
H -2.0610181181 -2.7256961125 -0.0005561688
H 3.1580346449 -0.6070915417 -0.0218813538