18

C -0.3111762526 1.5278609092 0.1226722382
C 0.0159937244 0.0468552762 -0.0191800988
C 1.2298954915 -0.3450234651 -0.9550757068
N 1.8165266153 -1.0213605456 0.2155531085
C 0.8212606673 -0.6078930504 1.1022741701
C 1.1076430863 -0.8795936262 2.3769847715
C 2.4713974971 -1.5560398489 2.3503287470
C 2.9302649222 -1.5245949818 0.8574541939
O 3.9885468083 -1.8633640948 0.3857588531
H 0.5831559354 2.1065330316 0.3732709615
H -0.7277383858 1.9247843362 -0.8087108530
H -1.0480636668 1.6878488342 0.9157304688
H -0.8837162053 -0.5219407444 -0.2725342288
H 1.0050089382 -1.0116190247 -1.7908989046
H 1.8202642344 0.5059604933 -1.3089394444
H 0.5322920891 -0.6622165370 3.2629693314
H 3.2238948194 -1.0485696622 2.9642610228
H 2.4489060017 -2.6008422394 2.6836112697