14

C -0.0340087451 1.5391660116 0.0516811784
C 0.0174299682 0.0470468197 -0.0345157417
C 0.2212392256 -0.6690029423 -1.1771826867
F 0.3941164033 -0.0323172075 -2.3390823729
N 0.2634171030 -2.0094935901 -1.2290524767
C 0.1021816815 -2.6898824998 -0.1319806329
C -0.1268202969 -2.0911849126 1.1837799257
O -0.2833153114 -2.6814546778 2.2376052263
N -0.1497814398 -0.6916247721 1.1083105535
H 0.1158860153 1.9742944217 -0.9359185941
H -1.0022351461 1.8776501812 0.4382637902
H 0.7440361439 1.9214062312 0.7225260192
H 0.1366943906 -3.7746149051 -0.1763179109
H -0.3050999821 -0.2198042381 1.9900703025