18

C 0.0269769468 1.5693526128 0.1004402235
C -0.0172615989 0.0672205080 0.0677210953
C -1.1349518341 -0.6263830186 -0.2347707277
N -1.2944925877 -2.0020094668 -0.0782148705
C -0.9690580428 -2.9116545972 -1.1859826756
C -0.0949447173 -2.8282380909 0.0270251429
C 1.2703229834 -2.1564094559 0.0147109006
C 1.2373993000 -0.6547032793 0.3359030829
O 2.2485805097 -0.0885585898 0.7065721475
H 0.8080550609 1.9561898077 -0.5618263390
H -0.9336843916 1.9996567924 -0.1957478411
H 0.2709942586 1.9290448544 1.1057714517
H -2.0413301819 -0.1165719263 -0.5578368335
H -1.6430903913 -3.7526502917 -1.3191027649
H -0.5955231809 -2.4604046864 -2.1022030348
H -0.2114469035 -3.6261653543 0.7565968018
H 1.9374566409 -2.6295006561 0.7388439664
H 1.7624127098 -2.2540881520 -0.9605845255