21

C -0.1265371401 1.2123561640 -0.1405434492
C 0.9166353132 2.3256005709 0.1839346912
C 1.8932631125 1.8893940737 1.2418174449
C 1.7038190805 1.8794215841 2.5623695031
C 2.4844029365 0.9400517292 3.4340034525
C 1.8007399014 -0.4934768111 3.4832904174
C 1.3055942298 -0.8605041568 2.1612907620
C 0.9153349925 -0.7157875461 1.0279901417
C 0.4170414065 -0.2407102132 -0.2621147649
H -0.8850381632 1.2097952924 0.6492211282
H -0.6385135335 1.4710113659 -1.0751102521
H 1.4539086435 2.5946263790 -0.7331850300
H 0.3611741556 3.2171313487 0.4978859982
H 2.7709468076 1.3663124938 0.8637559837
H 0.8245449105 2.3576873456 2.9942377127
H 3.4918105745 0.8096709026 3.0257913540
H 2.5874167836 1.2945861896 4.4647228985
H 2.5238975823 -1.2126263174 3.8841231846
H 0.9654617267 -0.4680527701 4.1939990418
H -0.3932824756 -0.8814778853 -0.6314811994
H 1.2088932450 -0.2885171295 -1.0216664391