19

C -0.0914735289 -1.2182983606 0.0493994116
C -0.0373956859 -0.0172024822 0.0309235580
C 0.0162080368 1.4499474164 0.0048431930
O -0.6104633133 2.0112477028 1.1578790180
C 0.4070932209 2.1965574721 2.1376015204
C 1.6059843835 2.7359861936 1.3497424511
C 1.4608788306 2.0172477732 0.0061227995
C 2.5995067051 1.2777752349 -0.6399541566
C 2.0802704849 2.5535868726 -1.2562295967
H -0.1479410312 -2.2787312370 0.0681054025
H -0.5515038503 1.8089598650 -0.8609811380
H 0.0173688381 2.8858606424 2.8899462448
H 0.6516683355 1.2412762272 2.6262220122
H 1.5132550124 3.8196457328 1.2219706848
H 2.5613431914 2.5302226652 1.8400255300
H 3.5646099967 1.3016675594 -0.1441452754
H 2.3752971007 0.3393824034 -1.1355646056
H 1.5112603716 2.4792222345 -2.1780363774
H 2.6880601115 3.4500132045 -1.1808375764