18

C -0.0721093711 1.5432042912 0.0385602262
C 0.0310448460 0.0355566427 0.0139566757
C -0.7864356599 -0.8122707133 0.9736847335
C 0.7179058424 -0.7893821976 1.1084795656
N 1.4785283604 -1.7988161789 0.4137840210
C 1.2144590925 -1.7421537560 -0.9207311321
C 0.4335718291 -0.6739659740 -1.2506234929
C 0.0880609340 -0.3133862952 -2.6009870528
O -0.6032990610 0.6330427021 -2.9371525778
H 0.8678486470 2.0074468699 -0.2781922200
H -0.8527724568 1.8776470784 -0.6478387368
H -0.3071779077 1.9018109416 1.0458245472
H -1.3334614724 -0.2786338862 1.7434732360
H -1.2682948112 -1.7115885350 0.6054942228
H 1.1900626590 -0.3539444350 1.9821259680
H 1.8103134524 -2.6332131218 0.8684389830
H 1.6241466225 -2.4912223678 -1.5871840128
H 0.5138690347 -1.0023756952 -3.3688611737