11

F 0.0966320387 0.0662193972 0.0020420259
C -0.0491135668 1.3678628556 0.0110160835
C -1.2350609153 1.9975693634 0.0306870890
C -1.2933211958 3.4570158018 0.0395822822
O -2.3130340384 4.1214524590 0.0561216390
C 0.0566685795 4.0601235854 0.0236113223
F 0.1368731022 5.3810859460 0.0291598717
C 1.1766738254 3.3234172288 0.0043221881
O 1.1461777178 1.9576783751 -0.0023069047
H -2.1515530062 1.4240956265 0.0401034367
H 2.1834188890 3.7141726611 -0.0076741135