17

C 0.0285554529 1.5265581165 -0.0205516786
O 1.4613100650 1.7106146887 -0.0520892139
C 1.9689484334 0.3742113712 0.0543455435
C 1.1126893040 -0.5606540808 -0.8186066878
C 1.0717171963 -1.6802811254 0.2368344323
O -0.2551017991 -2.2196539278 0.2970110277
C -1.0957372517 -1.0478648315 0.2081424485
C -0.0313043053 0.0211156499 0.1064697507
C 1.1341447248 -0.4005126297 1.0897728682
H -0.3997778088 2.0623117003 0.8349451143
H -0.4197528218 1.9130020943 -0.9436243454
H 3.0569448175 0.3935428842 0.0404890303
H 1.0738089720 -0.6402015985 -1.9053488911
H 1.7984912131 -2.4880851080 0.2964511420
H -1.7427713055 -1.1163785241 -0.6744849843
H -1.7227483965 -0.9671290235 1.1040888486
H 1.1196959497 -0.2978000058 2.1751708852