17

C -0.0250256165 1.5324656892 -0.0348573918
C 1.4047335844 2.0675883060 0.0208485070
O 2.0465747461 1.6941750449 1.2424402477
C 1.9340793037 0.3829831968 1.5581022189
C 2.6429069937 -0.3940121003 2.4342005168
N 2.1042060902 -1.6649750686 2.4627432435
C 1.1018068033 -1.6508664211 1.6214076822
N 0.9378273311 -0.4180514282 1.0364016413
C -0.0039647285 0.0008247619 0.0105326596
H -0.5860873942 1.9295424625 0.8176667041
H -0.5176410597 1.8712574673 -0.9507723285
H 1.9897057532 1.6925429724 -0.8326329281
H 1.4265217689 3.1589049920 0.0016155011
H 3.4845358887 -0.1074909111 3.0432484169
H 0.4563930192 -2.4822545500 1.3784516500
H -0.9941155390 -0.4041268292 0.2394326945
H 0.3030816055 -0.4011231444 -0.9638012952