20

C 0.0360304530 1.5475703688 -0.1673031432
C 0.0257372636 0.0577367047 0.0668281906
C 0.8082578575 -0.8834600214 -0.8705778709
O 1.3069346223 -1.6536515881 0.2555953604
C 0.7233362405 -0.7346059698 1.2156495865
C 1.7693227354 -0.2790514013 2.2025139972
O 2.3327366375 -1.3991573184 2.8641241318
C -0.6803443584 -1.1834306499 1.6683774410
N -1.2765090288 -0.5649130868 0.4433324656
H 1.0443315710 1.9144441294 -0.3820193483
H -0.5997560289 1.8012376043 -1.0244757046
H -0.3463823580 2.0907897153 0.7037982493
H 0.1963502527 -1.4871260402 -1.5473900458
H 1.6330808956 -0.4111748552 -1.4206773680
H 2.5402594987 0.3074474047 1.6767444561
H 1.3291948207 0.3602075138 2.9751196262
H 2.6103085010 -2.0047919520 2.1653432941
H -0.8320448541 -2.2639610407 1.7397010262
H -0.9926309513 -0.7117756578 2.6085972504
H -1.9885664701 0.1245478107 0.6569007155