19

C -0.1037622945 1.5542118303 0.0977760923
C -0.0302926627 0.0203153613 -0.0121867235
C 0.6972836733 -0.4665311786 -1.2294956778
C 2.0549068173 -0.5792511008 -1.4275490544
N 3.1229126248 -0.2802108434 -0.6263835268
C 4.4429276754 -0.8220533041 -0.9222649477
O 2.3237689215 -1.0308696010 -2.6588037993
N 1.1039357326 -1.2318736050 -3.3504478140
C 0.1845541148 -0.8902510670 -2.4810752814
H 0.8985270591 1.9939443728 0.1216906157
H -0.6283445991 1.9804556136 -0.7626500698
H -0.6322226534 1.8600465848 1.0067032340
H 0.4458557744 -0.3819717970 0.8936538581
H -1.0455029433 -0.3924626979 -0.0134303571
H 2.8868768718 -0.2240255436 0.3526311594
H 4.4876299018 -1.9177866322 -0.8526588497
H 4.7360916251 -0.5342860951 -1.9337175036
H 5.1596600153 -0.3925106401 -0.2194342277
H -0.8544168842 -0.9615596969 -2.7774990666