17

O -0.0997480565 1.4234134998 -0.3055071795
C -0.0814646599 0.0452212283 -0.0760358106
C -0.4471469904 -0.9110765564 -1.1804643586
C -1.3940852041 -0.6596295793 -0.0161088153
C -1.5512205462 -1.6859427855 1.0873347265
C -0.2718667718 -2.4397251872 1.4249393106
O -0.2495720137 -3.5792427829 1.7976953874
O 0.9045272557 -1.7715219123 1.2747555358
C 0.9221640632 -0.3700634871 0.9834529148
H 0.6549834876 1.6462976058 -0.8624490189
H -0.7230398146 -0.4653465381 -2.1292452037
H 0.0684818474 -1.8630945129 -1.2514017775
H -2.2736843417 -0.0644549852 -0.2368008924
H -1.8843093149 -1.1858266467 2.0075564289
H -2.3034881854 -2.4427458942 0.8525909449
H 1.9480902624 -0.1599590951 0.6640024637
H 0.7307928730 0.2055063890 1.8987412738