18

C -0.2375169550 1.5118581337 0.1348462666
C 0.0426582944 0.0251097673 -0.0174871925
C -1.2109817667 -0.8307619855 -0.2393657173
C -1.1467657039 -1.9577010945 0.7923186762
O -1.9207371274 -2.8537288924 0.9509097900
O -0.0419424400 -1.8038093627 1.5800703949
C 0.7726779550 -0.7216914683 1.1447639654
C 1.8633203364 -1.1162519834 0.1257658774
N 1.2107573153 -0.2610672357 -0.8991720063
H 0.6822585717 2.0521659717 0.3739035963
H -0.6341150646 1.9251103367 -0.7989695212
H -0.9722605435 1.6960388031 0.9265534951
H -2.1422726294 -0.2787867110 -0.0808410289
H -1.2678197293 -1.2654164524 -1.2415807469
H 1.0821765541 -0.1487851844 2.0194322203
H 2.8848876725 -0.8017817687 0.3632392693
H 1.8628719266 -2.1937655228 -0.0737935006
H 0.9879016739 -0.7272372607 -1.7716343578