22

C -0.0942803119 1.4798369130 0.0361718644
C 0.0422042288 -0.0496853879 0.0475257089
C -1.2565062151 -0.6116084363 -0.5437078994
N 1.2889518769 -0.6441010012 -0.6576493072
C 2.1021636058 -0.0691330422 0.5393969432
C 0.8508874284 -0.6917686132 1.2445987842
C 0.1680941819 -1.5593198608 2.3341113054
C -0.0370056975 -2.6373066813 1.1778216613
C 1.0987481017 -1.8742943722 0.3722901200
H 0.5795823636 2.0008979299 0.7172643242
H 0.0769375674 1.8617882304 -0.9770580629
H -1.1150122717 1.7544935597 0.3205272576
H -1.5771949722 0.0445454289 -1.3596104281
H -1.1398135168 -1.6092876784 -0.9641377355
H -2.0653629689 -0.6259395654 0.1953651393
H 3.0498674633 -0.5853141354 0.7065199298
H 2.2551149978 1.0073679467 0.4711358426
H 0.8561760887 -1.9191775874 3.1039822263
H -0.7301079282 -1.1619912870 2.8157785331
H 0.2610823521 -3.6568658770 1.4339649007
H -1.0491681360 -2.6637507758 0.7847722885
H 2.0494584717 -2.4054499171 0.4496804435