16

C 0.2215224141 1.0301640725 -0.4092001191
O -0.0676623236 -0.2707137573 0.0804682700
C 0.5541430382 -0.5719827710 1.3112389931
C 0.2462673539 -2.0709656951 1.6492053584
O -0.8609975792 -2.6247390988 1.0055577105
C 1.6767158442 -2.4826315864 1.1634908840
C 2.0378616606 -0.9930367196 1.1105625692
O 3.0545524473 -0.3742214831 0.9772730141
H 1.2965455656 1.1669908104 -0.5748354243
H -0.3107973098 1.1369692570 -1.3565472196
H -0.1296137732 1.7993219233 0.2933372560
H 0.3415585977 0.1934990104 2.0705728867
H 0.1296473213 -2.2229674995 2.7259262944
H -1.0135496420 -2.0863023901 0.2172037032
H 2.2876592584 -3.1124588624 1.8140909145
H 1.6519203965 -2.9268109904 0.1620923189