23

C -0.1868383110 1.5037580650 -0.0057158830
C 0.0175000898 -0.0100598755 -0.0464115177
C 1.2254180501 -0.4632658388 -0.9208762103
C 2.0561751396 -0.7242908774 0.3654648610
C 0.7498452065 -0.6095555508 1.1890704854
C 0.6326071185 -0.1042963610 2.6565057633
C -0.7661032422 -0.7876581285 2.7030264964
C 0.1753981628 -1.8092729686 2.0028155536
C 1.2308003334 -1.4732150830 3.0957769913
H 0.7460997366 2.0248766035 0.2385385406
H -0.5291824749 1.8773693526 -0.9772174325
H -0.9312062229 1.7904136849 0.7448283410
H -0.9298602858 -0.4999667228 -0.2956743391
H 1.0211301232 -1.3792131938 -1.4811053482
H 1.6193551274 0.2843859833 -1.6146475264
H 2.5942699378 -1.6745012547 0.4169620379
H 2.7671687259 0.0797850896 0.5802630874
H 0.8991920382 0.8833382416 3.0380045695
H -1.1352454350 -1.0686812188 3.6934667130
H -1.5597268181 -0.3457228344 2.0964919671
H -0.0892359913 -2.7968873449 1.6185861560
H 2.2785975056 -1.6599684588 2.8503029980
H 0.9964488358 -1.7993465290 4.1131229055