18

O -0.1118330627 1.4193682041 -0.2371204637
C -0.0600510820 -0.0001487315 -0.3536351450
C -1.4488644019 -0.4929585950 0.0400592364
O -1.7734335131 -0.0302748626 1.3217130220
C -2.5195588855 -0.3065609661 -1.0807340644
C -2.3270257406 -1.7912156186 -1.4842031558
C -1.6394099453 -2.0376216073 -0.1038781178
C -0.4743499349 -2.9026894495 -0.0397880069
N 0.4718878120 -3.5676999777 -0.0139735664
H 0.7861961131 1.7618479433 -0.2448651660
H 0.1940924556 -0.3116568908 -1.3765445197
H 0.6820700477 -0.4304216564 0.3319212325
H -1.4253966608 0.8706673066 1.3740801640
H -3.4974660462 -0.1256779849 -0.6296521018
H -2.3198827269 0.4573792202 -1.8336102867
H -3.2198552840 -2.3843329919 -1.6831492531
H -1.6268171769 -1.9204113671 -2.3115837157
H -2.3709365177 -2.3511836448 0.6455017281