25

C 0.0145425251 1.5496121450 0.1443611439
C -0.0104436463 0.0250471976 -0.0060356775
C 0.7413017504 -0.4921405823 -1.2353778764
C 2.2679379403 -0.2113693399 -1.2466424713
C 2.8709400734 -1.3088544186 -2.1220924332
C 3.1159922301 -2.6539623200 -1.4790723593
C 1.8542217145 -2.4272856243 -2.2753339492
C 1.6448115760 -3.1659224475 -3.5765316901
C 0.6203786938 -2.0213420861 -1.4560039130
H 1.0367618398 1.9253823479 0.2571545695
H -0.4225730521 2.0400241352 -0.7329532476
H -0.5548553883 1.8714205214 1.0220502393
H 0.4174379849 -0.4405052409 0.8929400266
H -1.0531732894 -0.3152984498 -0.0557249774
H 0.3191994496 -0.0040699074 -2.1256996878
H 2.4944544023 0.7851653873 -1.6365337898
H 2.6741343880 -0.2489860768 -0.2265679649
H 3.5045081349 -1.0233441390 -2.9557412872
H 3.8800097076 -3.2893529630 -1.9172375239
H 3.0465034521 -2.7269649579 -0.3966970358
H 2.5900016312 -3.3019444842 -4.1124739380
H 1.2159621472 -4.1612353079 -3.4078368372
H 0.9617828428 -2.6205182720 -4.2390781545
H 0.5915131298 -2.5482643136 -0.4931545745
H -0.3075122475 -2.2753072333 -1.9789153606