19

C 0.0570236993 1.1486500851 -0.4595928279
C 0.3035874245 -0.2090955099 0.1534878123
N 1.6878301794 -0.5547250557 0.5083258263
C 0.6909067196 -0.4488344518 1.5809321779
C 0.9085053482 0.6765943564 2.5735561855
C 0.1801790208 -1.7085831433 2.2280789844
C 0.2365608212 -3.0453062671 1.6278837467
O 1.1542204580 -2.6747694186 2.6563474368
H 0.7093526862 1.9090997670 -0.0262936419
H 0.2541192314 1.1185158264 -1.5367112564
H -0.9842029890 1.4580976128 -0.3176550176
H -0.3001461832 -1.0041251986 -0.2848091477
H 1.9129105795 -1.5249828479 0.3052842843
H 1.3299729664 1.5575566028 2.0881886309
H -0.0316014794 0.9609345874 3.0599547358
H 1.6086795026 0.3571359092 3.3528491478
H -0.6036620260 -1.5355804538 2.9681653459
H -0.5111941816 -3.7875866098 1.9051191732
H 0.6720052220 -3.1916481405 0.6393566535