21

C 0.7312809623 1.3904955011 -0.0048711080
C -0.0444861471 0.0758281909 -0.0340092176
C 0.2955200902 -0.8137088210 -1.2467255375
C 1.3741721950 -1.7141687936 -0.6812469640
C 2.2119078993 -2.6252817205 -1.4566282348
O 2.7368454811 -1.3801113984 -0.9779676016
C 0.9858295271 -1.9046506110 0.7797889915
C 2.1389445960 -2.1296279899 1.7440636545
O 0.2883657590 -0.7047384695 1.1281948844
H 1.8039371186 1.2097257271 -0.1254958064
H 0.3985830463 2.0543099801 -0.8103917848
H 0.5706822331 1.8985951113 0.9499768968
H -1.1201479162 0.2862949687 0.0113214876
H -0.5720512993 -1.4126168375 -1.5440020010
H 0.6451934068 -0.2510221591 -2.1143526971
H 2.6280622858 -3.5161364264 -0.9872248946
H 2.0803619869 -2.6940229941 -2.5360589064
H 0.2817429386 -2.7519973527 0.8436417182
H 2.8798845915 -1.3341301832 1.6464239947
H 1.7620103922 -2.1441274459 2.7698461930
H 2.6284722525 -3.0890294463 1.5472758030