15

C 0.0605946141 -1.2205090751 -0.1302636926
C 0.0183746960 -0.0232727792 -0.0322515147
C -0.0371251520 1.4171248557 0.0922787074
C -0.2301173823 2.0561414687 1.5254364914
C 1.0911788991 2.8011995655 1.3253809090
O 2.1059002450 1.8214937596 1.1141379072
C 1.3068640617 2.2011894609 -0.0134626960
C 1.9297679452 2.6789830944 -1.1976772372
C 2.4149126429 3.0650847276 -2.2278926984
H 0.1077530480 -2.2776884029 -0.2177408815
H -0.7648808639 1.8400710719 -0.6063010907
H -1.1061457066 2.7057537240 1.5697656524
H -0.2376284339 1.3551304619 2.3610426492
H 1.4017598950 3.7670082239 1.7059562048
H 2.8562535016 3.4070328631 -3.1314504503