16

O -0.3924452754 1.2347558007 1.4986884796
C 0.0410777627 1.0529498294 0.3912557314
C 1.3573250672 1.6214426808 -0.1042128903
N 2.0701095604 0.7786290584 -1.0894870733
C 2.3226512728 1.9272585365 -1.9963953465
C 1.3844752459 1.8999219905 -3.2272237119
C 0.2959454868 2.5362888314 -2.3349264181
O -0.8624752211 2.7878992116 -2.4818250930
C 1.2913956686 2.7644949555 -1.1684119972
H -0.4993184573 0.4464078923 -0.3683219818
H 1.9505859694 1.9368176711 0.7627092664
H 2.8898363414 0.3003058675 -0.7379583118
H 3.3614033118 2.2288421396 -2.1352409477
H 1.6861694166 2.5993452485 -4.0166006643
H 1.1606505162 0.9262541236 -3.6671724550
H 1.4153597441 3.7888821927 -0.8211873564