15

C -0.0080102086 1.4885115388 0.0214434901
N -0.0087427239 0.0295024881 -0.0005045931
C -1.1747810695 -0.7176511411 -0.1513059724
C -1.1406816911 -2.0577363730 -0.1548065170
C 0.1275876027 -2.7691522520 0.0016918498
N 0.1725288599 -4.0475105257 -0.0019051643
N 1.2763877947 -1.9544448585 0.1542961923
C 1.1393092711 -0.6959735881 0.1446063739
F 2.2048784072 0.0850174777 0.2884980222
H 0.6435369819 1.8909769993 -0.7579818451
H -1.0268520544 1.8328639229 -0.1588743719
H 0.3273822875 1.8696771313 0.9900380970
H -2.0806363327 -0.1360681278 -0.2630318071
H -2.0458535078 -2.6372850440 -0.2737799929
H 1.1421988130 -4.3455654180 0.1193641587