25

C 0.1082189179 1.5410377184 0.2095596833
C 0.1684255452 0.0250706838 -0.0040163501
C 0.8923881819 -0.4210850164 -1.2910596039
C 2.3815518652 -0.0390823440 -1.2855901583
C 0.7466159604 -1.9325346863 -1.4655630657
C -0.5925194809 -2.6090038596 -1.9174558893
C -0.2961272125 -2.1339366950 -3.3709603641
C 1.0594537680 -2.6629841107 -2.8150526403
C 0.2569545408 -3.8698411949 -2.2488507242
H 1.1034004047 1.9779116491 0.3367410001
H -0.3674063625 2.0417856127 -0.6415529408
H -0.4726502539 1.7865714389 1.1043289610
H 0.6558197460 -0.4475774534 0.8602998525
H -0.8549395552 -0.3698895218 -0.0257237666
H 0.4166210429 0.0988862782 -2.1319350787
H 2.8749686417 -0.3664885498 -2.2061624168
H 2.5259229659 1.0418104657 -1.2013159652
H 2.9027070436 -0.5117568757 -0.4440052399
H 1.2032313296 -2.4316553210 -0.5992717897
H -1.5533998282 -2.5857886700 -1.3997612297
H -0.7506582915 -2.7256124712 -4.1707800864
H -0.3790971048 -1.0679950073 -3.5869908710
H 2.0162771135 -2.7020326193 -3.3392020770
H 0.6993579889 -4.4029270870 -1.4024172641
H -0.1651018368 -4.5608516234 -2.9836432353