19

C -1.1867279827 0.1534700463 0.1030100842
C 0.3330198033 -0.0257567132 0.0003859965
C 0.7879616464 -0.6684475859 -1.3038240458
C 2.0285035405 -1.5785446959 -1.2633699051
C 0.6792979511 -2.1851887295 -1.4207123542
C 0.6651954947 0.0458307129 -2.6068927007
O 0.7995800004 -0.5027878320 -3.6849961264
C 0.4418165284 1.5679356762 -2.7004608097
O 0.4432506547 2.3552143410 -1.7923279851
H -1.5614054689 0.8499001883 -0.6525641748
H -1.7084667853 -0.8004757680 -0.0274568330
H -1.4619937022 0.5568014621 1.0821459649
H 0.8274910227 0.9379969137 0.1383137455
H 0.6705127636 -0.6741959849 0.8178956487
H 2.6756222834 -1.5553978427 -2.1322507022
H 2.5342268661 -1.6489170704 -0.3067888095
H 0.2368039119 -2.6951283222 -0.5721461930
H 0.4162266776 -2.5750095763 -2.3964847525
H 0.3167165045 1.8667557003 -3.7631957980