14

C -0.0175007647 1.5112620626 -0.0144399347
C -0.0422803880 0.0139444925 0.0011398900
C -1.1652881253 -0.7120542811 -0.1512174470
N -1.1116439703 -2.0963797788 -0.1261971485
C 0.0960090115 -2.6854043337 0.0549663874
F 0.0105582002 -4.0081848570 0.0593210365
N 1.2125324382 -2.1053554114 0.2082913282
C 1.2481972646 -0.6914700416 0.1955419616
O 2.2916038791 -0.0885568273 0.3378983135
H 0.6450681922 1.8724224496 -0.8074796745
H -1.0151029991 1.9331720142 -0.1636747233
H 0.3956101258 1.8945473286 0.9239946342
H -2.1500433010 -0.2861585226 -0.2980983784
H -1.9355024032 -2.6651322638 -0.2374096949