16

C -0.0811651715 1.4953825732 0.0326207526
N -0.0473474197 0.0410198959 0.0138242666
C -0.0577179186 -0.6718278320 1.1810826827
O -0.0940516401 -0.1956715190 2.2928627012
C -0.0020936806 -0.6514236813 -1.2716745993
C -1.2035394469 -0.3909526589 -2.0814228269
C -2.1921974199 -0.1834744043 -2.7298429747
C 1.2217929496 -0.3352510329 -2.0260946812
C 2.2284156429 -0.0819154968 -2.6289824448
H 0.8114585018 1.9062768263 -0.4497290212
H -0.9688901691 1.8654210316 -0.4901448751
H -0.1119482613 1.8043323170 1.0768690518
H -0.0283383095 -1.7639280113 0.9945105963
H 0.0172600304 -1.7253843927 -1.0371104491
H -3.0659606299 -0.0019481190 -3.3063978157
H 3.1182759623 0.1401197545 -3.1653407231