19

C -0.0805935124 1.5227680152 -0.0423060953
C -0.0212820147 0.0101570298 0.0860453597
O -1.3446485228 -0.4896606882 -0.0107059833
C -1.4421808888 -1.9085080662 0.0120200542
C -1.4108122855 -2.4654319767 1.4459928625
C -2.6773998239 -2.2870752103 -0.6726120156
C -3.6922703878 -2.6371201038 -1.2299957381
C -4.8387380783 -3.0224331738 -1.8535757258
C -5.8544849194 -3.3670774463 -2.4080893580
H 0.9250040223 1.9490654343 0.0221116497
H -0.5214818204 1.8082723265 -1.0012433813
H -0.6917413829 1.9512355374 0.7568858141
H 0.6031183314 -0.4229902235 -0.7130985781
H 0.4388402898 -0.2719640700 1.0460396477
H -0.5970407823 -2.3386223905 -0.5529772430
H -2.2379882674 -2.0468282351 2.0239764644
H -1.5034436227 -3.5548065087 1.4342981825
H -0.4681516764 -2.2053650759 1.9350024046
H -6.7497363676 -3.6667695441 -2.8936258610