21

O -0.0849559360 1.3764569662 -0.2377927158
C -0.0482370915 -0.0170874930 -0.0696840466
C -0.4609971206 -0.6428095395 1.2468776210
C -0.8613693278 0.2268760417 2.4357852626
C -2.3694649325 0.5146019561 2.4754265066
C -2.8413470045 1.0941471899 1.1384643178
C -2.6727037261 0.0903325066 -0.0171979032
O -2.8491337972 0.7148062740 -1.2840193628
C -1.3731987544 -0.7087059527 0.0261887420
H 0.6828922712 1.7622138825 0.1972426413
H 0.7400810771 -0.5090422561 -0.6380512803
H 0.0610393540 -1.5611109208 1.4989715775
H -0.5474934245 -0.2682895431 3.3597687777
H -0.3234504359 1.1840089204 2.4018499870
H -2.9132843759 -0.4154029825 2.6903544575
H -2.5972471632 1.2070395380 3.2936075574
H -3.8944336436 1.3897810784 1.1845916236
H -2.2632913819 1.9960667306 0.9103990850
H -3.4936000373 -0.6342058392 0.0505617302
H -2.0985176195 1.3113077111 -1.3936872061
H -1.4345262799 -1.6607810687 -0.4921112725