17

C 0.1652820353 0.9904260146 0.5148161908
C -0.2975348893 -0.3380627667 -0.0365172357
O -1.1169695513 -1.0220866395 0.5399516937
C 0.3048603645 -0.7580232821 -1.3765935569
C 0.6996551168 -2.2305637226 -1.5505912032
O 1.6853766496 -2.5378342895 -2.1882037153
N -0.1596781271 -3.1381702435 -0.9824281731
C 0.0118373582 -4.5107419070 -1.0834359316
N -0.7949904881 -5.3003389742 -0.5017874317
H 0.0429998041 1.7794538535 -0.2357132045
H -0.3942633896 1.2389579805 1.4168853387
H 1.2361624664 0.9385405838 0.7446763279
H -0.4598479938 -0.5385845524 -2.1356580145
H 1.1826198593 -0.1624868316 -1.6306189184
H -0.9074181821 -2.7838446256 -0.3920308960
H 0.8761308671 -4.7753239490 -1.6958420399
H -0.5288707799 -6.2670638487 -0.6811287804