20

C 0.0976478867 1.4878674307 -0.0988031470
C 0.0343032563 -0.0405476573 -0.0245968450
C 1.0013602614 -0.8566544804 -0.9641469515
C 1.4855784436 -1.7078637506 0.2405639646
C 2.8063479491 -1.2283597217 0.8893610793
C 2.0036492029 -0.2179641901 1.7663265123
C 0.6667839285 -0.7852991692 1.2089580649
C -1.3488264443 -0.4809055466 -0.2001379662
N -2.4426323220 -0.8334983050 -0.3327340283
H 1.1306905689 1.8357555274 -0.0228625000
H -0.3068038786 1.8409513694 -1.0520704176
H -0.4831090111 1.9474197147 0.7065677948
H 0.4964122586 -1.4062219571 -1.7594975975
H 1.7786084252 -0.2313436373 -1.4131703993
H 1.3149739168 -2.7812751481 0.1618184038
H 3.2978618911 -2.0027170355 1.4833470809
H 3.5465203293 -0.8040869030 0.2044087101
H 2.1170690027 -0.3745072054 2.8410527834
H 2.1935034432 0.8389627459 1.5672067655
H -0.0425330684 -1.1604602011 1.9460179627