18

C -0.0292731952 1.4827568301 0.0425922326
C -0.0022300147 -0.0100525415 -0.0106352072
C -0.0501113962 -0.8096223799 -1.0816083657
C -0.0114680089 -2.2423113370 -0.6651854462
O 0.0222008151 -3.2355898496 -1.3606861357
N -0.0227832542 -2.2039968041 0.7153347508
C 0.0630862683 -0.8627300561 1.2444949935
C 1.3388768136 -0.6566714091 2.0661691432
O 1.2774700296 -1.5736703732 3.1477889058
H 0.8844009353 1.8877985126 0.4948784236
H -0.1288532090 1.9108431749 -0.9575231196
H -0.8663137325 1.8410440013 0.6541745846
H -0.1061467108 -0.5153411223 -2.1206924790
H 0.1829225694 -3.0117144940 1.2794315723
H -0.7910749124 -0.6417013861 1.9036266642
H 2.2115146557 -0.8434729723 1.4231988181
H 1.3870017925 0.3831501266 2.4244646097
H 2.1202622344 -1.5594172601 3.6103175951