15

C -0.0080678268 1.4675991370 0.0106687939
C -0.0043624199 0.0143752516 0.0026594052
C -0.0168941216 -1.1917164098 -0.0038581953
C 0.0080106949 -2.6165333204 -0.0116145682
C 1.2344728255 -3.3066511402 -0.0222094574
N 1.3081852832 -4.6334056112 -0.0297410972
C 0.1445603893 -5.2892310002 -0.0267261295
C -1.0747466015 -4.6156977734 -0.0162770713
N -1.1580219779 -3.2873015096 -0.0086778389
H 1.0110086416 1.8683917210 0.0029890334
H -0.5318084812 1.8639973408 -0.8662246061
H -0.5146220119 1.8542890053 0.9018842414
H 2.1690990289 -2.7527630641 -0.0244902513
H 0.1858108892 -6.3749947220 -0.0327797595
H -2.0131278416 -5.1650547247 -0.0139609491