17

C 0.1636888073 1.4993978348 0.1317488304
C -0.0634733012 0.0221243201 0.0626481112
C -1.2409316649 -0.6474623009 -0.0555200936
C -2.5987287815 0.0022048126 -0.1430751404
C -1.1620124214 -2.0809373370 -0.0968716640
C 0.0133232130 -2.7469601482 -0.0237390731
C 1.2617724642 -2.0294418913 0.1012858264
O 2.3745212707 -2.4782336874 0.1762882203
O 1.1198827379 -0.6330151296 0.1364217254
H 0.8196202318 1.8140402353 -0.6870273124
H -0.7637967667 2.0667762187 0.0754273431
H 0.6756256311 1.7538188612 1.0660240327
H -3.1112897769 -0.2896647405 -1.0671616292
H -3.2380165196 -0.3137163700 0.6897835005
H -2.5519759753 1.0912124931 -0.1250569687
H -2.0901184556 -2.6395639837 -0.1909716276
H 0.0796036971 -3.8268314573 -0.0546111810