17

C -0.1255978376 1.5197183049 -0.1970475434
C -0.0309652708 0.0298505225 0.0085505632
N 1.2931929232 -0.5904815695 -0.1379072244
C 0.6482608843 -0.6055386585 1.1863240192
C 1.3236792840 0.1570273043 2.2559414887
C 2.5166196228 0.8109807251 2.2168903054
O 2.7892972098 1.3768200297 3.4017304849
N 1.7516162120 1.0990688426 4.2849822818
C 0.8976714951 0.3822468420 3.5982647029
H 0.7181940335 2.0346945152 0.2671130127
H -0.1252858519 1.7600537806 -1.2652650282
H -1.0509170453 1.9113744633 0.2386932406
H -0.8775594832 -0.5355753720 -0.3802130939
H 1.2246858925 -1.5036374296 -0.5774159850
H 0.2086458223 -1.5447697594 1.5190559601
H 3.2491120928 0.9409512584 1.4371223539
H -0.0067704537 0.0403574304 4.0827235815