21

C -0.0003682265 1.5312633769 -0.1214109757
C 0.0749813843 0.0032727300 0.0442900482
C 0.7869241318 -0.3314678601 1.3426433116
O 1.7051304599 -1.1009566762 1.4609707780
C -1.3288703524 -0.6150283869 0.0788092066
C -2.2282075125 -0.4928825524 -1.1705073489
O -2.5242823795 -1.8995180204 -1.1478598170
C -1.5399485608 -2.1481780561 -0.1095966730
C -0.3899581876 -3.0018617437 -0.6146679935
H 0.9983628248 1.9739667235 -0.1803250211
H -0.5387376156 1.7938371732 -1.0365892628
H -0.5268798232 1.9946482584 0.7206854048
H 0.6591856937 -0.4323178141 -0.7718413748
H 0.3711184135 0.2023363039 2.2320353905
H -1.8523279097 -0.2602105995 0.9733466836
H -3.1290750938 0.1234935171 -1.0729848559
H -1.6975373240 -0.1995139519 -2.0881839843
H -2.0122644510 -2.6342986235 0.7534812865
H 0.0566373103 -2.5751909245 -1.5176498329
H 0.3920363214 -3.0999897829 0.1441282569
H -0.7621431229 -3.9998628710 -0.8654454270