16

C 0.0426475926 1.4566928679 -0.0730193713
C 0.0362792804 -0.0315967468 -0.0219721239
O 0.6122753131 -0.8141967963 -1.1102391657
C 0.1248151397 -1.8315719959 -0.1997229289
C 0.4836618493 -1.0344593137 1.0904075748
N -0.8861866011 -1.0733315712 1.6924204616
C -1.1709399534 -1.0312221436 0.2143656533
C -2.4742027825 -1.0426039503 -0.3660757860
C -3.5668286979 -1.0545225427 -0.8694424758
H 1.0675300800 1.8350942763 -0.1336131170
H -0.5137532596 1.8120274265 -0.9451963620
H -0.4283970782 1.8511600506 0.8318521642
H 0.2473628948 -2.8828407883 -0.4631171685
H 1.4035472499 -1.0404583417 1.6736307991
H -1.0903187066 -2.0067531033 2.0584441175
H -4.5322011907 -1.0623558775 -1.3122538613