23

C 0.0124313189 1.5302214949 -0.0236585128
C -0.0197956080 0.0017412666 0.0673858186
C -1.4306868841 -0.5870119951 0.0228268373
C -2.1667491482 -0.4473873619 -1.3528024968
C -2.3703984940 -1.9534976941 -1.6498667223
C -2.8778446218 -2.3824263616 -2.9972123810
C -2.9007738352 -2.5025944530 -0.3003495911
C -1.4531060490 -2.1341419372 0.0716732478
O -1.0504054223 -2.4953260856 -1.2861552004
H 1.0391590929 1.9074833570 0.0146256286
H -0.4363197384 1.8874487637 -0.9567623339
H -0.5413106065 1.9883342149 0.8038990732
H 0.5635725293 -0.4388891866 -0.7493453012
H 0.4666550637 -0.3128235156 1.0007099655
H -2.0285561584 -0.1672526636 0.8409962930
H -3.1084446329 0.1057203492 -1.2959283034
H -1.5382654782 0.0174797990 -2.1178041890
H -2.2187504655 -2.0130042633 -3.7899452276
H -2.9252305578 -3.4725564744 -3.0686560232
H -3.8801818055 -1.9779567162 -3.1728738712
H -3.7296725047 -1.9906750176 0.1966538107
H -3.0568220985 -3.5819025255 -0.3350900470
H -0.8836655559 -2.6404801840 0.8522267564