20

C -0.3143146506 1.5014728349 0.0726847984
C 0.2442754343 0.0810854938 -0.0785842962
C 0.8325850807 -0.4862583406 1.2047787264
C 2.0827382284 0.2061034082 1.7161980122
C -0.1137513968 -1.0604322978 2.2229509450
C 0.7795550721 -2.0020953531 1.4218022359
C 0.2175079550 -2.8945104637 0.4519319887
C -0.2409869238 -3.6566521772 -0.3593169955
H 0.4647743066 2.2213683986 0.3423479056
H -0.7645291979 1.8415595132 -0.8649458377
H -1.0861277843 1.5407140268 0.8488510462
H -0.5481154204 -0.5863005300 -0.4316097890
H 1.0169658506 0.0711578993 -0.8588157647
H 1.8844043509 1.2532363084 1.9688792360
H 2.4669515984 -0.2805761405 2.6181206802
H 2.8776469573 0.1896372006 0.9616718241
H 0.1106560209 -0.9411533906 3.2776807189
H -1.1716238950 -1.0777700495 1.9851834236
H 1.6266664550 -2.4141977953 1.9638501843
H -0.6463776414 -4.3281342954 -1.0745647226