23

C -0.5194356614 0.9465246343 -0.0362515478
O 0.5180511607 -0.0052866522 0.1069548925
C 0.9248912458 -0.5433395994 -1.1119697927
C 1.6379814194 -1.8549186769 -1.0555022751
C 0.2422499744 -1.7833645061 -1.6575733766
C -0.9121735727 -2.3911608383 -0.9242747635
C -2.2756464753 -2.5056744336 -1.5714445501
C -1.4760528686 -3.7525172355 -1.2739933083
C -0.9153482636 -4.6044484220 -2.3917081286
H -0.2018538479 1.7946126531 -0.6620768301
H -1.4198724565 0.5027381507 -0.4821913483
H -0.7564529992 1.3165753386 0.9641126178
H 1.2668660787 0.2029189254 -1.8318118372
H 2.4927568284 -2.0166592865 -1.7027620810
H 1.7189663561 -2.3081346821 -0.0730703087
H 0.1886371333 -1.8407931133 -2.7409975850
H -0.9117002024 -2.1491485968 0.1342000672
H -3.1593114316 -2.2882449185 -0.9807739611
H -2.3574125195 -2.2081012375 -2.6132626563
H -1.8211395458 -4.3298297575 -0.4193409420
H -0.6105111013 -4.0002567778 -3.2512729545
H -0.0385747552 -5.1720107912 -2.0603175967
H -1.6628161558 -5.3229953269 -2.7462004938