17

C -0.0078391752 1.4872351188 -0.0237279067
C 0.0619293746 -0.0088771300 -0.0901511834
C 0.6250589140 -0.9499203801 -1.1805294487
C 0.0921976726 -1.9394421772 -0.1251663240
C 0.4688404449 -0.9980073206 1.0544411683
O -0.8510193147 -1.0241682387 1.6733787010
C -1.1221872237 -1.0117311187 0.2329517009
C -2.4600715973 -1.0197879836 -0.2619889728
C -3.5774526486 -1.0141903903 -0.7072417986
H 0.9922721842 1.9315568179 -0.0693169125
H -0.5942667766 1.8915498464 -0.8553925903
H -0.4810777471 1.7980416130 0.9132946441
H 0.1097367802 -0.9409461171 -2.1448002969
H 1.7090229127 -0.9305432807 -1.3250873705
H 0.0825300081 -3.0285777512 -0.1180841667
H 1.3462701760 -0.9996419545 1.6993071537
H -4.5671436240 -1.0134227835 -1.0928738171