20

C -0.3110750877 1.5332217129 0.0109839740
C 0.0550908507 0.0482722352 -0.0092906134
C 0.9781939520 -0.3808770028 -1.1802965887
O 1.8305290754 -1.4310344255 -0.7160483715
C 1.8278202379 -1.4823980646 0.6977324887
C 2.8721100950 -0.6678612527 1.4771012734
C 2.8667663002 0.7512152031 1.0911361373
N 1.8056568711 0.2954760433 2.0099074339
C 0.7719901415 -0.5033522295 1.2331208220
H 0.5690834944 2.1689888256 0.1392731910
H -0.8037369835 1.8248449387 -0.9225955769
H -0.9994594506 1.7538681304 0.8322741115
H -0.8734621075 -0.5293084956 -0.0951721078
H 0.4084837584 -0.7665382367 -2.0332613503
H 1.5774088995 0.4647519334 -1.5473116662
H 1.7605823975 -2.5264810216 1.0127014377
H 3.6221104542 -1.0920910686 2.1367817128
H 3.5799741716 1.3967869195 1.5955889430
H 2.6458487863 1.0512000960 0.0746282221
H 0.0735856436 -0.9123158205 1.9641404575