23

O -0.0759252761 1.4606328125 -0.0333237671
C 0.0044746644 0.0449243198 0.0496721493
C -1.3963133662 -0.5209070360 -0.1485166777
C -1.4447749778 -2.0400777828 -0.0690240781
C -1.2249364689 -2.7407935387 1.3056946433
C -2.3426043643 -3.7502156101 0.9287983021
C -3.3145307675 -4.1799912980 2.0064428441
O -4.3085488039 -4.9957526442 1.4015857880
C -2.8244507946 -2.7505566556 -0.1571530475
H 0.8055480065 1.8199589210 0.1022138472
H 0.6803318954 -0.3614013600 -0.7213214300
H 0.4009322284 -0.2735121199 1.0277667162
H -2.0587974573 -0.0855692910 0.6105901161
H -1.7727304990 -0.1831221197 -1.1224967270
H -0.7616844064 -2.4716039352 -0.8113028750
H -0.2325959957 -3.1382707096 1.5334654629
H -1.5364618593 -2.0904155343 2.1322220064
H -1.9167356689 -4.6445623022 0.4616703619
H -2.7752994516 -4.7267963996 2.7986673666
H -3.7625483479 -3.2866466253 2.4735881257
H -4.9485906927 -5.2418074178 2.0756580034
H -3.6273604676 -2.1095510361 0.2245793353
H -3.1337200291 -3.1538685873 -1.1235782761