25

C -0.7768374209 1.0376639906 0.1441780228
C -0.0240938584 -0.2833581617 0.0687903213
C 0.8359742241 -0.6577607032 -1.1936482155
C 0.1899909121 -1.6946518387 -2.1122824194
C 1.3263628563 0.5351617396 -2.0192294948
C 1.9275119502 -1.2171434059 -0.2247929652
C 1.2030302217 -0.5520533828 0.9867420997
C 1.9182011023 0.6647074249 1.5654976182
O 0.8277899029 -1.4367152498 2.0355874130
H -0.1276964255 1.9024289751 -0.0233981785
H -1.5742774445 1.0749443556 -0.6062864687
H -1.2468658757 1.1595324504 1.1260375111
H -0.7260605222 -1.1019508275 0.2587887714
H -0.6811314857 -1.2760891455 -2.6311184320
H 0.8948700504 -2.0400673155 -2.8781744874
H -0.1467296084 -2.5702085047 -1.5476760035
H 1.8163216313 1.2990189054 -1.4082711047
H 2.0529060207 0.2026695948 -2.7697394497
H 0.4993834818 1.0186920684 -2.5514296369
H 1.8988311686 -2.3066112734 -0.1421181760
H 2.9572483523 -0.8995192737 -0.4175903948
H 2.2042932881 1.3860537751 0.7954517254
H 1.2856486509 1.1731312465 2.2994283742
H 2.8414901305 0.3500040917 2.0695544519
H 1.6029852772 -1.5931183957 2.5862878882