18

C -0.3450953953 1.5208750166 -0.0030042057
C 0.0194691036 0.0418704901 0.0074996262
C 1.1732484880 -0.5122084992 -0.9035350425
C 1.7667631467 -1.2224947030 0.3202046714
C 2.1835847803 -0.2119568131 1.3682339877
C 2.7842426515 1.0575166237 1.0636602189
C 3.3418191147 2.0979576352 0.8273915505
C 0.7165430959 -0.5872179391 1.2250504834
H 0.5253504424 2.1524399017 0.1841638327
H -0.7715473531 1.8054028536 -0.9716826026
H -1.0954195981 1.7401766210 0.7652315012
H -0.8801544743 -0.5489252721 -0.1968823140
H 0.8158706643 -1.1922737932 -1.6789560934
H 1.8264007248 0.2367513357 -1.3608180470
H 2.1693766659 -2.2281882444 0.3364686726
H 2.6221726944 -0.6876918758 2.2434565806
H 3.8189558866 3.0231910772 0.6189370176
H 0.2031727117 -1.0165313549 2.0787051224