18

C -0.1448319747 1.6075874986 -0.0680311180
C -0.0644687911 0.1188220753 0.0565285216
C -0.0887246818 -1.0072979055 -0.9016168490
N 1.3822840270 -1.4748851580 -0.6654130527
C 1.0500635607 -0.8328363891 0.6210340720
N 0.7707826713 -1.6150540096 1.5876806046
C -0.6983893030 -1.4990561841 1.7355912019
C -1.1017908162 -0.9147424054 0.3543633419
N -2.4566658038 -0.6888200769 -0.0443738665
H 0.7070960687 2.0135071534 -0.6246451443
H -1.0595995186 1.8878837315 -0.6003508407
H -0.1599562537 2.0925918599 0.9142376838
H -0.4965324269 -1.0702203481 -1.9054557009
H 1.9044770192 -0.8237861286 -1.2636389570
H -1.0717253808 -2.5117647662 1.9284534470
H -1.0631009978 -0.8498544180 2.5484103479
H -2.9762304483 -1.5607319587 -0.0807031699
H -2.9328836302 -0.0817045804 0.6167625584