19

C 0.2095800601 1.5619154740 0.0457585975
C 0.0422843217 0.0726508370 0.0309276394
C -1.0750761216 -0.6715923948 -0.0231388129
C -2.5219424910 -0.2869266862 -0.0865958285
O -2.7268300791 1.1135955336 -0.0891491418
C -0.7787027519 -2.1544753994 -0.0170119721
C 0.7502783169 -2.2275638587 0.0516585313
O 1.4086949370 -3.2339954972 0.0764713716
C 1.2807183169 -0.7937474057 0.0826014981
H 0.8286581492 1.8822571319 -0.8029338442
H -0.7421745321 2.0850199200 0.0052692608
H 0.7493781568 1.8737046307 0.9499497734
H -2.9589816355 -0.7503977185 -0.9901605207
H -3.0383883757 -0.7588052834 0.7694661759
H -3.6735264361 1.2747542072 -0.1304302655
H -1.2170934178 -2.6880092316 0.8381380376
H -1.1380231742 -2.6794432320 -0.9133503237
H 1.9626324647 -0.6244837739 -0.7624395035
H 1.8836634116 -0.6330187731 0.9872417873