18

C 0.0120687726 1.4626430923 -0.0406026039
C 0.0212120813 -0.0344471812 -0.0562504452
N 0.6578675767 -0.8715924587 -1.1316532125
C 0.0957824415 -1.8808687384 -0.1765188254
C 0.4851457412 -1.0193786123 1.0576479107
N -0.8694917126 -1.0300274782 1.6994767510
C -1.1688750820 -1.0348656128 0.2258154874
C -2.5549518210 -1.0468151062 -0.3439838534
H 1.0307949662 1.8563611711 -0.1115024901
H -0.5669131913 1.8664162647 -0.8788185294
H -0.4388508589 1.8179107217 0.8909958673
H 0.0914699688 -0.8387209555 -1.9849258137
H 0.1902992487 -2.9603652517 -0.3152081318
H 1.4222790136 -1.0109260732 1.6139053974
H -1.0597895912 -1.9529383232 2.1010928061
H -3.1384794735 -0.2040738419 0.0399860900
H -2.5218567495 -0.9733502318 -1.4371426607
H -3.0833908607 -1.9716314347 -0.0873173139