17

O -0.5467299397 1.2663645469 -0.8834433065
C -0.0574514942 0.1406068744 -0.1751573031
C -1.1605897830 -0.8690888840 0.2249242307
C -1.1552531579 -1.9503880239 -0.8896065592
O -1.5066070160 -3.2569462975 -0.4643163219
C -2.1605991917 -1.6218262454 -1.9959354362
O -2.3309123722 -0.5151063127 -2.4449648463
C 0.2549987703 -1.8279823447 -1.4497113390
C 0.8547323473 -0.7107340713 -1.0423933083
H -1.1091905864 0.9243586034 -1.5963292955
H 0.4555991156 0.5536687982 0.6988198566
H -0.8992439841 -1.3697053226 1.1630457001
H -2.1264003254 -0.3779461853 0.3576577660
H -0.8237482138 -3.5647246981 0.1406384307
H -2.7266015291 -2.4992665323 -2.3695643733
H 0.6509720067 -2.5710317647 -2.1332396387
H 1.8416629936 -0.3775184800 -1.3431490261