18

C -0.0575308113 1.5309641899 0.0274933751
C -0.0393005110 0.0323585498 -0.0019830619
C 0.3891885780 -0.7737553147 -1.2470715039
C -0.6020270533 -1.8006699150 -0.7363389543
C -0.5536927305 -1.8150353741 0.7543680698
C 0.4725176581 -0.7911520829 1.2240845356
C 1.8777695294 -1.1284676684 1.3513014319
C 3.0459664452 -1.4017357650 1.4392694083
N -1.3820325952 -0.7811556615 0.0502889798
H 0.9660211611 1.9227021555 0.0152376864
H -0.5887848304 1.9312723257 -0.8416105696
H -0.5553001613 1.8993693480 0.9301003339
H 0.0236716177 -0.2973465906 -2.1608475536
H 1.4438311344 -1.0422218630 -1.3542022476
H -1.1092416478 -2.5789062761 -1.2949913997
H -1.0118468118 -2.5976584107 1.3478172609
H 0.1050647785 -0.3144065455 2.1397760019
H 4.0754864504 -1.6479694715 1.5239427669