17

O 0.1729987211 1.2855394544 -0.1824471841
C -0.1064397264 -0.1099516552 -0.0745988132
C 0.7337513461 -0.7562921791 0.9992979196
C 0.2124142070 -1.0785479817 2.1817818652
C -1.2320736212 -0.8233276477 2.5119397151
O -1.8685334455 0.0287315289 1.5747499904
C -1.5936494892 -0.3534973268 0.2351154388
C -2.4877789996 0.4826651380 -0.6697509689
O -2.6361434605 0.2506804237 -1.8393128268
H 0.0291071472 1.6592357410 0.6953189752
H 0.1191266374 -0.5268074217 -1.0609492141
H 1.7869648486 -0.9096402987 0.7844761866
H 0.8130551428 -1.5445651417 2.9586488478
H -1.7770919859 -1.7822898579 2.5877416219
H -1.3237483072 -0.3297730872 3.4860379778
H -1.8344808921 -1.4162528892 0.0688323924
H -2.9957999625 1.3246507510 -0.1525245937