14

N 0.0384462594 1.4058653500 0.2210043624
C -0.0369115686 0.0280659456 0.0384207086
C -1.0956434439 -0.8415619115 -0.1249266350
O -2.3944103397 -0.4535346317 -0.2450213166
C -3.3679705954 -1.3471103726 0.1012813189
N -4.5698447509 -1.0070482264 -0.0520567840
N -0.6463165073 -2.1138362150 -0.1783157783
N 0.6551518122 -2.1075160585 -0.0584055038
N 1.0249185449 -0.8148156829 0.0810124153
H 0.5750076328 1.8814303528 -0.4967667046
H -0.8913933692 1.8074178177 0.2533497051
H -2.9668871405 -2.2889657746 0.4812997472
H -5.1819454458 -1.7612776361 0.2529521798
H 1.9978175320 -0.5873917169 0.2108575150