17

C -0.0191697999 1.5274367630 0.0872335145
C 0.0116259882 0.0039875714 -0.0622728725
N 0.7137248230 -0.4447685038 -1.2617703913
C 2.1569419821 -0.5795902749 -1.2106609214
C -0.0250232733 -0.6435630458 -2.4030712678
N 0.6867435152 -1.1280265175 -3.5021652660
O -1.2150172804 -0.3796210972 -2.4781629833
H 0.9901332660 1.9517719047 0.1213424038
H -0.5540215123 1.9719849961 -0.7557271013
H -0.5327990554 1.8101013704 1.0119952968
H 0.4961601294 -0.4591220529 0.8056000398
H -1.0083487354 -0.3788442324 -0.1222576034
H 2.4823697541 -1.5980830578 -0.9478785092
H 2.6043413304 -0.3045023277 -2.1689736615
H 2.5594979311 0.0999241170 -0.4544350002
H 1.4224621416 -1.7969433807 -3.3307929449
H 0.0557451756 -1.4080872520 -4.2385059220