25

C -0.0287775436 1.2356582699 -0.4725991839
C 0.0980349795 -0.2592996679 -0.1347848866
C 0.7916147802 -1.0008916029 -1.2923979204
C 0.6444803337 -2.5267454913 -1.2924244129
C 1.4000795095 -3.2665744484 -0.1780573860
C 0.9069994306 -3.0290991853 1.2304525835
C 0.6196997473 -1.8681964584 1.8212953436
C 0.7342573204 -0.4612536265 1.2682408323
C 2.1955237333 0.0272154716 1.3797696690
H 0.9467296242 1.6926029522 -0.6705856656
H -0.6405623478 1.3774255826 -1.3695439430
H -0.4992819592 1.7941697137 0.3438223722
H -0.9219689641 -0.6620107068 -0.0601617207
H 0.3674626842 -0.6211989282 -2.2307926313
H 1.8568020867 -0.7332690671 -1.3241276731
H -0.4205317139 -2.7874175910 -1.2362945070
H 1.0054597717 -2.9081764597 -2.2557669219
H 1.3519186578 -4.3416900129 -0.3840143255
H 2.4679336694 -3.0069678474 -0.2423411030
H 0.7979861706 -3.9270541908 1.8362391053
H 0.3074863613 -1.9156918366 2.8636962083
H 0.1460900016 0.1780602850 1.9400841927
H 2.8697377905 -0.5717033049 0.7608343625
H 2.2970457214 1.0748279481 1.0803661955
H 2.5434261648 -0.0579503669 2.4137917461