20

C -0.0270746512 1.5735060150 -0.1342252566
C -0.0270611896 0.0710582448 0.0132167434
N 1.2977343796 -0.6081034888 -0.1189321961
C 0.6020873519 -0.6361071599 1.1391187480
C 1.1398674282 -0.3240031464 2.5409034514
C -0.2268901997 -0.7519606773 3.1241297696
C 0.2026825012 -1.8056964504 2.0636853614
C -0.3698221390 -3.1487116595 1.7395501575
O 1.5816481558 -1.7386265082 2.6356668628
H 0.8595619781 2.0040210750 0.3383665032
H -0.0202187708 1.8614865131 -1.1908328210
H -0.9172091380 2.0126492539 0.3296447368
H -0.8760965607 -0.4348186180 -0.4481534442
H 1.2156857540 -1.4936797802 -0.6132567580
H 1.8351238587 0.4436997007 2.8758802337
H -0.1829543861 -1.1098316201 4.1535012312
H -1.1026747101 -0.1320147524 2.9141738696
H -1.3922695613 -3.0455137162 1.3624726113
H 0.2340391550 -3.6526797702 0.9778625822
H -0.3923153060 -3.7809353749 2.6318669537