19

C 0.0626610407 1.5666693816 0.0058855984
N -0.0018270832 0.1357671914 0.2195778252
C -1.2423956246 -0.5061218647 0.7063874851
C -0.3611599492 -1.5048847008 1.5227349510
C 0.7878680882 -0.5303214751 1.2598384083
C 2.2580082009 -0.7712616610 1.2336372955
C 1.6492005527 0.1310406759 2.2986748548
C -2.0983827831 0.3374306676 1.5536685572
N -2.7583155552 1.0292778132 2.2044227246
H 1.0758647038 1.8348193155 -0.3096560729
H -0.6188460415 1.8420392993 -0.8051741920
H -0.1989348072 2.1633158338 0.8943654102
H -1.8592366444 -0.9320538165 -0.0917647764
H -0.6532544610 -1.6599831380 2.5606567337
H -0.2537820084 -2.4640530495 1.0132182800
H 2.6243106255 -1.7496780550 1.5280083688
H 2.8359641808 -0.2977781671 0.4460987392
H 1.8347858408 1.1965973068 2.2151501302
H 1.5968635944 -0.2305363974 3.3207573293