17

C -0.2993096318 1.4441237053 0.1217362610
N 0.2509109532 0.1038854536 -0.0819196237
C 0.8081684237 -0.4938672628 1.0685358362
C 2.2855924849 -0.4118943768 1.4697936780
O 2.2531315406 -1.7903544388 1.9492433056
C 0.9065182652 -1.9130021136 1.5344423791
C 0.0006098133 -0.9669083479 2.3125548186
C 0.2935882505 -0.5515563982 3.6525807905
N 0.5405994080 -0.1881478760 4.7234620150
H 0.4999115377 2.1208204506 0.4394669249
H -0.6952921917 1.8164992296 -0.8262336593
H -1.0971165732 1.4856241082 0.8801006499
H -0.4251230035 -0.5054880929 -0.5259366145
H 2.9380082480 -0.3247720037 0.5967748989
H 2.5768208135 0.2913021322 2.2548568894
H 0.5683235779 -2.8625250464 1.1333047556
H -1.0554553463 -1.0940127224 2.0903685046