21

C 0.0247399185 1.5364755925 0.0385858947
C 0.0530494536 0.0249306073 0.0507326825
C 0.8816013250 -0.8022212521 -0.9831056693
C 0.7218564053 -1.9298300930 0.0723145112
C 0.8174827819 -0.8033679050 1.1363232098
C -0.7938180150 -2.1989976624 0.0270319306
C -1.3178099324 -0.7216961481 -0.0393119648
C -2.2818240102 -0.3680529729 1.0626011804
O -3.3494041394 0.1670321979 0.8964384861
H 1.0386396114 1.9483342061 0.0683034065
H -0.4653643112 1.9130309151 -0.8665056754
H -0.5251088210 1.9374000392 0.8973937722
H 0.4569744517 -0.9568097262 -1.9801900126
H 1.9097923603 -0.4394559912 -1.0621855007
H 1.3795130642 -2.7986409169 0.0931853537
H 1.8384723180 -0.4374254401 1.2703970479
H 0.3526502635 -0.9653855354 2.1129603892
H -1.1038146969 -2.7766371479 -0.8475346246
H -1.1468043313 -2.7279463665 0.9192232037
H -1.8156625732 -0.4937767643 -0.9861812960
H -1.9402865628 -0.6382976163 2.0898622749