16

O 0.1054804345 -0.0498690701 0.0692835032
C 0.0177168709 1.1441312833 0.0494030323
N -1.1189323672 1.9211145186 0.0761500622
C -0.8323558444 3.3001278172 -0.2661052425
C 0.6887822289 3.3497179823 0.0311205000
O 1.1052450664 1.9806766698 0.0244771178
C 1.4654575503 4.1551506004 -0.9847515843
C 2.6396882083 3.6213459185 -1.6824931858
O 1.3670064836 3.7181277339 -2.3354150395
H -1.9812991844 1.4750201265 -0.1912473567
H -1.0271099268 3.5188590863 -1.3233710564
H -1.3918813076 4.0056701930 0.3541854169
H 0.8765958792 3.7584642924 1.0323142498
H 1.3808442292 5.2349055271 -0.8462906130
H 3.4020951448 4.3075959671 -2.0468091154
H 2.9658912043 2.6095753238 -1.4609947485