17

C -0.9066861638 1.2284795598 0.5712967777
O -1.2863614451 -0.1279206341 0.4580756255
C -0.5027105613 -0.8482307048 -0.4622804921
C -0.9791677096 -2.2952849903 -0.5624387155
O -0.3634285006 -3.1007953559 -1.2062126160
C -2.3012364976 -2.6707146304 0.1650297707
O -2.8408014670 -3.8457781872 -0.3345123891
C -2.0311372454 -2.7890092085 1.6622832824
O -2.1773945819 -3.8463971747 2.2251892092
H -1.5743558475 1.6925947885 1.2999065140
H 0.1319228060 1.3283076443 0.9193586831
H -1.0034599102 1.7524820962 -0.3909041883
H -0.5599020749 -0.4090612612 -1.4726905110
H 0.5608989498 -0.8559754472 -0.1754981085
H -2.9893819776 -1.8223738883 0.0280440342
H -2.7296305759 -4.5083598441 0.3656933770
H -1.6951013873 -1.8745704719 2.1794071267