21

C 0.0367733764 1.5212115763 -0.2828908549
C 0.0260392449 0.0408082110 0.1260302148
C -1.3656618313 -0.5305874558 0.1682863798
C -2.1080037214 -1.0166401220 -1.0773034653
C -1.9400251603 -1.9860975932 0.0393538375
C -1.1841393195 -3.2783892078 -0.0622763495
C -3.0218434900 -1.6865970205 1.0938944493
C -2.3692793353 -0.2887540061 1.2505478253
O -2.4735623172 0.5690401926 2.0855527006
H 1.0561492874 1.9189471381 -0.2876161446
H -0.3850043432 1.6561730632 -1.2842938107
H -0.5591637785 2.1126381800 0.4176554436
H 0.6399517334 -0.5454008981 -0.5695350974
H 0.4872143671 -0.0644272464 1.1156164115
H -3.0879930644 -0.6216566012 -1.3340799986
H -1.4517030956 -1.1534993101 -1.9328668678
H -0.3225534116 -3.1840103988 -0.7309926928
H -0.8187557636 -3.6052129950 0.9174129511
H -1.8236428967 -4.0753880698 -0.4599428788
H -4.0641609424 -1.7357195461 0.7634745785
H -2.9132618683 -2.2548045504 2.0232094283