14

C 0.0985190763 1.4494248314 0.0234731890
C -0.0900004157 -0.0213702320 0.0042488983
C -1.1674591000 -0.8283518809 -0.1986317823
C -0.6811632543 -2.1824283520 -0.0861062898
C 0.6493626762 -2.0371563339 0.1747986528
O 1.3185555010 -3.1638434132 0.3207246152
N 0.3421217958 -4.2006520365 0.1405320634
C -0.8060750955 -3.5964185028 -0.0935195198
O 1.0747142541 -0.7786852114 0.2432865982
H 0.8149411411 1.7735125238 -0.7398428451
H -0.8567994606 1.9416347695 -0.1711739307
H 0.4726916525 1.7947667619 0.9938345875
H -2.1687950990 -0.4824503557 -0.4003452895
H -1.6714207419 -4.2237856083 -0.2567207471