19

C -0.0409438867 1.6074557628 -0.0379403158
C 0.0440681621 0.0852397689 0.0276072374
C 0.7639221803 -0.5586604665 -1.1786206034
C 1.4944361673 -1.8023357941 -0.6220439204
C 1.5853542578 -1.5001144189 0.8523165633
C 0.8150306581 -0.4736248213 1.2083329805
O -1.3273344262 -0.4592092564 -0.0228496633
C -2.1195802900 -0.3529947178 1.0513059408
O -3.2491641224 -0.7508419257 1.0602099458
H 0.9632467233 2.0401405887 -0.0652741072
H -0.5824885623 1.9206731675 -0.9354153080
H -0.5608222746 2.0175026160 0.8336287339
H 0.0516805862 -0.7836606928 -1.9741981241
H 1.4958316274 0.1532276091 -1.5715449685
H 0.9254981028 -2.7257424804 -0.7909319210
H 2.4760079346 -1.9537140621 -1.0833671030
H 2.2001318421 -2.0795197327 1.5327907219
H 0.7147120217 -0.0804940520 2.2133461956
H -1.6369762113 0.1284892478 1.9211744854