16

C -0.0593438494 1.5244728404 0.0158588545
C -0.1118164156 0.0239128026 0.0537710402
N 0.3319267571 -0.7234931385 -1.2054089209
C -0.8205505217 -1.6202250918 -1.0178395421
C -0.8092140825 -2.1028616823 0.4180220755
O 0.3776288822 -1.9615990787 1.1791301232
C 0.7760439097 -0.6522792851 1.1094662020
O 1.6890892379 -0.2063489312 1.7356082050
C -1.4379665871 -0.7843430414 0.1004206025
H 0.9761712581 1.8564764039 -0.1021133319
H -0.6604146379 1.9203484350 -0.8087618369
H -0.4399154251 1.9456053546 0.9512472833
H 0.1371573259 -0.1091995988 -1.9936074729
H -1.2543430268 -2.1913900769 -1.8302445333
H -1.3886088950 -2.9693413957 0.7049410611
H -2.4373355698 -0.4525749861 0.3538740008