16

C 0.0215997299 1.4977907026 -0.0440508158
C -0.0149519101 0.0052003771 -0.0000728619
N -0.0584561059 -0.7449624634 -1.1033882540
N -0.0865241412 -1.9862868828 -0.6334934686
N -0.0663047209 -2.1232816059 0.6836585855
C -0.0244838963 -0.8613898122 1.1191751764
C 0.0489932629 -0.5187717984 2.5760755934
C 1.4691812718 -0.1052083218 2.9395259108
O 1.7860413448 0.9982182017 3.2994214143
H 0.8132757811 1.8944145229 0.5988088768
H 0.1925810598 1.8390657175 -1.0666603885
H -0.9236302215 1.9290757092 0.3054210028
H -0.1249706463 -2.7832111587 -1.2478207198
H -0.6249806547 0.3028288334 2.8334281389
H -0.2194433737 -1.4054335573 3.1605433103
H 2.2220576203 -0.9153908039 2.8154406693