19

C -0.1459959847 1.5652395041 -0.0225948000
C 0.0268104032 0.0480547957 0.0140441448
C 0.9293285011 -0.5250365823 -1.0877183530
C 2.3230663204 -0.6265703479 -0.5375652068
C 2.2892133566 -0.1239653151 0.9082011707
C 0.8289217428 -0.5384963371 1.2150327322
C 0.8825819611 -2.0207893701 0.7826430164
O 0.5536579415 -3.0055330940 1.3882378140
C 1.4465077865 -1.8800144749 -0.6001951084
H 0.8127943764 2.0911716911 -0.0067405590
H -0.6697707973 1.8677031872 -0.9361180502
H -0.7384393569 1.9137202190 0.8296711108
H -0.9647830073 -0.4210937430 -0.0209627332
H 0.7365544558 -0.3592247904 -2.1401687260
H 3.1983709474 -0.5424517929 -1.1678955374
H 3.0053910713 -0.6418951686 1.5544454593
H 2.4672492153 0.9516515350 0.9916946995
H 0.4435076279 -0.3583603800 2.2154842584
H 1.6442404988 -2.7162990659 -1.2548258621