17

C 0.0493155007 1.5475411130 -0.2472624653
C 0.0098881609 0.0562430200 -0.0050077566
C 1.2281166592 -0.8059035556 -0.1658059105
C 0.6442310326 -0.6011515450 1.2182930149
C 1.3633784997 0.1584046968 2.2547786582
N 1.0270793623 0.0655203722 3.5187176608
O 1.8923502365 0.8714381911 4.2062389614
N 2.7822949447 1.4736700635 3.3680167047
C 2.4778781909 1.0495327266 2.1742636192
H 1.0077647631 1.9888485811 0.0393602503
H -0.1072054252 1.7660404435 -1.3088798039
H -0.7332214284 2.0618989632 0.3201356353
H -0.9292469674 -0.4084123830 -0.2933567898
H 1.1342392693 -1.7895345113 -0.6118372269
H 2.1670365490 -0.3087042538 -0.3885593736
H 0.0833774630 -1.4290202089 1.6369238927
H 3.0488017992 1.3701794665 1.3174764490