19

C -0.1645787966 1.3860007026 -0.1464674762
O 1.0757737978 0.6788744573 -0.1383286138
C -0.1406688690 -0.0783840006 -0.0418253107
C -0.3835335288 -0.7704381119 1.2567554836
C -1.5258894544 -1.7531710314 1.3929049343
C -0.1070046004 -2.2520552286 1.4281788954
C 0.4343086960 -3.0842651492 0.3064344188
C -0.2311176429 -4.3184849393 -0.1360548600
O -0.3153506774 -3.1201825548 -0.9117587482
H -0.3686945642 1.9832505122 0.7421884222
H -0.4310173913 1.8597784268 -1.0907069059
H -0.3736982663 -0.6575699513 -0.9336079494
H -0.1668764357 -0.1514000596 2.1229184457
H -2.1059634367 -1.7496669362 2.3084689095
H -2.0898925116 -1.9742770783 0.4928977998
H 0.2937887747 -2.5381748649 2.3974939474
H 1.5117264937 -3.0113502113 0.1510921825
H 0.3515916996 -5.1211093065 -0.5848840909
H -1.1577376964 -4.6224075249 0.3479984960