22

C -0.1114283680 1.6247422833 -0.0224176967
C 0.0647783049 0.1108974496 0.0091016747
C 1.0247333884 -0.6368679963 -0.9823182441
C 1.5652745262 -1.4952920847 0.2098390258
C 1.4401494728 -2.9993757193 0.1241464793
C 2.8194072956 -0.9606530319 0.9327465909
C 2.9240845614 0.5044483106 0.9468245334
N 1.9888095520 -0.1214612118 1.9053441698
C 0.7422328646 -0.6313094908 1.1977894738
H 0.8267753890 2.1714234418 0.0958235040
H -0.5616137313 1.9389712620 -0.9707497806
H -0.7783751553 1.9495089833 0.7836407824
H -0.9307669575 -0.3384690077 -0.0905705573
H 0.5078843753 -1.2182722685 -1.7506755412
H 1.7724304361 -0.0135904363 -1.4800169494
H 2.1429705167 -3.4133717428 -0.6097005504
H 1.6529695998 -3.4701384296 1.0905319275
H 0.4310113757 -3.2975952142 -0.1800412893
H 3.6189548510 -1.6026479806 1.2946963480
H 3.7824160641 0.9329822686 1.4576589243
H 2.5693024770 1.1010078942 0.1162785107
H 0.0810730215 -1.0678453888 1.9490913144