12

C -0.0130086471 1.3080624283 0.0097552936
C 1.2872274109 1.7970596366 -0.0006560971
C 2.0174725138 3.0029945688 -0.0015602268
N 3.3272318245 3.0088224109 -0.0147258174
C 3.9429203248 1.7883868989 -0.0274264298
N 3.3924014409 0.6008125936 -0.0282244865
N 2.0519204353 0.6400316038 -0.0145324323
N 1.2911371184 -0.4537732283 -0.0126388127
N 0.0364845203 -0.0358904785 0.0022232122
H -0.9473095114 1.8455699786 0.0219752521
H 1.4993476473 3.9588661211 0.0087171040
H 5.0270704822 1.7924100563 -0.0383361093