19

C -0.2183583059 1.4212330902 -0.0411832827
N -0.2631548738 -0.0271964618 -0.1699226660
C 0.4888271218 -0.5682187151 -1.0219735251
N 1.3890151630 -0.1122510548 -2.0089936217
C 1.8249688948 -1.4593504060 -2.3885577249
C 2.8601546181 -2.1179337593 -1.4606763949
O 1.8379044689 -2.5514516334 -0.5390666537
C 0.7698859582 -2.0296340241 -1.3789982846
C -0.3498716344 -3.0004043254 -1.6081203508
H 0.5175020052 1.7191947473 0.7181527782
H 0.0325855325 1.9405745384 -0.9789401064
H -1.1930273420 1.7848682148 0.2972340293
H 2.0108970231 0.6792092125 -1.9092585978
H 1.8615380037 -1.6570257491 -3.4598519002
H 3.3828501862 -2.9752933627 -1.9035847811
H 3.5922358425 -1.4443355788 -0.9988525290
H -0.8726605718 -3.1768152233 -0.6628040239
H -1.0718716704 -2.5938996583 -2.3222775323
H 0.0291390704 -3.9558201712 -1.9809273224