25

C -0.8429647406 1.7168156297 -1.2174414216
C -1.2041997975 0.2450863042 -1.3453769592
O -1.0699408076 -0.3507979054 -0.0671257802
C -1.5727636503 -1.6693345285 0.0628517870
C -0.7905653669 -2.6819210529 -0.7852684603
C 0.7193680569 -2.6600600919 -0.5324757318
C -1.6931530691 -2.0658141113 1.5585094712
C -3.1146464600 -2.6197699978 1.2741620134
C -3.1224530933 -1.8335052036 -0.0645166799
H -0.9223010596 2.2168892746 -2.1875844980
H -1.5120304990 2.2160611581 -0.5108111923
H 0.1821485285 1.8284343530 -0.8524277930
H -2.2362491363 0.1350991096 -1.7139264127
H -0.5448946132 -0.2422206802 -2.0800803661
H -1.1917426357 -3.6820269363 -0.5800902483
H -0.9935633829 -2.4941961284 -1.8473949924
H 1.2338785781 -3.3832525859 -1.1724667133
H 1.1359441677 -1.6689382401 -0.7309603526
H 0.9547893934 -2.9101997159 0.5071331289
H -0.9461063478 -2.7547603516 1.9598888877
H -1.7160354871 -1.1654983691 2.1764705604
H -3.1200412613 -3.7022051280 1.1219696851
H -3.8954273947 -2.3733200170 1.9962808413
H -3.6192710033 -0.8651968437 0.0386639187
H -3.5083998282 -2.3416626116 -0.9524487819