16

C -0.0810089435 1.5416995857 0.0390925746
C 0.0728492479 0.0399015563 0.0592577317
C 1.3465018149 -0.6848934748 -0.2427325525
O 2.5545880929 0.0451883985 -0.1166641446
C 2.6254801344 0.4048580208 1.1931425667
N 1.7175071311 0.0156668957 1.9926808485
C 0.7704546405 -0.7364104308 1.1892832003
C 0.1383455623 -1.8746213684 1.7826304478
C -0.4063676036 -2.8351625466 2.2582007182
H 0.7796886709 2.0540675077 0.4724374953
H -0.1993647110 1.8959814020 -0.9900777815
H -0.9668788392 1.8411093704 0.6068890554
H -0.7915586518 -0.5075773706 -0.3066780252
H 1.4201249949 -1.5117520349 -0.9369275731
H 3.4835624907 1.0132554252 1.4509583572
H -0.8808816315 -3.6816046962 2.6891666112