22

C 0.0961426283 1.5813090446 0.0253575399
C 0.0432571153 0.0517457238 0.0026830912
C 0.7103280885 -0.5258336247 -1.2583593111
C 0.6827887842 -2.0597755402 -1.2546337112
N 1.2453737254 -2.5879092583 -0.0241756702
C 0.6632254326 -2.0952135709 1.2184297406
C 0.6877877973 -0.5626301911 1.2574399911
C 2.2876460741 -3.4634775199 -0.0107403747
O 2.8110632987 -3.9278649877 0.9814131017
H 1.1328428708 1.9374762929 0.0412409855
H -0.3896726501 2.0101781305 -0.8574925927
H -0.4058054462 1.9813506266 0.9126016813
H -1.0144909808 -0.2544608085 -0.0122422206
H 0.2090463745 -0.1550017001 -2.1600310572
H 1.7537028382 -0.1866321289 -1.3054081355
H -0.3565177829 -2.4072080158 -1.3623311443
H 1.2492296713 -2.4662321974 -2.0982783450
H -0.3746741797 -2.4527271592 1.2950849198
H 1.2348544820 -2.5366353647 2.0359472074
H 1.7293120845 -0.2237010543 1.3345685664
H 0.1704069881 -0.2150394172 2.1590841861
H 2.6200043959 -3.7151507095 -1.0381385884