21

C 0.1176793223 1.5218795906 0.1407655003
C 0.0237897560 0.0008552109 -0.0042271928
C 0.6581309796 -0.5179512265 -1.2912341484
O 2.0366600359 -0.1354443746 -1.3107669459
C 2.8175519269 -1.1287830507 -1.9608150764
C 2.0188681781 -2.4059492427 -1.8472338115
O 1.5615609811 -2.6578994995 -0.5122639905
C 0.6588991504 -2.0364107991 -1.4458304222
C -0.5983115268 -2.7833051592 -1.7900455177
H 1.1614714126 1.8447147834 0.1281635848
H -0.4020095318 2.0320867190 -0.6783402039
H -0.3339717937 1.8541225450 1.0803421421
H 0.5224969195 -0.4953572037 0.8350419263
H -1.0281964040 -0.3119936857 0.0119098442
H 0.1364630944 -0.0869869022 -2.1654721728
H 2.9822360176 -0.8906288325 -3.0251388168
H 3.7907343456 -1.1733857976 -1.4603329827
H 2.2559166147 -3.2771331881 -2.4528717592
H -1.3442722418 -2.6784355757 -0.9949546266
H -1.0384717562 -2.3984122322 -2.7159386839
H -0.3876081905 -3.8476780189 -1.9172067263