20

C -0.3438906776 1.4969901060 -0.1000963102
C 0.0126550141 0.0105668537 -0.0165046124
C 0.9733326663 -0.4768147282 -1.0871134005
C 1.7742703861 -1.6311843678 -0.5540139379
C 2.4186489174 -0.2758769001 -0.6462188356
C 2.3183887470 -0.2088689622 0.8918919557
C 3.3978360330 0.2334270120 1.8280634470
C 0.8659227613 -0.3430661084 1.1854241845
N 1.6917139657 -1.5740738193 0.9570626986
H 0.5611475494 2.1126035466 -0.1234290118
H -0.9228746814 1.7130188116 -1.0038097831
H -0.9445775206 1.8094541732 0.7604295203
H -0.9043181024 -0.5926242139 -0.0236482930
H 0.7339139572 -0.4338394343 -2.1428699811
H 1.9672140078 -2.5712430522 -1.0527972349
H 3.2206038775 0.0904698330 -1.2716100499
H 3.5427030719 1.3189988732 1.7762123333
H 3.1415645322 -0.0292526896 2.8585420313
H 4.3520490915 -0.2469983117 1.5850262201
H 0.4892249436 -0.2346792016 2.1973887697