19

C -0.1547647823 1.4530259599 0.0044951084
O -0.1047353658 0.0410067978 -0.0457999233
C 0.6448732960 -0.5333913246 -1.1049992727
C 0.1138061195 -0.1416520107 -2.4885393680
C 2.1672322075 -0.2432176714 -0.9765409832
O 2.8408155200 -1.4306813531 -1.4132726152
C 2.0083772531 -2.5116586297 -1.3620994031
O 2.3784545874 -3.6125242649 -1.6426156410
C 0.6303585374 -2.0533873334 -0.9106243784
H 0.8457570357 1.9081590979 0.0405315433
H -0.7044706817 1.8865392451 -0.8413543013
H -0.6816862449 1.7097313046 0.9262588630
H 0.2340526272 0.9274443208 -2.6843771082
H 0.6593413431 -0.6808575715 -3.2693699600
H -0.9470491473 -0.3950304255 -2.5714508765
H 2.5184078773 0.5822560823 -1.5997233337
H 2.4229631837 -0.0434698271 0.0705936462
H 0.5129913935 -2.2819262415 0.1538644892
H -0.1511702194 -2.5789823652 -1.4604840753