17

C -0.0408861178 1.3870511109 0.0389214542
N -0.0099556255 -0.0409474739 -0.1873861250
C 0.5144100344 -0.6028804195 -1.2965895018
O 1.0201160121 -0.0115613321 -2.2348575701
C 0.4166528242 -2.1450676086 -1.2278191024
O 0.0053216097 -2.7122495446 -0.2326695292
N 0.7499781764 -2.7756893032 -2.3920949474
C 1.9713770990 -2.7035661613 -3.1540871025
C 1.5062778276 -3.9945570731 -2.5332295054
H 0.3895970629 1.8706034097 -0.8393788349
H -1.0674017762 1.7431629394 0.1775170645
H 0.5458826587 1.6630290878 0.9222847565
H -0.3640432487 -0.6917784229 0.4995778778
H 1.8533768412 -2.5419121016 -4.2211232229
H 2.8140077654 -2.1899473543 -2.7024743129
H 2.0204514328 -4.3593206334 -1.6478826245
H 1.0596371138 -4.7613792994 -3.1592735738