17

O -0.1040462760 1.3543385669 -0.0603820754
C 0.0087139202 -0.0529553964 -0.0762658091
C 0.2425836606 -0.5910749339 1.3754290728
O 0.7914330336 0.3332784310 2.2867798540
C -1.2803661720 -0.7529975808 1.4947666007
C -2.1366127772 -1.2623839583 2.5607249183
O -2.0171807659 0.1451768855 2.3031329617
C -1.4234807437 -0.6878274952 -0.0454698913
O -2.4570931623 0.0661230853 -0.5830347386
H 0.1659528031 1.6376400056 0.8270751659
H 0.6951522939 -0.3707199826 -0.8679863471
H 0.7684042253 -1.5532964988 1.3906256207
H 1.7518177901 0.2818399361 2.2328433513
H -3.1021604251 -1.6990233639 2.3092526501
H -1.6953279668 -1.5994340087 3.4979639488
H -1.4502752772 -1.6850189334 -0.4967631689
H -2.2367426705 0.9857578815 -0.3751762639