17

N -0.1922166849 1.2682530691 0.0375837328
C -0.2539223684 0.0244619400 -0.1583318754
O -0.9683802022 -0.7528190278 0.6863155520
C -0.9768412837 -2.1382712123 0.4242239693
C -1.7406079451 -2.8903908908 1.5302988732
N -2.9252017474 -2.9733032075 0.6455804919
C -2.1060567021 -2.6431962966 -0.5484684886
C -2.6842775186 -1.7138262800 -1.5008557661
C -3.1371216564 -0.9454203234 -2.3066378325
H 0.3902132205 1.7022186705 -0.6754479384
H 0.2352780358 -0.5376808514 -0.9646504639
H 0.0298475934 -2.4915625559 0.1833970282
H -1.2695270898 -3.8505571791 1.7792630274
H -1.9045551374 -2.3169104911 2.4465744286
H -3.3925584008 -3.8718860491 0.6074047960
H -1.7353205408 -3.5302323224 -1.0855286498
H -3.5495862820 -0.2563928923 -3.0018021246