16

O 0.1651419657 0.2005104028 -0.5632323971
C 0.0161013827 1.2434286594 -0.0132038087
C -1.1366099585 2.1695721089 0.3739944940
C -0.0196446936 3.0417100810 0.9834683736
O 0.9817510337 2.0506073726 0.5299698845
C 0.2216912016 4.3990735504 0.4101483326
C -0.3167000595 5.6113608212 1.1359191481
C 1.1652744976 5.3516232008 1.1009003084
H -1.6661338537 2.6059314806 -0.4751343291
H -1.8551903092 1.7327875229 1.0689597700
H -0.0167405937 3.0677544172 2.0774726692
H 0.2045757383 4.4320926796 -0.6759169218
H -0.7187151210 6.4213707690 0.5386825998
H -0.8387670869 5.4512636528 2.0736406036
H 1.6454524801 5.0140569522 2.0131718252
H 1.7880062664 5.9843259087 0.4793794077