25

C -0.2164836871 1.5705256831 -0.0478548361
C 0.0513271057 0.0617830557 -0.0020468573
C 0.8657238665 -0.4686963614 -1.1628553252
C 1.6750463536 -1.4555971486 -0.7904142617
C 1.5453375672 -1.7845613416 0.6875404824
C 0.6128489612 -3.0058767437 0.8620764057
C 2.9025358294 -2.1143116220 1.3290304991
C 0.8387682794 -0.4867950135 1.2373486654
C 1.8137044823 0.5435769448 1.8207323003
H 0.7088811660 2.1522908937 -0.0870189081
H -0.8012628357 1.8213402160 -0.9395567467
H -0.7896534335 1.9030964471 0.8241544957
H -0.9337004766 -0.4304870485 -0.0254091761
H 0.7465268686 -0.0962205653 -2.1755524991
H 2.3249965203 -2.0246266394 -1.4483642511
H 1.0154591369 -3.8846919597 0.3463492111
H 0.5026112182 -3.2630873814 1.9220315280
H -0.3831163968 -2.8091864164 0.4539364757
H 3.6335601225 -1.3147425678 1.1851630301
H 2.8048987436 -2.2970143528 2.4051033336
H 3.3162861554 -3.0246977399 0.8805254230
H 0.1353222240 -0.7644404031 2.0313783015
H 2.5482570953 0.8756136252 1.0793958696
H 1.2789929682 1.4280871706 2.1782529214
H 2.3611745955 0.1305862389 2.6720879090