19

O 0.0797957043 1.4172693575 -0.0134951883
C 0.0186867845 0.0237812275 -0.0497226372
C -1.4232075011 -0.4630193825 -0.0356185698
N -2.3382373575 0.4315572135 -0.0067143282
C -3.7276974709 -0.0081318574 -0.0029612599
C -3.9291759929 -1.4283474804 0.5463879230
O -5.2278609143 -1.9322584071 0.2838548490
C -2.9468648661 -2.3830931336 -0.1320778700
N -1.6131907137 -1.8147558352 -0.0343214316
H -0.8572234896 1.6908331890 0.0018163486
H 0.5107457641 -0.3703098871 -0.9559447085
H 0.5466680199 -0.4186407164 0.8117900640
H -4.3174297950 0.7040995944 0.5887652298
H -4.1347224906 0.0259867105 -1.0238016890
H -3.7169008759 -1.4272797039 1.6269675084
H -5.8658824382 -1.3554542302 0.7156003553
H -2.9687083369 -3.3592590017 0.3608932061
H -3.2621810279 -2.5278079615 -1.1752727519
H -0.8170798421 -2.4150272553 -0.1697042399