14

F -0.1598336729 0.0990545586 -0.1852624223
C -0.0206104598 1.4263022250 -0.0204015163
F 1.2871881088 1.6992757865 0.0048759194
F -0.5423424634 2.0178243369 -1.1086035304
C -0.7089730355 1.8938944483 1.2403032547
C -2.1967357592 1.4797436842 1.4482309420
C -1.8618625636 0.9193637905 2.8645002992
C -0.3747117627 1.1245470626 2.5494329471
O 0.6479051160 0.7878896666 3.0615265668
H -0.5287009281 2.9670137075 1.3502339194
H -2.9151185679 2.2978232316 1.4139377208
H -2.5078355052 0.7010907234 0.7507357670
H -2.1949149607 1.5562724549 3.6903541937
H -2.1547226058 -0.1101910366 3.0840964191