23

C 0.5395627710 1.6669877651 -0.4599462841
C 0.0610461476 0.2522060007 -0.1075172054
C 0.6384340196 -0.8165513612 -1.0530468541
O 1.8514549264 -1.2875889137 -0.4583105185
C 1.9762274381 -0.7582117016 0.8569396206
C 0.5838447324 -0.2533606898 1.2493271519
C 0.5243101774 0.6250305515 2.5292390344
C 0.0686944833 -0.6216661072 3.3358617996
C -0.2681939611 -1.3281448685 1.9959027766
H 1.6320183466 1.7242605671 -0.5075177006
H 0.1521054772 1.9715982617 -1.4375036561
H 0.1971761996 2.4007380830 0.2766018079
H -1.0340319510 0.2327968925 -0.1274042795
H -0.0553691714 -1.6608875047 -1.1726223578
H 0.8610129145 -0.4194343416 -2.0509754605
H 2.3508489994 -1.5478153767 1.5188717825
H 2.7092761701 0.0646102851 0.8708070764
H 1.4508618631 1.1179352096 2.8378264393
H -0.2623694236 1.3832205635 2.4681050386
H 0.9006436669 -1.1000424529 3.8596442910
H -0.7489492157 -0.4845141391 4.0468559742
H -1.3308608295 -1.2473529400 1.7459963456
H 0.0361830893 -2.3717700427 1.8797702378