20

C 0.0945955568 1.5802243066 -0.0076343166
C -0.0143601915 0.0588586088 -0.0596000353
O -1.3744559577 -0.3529673352 -0.2574496848
C 0.7434622693 -0.5789910942 -1.2524132879
C 0.7540546846 -2.1108788635 -1.1344378514
O 0.1135815611 -0.1734484778 -2.4657227356
C 2.1971686643 -0.0779944391 -1.2497728073
N 2.5851508554 0.5457373488 -2.3864412596
O 2.9176794085 -0.2553609032 -0.2821300394
H 1.1186986205 1.8850160322 0.2214991710
H -0.2047917481 2.0207348607 -0.9626660438
H -0.5520757662 1.9818818578 0.7813015250
H 0.3834350609 -0.3738320129 0.8664735751
H -1.9363238425 0.1751217073 0.3169403285
H -0.2656647253 -2.4826879679 -1.0094870890
H 1.1806514369 -2.5464842250 -2.0419396844
H 1.3583799772 -2.4172738413 -0.2776028094
H -0.8355992367 -0.2266553007 -2.2900782530
H 1.9249032192 0.6786570519 -3.1333967688
H 3.5273273635 0.8915222867 -2.4551808933