20

C 0.0675232403 1.4655480775 0.0688208228
C -0.0270260857 -0.0263801912 -0.0656798061
N -0.0654588465 -0.5964448202 -1.1981260150
C -0.1009372120 -2.0545157935 -1.2614528203
C 0.3228291551 -2.7130428719 0.0362756431
C 0.5860895365 -4.1902747141 0.1084623090
C 1.7358665373 -3.2139633033 0.1994400494
C -0.3348037755 -2.0175500112 1.1977444223
O -0.0581387203 -0.6096802020 1.1691144286
H 0.9545470009 1.7357503339 0.6508275956
H 0.1228732740 1.9186998263 -0.9199123195
H -0.8021596191 1.8552200795 0.6077241644
H -1.1196918044 -2.3664945105 -1.5358889183
H 0.5457731614 -2.3758425818 -2.0866733332
H 0.2943099594 -4.7247272286 1.0073956129
H 0.4743227039 -4.7682362867 -0.8034665409
H 2.4053917066 -3.1320046728 -0.6503413761
H 2.2207618668 -3.0837897505 1.1615272950
H -1.4248927239 -2.1562876131 1.1695558616
H 0.0325976753 -2.3776173659 2.1624929748