14

N -0.1109673069 1.2748323634 0.5232615937
C 0.0333570402 0.1066790890 0.0385368246
N -1.1215564215 -0.6849582342 -0.0894642986
C -1.5532739084 -1.5240789218 -1.1013312089
O -2.7030810041 -1.9212216646 -1.1201243184
C -0.6122078679 -1.9303997221 -2.1729099791
C 0.7219990721 -1.8098904216 -2.2067015771
C 1.5793778122 -1.2387113255 -1.1697461389
N 1.2973854666 -0.4415662287 -0.2132305571
H 0.8096662417 1.6762237997 0.7010912112
H -1.8911891249 -0.3423672705 0.4739589845
H -1.1277041934 -2.4392595084 -2.9805110588
H 1.2536516088 -2.2360249147 -3.0538246858
H 2.6282027056 -1.5395067000 -1.2332634914