18

C -0.4764932647 1.3989446880 -0.0340974406
C 0.2165616845 0.0543132962 -0.0672207190
O 1.5442414285 0.1045728253 -0.6307253607
C 2.0517984399 -0.8040880442 0.3630373340
C 0.7851211495 -0.6027008525 1.2377777974
C 1.0383400922 0.3506667240 2.4227617279
O 1.8789337756 -0.2367987590 3.3916591486
C 0.1099768932 -1.8014993601 1.7119118563
N -0.4238313472 -2.7402533230 2.1266834290
H 0.1044480674 2.1486457078 0.5074807926
H -0.6128565659 1.7543738084 -1.0600565584
H -1.4655147412 1.3097940914 0.4266361480
H -0.4025557234 -0.6711410626 -0.6142366485
H 2.1709478541 -1.8221607423 -0.0263835631
H 2.9885122524 -0.4636045220 0.8125777851
H 1.5686423382 1.2319907417 2.0528868563
H 0.0810892704 0.6807586924 2.8500515414
H 1.3999528367 -0.9625068597 3.8084503736