22

C -1.1611446343 0.4670533598 -0.1066212041
C 0.3259258053 0.1212480489 -0.1865641908
O 1.0913639766 1.2570657869 -0.5892650673
C 0.9124833374 -0.4384768800 1.0905535608
C 0.1594088320 -0.8078037595 2.3058924009
N 0.9611492832 0.4304170673 2.3500242812
C 2.3813754793 -0.0306449388 2.5568314362
C 2.3974525326 -0.8138627196 1.2154045432
C 2.8098508692 -2.2795479358 1.1822535626
H -1.3536909037 1.1644511010 0.7164145030
H -1.4693254354 0.9459978756 -1.0391322474
H -1.7750485993 -0.4261272802 0.0457347021
H 0.4804871802 -0.6160013635 -0.9856125900
H 1.0886194615 1.8559018565 0.1687616599
H -0.9090382316 -0.6225755025 2.3204515697
H 0.4735060916 -1.6552893146 2.9123304347
H 3.0596403537 0.8241510160 2.5919706154
H 2.5095997279 -0.6229239288 3.4703912335
H 2.9614618337 -0.2513699114 0.4672310240
H 2.2603799117 -2.8775864652 1.9167406682
H 2.6303570218 -2.7167073335 0.1937632196
H 3.8778600565 -2.3877711685 1.4011734247