16

C 0.0721975123 1.5414271227 0.0090621811
C -0.0045832133 0.0032078984 0.0028957701
C -1.3733889512 -0.4969741817 0.0128218083
C -2.5162114937 -0.8862671486 0.0209917067
C -3.8443566740 -1.3491300568 0.0303347336
C -5.0742633587 -0.7128655001 0.0423824843
N -6.0586057837 -1.6474485636 0.0474199981
N -5.5229975916 -2.8363660665 0.0393546064
N -4.1913659611 -2.6682923887 0.0291059322
H 1.1164725301 1.8658279788 0.0012103474
H -0.4262334803 1.9591633596 -0.8694509770
H -0.4104902868 1.9513049609 0.8999818780
H 0.5164704254 -0.3888516165 -0.8802247507
H 0.5320143911 -0.3966720823 0.8731070359
H -5.2846523200 0.3436193095 0.0474368055
H -3.5815506044 -3.4708038751 0.0216586401