16

O 0.0103181082 1.4301407459 0.1125023373
C -0.0215030243 0.0115235241 0.1041341907
C -1.4313233394 -0.5103641663 0.0701742560
N -2.3934653447 -0.1969213474 -1.0432302279
C -3.1466009037 -1.0677110088 -0.0869214701
C -1.9121761400 -2.0093919807 0.1447021856
C -2.0943194003 -1.8718800450 1.6514579734
O -1.9677588149 -2.5260522288 2.6417868458
C -2.5153778003 -0.4710232236 1.2289378334
H -0.1816397677 1.7310799953 -0.7813368663
H 0.5398803641 -0.4009941571 -0.7465083521
H 0.4683376748 -0.3238772707 1.0247592356
H -2.7195450726 0.7695193299 -0.9493068148
H -4.1791478385 -1.3804638281 -0.2345665293
H -1.5898050659 -2.8239462203 -0.4984415627
H -2.8469736047 0.4050770416 1.7817271053