19

C -0.2990414545 1.4684604137 0.0218665735
C -0.0261262552 -0.0305337878 -0.0149312778
C 1.2794667907 -0.4562122066 -0.7318258659
O 1.8763993348 -0.9072666266 0.5104025550
C 0.6552321611 -0.6568323016 1.2029761139
C 0.7520212609 -0.3253189196 2.6697765453
C -0.6432055587 -0.1237451401 3.2457095950
O -1.1212152649 -1.3655638971 2.6554866872
C 0.1961260694 -1.6706082516 2.1907661105
H 0.5691423532 2.0169706728 0.4020079797
H -0.5220865832 1.8437020768 -0.9828582169
H -1.1559689317 1.7047679142 0.6595309671
H -0.9143773476 -0.5785591145 -0.3377117844
H 1.1797726780 -1.2771035143 -1.4511848877
H 1.8597911832 0.3565068789 -1.1830168876
H 1.6947564755 -0.0760350161 3.1382935863
H -0.6740475721 -0.1857753144 4.3399419402
H -1.2217138951 0.7451332323 2.9126136954
H 0.5587581763 -2.6902477784 2.2606857611