16

O -0.5171191989 1.2905074910 -0.3472169153
C -0.1390082043 -0.0157469736 -0.0054328573
C -0.2766152268 -0.4648334501 1.4223469044
C -1.2529828252 -0.9463988166 0.3648957447
C 1.0357258182 -0.5014553743 -0.8866101729
C 2.2827587162 0.3461092451 -0.6085279798
O 3.3543573041 -0.0852893585 -0.2891851420
C 1.3135454322 -1.9275330728 -0.7495130296
N 1.5027637113 -3.0606361542 -0.6317721354
H -0.0846145030 1.9067653094 0.2528066056
H 0.4429536774 -1.1759570373 1.8128806194
H -0.6303006832 0.2693645836 2.1381519119
H -2.2435501042 -0.5074995883 0.3614799330
H -1.1988921244 -1.9833592650 0.0557790098
H 0.7386104295 -0.2963213219 -1.9253084478
H 2.0947091913 1.4337937937 -0.7273592188