16

O 0.0064231796 1.4004890352 0.0264896171
C -0.0185359628 -0.0097488527 0.0061528651
C -1.4309965037 -0.4855934851 0.0173997684
C -2.5557230652 0.2444349636 0.0531745253
C -3.7330727752 -0.6554908133 0.0333087581
O -4.8994999237 -0.3750622696 -0.0382319173
N -3.2424446479 -2.0293016784 0.0973863743
C -2.5789391920 -2.4506997120 -1.1496190534
C -1.7845303382 -1.9355358634 0.0091944957
H 0.9234541812 1.6885754894 0.0453923818
H 0.4858864485 -0.4186549200 -0.8873960448
H 0.5046639624 -0.4434439062 0.8770030772
H -2.6337252352 1.3208701886 0.0240647172
H -2.6104063972 -3.5180052761 -1.3503699750
H -2.6775664272 -1.8061166751 -2.0196734008
H -1.2095450835 -2.6317014749 0.6144182011