16

O -0.0075990752 1.4450407252 0.0582328199
C 0.0147940229 0.0377548774 0.0655260205
C -1.3859003870 -0.5409224194 -0.0507627578
C -1.5794751291 -1.2603530266 -1.3331817583
C -0.1246314956 -1.7034909751 -1.6637746685
C -0.2994981928 -2.6679920524 -0.4561168885
N -1.5896803585 -2.0180564934 -0.0347966293
C 0.6845102177 -0.5034933688 -1.2190807556
O 1.5928303276 0.0549026791 -1.7781702600
H 0.7545151457 1.7199484375 -0.4713018610
H 0.5439765778 -0.3394021815 0.9560857954
H -2.2008571687 0.0013003124 0.4128363586
H -2.4270718855 -1.2004919013 -2.0043414953
H 0.1390900884 -2.1099092534 -2.6367327466
H -0.5241219140 -3.6854287757 -0.7802524948
H 0.4865738764 -2.7003245040 0.3054487112