14

N -0.1355594171 1.3426945562 0.0084557914
C 0.0134200931 0.0730951467 0.0009554460
N -1.1324579992 -0.7337042573 0.0036077458
C -1.0814073670 -2.0818992378 -0.0035529431
C 0.1230014427 -2.7293276303 -0.0139990163
C 0.1578499241 -4.1975328191 -0.0216778351
O 1.1527493755 -4.8808290887 -0.0308677965
N 1.3084729661 -2.0110244376 -0.0173869156
C 1.2491357015 -0.7253202677 -0.0104661263
H 0.7697838829 1.8095336159 0.0055410832
H -2.0143173998 -0.2392691865 0.0113737792
H -2.0292512792 -2.6083425405 -0.0006337215
H -0.8601946723 -4.6555041575 -0.0178260267
H 2.1843776886 -0.1654944657 -0.0131536244