20

C 0.0413149755 1.5653693452 0.0177915757
C 0.0603667636 0.0387299132 -0.0089847738
C 0.8435546654 -0.5744539422 -1.2019502422
C 1.2732133991 -1.9614888705 -0.7320556068
C 2.5206008181 -2.0493245214 0.1324317577
C 1.1784573858 -1.9964573595 0.7848976561
O 0.8027071388 -3.1390252718 1.4954696585
C 0.6706177221 -0.6255371069 1.2508136526
H 1.0577238797 1.9668284256 0.1065769065
H -0.3986456725 1.9746372794 -0.8981940195
H -0.5408830145 1.9453717680 0.8641743447
H -0.9750942828 -0.3198735058 -0.0912669286
H 0.2252612671 -0.6187051990 -2.1036999934
H 1.7138794168 0.0485277343 -1.4485858420
H 1.0148151412 -2.8362444968 -1.3183871345
H 3.0230754328 -3.0101392050 0.1601722062
H 3.1773625474 -1.1859456107 0.1972870666
H -0.1526413494 -3.2377077975 1.4161505138
H 1.4873565246 -0.0160477309 1.6588605065
H -0.0639256886 -0.7438861476 2.0534270758