20

C -0.1170991242 1.6353501828 -0.0667705059
C 0.0373413001 0.1203817536 -0.0477636469
C 0.7279618044 -0.5871942932 -1.2248872826
C 2.1748147274 -0.2029029232 -1.3115745567
C 1.7630855620 -1.2158980311 -0.2787992096
C 1.1089439671 -0.5302566878 0.9069320526
O 1.9683487817 0.3590467872 1.6143607551
C 1.7513769617 0.5360245054 2.9300303310
N 2.4113307372 1.3980993031 3.5746084126
H 0.8353972508 2.1430097418 -0.2359581632
H -0.8101874128 1.9375945521 -0.8590591794
H -0.5172742470 2.0003821543 0.8850552963
H -0.9338992174 -0.3433197005 0.1542143079
H 0.2106707681 -1.0617782132 -2.0493682991
H 2.7120840766 -0.6188551342 -2.1575633134
H 2.5208441308 0.7791542205 -1.0064450649
H 2.1645542664 -2.2214480093 -0.2677472549
H 0.6540449611 -1.2344501898 1.6118930980
H 0.9843328285 -0.1370746249 3.3405333232
H 2.1376347274 1.3792723364 4.5548119000