15

C -0.0536598923 1.5998259921 -0.0127159261
C 0.0548176928 0.1054737570 -0.0282156458
C 0.6719924696 -0.9107230536 -0.9525659120
O 1.1515800234 -1.7120826239 0.1525123037
C 0.6648108947 -0.7665872121 1.0521622452
O 0.8149146902 -0.7378287551 2.2274565936
C -0.8255091118 -0.8264459134 -0.9102565938
C -1.6686806181 -1.8653678853 -0.3948522762
C -2.3880385555 -2.7273014249 0.0335337401
H 0.8913532424 2.0590646956 0.2930861387
H -0.3162049459 1.9844243961 -1.0024861291
H -0.8278451271 1.9224795438 0.6904000691
H 1.3126227861 -0.8200450119 -1.8188317807
H -1.2442523741 -0.2671330846 -1.7462110474
H -3.0135822445 -3.4943970399 0.4185128508