22

C -0.1172216066 1.5066153331 0.1098524875
N 0.0860646882 0.0692217193 0.1951353343
C 1.3333544802 -0.5720560762 -0.1654730848
C 2.5744726095 0.2415986119 0.2462243005
C 2.0496161177 0.2514803867 1.7147008207
C 0.8248524959 -0.5814447168 1.2617948329
C 0.1571774134 -1.6589397315 2.0687544565
C -0.7208333719 -1.0951638438 3.1831336681
O -1.2569554799 -2.1912354226 3.9088165881
H 0.7402347567 2.1239165966 0.4129295085
H -0.3689332405 1.7641198492 -0.9239213963
H -0.9689376458 1.7801681327 0.7409561285
H 1.3076822010 -1.3537882897 -0.9187279971
H 3.4969725279 -0.3335023345 0.1417469990
H 2.7128129523 1.2080899035 -0.2480887481
H 2.6999912559 -0.3097024771 2.3897285122
H 1.8411238168 1.2249970579 2.1690073899
H -0.4633480559 -2.2744505600 1.4100460168
H 0.9124991307 -2.3141873242 2.5196850087
H -0.1214286640 -0.4406025492 3.8375517658
H -1.5176993738 -0.4771653938 2.7406647066
H -1.8353722081 -1.8443192114 4.5940378318