22

C -0.1697918371 0.5772302948 -2.1682715204
C 0.1009180907 -0.4928343599 -1.1077084703
O 0.9813840894 0.0102811689 -0.0998036179
C -1.2073729485 -1.0830108245 -0.5727969489
C -1.2775456031 -2.2259515753 0.4966034936
C -0.0280281076 -2.7689038741 1.1832998790
C -2.2094419461 -1.2877345274 1.2697438625
C -1.5640062517 -0.0022646938 1.5751620776
N -2.1373799262 -0.1902074637 0.2177641820
H 0.7730973051 1.0001534277 -2.5258216339
H -0.7106820626 0.1620005045 -3.0237656964
H -0.7842703972 1.3826771710 -1.7493574245
H 0.6548216803 -1.3216122111 -1.5695681320
H 0.7016628133 0.9089268362 0.1027743743
H -1.7745046490 -1.3939766004 -1.4572356673
H -1.8454878152 -3.0651994160 0.0836306906
H 0.6169394032 -1.9718321748 1.5564866972
H -0.3053008060 -3.4178236477 2.0217261462
H 0.5657524678 -3.3701951431 0.4859037514
H -3.1590397308 -1.5785292151 1.7082281628
H -2.1384928371 0.7154068260 2.1533202777
H -0.4916612816 0.0467472676 1.7158597668