14

N 0.0626189946 1.3801168644 0.2450377145
C -0.0260511173 -0.0016096881 0.0808712512
N -1.1083723290 -0.7230507118 0.1142374519
C -0.6764258335 -2.0540679364 0.0111286488
C -1.5033926150 -3.1945812518 0.0028387487
C -2.1517479590 -4.2125458300 -0.0117875609
C 0.6924114974 -2.0756656427 -0.0994502597
O 1.5933299748 -3.0647480312 -0.2380619296
N 1.1129702947 -0.7707684782 -0.0578877073
H 0.5209072103 1.8473811276 -0.5304172758
H -0.8706514840 1.7585066576 0.3570665145
H -2.7436335911 -5.0934863371 -0.0228280252
H 1.1022590203 -3.8966876539 -0.2550171799
H 2.0694577167 -0.4632081282 -0.0018669613