17

O 0.6292486685 0.5837567829 1.0815997620
C 0.0882065402 -0.3740829536 0.2183589798
C -1.4600113698 -0.4578426947 -0.0143783614
C -2.2175287705 0.8793789854 0.0083554291
O -2.9609440771 0.9337326574 -1.2031059178
C -2.1863545159 0.3469854389 -2.2425910201
C -1.2254313094 -0.6404543013 -1.5497304931
C 0.2012851282 -0.1237397300 -1.2874048433
O 0.9827588861 0.5263824592 -1.9238957646
H 1.1515769560 1.1897850017 0.5414448172
H 0.4672770600 -1.3760077628 0.4693199340
H -1.9777491049 -1.2533503277 0.5191128345
H -2.9256499342 0.9606116815 0.8355113756
H -1.5119720900 1.7216690937 0.0814960376
H -2.8737341257 -0.1453063775 -2.9359519529
H -1.6192501090 1.1090864918 -2.7970307993
H -1.2691576626 -1.6603860349 -1.9337780374