17

C 0.1909835180 1.4358029819 0.3494614586
C -0.1097011856 -0.0310447292 0.0087628523
O -1.5093572278 -0.2687771743 -0.1128643940
C 0.6203823745 -0.4629077148 -1.1886636028
C 1.1936335980 -0.7884007827 -2.1969710047
C 1.8907193065 -1.2365848050 -3.4110142032
O 2.2799106987 -2.6044264208 -3.3413035396
C 1.0834939797 -0.9521779203 -4.6083589871
C 0.4249935193 -0.7497764075 -5.5923721641
H 1.2585546155 1.5820082749 0.5373360611
H -0.1016950697 2.0891435393 -0.4787910439
H -0.3728833713 1.7221959703 1.2408371554
H 0.2005516055 -0.6585252876 0.8531331546
H -1.8048981477 0.1557751042 -0.9261813980
H 2.8393313347 -0.6904908262 -3.4948666568
H 1.4749794464 -3.1256839970 -3.2382979794
H -0.1526760549 -0.5660087153 -6.4646477283