15

C -0.0374257527 1.5839820236 -0.0082903247
C 0.0016441149 0.0761198278 0.0443917726
C -1.2058617288 -0.6835703604 0.6842179871
O -1.0297147926 -2.0780683155 0.4554690654
C -0.3117549279 -1.4876875642 1.5375322905
C 0.9355242878 -0.7764193095 0.9344819516
O 1.5023480433 -1.4282726780 -0.2338813289
C 0.6826317534 -0.7156562508 -1.0926443082
O 0.6598354675 -0.7620135297 -2.2772364385
H 0.9511625626 2.0004210389 -0.2219995574
H -0.7199545101 1.9163632153 -0.7971243228
H -0.3871435362 2.0026581342 0.9411154550
H -2.2122213200 -0.3126139826 0.8395034324
H -0.4421083327 -1.9168177590 2.5234939114
H 1.6882870416 -0.3696394801 1.6068325245