23

C 0.4903439049 1.8912558030 1.5124715228
C 0.5086435786 0.3808391473 1.2038663446
C -0.8178266532 -0.1777739393 0.6165340764
C -2.0616339869 -0.0573976594 1.4972132756
C -2.8614463724 1.2288672053 1.3652197684
C -2.8757182196 -1.3149097966 1.7175569018
C -2.0486011403 -0.7470695585 2.8443121912
C 1.6119785136 0.0608943047 0.2973797751
C 2.5044617388 -0.1930591129 -0.4676462468
H 1.4794021054 2.2242442816 1.8380712667
H 0.2159755432 2.4689425786 0.6242472460
H -0.2220481650 2.1151174472 2.3097196274
H 0.6937642613 -0.1456343941 2.1502187289
H -1.0055737509 0.3124358397 -0.3468970652
H -0.6390525624 -1.2334926517 0.3872852280
H -3.2090165219 1.3629137059 0.3338548565
H -3.7452298093 1.2061307674 2.0107965861
H -2.2811321935 2.1157974862 1.6341537230
H -3.9549389050 -1.2182258983 1.7756542764
H -2.5379649738 -2.2353481757 1.2530465458
H -1.1567138415 -1.2912831921 3.1375799214
H -2.5629314855 -0.2690867187 3.6715153231
H 3.2999863854 -0.4222721894 -1.1323115233