15

C -0.0251269164 1.5195064435 -0.0613284547
C 1.5364400584 1.3363990588 0.0001040670
C 1.1331077584 0.1647404070 0.9698083449
N -0.1046415997 -0.0150861504 0.0678134572
C 0.6091664337 -0.3513433236 -1.1757084196
C 1.6655172595 0.4912523175 -1.2552998232
O 2.3933672127 0.2900223199 -2.3373439706
N 1.7741005580 -0.7823444898 -3.0509852729
C 0.7177157372 -1.1402191439 -2.3340683551
H -0.4503643209 1.9970722631 0.8257989187
H -0.4663052430 1.9195614075 -0.9754718434
H 2.2476106360 2.1247581345 0.2370670405
H 1.7821498358 -0.7104160846 1.0262578410
H 0.8306533174 0.4986784715 1.9662497681
H 0.1047079128 -1.9481341411 -2.7069428680