22

C -0.0462953284 1.5297437910 -0.1095337607
C -0.0125232532 0.0286528288 0.0469825739
N 1.3308531955 -0.6210111791 -0.1034831136
C 0.6392760823 -0.6574134637 1.1697970287
C 1.1707994768 -0.2536607636 2.5547759047
C -0.1897434039 -0.7675363526 3.1138711257
C 0.2444494460 -1.8492289151 2.0701638352
C -0.4845198282 -3.1045675252 1.6745639391
C 1.6857265759 -1.7199857743 2.6748087875
H 0.8235320485 1.9841580584 0.3717903767
H -0.0336055791 1.8130541376 -1.1676325862
H -0.9518446011 1.9501509147 0.3419575948
H -0.8479677842 -0.4968342217 -0.4169534411
H 1.2385268059 -1.5079659473 -0.5953821297
H 1.7000639386 0.6573965583 2.8304158948
H -0.1866217231 -1.0872618819 4.1598338388
H -1.0809207758 -0.1816606600 2.8729392557
H -1.4901125162 -2.8780999865 1.3027330362
H 0.0535653012 -3.6425959329 0.8851241832
H -0.5885706207 -3.7858742320 2.5256211723
H 2.5185367360 -2.0002940107 2.0256095962
H 1.8144103375 -2.1047828124 3.6909065678