20

C 0.0347082463 1.5669503450 0.0968306626
C 0.0879030540 0.0593807509 -0.0196174025
C 0.6481895700 -0.6691321057 -1.2200918026
C 1.3814157878 0.0459759231 -2.3314338102
O 2.4910799946 0.8557453789 -1.9029668017
C 3.0859234616 0.6092234558 -0.7016142195
C 4.3965703077 1.3326621642 -0.6097230026
N 2.6371103382 -0.0955501781 0.2536859836
C 1.3750767594 -0.7458052223 0.1010589112
H 0.8776444064 2.0561215726 -0.3940591072
H -0.8827232600 1.9519329544 -0.3622692203
H 0.0339472236 1.8746696259 1.1475766696
H -0.7696525287 -0.4371093427 0.4292214106
H 0.1142837834 -1.5503127555 -1.5642359947
H 1.7735761959 -0.6991303711 -3.0352572829
H 0.7312696622 0.7251943835 -2.8940316236
H 5.0814060064 0.9780078585 -1.3870368929
H 4.2528013470 2.4056136242 -0.7734101980
H 4.8357843977 1.1661220959 0.3730435314
H 1.3113186966 -1.6651903374 0.6741498997