18

C 0.1481895857 1.5148864208 0.0585145535
C 0.0324983618 0.0097577265 0.2951110151
O 0.1064247957 -0.3000520650 1.6867960257
C -1.2411631007 -0.5761647328 -0.3403555735
C -1.3173668572 -2.0706796390 -0.2855075978
N -1.6488113459 -2.7901714347 -1.3633331670
N -1.6144782332 -4.0409657661 -0.9211148610
N -1.2864140506 -4.2135694820 0.3513598486
C -1.0921012814 -2.9664231969 0.7802608083
H 1.0396589103 1.9066958963 0.5552048194
H 0.2136825588 1.7453953198 -1.0093850894
H -0.7277729100 2.0408651605 0.4594840558
H 0.9040603175 -0.4930198361 -0.1395778906
H -0.5878919584 0.1986121733 2.1329232879
H -2.1094147719 -0.1324106919 0.1696193628
H -1.3086762217 -0.2690286879 -1.3887452347
H -1.8211353551 -4.8199173745 -1.5246014864
H -0.7920170336 -2.7571362602 1.7924945433