21

O -0.0454878402 1.4237284468 0.0901719842
C 0.0132218203 0.0060357762 0.1236166121
C -1.4082302326 -0.5254812159 0.0006652374
C -1.4717781052 -2.0549364587 0.0018656043
C -2.8962752849 -2.5934619485 -0.0827176712
C -2.9987636031 -4.1323321132 -0.0738604079
O -4.1632244028 -4.3884253152 0.6947257375
C -4.1608303046 -3.3818959775 1.6730634644
O -3.6678591954 -2.2060159735 1.0633663901
H 0.8486818486 1.7644934490 0.1837724933
H 0.6316476007 -0.3865902005 -0.7013784432
H 0.4640562431 -0.3528616621 1.0638816007
H -2.0082496454 -0.1337346073 0.8281075545
H -1.8476251183 -0.1305426408 -0.9237282407
H -0.9005923707 -2.4565008369 -0.8474565825
H -1.0040586000 -2.4519861670 0.9126413014
H -3.3945298394 -2.1820098796 -0.9717205217
H -3.1341632303 -4.5699313607 -1.0648296558
H -2.1087020229 -4.5797294808 0.3978295782
H -5.1869211391 -3.2193666126 2.0178565104
H -3.5165579779 -3.6654288012 2.5260665145