16

C 0.2388549154 1.4265509590 -0.4238080077
C -0.0303269007 -0.0499058321 -0.0316969529
C -1.4572023865 -0.2881739326 0.1832373915
N -2.5836236567 -0.4490688190 0.3792651300
C 0.5412833849 -0.9915989213 -1.1085557864
O -0.1498363340 -1.6073168256 -1.8766670070
C 2.0694104102 -1.0436609243 -1.1922057085
C 2.5310900188 -0.3631510268 -2.4777278950
O 3.2357290729 0.6096695317 -2.4980170223
H 1.3063594648 1.5948054036 -0.5853652682
H -0.2984936218 1.6787563529 -1.3410225526
H -0.1033352201 2.0907957504 0.3720829295
H 0.4947407742 -0.2600702313 0.9087358579
H 2.5656854384 -0.5749636174 -0.3412612628
H 2.3436660283 -2.1028602365 -1.2524709447
H 2.1424506719 -0.8333723508 -3.4041393007