18

O 0.0164075031 0.0302240622 0.0602280472
C 0.0008649922 1.2315051808 0.0295340258
C -1.2537236681 2.1393737414 0.0210095455
C -0.6309595468 3.5552928018 0.0397691608
C 0.6144634313 3.3362717065 -0.8567100499
C 1.2069455149 2.1886010541 -0.0060161036
C 1.1845924720 2.7954614445 1.4059770209
N 1.3522528396 4.2663960814 1.4555011762
C -0.0056112474 3.6872265639 1.4325766907
H -1.8261732198 1.9505958168 -0.8938495349
H -1.9044821597 1.9100759828 0.8701953246
H -1.3008856177 4.3610737205 -0.2633147582
H 0.3474198942 3.0131049071 -1.8665972334
H 1.2676661086 4.2045793284 -0.9062507898
H 2.1370894238 1.7241066586 -0.3291081301
H 1.4808520250 2.1921887577 2.2564140971
H 1.5815062802 4.5281654656 2.4114070376
H -0.6421091054 3.7721941659 2.3072294934