18

C -0.4857719099 1.1665638007 0.0630150648
O 0.4204039062 0.0866554096 -0.1563325531
C 0.8267271974 -0.5174531352 0.9979623513
C 1.9762060301 0.0086422090 1.8833369373
C 1.9103879605 0.2843091802 3.3679819394
C 2.0457121690 -1.3597922038 1.2776851290
O 1.2532294627 -2.2888252293 2.0725922622
C 0.0884128841 -1.5916499485 1.7464024142
N -1.1137315829 -1.8549433187 1.9761489421
H -0.0180456389 1.9586250302 0.6632123852
H -0.7410881400 1.5624953911 -0.9215172506
H -1.3950046998 0.8197272640 0.5665734556
H 2.5568959848 0.7229823838 1.2997488124
H 1.3667407982 -0.5044097113 3.8920514931
H 2.9183792143 0.3355565500 3.7931981434
H 1.4116806887 1.2374361748 3.5686238288
H 2.8044901564 -1.7831652409 0.6343580561
H -1.2138285410 -2.7279963954 2.4970922687