12

N -0.0155194156 1.3212488955 0.0865144775
C 0.0025703489 -0.0308976271 0.0311951596
N -1.1890137588 -0.6555324638 0.0222617800
C -1.1293518301 -1.9666725209 -0.0007482363
F -2.2904729305 -2.6007993096 -0.0103964278
C 0.0388376918 -2.7177312548 -0.0178062121
C 1.1862941755 -1.9351923723 -0.0129823196
F 2.3640571794 -2.5375229562 -0.0349874293
N 1.2105325859 -0.6229116467 0.0095843786
H 0.8467648181 1.8184031448 -0.0495184323
H -0.8923885465 1.7947594687 -0.0403306375
H 0.0533927920 -3.7962995175 -0.0381640409