12

O -0.3660566235 0.5500091932 0.5744138196
C 0.3055256843 0.8317139462 -0.3826773165
C 1.4500521792 1.8079154329 -0.2629022036
O 2.4355116700 1.7815242737 -1.2796659683
C 1.6334029313 2.9499389373 -1.2296323884
C 0.6605874361 3.1664891376 -2.3819669198
O 0.2125203992 2.2630705864 -3.0296726829
C 2.2796780575 4.1550191874 -0.7455319375
N 2.7562549327 5.1458025813 -0.3902452806
H 0.1599208353 0.4008096028 -1.3881795098
H 1.8079356632 1.9731095391 0.7528952367
H 0.4047207547 4.2282863921 -2.5664495289