13

O 0.0372093683 1.3332287580 -0.0281672734
C 0.0483574456 -0.0178092039 -0.0470392037
C -0.0016434194 -0.6872557229 -1.2701181707
C 0.0113539053 -2.0762585851 -1.2565600898
C 0.0729918675 -2.7540843160 -0.0421609216
O 0.0874097219 -4.1139363844 0.0084594777
C 0.1182866434 -1.9609341678 1.1010774207
F 0.1779492655 -2.5967936923 2.2824910959
N 0.1076068333 -0.6510468604 1.1234619750
H 0.0774046690 1.5958186669 0.9008366454
H -0.0489205986 -0.1255323528 -2.1937117943
H -0.0256651768 -2.6483928333 -2.1766082521
H 0.1322174950 -4.3743812961 0.9362116410