14

C -0.0307314355 1.5128209886 0.0019209101
C -0.0073192963 0.0093859138 -0.0060253847
N -0.0403723203 -0.6333357700 -1.1761691299
C -0.0203626888 -1.9672507002 -1.2005105538
C 0.0343405140 -2.7236266308 -0.0387323180
F 0.0527150291 -4.0552356074 -0.1072805170
C 0.0701818849 -2.0976704091 1.1990952160
C 0.0480927738 -0.7151301068 1.1886202365
F 0.0803022966 -0.0498126816 2.3471304398
H 0.8596415925 1.9220507979 0.4913464849
H -0.0717927964 1.8752553058 -1.0255986585
H -0.8980206395 1.8943226595 0.5515576351
H -0.0483309572 -2.4587242114 -2.1684976101
H 0.1131107031 -2.6583302384 2.1242843194