14

C -0.0422689428 1.5768968795 -0.0682432873
C -0.0044250044 0.0479306405 -0.0319445736
C -1.3040510591 -0.5421664367 0.2591324075
N -2.3347544960 -1.0216613512 0.4713591301
C 0.7208962238 -0.6850601614 -1.1969316206
O 2.0448445984 -0.1902991531 -1.2048107847
C 1.7468814287 -1.2945092504 -0.3175592463
C 1.1052206505 -0.6396410030 0.8965195314
O 1.2578113752 -0.6829975625 2.0732005754
H 0.9350108791 1.9561500667 -0.3721158757
H -0.8015546739 1.9335004358 -0.7694274328
H -0.2802788613 1.9665375108 0.9247340570
H 0.2918561703 -1.0707662296 -2.1129545476
H 2.3415099315 -2.1941749154 -0.4127180327