20

C -0.2683468112 1.5040667324 -0.0195934576
C -0.0120171106 0.0019744690 -0.0063079870
C 1.1837529060 -0.5188585225 -0.9353966731
C 2.0292478761 -0.6941709241 0.3545007160
C 2.8100699240 0.3470701129 1.1615463461
C 2.0035530473 -0.4628651451 2.1763163478
N 2.3398183373 -1.8103419096 1.4494127994
C 0.8538506307 -2.1546200425 1.4281537694
C 0.7668093158 -0.6476201938 1.1995951491
H 0.6448811943 2.0852655983 0.1352234650
H -0.6930479107 1.8118233118 -0.9816495470
H -0.9788466026 1.7834511088 0.7651354932
H -0.9551970418 -0.5221595177 -0.1932820539
H 0.9423096832 -1.4505485234 -1.4517483599
H 1.5831695825 0.1909112940 -1.6657333416
H 3.8954736079 0.2168650111 1.2022232531
H 2.5382185418 1.3963604655 1.0339063328
H 2.0286276285 -0.4439861031 3.2711550822
H 0.5793861590 -2.8256033702 0.6060276723
H 0.4882081126 -2.5594957115 2.3783539836