19

C 0.0783457149 1.2367257347 -0.3431692130
O -0.1527593722 0.0488524120 0.3809259296
C -1.4240516017 -0.5349770534 0.2091171987
C -2.3616096227 -0.0020189595 1.2815929945
C -1.8807879845 -0.7765341464 -1.2771662629
O -0.7177970645 -1.6748668466 -1.4390661232
C -1.2958329409 -2.0522872907 -0.1300897410
C -2.6722162635 -2.0447397941 -0.8772930192
O -3.9207564873 -1.9354653522 -0.2549596426
H 1.0330897762 1.6394266275 0.0043573395
H 0.1509371561 1.0452828260 -1.4224177988
H -0.7002272950 1.9945988583 -0.1690657934
H -2.4640380448 1.0833350136 1.1743055626
H -3.3509641436 -0.4512963926 1.2403970408
H -1.9146265062 -0.1913923979 2.2624193504
H -2.0860158231 -0.0659002590 -2.0785946673
H -0.7931739501 -2.8404995439 0.4316629779
H -2.6713995806 -2.7724883414 -1.6938679066
H -4.2749194865 -2.8219786543 -0.1365741359