16

C -0.0887789071 1.5152343473 -0.0056489944
C -0.0669303224 -0.0148900599 0.0052681103
C 0.7550942990 -0.5596377006 1.1766157088
N 0.7938131996 -2.0137711899 1.2143436625
N -0.2497746870 -2.7652617099 1.6126644451
N 0.0400919320 -3.9788585203 1.5195286808
O 1.3609309689 -4.0889481631 1.0224383986
C 1.8456879837 -2.8231884058 0.8218704649
O 2.9289995124 -2.5236023044 0.4079585162
H 0.9212683496 1.9276326704 -0.1015846727
H -0.6817244062 1.8884851554 -0.8447124341
H -0.5267944117 1.9143870405 0.9155649658
H -1.0870798613 -0.4086568088 0.0765778640
H 0.3571994950 -0.3951167978 -0.9310113107
H 1.8006831741 -0.2472029558 1.1033834018
H 0.3577591812 -0.2079060072 2.1334890329