21

C -0.1413054350 1.5217200810 0.0351229201
C 0.0667803122 0.0043101601 0.0858044844
C 0.6555327572 -0.5627802246 -1.2006577511
C 0.9023471918 -2.0578343694 -1.3657405555
C -0.3436118599 -2.8256392700 -1.8952916890
C -1.6858489887 -2.1838637365 -1.8046635245
C -1.6093447338 -0.9283633807 -2.2608647597
C -0.1677783223 -0.6072554402 -2.5740807296
C 0.5057037868 -1.9986132979 -2.8204215680
H 0.8000995558 2.0462195463 -0.1653266481
H -0.8466455296 1.7992818254 -0.7560357694
H -0.5388866468 1.9030151132 0.9808289659
H 0.7487076223 -0.2452526714 0.9101436599
H -0.8806863123 -0.4953812633 0.3124162161
H 1.5970521157 -0.0485448939 -1.4276903282
H 1.7049111084 -2.6193436931 -0.9004807669
H -0.2362912851 -3.9044049000 -1.8946048565
H -2.5609642839 -2.6726041663 -1.3941632918
H -2.4043337040 -0.1926114366 -2.2546000968
H 0.0171870852 0.2124624323 -3.2664770300
H 1.0128028261 -2.3501278744 -3.7108468813