17

N -0.0022211031 0.8517900909 -1.1618986736
C 0.1215868809 0.0925131085 -0.1517334056
N -1.0547307428 -0.2732073835 0.5153364478
C -1.5082276117 -1.3033818263 1.3372157410
O -2.7062329130 -1.4713525571 1.4289415485
C -0.5600348462 -2.1185350116 2.2012544449
C 0.9191602492 -2.1969841491 1.8348798240
C 1.5455288688 -0.8314044545 1.5980070962
O 1.3201890130 -0.3641224533 0.2634105633
H 0.9174822919 1.0953429190 -1.5239221716
H -1.8423242442 0.1903350871 0.0767700792
H -0.6573841169 -1.6788274183 3.2036277143
H -1.0073653931 -3.1128837020 2.2714468705
H 1.4510165904 -2.6955680969 2.6528466793
H 1.0797996127 -2.8050938250 0.9377931962
H 1.1856775486 -0.0894558054 2.3227620974
H 2.6336473256 -0.8808739726 1.6747856683