21

C -0.0275890295 1.4707748710 0.0700974183
C 1.3120769849 0.7734356892 0.0074771700
C 1.9759438370 0.4125091070 1.3458854462
C 0.9954062620 -0.5482709119 2.0035719280
C -0.0378250044 -0.8042725588 1.2001591364
C -1.1881631164 -1.7792763369 1.1360733167
C -1.8008934630 -1.5341512742 -0.2772763494
C -0.6774132640 -0.8708800292 -1.1221435918
C 0.0341365950 -0.0337529084 -0.0776164915
H -0.3634879841 1.8910743463 1.0141400355
H -0.3137734245 2.0410507072 -0.8094374863
H 1.9402780007 0.9591711800 -0.8565438915
H 2.9481129105 -0.0757703865 1.1897402517
H 2.1786730747 1.3031757654 1.9560706081
H 1.1712629351 -0.9740917322 2.9852297471
H -0.8259014490 -2.8090748009 1.2385873191
H -1.9282823916 -1.6309255376 1.9294773841
H -2.1875518116 -2.4497917697 -0.7326134960
H -2.6407449019 -0.8361465501 -0.1919751316
H -0.0062580844 -1.6394746879 -1.5265351712
H -1.0718888054 -0.2971542517 -1.9651471520