18

O -0.0645442833 -0.0160345069 0.4012785394
C -0.0188097464 1.1790547572 0.2187693986
C -1.2296158092 2.0955672626 -0.0297227746
C -0.6460028522 3.5134774822 -0.1752827618
C 0.8570351355 3.3238653905 -0.0420957356
C 1.1783267085 2.0371562068 0.1864066958
C 1.8254772583 4.4271967175 -0.1438416503
C 1.6205529141 5.5498406108 -1.1141677141
N 1.4970101639 5.7964818799 0.3195545989
H -1.7552196117 1.7604295548 -0.9285603190
H -1.9345815468 2.0036765766 0.8009775215
H -0.9048298555 3.9727050460 -1.1362829110
H -1.0259294353 4.1900222873 0.6000385085
H 2.1772971418 1.6450049208 0.3312179441
H 2.8516234693 4.1446065212 0.0747099466
H 2.4931137105 5.9917711870 -1.5865039351
H 0.7258532557 5.5401339681 -1.7297430224
H 0.5156282229 5.8483791678 0.5816424406