14

O -0.0331682784 0.0017624112 -0.1124689782
C 0.0406528741 1.1964170973 0.0760985592
N 1.1959872372 1.8778271133 0.2863199849
C 1.5542744555 3.2654307113 0.0068856488
C 2.7614565119 2.8893946673 -0.7800149919
C 2.9332046804 3.4867258656 0.6446391618
C 3.3891768451 2.1245372140 1.0926850747
O 4.2199874483 1.7259379480 1.8512361822
C 2.5759213602 1.4798089242 -0.0665583366
H -0.8394335290 1.8686125718 0.1368961290
H 0.8334859460 4.0629716027 -0.1159225707
H 3.2036570822 3.2025970776 -1.7138219573
H 3.3046705200 4.4636599161 0.9210275971
H 2.7332254365 0.4801915494 -0.4562927331