15

C 0.0803953661 1.5196938426 0.1888847400
C -0.1407756697 0.0223841430 -0.0858536839
C 0.6520198276 -0.4835060659 -1.2482018417
N 0.1037470806 -0.8758701656 -2.4012398084
N 1.1370788223 -1.2281158850 -3.1497216219
N 2.3450867226 -1.1053592302 -2.5893030398
C 2.0501164051 -0.6334352718 -1.3859235737
O 2.9777020375 -0.3503743618 -0.4499418239
H 1.1353551994 1.7265368950 0.3914400547
H -0.2239203328 2.1233249872 -0.6715411218
H -0.5022045962 1.8435523432 1.0566574471
H 0.1279804737 -0.5501479930 0.8103383483
H -1.1983101457 -0.1743380584 -0.2850129805
H 1.0232052330 -1.5789067632 -4.0850870938
H 3.8438958266 -0.5537651762 -0.8236964506