21

O 0.0864050763 1.4156489156 -0.1066047982
C 0.0862032759 0.0144414536 0.0493467308
C -1.3519316164 -0.5290432312 0.0442515071
O -2.0240924904 -0.0106783094 -1.1181258039
C -1.4282357159 -2.0243394990 0.1411195529
C -1.8674679031 -2.7190139829 1.1926645040
C -1.7455337881 -4.2102268687 1.0017698011
C -1.4721489616 -4.3396631025 -0.5181191012
C -0.9300293611 -2.9552682517 -0.9543704282
H -0.6031490439 1.5943967532 -0.7604137661
H 0.6654768844 -0.4800190680 -0.7514232341
H 0.5739570923 -0.2203753816 1.0013563023
H -1.8854739005 -0.0781281077 0.8872541232
H -1.6870364187 -0.4839526829 -1.8875813222
H -2.2413136622 -2.2732560935 2.1088550840
H -0.9166799548 -4.6113322742 1.6027965979
H -2.6419032886 -4.7564262908 1.3158306493
H -0.7888171132 -5.1564972659 -0.7624247335
H -2.4143439690 -4.5376052578 -1.0384197133
H -1.2813318457 -2.6789513908 -1.9567509510
H 0.1679612343 -2.9449725938 -1.0034376110