17

C -0.0069758300 1.5204366326 -0.0198187088
C 0.0168482174 0.0067648981 -0.0996668991
C -1.2009627916 -0.6510385583 0.5191222335
C 0.6912795411 -0.7475359785 -1.1738558121
C 1.9418291668 -0.0726293740 -1.7310829678
C 2.4022221012 -0.0150666059 -0.2645416735
O 3.3664648353 0.3817254814 0.3118917502
N 1.2717618316 -0.7594755610 0.2568902649
H 0.8498556481 1.9970535083 -0.4988332160
H -0.9162331378 1.9004903814 -0.4971231456
H -0.0214425789 1.8378547283 1.0278435649
H -2.1089801967 -0.3426965727 -0.0104191451
H -1.1214502531 -1.7395531509 0.4792346405
H -1.3011301556 -0.3566465279 1.5682279864
H 0.2691574085 -1.6615605032 -1.5767677219
H 2.5714026437 -0.7526406189 -2.3111748178
H 1.8385182799 0.8692806610 -2.2744668426