21

C -0.2751085695 1.4341154340 -0.0009436076
C 0.0834870618 -0.0466976852 0.0368429154
O 0.9335079677 -0.2986542497 -1.0843702196
C 0.8673407161 -1.5969298547 -1.6413331802
C 1.3932172829 -2.7298014995 -0.7977840252
C 1.4156434218 -2.8561437219 0.5295162479
C 0.8883582728 -1.9357770547 1.6024714442
C 0.8469685709 -0.4258858999 1.3225507000
O 2.1478316993 0.1347862362 1.2804730384
H 0.6252185876 2.0377006372 0.1405770735
H -0.7266459440 1.6927885238 -0.9619041820
H -0.9835359606 1.6777020801 0.7966806782
H -0.8287753119 -0.6568708137 -0.0496939868
H -0.1721853758 -1.8188991269 -1.9449992632
H 1.4531665629 -1.5389342105 -2.5655209378
H 1.7761842426 -3.5610592715 -1.3882043505
H 1.8308521696 -3.7849445303 0.9174662254
H -0.1274481410 -2.2686289543 1.8702877040
H 1.4900896275 -2.0744109373 2.5076247399
H 0.3421440684 0.0453178025 2.1752925857
H 2.4563658111 -0.0057370135 0.3749744003