19

O -0.1034583843 1.3348132988 0.0891542440
C 0.0074052927 -0.0452923401 0.0238131490
C -0.3477555162 -0.8358320056 -1.2301794259
C -1.2569478950 -0.8729728193 -0.0189626500
C -0.6743995377 -2.2247024404 0.4347581465
C 0.2315063479 -1.8511018190 1.6211106163
C 1.0960666786 -0.8504912128 0.8172118322
C 1.6679300534 -1.7853072713 -0.2751136750
C 0.2941657607 -2.1821803709 -0.8449051245
H 0.5989486715 1.7202403615 -0.4457150781
H -0.5038881660 -0.3983016856 -2.2091926343
H -2.2488037629 -0.4630640238 0.1255993813
H -1.3437050717 -3.0772513034 0.5323188674
H -0.3337356167 -1.3785433183 2.4307352143
H 0.8125986749 -2.6850858822 2.0286559211
H 1.7982933756 -0.2315961296 1.3749758905
H 2.2795587568 -1.2629946962 -1.0189248493
H 2.2453102793 -2.6191352571 0.1375685329
H 0.2389672691 -3.0105173846 -1.5488630586