14

C -0.0080432085 1.5254997923 0.1215639611
C 0.0267211744 0.0414732055 0.0281461066
C 0.0081743835 -0.7432687986 -1.0895939586
O 0.0568138131 -2.0736564659 -0.6707259115
C 0.1004751232 -1.9804233155 0.6691511916
N 0.2110331570 -3.1408367552 1.3641248839
N 0.0822815788 -0.7658858992 1.1487960851
C -0.0518165294 -0.4682181329 -2.4628238534
N -0.1030396023 -0.2101008954 -3.5932145889
H 0.8856982042 1.8953861400 0.6344844763
H -0.0602472265 1.9815546868 -0.8691134123
H -0.8744292416 1.8500078229 0.7069338839
H -0.1028699088 -3.9800830298 0.9034451212
H 0.0013240529 -3.0708307050 2.3469438651