18

O -0.0093259747 0.0951269580 0.5531714684
C 0.0146133839 1.1961454513 0.0656324105
O -1.1475444054 1.7397022107 -0.3759707814
C -1.1980518934 3.0270385078 -1.0146447446
C -0.0542353141 3.9359823197 -0.5883945642
N 1.2335740497 3.2715292309 -0.7644409567
C 1.2614829851 2.0317087323 -0.0232203097
C 2.1171813008 2.0066973830 1.2441173146
C 2.5746007204 1.2866033693 0.0167416132
H -1.1699208847 2.8677631158 -2.1013397628
H -2.1770539835 3.4455587389 -0.7599727576
H -0.0808096896 4.8612177929 -1.1730590564
H -0.1601204081 4.2074386039 0.4686185850
H 1.3816709764 3.0814889357 -1.7526099648
H 2.5946461388 2.9471254005 1.4914691501
H 1.7495680599 1.4140532504 2.0724458799
H 2.5122303801 0.2057201164 0.0089149156
H 3.3809198986 1.7261224124 -0.5595246092