20

C -0.2505796792 1.5276224629 0.0847858699
C 0.0410594239 0.0435477559 -0.0094072395
N 1.0220664409 -0.4432441190 -1.0635797660
C 2.3173188405 0.3291959126 -1.0003399925
C 2.7396031500 -0.4040739709 0.2799114994
O 2.0346342514 0.1068053423 1.4363909000
C 0.8391358748 -0.6645001285 1.1143709957
C 0.1732163517 -1.2270531071 2.3388931335
C 1.5999048989 -1.4031472671 -0.0160384972
H 0.6021688843 2.0749997113 0.4930587076
H -0.4932920952 1.9340167943 -0.9029661875
H -1.1095395902 1.7057002474 0.7399597356
H -0.8871193616 -0.5124450533 -0.1945378160
H 2.9326684911 0.0433151829 -1.8606926208
H 2.2347702353 1.4179743770 -0.9635299055
H 3.7884669932 -0.6204747725 0.4964879674
H -0.1685353820 -0.4136372635 2.9887473690
H -0.6950677436 -1.8341754187 2.0641666651
H 0.8690704988 -1.8462548282 2.9123755622
H 1.6541576369 -2.4716017578 -0.2159419104