15

C -0.0617594454 1.5660598511 -0.0036201684
C 0.0826200713 0.0467419957 0.0571074383
C 0.6956945471 -0.5297032277 -1.2288447465
C 0.9976370689 -2.0015605326 -1.0835486150
O 0.8778432328 -2.8449427119 -1.9188209715
O 1.5001952834 -2.3561758364 0.1571323966
C 1.4965768634 -1.4254956775 1.1771886524
N 0.8798922820 -0.3311104281 1.2265316347
H 0.9169451787 2.0397833007 -0.1310812215
H -0.7027804917 1.8629765875 -0.8393571726
H -0.4994534865 1.9387190708 0.9254771852
H -0.9174694923 -0.3897966293 0.1999643826
H 0.0556181071 -0.3954266592 -2.1024050319
H 1.6476754195 -0.0187032021 -1.4294902090
H 2.1027421118 -1.7892549909 2.0022673165