19

O -0.0692760341 1.4299496639 -0.0406240383
C 0.0094890567 0.0115661529 0.0213648600
C 0.7443314820 -0.5114367433 1.2866201780
C -0.2388845491 -1.4204252784 2.1088603593
C -1.4287983444 -0.5319539263 2.4358358716
C -2.0562127242 -0.0592858090 1.3617100658
C -1.4606942164 -0.5301244750 0.0445749242
C -1.3271920279 -2.0436773570 0.0710399389
C -0.6919050752 -2.5076747165 1.1447637910
H 0.8282288381 1.7764794474 -0.0496902060
H 0.4989692750 -0.3733357030 -0.8837267749
H 1.6386731703 -1.0805388291 1.0169596070
H 1.0519394249 0.3424032338 1.8977077430
H 0.2500283630 -1.8203464904 2.9982955950
H -1.6768982510 -0.2826704770 3.4608118009
H -2.8888954183 0.6324392547 1.3827473264
H -2.0015090961 -0.1583184941 -0.8258457910
H -1.6992207356 -2.6541546902 -0.7431190862
H -0.4766401877 -3.5526964733 1.3351274154