18

O 0.0216115254 -0.1029528710 -0.2333066641
C 0.0725040925 1.0968730778 -0.1372817950
C 1.3433748955 1.8933328240 -0.0644532219
C 1.4358759824 3.0006313541 1.0121920524
C 2.0204769694 3.9192024668 -0.0756311800
C 3.4969586803 3.6567492363 -0.4288824339
C 3.0149585210 2.4441180127 -1.2498637365
C 2.6702119963 1.2007248342 -0.4097105376
N 1.5598568886 2.9487245974 -1.1759010137
H -0.8515945514 1.7187975402 -0.1095193866
H 0.4402141914 3.3340533386 1.3213677610
H 2.0324980700 2.7910811291 1.9039559211
H 1.6642428084 4.9503509792 -0.1112353193
H 3.8971167097 4.4443990862 -1.0721210520
H 4.2011490237 3.4774345289 0.3891762923
H 3.4521921620 2.2881158217 -2.2374668613
H 3.3393870231 0.9353898831 0.4128454837
H 2.4904192518 0.3141465206 -1.0213893186