20

C -0.6494756771 1.6398034725 0.0993396126
C 0.0043380484 0.2675497888 -0.0089425538
C -1.0314018695 -0.8562717760 0.0717263764
C 0.9388293905 0.1277620316 -1.2320736412
C 2.0832998510 -0.7431592385 -0.7129915174
N 3.3538531951 -0.5546808361 -1.3954353184
C 2.0862006446 -0.4138696729 0.7887689403
O 2.9856134576 -0.5841913792 1.5633516486
O 0.8993402741 0.1325586435 1.1414563925
H 0.1102158489 2.4253878881 0.1336860178
H -1.2952728148 1.8193019880 -0.7660568798
H -1.2590425585 1.7100961726 1.0046291480
H -1.7669512920 -0.7549987947 -0.7321812779
H -0.5619005799 -1.8403722559 -0.0180999625
H -1.5569989109 -0.8172022665 1.0295487180
H 0.4273562238 -0.2934864527 -2.0992986969
H 1.3305604139 1.1107249204 -1.5184354359
H 1.8164037983 -1.8052410956 -0.7972004208
H 3.6398054208 0.4179901612 -1.3055657864
H 4.0642194456 -1.0877196287 -0.8983843431