14

C 0.0081718615 1.4861432351 0.1346298462
O 1.2827882541 2.1206600212 -0.1035888108
C 2.1269823145 1.4638040788 -0.9074272694
N 3.1641818124 2.0435990519 -1.4503545767
O 3.8088060930 1.0022718901 -2.1469230958
C 3.1224357809 -0.1404180635 -1.9815641024
C 2.0319018610 0.0669655045 -1.2004664698
C 0.9442873549 -0.6970841143 -0.6338289622
C -0.0019300644 -0.0170270696 0.0234453608
H -0.2817566536 1.8019443583 1.1414247174
H -0.7247317683 1.9220850208 -0.5629918413
H 3.5294493047 -1.0091005626 -2.4762425165
H 0.9148439829 -1.7768575236 -0.7260201940
H -0.8488214035 -0.5180087072 0.4806986545