22

C -0.0275875775 1.5428149482 0.3081470283
C 0.0223106414 0.0461836715 -0.0104687581
C 0.7757748652 -0.2109838124 -1.3023822662
C 0.4263569451 -1.3816088591 -2.2028853204
C 0.1301464689 0.0333590192 -2.6332889291
O -1.1920826068 0.4974965814 -2.6166334775
N 0.7064249193 -0.6554074011 1.0817917644
C -0.0980763811 -0.9727124977 2.2552039901
C 0.3332250204 -2.0445087038 1.3157770185
H 0.9851260129 1.9485867946 0.3979343699
H -0.5557810186 2.0763760618 -0.4856613863
H -0.5475137831 1.7225699875 1.2544516875
H -1.0122378249 -0.3204760076 -0.1271371692
H 1.8296881764 0.0445950692 -1.2342428289
H 1.2223223047 -1.9296984477 -2.6953347653
H -0.4307352299 -1.9826176965 -1.9161610017
H 0.7490069607 0.4654190110 -3.4197085341
H -1.6601083376 0.0887366043 -3.3519204945
H 0.3901362071 -0.8447430150 3.2173406269
H -1.1531257855 -0.7011210883 2.2411075942
H -0.4369415560 -2.4832311391 0.6836422939
H 1.1446409888 -2.7188769006 1.5749681277