15

O 0.0411050200 0.0335895132 -0.4108595440
C -0.0155570710 1.1704378604 -0.0469982298
C -1.2597403211 1.9580304226 0.3708977707
C -0.7238064127 3.2359106060 0.9739456523
C 0.2362502133 3.1129954020 2.0974389449
N 0.7463772514 3.3716180396 0.7404252965
C 1.1992599545 2.1587810276 0.0473761393
C 2.3669595791 1.5414120630 0.6680534747
N 3.2803101965 1.0501749160 1.1766015545
H -1.8642771116 2.1480945158 -0.5240169415
H -1.8681022527 1.3542441888 1.0496521563
H -1.2907637952 4.1517429522 0.8446372781
H 0.3765616236 3.9361975571 2.7900245754
H 0.3975768323 2.1274929370 2.5317036926
H 1.4601316137 2.4302464885 -0.9848411600