21

C -0.2599797215 1.4789527544 0.1114592311
C 0.1016596086 -0.0044970108 -0.0428042897
C 1.0537981437 -0.2528038215 -1.1902458552
C 1.8018171932 -1.3519219971 -1.2763799055
C 1.7587850097 -2.4251373995 -0.2179793585
C 1.5351391095 -1.8466230082 1.1836994940
C 2.6535231066 -0.9375185816 1.7375457113
O 1.7834834531 0.2092830425 1.7626352235
C 0.6627122196 -0.5643893296 1.2699077582
H 0.6275182541 2.0564366765 0.3829539644
H -0.6652649389 1.8802449929 -0.8228026125
H -1.0109682336 1.6237868158 0.8948844579
H -0.8272255299 -0.5646305407 -0.2415172597
H 1.0953610381 0.4997694645 -1.9742158310
H 2.4530114697 -1.5062226935 -2.1323347154
H 0.9539968370 -3.1390795126 -0.4482100648
H 2.6847284427 -3.0129597670 -0.2255331781
H 1.2297937959 -2.6332372366 1.8768435234
H 3.0214137110 -1.1946985755 2.7389610628
H 3.5099483370 -0.7854682572 1.0680614377
H -0.1345390357 -0.6043145453 2.0250207761