16

O -0.0658654677 1.4328701906 0.0021585448
C -0.0354633912 0.0546022747 -0.0088574990
C 0.4881328667 -0.7694654397 -1.2190275526
C -0.4891277944 -1.8406373606 -0.7422880710
C -1.3126799675 -0.8662424983 0.0076102644
N -0.5220308333 -1.8741445459 0.7681050916
C 0.4326142158 -0.7886051411 1.2149853575
C 1.8312118838 -1.1302213660 1.3853206134
C 2.9997109206 -1.3877767207 1.5113010553
H 0.8199088443 1.7638153754 -0.1864029157
H 0.1467997453 -0.3254976156 -2.1575454457
H 1.5564111858 -0.9997597520 -1.2604064725
H -0.7848327262 -2.7562715301 -1.2362852510
H -2.3727470605 -0.6932296081 0.1299803678
H 0.0196689986 -0.3691234466 2.1373809028
H 4.0270719899 -1.6277105960 1.6339989099