17

C 0.0195639955 1.5965597891 -0.0501072926
C 0.0223198636 0.0661211102 -0.0026114311
O 0.7662515651 -0.2965776600 1.1569427013
C -1.4133845617 -0.5124313938 0.0373281049
C -2.1932192451 -0.0349939359 1.1744306810
N -2.8102482976 0.3390360126 2.0768742548
C 0.6867277722 -0.4586290890 -1.3021796610
N 1.9809848057 -0.8301793670 -1.1483887795
O 0.0764371408 -0.5030812746 -2.3542777928
H 1.0475165983 1.9675330829 -0.0343853119
H -0.4654857204 1.9438238561 -0.9648901204
H -0.5079365182 1.9975895020 0.8185542215
H 0.6188563368 -1.2309289489 1.3429706641
H -1.9133491547 -0.2602892459 -0.9013335449
H -1.3697094279 -1.6084075910 0.0740559065
H 2.4349581787 -0.6992321510 -0.2601669234
H 2.5127368791 -1.0894573958 -1.9627509064