22

C -0.2545587416 1.4867687900 0.1402741665
C 0.0678747471 -0.0045647826 0.0584836603
N 1.1679257229 -0.4139598174 -0.8511429512
C 1.5614770081 0.3821727317 -1.9882891912
C 2.1010317497 -0.6063803384 0.2652716942
C 0.9047471228 -0.5744243043 1.2398917590
C 0.9645177873 0.0158864815 2.6590283860
C 0.5083121273 -1.3841226592 3.1100892535
O 0.4687625332 -1.8512838591 1.7462547460
H 0.6234578066 2.0869985339 0.4023027654
H -0.6419871401 1.8574817827 -0.8140823018
H -1.0247465679 1.6668135034 0.8975495404
H -0.8525199002 -0.5754457872 -0.1201552990
H 1.9032791711 1.4036314515 -1.7356910380
H 2.3826187740 -0.1192567343 -2.5126876555
H 0.7274014882 0.4690464219 -2.6930847163
H 2.6740242758 -1.5405156051 0.2392251626
H 2.7955686249 0.2369822951 0.4297092019
H 1.9610028734 0.3172988283 2.9885008424
H 0.2629964926 0.8275446273 2.8592728672
H 1.2272587066 -1.9485420088 3.7160246270
H -0.4769209018 -1.4366631410 3.5887221405