11

F 0.0687270630 0.0696090491 0.0026338012
C -0.0659342590 1.3727146185 0.0113007532
C -1.2735356299 1.9802249535 0.0312338963
C -1.2264587289 3.3990834594 0.0378150718
F -2.3887483741 4.0327660739 0.0573118337
C -0.0692669243 4.1109894695 0.0253296445
C 1.1984175033 3.4440035640 0.0042253871
O 2.3076897862 3.8807000698 -0.0090634575
O 1.0907348448 1.9844617200 -0.0017549140
H -2.1982150970 1.4255086772 0.0412737569
H -0.0671570741 5.1913829551 0.0308312766