16

C 0.0729117526 1.5890470222 0.0225166020
C 0.0105883267 0.0509818519 0.0518077724
C 0.7378247487 -0.4925185833 1.1955425915
C 1.3373931886 -0.9384664731 2.1367521280
C -1.4624965124 -0.4758347334 0.0521222798
O -2.2037206230 -0.0031765739 1.1660903923
C -2.1286705271 -0.1674322570 -1.2168251520
C -2.6771826759 0.1219818855 -2.2469819731
H 1.1102238106 1.9270038381 -0.0276252782
H -0.4627362889 1.9752927116 -0.8494192540
H -0.3698328921 2.0068501207 0.9308713374
H 0.4712451658 -0.3341101795 -0.8675524267
H 1.8664818958 -1.3344250482 2.9678538270
H -1.4199554889 -1.5631286621 0.1777851219
H -2.4968602044 0.8924812775 0.9676927522
H -3.1702399562 0.3574281330 -3.1580625105