18

C -0.0237903081 1.4610381017 0.0037320697
N -0.0158055111 0.0056467315 0.0073637205
C -0.0599929395 -0.7733395172 -1.0994408475
C -0.0366566642 -2.1071329291 -0.7206509934
C 0.0245432443 -2.1467597324 0.6839841357
C 0.0687730540 -3.3831783966 1.5346749248
C 0.0371629703 -0.8161979198 1.1271449840
C 0.0934886594 -0.3231984116 2.4791551205
O 0.1017998821 0.8478262471 2.8234946423
H 0.8764261798 1.8542179208 0.4789676595
H -0.0698432873 1.7978175016 -1.0339883253
H -0.8845019972 1.8448226238 0.5539823740
H -0.1051629053 -0.3257149122 -2.0808158239
H -0.0614531626 -2.9549123171 -1.3884967981
H 0.9836867673 -3.4374232830 2.1346712750
H -0.7765038922 -3.4356488538 2.2293109327
H 0.0342108002 -4.2769527254 0.9062582722
H 0.1292894799 -1.1353268783 3.2369490072