17

C 0.0413822568 1.3348909246 0.1921741618
O -0.0348609597 -0.0089070813 -0.2786602665
C -1.1789858071 -0.6531875722 -0.0041046109
N -1.3287754941 -1.8484617151 -0.3850444883
C -2.5371656457 -2.5469526363 -0.1015864633
C -2.9754962509 -3.5641900957 -1.1521644037
C -2.3935559199 -4.0480611143 0.1364428779
C -3.5836430045 -1.8618304136 0.6282628609
N -4.3818675989 -1.2618789454 1.2140184659
H 1.0202309861 1.7078255844 -0.1099528864
H -0.7382039297 1.9599947017 -0.2581980959
H -0.0411813177 1.3800401435 1.2841834004
H -1.9237386658 -0.0691864458 0.5515224883
H -4.0393502328 -3.6811948054 -1.3195442797
H -2.3531436579 -3.5879434324 -2.0379310082
H -1.3710925905 -4.4044850981 0.1366401293
H -3.0518629577 -4.5022871087 0.8670603882