19

C -0.7884318752 1.2855294153 0.1958172170
C -0.1083216798 -0.0686368962 0.0185037463
C 0.6354603850 -0.4264857208 -1.3193947029
C 1.0223595218 0.7410561157 -2.2314110534
O 2.1148954626 1.3911451015 -1.5884819891
C 2.9388877981 0.3617069298 -1.0556469817
C 1.9632616131 -0.7020990852 -0.5258448352
C 1.2251350991 -0.2723132546 0.7546268368
O 1.5793794785 -0.1030007917 1.8858097891
H -0.1057053979 2.1028869731 -0.0528004978
H -1.6778237551 1.3710912421 -0.4368402154
H -1.0987438698 1.4124916679 1.2369116427
H -0.8000249423 -0.8745688564 0.2953611192
H 0.2003463488 -1.2614643347 -1.8684033879
H 1.3272902030 0.3604212793 -3.2198472421
H 0.2343302667 1.4839419778 -2.3771213230
H 3.5842512031 -0.0678768882 -1.8383739993
H 3.5690660580 0.7982963014 -0.2768633174
H 2.3791501324 -1.7111596161 -0.5128191757