23

C -0.1867836347 1.5779096487 0.2197251054
C -0.0668814880 0.0662302972 0.0208301457
O 0.8884882814 -0.4909320721 0.9266513607
C -1.4274229353 -0.6378934563 0.0978697890
C -1.3715416865 -2.1314462544 -0.2336300201
C -0.9955644105 -3.0720783649 0.9522436791
C -2.5058578117 -3.3574604839 1.1763304851
C -2.7601983555 -2.8305244304 -0.2606294363
O -3.8505318260 -1.9700789016 -0.5032092537
H 0.8009328950 2.0452982808 0.1770526552
H -0.8217883095 2.0318254065 -0.5476612998
H -0.6322708627 1.8073384167 1.1964355570
H 0.3670881321 -0.1257839751 -0.9692256318
H 0.6025044452 -0.2676460301 1.8195542445
H -1.8571605854 -0.4796545435 1.0976385154
H -2.1144614790 -0.1474639163 -0.6012497079
H -0.7813019193 -2.2690194961 -1.1455641911
H -0.4510940465 -3.9584949768 0.6167444084
H -0.4392494215 -2.6199023927 1.7726725253
H -2.8126051415 -4.3800196488 1.4117884037
H -2.9454496035 -2.6769911110 1.9115901757
H -2.7499820450 -3.6609585523 -0.9821398832
H -4.6591438018 -2.4909048737 -0.4769368561