17

O -0.0645411637 -0.2606000685 0.0372514217
C 0.2330274938 0.7744350511 -0.4997619051
C 1.1901340179 1.7969071823 0.1050567342
N 1.3367564133 2.9315702206 -0.7947774798
C 1.3407068233 4.3392235678 -0.5347594484
C 2.3092476427 4.8048208621 0.6155874986
N 2.9195262792 3.6049699326 1.2370473230
C 3.4429119781 4.1341631358 -0.0452667201
C 2.5010295368 3.6528080834 -1.2111661088
H -0.1744648124 1.0683365512 -1.4944753671
H 0.8035135049 2.0984847376 1.0829297092
H 2.1469896804 1.3040130862 0.3002619335
H 0.5641892247 4.9722621953 -0.9509557426
H 2.2643919344 5.7558749667 1.1287998079
H 3.5432233764 3.9328867216 1.9741845856
H 4.4711564633 4.4503876127 -0.1575951001
H 2.7996778068 3.6498322718 -2.2541128518