17

O 0.0222693237 1.3486667880 0.1628779862
C -0.0437164848 -0.0484940854 -0.0841234678
C -1.4538850919 -0.5452539975 -0.0746507788
C -2.2186246014 -0.9363614040 1.2017851811
C -2.0507460907 -1.9272444088 0.0724571210
C -3.3697048087 -1.3532632818 -0.5342818229
C -3.6380474053 -0.5014492445 0.7502623580
O -3.5053989127 0.7459561773 0.0323100104
C -2.6684476502 -0.0012787451 -0.8813951531
H -0.5986764023 1.5446354557 0.8730449636
H 0.4166601371 -0.1962168425 -1.0681301741
H 0.5574560399 -0.6229391993 0.6408229217
H -1.7627525532 -0.9267816497 2.1832601480
H -1.5936063170 -2.9056669874 0.0501979882
H -4.1237243399 -1.8542473075 -1.1353020575
H -4.4945587879 -0.5495677769 1.4204505600
H -2.5377024248 0.4609459694 -1.8581944239