16

O -0.1084105263 0.0038431721 0.0396042659
C -0.0882736671 1.1973586457 -0.0205326985
C -1.1456031584 2.2907978369 -0.2765130885
C 0.0283624545 3.2689616461 -0.5790758193
C 1.0447115943 2.2552897126 0.0117578513
C 1.7679668012 2.4965097701 1.3618223059
C 3.0323184892 2.1013126141 0.5739559377
O 2.2785493175 2.0002160991 -0.6559197738
H -1.8533285610 2.0811556187 -1.0813216833
H -1.7103312909 2.5359559339 0.6285101100
H 0.1970851356 3.3957642037 -1.6510945804
H -0.0047529466 4.2492610324 -0.1005597996
H 1.7395575076 3.5333641002 1.7013695939
H 1.4845861079 1.8325084095 2.1795601871
H 3.8219707880 2.8572280606 0.5050302017
H 3.4740630247 1.1394841144 0.8560962599