18

C -0.0582960094 1.5539859047 0.0043605111
C -0.0065878821 0.0191582476 0.0029927317
C -1.3276907276 -0.5472037131 -0.2429817985
N -2.3633183990 -1.0247053412 -0.4360678504
C 1.1434593901 -0.5634060329 -0.8910947058
O 1.5326059502 0.2976704882 -1.9269389499
C 2.0381241346 -0.6785527634 0.3725480397
C 0.7534136815 -0.5784688430 1.2385606014
O 0.7480707224 0.2673852663 2.3567687499
H 0.9310624529 1.9741282009 0.1886928874
H -0.4114254282 1.9149995848 -0.9630894403
H -0.7325036428 1.9026305440 0.7885049852
H 0.8613879540 -1.5515373641 -1.2740594220
H 2.1331118066 -0.1745001444 -2.5114885313
H 2.6623695634 -1.5679839148 0.4805830125
H 2.6492697179 0.2193834148 0.4908400205
H 0.3564059469 -1.5710290702 1.4831716305
H 1.1036085686 -0.2142461042 3.1096810881