12

O 0.0225459303 0.0147445160 0.2059785530
C 0.0310960541 1.1925241931 0.0013325515
O -1.1098635680 1.9185085343 -0.1861312232
C -0.8345154999 3.2597286583 -0.6280371627
C 0.6668978989 3.4400668040 -0.5093530878
N 1.1172955217 3.2261448900 0.8718472971
C 1.2088195982 2.1191003087 -0.1218117107
H -1.1736182119 3.3604191712 -1.6647278362
H -1.3935236823 3.9500622808 0.0092327224
H 1.1913875163 4.1250368661 -1.1650808225
H 2.0496992452 3.6191294716 0.9865737313
H 2.1694970774 1.7202954859 -0.4187846622