19

O 0.5068053470 0.6975884364 -0.7652678601
C 0.1460727567 -0.4191401977 0.0248898701
C 0.5377585319 -0.2644492872 1.4842475135
O -0.2878672245 0.7104120766 2.1478565578
C -0.5705052828 -0.6837507069 2.3449128445
C -1.7127098660 -1.2041270837 1.4943377940
C -1.3739360600 -0.7127209146 0.0837316382
C -2.3303922651 0.1783759692 -0.6678793805
C -2.0979461332 -1.2384032792 -1.1250318539
H 0.1500326233 1.4721039077 -0.3126730698
H 0.6860369134 -1.2680728113 -0.4124797873
H 1.5820018488 -0.2790483379 1.7847739280
H -0.4181877845 -1.0457751358 3.3584607792
H -1.7221688357 -2.3007025822 1.5509049965
H -2.6885072170 -0.8502646234 1.8428628224
H -3.2737885493 0.4217670946 -0.1906379146
H -1.9086558050 0.9702072602 -1.2759621254
H -1.5215073630 -1.3842453652 -2.0334754426
H -2.8850885050 -1.9701728198 -0.9725029200