16

C -0.0025829240 1.5236708197 0.0324369470
C 0.0015731958 0.0193559549 0.0029474411
C 0.0587100284 -0.6733226620 -1.2194708212
N 0.1588668461 -0.0420143160 -2.4438330809
C 0.0648282297 -2.0691879074 -1.1447067520
F 0.1079147668 -2.7605492005 -2.3002709409
C 0.0196912890 -2.7255673817 0.0675981374
N -0.0331926735 -2.0728190104 1.2327479374
C -0.0414440358 -0.7396397994 1.1718326396
H 0.8798451250 1.9392706131 -0.4692980299
H -0.8860543305 1.9425192592 -0.4689000919
H -0.0090076005 1.8917790032 1.0610352189
H -0.2301972119 0.8855561997 -2.5050174775
H -0.0501361368 -0.6229874925 -3.2413522362
H 0.0237784740 -3.8122607963 0.0874340509
H -0.0842698517 -0.2207681136 2.1279523082