21

C 0.0452218753 1.4542807104 0.0898384195
C -0.0245468683 -0.0540568638 0.0041952425
C -1.1711975814 -0.6970649398 0.2975584486
C -1.5113575755 -2.1361292835 0.2102709820
C -1.0926164102 -3.0175730762 -0.9641675820
C -0.5005605729 -3.2536738540 0.3916634010
C 0.9511603128 -2.9296928931 0.7368788351
C 1.6424170766 -1.9381235091 -0.1619822083
C 1.2137958190 -0.7016333751 -0.4456162341
H 0.8204187584 1.7798438905 0.7947405235
H 0.3059776273 1.8913334073 -0.8829741078
H -0.9068281882 1.8856740760 0.4090129420
H -2.0041481401 -0.0746886573 0.6193387493
H -2.4996004676 -2.3544700500 0.6030321912
H -1.8201490205 -3.7246507025 -1.3475063476
H -0.4683535873 -2.5565340182 -1.7196594808
H -0.8781365997 -4.1234171392 0.9255412537
H 0.9714723814 -2.5557448580 1.7716430546
H 1.5249543535 -3.8631537534 0.7408982254
H 2.5860206119 -2.2588232420 -0.5961185542
H 1.8602309155 -0.0750552088 -1.0599019436