19

C 0.3269499591 1.5170404972 -0.1125960519
C -0.0306685010 0.0340650454 0.0523138503
O -1.4376329731 -0.1140412025 0.2146717485
C 0.4056521568 -0.8398916643 -1.1477569972
C 1.7198195586 -1.5376593058 -0.7236141643
C 1.6947243287 -1.4411765229 0.7783127277
C 0.7514081947 -0.5969867691 1.2151134185
C 0.4450107497 -0.2417003548 2.5492982531
C 0.1083861696 0.1133077412 3.6520894944
H 1.3901764580 1.6461457044 -0.3400498537
H -0.2637143593 1.9503072491 -0.9251530756
H 0.1125449600 2.0712572761 0.8077342447
H -1.6833721585 0.3286479518 1.0358438580
H -0.3807546206 -1.5821434531 -1.3049944502
H 0.5071845958 -0.2586231344 -2.0673559474
H 1.7816997310 -2.5734539466 -1.0760258207
H 2.6059446496 -1.0278651702 -1.1278834097
H 2.3842403451 -1.9785585320 1.4195615683
H -0.1589860043 0.4046785704 4.6376147473