21

C -0.0741795748 1.5831780525 0.0743758221
C -0.1174085869 0.0534157809 0.0959385538
C 0.8465078514 -0.5596644448 1.1239652822
C 0.8238836907 -2.0541154059 1.1512886782
C 1.1721985647 -3.1275881941 0.0635529023
C 0.1605793631 -4.0823940531 0.6793549835
C 1.6056191945 -4.0943777248 1.1552430661
C 1.2592026622 -3.0298457806 2.2377171685
C -0.1901551171 -3.0190072445 1.7614931409
H 0.9293418582 1.9486302091 -0.1713063487
H -0.7676676674 1.9926703940 -0.6668118610
H -0.3458280472 2.0006482064 1.0505979751
H -1.1364583991 -0.2883067980 0.3150374477
H 0.1255986167 -0.3359987772 -0.9010022729
H 1.8683915298 -0.2094190214 0.9165155801
H 0.5973884290 -0.1857197890 2.1272276626
H 1.5099619582 -3.0482242404 -0.9616966560
H -0.4181175451 -4.8673934501 0.2112121705
H 2.3372208949 -4.8905212605 1.1200112118
H 1.6624791389 -2.8234141129 3.2207991198
H -1.0951689845 -2.8073285455 2.3162634234