16

C -0.2596857305 1.4040042431 0.1719276367
C 0.0167804944 -0.0992287895 -0.0199554521
C 0.8010467739 -0.3997465566 -1.3142099563
C 0.0582483836 -0.0074501975 -2.5084458666
N -0.5455456445 0.3077020594 -3.4421286237
C 0.7830216536 -0.6643289776 1.1744956066
O 1.9031469415 -1.1184621112 1.0838137809
C 0.0789297918 -0.6252242985 2.4444321852
C -0.5192870823 -0.6029876416 3.4887445014
H 0.6773789986 1.9673578666 0.2316499642
H -0.8382255609 1.7886919340 -0.6715770886
H -0.8260932083 1.5818156422 1.0887858734
H -0.9488759945 -0.6200866624 -0.0552366556
H 1.7619140563 0.1246180355 -1.2976514190
H 1.0378220078 -1.4662200041 -1.3729472884
H -1.0334596806 -0.5899117617 4.4196089321