21

C -0.2238263011 1.5762496627 0.0961785221
C 0.0535109623 0.0837658760 0.1108592294
C 0.9783331223 -0.5593669970 -0.9630715014
C 1.8060117052 -1.0948668558 0.2114596436
C 2.2709148217 0.0380562761 1.0371454779
N 0.8925386362 -0.4488967418 1.2522052201
C 2.3370219236 -2.4743920992 0.3664412717
C 1.7921396448 -3.6249467422 -0.3956298814
N 3.1282976371 -3.0908553174 -0.7186203719
H 0.6893066710 2.1731868735 0.0119004960
H -0.8652928611 1.8326627240 -0.7539235916
H -0.7411082699 1.8748482054 1.0137963417
H -0.8974098312 -0.4543992269 0.1584939189
H 0.4729753283 -1.3223455821 -1.5575260670
H 1.5058926356 0.1190288505 -1.6408990803
H 2.9214520924 -0.1864021908 1.8771800185
H 2.4449913126 1.0117365075 0.5854449903
H 2.7402509823 -2.6723306762 1.3575127571
H 1.7937714583 -4.6135451197 0.0546705699
H 0.9760526393 -3.4503166083 -1.0908026961
H 3.0670490102 -2.5086756384 -1.5520373276