17

C 0.0285835760 1.4001067717 -0.0852358805
N 0.0858463119 -0.0359111526 0.0105388653
N -0.0065939208 -0.8040091450 -1.1199073934
C 0.0374033038 -2.0569569209 -0.6824070331
N 0.0660993165 -3.1531117143 -1.5503042661
C 0.1317490748 -2.1100736122 0.7262556060
O 0.1470280538 -3.2116099814 1.5539053424
C 0.1467242153 -0.7894185633 1.1369119675
N 0.2876751552 -0.2409668794 2.4165321754
H 0.5732248328 1.8364451199 0.7559878800
H 0.5022236127 1.7005869544 -1.0212412960
H -1.0025870317 1.7776151302 -0.0792345310
H -0.1721119471 -2.8717923881 -2.4939222536
H -0.5535875612 -3.8947778515 -1.2458925976
H 0.9381421912 -3.7269822699 1.3586729356
H 0.4016498547 -0.9906188951 3.0899237637
H -0.5095185380 0.3205884475 2.6984569753