14

C 1.0742499598 0.9371202221 -0.0582769963
N 0.1594747473 0.1462641669 -0.8762576397
C -0.3137149799 0.6459460190 0.4246747596
C -0.5651660027 -0.3730282196 1.4670552373
C -0.1114359200 -1.6930325432 1.3874043521
N -0.3381181234 -2.5398068930 2.3759207495
N -1.0169637822 -2.1049532979 3.4417936189
N -1.4807864127 -0.8807039747 3.5036134698
N -1.2701671815 0.0025931677 2.5300637651
H 1.9114990081 0.3857424561 0.3604179188
H 1.2946555788 1.9633026933 -0.3387075399
H -0.2346291369 0.7007904141 -1.6305730807
H -1.0033149513 1.4842673813 0.4623549982
H 0.4203623767 -2.0641569022 0.5173372571