16

N -0.0407621749 1.1951085754 0.4950407454
C 0.0025226312 0.0433883257 -0.0294693088
O 1.1979705129 -0.4780411234 -0.4320154245
C 1.3756860469 -1.6591699130 -1.2345182650
C 0.7214656372 -2.9017153162 -0.6956648932
C -0.6053564542 -3.0072036585 -0.6818557428
C -1.4767060385 -1.8634203385 -1.1402305140
C -1.3419876635 -0.7053331360 -0.1535031438
O -2.2658874383 -0.3627704493 0.5345989774
H 0.8989193485 1.5993069899 0.5149681711
H 1.0240737894 -1.4503734505 -2.2550414868
H 2.4597476642 -1.7730623452 -1.2803468308
H 1.3569089303 -3.6996857253 -0.3264463246
H -1.0974374649 -3.8850954456 -0.2757341897
H -1.1732068318 -1.5239331925 -2.1400692568
H -2.5321203846 -2.1339565468 -1.1731207730