18

O -0.1677277381 0.0842875315 -0.3852848103
C -0.0458100356 1.2279042094 -0.0714267552
C -0.9500689295 2.3333344803 0.4870481826
O 0.1903510044 3.2128929901 0.5557625239
C 1.1095081472 2.2385071229 -0.0084040485
C 2.2851515533 1.8917482326 0.8904930529
N 3.2682412580 2.9650259756 0.8867958269
C 3.0383287959 4.0480661294 1.8430659115
C 4.1242987625 3.0563119213 2.0673973606
H -1.7280903932 2.6901220774 -0.2001380225
H -1.3981515334 2.1281313272 1.4675062914
H 1.4757047183 2.5601959574 -0.9926692046
H 1.9078099050 1.6579497793 1.9024142172
H 2.7562296007 0.9837444587 0.4937334526
H 3.2691296505 5.0454354083 1.4814870734
H 2.1556639989 3.9848079014 2.4742301057
H 3.9780624882 2.3255727864 2.8611953350
H 5.1610225569 3.3166221908 1.8753075374