20

C 0.0019881654 1.4984436883 -0.0153981413
C -0.0109730969 -0.0018797182 -0.0649454523
C 0.6278496248 -0.9469958059 -1.1077636315
C 0.0611670872 -1.8445752811 0.0030866979
N 0.6191832572 -0.8737733608 1.0313148837
C -0.3377035886 -0.8774654190 2.1746656736
C -1.7264007615 -0.9348902161 1.4998782250
C -1.2382640356 -0.9624173026 0.0522505774
O -2.1779610661 -0.9382185250 -0.9782925305
H 1.0292977475 1.8754413331 -0.0093156901
H -0.5131898265 1.9099533180 -0.8891969372
H -0.5048230390 1.8737304834 0.8805158188
H 0.1345601502 -1.0005509675 -2.0782582836
H 1.7159761626 -0.9074152761 -1.1789731951
H 0.1601234929 -2.9244132961 0.1366743274
H -0.1280338635 -1.7418975167 2.8110496637
H -0.1865843736 0.0236875693 2.7753796262
H -2.3030999695 -1.8300814604 1.7597250825
H -2.3542525292 -0.0614195165 1.7012349321
H -2.8367338180 -1.6200937102 -0.8103473868