22

C 2.0170892037 1.0077914818 -3.3162524091
C 2.1046613842 -0.3700078722 -2.6516672113
C 0.7377132527 -0.8613280251 -2.1621317044
C 0.6929499233 -2.1738844606 -1.3845349658
C -0.7228910244 -2.6281316519 -1.0422310607
C -1.3992670166 -1.6834674674 -0.0700552418
O -2.4952822562 -1.2059864972 -0.2202426601
C 1.7453746840 -3.2107535447 -1.5449052066
N 1.6512324181 -2.4365975443 -0.2917052520
H 1.3390510954 0.9879345143 -4.1761854467
H 1.6413713310 1.7621026699 -2.6166380994
H 2.9973726051 1.3391992319 -3.6713503199
H 2.5231574333 -1.0880178885 -3.3664565022
H 2.8145116224 -0.3161118058 -1.8153943505
H 0.2846759193 -0.0792185296 -1.5353671494
H 0.0692231837 -0.9605524842 -3.0279046223
H -1.3458257405 -2.7255006766 -1.9366383681
H -0.6637034517 -3.6065083504 -0.5485104050
H -0.7881628534 -1.4569773596 0.8321104356
H 1.4857642554 -4.2624762054 -1.4556003600
H 2.5776988392 -3.0106103198 -2.2119365304
H 2.3768205321 -1.7243981046 -0.2760066898