21

C 0.0041571601 1.4037630797 -0.0552574890
C 0.0868717179 -0.1068790362 0.1962766454
C 0.8458376368 -0.4368152665 1.4856015994
N -1.2461260217 -0.7052414022 0.2250029612
C -1.7251283438 -1.5241163263 -0.7480417731
O -1.0775756803 -1.8666045954 -1.7288305777
C -3.1334861608 -2.0087188349 -0.5430214456
C -4.0135259598 -2.0106978812 -1.7491934308
N -3.4920993389 -3.2652675351 -1.2137310786
H 1.0064376068 1.8390414736 -0.1170939681
H -0.5202253403 1.6129108060 -0.9914789053
H -0.5297913826 1.9105970670 0.7575529853
H 0.5856046713 -0.5829205235 -0.6517268387
H 0.9197466124 -1.5180536034 1.6298248696
H 1.8580088642 -0.0225777187 1.4524132676
H 0.3421498440 -0.0084025861 2.3609174622
H -1.8572899762 -0.4619083513 0.9893667384
H -3.5749076590 -1.8661263890 0.4405625135
H -5.0815950066 -1.8572841701 -1.6243451022
H -3.5805798139 -1.6218177164 -2.6660517381
H -2.6776946597 -3.5303009999 -1.7700506453