21

C -0.0009537722 1.4731577828 -0.2870543800
C 0.0830443557 -0.0049916877 0.1243263953
C 0.7390289202 -0.1695255525 1.5019519771
C -1.3102755134 -0.6174826756 0.1074817066
C -1.9238019525 -1.1610385793 -1.1281495843
O -1.1405297816 -1.1220820073 -2.2816920397
C -1.5656234621 -2.1359679724 0.0064210226
C -0.4554048721 -3.0958220899 -0.1638024064
O -0.4311726685 -4.1900294992 0.3524569102
H 0.9924732503 1.9331249878 -0.2868703131
H -0.4247247060 1.5768323081 -1.2899023972
H -0.6296047837 2.0412517931 0.4093799584
H 0.7004338735 -0.5161577158 -0.6203240964
H 0.8284186675 -1.2237418768 1.7823197932
H 1.7421814619 0.2687439928 1.5100181756
H 0.1510700804 0.3326038527 2.2795267943
H -2.0032091160 -0.1226774577 0.7852771079
H -2.9891692830 -1.0011769800 -1.2917686825
H -1.4056824051 -1.8479037106 -2.8564533236
H -2.3863887847 -2.5329356542 0.5947846943
H 0.3728048316 -2.7602560885 -0.8216195722