20

C 0.1040420139 1.5186931587 -0.2379157169
C -0.1299712097 0.0183514275 -0.2213169190
O 0.9268057986 -0.5942884320 -0.9551972745
C 0.8043095273 -1.9647869838 -1.1573252594
C 1.0876360698 -2.8335025209 0.0494286304
C -0.1714590141 -2.4177895919 -2.2073292711
C 1.3281499478 -2.4249105184 -2.5092026944
C 1.8636346203 -1.4693285279 -3.4365279417
N 2.3062840000 -0.7211040520 -4.1994163358
H 1.0660600423 1.7615837319 0.2214839287
H 0.1113440889 1.8937526614 -1.2647510874
H -0.6866661199 2.0309538203 0.3181878608
H -0.1470428989 -0.3573053793 0.8122878821
H -1.0981460047 -0.2331073906 -0.6793593489
H 0.3383348950 -2.6756414140 0.8315527650
H 1.0688428950 -3.8938893887 -0.2166570552
H 2.0719055905 -2.5946863544 0.4631145923
H -0.6591222050 -3.3806985551 -2.1057217771
H -0.7534810400 -1.6533324984 -2.7076919597
H 1.8223475130 -3.3904151926 -2.5348227182