18

O -0.2455178572 1.4374817883 -0.1463901136
N -0.0170873421 0.0547708666 -0.0489779133
C -1.1094790820 -0.5932697602 0.0266045021
C -2.5270020303 -0.0719611979 0.0497072830
C -3.3429455385 -1.2588987404 0.5961694634
C -2.5970740337 -2.5055603381 0.0822588322
C -1.1065856557 -2.1181371219 0.1200150941
C -0.2589895766 -2.7291786968 -0.9881945760
O -0.6678414016 -3.5200379980 -1.7976318453
H 0.6501257372 1.7915534850 -0.1631319095
H -2.6038824612 0.8444401826 0.6393288630
H -2.8340776945 0.1852519408 -0.9728279654
H -3.3308105794 -1.2382739025 1.6920523103
H -4.3894812104 -1.2345868130 0.2827572319
H -2.8097394367 -3.4033169185 0.6665546161
H -2.8723555568 -2.7256115069 -0.9540958338
H -0.6327469447 -2.4098267462 1.0681731821
H 0.7902109442 -2.3678817627 -1.0033872013