17

O 0.0587615399 1.3911164360 -0.4011141986
C 0.0868468935 0.0757654796 0.1285484560
C -1.2959657750 -0.5427790226 0.1431614095
C -1.8905653181 -1.2566270670 -1.0128021804
O -0.9341225298 -1.9785362537 -1.7729902159
C -0.6316780609 -2.8387278034 -0.6344641129
C -1.5577821028 -2.0445777707 0.2795148188
C -2.4671448195 -2.6310621417 1.2664600501
O -2.4601656194 -3.7988930064 1.5812018661
H -0.1520379457 1.3217631008 -1.3381213407
H 0.7848093150 -0.5635705930 -0.4255580153
H 0.4612592392 0.1708343400 1.1524324922
H -2.0317240501 0.0413043641 0.6948840859
H -2.8492749131 -1.0399557032 -1.4716468252
H -1.0032390459 -3.8516532583 -0.8097714768
H 0.4366926842 -2.8633021812 -0.4009070636
H -3.1888938115 -1.9121686591 1.7172158209