21

C -0.4878976047 1.2758882707 -0.1942045864
C 0.2221232315 -0.0685294626 -0.1246012804
C 1.7244706423 -0.1019792282 -0.4829718891
O 2.0740425874 -0.6412370746 0.8087925691
C 0.6944247283 -0.6274410372 1.2504121890
C 0.4936943151 0.2120354337 2.5147112178
C 1.1899324167 -0.4604897502 3.6992369148
C 2.6263340528 -0.0552472618 3.9504423444
O 0.6182574649 -1.2987345294 4.3578180222
H 0.0745775408 2.0629493483 0.3177203362
H -0.6118593095 1.5859671402 -1.2373250989
H -1.4852235290 1.2266163261 0.2550745234
H -0.3540837304 -0.8161515959 -0.6759364153
H 2.0138565872 -0.7751963310 -1.2983783809
H 2.1851090648 0.8802520056 -0.6535216995
H 0.3451706055 -1.6481932397 1.4528628253
H 0.8790110638 1.2234528524 2.3549761407
H -0.5767182874 0.2607045433 2.7376596332
H 2.6743778787 1.0054218081 4.2249381683
H 3.0574749686 -0.6607099539 4.7485574512
H 3.1958449529 -0.1707928937 3.0217370448