14

N -0.0460447918 1.2213573782 0.0075438521
C -0.0246981338 -0.0311300396 0.0005788611
C -1.2601187059 -0.9414111779 0.0026004039
N -0.6252982501 -2.2374541522 -0.0080033877
C -0.8903657215 -3.6004268080 -0.0141255876
C 0.3485034270 -4.1858185344 -0.0241846391
N 1.3744937389 -3.2403594303 -0.0249863924
C 0.7217077803 -2.1229276687 -0.0150851550
O 1.1229957193 -0.8169706230 -0.0102472397
H 0.8952703344 1.6152672600 0.0043523945
H -1.8672208025 -0.7658130584 0.8959184325
H -1.8772170968 -0.7561875620 -0.8818817642
H -1.8895222518 -3.9998900443 -0.0106671190
H 0.5766935743 -5.2400937196 -0.0311662694