20

C -0.3044163582 1.6139898883 -0.2940648093
C -0.0381865922 0.1284807247 -0.0764785650
C -1.2797649859 -0.6226048673 0.3918489078
C 0.7804044276 -0.5848526005 -1.2382627425
C 1.8776115676 -0.7464697986 -0.2040573723
C 3.0990858347 -1.1230046345 0.3086583320
C 3.0729512299 -0.6931695356 1.6745308427
C 1.8579248409 -0.0791458928 1.9457899475
N 1.1586344022 -0.1333513598 0.7716381196
H 0.6031440198 2.1298787220 -0.6186681083
H -1.0765818377 1.7533243434 -1.0577049886
H -0.6560340116 2.0859443464 0.6295347794
H -2.0769704810 -0.5404761229 -0.3541517640
H -1.0589941849 -1.6815628588 0.5501006956
H -1.6553214260 -0.2058080018 1.3324068940
H 0.3211712842 -1.5064023366 -1.6082871981
H 1.0062913673 0.0639420092 -2.0897972612
H 3.9092416932 -1.6300510865 -0.1910411332
H 3.8714896744 -0.8225215527 2.3906409433
H 1.4730268258 0.3657711846 2.8485823207