16

C -0.0780707950 1.5299013162 0.0107566917
C 0.0510355601 0.0150073559 -0.0252834662
O 0.9046414408 -0.4115603920 -1.1046537829
C 1.9390423678 -1.1478245743 -0.6262854080
O 2.8031017205 -1.6311943206 -1.2963200375
N 1.8184300414 -1.2364718449 0.7621850967
C 2.7706659100 -1.9472451002 1.5951187313
C 0.7094475417 -0.5616756074 1.2259629457
O 0.3498426836 -0.4473514305 2.3713807665
H 0.9046990367 1.9986643330 0.1120674937
H -0.5480144629 1.8934730381 -0.9056772406
H -0.6931520108 1.8157884854 0.8677763138
H -0.9288667036 -0.4552053953 -0.1649320664
H 2.7919168429 -3.0071742955 1.3306762208
H 3.7729793257 -1.5329307199 1.4641185755
H 2.4471903713 -1.8267904678 2.6297706359