17

C -0.2351453747 1.5305460162 0.0943126898
C 0.0464514455 0.0615405093 -0.0119631720
C -0.7215820492 -1.0267926418 0.7459648205
C 0.7618151445 -0.9075546088 0.9146718390
N 1.4451508275 -1.5044596544 -0.2370054590
C 1.9686254265 -2.7818187209 -0.3472038432
N 2.3194594635 -3.2907734181 -1.4554114644
C 0.8067017022 -0.6141243212 -1.1512993987
O 0.8941992226 -0.4671906067 -2.3308944262
H 0.6637949094 2.1221853730 -0.1046004002
H -0.9978532961 1.8290788051 -0.6320786614
H -0.6028883190 1.7907457865 1.0914600657
H -1.3366868191 -0.6469883505 1.5576626508
H -1.1342021006 -1.8848749858 0.2237749687
H 1.2943910062 -0.6960474270 1.8323853619
H 2.0538551762 -3.2586004021 0.6389199130
H 2.6911475944 -4.2271563429 -1.3063766545