17

O 0.0030856835 0.0312110198 0.0541418925
C -0.0266717140 1.2344358893 0.0172364126
C -1.2302524632 2.1201518723 0.0651206383
C -0.7475474851 3.4308842715 0.6668144522
C 0.7349443981 3.2826446109 0.9908258674
C 1.1891946637 2.1899131971 -0.0209604784
C 1.1981393178 2.8058631937 -1.4060571126
C 0.0610014917 3.3997341225 -1.7760858189
C -1.0718095740 3.3726293503 -0.8124544637
H -2.2096391759 1.6934123969 0.2312103688
H -1.3887415616 4.0154645821 1.3151139940
H 1.2915394105 4.2170575058 0.8716955353
H 0.8643027224 2.9271512328 2.0183189338
H 2.1133195174 1.6787203544 0.2411125508
H 2.0860506265 2.7643325124 -2.0252948083
H -0.0646332742 3.9024618702 -2.7285167429
H -2.0059894636 3.8294593580 -1.1173037112