18

O -0.0180024729 1.3754020299 -0.0530833588
C -0.0036542544 -0.0194340189 -0.0051499211
C -0.4723966953 -0.7151789959 1.2646819538
C -1.3623700107 -0.6970872841 0.0476524002
C -2.6063281919 0.1284924723 -0.0034746061
C -3.4862817010 0.0884717394 -1.2281627023
C -3.9535886532 -0.5524201706 0.0539162586
C 1.0491185216 -0.6413870587 -0.7796976716
N 1.9031135830 -1.1299490982 -1.3885895671
H 0.7525049234 1.7026316593 0.4254026940
H 0.0098896072 -1.6405340054 1.5573280905
H -0.7283513548 -0.0443944341 2.0781368006
H -1.4177582511 -1.6312857005 -0.5043211102
H -2.5243626032 1.0871441585 0.4957058765
H -3.9552234428 1.0116282836 -1.5488932937
H -3.1910533235 -0.5646790550 -2.0427002298
H -3.9730407570 -1.6362261955 0.1015527594
H -4.7446513033 -0.0706644960 0.6175970870