14

O 0.2600520798 1.2018128167 0.5541809988
C 0.0249908372 -0.0906707711 0.1048705044
C -1.4501271012 -0.4657063950 -0.1102811295
O -2.0702260859 0.6686395386 -0.6970199189
C -1.3584570617 -1.5763552593 -1.1618366345
O -2.1774773572 -2.3881501404 -1.4640915505
O -0.1511572998 -1.4643725765 -1.8151215462
C 0.6258288996 -0.4469193770 -1.2535282414
N 1.6349084381 0.0560370462 -1.7957288974
H -0.2210795631 1.8008075001 -0.0302129361
H 0.4578957787 -0.7739662761 0.8459569422
H -1.9706025288 -0.8052729787 0.7899052401
H -2.9781714845 0.4410061724 -0.9255320514
H 1.8167182189 -0.3606376199 -2.7102911597