19

C 0.0670528834 1.6046746362 -0.0378045929
C 0.0576205599 0.0742670971 -0.0729497454
C 0.8336332053 -0.5194282156 -1.2508879796
C 0.6194405259 -2.0232586258 -1.2842700637
O 0.9516019652 -2.6812746901 -0.0436194282
C 0.9325820333 -2.0431071436 1.1385725963
O 1.2483910479 -2.6361258799 2.1396347812
C 0.6112155323 -0.5386934413 1.2159131910
O 1.8335412960 0.1116328750 1.5482916377
H 1.0874536855 1.9864230372 0.0382528510
H -0.3913638766 2.0105601880 -0.9450973894
H -0.4952996112 1.9821613845 0.8224029558
H -0.9857271761 -0.2640873074 -0.1548141445
H 0.4944710903 -0.0977655496 -2.2031645552
H 1.8995077697 -0.2881293102 -1.1456677903
H -0.4284373289 -2.2578773255 -1.5111399159
H 1.2441256355 -2.5115258876 -2.0363745944
H -0.1160844507 -0.4239536756 2.0330486558
H 2.2106218534 -0.3800224757 2.2883864506