21

O -0.0738642199 -0.0690885777 -0.0198290610
C 0.0642854894 1.1272076160 -0.0079282238
C 1.3802119229 1.8555380455 -0.1268139792
C 1.3779099252 2.8624221132 -1.2899763294
C 2.6309754444 3.7347832843 -1.3108900013
C 2.6632853830 4.7919017833 -2.4243722029
C 3.4962977967 5.9112006813 -1.7850162803
C 3.0472303378 5.8299592696 -0.3218052739
O 2.7257867999 4.4604186841 -0.0779204736
H -0.8201066749 1.8017251190 0.0935444449
H 1.5418551120 2.4168453051 0.8031569457
H 2.1826498023 1.1190420129 -0.2301908507
H 1.2997402752 2.3300411967 -2.2461014199
H 0.5004849891 3.5173747329 -1.2114183532
H 3.5163075498 3.0827548277 -1.3938593605
H 3.0878717421 4.4063540162 -3.3542176468
H 1.6470438217 5.1443617667 -2.6377500535
H 4.5650711645 5.6877252396 -1.8695693863
H 3.3208211353 6.8943096997 -2.2282289919
H 3.8229686359 6.1407597206 0.3863209284
H 2.1591382777 6.4552957832 -0.1454784907