21

C -0.2641469898 1.4558151168 0.0765470540
C -0.0472045977 -0.0589154847 0.0228263671
C -1.3254606614 -0.7967052491 -0.3847942242
C 1.1707604866 -0.4548903863 -0.8465520957
O 1.4126791780 -0.3294590379 -2.0125039040
C 1.9343114958 -1.0589880534 0.3443935626
C 0.7321918869 -0.6724378592 1.2246304692
C 0.8004017093 -0.1408081156 2.6251677347
C 0.1660705648 -1.4861268041 2.3498801152
H 0.6485629446 1.9843417098 0.3679134707
H -0.5749062751 1.8296493368 -0.9039696937
H -1.0460553261 1.7106052861 0.8008961591
H -1.6560372964 -0.4649880721 -1.3739449703
H -1.1719088476 -1.8793918384 -0.4233650646
H -2.1332597930 -0.5968458909 0.3282934831
H 2.1348128425 -2.1307759116 0.2412704526
H 2.8796516651 -0.5517595980 0.5648621953
H 1.7681022785 -0.1197126242 3.1166988284
H 0.1471381204 0.6821682147 2.8976525127
H -0.9129166133 -1.5660340751 2.4376078752
H 0.7026358280 -2.3793842837 2.6543169525