23

C 0.0900848014 1.5766492254 0.2653754864
C -0.0611065708 0.0737730750 0.0126774920
C 0.6073001157 -0.4264739151 -1.2797859202
O 2.0073299740 -0.0748992794 -1.2719840803
C 0.5416024509 -1.9629448622 -1.4324279286
C 0.3728144089 -2.2509055566 -2.9455605082
C -0.5286841863 -3.4506351766 -3.2574493758
C -0.1504514623 -0.9288414306 -3.4624907593
C -0.0501535820 0.0484492267 -2.5644807643
H 1.1461217458 1.8553228748 0.3352015403
H -0.3701684076 2.1758871459 -0.5282796913
H -0.3880617218 1.8634407077 1.2066397122
H 0.3799682532 -0.4776806029 0.8523210800
H -1.1242330608 -0.1945488593 -0.0199840544
H 2.0856152400 0.8397046259 -1.5608186458
H 1.4306895076 -2.4259933947 -0.9980722799
H -0.3336986591 -2.3434830970 -0.8940851171
H 1.3560245950 -2.4386155617 -3.4010165255
H -1.5314590429 -3.3063328875 -2.8398365432
H -0.6334638565 -3.5999198324 -4.3375743742
H -0.1167876717 -4.3723189983 -2.8330126910
H -0.5380722384 -0.8158043302 -4.4707791681
H -0.3392115223 1.0823347332 -2.7247682837