18

C -0.1414057642 1.4061952927 0.0261451403
N -0.0721421252 -0.0439047764 0.0731580105
C 0.6123767086 -0.6141796587 0.9688314676
O 1.2753205705 0.0564822648 1.9613755232
C 2.5219382864 -0.5111928898 2.3880632568
C 2.3666955742 -1.9241500777 2.9457920566
C 1.5246198705 -2.7777210327 2.0124183663
O 0.1182211226 -2.6893123374 2.2184593493
C 0.6607419965 -2.1049326323 1.0222145301
H 0.6425786543 1.9117360824 0.6002118326
H -0.0939699624 1.7260094404 -1.0196468359
H -1.1142885878 1.7315328677 0.4144559764
H 3.2194856349 -0.5141828165 1.5392634716
H 2.9089090089 0.1786299768 3.1412821522
H 3.3605917979 -2.3641427689 3.0790470289
H 1.8798421892 -1.8990705023 3.9258552727
H 1.8816573317 -3.7824564722 1.7891449952
H 0.3712909932 -2.5932298998 0.0964490455