21

C -1.4975107033 -1.3543471752 2.6125650040
C -0.6131903675 -1.3367051383 1.3929216607
O -0.6034153868 -0.1605855061 0.5652474721
C 0.6130859153 -0.5451373257 1.1945819608
C 1.3109035164 0.4226703605 2.1606538515
C 2.1835631441 -0.4095501028 3.1300073409
C 2.2147154305 1.3520089724 1.3085815709
C 0.3909534236 1.2740151117 2.9203183849
C -0.2783315151 2.0374757401 3.5645254839
H -1.4064931461 -0.4417961873 3.1991485372
H -2.5431794720 -1.4716945804 2.3079562369
H -1.2399002357 -2.2123779501 3.2437370546
H -0.6640122252 -2.2577128878 0.8054836321
H 1.3447325893 -0.9764598915 0.5039946414
H 2.8613394514 -1.0583548129 2.5648561767
H 2.7863235517 0.2477111483 3.7622686212
H 1.5648000680 -1.0365472937 3.7767782411
H 1.6151137228 1.9113249365 0.5861510016
H 2.7402871005 2.0655337385 1.9482916825
H 2.9579527057 0.7605507503 0.7634940108
H -0.8976522676 2.6971931435 4.1204747741