20

C -0.0002537993 1.6292273711 -0.0435706453
C 0.0251202031 0.1120810352 -0.0597085261
C 1.3165086045 -0.6131196561 -0.5473779995
O 2.0063602757 -0.1756522449 0.6839810122
C 0.6733440057 -0.6445666144 1.1322992955
C 0.8932454211 -1.8996007737 0.2435820240
N -0.2066528698 -2.7709569677 -0.0984596278
C -0.7657169006 -2.7553305453 -1.4490725025
C 0.0771984357 -3.8899302300 -0.9908444535
H 0.9502166301 2.0252863303 0.3194206503
H -0.1840741182 2.0272452902 -1.0475859654
H -0.8024284998 1.9971901665 0.6053477130
H -0.9157335076 -0.3163097499 -0.4139053255
H 1.8644195116 -0.5028741812 -1.4853430520
H 0.4516705545 -0.5850046463 2.1987451595
H 1.7552134292 -2.4793614809 0.5802754730
H -1.8459118395 -2.8546899593 -1.5135563878
H -0.3280522338 -2.0802811420 -2.1817006244
H 1.0776007069 -3.9649608304 -1.4147166161
H -0.3715815395 -4.8397110713 -0.7130511315