16

N -0.0354263532 1.5164877598 0.0723852933
C 0.0068923067 0.0617124602 0.0121815686
C -1.4321432427 -0.5032733564 0.0025273518
C -2.1317619203 -0.0845483261 -1.2135770048
N -2.6397612523 0.2531431626 -2.1951927240
C -1.4242043511 -2.0564152457 0.1228421963
O -0.6999972860 -2.4899407449 1.2532963474
C -2.7966047104 -2.5963432690 0.1349405050
N -3.8697158784 -3.0178198035 0.2065615883
H 0.8927448015 1.8845889030 0.2499679592
H -0.3372414328 1.9008519308 -0.8183292178
H 0.5483834700 -0.3547517704 -0.8539689400
H 0.4957706048 -0.3171290390 0.9126129096
H -1.9671756997 -0.0835750914 0.8627151326
H -0.8988574829 -2.4701695510 -0.7445744605
H -1.2243613332 -2.3161937889 2.0443012452