19

C -0.1667753378 1.6107617006 -0.0088385506
C 0.0385213652 0.0996476345 0.0034106821
C 1.1483022507 -0.5847666769 -0.8835852057
C 2.3835146357 0.3045036233 -1.0137324790
O 2.7982465852 0.5464400874 0.3394764716
C 2.2039048533 -0.4633998370 1.1295714894
C 1.5055976228 -1.5040410320 0.3171203070
C 0.6894886096 -0.5746902577 1.2127717725
O 0.0325482886 -0.9271164598 2.3790044742
H 0.7601472306 2.1413938336 0.2237279214
H -0.5319640386 1.9578190415 -0.9820283700
H -0.9158531132 1.8971323978 0.7381047177
H -0.9103816080 -0.4116185853 -0.1935986081
H 0.8149198754 -1.0425208519 -1.8141770346
H 3.1858721783 -0.2002809049 -1.5721434739
H 2.1809741940 1.2699715858 -1.4878765198
H 2.7779127395 -0.7284904599 2.0099756423
H 1.6722451323 -2.5722838002 0.3321424533
H 0.1080167562 -0.1965442090 3.0027108903