14

O 0.0459971722 -0.0327405355 0.0022211754
C -0.0170598219 1.1587506688 0.0093995089
C -1.2524967541 2.0684303448 0.0320163045
C -0.7427093930 3.5381405522 0.0321655983
C 0.7474485086 3.3769775901 0.0090487641
C 1.9525308008 4.0198313400 -0.0057715689
N 2.9468949331 3.0653945390 -0.0251852876
N 2.4315630781 1.8758396338 -0.0239846417
N 1.0855169048 2.0565991540 -0.0026464079
H -1.8707698164 1.8325397112 -0.8378605181
H -1.8453814043 1.8234626319 0.9169175985
H -1.1013680127 4.0946809736 -0.8382407927
H -1.0750793943 4.0853506756 0.9187784098
H 2.1888162391 5.0707896306 -0.0040157327