16

O 0.0775678509 1.3879254598 -0.2914402183
C 0.0860279486 0.0140937920 0.0550157834
C -1.3004042061 -0.5130238479 0.2470935152
C -2.3170010800 -0.1977767526 1.3556510957
C -2.9464508671 -1.6257673709 1.1103845798
C -4.3514756194 -1.7074739234 0.7433522094
N -5.4686094699 -1.7738300167 0.4544600780
C -1.9134813907 -1.8258277358 -0.0247205282
O -2.0784096973 -0.7544358625 -0.9442361615
H -0.4002818046 1.4700045172 -1.1244830108
H 0.5991020599 -0.6005427765 -0.6992371814
H 0.6480372593 -0.0599007263 0.9917870805
H -1.8808723276 -0.1119472753 2.3522426999
H -2.9676514056 0.6536196546 1.1559642014
H -2.7489155530 -2.2913218720 1.9545552953
H -1.5094761975 -2.7602285936 -0.3966776986