23

C -0.2769322439 1.4204607282 0.0810338693
C 0.0270124441 -0.0838105164 0.0268262090
C 0.6661801675 -0.4426433432 -1.3199367226
O -0.2863762684 -0.1799825953 -2.3453368583
C 0.9306541392 -0.5421792285 1.1811857893
C 0.3540809993 -0.3377397530 2.6179422788
C -0.0436203076 -1.8362447113 2.6645716551
C 0.9300142921 -2.0853281194 1.4898299244
O 0.5974945393 -3.0350122469 0.5044239955
H 0.6532045991 2.0017736766 0.0935849305
H -0.8496948767 1.7178966343 -0.8001776242
H -0.8512715622 1.6928880453 0.9705183116
H -0.9318819584 -0.6224324167 0.0749459211
H 1.5742648503 0.1690351766 -1.4570795373
H 0.9689034308 -1.4970071400 -1.3207467467
H 0.1189933451 -0.3918979545 -3.1907424971
H 1.9297377629 -0.1176101483 1.0280683136
H 1.1361565530 -0.0933516460 3.3409362117
H -0.4536229882 0.3873365107 2.7309380938
H 0.1192079601 -2.3941544718 3.5895114328
H -1.0826947522 -1.9859891572 2.3502850401
H 1.9152052774 -2.3884632233 1.8566124572
H -0.3125618626 -2.8784779101 0.2308705523