16

C -0.0110617420 1.4595122330 0.0860990765
N -0.0571967664 0.0225485747 -0.0705336240
C 0.5735148849 -0.6548146643 -1.0766168502
C 1.1885187444 0.0025792135 -2.1619579481
C 1.7841072435 -0.7622354223 -3.1506692370
N 1.8282617073 -2.1011555375 -3.1595669405
C 1.2489019988 -2.6870576740 -2.1326860868
F 1.2866895257 -4.0203187041 -2.1266078666
C 0.6156227984 -2.0589890352 -1.0750978662
H 1.0140183232 1.8420767710 0.1919613150
H -0.4771938463 1.9666765173 -0.7667318615
H -0.5721405171 1.7325138438 0.9818017387
H -0.3378025041 -0.5175722779 0.7297606893
H 1.2018030244 1.0819943806 -2.2329221728
H 2.2616173719 -0.2689039356 -3.9938277447
H 0.1687914235 -2.6445847029 -0.2801272112