21

C -0.6221157144 1.5776407422 -0.3002113526
C -0.2348282745 0.1060686908 -0.2051013914
C 1.0032227197 -0.4589719468 -1.0101443435
C 1.8404805306 0.4753318048 -1.8644403379
O 1.0565499166 0.8443561209 -2.9944210944
C 1.6019520650 -0.9756362897 0.3039022267
C 1.7858876796 0.1505454209 1.3045717016
C 0.4173081286 -0.4256775119 1.0820123792
O -0.2839498900 -1.0711365704 2.0886283586
H 0.1909217286 2.2401028426 0.0151370996
H -0.8824550947 1.8408351734 -1.3289154833
H -1.4856956258 1.7925338825 0.3394120116
H -1.1064346812 -0.5141921065 -0.4340384935
H 0.6800535681 -1.2864126990 -1.6482447371
H 2.1486137501 1.3630915330 -1.2926313195
H 2.7613408943 -0.0463176306 -2.1733565191
H 1.5582467783 1.4784369439 -3.5148734656
H 2.1168094223 -1.9204286567 0.4294245103
H 2.2440476629 -0.1674328174 2.2360232272
H 2.0537586314 1.1572952102 0.9956494930
H -0.5233252755 -0.4193332061 2.7561908400