17

C -0.2082546567 1.3600218728 -0.1447285592
O 0.2201290038 0.0246517330 0.0835115255
C 0.7013392457 -0.6065108158 -1.0522544502
C 1.3334241157 -1.9771575424 -0.8347000380
O 0.3058599118 -2.9057436620 -0.4788275283
C 0.4717586646 -2.5884538888 -1.8628057733
C -0.3170614935 -1.2910901674 -2.0952294870
C -1.7670850623 -1.3167743749 -1.6775474401
O -2.5558233376 -0.4520611159 -1.9735287407
H 0.6203296642 1.9823338991 -0.5148593168
H -1.0360136414 1.4009058821 -0.8625889939
H -0.5458168632 1.7520695847 0.8165288275
H 1.3840199340 0.0438401254 -1.6203051251
H 2.3413078741 -2.2110591042 -0.5141013822
H 0.6769084330 -3.4007323819 -2.5489011731
H -0.2231830686 -0.8469025671 -3.0878803912
H -2.0657682036 -2.1839116366 -1.0552290237