16

C -0.0086873407 1.4974523760 -0.0126230481
C 0.0635558835 -0.0108110890 -0.0133472049
O 1.0840241912 -0.6600601520 -0.0382807583
N -1.1701211929 -0.6632309441 0.0097180343
C -1.4515537831 -2.1115973913 0.0341041301
C -2.9636926051 -1.7618020868 0.0333691274
O -3.6440024677 -2.2363421497 1.1632998494
C -2.5117568648 -0.2781326052 0.0846781097
O -3.0475080921 0.7902581411 0.1849066855
H 1.0047062923 1.8945864839 0.0371041158
H -0.5050206213 1.8527684952 -0.9210320396
H -0.6069100542 1.8573111984 0.8285003943
H -1.0718950244 -2.6448808986 -0.8384468252
H -1.1236143208 -2.5966646876 0.9549953924
H -3.4733240438 -2.0134275596 -0.9068323416
H -4.4690450360 -1.7441267308 1.2418289986