18

C 0.0159434899 1.4129594157 0.9512140407
C -0.2126935057 0.4138783220 -0.1782014151
O 0.8205060536 -0.5919315105 -0.2118063367
C -1.5651932184 -0.2413928936 -0.1432990386
N -2.5297565335 0.1252269199 0.7023401088
N -3.5587774101 -0.6785638600 0.4142557248
C -3.2872641974 -1.5655302814 -0.5890600686
C -1.9887861271 -1.3097069813 -0.9827149534
N -1.2326086185 -1.8801841178 -2.0138175328
H 1.0226086008 1.8312783624 0.8724197975
H -0.7163691269 2.2228003835 0.9066425727
H -0.0932309712 0.9278480654 1.9266692113
H -0.0888214524 0.9251432015 -1.1415464962
H 0.7426334278 -1.0972548122 0.6060500997
H -4.4128497895 -0.5861146047 0.9354956248
H -4.0174916957 -2.2805495471 -0.9324914683
H -1.5079135328 -2.8259207468 -2.2417841190
H -0.2441526531 -1.8420945950 -1.7914437016