18

O -0.1522230906 1.3705340740 -0.0170838722
C 0.0246194849 -0.0172115021 -0.0603801574
C -0.3967372903 -0.7527750560 1.1949155133
C -1.2766482908 -0.7663767172 -0.0441917438
C -1.2652427705 -2.2867622091 -0.2745051323
O -2.0040422382 -2.6974148714 -1.3761633863
C -1.4774485059 -2.7620200789 1.2150987343
N -0.0794693723 -2.1955271167 1.4307702487
C 0.1998778991 -2.6983121362 0.0255453205
H 0.5891472399 1.7480184603 0.4683856752
H 0.8626127778 -0.3384201139 -0.6739547680
H -0.6162383082 -0.1734593163 2.0835556248
H -2.2084570385 -0.2239277898 -0.1441898057
H -1.9630345933 -3.6577723125 -1.4316044766
H -2.2620591251 -2.2911233409 1.8115789086
H -1.4765803165 -3.8479944259 1.3503997261
H 0.3334384890 -3.7828403232 0.0599256251
H 1.0434440695 -2.2514902241 -0.4987544243