19

C 0.3268989547 1.1052585265 0.4400952459
N -0.3552332174 0.2085827495 -0.4846116872
C 0.5014375365 -0.3994069990 -1.4501820932
C 1.5042345353 -1.4915804939 -1.1115629532
C 0.2139187820 -1.8264609595 -1.8552538105
O -0.8105109124 -2.4474679993 -1.1481183290
C -0.6363189746 -3.8498897113 -0.9740684494
C 0.2930404392 -2.1892766896 -3.2561225477
N 0.3579354199 -2.4983171447 -4.3688795698
H 1.1492703422 0.6328797445 1.0043175349
H 0.7492957844 1.9515683314 -0.1129503458
H -0.3988499237 1.5043184592 1.1537558264
H -0.8802045832 -0.5058227495 0.0054798836
H 0.7911541845 0.2640665078 -2.2617568790
H 2.4424141193 -1.5455135157 -1.6520318362
H 1.5332408703 -1.8376860150 -0.0837136342
H -1.4908359906 -4.1967775197 -0.3909382553
H -0.6208175176 -4.3696894328 -1.9398236040
H 0.2927160613 -4.0718140789 -0.4330030663