18

O -0.3080516448 0.0368167435 0.3556681117
C -0.0793414258 1.1705269246 0.0260765964
C 1.3161481875 1.7573884205 -0.1277600265
N 1.3608529217 2.7253976381 -1.1965518802
C 1.4548531046 2.2366807370 -2.5959134797
C 2.4990334975 3.3233040704 -2.8551218106
C 3.4776789666 3.5040668051 -3.9209289691
O 2.3250036995 4.3549837456 -3.8027071927
C 2.5682903750 3.5733257589 -1.3472852506
H -0.8907242878 1.9028312314 -0.1853242120
H 1.5357353131 2.2759550421 0.8174546386
H 2.0410934237 0.9289116491 -0.2250715177
H 1.8585948240 1.2155043329 -2.6819021697
H 0.5265042453 2.3093987000 -3.1713306750
H 4.4334089721 3.9804750578 -3.7055461932
H 3.4761492836 2.8326837806 -4.7787992501
H 2.4394200774 4.6106218995 -1.0209957231
H 3.4723186267 3.1526846530 -0.8809060864