20

C -0.1821153741 1.4630810480 0.0136925909
C 0.0889256530 -0.0162051598 -0.0175440610
N -0.7102258481 -0.9362153444 0.8243600068
C 0.7551914394 -0.7987995577 1.0502002819
C 1.5950763167 -1.9042979554 0.4388587523
C 0.8606568175 -3.0340805790 -0.2358630825
C 1.3440873675 -1.8627779930 -1.0547940589
C 0.3907416722 -0.6959607934 -1.3698443839
O -0.7955322214 -1.0426131636 -2.0589361043
H 0.6694364822 2.0290303336 -0.3795672687
H -1.0561380101 1.7065406729 -0.6010120329
H -0.3744824051 1.8111180812 1.0345146771
H -1.2141479855 -0.4010405818 1.5281722415
H 1.0839931852 -0.3369818366 1.9758030346
H 2.5823909605 -2.0704477473 0.8538335559
H 1.3970127563 -3.9675182188 -0.3688511752
H -0.1960999622 -3.1410490339 -0.0268700705
H 2.1459874787 -2.0465606644 -1.7609431901
H 0.9109415077 0.0143668086 -2.0217171592
H -1.3489451604 -1.4889524153 -1.4046174137