18

N -0.1136064136 -1.1773542351 -0.1841973379
C -0.0693265097 -0.0265221461 -0.0805152076
C -0.0045070355 1.4247475937 0.0466964969
C -0.6158770523 1.9853605389 1.3871125650
C 0.5475449093 2.8441973773 1.9208939340
C 1.1779991561 3.4093188847 0.6403560638
C 1.4475284961 1.9994410253 0.0762127264
C 2.1940920919 1.3776864455 1.2666066614
O 1.5588781323 1.9628438768 2.4217453833
H -0.5346368821 1.8490631309 -0.8119637624
H -1.5160919952 2.5734591388 1.1905908227
H -0.8655377222 1.1916722630 2.0923405872
H 0.2803642512 3.5454593865 2.7115221335
H 0.4911316480 4.0027891845 0.0310724199
H 2.0887314079 3.9799191226 0.8342287636
H 1.9720023050 1.9244937325 -0.8758464235
H 2.1071177898 0.2865745824 1.3059801130
H 3.2588425829 1.6426107678 1.2607678008