14

C 0.0474592537 1.3588485075 0.0140379848
O 0.0185121404 -0.0587017357 0.0397977272
C -1.2189879943 -0.6027494194 0.0382123748
C -2.4694189921 -0.0743023492 0.0143651359
O -3.3835421208 -1.0666709697 0.0119413726
N -2.7221896746 -2.3004513256 0.0265716806
C -1.4404457417 -2.0173003503 0.0505801031
N -0.4540041070 -2.9786066386 0.1406694412
H 1.0974978792 1.6534719390 0.0150885761
H -0.4421456491 1.7454393114 -0.8898702962
H -0.4517536759 1.7769013003 0.8981752322
H -2.8548148113 0.9314615744 0.0002210115
H -0.7571651888 -3.8993118728 -0.1447264318
H 0.4195739323 -2.7050891013 -0.2857795319