20

C -0.1222046429 1.6579731245 -0.1896840407
C -0.0448767993 0.2125215495 0.3128383322
C -1.3319198054 -0.5503003483 0.0687356888
O -1.5907961860 -0.7386327228 -1.3790636435
C -1.5974794004 -2.1012240782 -1.2342784846
N -1.6692487075 -3.0316678631 -2.0780546432
C -1.3913451959 -2.0916901393 0.2602828308
C -0.1856256997 -2.9265114587 0.7045237926
O -0.4320865336 -4.2907323801 0.4428669103
H 0.8208850098 2.1835902850 -0.0164099232
H -0.3336332207 1.6817371573 -1.2624389122
H -0.9153312534 2.2137400028 0.3221681943
H 0.7861539182 -0.3078122004 -0.1749721124
H 0.1584936641 0.1955049782 1.3914585897
H -2.1848178104 -0.0236611654 0.5092209338
H -1.7457189456 -2.6843559159 -3.0348718449
H -2.2750520700 -2.4249409511 0.8101403511
H 0.7271875743 -2.5761423765 0.1987816657
H -0.0226418638 -2.8307840422 1.7832160155
H -0.6898544018 -4.3571315751 -0.4891305202