21

C 0.0505873120 1.5489083561 0.0616251379
C -0.0031039446 0.0160090570 0.0040650444
C 0.6480796407 -0.6033523695 1.2557402720
O -1.4010432712 -0.3084310693 -0.0250657390
C 0.6644620679 -0.4859962759 -1.2068933278
C 1.1992490677 -0.9309958145 -2.1929212379
C 1.8303416069 -1.4426395166 -3.3746453263
C 3.2846888362 -1.8881346425 -3.3345771987
C 2.2013348590 -2.9149948478 -3.4721615734
H 1.0847851311 1.8972600185 0.1135447549
H -0.4222675229 1.9733076498 -0.8264561762
H -0.4897923798 1.8971306974 0.9467240835
H 0.1234985500 -0.2512857205 2.1485584314
H 0.5835706716 -1.6952293146 1.2200899183
H 1.7042726855 -0.3282551126 1.3286183554
H -1.4743423618 -1.2410267714 -0.2545222981
H 1.5088628055 -0.9782868331 -4.3025279545
H 3.8965606301 -1.6582559464 -4.1994702556
H 3.7962972120 -1.8104252583 -2.3828518903
H 1.9762707309 -3.5365263258 -2.6138095523
H 2.0616049131 -3.3985314300 -4.4323794177