20

C -0.1194564536 1.5311782849 -0.1400030640
C 0.0863108137 0.0246164058 -0.2013100455
C 1.3582397160 -0.5420291047 -0.9374768138
C 1.7499256205 -1.2455714614 0.3629089165
N 1.9171817157 -0.1690472650 1.3741099145
C 0.5602412554 -0.7043889335 1.0768853778
C -0.3162954861 -1.2869755061 2.1508256555
C -0.9086925993 -0.2144998337 3.0507079939
O -2.0818340954 -0.0977332010 3.2914126616
H 0.7598926593 2.0188202887 0.2889129460
H -0.2881692821 1.9434881107 -1.1406272210
H -0.9906182014 1.7881928642 0.4733792791
H -0.8104998247 -0.4706101435 -0.5879344592
H 1.1073109053 -1.2253073163 -1.7513744087
H 2.0796646985 0.2002405376 -1.2885839736
H 2.2582521695 -2.1949126750 0.4859397769
H 2.2352351751 -0.6181041470 2.2337660320
H -1.1388585180 -1.8719789239 1.7271939299
H 0.2846452398 -1.9548537535 2.7863810969
H -0.1581329283 0.4836749428 3.4860188252