21

C -0.7326689645 1.7462360562 -0.2055124534
C -0.0836100793 0.3710270738 -0.1249335003
C -1.1220265572 -0.7280951104 0.1673713874
O -1.7145523673 -0.5526151945 1.4358029317
C 0.7879173829 -0.0011997876 -1.3503630027
C 2.0219425573 -0.6663426503 -0.7481462233
C 3.0359600585 0.2413863682 -0.0752970154
C 1.9477824300 -0.4129572153 0.7291542765
O 0.8259510635 0.3854067511 1.0136675174
H 0.0311799791 2.5262191263 -0.2631516779
H -1.3686536336 1.8129503793 -1.0941867586
H -1.3559631060 1.9225686231 0.6740843262
H -1.9260520001 -0.6973730787 -0.5766079872
H -0.6296222706 -1.7119600866 0.0861840280
H -0.9769355254 -0.3706902571 2.0333924555
H 0.2508812306 -0.6854671417 -2.0150798388
H 1.0432068219 0.8878321365 -1.9363487049
H 2.3559097926 -1.6176994767 -1.1439690042
H 4.0486422871 -0.1321782282 0.0355675512
H 2.9547498032 1.3112412291 -0.2379329428
H 2.1731389473 -1.1602264567 1.4829713557