15

C 0.0054704538 1.4504768377 0.0655276439
N -0.0357062047 0.0105536825 -0.0869872425
C 0.6065243249 -0.6827364321 -1.0470149192
N 1.2731162292 0.0136965912 -2.0009034773
H 1.6537731879 -0.5170396065 -2.7704336588
H 1.0107021426 0.9636847722 -2.2000819699
C 0.6168511520 -2.0867995119 -1.0416399315
C 1.2464770411 -2.7682218879 -2.1046775228
N 1.7855557691 -3.2458695288 -3.0169889768
C -0.0060978467 -2.7667161668 0.0264705200
N -0.5480886053 -3.2372799775 0.9407760815
H 1.0362967425 1.8223827257 0.0812030410
H -0.5465781760 1.9672485684 -0.7308550268
H -0.4647595704 1.7110841430 1.0141269194
H -0.5015276300 -0.5401801492 0.6179894796