23

C -0.7581522591 1.3044317523 0.0329464561
C -0.0559615404 -0.0507593382 0.0219637578
C 0.8414677591 -0.3091454418 -1.2168383721
C 1.9462382130 -1.3013665470 -0.7540594379
C 1.6073099494 -1.6123310900 0.7144023311
O 2.6870077079 -2.0368544376 1.5290888352
C 0.8618830125 -0.3540252559 1.2236898655
C 1.8292875602 0.7848020353 1.5733513554
O 0.0521175089 -0.6531676529 2.3548069781
H -0.0448768097 2.1312630185 -0.0525513585
H -1.4562969929 1.3864057336 -0.8069157259
H -1.3275671721 1.4381773942 0.9578309635
H -0.8284386174 -0.8295406828 0.0593380352
H 0.2559075108 -0.7012713353 -2.0525832138
H 1.2862987022 0.6293099081 -1.5649099804
H 1.9937744837 -2.2087860550 -1.3607188859
H 2.9382061689 -0.8356812893 -0.8110531854
H 0.8841235851 -2.4342010446 0.7672146837
H 3.4289810389 -1.4427177162 1.3739309127
H 2.4151688955 1.1206296964 0.7107761299
H 1.2746038829 1.6409700803 1.9630645813
H 2.5280273435 0.4582996862 2.3515669780
H 0.6336117094 -1.0371174584 3.0217703763