19

O -0.0830518714 1.4209194602 0.0507904461
C -0.0512031254 0.0003333621 0.0014960970
C -1.4648292483 -0.4969731269 0.0038317805
C -2.5367172885 -0.2928340352 1.1174427942
C -3.2242780445 -1.1350168160 0.0015590771
O -4.4817798290 -1.7120035341 -0.0094375651
C -2.5770873960 -0.1753048716 -1.0446680023
C -1.9256023971 -1.9778495313 -0.0439170068
O -1.5939061418 -2.6875397293 -1.2102326983
H 0.8221302601 1.7410435065 -0.0024280002
H 0.4564415405 -0.3598052003 -0.9068146400
H 0.4861984585 -0.4184686604 0.8684068506
H -2.3566596735 -0.7892741233 2.0756159130
H -2.8897816781 0.7316428366 1.2467772101
H -5.1411105384 -1.0121290547 -0.0649497237
H -2.9367638463 0.8561156805 -1.0528191695
H -2.4256533443 -0.5768282962 -2.0457549749
H -1.7165683139 -2.5669532082 0.8604449107
H -2.2397085127 -3.3936321183 -1.3176772086