20

C -0.0762841825 1.5614883768 0.0952740785
C 0.0992579044 0.0702389880 -0.0200797799
N -0.7957218440 -0.8496297889 0.7483701547
C 0.6566384258 -0.8120848014 1.0422235077
C 1.4437955259 -1.9343924178 0.3772260456
C 1.2375165321 -1.6685724353 -1.1072364216
C 1.7603039026 -2.6064605678 -2.1532130993
O 1.3273568678 -2.3083382151 -3.4675339710
C 0.5253940684 -0.5560210117 -1.3126918137
H 0.8139984519 2.0917677642 -0.2595121643
H -0.9279850526 1.9064491361 -0.5027114576
H -0.2545336492 1.8593840389 1.1339316893
H -1.2721643250 -0.3044131090 1.4669627861
H 0.9811133714 -0.4173080316 1.9996434614
H 2.5074911711 -1.8984295373 0.6496696939
H 1.0711645281 -2.9233630376 0.6713982534
H 2.8577565638 -2.5624580381 -2.1833774765
H 1.5088139253 -3.6437610060 -1.8699156645
H 0.3642891841 -2.3297180485 -3.4589169042
H 0.2613235206 -0.1544965278 -2.2837086180