14

O -0.0661093745 -0.0378679576 0.0602185304
C -0.0322081349 1.1513153148 0.0703887684
O 1.1209881621 1.8465187409 -0.0970628529
C 1.0621245075 3.2569361391 -0.0964970107
C 2.1725592374 3.9978354803 0.6297349029
C 3.4633940156 3.8160911647 -0.0437789886
N 2.5157941101 4.8185883634 -0.6302566760
C 1.5587132590 4.0083812259 -1.3643092704
O 1.2497561692 4.0355536109 -2.5097227557
H -0.9086375315 1.8111297424 0.2186900000
H 0.0626540064 3.6131062316 0.1830581813
H 2.0645549361 4.4992524543 1.5828186619
H 4.3354846386 4.2891073097 0.3934194485
H 3.6643385390 2.9037856497 -0.5977672691