19

C -0.1074735419 1.5152192981 -0.0831250113
C 0.1174332510 0.0194296967 0.0091425482
C 1.4437103881 -0.6767700796 -0.1752764932
C 2.5628689227 0.0925072371 0.4880782286
O 3.0822212415 -0.6986065255 1.5803086037
C 1.8676227358 0.0572970204 1.7910249870
C 1.9118392913 1.0144599743 2.9477869902
O 3.1649544355 1.6568200616 3.0355000896
C 0.7098632786 -0.7127221188 1.1913067140
H 0.7205301844 2.0860385947 0.3424694588
H -0.2191584892 1.8213139487 -1.1289865741
H -1.0228135264 1.8025741934 0.4457752275
H -0.6937346765 -0.5547140580 -0.4379977590
H 1.5764974586 -1.5044259565 -0.8612457627
H 3.2264870980 0.8449983930 0.0805256381
H 1.1478412029 1.7898288395 2.8239917160
H 1.6686387313 0.4655784328 3.8743326621
H 3.8192500780 0.9653122085 2.8691636550
H 0.2263564862 -1.5682521902 1.6472894617