18

C -0.1790917636 1.5637983746 0.0318166891
C 0.0198464055 0.0431454003 -0.0094636970
C 0.8138336390 -0.4787277603 -1.2120976024
C 2.2574281144 -0.0850251777 -1.3548512210
C 1.9023842526 -1.4109263911 -0.6975574314
C 1.7941919756 -1.3533622026 0.7793828852
C 0.8090926282 -0.5274078936 1.1723181718
C 0.4970404768 -0.1973097009 2.5170861499
N 0.2065209270 0.0946948188 3.6008041373
H 0.7790936511 2.0909519245 0.0043559328
H -0.7731743306 1.8940374558 -0.8254342009
H -0.7038931125 1.8637424177 0.9437121665
H -0.9751259452 -0.4235404395 -0.0100668884
H 0.2658927297 -0.7214436559 -2.1146135085
H 2.6800445885 -0.1303456321 -2.3528003193
H 2.6686960882 0.6951071762 -0.7234077976
H 2.1773647557 -2.3362161182 -1.1897332945
H 2.4524979795 -1.8909317960 1.4514637085