23

C -1.4157509231 -0.5139416081 -0.3711789484
C -0.0783095273 0.1539540180 -0.0208790118
C -0.2937001274 1.6501056358 0.2594823060
C 0.6646158406 -0.4927583881 1.1460686915
C -0.0086381625 -1.2996159886 2.2567799703
C 0.9329803462 -1.9529374572 1.2957108038
C 0.7277531277 -3.1431488680 0.3599921446
C 2.0831726471 -3.6162093708 0.9259869265
O 2.2188225807 -2.4193703164 1.7238228780
H -2.1427480368 -0.3910819172 0.4390170358
H -1.8440814521 -0.0524053627 -1.2666534018
H -1.3127558493 -1.5845080327 -0.5701644483
H 0.5755129742 0.0733766460 -0.9021154629
H -0.9240481090 1.7916953156 1.1448450082
H 0.6569917621 2.1616079424 0.4418642970
H -0.7850940412 2.1439723037 -0.5854813891
H 1.5011229006 0.1078621679 1.4997172364
H 0.3388754995 -1.1484018547 3.2733252271
H -1.0651266513 -1.5320993866 2.1682297799
H -0.1312648325 -3.7804991056 0.5782590259
H 0.7399604599 -2.9031650122 -0.7051116441
H 2.0433559207 -4.5177621387 1.5490132328
H 2.8985131331 -3.7164283317 0.2008948325