17

O -0.0605893137 1.4018771723 -0.0351423573
C 0.0260256828 0.0117970849 -0.0752437369
C 0.9283580660 -0.6718210842 -1.0516665109
C 0.4145495069 -1.8385484827 -1.4400501609
C -0.8727756890 -2.1480047482 -0.6873205361
C -0.5085512976 -2.9744330959 0.5682657263
O 0.1679489748 -2.0444817968 1.4264926317
C -0.3820393112 -0.7760596582 1.1846512169
C -1.2516860708 -0.7979483500 -0.0331266567
H 0.6586811997 1.7320549122 0.5141850144
H 1.8822967666 -0.2538723145 -1.3508667039
H 0.8981498852 -2.5642351498 -2.0839480811
H -1.6600813464 -2.6133632916 -1.2853525303
H -1.4121187873 -3.3668275694 1.0604603640
H 0.1775270148 -3.8022982853 0.3697037890
H -0.6417400782 -0.2119474370 2.0759096071
H -2.2377314327 -0.3561945459 -0.0918923851