19

C -0.4668051955 1.5621027890 0.3445461538
C -0.0082766686 0.1416777857 0.1380249781
C -0.8429773187 -1.0344698426 0.6159895309
C 0.5150860337 -0.7481612132 1.2307076837
C 1.7223754189 -1.4862206058 0.6806948494
C 1.5590043098 -1.3315177768 -0.8577252662
N 0.8518542470 -0.0543483710 -1.0190249009
C 2.8369907226 -1.3350541914 -1.5805306620
N 3.8398097962 -1.3624619571 -2.1536907724
H 0.3904824833 2.2411640011 0.3782270183
H -1.1229234707 1.8884185876 -0.4710797004
H -1.0299062594 1.6580120239 1.2772650386
H -1.7111881538 -0.8133568568 1.2278025336
H -0.9670216003 -1.9055701173 -0.0203828171
H 0.5570332024 -0.4001788166 2.2565526680
H 2.6413746880 -0.9937805742 1.0105970353
H 1.7821912715 -2.5400919951 0.9650917061
H 0.9827836844 -2.1894354152 -1.2371850027
H 0.3452247191 -0.0198006843 -1.8978696941