16

C 0.0292916211 1.4977503253 0.0923701092
C -0.0031867955 -0.0146369610 -0.0116765709
O 0.6822289023 -0.5325179231 1.1467756839
C 0.7829577355 -1.8506860827 1.2774762301
N 1.4343188918 -2.2502965041 2.3812412515
C 1.5318664946 -3.5602888327 2.5065342910
C 0.9894446426 -4.4241927694 1.5490646976
N 0.3580350695 -3.9523903500 0.4817563665
N 0.2479220576 -2.6362090114 0.3351022323
H 1.0588684423 1.8655643619 0.1091733570
H -0.4816901153 1.9367583116 -0.7694531318
H -0.4726301528 1.8369686843 1.0026475131
H -1.0255399549 -0.4048039479 -0.0268256693
H 0.4973333014 -0.3763989892 -0.9151568095
H 2.0508018811 -3.9407661337 3.3839599934
H 1.0592401886 -5.5027890679 1.6342216061