21

C -0.0121389745 1.5619366771 0.0436972560
C 0.0121677035 0.0328361078 -0.0067500049
C 0.6908944153 -0.5015466590 -1.2781246594
C 0.8086128833 -2.0305639240 -1.2403176090
C 1.4744783357 -2.4765667065 0.0756613959
O 0.7606672420 -1.9712847019 1.2001175790
C 0.7236744321 -0.5531949384 1.2189869722
C 1.5478602064 -3.9300291978 0.1906729961
C 1.6156247696 -5.1280252286 0.2429227695
H 1.0040000557 1.9737234317 0.0436056606
H -0.5364610857 1.9756690386 -0.8237345766
H -0.5186670462 1.9251007629 0.9444140983
H -1.0209501524 -0.3406627541 0.0127180079
H 0.1387946519 -0.1844038200 -2.1700335088
H 1.6948530678 -0.0595549425 -1.3592240854
H -0.1828420738 -2.4937719632 -1.2927103499
H 1.3919534809 -2.4052295745 -2.0876554257
H 2.5033468411 -2.0710427511 0.0965497459
H 1.7506117057 -0.1481245917 1.2775400140
H 0.2053401518 -0.2814638480 2.1436424750
H 1.6764883098 -6.1864324468 0.3031473791