18

C -0.0525914593 1.5430325159 0.0136101579
C 0.0457867217 0.0437409162 0.0040568726
C -0.8339975297 -0.8401775947 0.8224733781
O -1.6065072620 -1.8412035272 0.1934853267
C 0.6463072281 -0.9655723619 1.0294992435
C 1.2576790981 -1.7983805597 -0.0985601716
C 0.6788254220 -0.7759316184 -1.1376678321
O -0.1498088094 -1.2250844231 -2.1752867730
H 0.9182455535 2.0069072973 -0.1940134560
H -0.7556749613 1.8884221082 -0.7535118962
H -0.4030645263 1.9198498479 0.9801396331
H -1.3668157614 -0.3237894765 1.6211865099
H -1.6140681814 -2.6205598502 0.7595792160
H 1.1059060186 -0.7656764512 1.9909476906
H 2.3493265517 -1.8211607167 -0.0871957986
H 0.8840580475 -2.8221363419 -0.1958591572
H 1.4880914900 -0.2132397695 -1.6122349400
H -0.8951941904 -1.6649112147 -1.7452467839