19

C 0.7993493995 1.2452876462 -0.3548336163
O 0.9851883603 -0.1415238191 -0.5157229583
C -0.1476360910 -0.7869544557 -1.0391579527
C 0.1188413117 -2.2981118526 -1.1589927341
O -1.0698593949 -2.9434610012 -1.5475546662
C 1.1991888840 -2.5829444026 -2.1968454815
O 0.9237308457 -2.8992266069 -3.3331657030
O 2.4361199922 -2.4431234454 -1.7262370617
C 3.4911687694 -2.6503861674 -2.6786506463
H 0.5896189581 1.7432387504 -1.3145919215
H -0.0299922332 1.4677039437 0.3347473163
H 1.7240513269 1.6525106828 0.0607031923
H -1.0249031909 -0.6596015345 -0.3855710531
H -0.4160009326 -0.3891034893 -2.0329167440
H 0.4454124649 -2.6759559755 -0.1841506111
H -0.9754637373 -3.1082011606 -2.4979160242
H 3.4133893834 -1.9312456759 -3.4975191345
H 4.4186483695 -2.5032730465 -2.1264651710
H 3.4422214842 -3.6618671799 -3.0886975292