20

C 0.0670327841 1.5108569733 0.0040545709
N 0.0544024628 0.0603235557 0.0429052796
C 0.5242256996 -0.5942057795 -1.1750164854
C 1.0940704730 -1.9402879313 -0.7091361562
O 1.2237967019 -2.9258699207 -1.3911743971
C 1.3791765568 -1.8332355031 0.7578489183
C 1.4198360431 -3.0992473884 1.5743932553
C 2.2509696146 -0.6229003346 1.1216906293
C 0.7505073684 -0.5252239087 1.1705420826
H 1.0767940058 1.9372418713 -0.1427493468
H -0.5716921697 1.8633701789 -0.8118850383
H -0.3355702457 1.9072016876 0.9416152270
H -0.2809051090 -0.7493778102 -1.9000747484
H 1.3236127909 -0.0327361762 -1.6933885463
H 2.2118256426 -3.7606017130 1.2104367342
H 1.6102350292 -2.8832018136 2.6295704457
H 0.4742538007 -3.6455726138 1.5013532797
H 2.7904578395 -0.7134260837 2.0587375589
H 2.7960785883 -0.1057334240 0.3392672508
H 0.2509426531 -0.4207928261 2.1290196661