20

C 1.8525369100 0.8005094474 -2.2782050806
C 1.5701935924 -0.6762334731 -2.1607724765
N 2.2224837408 -1.6482678277 -2.6476872602
O 0.4490565478 -0.8625889546 -1.4156774012
C -0.0259270988 -2.1916977792 -1.2061911297
C 0.7455093967 -2.9272869817 -0.1370451188
O 0.6501461741 -2.2873294304 1.1272181333
C -1.5190021776 -2.3020757183 -1.2768833119
C -0.6521223647 -2.9004837032 -2.3657454009
H 2.7492668583 0.9811593496 -2.8728055680
H 1.0032168935 1.3106548755 -2.7427783406
H 1.9871358110 1.2406360762 -1.2852842423
H 3.0229966688 -1.3074284669 -3.1755455861
H 0.3178506224 -3.9269006802 -0.0115777126
H 1.7896547375 -3.0431394835 -0.4547401674
H 0.9100189964 -1.3697050910 0.9935856868
H -2.0091034899 -2.9590716206 -0.5673336765
H -2.0665516247 -1.3977836090 -1.5158217355
H -0.6246634512 -2.3964247468 -3.3239096182
H -0.5401478128 -3.9776704225 -2.4232114030