15

N 0.0036312059 -1.1447629192 0.0782678019
C -0.0082491569 0.0107366042 0.0542757873
C -0.0040030256 1.4528283818 -0.0144632199
C -0.3411066455 2.1271964143 -1.3634048959
O 0.8182538631 2.9905850008 -1.2567753857
C 1.2619429995 2.3334568810 -0.0533413804
C 0.7985637521 2.9640340213 1.2677658279
C -0.5419870757 3.5522099206 1.1351831263
N -0.4575430398 2.0856930945 1.2994745224
H -0.2566933599 1.4446222774 -2.2156736079
H -1.2856149964 2.6774665190 -1.4216703423
H 2.2816878781 1.9518932342 -0.1092374543
H 1.4234443818 3.0786592168 2.1467596550
H -0.9669786180 4.0191818480 2.0176945127
H -0.8445797628 3.9982097452 0.1948916828