20

O -0.0381509113 1.2198707325 -1.2258544342
C -0.0109484357 0.3950044284 -0.0740655192
C -1.3415304867 -0.2868021962 0.1429415936
N -1.6622744356 -1.3056408125 -0.8901523322
C -1.4617266743 -1.7128383482 0.5054432873
C -0.4094297439 -2.7617860248 0.8884100244
C -1.5816799409 -3.6619570823 1.3831713209
O -1.4403799176 -4.4090461552 2.5610128600
C -2.5195568804 -2.4156171888 1.3657932280
H -0.3266937479 0.6475673293 -1.9472675924
H 0.7814659762 -0.3655381826 -0.1452512986
H 0.2282345631 1.0491048298 0.7713640179
H -2.1527292104 0.3727453112 0.4486910080
H -2.6563169015 -1.2800093983 -1.1062296161
H 0.2277394407 -3.1450139036 0.0895946253
H 0.2181202174 -2.4330669852 1.7254433612
H -1.8742493127 -4.3796793293 0.6123768883
H -1.1523816534 -3.8144103212 3.2620836311
H -2.6053669122 -1.9678746230 2.3631213698
H -3.5235930228 -2.5373293299 0.9490867269