21

C -0.2264035567 1.4951185892 -0.0962242078
C 0.0467822649 0.0070701321 0.0097523012
O 0.9307405126 -0.3697913043 -1.0581827218
C 1.4054712493 -1.6698745947 -0.7789436972
C 1.3719030378 -1.8086904086 0.7442593762
O 1.7651660029 -2.7472550277 1.3855146195
C 0.7308361102 -0.5218857987 1.2944657794
C 1.8893191816 0.3828863636 1.7656400618
C -0.2287426926 -0.8310672130 2.4434382077
H 0.6974382302 2.0743754125 -0.0289883890
H -0.6973777007 1.7177576536 -1.0575583865
H -0.9042262960 1.8185818050 0.6997238906
H -0.9058781588 -0.5396270836 -0.1106278711
H 0.7651101097 -2.4522387982 -1.2206411731
H 2.4162626659 -1.7928908989 -1.1791523905
H 2.5597191409 0.6390718143 0.9399980726
H 1.5041064232 1.3126109297 2.1949895136
H 2.4729459958 -0.1314922636 2.5345884135
H 0.2924685800 -1.3930367538 3.2233981905
H -0.6239480273 0.0893229530 2.8857606680
H -1.0759113330 -1.4371540778 2.1060810824