18

O 0.1360172732 1.3916070100 -0.0376104847
C 0.0910534113 -0.0041052589 0.0368889941
C 0.6652401465 -0.6376431010 1.3171610619
N 0.0162160423 -1.9670434095 1.4081019845
C -1.3329786002 -1.7664039998 0.9045452355
C -2.2707318263 -2.9198391312 0.6570124579
C -2.5357199218 -2.0064134607 1.8113723946
C -1.3437258409 -0.5382947521 0.0607273794
O -2.2842344767 0.0296330646 -0.4464083817
H -0.7167131951 1.6642251590 -0.4087877986
H 0.5914940056 -0.4705745741 -0.8341989470
H 1.7512226475 -0.7417161531 1.3111235826
H 0.3802607923 -0.0265467763 2.1813490764
H 0.5087435194 -2.6124994717 0.7961862326
H -2.9103187483 -2.8478698484 -0.2159787315
H -1.8783590637 -3.9087998572 0.8682200467
H -2.2979843552 -2.3597677777 2.8074230038
H -3.3535437698 -1.2996578619 1.7277886137