17

O 0.0613148928 1.4684802781 -0.0196538247
C 0.0240973057 0.0803411983 -0.2693504756
C -1.3603006028 -0.5169043148 -0.0285409495
C -1.5008010054 -2.0454453101 -0.1084634975
O -0.7471966496 -2.6144391751 0.9726376255
C -2.0694079439 -2.1394267674 1.2434081346
C -1.9562733455 -0.6160696303 1.4396668577
C -1.1775756444 -0.1811175683 2.6523084703
O -0.3607402677 0.7087187436 2.6899323731
H 0.0080370962 1.5602582744 0.9429468929
H 0.2809696950 -0.0598659336 -1.3267258287
H 0.7697471640 -0.4669925200 0.3229456404
H -2.0886333385 -0.0198588798 -0.6756186251
H -1.6623159061 -2.6724425047 -0.9771376635
H -2.7791298063 -2.8377031601 1.6707780985
H -2.9436776740 -0.1402847194 1.4991225560
H -1.4249869597 -0.7462865207 3.5780822156