18

O 0.1442023366 1.3891873279 -0.2709437074
C 0.0391973179 0.0100636919 -0.0056518879
C 0.2892982811 -0.5174338954 1.4545024561
C -1.1367140988 -1.1482000856 1.4314992444
O -1.2652093885 -2.5232242505 1.6306718497
C -2.3097235815 -0.2761663271 1.9332597158
C -2.1641570638 1.1553266412 1.6209335978
N -2.5869047245 0.2543924880 0.5272814610
C -1.4067908318 -0.5615320531 0.0321518883
H 1.0785489849 1.6145941645 -0.3204986753
H 0.6324370605 -0.5698413093 -0.7258423794
H 1.0775611424 -1.2717898012 1.5158654298
H 0.4621551110 0.2555771095 2.2075863452
H -1.1496115493 -2.7050167577 2.5704776951
H -3.1149364146 -0.6752181272 2.5448425382
H -2.9789088189 1.8043919393 1.9318221522
H -1.1986264454 1.6421249439 1.5759947462
H -1.7177119972 -1.1775209192 -0.8106833400