23

C -0.0393946871 1.6177843905 -0.1000682405
C 0.0179739870 0.0901996829 -0.0036322888
C -1.3744408731 -0.5470232908 0.0784998787
C -1.3761332386 -2.0859249753 0.0999570836
C -0.7801285287 -2.6578838029 1.3929209764
C -2.8195286455 -2.6141781331 -0.1230135493
O -3.4228685362 -2.0701049185 -1.2964647410
C -2.8752730246 -4.0796449402 -0.1551441838
C -2.9067631421 -5.2785799040 -0.2449961524
H 0.9631887088 2.0524935098 -0.1626875812
H -0.5986891356 1.9374171200 -0.9862728034
H -0.5358591869 2.0508299770 0.7755293939
H 0.5471417229 -0.3114658098 -0.8784764486
H 0.6179020549 -0.1920546795 0.8697788577
H -1.8912777624 -0.1784347800 0.9771278422
H -1.9718492060 -0.2136625562 -0.7761458284
H -0.7769994966 -2.4464497970 -0.7499073275
H -0.7851369244 -3.7505944821 1.3849620511
H 0.2527834298 -2.3279552497 1.5304873010
H -1.3540506446 -2.3240786061 2.2661311710
H -3.4454322623 -2.2516448317 0.7033185093
H -3.0370609123 -2.5241814629 -2.0539988226
H -2.9504926862 -6.3379849104 -0.3074994977