21

O -0.1204846727 1.4131754337 -0.1653524261
C 0.0114642374 0.0105862144 -0.0048213903
C -1.3897275578 -0.5918709932 -0.1544189204
C -1.3929940622 -2.0423861076 -0.0111039194
C -1.3646049130 -3.2406410324 0.1089489186
C -1.3717541092 -4.6945060366 0.2590085407
C -2.7682817587 -5.2970538220 0.1898762068
C -3.3809103579 -5.6354351696 -1.1419288539
C -2.9430551870 -6.7393103812 -0.2081114425
H 0.7501878582 1.8104722656 -0.0745064361
H 0.6790665494 -0.4255618837 -0.7628867748
H 0.4172841260 -0.2502675797 0.9840244817
H -2.0447261092 -0.1287725896 0.5939187363
H -1.7869227833 -0.2997371198 -1.1343674545
H -0.7473401390 -5.1496236878 -0.5220231261
H -0.9021300155 -4.9669532375 1.2142115472
H -3.4468632877 -4.9171359519 0.9478063050
H -4.4428536400 -5.4668877856 -1.2809863977
H -2.7847176533 -5.4578545510 -2.0311264879
H -2.0549007673 -7.3044278993 -0.4731428376
H -3.7046052371 -7.3252059953 0.2945465909