19

O 0.0701059988 -0.0237368411 0.2013628688
C -0.0146826511 1.1749925698 0.0800781916
C -1.3566417704 1.8952194359 0.1028707441
C -1.5151491715 2.8395744238 -1.1088680546
C -1.3470281063 2.0885593866 -2.4002960203
C -0.1804650355 1.8671984148 -3.0191201504
C 1.1487662342 2.3399682305 -2.6260504508
C 1.7204225946 2.4408406869 -1.4181721371
C 1.2435134232 2.0407157077 -0.0400194774
H -2.1400930803 1.1331550247 0.1165448600
H -1.4287789338 2.4696706472 1.0367001308
H -2.5020493474 3.3113945306 -1.0660412418
H -0.7712428247 3.6416619443 -1.0469640553
H -2.2485355057 1.6671074334 -2.8390923685
H -0.2054494411 1.3245548904 -3.9626280126
H 1.7767428117 2.6318304521 -3.4675758767
H 2.7317664738 2.8435443363 -1.3965917728
H 1.1135940230 2.9528365184 0.5608340118
H 2.0487570684 1.4678433278 0.4344354811