17

O -0.5419304993 0.4610679253 1.2889048375
C -0.2031951684 0.1119841794 -0.0326379924
C -1.3537186826 -0.5815078665 -0.7824983767
O -1.1110041398 -0.6541726646 -2.1792661847
C -1.6045200349 -1.9832831391 -0.2412213731
O -1.7325657943 -2.1388020441 1.1778947148
C -2.8865529356 -2.4225175793 0.3541904723
C -4.0191584131 -1.5481137632 0.4753272021
C -4.9865878333 -0.8413155807 0.5688553201
H -0.9192597706 -0.3247936715 1.7047123224
H 0.0358052144 1.0384789349 -0.5649947206
H 0.6963561412 -0.5323592988 -0.0737060953
H -2.2537533897 0.0277817378 -0.6604222703
H -0.2290402394 -1.0207498046 -2.3125386140
H -0.9932077161 -2.7564410564 -0.7126706867
H -3.1242158534 -3.4842679650 0.3094869369
H -5.8366928752 -0.2098650935 0.6553343777