17

C -0.0461383710 1.6078586542 -0.0237714768
C 0.0772494263 0.0939328536 0.0958659400
N 1.1729766462 -0.7848198002 -0.3556414993
C 2.5513849628 -0.3263803995 0.0830245869
C 2.7030070328 0.9015326680 0.9435121934
C 2.2025516155 -0.3765796555 1.5488963983
C 0.7672088262 -0.7555093169 1.1183143952
C 0.1022260829 -1.8635243457 1.7383348534
N -0.4329966808 -2.7354414045 2.2797030337
H 0.6878601335 2.0185328148 -0.7206048012
H -1.0378466269 1.8470092712 -0.4156234837
H 0.0570134967 2.1178089535 0.9366452943
H -0.8438694566 -0.4030257138 -0.2063641980
H 3.3770872646 -0.7699309051 -0.4561489797
H 3.7457230644 1.0904381876 1.1863217448
H 2.1156970768 1.8009298272 0.8579148660
H 2.6959963465 -0.8988674289 2.3562458526