18

C -0.4098011201 1.1940431179 0.1702444035
O 0.2186239857 -0.0748377222 0.0092045910
C 0.8236148900 -0.5393840593 1.1428394942
C 2.1912603313 -0.2278062059 1.7262943492
N 2.0492252305 -1.5002124343 2.5474317039
C 0.9317299311 -1.1385712575 3.5152809851
C -0.0035196313 -1.1298137017 2.3242347921
O -1.3761923915 -1.0552037608 2.2577190981
C 0.9773366296 -1.9767790663 1.5434138143
H 0.3173200595 1.9670057241 0.4546232233
H -0.8402214914 1.4542857104 -0.7988242181
H -1.2033455528 1.1476780806 0.9236500947
H 3.0011644714 -0.3493464754 1.0020167997
H 2.3512504402 0.6797705320 2.3188887297
H 0.7628423644 -1.9746217138 4.2021037364
H 1.0989516868 -0.2189626269 4.0874652868
H -1.7496801374 -1.8807575104 2.5857414089
H 0.9644604738 -2.9250830305 1.0253806072