18

C -0.0480792555 1.5824079132 -0.0519421385
C 1.5694663342 1.6213510630 -0.0536871018
O 2.4542912949 1.5179477899 1.1434749734
C 1.6716182263 0.2996934007 1.4503568605
C 1.3212549787 -1.2260152324 1.7728304052
C -0.1261184803 -0.5433768259 1.4788791978
C 0.4233015834 0.6220303105 2.2952544741
N -0.1102019698 0.0322157100 0.0393509396
C 1.3538096822 0.1467927501 -0.0488205225
H -0.6801891302 2.1691033489 0.6144199402
H -0.3189793386 1.8156981670 -1.0851534940
H 2.0351940220 2.2502384726 -0.8096653460
H 1.7129065386 -1.9849063317 1.0951754160
H 1.3604996000 -1.5619852350 2.8098956091
H -1.0331943990 -1.0887404847 1.7346668290
H 0.6062833516 0.3606347691 3.3396772756
H -0.0456235875 1.5990266828 2.2545904548
H 1.9475951191 -0.5813473581 -0.6018339726