18

C -0.0060764789 1.4602721319 0.0506829559
C -0.0624997144 -0.0301956223 -0.1161198528
C -1.4149307432 -0.7662563562 -0.0328961781
C -1.3300604293 -2.2181841887 -0.3899040253
C -0.7290521518 -1.7397953520 0.9018061008
N 0.5809998954 -0.9715000247 0.8847639535
C 1.1312034857 -0.8517645460 -0.4708100782
C 1.4067215978 -1.9204240335 -1.4880293474
O 1.6160338882 -3.0824079184 -1.2519645257
H 1.0074760981 1.7933975852 0.2894750383
H -0.3304273323 1.9666312193 -0.8661916351
H -0.6691427107 1.7785029648 0.8625583133
H -2.3451347625 -0.2273431419 0.0894726991
H -2.2607767350 -2.7564483795 -0.2308591488
H -0.7625890333 -2.5916898918 -1.2298945633
H -1.0337657534 -2.1256146128 1.8651435812
H 2.0358718973 -0.2333157061 -0.4347949285
H 1.5079775123 -1.5110769170 -2.5207419189