16

N -0.0302798242 1.4635595553 -0.0454289340
C -0.0128483123 0.0639436150 -0.0139634759
C -1.0394154560 -0.8294832070 0.0030012085
O -0.5650484868 -2.0879487748 0.1332963520
N 0.8114966191 -2.0395401773 0.1906960180
C 1.1445588422 -0.7701764476 0.1184729808
C 2.5631578404 -0.3582646774 0.1787397161
C 3.4214375442 -0.8359581892 1.3048702602
N 3.6206527170 -1.3539273954 -0.0506595736
H 0.7150583415 1.8538512815 -0.6084636817
H -0.9142949757 1.8394984793 -0.3625783422
H -2.1113857303 -0.7305863492 -0.0582548469
H 2.7754243760 0.6202536923 -0.2458780936
H 4.2180787195 -0.1987213236 1.6789256210
H 2.9439866678 -1.4730826472 2.0434273931
H 3.1812702976 -2.2691807947 -0.1339344118