16

O -0.0840804708 -0.1031629601 0.1456251530
C -0.0881581509 1.1088189530 0.0844138351
C -1.2832565561 1.9231497386 -0.0739181706
C -1.2241148350 3.2782367000 -0.1082839424
N -0.0796153994 3.9902575206 0.0883447594
C 1.0437067864 3.3081244838 0.7156719769
C 1.2424653531 1.9257392974 0.0634455950
C 2.3558178175 1.2196155991 0.6743115233
C 3.2860723170 0.6776644052 1.2068242915
H -2.2230137519 1.4104395356 -0.2320170387
H -2.1080858564 3.8740505985 -0.3169105749
H -0.1768030868 4.9743513941 0.2785587213
H 1.9450189868 3.9143953104 0.6014820902
H 0.8606833681 3.1655209074 1.7922212310
H 1.4565056187 2.0874381854 -1.0045722622
H 4.0989252897 0.1723521310 1.6666167921