19

O 0.0888217045 1.4215369518 -0.0050104721
C 0.0571626751 0.0259398754 -0.0581046634
C -1.3714849674 -0.4891257410 -0.0060991032
O -2.2897833654 0.3057927545 0.0378033953
C -1.6114983751 -1.9890729130 0.0229753001
O -0.3975189785 -2.6104748187 -0.3257024327
C -2.3045282584 -2.4113271950 1.3661738841
C -3.6701155677 -2.3977039442 0.6313474446
C -2.9169966805 -2.4047736346 -0.7247508186
H -0.8416889971 1.6957918695 0.0245346031
H 0.5234174372 -0.3620845535 -0.9767074840
H 0.6198222433 -0.4267969572 0.7730552506
H -0.5016908560 -3.5610834194 -0.2213749316
H -1.9848595811 -3.4228209132 1.6386101200
H -2.1721265006 -1.7569436652 2.2303631771
H -4.3438607794 -3.2326075784 0.8310847247
H -4.2017062156 -1.4588150964 0.7866639666
H -3.2697540897 -1.7307266012 -1.5067848527
H -2.8031483176 -3.4114617700 -1.1388783378