23

C -0.0077843864 1.6339199371 0.0741497887
C 0.0539908609 0.1010428097 0.0427309308
C 0.7910653500 -0.4400781134 1.2768439732
C -1.3500262708 -0.5016239614 -0.0622719755
C -2.2683462692 -0.0889227903 -1.2214960249
C -1.7326186305 -0.5692402107 -2.5405391196
C -2.4399569415 -1.5514730002 -1.6494768047
C -1.5203477458 -2.0077850860 -0.5274492522
O -0.3829041423 -2.7082977731 -0.9929841555
H 0.9962424064 2.0689271905 0.1225414585
H -0.5029590451 2.0297656172 -0.8178116013
H -0.5643505787 1.9878806617 0.9508116392
H 0.6234720766 -0.2018851365 -0.8440990040
H 0.2703092953 -0.1585525934 2.2002543421
H 0.8661122680 -1.5326560323 1.2609366456
H 1.8099509294 -0.0433410754 1.3365809111
H -1.8676794112 -0.3632462354 0.8951087667
H -3.0330707179 0.6760803622 -1.1642121036
H -2.3026444753 -0.2554788161 -3.4091325991
H -0.6668435465 -0.6640857967 -2.7193597827
H -3.3351730222 -2.0708885131 -1.9681089955
H -2.0557911515 -2.5953932318 0.2286127228
H 0.1022046786 -3.0413526926 -0.2318685400