13

O -0.0580291108 1.5027999812 0.0269082941
C 1.3799793394 1.2060262460 -0.0152043715
C 1.1375150819 0.1190824382 1.0660328266
O 2.0576730420 -0.9574722872 1.1617454071
C 2.4449377931 -1.4310777341 -0.0478207744
N 2.0572396152 -0.9952823547 -1.1719659762
C 1.1189237239 0.1055035562 -1.0870124207
C 0.0085932997 0.0355711187 0.0040216477
H 2.0852281068 2.0350545154 -0.0262734597
H 0.8699283575 0.4490540400 2.0672406600
H 3.1477596042 -2.2528774338 0.0536785965
H 0.7963847563 0.4673943663 -2.0621570417
H -0.9209389991 -0.5306580435 0.0158674221