16

C 0.3723465745 0.8075758530 0.8660265024
C -0.3501814530 0.3754881282 -0.4123726416
C 0.5635943157 -0.1154773175 -1.4902516317
C 1.9237605005 -0.2368108977 -1.5047877832
O 2.3084126417 -0.7312179220 -2.7079400804
C 1.1489137753 -0.8932976480 -3.3890889234
C 1.1692261796 -1.4203361433 -4.7593975383
O 2.1680135080 -1.7354545206 -5.3592156165
N 0.0887796472 -0.5448715267 -2.7159269810
H 0.9360935529 -0.0220567529 1.3053600423
H 1.0734281640 1.6257695665 0.6707342048
H -0.3446597600 1.1553308863 1.6140034558
H -1.0761743100 -0.4155122727 -0.1871929007
H -0.9410517104 1.2085883256 -0.8126529747
H 2.7084795079 -0.0322010062 -0.7969957786
H 0.1509086960 -1.4978460019 -5.1884865352