16

C 0.3691510103 1.2269194772 0.3368807012
N -0.3314379937 0.0888987736 -0.2663609228
C 0.3673836717 -0.6853256456 -1.1643074172
C 0.7225966498 -1.9954267655 -1.1953905939
N 0.4037703601 -3.0053182814 -0.3008556487
N 1.4422706322 -2.2826816738 -2.3528467666
C 1.4807512558 -1.1396885292 -2.9649952830
O 2.0712016004 -0.8745186301 -4.1301804572
O 0.8792464340 -0.1171736893 -2.3808186051
H 1.2760877861 0.8653005172 0.8297008244
H 0.6593223698 1.9995709859 -0.3890368884
H -0.2751996783 1.6848612358 1.0935052741
H -1.2571497639 0.3537610724 -0.5867346566
H 0.1353022847 -2.6511011764 0.6071900858
H 1.1283134398 -3.7072912290 -0.2338944039
H 2.4553884013 -1.7062156619 -4.4363375321