18

C 0.0966018435 1.6073785347 -0.0864097633
C -0.0123647067 0.1093388013 0.0000952387
C 0.3071614312 -0.8125216876 -1.2137908815
C -0.5990673124 -1.8418958700 -0.5420542295
N -0.4356984664 -1.7950824112 0.9284343776
C 0.5843292147 -0.7148535304 1.1567239040
C -1.3092669738 -0.7747519177 0.2436535386
C -2.7406392091 -0.5685171484 0.5010480429
O -3.5160127016 -1.4495257010 0.7866830880
H 1.1368892849 1.9079065596 -0.2574508055
H -0.5024170594 2.0078390591 -0.9113531139
H -0.2402799984 2.0870597814 0.8389057611
H -0.1448216626 -0.4437436336 -2.1381653146
H 1.3574277686 -1.0704176064 -1.3893068621
H -1.0411759695 -2.7427747933 -0.9467878030
H 1.6270136650 -1.0433220392 1.0734703921
H 0.4050110385 -0.2786962944 2.1425550998
H -3.0785742862 0.4867591272 0.3910386407