13

C 0.0501247888 1.3631564307 -0.0656801579
O -0.0476304047 -0.0605563321 -0.0749946911
C -1.2516353655 -0.6041198768 0.0200836231
C -2.4406266964 0.0413053613 0.1285381567
N -3.6280290646 -0.6587611461 0.2202999719
N -3.7209501191 -1.8814743678 0.2131730664
O -2.4656301941 -2.6596634312 0.0975113264
C -1.2354932807 -2.0878350899 0.0004088563
O -0.2459690924 -2.7594410561 -0.0911970688
H 1.1123749739 1.5880259818 -0.1526952694
H -0.4927124844 1.7951752492 -0.9136850018
H -0.3417899103 1.7731266162 0.8717377604
H -2.5478641004 1.1162011508 0.1508385378