20

C -0.1999123835 1.5356964929 -0.1384062846
C 0.0222698510 0.0415214003 -0.0039418275
C 1.3535714848 -0.6418195884 -0.2170613950
C 2.6096215937 0.1955048259 -0.0405594942
O 2.4611209509 0.8876541972 1.1965968405
C 1.6439361019 0.0991619187 2.0685872597
C 1.0171791906 1.0085964977 3.1162843437
C 0.7033275068 -0.6671077506 1.1496167126
H 0.6509426078 2.1118610629 0.2264145325
H -0.3669642214 1.7994011341 -1.1891231354
H -1.0887991085 1.8491956579 0.4205814354
H -0.8090440502 -0.5404280821 -0.3977512416
H 1.4154083320 -1.5239604278 -0.8445935824
H 3.4945281076 -0.4612783395 -0.0217914299
H 2.7654104521 0.9521760639 -0.8177281227
H 2.2764719358 -0.6451992968 2.5857742465
H 0.3458347339 1.7395414827 2.6601129299
H 0.4446929016 0.4133358042 3.8346661755
H 1.7962774081 1.5469621003 3.6637534343
H 0.2525515051 -1.5711637435 1.5446006925