21

C -0.0851159961 1.0209342402 -0.7947722848
C -0.3681775845 -0.4669400253 -0.6745460064
O -1.2987223739 -0.6491327057 0.3842153402
C -1.5969885359 -1.9966526807 0.7233006352
C -1.9599453114 -2.0441491261 2.1984163773
C -2.7668654059 -2.4803870823 -0.1466836366
O -3.9163767502 -2.5555740504 0.2034268250
O -2.3455057225 -2.7826883748 -1.3934030158
C -3.3775874421 -3.1716938945 -2.3110084311
H 0.6366230794 1.2053002231 -1.5962546584
H -1.0035119242 1.5694749070 -1.0225324808
H 0.3241151595 1.4128755761 0.1406125130
H -0.7674077092 -0.8647691136 -1.6166332814
H 0.5581435994 -1.0221248074 -0.4524435272
H -0.7262976647 -2.6354251410 0.5138169518
H -2.1873282086 -3.0677921091 2.5080697049
H -1.1240040156 -1.6678093786 2.7925393417
H -2.8415755415 -1.4279938870 2.3853969158
H -3.8947385949 -4.0638159034 -1.9494301671
H -4.1081344403 -2.3680184817 -2.4318464316
H -2.8739961967 -3.3772016346 -3.2555129736