21

O 0.1159410352 1.4481455352 -0.0101792386
C 0.0891653345 0.0278358343 0.0387723940
C -1.3389153875 -0.5246728183 0.0071251072
C -1.4214587657 -2.0487661636 0.0702581639
O -0.7057577303 -2.5283796079 -1.0740823190
C -0.8243866170 -2.6878295885 1.3604306097
C -1.6647784915 -3.9291156685 1.5482943678
C -2.7833731146 -3.8809860863 0.8231732404
C -2.8768858479 -2.5991918847 0.0302067858
H -0.2257225447 1.7154367721 -0.8693343456
H 0.6774591827 -0.4184126288 -0.7732320067
H 0.5786880048 -0.2392436646 0.9814006570
H -1.9061907884 -0.0942810313 0.8395151614
H -1.8260846853 -0.1947897936 -0.9207239987
H -0.7362123854 -3.4915763537 -1.0460541909
H 0.2444176497 -2.8889953843 1.2322960953
H -0.9216042376 -2.0190176202 2.2271259203
H -1.3869059582 -4.7317553891 2.2224402932
H -3.5591186132 -4.6386367358 0.8144989867
H -3.5863923661 -1.9023978086 0.4979132879
H -3.1989541737 -2.7345316437 -1.0078742710