18

O -0.0360528632 -0.0522429335 0.0118452199
C 0.0433359928 1.1464256590 -0.0964155970
C 1.3208216834 1.9222633395 -0.0635915930
C 1.3469032218 3.1746497613 0.8688744246
N 1.8827377345 4.0610990092 -0.2120608909
C 2.9920674724 3.3202300171 -0.8889726526
C 3.7206075656 2.1969732684 -0.1583172612
C 2.6218389269 1.1288021579 0.0894473881
C 1.5965698850 2.9594865811 -1.1978379511
H -0.8714592243 1.7708207240 -0.2260015956
H 0.3495327065 3.5309807352 1.1400836284
H 1.9607906464 3.0987690072 1.7731826496
H 3.5414553987 3.9692536823 -1.5624714996
H 4.5362249555 1.8100199711 -0.7755558727
H 4.1725698305 2.5537955401 0.7733106991
H 2.6956088931 0.6559667962 1.0727751297
H 2.6622664434 0.3333016513 -0.6606465034
H 1.0556688911 3.1098574926 -2.1249477722