17

C 0.0030335047 1.5018831741 0.0671537945
C -0.0131131691 -0.0035580182 -0.0339509986
C 0.7322432319 -0.6508528918 -1.2386936097
C 0.9565340213 -2.0720516631 -0.6819382019
O 1.4454529810 -3.0229158993 -1.2245670800
C 0.4007111971 -1.9724195572 0.7684233426
O 0.7096114933 -0.6100555162 1.0643983343
C -1.1114299317 -1.9362870883 0.5679657760
C -1.3656517138 -0.7251701337 0.0729820568
H 1.0308167948 1.8754554923 0.0579034897
H -0.5331242383 1.9474880214 -0.7761713615
H -0.4760037195 1.8265398432 0.9951240556
H 0.1814678267 -0.6601150755 -2.1809285001
H 1.7029820231 -0.1720883705 -1.4014760308
H 0.8265257319 -2.6644549646 1.4909773374
H -1.7809929914 -2.7734831922 0.7053073701
H -2.3067667618 -0.3217714903 -0.2762616143