19

C 0.2120965311 1.5749191964 0.0028437559
C 0.0865078327 0.0498146898 -0.0214067037
C -1.3590457710 -0.4511980499 -0.0023217955
C -1.4455726756 -1.9825937081 -0.0820067524
C -2.8683949931 -2.4992516739 -0.1571214543
O -3.2924651583 -3.1711080891 -1.0621759580
O -1.9904752469 -0.0417657353 1.2287722818
C -2.9521863426 0.9031875603 1.1894907759
O -3.4912824996 1.3134198304 2.1717830047
H 1.2628330204 1.8741885599 -0.0419567736
H -0.2986751689 2.0317869389 -0.8521858120
H -0.2126746490 1.9964739091 0.9182129478
H 0.5650757549 -0.3505908566 -0.9228490482
H 0.6125854346 -0.3865670619 0.8359482467
H -1.9111180122 -0.0066570680 -0.8433319726
H -0.9028795293 -2.3436008841 -0.9594632482
H -0.9739685470 -2.3956657028 0.8195917468
H -3.5167841748 -2.2131796988 0.6989268790
H -3.1819445453 1.2406942635 0.1602515798