16

O -0.5323775641 0.8107091207 -0.8661020958
C 0.0301111497 1.1148320596 0.1523839067
C 1.2870385929 1.9813991586 0.1510426417
N 1.3948059388 2.7461879154 -1.0672020029
C 2.5599024245 3.6086546891 -1.0353171272
C 2.2998254442 4.6446869982 0.0453431618
O 1.9467290260 4.0554521929 1.3154661412
C 1.3724194392 2.8430778157 1.4126756465
O 1.0070161206 2.4309093355 2.4809243091
H -0.2876224230 0.7637674079 1.1513726468
H 2.1165770523 1.2494984974 0.2960104280
H 1.3375048636 2.1408317184 -1.8764600357
H 3.5047225840 3.0715247192 -0.8289490954
H 2.6704222594 4.1227008247 -1.9947773335
H 3.1821662545 5.2573168748 0.2458615782
H 1.4719531976 5.2940313019 -0.2566181093