18

C 0.2477070396 1.4622449899 0.0397151442
C 0.0403649527 -0.0213333637 0.0198506756
C -0.2294323045 -0.8247724640 -1.0696207688
N -0.3721941871 -2.1119951767 -0.6376352995
C -0.1720676044 -2.1832275449 0.7294024723
C -0.2501755714 -3.4703432275 1.4711015288
O 0.5680428203 -4.4928422452 0.8910451669
C 0.0781497649 -0.8937270117 1.1481740386
O 0.3038073256 -0.5479489792 2.4529078803
H 1.2350836880 1.7397121339 0.4333311224
H 0.1782333537 1.8799687055 -0.9684031072
H -0.5014574027 1.9795264494 0.6541641365
H -0.3252767674 -0.5674702017 -2.1128767465
H -0.4696915699 -2.9239115606 -1.2217034689
H 0.0044757258 -3.2849327757 2.5232226367
H -1.2627443688 -3.8927123635 1.4512868035
H 1.4672239241 -4.1472830215 0.8664036658
H 0.4872835515 0.3951702173 2.4893301793