17

O 0.0303907531 1.3451081533 0.0158283016
C -0.0169042403 -0.0648676642 -0.0024584531
C 0.2602402111 -0.7413283897 1.3847077454
C -1.2072872826 -1.1867322492 1.4371025828
C -1.4763195475 -0.5202331519 0.0885653412
C -1.4999381710 -2.0302773754 0.2101733178
O -0.5285426185 -2.8231182449 -0.3801658548
C -2.8480945070 -2.6376220791 0.1789294423
O -3.0412514811 -3.7244419479 -0.3198634008
H 0.9552514017 1.6111018554 -0.0084635335
H 0.5444067028 -0.4770361315 -0.8492698181
H 1.0074923639 -1.5368196577 1.4245299694
H 0.4799750284 0.0280028690 2.1274076623
H -1.8277509853 -1.2361497768 2.3250457085
H -2.3206249182 0.0623484371 -0.2622582312
H -1.0021459874 -3.6181348722 -0.6737700240
H -3.6654122824 -2.0461990541 0.6381250641