16

O -0.1107976632 -0.0418953363 -0.1729788731
C -0.0340865656 1.1560783693 -0.0421040568
N -1.1076767298 2.0396408796 0.0310326665
C -0.6849124234 3.3543087745 0.3066399589
C 0.6468619425 3.4341870156 0.2507223772
C 1.7294719668 4.2873902680 0.8304448597
O 2.7384785364 3.3399339538 1.2303480009
C 2.2226411298 2.0063010798 1.1546058665
C 1.2076728425 2.0588750719 0.0006338454
H -2.0630583131 1.7213662899 0.0420736292
H -1.4178545759 4.1016656682 0.5771387518
H 2.1925067111 4.9770376243 0.1129023460
H 1.3881690273 4.8756865058 1.6933981313
H 3.0674919660 1.3371178451 0.9795856473
H 1.7282966677 1.7158354901 2.0936143637
H 1.7293987909 1.9640047105 -0.9597295246