16

C -0.4057887713 0.9774159383 -0.1449282640
O 0.6073904389 0.0055234484 0.0814881220
C 1.0117141013 -0.6398918307 -1.0638205833
C 1.4515948660 -2.0660006453 -0.9846035343
C 0.5264501289 -2.8223194099 -0.0335131666
O -0.6626320031 -2.3666396877 -0.7421915638
C 0.1421210087 -1.7082370055 -1.7116517563
C -0.2353224309 -1.7362074759 -3.0868506577
N -0.5255683521 -1.7287879647 -4.2073967947
H -0.0638590101 1.7562637544 -0.8405031031
H -1.3148880987 0.5120313884 -0.5445546140
H -0.6253265929 1.4325569039 0.8223660778
H 1.5593672808 -0.0338044725 -1.7890617718
H 2.3904520729 -2.4250377781 -1.3829284111
H 0.6175149932 -3.9091823792 -0.1121683042
H 0.5280445585 -2.5027507439 1.0109222749