18

C 0.0124220243 1.6121349207 0.0612900920
C 0.0347868404 0.0828715565 0.0015593330
N 0.6681623663 -0.5257081725 1.1602862844
C 1.9200687069 -1.0608253183 1.2207458961
N 2.2252282836 -1.4904118258 2.4235818728
C 1.1177532578 -1.2222348267 3.2012125470
C 1.0749490426 -1.5760720127 4.6525367743
C 0.1478448205 -0.6243447169 2.4358903306
H 1.0283735288 2.0125467383 0.1214313771
H -0.4681203179 2.0176998489 -0.8343251316
H -0.5432146162 1.9629966491 0.9354568892
H -0.9839570797 -0.3103367677 -0.0861361264
H 0.5841092937 -0.2549348628 -0.8822998051
H 2.5553862568 -1.1116648384 0.3476537996
H 0.1219164627 -1.2835505983 5.1021413717
H 1.2058906885 -2.6535789147 4.8004098077
H 1.8798060024 -1.0771933524 5.2033073089
H -0.8449233615 -0.2747162261 2.6694234488