15

N -0.1895035740 1.3036567831 -0.4451092607
C -0.1217896744 -0.0314762707 -0.1346872064
C -1.0490916108 -1.0259589313 0.0144473945
C -2.5464377916 -0.9058076662 0.0013810711
C -2.9650342608 -0.2897988337 -1.3209985841
O -2.9922551116 0.9033398257 -1.5166288212
N -0.3746012276 -2.2321687051 0.2019501747
C 0.8733202844 -1.9173599918 0.1873020180
O 1.1159550350 -0.5880369162 -0.0211723666
H 0.4226496240 1.9082210734 0.0848743259
H -1.1375824393 1.6482597047 -0.5302082040
H -2.9771299222 -1.9026920205 0.1213171990
H -2.9074592081 -0.2584629171 0.8099406790
H -3.1955785216 -1.0036874565 -2.1396945255
H 1.7366776585 -2.5464788078 0.3284969562