19

O 0.4036063939 1.2767091891 0.3035032429
C 0.2391925496 -0.0452786518 -0.1484316322
C -1.2255091553 -0.4947623283 -0.0716340534
C -2.1435192227 0.1161294030 -1.1423762111
C -2.2636772084 1.5690392615 -1.1305499635
C -2.4206152571 2.7597935316 -1.1487170416
C -1.4136834157 -2.0160797165 0.1489436205
C -1.8041144030 -1.6196997006 1.5857909416
O -1.7179331457 -0.2104883365 1.2713451300
H -0.1309444605 1.3471325301 1.1055174409
H 0.6019978767 -0.0906364989 -1.1819630504
H 0.8471480379 -0.7483726110 0.4463392364
H -1.7837832538 -0.2216010369 -2.1242831582
H -3.1417471596 -0.3198350732 -1.0119853915
H -2.5288782616 3.8158176296 -1.1531209322
H -2.2202724794 -2.4606899007 -0.4365670206
H -0.5136638694 -2.6239405769 0.0415376976
H -2.8119061761 -1.8986419986 1.9113041332
H -1.0873315999 -1.9093055748 2.3630612816