17

O -0.8782040252 0.9866234178 0.4958853207
C 0.2081583278 0.8437932621 0.0017112400
C 1.2988070940 1.9069096083 0.0733937128
C 1.4377299788 2.5233193286 1.4604896793
C 2.6366653971 3.4690924802 1.4586371142
C 3.8950394979 2.6805084302 1.0825601410
C 3.7458841997 1.7199126302 -0.0900745004
O 4.6812761022 1.2787398102 -0.6956524431
O 2.4956602624 1.2816292943 -0.4139572937
H 0.5041777436 -0.0715682427 -0.5536513677
H 1.0206582186 2.6955499070 -0.6440739204
H 0.5003582808 3.0303365937 1.7015546130
H 1.5779855754 1.7291522902 2.2041382556
H 2.4661975882 4.2768490464 0.7359147133
H 2.7682373015 3.9422203714 2.4361458421
H 4.7465727105 3.3256903703 0.8558290365
H 4.2047011866 2.0529539119 1.9290445867