23

C 0.1772230997 1.5087557280 0.1443422903
C -0.0960618354 0.0199905295 -0.0996502685
C 0.6397591013 -0.5660064957 -1.3209620114
C 0.1114459841 0.0773218182 -2.6075435339
O 2.0792131054 -0.3227971358 -1.2054370639
C 2.6265513221 -1.6520912923 -1.1949947470
C 1.8685621825 -2.3736096659 -2.3336039309
C 0.6758720045 -2.1172659071 -1.3516557041
C 1.7110260452 -2.4243676134 -0.2172576435
H 1.2532706607 1.6887782005 0.2133439928
H -0.2211767428 2.1398477728 -0.6555273968
H -0.2870157059 1.8348508171 1.0800943520
H 0.1850667204 -0.5359072034 0.7982111103
H -1.1722507503 -0.1460801866 -0.2393378941
H 0.3572871689 1.1419026082 -2.6268059796
H 0.5407693316 -0.3734277686 -3.5029748747
H -0.9780427436 -0.0208824733 -2.6644492098
H 3.7113975619 -1.5996480294 -1.1128306703
H 1.8684286836 -1.9070911820 -3.3188733816
H 2.1185559925 -3.4328879489 -2.4125974534
H -0.2790459763 -2.6360209598 -1.4355030170
H 1.9496821264 -3.4873313442 -0.1542540463
H 1.5649591335 -2.0070114578 0.7790803014