21

C 0.1315385309 1.4477804102 0.2043506372
C -0.0265191936 -0.0629597175 -0.0210950494
C -1.5020875884 -0.4571126712 -0.0390548374
C 0.7442043771 -0.5432606463 -1.2769570017
C 2.1011996651 -0.9741714418 -0.7451256987
O 3.0133001309 0.1185386059 -0.4654046716
C 3.0083469235 -0.1812078281 0.9514865812
C 1.8807319526 -1.2182369254 0.7649307540
O 0.5753720706 -0.7965974902 1.0777319711
H 1.1777213102 1.7494136958 0.1246288168
H -0.4363159210 2.0053664624 -0.5483434675
H -0.2484878707 1.7222787789 1.1926798717
H -2.0223712381 0.0252479852 -0.8724694724
H -1.6066438197 -1.5409305434 -0.1414594389
H -1.9907398399 -0.1524114245 0.8912412738
H 0.2437143755 -1.4085998430 -1.7253036897
H 0.8332525108 0.2337080651 -2.0401978706
H 2.5872112791 -1.7559297356 -1.3375591487
H 3.9675195799 -0.6061631451 1.2743050131
H 2.7594947381 0.6884211916 1.5680244185
H 2.0440262471 -2.2089131430 1.1946536493