15

N 0.0336141683 1.3728273060 0.1060227220
C -0.0196043346 0.0191758919 -0.0347782535
C -1.1950553262 -0.6531740616 -0.1367509176
C -1.3867624614 -2.0860314624 -0.1417738448
O -2.4150044673 -2.6447087225 0.1252740801
O -0.3116458585 -2.9288177368 -0.5154524690
C 0.7637279939 -2.5531952305 -1.2636732497
N 1.5439274684 -1.5749169276 -1.1171036110
C 1.3168260830 -0.6864061207 0.0164037140
H 0.9023521624 1.8502779197 -0.0628608279
H -0.8031423375 1.9161942764 -0.0336664276
H -2.1302128443 -0.1042361259 -0.0939937168
H 0.9483018792 -3.2796545888 -2.0537169926
H 2.1236155358 0.0525674710 0.0352811807
H 1.3774948689 -1.2504073382 0.9580061936