17

C 0.0080127746 1.5217239269 -0.0370297589
C 0.0157568715 0.0120051054 0.0296570049
C -0.3719054818 -0.7163783714 -1.3028825907
O -1.3697547858 -1.7194811776 -0.9071023546
C -0.8413755049 -1.9281968767 0.3302905064
N 0.0161027694 -2.8202229073 0.6044353787
C 0.9988825963 -2.1200747300 1.4597119305
C 0.6263914499 -0.6406534590 1.2842103658
N -0.8258078944 -0.6553741543 1.0442035857
H 0.8214222846 1.8834536818 -0.6759328884
H -0.9387975106 1.8838063762 -0.4515021997
H 0.1339958959 1.9629257334 0.9545455257
H -0.8616463936 -0.0200772062 -1.9863454249
H 0.4597940241 -1.2223814877 -1.8004806851
H 0.9307502259 -2.3893166409 2.5227550410
H 2.0013767364 -2.3899892030 1.1125940579
H 0.9849155825 0.0618462105 2.0334316856