17

O 0.0070012926 -0.0499698376 -0.0532309222
C -0.0346028893 1.1649997020 0.0091625243
N -1.2052630768 1.8684297615 0.0047116995
C -1.2877299617 3.3181114893 -0.0822890921
C -0.0477005101 3.9447430022 0.5256270981
C 0.3840454829 3.4602463276 1.9380956663
C 1.5937343488 2.8495399863 1.2450423680
C 1.2220558576 1.9882744876 0.0915467922
N 1.2487687117 3.4583695659 -0.0969349810
H -2.0346985161 1.3109611263 -0.1366141242
H -1.3963855991 3.6537918013 -1.1244804238
H -2.1728423956 3.6603140060 0.4670031314
H -0.0991457019 5.0306330252 0.4316376857
H 0.6514722787 4.2907422502 2.5933624348
H -0.2825328970 2.7796309108 2.4740376159
H 2.6106448684 2.8540855965 1.6237866801
H 2.0520523368 1.4923635292 -0.4005702331