18

C -0.0356210845 1.2732741616 0.3113053924
O -0.0444311218 -0.0987756387 -0.0070854440
C -1.3333652811 -0.6613741369 0.0388578938
C -1.2168329284 -2.1313881626 -0.2825386049
O -0.6827925679 -2.9230317870 0.8450060049
C -1.8710651942 -3.5918683913 0.9911689873
N -2.2906005625 -4.3870543574 1.8654351183
C -2.5231590483 -2.9623639066 -0.2244487093
O -3.7088737326 -2.2424030790 0.0009952562
H 0.9996680933 1.6156194873 0.2463857041
H -0.6502150485 1.8589737866 -0.3906040681
H -0.4089582694 1.4578182970 1.3306312543
H -1.7977941360 -0.5284891483 1.0276300487
H -2.0043255404 -0.1917970752 -0.7006178160
H -0.5902900012 -2.2855713553 -1.1637190062
H -1.5970623969 -4.5542691841 2.5962099035
H -2.6290151334 -3.6552690341 -1.0689516655
H -4.1903284962 -2.7012306960 0.6993828105