20

C 0.3917987511 0.8818180057 -0.4481594603
O -0.2918105297 -0.1235965865 0.2836180570
C 0.4811000210 -0.6431129471 1.3246282455
C 0.0181662173 -1.9519898310 1.8932174529
C 1.2747384651 -1.8974438187 1.0446228450
N 1.2424196261 -2.4142815596 -0.2872984577
C 2.2204061894 -3.2282126784 -0.7835031568
C 2.0378549444 -3.6385327135 -2.2371189289
O 3.1705395944 -3.6011267931 -0.1182592730
H 1.3136923902 0.4975779241 -0.9051258990
H -0.2871793416 1.2237825022 -1.2325266764
H 0.6505288754 1.7347759486 0.1957350708
H 0.9004590537 0.1093760373 1.9930699369
H 0.1104655618 -2.1193939737 2.9603909109
H -0.8636342326 -2.3864259811 1.4342034217
H 2.2381097474 -2.0546306629 1.5119811723
H 0.4951220183 -2.0929882782 -0.8814267664
H 1.1340973298 -3.2341848139 -2.7005963799
H 2.9100450144 -3.3087717892 -2.8080040565
H 2.0075840940 -4.7299362610 -2.2914791078