22

C 0.3550494955 0.8838521690 -0.7379304337
O -0.3287257464 0.4320996702 0.4259971192
C -1.4250137175 -0.4012000604 0.1880365320
C -2.6313729469 -0.0890813591 1.0295396526
C -2.6461802302 0.2289996243 -0.4490983929
C -1.1447004967 -1.8571363862 -0.0885389928
N 0.1331882772 -2.2401179854 -0.7085102176
C -0.1721908591 -2.7083062484 0.6569403514
C 0.7095948225 -2.2240359505 1.7826402952
H 1.1254618205 1.5762627290 -0.3892178639
H 0.8195780649 0.0524369872 -1.2743682631
H -0.3241373378 1.4217701435 -1.4137715021
H -3.2325885866 -0.9153907254 1.3938436357
H -2.5314477828 0.7427125898 1.7166217134
H -2.5743711895 1.2733218206 -0.7300872419
H -3.2604184189 -0.3744739495 -1.1093370421
H -2.0375740201 -2.3776819421 -0.4364764435
H -0.0041155194 -2.9797645238 -1.3911266241
H -0.4664563358 -3.7550532672 0.7426580051
H 0.9426933152 -1.1661774256 1.6640982912
H 0.2056695655 -2.3624089134 2.7457047779
H 1.6443379566 -2.7950186368 1.8085643440