16

O 0.1560709522 1.4675609641 0.0374964879
C 0.0658955748 0.0723136889 -0.0004438980
C -0.0155685097 -0.5967930363 1.3635758352
C -1.5202459473 -0.2593719079 1.5782343861
C -1.7931963139 -1.7355257445 1.8316643004
N -0.7189868542 -1.8414942152 0.7485740596
C -1.3372871794 -0.5772908963 0.0483815581
C -2.3359832053 -0.6648687078 -0.9686416474
C -3.1678855781 -0.7028243950 -1.8376141715
H 0.0223082639 1.8049018654 -0.8541815199
H 0.7559960203 -0.3920715519 -0.7169808590
H 0.7534486634 -0.7236702680 2.1248767667
H -1.9585910642 0.6407177927 2.0145320053
H -1.4760208964 -2.1596189936 2.7895181374
H -2.7597268726 -2.1459973099 1.5256109045
H -3.9039098335 -0.7476750146 -2.6020434554