19

C 0.0521422030 1.5517115121 -0.1596242560
C 0.0993668890 0.0348728493 0.0348745621
O 0.8417319956 -0.3036601745 1.2101531812
C -1.3121837863 -0.5673789784 0.0687043473
C -1.5712603661 -2.0844100992 -0.0376802166
C -0.9891285763 -2.8149770902 1.1182916890
C -2.3190965831 -2.0847038487 1.3216801760
C -2.0589772298 -0.6152625714 1.4335887242
O -2.3855978476 0.2445527778 2.2066636913
H 1.0613056600 1.9690468814 -0.1090064619
H -0.3856697607 1.8137520129 -1.1282224058
H -0.5612359597 2.0156807633 0.6215844409
H 0.6647667672 -0.4236054149 -0.7852910807
H 0.4616168395 0.1975912639 1.9419243418
H -1.9609432045 -0.0302929907 -0.6345618314
H -1.8993933145 -2.5810615714 -0.9415195987
H -1.0992949926 -3.8947459173 1.1028992640
H -0.0881121171 -2.4510064879 1.5956804507
H -3.2058574061 -2.6160825063 1.6428001925