13

N -0.1075651112 1.3203501816 0.0092349233
C 0.0738572829 -0.0164965355 0.0022950214
O 1.1272362214 -0.6108119674 -0.0087956231
N -1.1636426297 -0.7318505941 0.0105487802
C -1.2950344501 -2.0888414103 0.0075007686
C -2.6417210754 -2.3510547463 0.0179005658
C -3.2562469730 -1.0738099331 0.0269480626
N -2.3642753264 -0.0959179528 0.0225626241
H 0.7047829873 1.9099468445 0.0024351345
H -1.0410819023 1.6981946041 0.0169282243
H -0.4205480284 -2.7169466666 -0.0017308459
H -3.1183341351 -3.3175535012 0.0188850692
H -4.3102755498 -0.8359934029 0.0364307050