25

C -0.0276389865 1.5954607763 -0.1288660783
C 0.0147989469 0.0768899114 0.0767271883
C -1.3669714634 -0.5645917205 0.0190133211
C -2.1269365689 -0.6178363586 -1.3367355881
C -2.6819190997 -1.9992854376 -0.9092127103
O -2.7342343097 -3.0481523889 -1.8506538469
C -1.5397003564 -2.1237809170 0.1430765892
C -0.3510136062 -2.9223654842 -0.4012084520
C -1.9493811544 -2.6447208478 1.5182894739
H 0.9749440279 2.0320527778 -0.0817788488
H -0.4564911450 1.8518484207 -1.1036838824
H -0.6397333366 2.0822038268 0.6388725765
H 0.6653467904 -0.3737989827 -0.6822681538
H 0.4781579399 -0.1450063616 1.0476194733
H -2.0064648468 -0.0862241628 0.7722389069
H -2.8430538061 0.1762578418 -1.5635056082
H -1.4374701380 -0.7274162864 -2.1800050923
H -3.6508315797 -1.8846249457 -0.3996782996
H -3.4418571823 -2.8587764505 -2.4745909823
H -0.0357890563 -2.5828887784 -1.3910001352
H 0.5073877788 -2.8468171015 0.2747336486
H -0.6192709060 -3.9784991717 -0.4948586692
H -2.2203990533 -3.7058790204 1.4732440911
H -1.1303353935 -2.5436934043 2.2403416099
H -2.8105654050 -2.0941313141 1.9126902686