18

N -0.0154707594 1.3097917884 -0.0618238939
C -0.0672312872 -0.0662352997 -0.2487766325
O 0.6937439120 -0.6583615674 -0.9909112516
N -1.0376730093 -0.6927053496 0.5057815662
C -1.1347091939 -2.1385518629 0.5448016491
C -2.5017377521 -2.6441418454 0.0690417639
C -2.5736399951 -4.1830405757 0.1076811486
C -3.8791599288 -4.6927200058 -0.3040066262
N -4.9194079510 -5.0771083902 -0.6287045961
H 0.5404347418 1.7696378080 -0.7670223509
H -0.8782514193 1.7878220832 0.1517898825
H -1.4617465554 -0.1730283192 1.2570094875
H -0.3391655563 -2.5131642295 -0.1045907317
H -0.9337439303 -2.5068385476 1.5608117021
H -3.2984641026 -2.2297610673 0.6971954473
H -2.6844085179 -2.2912750010 -0.9504653723
H -1.8076227583 -4.6148649476 -0.5470732745
H -2.3630599868 -4.5500719007 1.1196018923