18

O 0.1808812741 -0.0008243196 0.1092475577
C 0.0791305100 1.1845168313 0.0624020102
C -1.0432553171 2.2435767356 0.0564694456
N -0.0879827837 2.9972963634 0.9471372019
C 1.0032867991 2.4202267838 0.0810839601
C 0.7271095772 3.0237442788 -1.3208810108
C 0.8154716141 2.0980908036 -2.5721804519
C -0.7397409087 1.9638562141 -2.5908879144
C -0.8411744828 2.8883769809 -1.3397420563
H -2.0507088814 2.0535008416 0.4232123131
H -0.1737705181 4.0079692479 0.8265850578
H 2.0193630298 2.4048149383 0.4721636956
H 1.1645306606 4.0189749675 -1.4275405527
H 1.2246438620 2.5926728838 -3.4552833517
H 1.3658825825 1.1667145006 -2.4174068297
H -1.2063913313 2.3828545645 -3.4845222526
H -1.1259859908 0.9516349283 -2.4473911681
H -1.4399686554 3.7941658957 -1.4588618940