13

O 0.0812329221 1.3131173568 0.2197910392
C 0.0687921176 -0.0181334190 -0.0004173165
C 0.0838255940 -0.7544540691 -1.1728887173
C 0.0573047231 -2.1096411298 -0.7259839739
C 0.0281591277 -2.1278073151 0.6608629938
N 0.0352027734 -0.8226995711 1.1142127107
N 0.0019989951 -3.3820415311 1.1467709325
N 0.0133330076 -4.1910122788 0.1152434811
N 0.0467308246 -3.4304984720 -1.0264143695
H 0.1045304391 1.7680006550 -0.6280096151
H 0.1097016028 -0.3558600195 -2.1735401420
H 0.0201940901 -0.4896423432 2.0619152646
H 0.0591787727 -3.9035505429 -1.9134789976