18

O -0.3534761277 0.0658802855 0.3665517493
C -0.1069654091 1.1948018592 0.0345343260
C 1.2979400347 1.7617439012 -0.1093031598
N 1.3655597135 2.7257914195 -1.1816168531
C 1.4823499705 2.2474316909 -2.5737305094
C 2.4244540238 3.4464100764 -2.8839064860
C 2.5782716863 3.5492087672 -1.3374809344
C 3.6690766424 3.1478350003 -3.6713106588
O 4.0387224349 3.7635547800 -4.6368272720
H -0.9066673713 1.9370744553 -0.1863002672
H 1.5180183652 2.2831569603 0.8344863770
H 2.0140588901 0.9254140875 -0.1986041007
H 2.0059303827 1.2797146029 -2.6560877686
H 0.5440002702 2.1915025016 -3.1327590202
H 1.9052257472 4.2994015601 -3.3204788930
H 2.5239621641 4.5479450876 -0.8942269896
H 3.4958790410 3.0495493499 -0.9847391398
H 4.2536090916 2.2793130146 -3.2830486898