21

C 0.0465630755 1.2881055222 0.6886377113
C 0.0194535676 -0.1419517180 0.1316563733
C -1.3598703352 -0.7882176846 0.1296287296
C -1.4443954822 -2.2577798531 0.3348588838
N -1.8681905559 -1.3268029011 1.3990219359
C -2.4253790468 -0.0708383050 -0.7184652092
C -2.0307338947 0.0492715827 -2.2064533576
C -3.7342556337 -0.7263276529 -0.6174088472
N -4.7724216169 -1.2334737498 -0.6021288138
H 1.0746694589 1.6561074765 0.7513448256
H -0.5099727793 1.9856151950 0.0547826075
H -0.3880764216 1.3327612280 1.6925971406
H 0.4411710312 -0.1511855059 -0.8802550272
H 0.6800707415 -0.7770794709 0.7343887077
H -2.2537222557 -2.8302195823 -0.1084386501
H -0.5124963840 -2.8036740627 0.4572576441
H -1.1514568974 -1.2646363529 2.1184316258
H -2.5546747014 0.9382418074 -0.3069444043
H -1.8338732694 -0.9377978834 -2.6338069660
H -2.8356057463 0.5153850405 -2.7790711170
H -1.1335846642 0.6622186603 -2.3198046729