20

C -0.0893471638 1.5634850874 -0.0357892437
C -0.1285706476 0.0400902028 -0.1755411422
C 0.9081731156 -0.4952524307 -1.1733455529
O 2.2331469479 -0.1165885867 -0.8178240588
C 0.7984668706 -1.9995974314 -1.3367390456
C -0.1745619766 -2.6122317530 -2.2977995018
C 1.3180471916 -2.6957746936 -2.5863178407
C 1.8664346103 -1.9343528389 -3.6743101853
N 2.2983941883 -1.3332154244 -4.5635060050
H 0.9114987572 1.8987652801 0.2474170205
H -0.3452895739 2.0504468838 -0.9829460778
H -0.7989920334 1.9090464485 0.7214797819
H 0.0513914122 -0.4323279439 0.8019875580
H -1.1255609623 -0.2893829644 -0.4923369493
H 0.7430364562 -0.0219706137 -2.1490763376
H 2.4167668073 -0.4692222551 0.0604438693
H 0.9769705573 -2.5571968040 -0.4190756828
H -0.6797640824 -3.5326842652 -2.0295848783
H -0.7530285004 -1.9445533885 -2.9268558075
H 1.7941264556 -3.6601712989 -2.4457167803