19

C -0.0333846727 1.4884163677 0.2002178001
O 0.0354975501 0.0924602389 -0.0379420596
C -1.1938467046 -0.5776105934 0.0065004711
C -0.9675087664 -1.9598654868 -0.6369333918
C -0.6122704511 -1.8493153122 -2.1071734990
O -1.1117058587 -2.5250679962 -2.9698706811
C -1.7455081315 -0.7287716644 1.4411195925
C -3.1201784562 -1.3618474777 1.5812265640
O -1.1066416540 -0.3590384135 2.3956684590
H 0.9736666846 1.8813057994 0.0455130090
H -0.7175804755 1.9782893371 -0.5096362388
H -0.3524436485 1.7090189823 1.2235924877
H -1.9589554282 -0.0287943266 -0.5754136402
H -0.1225511124 -2.4257245967 -0.1122826728
H -1.8406481629 -2.6085633581 -0.5421509020
H 0.1573610069 -1.0839119751 -2.3376164171
H -3.7705067418 -1.1354304524 0.7314349646
H -3.0150713255 -2.4516696790 1.6342898628
H -3.5799430716 -1.0221143334 2.5106450514