14

N -0.1116902735 1.5839162898 -0.0038973657
C -0.1097713954 0.1417028599 -0.0587695569
C 0.1421580298 -0.5741224164 1.2819806705
O 1.0124716402 -0.5510024144 2.0905157405
N -1.0730376983 -1.3740856285 1.2527117501
C -2.1742103013 -0.3635184392 1.2384487092
C -1.4666924181 -0.6027217853 -0.0311422407
C -2.0434323143 -1.2683848107 -1.1567197276
N -2.4987282180 -1.7652195877 -2.0966697997
H 0.6505193795 1.9008605030 0.5871063493
H 0.0241080422 1.9932223537 -0.9216172316
H 0.5322351347 -0.3034337818 -0.8330547756
H -3.1489643216 -0.8176250419 1.3739838874
H -2.0218845359 0.5899574495 1.7360433409