21

C 0.2829609556 1.4388173074 -0.3809001407
C -0.0595869769 0.0512100602 0.0971318502
O 1.0193036315 -0.8742257911 0.2793189693
C 0.2525737070 -0.4932240219 1.4300990047
C 0.9814858089 0.2421288239 2.5289460785
C 1.9277518702 -0.6892827975 3.3006503096
C 2.6810741909 0.0309616943 4.4313683625
C 3.6793264343 -0.8781576127 5.1107154599
O 3.7093749597 -1.1153653158 6.2905391309
H 1.1486566586 1.8510805191 0.1407090622
H 0.5135519822 1.4192167777 -1.4511790936
H -0.5684157012 2.1127066585 -0.2355168809
H -0.9217497682 -0.3900078737 -0.4088680622
H -0.4007044661 -1.2914203743 1.7937235489
H 1.5547637278 1.0763936322 2.1129681695
H 0.2415114382 0.6724639281 3.2169471831
H 1.3565185010 -1.5266084417 3.7212713720
H 2.6441863327 -1.1252753963 2.5939752862
H 3.2426246224 0.8763914768 4.0063249433
H 1.9966174502 0.4258387027 5.1882799285
H 4.4181074311 -1.3429984759 4.4150599482