17

C -0.0152216935 1.5602867940 -0.0461933344
C -0.0622860536 0.0623440560 0.0936850298
O 1.1807444760 -0.6535157130 -0.1064025187
C 0.5946592903 -0.6614195254 1.1786459286
C 1.2930123559 -0.1772966876 2.4387245976
O 0.2665153579 -0.1898927213 3.4526911175
C 0.9415759387 -1.4215041414 3.1478112385
C 0.2155266313 -1.9877269478 1.9085889016
O -1.1314962394 -2.3330076802 2.0511076320
H 0.8586877048 1.9749205196 0.4624847831
H 0.0329536644 1.8471297915 -1.1015786722
H -0.9160781691 2.0098412800 0.3847838275
H -0.9161743685 -0.4327586237 -0.3709672535
H 2.1323587889 0.4937842809 2.5696314987
H 1.4370077087 -1.9344219678 3.9635683455
H 0.7357217698 -2.8336661671 1.4507279839
H -1.5433715526 -1.6109408166 2.5428241244