18

O -0.4674541317 1.4494767133 0.5085889182
C -0.9312081977 0.1551511829 0.7581583879
C -1.2170283844 -0.5843130975 -0.5370153555
O -0.9935910464 -0.0264583293 -1.5948921046
C -1.8119717676 -1.9752744961 -0.5080258972
C -1.6981604842 -2.9356553187 0.7360018022
C -3.2288388198 -2.9901447202 0.7899635424
N -3.6775134893 -1.5969526061 1.0151472964
C -3.3502046294 -2.0505838228 -0.3559310494
H -0.4236544854 1.5131342915 -0.4595090410
H -0.1903286758 -0.4315152511 1.3289984736
H -1.8545336069 0.1501591077 1.3577729013
H -1.5043571936 -2.4800293099 -1.4259369388
H -1.2325209298 -3.8840710242 0.4628891030
H -1.2203015988 -2.5408937828 1.6346835123
H -3.8549460461 -3.8265514427 1.0727618640
H -4.6932308505 -1.6068933680 1.0991933273
H -4.0777616727 -1.9864095562 -1.1547289021