19

C 0.7882703720 -0.1875537180 -1.3374165392
N 0.0466326013 -0.0344877714 -0.0844506557
C 0.6710050216 -0.6618823019 1.0672815978
C 1.9731261641 0.0372961714 1.4150561038
O 3.0131011331 -0.4772248616 1.7463894660
C -0.2564119939 -1.0361521602 2.2962305036
C -0.9363502019 -2.1021022493 1.4024440392
C 0.5973030303 -2.2200875278 1.1999612874
N 0.7123175119 -2.1203771349 2.7119120208
H 0.8229439880 -1.2475934987 -1.6085457801
H 0.2581648892 0.3421402217 -2.1334001739
H 1.8265943713 0.1828759404 -1.3110712979
H -0.1297903339 0.9478345691 0.1025878042
H 1.8993366744 1.1485298291 1.3112650503
H -0.7083688481 -0.3495242538 3.0148046241
H -1.3795095171 -2.9285926752 1.9569312077
H -1.5298243157 -1.7482632645 0.5643747015
H 1.1610843919 -2.9596825621 0.6307148995
H 1.6217713716 -1.7260593023 2.9582020607