17

C -0.1865769626 1.5319916182 -0.0619423019
C -0.3032466541 0.0889251962 0.3907747350
O -1.1241053738 -0.6087300457 -0.5577903336
C -1.3525729822 -1.9206341467 -0.2619732467
C -2.5392704994 -2.4540719685 0.1718086324
N -3.7312546320 -1.8670915572 0.5221362665
O -2.4305260771 -3.7793913236 0.2890739779
N -1.1160156527 -4.1732475414 -0.0731033531
C -0.5117630409 -3.0551683225 -0.3939172957
H 0.4399796353 2.0965647118 0.6346978372
H 0.2625940731 1.5878939957 -1.0574503092
H -1.1719789280 2.0049525303 -0.1030989815
H 0.6855875023 -0.3878814102 0.4413971870
H -0.7563263040 0.0174570129 1.3892537872
H -3.8490594897 -0.9514539246 0.1104523334
H -4.5398398376 -2.4590108515 0.3886698188
H 0.5188792735 -3.0926577231 -0.7194272937