25

C -0.0717172039 1.4759062569 -0.3770520478
C -0.0454525813 0.0231544213 0.0679858088
O -1.3377301473 -0.5207590339 -0.0911311117
C -1.4269786814 -1.8778611338 0.3020999697
C -2.8622568935 -2.3297213180 0.1619996778
C -3.8283515045 -1.5679350582 1.0515242083
C -3.3419615514 -2.7528836865 -1.2091735050
C -3.1707705074 -3.7878502160 -0.1221632328
C -2.1329373078 -4.8864298922 -0.2262556271
H 0.9187287487 1.9277943623 -0.2671980331
H -0.3736212206 1.5499722528 -1.4256682641
H -0.7836728498 2.0481774051 0.2245805583
H 0.6862689936 -0.5498219750 -0.5280610350
H 0.2744392194 -0.0528282038 1.1218214117
H -0.7509617773 -2.4902486094 -0.3138973012
H -1.0950555879 -1.9855131434 1.3506739190
H -3.7760281824 -0.4950240918 0.8457842173
H -4.8588737454 -1.8989889195 0.8901786191
H -3.5914296010 -1.7187611644 2.1121079916
H -4.3432087502 -2.4690989938 -1.5161006959
H -2.6156237876 -2.7498030461 -2.0163297024
H -4.0977467978 -4.1247931310 0.3374140184
H -1.2414199692 -4.5660102548 -0.7720653619
H -1.8123829965 -5.2359021245 0.7619715733
H -2.5455139073 -5.7484030922 -0.7625433554