16

O -0.2011984583 1.4563444268 0.1035088503
C -0.0754851112 0.0633749339 0.0628392491
C -0.5020263394 -0.7855155938 1.2512446324
N -1.2384941784 -0.1286929446 2.2901470429
C -2.3706559158 0.5157091855 1.8370033372
O -3.0182825779 1.3276105704 2.4513134401
C -2.6356911321 0.0252361084 0.3842333957
O -3.0248076166 1.0628378366 -0.4771596309
C -1.3591083263 -0.7200344253 0.0016521757
H 0.4534088842 1.8182971442 0.7103134578
H 0.7568055645 -0.3080807310 -0.5335144119
H 0.0598744168 -1.6694659239 1.5306556881
H -0.7929308750 0.2123322313 3.1291509063
H -3.4770957470 -0.6760012698 0.4136312207
H -2.3187731614 1.7207879525 -0.4531927549
H -1.4261747660 -1.5570802012 -0.6812750586