18

C 0.2029346543 1.4357168561 -1.2249026904
C 0.2309806322 -0.0158641794 -0.8017666255
C 1.4445278519 -0.9760109228 -1.0439683034
C 2.1817834911 -0.1936578090 0.0813192528
N 0.7670351742 -0.3700566825 0.6085995253
H 0.3544976251 -0.0799190066 1.4963965547
C 0.8468346798 -1.8593970468 0.0985407136
C -0.5140496642 -2.6134396348 -0.0109216270
O -1.4735461761 -1.9967442440 0.4951411975
O -0.3840662316 -3.6979105933 -0.5835801886
H 1.1580431100 1.9605186904 -1.1565546510
H -0.1197276719 1.4684771130 -2.2704551955
H -0.5426790993 1.9867115432 -0.6429713796
H -0.7464230551 -0.4827456564 -0.9095515090
H 1.8462660847 -1.3136866224 -1.9925344050
H 2.9260690696 -0.7341814290 0.6668235660
H 2.4658511598 0.8454175267 -0.0781637030
H 1.5868600454 -2.4107676525 0.6831599181