20

N -0.2079779091 0.0000000000 -0.0306452425
C -0.0374625526 0.0000000000 1.4170875829
H 1.0346826466 0.0000000000 1.6880999973
C -0.6799056463 -1.2669841291 1.9938429440
C -0.6799056463 1.2669841291 1.9938429440
H -1.7425246140 -1.3037626712 1.7350711744
H -1.7425246140 1.3037626712 1.7350711744
H -0.5848033537 -1.2861612618 3.0843253642
H -0.5848033537 1.2861612618 3.0843253642
H -0.2028017703 -2.1647771434 1.5898679345
H -0.2028017703 2.1647771434 1.5898679345
C 0.8254397770 0.0000000000 -0.7434812056
H 1.8574787064 0.0000000000 -0.3565141309
O 0.7320720464 0.0000000000 -2.0929356445
C 1.9852232068 0.0000000000 -2.7828158766
H 2.5715046216 -0.8865107002 -2.5012402397
H 2.5715046216 0.8865107002 -2.5012402397
C 1.7469538243 0.0000000000 -4.2167792133
C 1.5859949416 0.0000000000 -5.4060708661
H 1.4341804307 0.0000000000 -6.4573285687