21

C -0.0826596885 1.5237612328 -0.0337438037
C -0.0242035293 0.0335825341 0.2206057179
C 1.1764414250 -0.8120538367 -0.0705612405
O 2.3914796866 -0.0923868881 0.1697045222
C 2.0908519507 -0.0276127386 1.5869372693
C 3.0553663702 -0.7509666331 2.5545410612
C 2.8633118647 0.4268819229 3.5497923265
C 2.3190116998 1.2827099276 2.3721361253
C 0.7165550250 -0.6532965196 1.3614301059
H 0.9170403028 1.9618012672 -0.0050086337
H -0.5043472915 1.7226890564 -1.0249478638
H -0.7090465568 2.0357609205 0.7042691095
H -0.9498330787 -0.4985862510 0.0032783210
H 1.2208029259 -1.6633536752 -0.7403912581
H 2.7871374785 -1.7600931153 2.8777689208
H 4.0626834426 -0.7679097675 2.1293128169
H 2.0918527584 0.2159363741 4.2947785819
H 3.7525921406 0.7938691936 4.0650124508
H 3.1122693282 1.8695702862 1.8992901686
H 1.4560464448 1.9268207324 2.5509918052
H 0.2426045210 -1.3610654827 2.0295376368