19

C 0.3020295326 1.2412870570 0.6274797585
C -0.0206691880 -0.0442793191 -0.1158120328
C 0.5103151202 -0.2222997150 -1.5030751898
N 1.0832985843 -0.9995185028 -0.3977800999
C -1.2779875390 -0.6576354950 0.2406172857
C -2.3412084800 -1.1385848993 0.5463339987
C -3.5982083353 -1.7164461231 0.9288445297
C -3.7647968038 -3.2015287299 0.9254658329
N -3.7135259486 -2.4781229769 2.1992855629
H 1.2472965918 1.6657896054 0.2731557726
H -0.4852283752 1.9861416923 0.4770198136
H 0.3856175690 1.0557363182 1.7029951402
H -0.0585982138 -0.8033859677 -2.2219465558
H 1.0820567829 0.6004004297 -1.9259732071
H 1.9602352816 -0.5779229162 -0.0984057325
H -4.4746435560 -1.1076548150 0.7210644056
H -4.7342315460 -3.6231911079 0.6752373432
H -2.9088635576 -3.7961103763 0.6209768575
H -2.7847457392 -2.5711449784 2.6043802668