18

C -0.2504815475 1.4516038432 -0.6267760937
O -0.3062663036 0.0232014871 -0.4844671696
C 0.8479142816 -0.6245667058 -0.6773546188
O 1.8958799369 -0.0651172477 -0.9252234754
C 0.6756892603 -2.1284869961 -0.5909800021
N 0.5801121063 -2.6797267419 -1.9809329033
C 1.9551023057 -3.2594618142 -1.8781282344
C 2.0098737115 -2.9189584480 -0.3626729994
O 3.1201285205 -2.2851117827 0.1832001260
H 0.4597552611 1.8792959982 0.0846213011
H 0.0562700066 1.7219265505 -1.6398970448
H -1.2600687885 1.8075855607 -0.4238420730
H -0.1659653837 -2.3640508396 0.0648654889
H -0.1311287182 -3.4001368293 -2.0277412540
H 2.0421724278 -4.3152077973 -2.1523583998
H 2.6718144308 -2.6809762066 -2.4707960451
H 1.8161245651 -3.8051390639 0.2490178614
H 3.1709340974 -1.4128712467 -0.2377814641