16

C 0.0280475283 1.4363527522 0.0513196098
N 0.0339220258 -0.0141446505 -0.0220448303
C 0.5673581611 -0.6728388092 0.9108052937
O 1.1440577725 0.0181052838 2.0008186976
N 1.7426580015 -0.6438560458 3.0518423655
C 1.7471518577 -1.9244497243 2.9855320386
C 1.1617998899 -2.6725182863 1.8767503435
C 1.2205734764 -4.1696958706 1.8968207233
N 0.6026059701 -2.0590828867 0.8945013153
H 1.0446314772 1.8493116004 0.0943194706
H -0.4711935272 1.8326905633 -0.8353897039
H -0.5007468523 1.8000714745 0.9423397254
H 2.2227047115 -2.4270546339 3.8219884635
H 0.7179947534 -4.5625696942 2.7886250961
H 0.7428450230 -4.5726185737 1.0038630775
H 2.2608556910 -4.5133689090 1.9410017635