14

N 0.1645821556 1.4140351481 0.1515910492
C -0.0191951672 0.0592217304 0.0544808163
C -1.1347121276 -0.7327723396 0.0432302886
C -0.5751707462 -2.0349694760 0.0033502189
N -1.2292554547 -3.2610414857 -0.0212277556
C -2.5848888367 -3.4607760268 -0.0191031683
O -3.4276584442 -2.5941537399 0.0026605352
N 0.7413158495 -2.0464977937 -0.0123143164
O 1.0963151700 -0.6817360426 0.0205394411
H 1.0589521553 1.7406606616 -0.1852531710
H -0.6104019359 1.9737530179 -0.1694074649
H -2.1730197021 -0.4624268313 0.0651383312
H -0.6263883094 -4.0711142373 -0.0424275910
H -2.8240812162 -4.5407676650 -0.0407579534