21

C 0.0347528978 1.5885192845 -0.2713609217
C 0.0655762296 0.0851813696 -0.0943629812
C 1.3808850481 -0.6643859514 -0.0077884648
O 2.5816014611 0.0542106429 0.0704802553
C 0.4921462798 -0.5844402127 1.2042139553
C 0.9240275704 0.1951939759 2.4294797748
C 1.8701016088 -0.6298584514 3.3259224219
C 2.3498713400 0.1653520815 4.5154155000
O 2.2264127794 -0.1616868273 5.6680833900
H 0.9438285157 2.0600025757 0.1086803663
H -0.0519857975 1.8479641826 -1.3325412676
H -0.8205884038 2.0362505565 0.2455503268
H -0.7227375327 -0.4368315581 -0.6313881911
H 1.4645806184 -1.6211042869 -0.5228553089
H 2.7889454747 0.3912559690 -0.8074020748
H -0.0393273241 -1.5026693658 1.4435345636
H 1.4331628110 1.1158960473 2.1334964640
H 0.0386221516 0.4908386193 3.0058414463
H 1.3931761566 -1.5466888154 3.6853524261
H 2.7507340189 -0.9055378975 2.7296980184
H 2.8464640061 1.1287361116 4.2467413813