18

C -0.1047317153 1.5508641307 -0.1700782409
C 0.0227652246 0.0518911374 -0.0209418322
C 1.3417022007 -0.6473184857 -0.1638056413
C 0.6746534515 -0.6037479777 1.1989554023
C 1.2531994960 0.1581027479 2.3103009590
C 1.0904668530 0.0666826355 3.6627957841
C 1.9375366774 1.0824589084 4.1729929191
N 2.5626699814 1.7368192553 3.2264447356
O 2.1298334315 1.1450705478 2.0356482948
H 0.7741475319 2.0711881735 0.2159839398
H -0.2193931433 1.8175092958 -1.2263080721
H -0.9823261578 1.9279661134 0.3659748218
H -0.8379101163 -0.5042055906 -0.3845007645
H 1.3871037491 -1.6050048305 -0.6702016694
H 2.2236483329 -0.0278970457 -0.2848698941
H 0.2007343824 -1.5184959098 1.5380641122
H 0.4628505137 -0.6193721619 4.2061160393
H 2.1149085365 1.3606637560 5.2026758665