22

C -1.2791290826 1.5915866513 -0.6284139614
C -1.1885684247 0.3415048868 0.2553122907
N -2.1774373851 -0.6404066437 -0.1510169210
C -2.0623360158 -1.6349219970 -0.9216014727
C -3.3248675923 -2.4075133456 -1.3021857107
O -3.2040526841 -3.8077762122 -1.2207442671
C -3.0597891209 -4.2788114672 0.1003755343
O -1.0106491352 -2.2038580245 -1.5734671244
C 0.3371960065 -1.8096448843 -1.3648271169
H -0.6299100814 2.3839973168 -0.2427660552
H -0.9762883095 1.3687883247 -1.6571372845
H -2.3070817856 1.9637010604 -0.6556862521
H -0.1543920937 -0.0172828172 0.2754592196
H -1.4354305544 0.6259386965 1.2853213065
H -4.1372098565 -2.0265269991 -0.6703950321
H -3.5597435839 -2.1911056640 -2.3506164941
H -2.1327826016 -3.9192866459 0.5711446116
H -3.9066099543 -3.9747505033 0.7352269308
H -3.0270963510 -5.3698553950 0.0501317330
H 0.9374660283 -2.4663856500 -1.9982588556
H 0.5127488797 -0.7712469592 -1.6637357441
H 0.6399758881 -1.9494755384 -0.3221475844