16

C -0.0391896111 1.5117240784 0.0703887610
C 0.0041716297 -0.0056767658 0.0007571447
C 1.3317731879 -0.7032353449 -0.2626854706
C 0.7674615511 -0.7785198230 1.1229087484
O 1.4484516375 -0.0000089943 2.0608924467
C 0.2125693808 -2.0061252730 1.6245511321
C -0.2638679767 -3.0066497123 2.0898816772
C -1.1798412962 -0.6236735556 -0.5361540335
N -2.1431901368 -1.0952452366 -0.9703944753
H 0.8370820224 1.8851199871 0.6020186613
H -0.0537906940 1.9404038710 -0.9358532035
H -0.9360645665 1.8513019222 0.5964360514
H 1.3302847112 -1.6041071180 -0.8628031988
H 2.1935324157 -0.0561383039 -0.3838995975
H 0.8854590067 0.0876122395 2.8392267270
H -0.6870967917 -3.8985410008 2.4824090091