19

C -0.0477088212 1.5841900851 -0.0706787620
C 0.0135517778 0.0956896652 0.0017318663
C 0.0796883053 -1.0209250751 -0.9789082650
O 1.2116177839 -1.6738874202 -0.3924168317
C 0.8829895266 -0.9408450587 0.8184984763
C -0.4452445514 -1.5984921844 1.3219260459
C -0.4683349995 -3.1004629910 1.5404880636
O -0.9608020463 -0.8831746909 2.4376098882
C -1.0566833386 -0.9967630344 0.0611430662
H 0.9215824012 2.0150275617 -0.3455286750
H -0.7799461183 1.9028572332 -0.8204079811
H -0.3517333330 2.0088160807 0.8918603438
H -0.0646057364 -1.0742920743 -2.0504644219
H 1.7317081885 -0.7578141904 1.4775353941
H 0.0930698220 -3.3717770885 2.4443798813
H -1.4966020556 -3.4545375365 1.6634394519
H -0.0095051134 -3.6120750470 0.6921012490
H -0.5000041614 -1.2013115759 3.2219003037
H -2.1046637401 -0.9298826986 -0.2047687335