23

C 0.0582407796 1.5634394776 0.2208656402
C 0.2333970021 0.0478467919 0.0959578896
C 0.5687162746 -0.6277169131 1.4327949659
C 0.7201206197 -2.1311779735 1.3273983208
O -0.4625002228 -2.8343620756 1.0355281805
C 2.0196507800 -2.7206097558 0.7981029310
C 1.6496127104 -2.8810900908 2.2456407453
O 2.4391477724 -2.2057527985 3.1710320854
C 1.8121364491 -2.0725404004 4.4332336257
H 0.9734332875 2.0371297732 0.5931182254
H -0.1843065933 2.0193164039 -0.7441720929
H -0.7486232894 1.8118127783 0.9191575058
H -0.6897570781 -0.3887151059 -0.3083771528
H 1.0254018469 -0.1748072595 -0.6306522229
H 1.4938694061 -0.2082229000 1.8424006438
H -0.2289674060 -0.4104816024 2.1555343299
H -0.6497688359 -2.7243178205 0.0969234051
H 1.9666992195 -3.5988925235 0.1644378611
H 2.8301800832 -2.0338767033 0.5780682769
H 1.2987491458 -3.8627460729 2.5676993527
H 0.8832201059 -1.4894192438 4.3695493922
H 1.5754649977 -3.0548925345 4.8686160977
H 2.5167214851 -1.5552077110 5.0885989836