18

C 0.0001074027 1.4581330018 0.2954283149
C 0.0224094229 -0.0215060890 0.0504126847
C -0.8492066412 -0.9731725891 0.7853212895
C 0.6446130563 -1.1370422194 0.9805229959
C 1.2708573528 -1.8125494972 -0.2417308640
C 0.6548789642 -0.7145272053 -1.1667714172
C 1.2787997878 -0.8756296543 2.2736985444
O 0.7715138160 -0.2450919071 3.1779698841
H 0.9386096755 1.9299835862 -0.0148298976
H -0.8136292104 1.9329876516 -0.2663032234
H -0.1532684857 1.6693487726 1.3577882534
H -1.3579754650 -0.5687511365 1.6540145694
H -1.3839838921 -1.7611322254 0.2587339045
H 2.3635193013 -1.7822951304 -0.2311073221
H 0.9536831667 -2.8437648415 -0.4275147130
H -0.0509403068 -1.0563295401 -1.9309047334
H 1.4188828437 -0.1013110107 -1.6500958182
H 2.3153998113 -1.2742530661 2.3695339483