20

O -0.3185829782 1.4467865941 0.0459078650
C -0.0862452264 0.0501995078 0.0248508058
C 0.3134306818 -0.6696150760 1.3365930642
C -0.7575533656 -1.7502512783 1.0166882754
C -1.4198713409 -0.7664418211 0.0082333132
O -2.4428723462 -0.0111954715 0.6309631492
C -1.8938632782 -1.3339337545 -1.3098278169
C -3.3005168735 -1.7734691768 -1.4694745766
N -2.8122363313 -0.5639930675 -2.1589712457
H 0.3723169879 1.8702333505 0.5642482760
H 0.5646774681 -0.2236902093 -0.8151179584
H 1.3528261359 -0.9883839566 1.4381130661
H 0.0311752760 -0.0728187809 2.2082851063
H -0.3349301536 -2.6276475207 0.5198512220
H -1.4042584605 -2.0718371586 1.8336391654
H -2.1307789146 0.9067381503 0.6254325583
H -1.1188488352 -1.8623187513 -1.8632855346
H -3.5368063050 -2.6106873560 -2.1199975461
H -3.9628591636 -1.6404477850 -0.6196078329
H -3.1225114670 0.2422742613 -1.6184014556