20

C -0.0463597173 1.5420973585 -0.0216422802
N 0.1210240592 0.0956062859 0.0137061640
C 0.6506313876 -0.5723459038 -1.1373157508
C 2.2498614316 -0.5963374679 -1.1839521457
C 2.9563465371 0.3383287045 -0.2841052603
C 2.4014130647 0.2952028023 0.9383123809
C 1.1815201779 -0.5938558290 0.8932058210
C 0.6244122204 -1.1366396486 2.1875210757
C 1.4416437404 -1.5395814061 -0.3315954269
H 0.8418728365 2.0941041197 -0.3619443453
H -0.8736268991 1.7712254418 -0.7030299493
H -0.3244360813 1.9046235121 0.9734630496
H 0.0823826773 -0.6811397011 -2.0549298080
H 2.6782972422 -0.9410982825 -2.1177156913
H 3.7485844388 1.0035284173 -0.6065011309
H 2.6398726436 0.9383401205 1.7771692859
H 0.3284469702 -0.3209859580 2.8565279762
H -0.2569961831 -1.7554872428 1.9999019990
H 1.3780379758 -1.7390302490 2.7063831499
H 1.4752127176 -2.6220466140 -0.3363335436