15

N 0.1610295689 1.2547024448 -0.2238978030
C -0.0273738669 0.0387653740 0.3472072839
O 0.6754245373 -0.3730142326 1.2552749838
C -1.2242168477 -0.7556799505 -0.1879366191
C -0.9947780809 -2.2331432471 -0.2192898412
C -1.4589757995 -3.2349854538 -1.0421297310
N -0.9708622104 -4.4284722203 -0.6040898708
N -0.2266597199 -4.2217232949 0.4465746761
N -0.2458235998 -2.9011745538 0.6898733143
H 0.9141543702 1.8308467132 0.1163810913
H -0.3870278542 1.5812606849 -0.9995605592
H -2.0634720406 -0.5166915818 0.4813539204
H -1.5195131038 -0.4125708844 -1.1835856458
H -2.1019676650 -3.1670299447 -1.9052078453
H 0.3171975523 -2.4722507129 1.4123176057