18

O 0.0220095647 -0.0331930799 0.0304882273
C 0.0163796202 1.1770594099 -0.0199949620
N -1.1047325299 1.9788083627 -0.0829635629
C -0.8297048706 3.4066902820 0.0791455543
C -0.9315808271 3.8267522224 1.5596285778
C 0.3229562085 3.1868066016 2.2089378751
C 1.3460499782 3.1343877792 1.0689984898
C 0.6826017022 3.5077607660 -0.2268895147
C 1.2020406837 2.1055088032 -0.0562191543
H -1.9948377235 1.5804541115 0.1773823764
H -1.4558784815 4.0025614100 -0.5896000458
H -0.8729530422 4.9194852802 1.6253397455
H -1.8722752332 3.5152559046 2.0252673760
H 0.6976204723 3.7863658427 3.0423969195
H 0.1041352486 2.1907035288 2.6069119668
H 2.3634702087 3.4505604241 1.2684120436
H 1.0711890981 4.2164893687 -0.9459031721
H 2.1027869227 1.7454522324 -0.5362170503