20

C -1.0626146357 0.2246073963 -0.1930396099
C 0.3765993011 0.7381923453 -0.2729608334
N 1.2040086199 -0.0452065842 -1.1728037836
C 2.2465550199 -0.8023013105 -0.7551815249
O 2.6200097186 -0.9229476967 0.4001947879
C 2.9665832222 -1.5410106265 -1.8799622595
C 2.7644759052 -3.0732962899 -1.9092671474
C 2.0993390979 -2.8165000065 -3.2763858812
O 2.3507614478 -1.3918271812 -3.1830814562
H -1.5480898491 0.2448334107 -1.1749563356
H -1.0868970150 -0.8043173875 0.1775221916
H -1.6533906746 0.8488297830 0.4848120152
H 0.3845797920 1.7876002012 -0.5933390806
H 0.8602522558 0.6856079216 0.7053140594
H 1.0139457866 -0.0640393340 -2.1646674311
H 4.0110035741 -1.2096172201 -1.8860402005
H 3.6847188307 -3.6564372467 -1.9409803801
H 2.1171711991 -3.4641434350 -1.1240595584
H 2.6031262913 -3.2540093183 -4.1449292522
H 1.0270605621 -3.0356840012 -3.3369509395