16

C 0.1734222898 1.4861877885 0.0321358175
C -0.0403694593 -0.0186450114 -0.0459889942
C 0.6819906642 -0.6978649056 -1.2289154545
N 1.8663028955 -1.2369764566 -0.5733074750
C 2.9685575892 -1.7135109737 -1.2734801828
O 3.9606362703 -2.1912296322 -0.7980195342
C 1.7003067584 -1.2735514670 0.8281707115
O 2.4195594950 -1.7552684807 1.6443820394
O 0.5244280149 -0.6518282723 1.1192118249
H 1.2403579306 1.7290800625 -0.0015582389
H -0.3239468987 1.9832712034 -0.8068639154
H -0.2407067461 1.8785047543 0.9639467983
H -1.1067731074 -0.2552089883 -0.0463032567
H 0.0762077677 -1.4959719404 -1.6728035077
H 0.9457593861 0.0177420157 -2.0120010139
H 2.8145969598 -1.5836860364 -2.3640953284