16

C 0.0229970283 1.5152889214 0.0095088775
C 0.0089551732 0.0165498894 0.0015565816
C -0.0223667854 -0.7992256466 -1.1062443353
N -0.0244554818 -2.1036508379 -0.6794358053
C 0.0039058861 -2.1350968770 0.6923885775
C 0.0255874254 -0.8384482036 1.1527423670
C 0.0601494868 -0.3973980693 2.5847897591
H 0.9179426389 1.9137077959 0.5036874511
H 0.0039604869 1.9166240315 -1.0080982871
H -0.8415074667 1.9298738718 0.5429953945
H -0.0426258626 -0.5552988502 -2.1569881764
H -0.0443593630 -2.9095193395 -1.2776755600
H 0.0067027113 -3.0706456714 1.2297096873
H 0.9507971603 0.2037851661 2.8065921434
H -0.8086919862 0.2205518823 2.8438563347
H 0.0663318585 -1.2557150829 3.2631778902