19

C -0.2335309181 1.4802914067 0.1217935240
C 0.0019342574 0.0035809277 0.0085448919
C -0.7652281456 -1.0572147686 0.7837450703
C 0.7248229706 -0.9887269633 0.8890996728
O 1.3422268773 -1.6540292138 -0.2231444425
C 0.7707327468 -0.6822741070 -1.1347433367
C 0.0571820444 -1.2813060756 -2.3183401715
C 0.2968234874 -2.6679995979 -2.7387817249
O -0.9193032709 -2.2942143130 -2.0840993079
H 0.6632950628 2.0517898529 -0.1444177912
H -1.0475122714 1.8082702191 -0.5360338599
H -0.5123572950 1.7553479947 1.1439656503
H -1.3053987195 -0.6623014241 1.6398596570
H -1.2287395414 -1.8952147671 0.2770803646
H 1.3074377428 -0.8829354387 1.7967854177
H 1.5657041020 -0.0224399422 -1.5157181853
H -0.2297689866 -0.5507697805 -3.0777429934
H 0.1970991327 -2.9387201057 -3.7885302804
H 0.9667843344 -3.2824294836 -2.1428345649