16

C 0.0405878097 1.5263393851 -0.3883410223
C -0.1065290861 0.0704220582 -0.1234868313
N -1.1624736825 -0.6353819000 -0.2522384910
C -0.8018946796 -1.9895669552 0.0688225769
C 0.2772726640 -2.6387714443 -0.7948391537
C 0.6984948951 -1.9296721887 0.4371096920
O 1.0287950574 -0.5641862007 0.3145751662
C -1.7810945760 -2.8429956806 0.7789498782
O -1.5685363852 -3.9898981276 1.0952902907
H 0.7176935197 1.6956593673 -1.2317876601
H -0.9346072556 1.9539135453 -0.6191246712
H 0.4714828570 2.0283630248 0.4830132508
H 0.2947700647 -3.7215325081 -0.7399334621
H 0.4718990205 -2.1913605592 -1.7634040230
H 1.1558935184 -2.4230028477 1.2846023659
H -2.7387115513 -2.3312023685 1.0108121941