17

O 0.2284971728 1.3907668304 0.2388751952
C 0.0815035521 -0.0133272729 0.0054543677
C -1.4167997143 -0.3137889877 0.0503468283
C -2.4012530762 0.2120646927 -1.0039956459
O -3.5784092542 0.1552341974 -0.7683588727
O -2.0233703895 0.6376036411 -2.2315836660
C -0.6979093263 1.0864476853 -2.5870486268
C 0.3694658399 0.0311420150 -2.4672841139
C 0.7255322929 -0.4707280025 -1.2864500669
H 1.1624546473 1.6075657660 0.1485925946
H 0.5361217517 -0.5661475926 0.8407749958
H -1.5480336165 -1.4021260642 0.0329647324
H -1.8190199177 0.0274651137 1.0079710596
H -0.8117521692 1.4097856090 -3.6226354415
H -0.4492414450 1.9533109974 -1.9710087964
H 0.8381258209 -0.3219292172 -3.3812780286
H 1.4769291014 -1.2532601710 -1.2233259049