18

C 0.1350929900 1.4992496784 0.0276103572
C 0.0004769714 -0.0276821243 -0.0217570040
C -1.4853714271 -0.4508750064 -0.0628185123
C -2.2812351091 0.0227716610 1.1375601853
O -3.3283849098 0.6147485277 1.0605354880
C 0.8045503771 -0.6475721643 -1.2078195114
O 1.8008382929 -1.4847641676 -0.5751629260
C 1.5763199685 -1.3657783367 0.7527369827
N 0.6433913554 -0.6221367177 1.1766781153
H 1.1892505545 1.7898652454 0.0497124123
H -0.3344694806 1.9580744843 -0.8490710847
H -0.3446725004 1.9032476685 0.9232017677
H -1.9722042993 -0.0787254806 -0.9699355767
H -1.5314024112 -1.5486856814 -0.0725464987
H -1.8268119528 -0.2282848111 2.1183503318
H 0.1968063316 -1.2775356227 -1.8633441437
H 1.3229599989 0.1022396558 -1.8115886467
H 2.2498926898 -1.9475322082 1.3727049638