21

C 0.0407507730 1.4349165297 -0.2047938259
C -0.0600410469 -0.0349828568 0.2091910327
C -1.4381191117 -0.6226393880 -0.0607813920
O -1.4446282690 -1.9741018120 0.3612233626
C -2.6707907930 -2.6130315688 0.1905813212
C -3.1244428821 -3.0894532862 -1.2498504998
C -3.2063822739 -4.5063367707 -0.6705543707
O -1.8881844817 -4.8421306610 -0.2356539321
C -2.7066622282 -4.0716954941 0.6479749122
H 1.0396559174 1.8318623525 -0.0027845864
H -0.1567329545 1.5642055122 -1.2747893832
H -0.6789373417 2.0548202275 0.3415120302
H 0.6837060778 -0.6346458873 -0.3274946852
H 0.1609593551 -0.1467230698 1.2768135516
H -2.2130328969 -0.0520130631 0.4809759474
H -1.6799319100 -0.5536165961 -1.1345374222
H -3.4858003234 -2.0421176094 0.6641930684
H -4.0787701938 -2.6610661508 -1.5633972489
H -2.3786748131 -2.9785272544 -2.0397250522
H -3.8749524464 -5.3194168640 -0.9263592774
H -2.8689530671 -4.4656224695 1.6445055898