25

C -0.0366424528 1.3502565026 -0.8987167587
C -0.2772426059 0.5540386933 0.3907389401
C -1.4996935334 -0.3395107811 0.3046462146
C -1.5002650501 -1.7658538672 -0.2542373793
C -2.6714785091 -2.1609005243 -1.1388774841
C -0.2015146824 -2.4263095246 -0.6858957037
C -1.7705425014 -1.5215570163 1.2170685633
C -0.8045480863 -1.9391485814 2.3065265303
O -3.1134871279 -1.7278044902 1.6017663234
H 0.8301757622 2.0118196409 -0.8015498137
H 0.1421826017 0.6826260097 -1.7478196351
H -0.9048673100 1.9712347524 -1.1454378039
H 0.6182404275 -0.0308344279 0.6243528439
H -0.4015431769 1.2539680814 1.2284754257
H -2.4080332512 0.2087762109 0.0567826962
H -2.5005893786 -1.8261782382 -2.1689894302
H -2.7945594771 -3.2503803821 -1.1618841965
H -3.6076914869 -1.7310525544 -0.7821334599
H 0.6669778913 -2.1076135693 -0.1066241203
H -0.2764270828 -3.5162342471 -0.5937208797
H 0.0074758669 -2.2028222144 -1.7386219817
H 0.2411670527 -1.7971606312 2.0294564386
H -0.9835522759 -1.3510028317 3.2157623472
H -0.9547477681 -2.9936320238 2.5595609596
H -3.3213950255 -1.0835199059 2.2873967340