15

C -0.0279801092 1.5278368535 0.0289528367
C -0.0056421296 0.0229309534 -0.0141183095
C -0.0348694911 -0.7049381355 -1.2043973445
C -0.0135245631 -2.0981106724 -1.2213878062
C 0.0384844062 -2.7747530752 -0.0126482206
F 0.0597962089 -4.1111966875 -0.0056654043
C 0.0693836266 -2.1009587814 1.2010463763
C 0.0464021945 -0.7159039354 1.1681537978
F 0.0756851791 -0.0505256022 2.3306417946
H 0.8605781288 1.9272496213 0.5294034586
H -0.0661239908 1.9440918982 -0.9804146873
H -0.8957267857 1.8996579626 0.5842493788
H -0.0754839918 -0.1649801279 -2.1450751626
H -0.0364154494 -2.6568307913 -2.1487725458
H 0.1099934664 -2.6354312402 2.1412747180