18

N 0.0599770963 1.3649309522 0.0624095913
C -0.0140774212 -0.0000124093 0.0493728878
C -1.1917129017 -0.6773040215 0.0253602414
C -1.2710301305 -2.1283211358 0.0307046232
O -2.3290891898 -2.7361444051 0.0238635504
C 0.0648473839 -2.8818858925 0.0123405475
C 1.1882574030 -2.1092010949 0.7016498827
O 2.4583664852 -2.7284776247 0.5501438383
C 1.3143936730 -0.7127884701 0.0977309913
H 0.9385072135 1.8060140017 -0.1520979015
H -0.7623479734 1.8967935457 -0.1736431707
H -2.1379129511 -0.1449526550 -0.0074205686
H -0.0966005250 -3.8620544055 0.4718937325
H 0.3506389481 -3.0546421180 -1.0343526960
H 0.9418071635 -2.0016809881 1.7703871958
H 2.3967016113 -3.6206566137 0.9062660833
H 1.7188583570 -0.8106885465 -0.9191753312
H 2.0385892981 -0.1233308089 0.6706794826