21

C -0.3269886475 1.4597975930 0.0472504976
C 0.1309197584 -0.0034644155 -0.0223701300
C 0.8733750604 -0.4463415253 1.2055280723
C 2.2267109659 0.0387768426 1.7352619659
C 2.1453508447 -1.1678849235 2.7114298262
C 3.3193732635 -1.7476307802 3.4349650136
O 1.0295054639 -0.7929655871 3.5863594528
C 0.1833700389 -1.0151483557 2.4619572377
C 1.1425938360 -1.8669286345 1.7062637368
H 0.5270797524 2.1353420052 0.1615973898
H -0.8615926798 1.7486045276 -0.8627999253
H -0.9942630679 1.6232305205 0.8995679736
H -0.7409888486 -0.6552401726 -0.1681233345
H 0.7647479304 -0.1478615195 -0.9078468930
H 3.0152288160 -0.0963128057 0.9885536531
H 2.3007229651 1.0284674791 2.1989941451
H 3.7352395645 -1.0081161614 4.1281098445
H 3.0240634572 -2.6292814455 4.0107743715
H 4.1032934611 -2.0352957434 2.7278371001
H -0.8878300607 -1.0725171369 2.6076836934
H 1.0851140561 -2.8426289312 1.2422389087