13

N 0.0733895721 1.4154323262 0.1183909245
C 0.0352849986 0.0408626428 -0.0398227823
N -1.1506029754 -0.4917958395 -0.1310863707
O -1.1914596211 -1.8762834399 -0.4092346591
C -0.0996204260 -2.6475911449 -0.5100746617
O -0.1802670099 -3.8404352384 -0.7260513373
C 1.2137692889 -1.9981729801 -0.3590144514
O 2.2513823297 -2.8221264505 -0.4750167515
C 1.2822281270 -0.6711012508 -0.1399449556
H 0.8103238005 1.7605372890 0.7158643607
H -0.8294371076 1.8183091683 0.3313346699
H 1.8560417558 -3.7005590185 -0.6425230512
H 2.2266114074 -0.1469429435 -0.0558477145