19

C 0.0604405629 1.2994997407 -0.2442902034
O -0.0201316560 0.0235010268 0.3582519544
C -1.2699875496 -0.5786129214 0.2124294362
C -1.6430180307 -1.2549546660 -1.1657487066
C -0.4082080639 -2.1567549707 -1.3997057376
C -0.2096871616 -2.7340742777 0.0493903832
C -1.3721229637 -2.0234009079 0.7845995412
C -2.4868739811 -2.1749877581 -0.2675530654
O -3.5674325740 -2.6826507354 -0.3187010451
H 1.0612813840 1.6879101944 -0.0436017316
H -0.0925110105 1.2489069660 -1.3318712575
H -0.6827088428 1.9919976246 0.1787854522
H -2.0736870042 0.0770540933 0.5750440973
H -2.0674472904 -0.7116283558 -2.0070995142
H -0.6046773215 -2.9328604488 -2.1429789906
H 0.4564354054 -1.5761032076 -1.7262636864
H -0.3096991881 -3.8211993865 0.0896545480
H 0.7561746450 -2.4544278458 0.4714481449
H -1.5251304992 -2.2246735942 1.8422485209