27

C 0.0417146495 1.4130221883 -0.3756053699
C 0.2965947950 -0.0603602567 -0.1296420728
C 1.6860362608 -0.6048490238 0.1056653859
C 0.6634604439 -0.6453082068 1.2246085933
C 0.8916687924 0.3410250184 2.3654064078
C 0.0855870124 -2.0200278822 1.6660858852
C 1.1707466145 -2.8041611298 2.4357685151
C -1.1389664469 -1.8106471446 2.5825456946
C -0.3727668681 -2.8941048159 0.4805552977
H 0.7354399657 2.0557391234 0.1719175364
H 0.1568280479 1.6454857926 -1.4403694943
H -0.9757066466 1.6994125970 -0.0846977054
H -0.3291120080 -0.6952297853 -0.7480708254
H 1.9726080702 -1.5244514348 -0.3933249347
H 2.5010821841 0.1064902285 0.2035949615
H 1.4795381554 1.2009049088 2.0372211617
H -0.0497588584 0.7248289669 2.7718422956
H 1.4433756537 -0.1201149369 3.1904305450
H 1.5274312798 -2.2607051914 3.3154073516
H 0.7764943426 -3.7651649616 2.7838651169
H 2.0351244655 -3.0078621995 1.7955908619
H -1.9016615768 -1.1996451651 2.0871500393
H -1.5955412445 -2.7739912025 2.8345680031
H -0.8722307121 -1.3199404409 3.5224387649
H 0.4156106076 -3.0428586914 -0.2634429441
H -0.6599654117 -3.8844349595 0.8489869738
H -1.2463219678 -2.4730693454 -0.0255039846