20

C 0.0882572514 1.4830570835 0.1771425504
C 0.0418867776 -0.0206360972 0.0714580119
C 0.4914606653 -0.9394025010 -1.0918579978
N -0.0306433701 -1.9676513439 -0.0719532090
C 0.7232293288 -1.0943309265 0.9580822719
C -1.1929759965 -0.9735010922 0.1028705023
C -2.1539864843 -1.1369588826 1.2512296278
C -2.4846481449 -2.4580850187 1.8050844812
O -1.7176362152 -1.5127267624 2.5588463454
H 1.1169439565 1.8497353761 0.0908972432
H -0.5027528415 1.9538081515 -0.6163994930
H -0.3078448727 1.8227094946 1.1401649370
H -0.0779063164 -0.9164118335 -2.0264594334
H 1.5645933529 -1.0329683759 -1.2796040150
H 1.8101315122 -1.1897996074 0.8743167823
H 0.3814315127 -1.2289417127 1.9806608375
H -1.8157542299 -0.9305497402 -0.8021581925
H -2.9393707633 -0.3775683407 1.2594010091
H -3.4857836728 -2.6526173844 2.1857332352
H -1.9286148197 -3.3228504664 1.4504163954