11

O 0.1837400337 0.0116176448 0.4387469319
C 0.0567006807 1.1382131536 0.0124095167
C -1.2913096832 1.6716543488 -0.3388594332
N -1.7107888156 2.7925256805 -0.8074291117
O -0.8641587707 3.7192684521 -1.3639421116
C 0.4407589035 3.3673384654 -1.7852740748
O 0.7248877344 3.4779101159 -2.9325968957
N 1.3438103998 3.0856776496 -0.7685365677
C 1.2114314182 2.0952026673 0.0131554114
H -2.1017908927 1.0218740582 -0.0148996520
H 1.9877861017 1.8936855838 0.7520478867