14

O 0.0159812934 0.0495380161 -0.3172004840
C -0.0051154406 1.1979892936 0.0244988961
C -1.2763396888 2.0384848225 0.2553227797
C -0.7869016014 3.3096624533 0.8998083920
O -0.0479471538 3.0854025768 2.1029097716
C 0.7002169646 3.3312167800 0.9049116293
C 1.2442043794 2.0665040586 0.2765695710
C 1.4596983069 4.5568326819 0.8609400604
N 2.0870205570 5.5255053321 0.8001315520
H -1.7632389171 2.2336746894 -0.7075348269
H -1.9848466808 1.4877319884 0.8798069004
H -1.3660445838 4.2276334655 0.8707684086
H 1.9509445007 1.5418504530 0.9241552349
H 1.7478172043 2.2692353389 -0.6753063352