23

C 0.1530790218 1.5518249249 0.2072119598
C 0.0324956375 0.0437303574 -0.0225075392
C -1.3919058817 -0.3785849102 -0.3689501948
O 0.8617227596 -0.3916503759 -1.1065838323
C 2.1892743678 -0.7117230456 -0.7900891808
C 2.8094569641 -1.4145998793 -2.0197375016
C 3.9835065462 -0.5028479133 -2.4294508442
C 3.6078478437 0.8211282541 -1.7573888691
O 2.9952223361 0.4276385885 -0.5306831621
H 1.1818702056 1.8234051063 0.4472906984
H -0.1474096065 2.0940995502 -0.6957225668
H -0.4998453674 1.8658953400 1.0287113317
H 0.3521754991 -0.4842961250 0.8905332446
H -1.7165608934 0.1089584161 -1.2938652843
H -1.4497268585 -1.4605895902 -0.5150032329
H -2.0840813766 -0.0952352453 0.4298121505
H 2.2136156926 -1.3077284201 0.1328353423
H 3.1277198918 -2.4315361430 -1.7820412961
H 2.0461383385 -1.4715366815 -2.7984675688
H 4.9270273705 -0.8734488523 -2.0177420442
H 4.0979363466 -0.4135508153 -3.5124716865
H 4.4600683313 1.4603764502 -1.5145166407
H 2.9022081713 1.3950112596 -2.3758646032