15

O 0.1971339888 1.2559530855 -0.2752111194
C -0.0326018586 -0.1126198080 0.0021691675
C -1.5399795442 -0.3293752260 0.0757114826
N -2.2061108116 -0.0621554109 -1.1858638305
N -3.0461680019 1.0184847026 -1.3612805489
C -3.3819031074 0.9382528128 -2.5962779581
O -2.8348054719 -0.1012562719 -3.2711470169
C -2.0387115886 -0.7761939223 -2.3387856226
O -1.3848749784 -1.7563110068 -2.5690706467
H 1.1205330871 1.3650546107 -0.5187519584
H 0.3844536168 -0.7661550935 -0.7753508852
H 0.4000634932 -0.4161619981 0.9690598296
H -1.7439314922 -1.3624167470 0.3759788989
H -1.9855748756 0.3482603680 0.8058456447
H -4.0423202056 1.6044777649 -3.1264685568