17

C -0.2287440973 1.3741492000 0.0908610828
O 0.1812441264 0.0207495001 -0.0510237739
C 0.7618616925 -0.5317939484 1.1002757850
C -0.2370699906 -0.6714409692 2.1851748226
N -1.0457187888 -0.7509815256 3.0061582278
C 1.3515819853 -1.9081409013 0.6924644705
C 2.3717799570 -1.7636672761 -0.4519617441
C 1.9626437850 -2.5585268720 1.8544115429
N 2.4752081829 -3.0637946056 2.7579928263
H 0.6195943010 2.0186627879 0.3608676790
H -0.6208824239 1.6812803119 -0.8796676367
H -1.0142348007 1.4781040433 0.8496800641
H 1.5769396585 0.1069348196 1.4780562612
H 0.5129828693 -2.5286011443 0.3566228680
H 2.7478919448 -2.7461482775 -0.7445941994
H 1.8925756390 -1.2917069233 -1.3097976461
H 3.2224088897 -1.1518110895 -0.1381496700