21

C -0.2229536036 1.5661941064 0.0370958244
C 0.0508422263 0.0620913343 -0.0129423725
C 0.9904374923 -0.5028687604 -1.1146594266
C 2.2772754117 0.2792794049 -0.7762477526
C 2.4421690774 -0.4062392392 0.6042843856
C 2.7432256581 -1.8291914459 0.0768080038
C 1.3181773521 -1.9635757277 -0.4909057682
O 0.6193549767 -1.9673660980 0.7673280095
C 0.9079854152 -0.5972587741 1.0928448605
H 0.6449752468 2.1658851294 0.3206636676
H -0.5817213118 1.9349880288 -0.9304353456
H -1.0054820081 1.7714039645 0.7752630739
H -0.9101729868 -0.4578355363 -0.0164314268
H 0.6299683567 -0.4900217327 -2.1429506897
H 3.1228252695 0.0705910610 -1.4355747773
H 2.1292852712 1.3581981749 -0.7628476137
H 3.1281010552 0.0334606693 1.3265009565
H 3.5647254624 -1.8378852408 -0.6429504499
H 2.9089523041 -2.5943822519 0.8362317632
H 1.0491892292 -2.8370765061 -1.0825749419
H 0.6854953954 -0.3934101205 2.1396961098