15

O 0.0840895188 1.4087264118 -0.1177753982
C 0.0981649106 0.0316417980 -0.0752649579
C -0.0217630904 -0.6704583339 1.3044182254
O -1.4273942823 -0.1906403524 1.3870726835
C -1.3025966555 -0.7133507831 0.0097349585
C -2.4576241640 -0.6339479047 -0.9228626464
O -3.4719781831 -0.0269624868 -0.6931795638
C -0.5743460169 -1.9446469458 0.6014137731
O 0.2102410096 -2.6886769353 -0.2803786520
H -0.5872770409 1.6886120915 0.5223489668
H 0.8273205740 -0.3545698158 -0.7851364686
H 0.5869634942 -0.5610702395 2.2022852714
H -2.2906587701 -1.1743944464 -1.8806830503
H -1.2217756153 -2.5433156110 1.2494828529
H 0.6125298813 -3.4174838566 0.2021004257