21

C -0.1920206343 1.4424887450 0.0966857904
C 0.0847417635 -0.0605643631 -0.1176459189
C 0.8217126496 -0.2858603533 -1.3628274918
C 1.4399300450 -0.4552452203 -2.3800479767
C 0.8285415834 -0.6513928370 1.0755168679
C 0.0790233418 -1.1169405681 2.3122563575
C 0.8136563616 -2.1070313927 1.4323409028
C 0.0584269822 -3.1392635898 0.6257448199
O 2.0615569166 -2.5601141665 1.8985590781
H 0.7470219390 1.9967525337 0.1844715386
H -0.7546924355 1.8588382859 -0.7428431837
H -0.7673985095 1.5903546764 1.0152314219
H -0.8863448766 -0.5655850891 -0.2061167312
H 1.9829216259 -0.6142333982 -3.2784660820
H 1.7855739404 -0.1750875456 1.2694388343
H 0.5107206631 -0.8875521591 3.2800106439
H -1.0069546785 -1.1102913616 2.2819002652
H -0.9059639130 -2.7634490785 0.2749141890
H 0.6459386063 -3.4503616108 -0.2429855380
H -0.1424321962 -4.0269012233 1.2386795479
H 1.8976917151 -3.2725087640 2.5270209951