20

C -0.3294315229 1.4568502518 0.0607601361
C 0.0643941374 -0.0360727909 -0.0173230291
N 0.7201920880 -0.2726328779 -1.3019369949
C 1.9182415251 0.0387061724 -1.5224777721
O 2.8447440467 0.5715512522 -0.6689490316
C 3.1908506902 -0.1852786635 0.4915608965
C 2.0858450567 -0.5291380381 1.4421604023
C 0.7670184925 -0.4865036131 1.2551182871
C -0.1758965055 -0.8972994246 2.3605204052
H 0.5678831370 2.0785947828 0.1111713177
H -0.9037867131 1.7366474653 -0.8263170219
H -0.9414295361 1.6539560531 0.9456285274
H -0.8708238033 -0.6082928731 -0.0636898268
H 2.3163640490 -0.0480565970 -2.5354256012
H 3.7039509886 -1.1068186325 0.1707965991
H 3.9413159205 0.4245964823 1.0068604571
H 2.4594044196 -0.8799374505 2.4038447304
H 0.3607164417 -1.1392048652 3.2810985876
H -0.8971493859 -0.1032498061 2.5897969443
H -0.7641110361 -1.7755319777 2.0655812266