13

N 0.0150308570 1.4199465836 0.1986439903
C -0.0227100383 0.0314111926 0.0582826017
C -1.1871218206 -0.7354710061 0.0482602179
N -1.1991973535 -2.0693669066 -0.0204652806
C -0.0144093731 -2.6552873860 -0.0797278237
O -0.0115760539 -3.9972884148 -0.1429486268
N 1.1772276424 -2.0422196462 -0.0870417214
C 1.1432076564 -0.7371633243 -0.0196507134
F 2.3113755971 -0.0961271883 -0.0357324765
H 0.8693953212 1.8346309274 -0.1461884936
H -0.7967956368 1.8946261868 -0.1712532945
H -2.1574165021 -0.2447122505 0.0979397587
H 0.9140031143 -4.2703690675 -0.1811668879