20

C -0.2279921449 1.3724336541 -0.5611530258
O -0.1622212535 -0.0243345457 -0.7162439810
C 1.1015418240 -0.5587922601 -0.3832559586
C 1.0210247724 -2.0630514619 -0.5634905882
C 0.9194879072 -2.7325723732 -1.9498398022
C 2.1789411798 -2.2281865297 -2.7026913680
C 2.9760885854 -2.9527224915 -1.6202534159
C 1.8384754363 -3.8448849436 -1.3040061700
N 2.2706303393 -2.8467091884 -0.2851332697
H -0.0373263448 1.6776520671 0.4800166016
H 0.4988243563 1.8909733723 -1.2068468806
H -1.2361462898 1.6869238259 -0.8423802915
H 1.8905090859 -0.1127243205 -1.0092521430
H 1.3631896860 -0.3372759226 0.6657283423
H 0.2446071506 -2.4532649941 0.1024041844
H -0.0301831529 -2.8603520595 -2.4637782837
H 2.2935295458 -2.7426790240 -3.6603699020
H 2.3082200900 -1.1518386850 -2.8496691797
H 4.0381517329 -3.1522102406 -1.5695273942
H 1.7466852241 -4.9067739188 -1.1191881041