23

C 0.1077641354 1.5578061035 0.1434036629
C -0.0228305949 0.0387133722 0.0082357179
C 0.7258827880 -0.5179735379 -1.2058113275
C 0.5448129581 -2.0393535227 -1.3756552485
O -0.8338729158 -2.3986820531 -1.4955488990
C 1.3354071950 -2.5511630290 -2.4985342085
C 1.9562914616 -2.9375244742 -3.4570056406
C 2.7201455332 -3.4455026721 -4.5921007514
C 3.2717647608 -4.8648441967 -4.3648664975
H 1.1556834057 1.8610922938 0.2477246123
H -0.2963092417 2.0703641504 -0.7369322377
H -0.4340122577 1.9269495426 1.0198454825
H 0.3572427460 -0.4454309875 0.9179483023
H -1.0775683375 -0.2447096755 -0.0692921800
H 0.3802581028 -0.0242464956 -2.1244351329
H 1.7988844686 -0.3033850106 -1.1259009426
H 0.8725686199 -2.5316565809 -0.4504663391
H -1.1068808097 -2.1744887722 -2.3921133866
H 2.0848979448 -3.4379522276 -5.4873132742
H 3.5488431223 -2.7589420516 -4.8084412195
H 3.9377599817 -4.8881139769 -3.4981413461
H 2.4586126102 -5.5727102879 -4.1835662164
H 3.8339450832 -5.2004903904 -5.2414252298