16

O 0.0619330988 1.4264244721 -0.1560963902
C 0.0038717509 0.0125901689 -0.0151815946
C 0.5700021801 -0.4993021934 1.3626517272
N -0.3337456828 -1.5852109964 1.8393284470
C -1.5420007641 -1.3651414619 1.1440904233
C -1.3927652786 -0.4888281824 0.1015485414
N -2.5711424887 -0.4689878880 -0.5680962184
N -3.4953565422 -1.2523813600 0.0231239440
C -2.8717519534 -1.8230784841 1.0636908999
H 0.9616708342 1.6640382127 -0.4025671389
H 0.5374491356 -0.4606725487 -0.8547756450
H 1.5974959219 -0.8656172322 1.2830679503
H 0.5552320320 0.3674658106 2.0367187411
H -0.4270492063 -1.5932572945 2.8481701351
H -2.8455645322 0.1024101674 -1.3482902322
H -3.4126161851 -2.5130286800 1.6931769101