19

O -0.0499924592 1.4148598019 0.0264876624
C 0.0126554980 -0.0067170090 0.0025989882
C -1.3926172569 -0.5435237853 0.0427009142
C -2.3181319325 -0.4849203020 1.3074982074
C -3.1204974254 -1.5701498225 0.5140402727
C -3.5126798338 -0.7629870343 -0.7301826117
C -2.3927719653 -0.0961169066 -1.0355741715
C -1.7023615331 -2.0944735701 0.0695904996
O -1.5345855820 -2.8787638188 -1.0649664159
H 0.8479831925 1.7555347946 -0.0250133093
H 0.5117347568 -0.3689683816 -0.9112761130
H 0.5832997062 -0.3955617859 0.8610235382
H -1.8391283620 -0.8631193147 2.2171857495
H -2.8264470215 0.4609796237 1.4961360307
H -3.8624194722 -2.2163568404 0.9813083651
H -4.4794003945 -0.7522521880 -1.2139089362
H -2.1908676075 0.6132892275 -1.8250918702
H -1.1756838657 -2.6047683103 0.8814163143
H -2.0156686520 -2.4339878983 -1.7771868044