20

C -0.0156531537 1.5775767053 -0.1207764757
C -0.0507561990 0.0477500595 0.0695579695
C 0.8062204690 -0.4505274639 1.2577705671
C 2.3135321821 -0.2398054473 1.0606333471
C 3.1072801833 -0.8043847707 2.2145366347
C 4.3332469415 -0.1703110062 2.7125132315
O 3.1001612432 -0.0380473887 3.4222824238
C -1.4371118945 -0.4042668111 0.2355464014
N -2.5286170128 -0.7579628162 0.3754912123
H 1.0004895548 1.9121979049 -0.3421113305
H -0.6613604572 1.8810243235 -0.9482705950
H -0.3586164329 2.0864082759 0.7846304571
H 0.3247242949 -0.4262592443 -0.8476582974
H 0.4833488786 0.0571236743 2.1733187170
H 0.6083736548 -1.5182291210 1.4057936282
H 2.6402198900 -0.7273454465 0.1316607908
H 2.5471591248 0.8258183219 0.9676801348
H 2.9918871854 -1.8782741539 2.3774027163
H 5.0953016717 -0.7726938458 3.2048052823
H 4.6977813859 0.7391800804 2.2361295450