16

C 0.2816556700 1.3697812941 -0.0946008675
C -0.0784043311 -0.1118173159 -0.0094502497
N 0.7357720321 -1.0143527868 -0.8524535912
C 1.5207499314 -1.4692462222 0.1959391449
N 2.6341968500 -2.0390780185 0.3681720535
C 0.5751856948 -0.8718078405 1.2338582612
O 1.1638920360 -0.0944271917 2.2251063789
C -1.5200218129 -0.3221239524 -0.1781286711
N -2.6582116165 -0.4789720944 -0.3024222962
H 1.3494281018 1.5015232581 0.0908611523
H 0.0326996042 1.7710091802 -1.0812474575
H -0.2697809339 1.9371453068 0.6589414814
H 1.0130840894 -0.8454902877 -1.8100690807
H 3.1182024809 -2.2457484329 -0.5061734171
H -0.1273041196 -1.5937879029 1.6628153275
H 2.1122634533 -0.2750110134 2.1982438212