15

N 0.5453723626 0.1497293461 -0.7089357788
C -0.1967290055 0.2053271407 0.4280373194
O -0.0554479821 1.0542674113 1.2849641542
C -1.3086950904 -0.8588741140 0.5338524284
C -0.9404445950 -2.2514269097 0.1280047940
N -0.5680064096 -2.5674636943 -1.1184755495
N -0.3258897568 -3.8710564323 -1.0503009959
N -0.5148193426 -4.4457023034 0.1253195493
C -0.9045258857 -3.4298124044 0.8965176863
H 1.2966108384 0.8111807414 -0.8142470339
H 0.4600254751 -0.6214939740 -1.3524684374
H -1.6425054641 -0.8461416080 1.5717725740
H -2.1451675220 -0.5046140485 -0.0812793517
H -0.0308761305 -4.3980916134 -1.8564965322
H -1.1376434015 -3.5791107775 1.9386231337