20

C -0.1042700875 1.5054421900 0.0272496151
C -0.0124577296 -0.0180706997 -0.0469729790
N -1.3461191572 -0.5489799567 -0.2179915433
C 1.1756039254 -0.4908442181 -0.9563814062
C 2.0757925656 -0.6000644519 0.2959450968
C 0.7846248201 -0.6090839243 1.1973344355
N 0.7035613920 0.1247610135 2.4474623333
C 0.3757608359 -1.9949921417 1.4444652386
N 0.0801258545 -3.1010898476 1.6060209818
H 0.8770540703 1.9741424167 0.1482359852
H -0.5296477039 1.8905079692 -0.9063720896
H -0.7505418674 1.8081012544 0.8539201717
H -1.8026164226 -0.1276766721 -1.0206939637
H -1.3313172264 -1.5533507573 -0.3643971968
H 0.9711086628 -1.4707494053 -1.3962010839
H 1.4953067111 0.1915915654 -1.7473430080
H 2.7408341145 -1.4607787512 0.3781046681
H 2.6510730711 0.3109807227 0.4826945770
H 1.1572103879 -0.3859696319 3.1981574890
H 1.1791319635 1.0162930159 2.3583232083