19

O -0.0911649439 1.4293979787 0.1185305940
C 0.0207746169 0.0211685425 -0.0335784835
C -1.3938820972 -0.5493006465 0.0005905423
C -1.4178669300 -2.0733535638 -0.1686841811
N -2.7234154805 -2.6546437928 0.1220469915
C -3.1358064824 -2.3627264377 1.4943756167
C -2.8953603512 -0.9356784292 1.9996790049
O -3.4179296789 -0.5209909328 3.0180125037
N -2.0285973543 -0.1845027558 1.2596845048
H 0.7846779036 1.7942042002 0.2729902508
H 0.4986225099 -0.2431219164 -0.9897004094
H 0.6096594115 -0.4240585990 0.7822190802
H -1.9465426096 -0.0933740123 -0.8378292732
H -1.1209362054 -2.3340452271 -1.1894954909
H -0.6876814615 -2.5304155247 0.5129768013
H -3.4095953424 -2.2771613217 -0.5247417803
H -4.1992131201 -2.5791685359 1.6195059992
H -2.6011008599 -3.0336957505 2.1807387614
H -1.8909046847 0.7667459548 1.5735772278