15

C -0.3861564066 1.8019291002 -0.2637218434
N -0.7438326472 0.4007300492 -0.1953465110
C 0.0022663390 -0.4869746882 -0.6742499275
O -0.4353611311 -1.7964066614 -0.6761147854
C 0.3569176900 -2.7294001600 -0.0331879140
C -0.2180189170 -4.1043734186 -0.2206008880
O 1.3407906104 -2.4258976011 0.5765276142
C 1.2683797791 -0.2679034319 -1.3464094583
N 2.2506234232 -0.0338034013 -1.9098375327
H 0.5743833206 2.0080784980 -0.7510832665
H -1.1824153694 2.3338135057 -0.7946824280
H -0.3657841922 2.1973675814 0.7568593197
H -0.2189240365 -4.3623165200 -1.2836763341
H 0.3792691813 -4.8238380780 0.3373470536
H -1.2562526237 -4.1249335840 0.1212376712