16

C 0.0092157972 1.5629796093 0.1275590327
O 1.4756743233 1.5924204235 -0.1402426228
C 1.2327743248 0.3716838658 -0.9620556965
C 1.3393203400 -1.2096924105 -1.0204858103
C 1.6433260888 -1.6938580973 0.3915818021
C 0.6661920454 -0.7359857354 1.1264513319
C 0.1122455250 0.0265922942 -0.0957025956
O -0.1631627938 -1.1292914646 -1.0314346713
H -0.2220372838 1.9264740881 1.1319268924
H -0.5372468224 2.1202058573 -0.6392368810
H 0.9274551636 0.7073281676 -1.9565172901
H 1.7316577261 -1.7355009715 -1.8913869659
H 1.3909412677 -2.7489717989 0.5139077265
H 2.6912189792 -1.5474835739 0.6669624895
H -0.1449159942 -1.2615910532 1.6358367980
H 1.1661510530 -0.0753987404 1.8363586403