22

C -0.1178394591 1.0895654410 0.7267171669
C -0.1116633946 0.1163870904 -0.4551884229
N -1.3445705419 -0.6385998652 -0.5874636487
C -1.4652000812 -1.9190292338 -0.1413260436
O -0.5615018303 -2.5984863416 0.2995128334
O -2.7512718916 -2.3318090449 -0.2824774336
C -3.0384482048 -3.6890172937 0.1335607974
C -3.2658226361 -3.7318763510 1.6414694049
C -4.2517556070 -4.1286655296 -0.6734827429
H 0.8267583598 1.6411098322 0.7735134404
H -0.9290956379 1.8201839138 0.6361748219
H -0.2483450057 0.5496855290 1.6690098233
H 0.0724607269 0.6579909984 -1.3906645707
H 0.6863533867 -0.6197300735 -0.3375398752
H -2.1933678447 -0.1677213804 -0.8551211754
H -2.1672589311 -4.3002594559 -0.1180724400
H -2.3649844754 -3.4112964570 2.1688781733
H -4.0985276637 -3.0797241958 1.9249688275
H -3.5047000023 -4.7522259992 1.9579271142
H -4.0472747062 -4.0684865493 -1.7458341412
H -4.5119867975 -5.1625012084 -0.4279958693
H -5.1165573623 -3.4950973754 -0.4515769299