18

C 0.1709229623 1.5389038386 0.1503925683
C -0.0972195193 0.0402026043 -0.0460680224
C 0.6026171236 -0.5257746689 -1.2492867061
C 0.1986378544 -0.3315450827 -2.7143629952
O 0.6317047855 -1.6832515689 -3.0478625804
C 0.9632863709 -1.9179470251 -1.6927123556
C 2.0676449383 -0.9856909892 -1.2219155148
C 3.0683535719 -0.4680351579 -2.1120803506
N 3.8641719915 -0.0331815428 -2.8304439802
H 1.2396726715 1.7335963079 0.2832605956
H -0.1671801541 2.1191139610 -0.7143869349
H -0.3552367537 1.9164747202 1.0316878735
H 0.2181892929 -0.5132381153 0.8467494674
H -1.1759787057 -0.1341874819 -0.1485867381
H -0.8845959013 -0.2382319205 -2.8456660706
H 0.7232469517 0.4292971939 -3.2999819173
H 0.8031727708 -2.9074375537 -1.2791371626
H 2.4222577488 -1.1983108191 -0.2169541761