20

C -0.0402119951 1.5823972267 -0.2086683020
C 0.0423241222 0.0825139979 0.0406497914
O -1.2440596362 -0.5122097818 -0.0627860568
C 1.1325382967 -0.7583973412 -0.6917671455
N 1.6592214165 -1.3249341825 0.6011430152
C 2.1322756903 -0.1547944795 1.3710394622
C 0.6815903282 -0.4222059781 1.3453736729
C -0.0612097880 -0.9815216381 2.5368236219
O 0.7522415630 -1.9100103722 3.2312885847
H 0.9262572295 2.0746099465 -0.0732633467
H -0.3674031415 1.7806599588 -1.2374465250
H -0.7642997987 2.0397821529 0.4724071433
H -1.6197796501 -0.2623603148 -0.9137011066
H 0.6911161654 -1.5499509006 -1.3000069969
H 1.8896752471 -0.2184439981 -1.2714584069
H 2.6556763214 -0.4355725231 2.2786360886
H 2.5590007216 0.6878871038 0.8319005699
H -0.3136955133 -0.1862360293 3.2479955745
H -0.9999000156 -1.4358021038 2.1934522212
H 1.1210664767 -2.4920801438 2.5524470104