19

C -0.2989399894 1.6530938000 -0.0721794211
C -0.0151208543 0.1556235178 -0.1186662479
C -1.2901609762 -0.6685122301 0.0947186685
O -1.7420051999 -0.5421565436 1.4285182524
C 0.9041107821 -0.3054282744 -1.2858610390
C 2.0292110094 -0.4674547609 -0.2218634066
N 1.0298489512 -0.2970055721 0.8614602352
C 2.7504313415 -1.7411638261 -0.1925556156
N 3.3214814402 -2.7459375762 -0.1875203224
H 0.6240702151 2.2402589832 -0.1278204998
H -0.9394685909 1.9522547882 -0.9088537800
H -0.8212393471 1.9020171319 0.8567217106
H -2.0986054102 -0.3107392701 -0.5526151070
H -1.0893364120 -1.7200393408 -0.1596291893
H -1.0280273189 -0.8969341015 1.9738991755
H 0.6019987655 -1.2477391723 -1.7449856504
H 1.1078457028 0.4301415931 -2.0640238572
H 2.7702388347 0.3387034734 -0.2799944802
H 1.2962439465 0.3984862006 1.5506932343