18

C -0.2101414342 1.0022314557 -0.4191877671
C -0.6737554820 -0.4442831012 -0.3406214083
O -0.0087947070 -1.2741725550 -1.3191980486
C 1.2048096686 -1.7485909764 -1.0039763387
N 1.8108291686 -1.5134014257 0.0829200222
C 1.7662769861 -2.6195423566 -2.1169180920
O 2.8529934570 -3.1405263964 -1.9856934069
C 0.9604714096 -2.8279244674 -3.3810947050
O 1.6336876479 -3.6488747221 -4.2873474000
H 0.8436070157 1.0865942143 -0.1460658198
H -0.3526756212 1.4017758185 -1.4274039717
H -0.7961015550 1.6108690870 0.2768275383
H -0.4927390175 -0.8643335180 0.6518150938
H -1.7338199843 -0.5366632022 -0.5880919665
H 2.7041375672 -2.0089046045 0.0688783676
H -0.0165761664 -3.2495047381 -3.0956156567
H 0.7411151871 -1.8382005019 -3.8125073848
H 2.4701756499 -3.8856841401 -3.8588840157