20

C 0.2042535243 1.4734093551 0.0348385160
C 0.0068812784 -0.0213396925 0.0122121902
C -0.8761502862 -0.6933312543 1.0029577303
N 0.5905379920 -0.8046995489 1.1352353857
C 1.0761170100 -2.0474352929 0.5675298478
C 2.2795998958 -1.9362869614 -0.3364382191
C 0.8902486113 -2.0699616620 -0.9271208895
O 0.5205197905 -3.2509807834 -1.5715265153
C 0.1986484211 -0.7641301626 -1.3188194181
H 1.1884984096 1.7443442366 -0.3643957236
H -0.5544870368 1.9750003133 -0.5766681236
H 0.1345311894 1.8590335168 1.0550546366
H -1.3610515273 -0.1104043504 1.7809779201
H -1.4226541604 -1.5781822190 0.6828685974
H 0.9451396410 -2.9376811225 1.1729527436
H 2.7963304733 -0.9831478961 -0.3987083971
H 2.9140723055 -2.8139044214 -0.3984870434
H 1.0013917013 -3.3017100689 -2.4049843605
H -0.7540235435 -0.9861490689 -1.8104403882
H 0.7972275208 -0.1613127467 -2.0134256793