16

C 0.1846971616 1.3845077535 0.0077664151
C 0.0778701629 -0.0644606011 0.0008637584
C -0.0182250398 -1.2645292400 -0.0047710216
C -0.1328442778 -2.6930128689 -0.0114305255
N -1.2683954306 -3.2647327914 -0.0041422569
O 1.1120089992 -3.2590555142 -0.0259624412
C 1.1710797742 -4.6855912855 -0.0344843101
C 2.5637596358 -5.1019435222 -0.0498868135
C 3.7014534036 -5.4836170675 -0.0626847464
H 1.2315414189 1.7052953033 -0.0036894824
H -0.3111904670 1.8173457431 -0.8678021522
H -0.2886935501 1.8072355951 0.9005626013
H -1.2071418399 -4.2809787384 -0.0102127291
H 0.6651070353 -5.0877061206 0.8549546521
H 0.6484483258 -5.0777975176 -0.9186984039
H 4.7108796080 -5.8139338675 -0.0739518042