23

C -0.0793025290 1.5255001416 0.1806075076
C -0.0308527637 0.0066909512 -0.0444744064
C -1.4496571967 -0.5680318587 -0.1531302171
C 0.7950030020 -0.3807987614 -1.2846509246
C 2.2680152458 -0.0144425102 -1.1854635846
O 2.9214721405 -0.5354939014 -2.3600024606
C 4.2394265435 -0.2682597571 -2.4668502282
C 4.8034652822 -0.8661670520 -3.7342180417
O 4.8625426252 0.3624822565 -1.6504079552
H 0.9135512238 1.9529046129 0.3489211457
H -0.5196484388 2.0336368996 -0.6859451828
H -0.6932491169 1.7692657261 1.0537277922
H 0.4495048839 -0.4500218491 0.8332817843
H -1.9768315574 -0.1473697527 -1.0177999812
H -1.4327408363 -1.6564817771 -0.2712379389
H -2.0393003790 -0.3352157861 0.7394822147
H 0.7236242033 -1.4634888350 -1.4435790882
H 0.3659033060 0.0934923549 -2.1770529013
H 2.4332370067 1.0655556566 -1.1423787697
H 2.7344255738 -0.4518621902 -0.2953914517
H 4.2732848653 -0.4705087538 -4.6050803208
H 5.8646605389 -0.6310629779 -3.8051945480
H 4.6608271471 -1.9505791768 -3.7328869635