20

C -0.1157380520 1.5314207792 0.0023565742
C 0.0480630485 0.0364132163 -0.0009801086
C -0.2236201766 -0.7966669263 -1.2491208226
C -0.6531057353 -1.9388717914 -0.2755511542
C 0.5617269125 -2.7805846174 0.0223998130
C 1.3906080017 -2.0415649221 0.7579571558
C 0.7136417736 -0.7556309640 1.1133071320
C 1.1089515064 -0.0714342914 2.4014720592
N -0.7440729619 -0.9208247779 0.8674505967
H 0.6413506914 1.9906036312 -0.6448233786
H -1.1006592096 1.8126564860 -0.3866763857
H -0.0110723609 1.9668098818 0.9978259697
H -1.0840017614 -0.3833354955 -1.7820619875
H 0.5857324556 -0.9963082893 -1.9581956762
H -1.5859763347 -2.4612987907 -0.4840892040
H 0.7620570312 -3.7432376547 -0.4309526899
H 2.3969127162 -2.2886407891 1.0719485212
H 2.0832825222 0.4210606276 2.3080664992
H 0.3709260595 0.6737482174 2.7026163806
H 1.1774547437 -0.8098237697 3.2069983856