16

C -0.0430095723 1.4209033741 0.0426139492
N -0.0235698719 -0.0290497036 0.0180793790
N 0.0309486583 -0.7106636590 -1.1287601834
C 0.0768897097 -1.9794963571 -0.7346362403
C 0.0498556719 -2.0184675395 0.6716393356
N -0.0124069006 -0.7548387718 1.1202956773
C 0.0764509478 -3.2037180447 1.5560222931
C 0.0293588071 -2.9590478994 3.0491346315
O 0.1344991998 -4.3161606588 1.0727040037
H 0.9473162750 1.8179529008 -0.1970167907
H -0.7624255915 1.7802691959 -0.6943251042
H -0.3341203799 1.7324877332 1.0444440987
H 0.1208809709 -2.7936351278 -1.4387339771
H -0.8795369199 -2.4101121187 3.3156496197
H 0.0581121358 -3.9155645305 3.5715414927
H 0.8726927398 -2.3335107230 3.3587679552