21

C -0.1905773570 1.5251855751 0.0184407423
C 0.0383003277 0.0113331906 -0.0020123966
C 0.9078362973 -0.4720464623 -1.2094194124
C 2.2292461053 -0.8882349144 -0.5539940146
C 2.1521982153 -2.1336849441 0.3902460960
C 3.1357485601 -1.4175458916 1.3408967895
C 2.3477492688 -0.1818365274 0.8409904270
C 0.8706305676 -0.5022223659 1.1830965391
O 0.8913637417 -1.9508304766 1.0557402578
H 0.7549485365 2.0785079382 -0.0027143818
H -0.7739065140 1.8408843134 -0.8527357946
H -0.7377544109 1.8345211795 0.9159188373
H -0.9298321429 -0.4986115935 0.0094554261
H 0.4403168668 -1.3048822712 -1.7427272731
H 1.0623168677 0.3329582787 -1.9356290440
H 3.1228961168 -0.8597590160 -1.1775004635
H 2.2519029860 -3.1664462415 0.0573028624
H 3.0845611034 -1.6901158007 2.3975617251
H 4.1685588854 -1.4175111669 0.9852473624
H 2.6921381411 0.8430808559 0.9707593276
H 0.5094201873 -0.2218584994 2.1754284478