21

C 0.7219573585 0.0627666778 0.8116827476
O 0.4341318998 -0.9481465631 -0.1318064717
C 0.3687013924 -0.4747029037 -1.4697244062
C 0.0502449863 -1.6215198873 -2.4201299353
C 1.1096903130 -2.7058842614 -2.6291935055
O 1.0386499322 -3.2973737391 -3.9058100893
C 2.4918279981 -2.6469558151 -1.9866420902
C 1.4715921958 -3.6855448157 -1.5521322498
O 0.8871131007 -3.6919242536 -0.2945095980
H 1.6945516656 0.5360741243 0.6120290497
H -0.0533351394 0.8425640722 0.8056083170
H 0.7483742713 -0.4071528704 1.7968496331
H -0.4181635867 0.2919316891 -1.5430123250
H 1.3223844015 0.0045734145 -1.7425933720
H -0.8918868346 -2.0896417237 -2.1095345416
H -0.1406440094 -1.1698426607 -3.4009866620
H 1.4302440577 -2.6836622037 -4.5384974792
H 3.3328283422 -2.9764005461 -2.5880248269
H 2.7106486167 -1.8425850395 -1.2928396121
H 1.6398642651 -4.6983808725 -1.9030608392
H 0.7164636233 -2.7736841422 -0.0322356135