16

O -0.1715187243 0.1117235334 0.2955509947
C -0.0418827278 1.2578814279 0.0160436852
O -1.0020370566 2.1188956077 -0.4667828305
C -0.0086391214 3.1941624075 -0.6617522511
C -0.2042435034 4.4371375972 0.2063249288
N 0.5625419222 4.2763237603 1.4569594404
C 0.1387805449 3.1520387834 2.2986782654
C 1.2980604494 2.9920577537 1.3797157339
C 1.0629673816 2.3209028757 0.0275423761
H 0.0923811740 3.3960434496 -1.7292369199
H 0.1997717507 5.3072971869 -0.3222305658
H -1.2615710011 4.6293815554 0.4119992097
H 0.3135098758 3.2925418010 3.3616482739
H -0.7893978503 2.6397070645 2.0589863372
H 2.3086773519 2.9843013252 1.7741332096
H 1.9806032044 2.0692792407 -0.5017289576