22

C 0.0496315375 1.6152536079 -0.2041339740
C -0.0020916329 0.0922929718 -0.0602399555
C 0.7373607983 -0.4115654392 1.1806505606
N 0.7218427985 -1.8722883100 1.2470522228
C -0.4943247959 -2.5027961400 1.8535631042
C 0.3208901138 -3.7461171741 2.3212903650
C -0.2497124246 -3.6822954904 3.7509481746
C -0.1145645543 -2.1990442210 3.3534343774
C 1.1995859010 -2.4751982397 2.5276380171
H 1.0828799371 1.9710282433 -0.2864354093
H -0.4878974320 1.9489274714 -1.0969706922
H -0.4020726052 2.1139082798 0.6608516097
H -1.0485753407 -0.2365781906 -0.0150855518
H 0.4331055661 -0.3898587661 -0.9428154162
H 1.7889216774 -0.0980786845 1.1289334668
H 0.3108785023 0.0659748071 2.0822650632
H -1.4816347403 -2.4860192354 1.3885609087
H 0.5811565672 -4.6026732356 1.7003145755
H -1.2663327719 -4.0619817364 3.8911542977
H 0.4024436518 -4.0354723791 4.5555034446
H -0.3628661389 -1.3162150040 3.9418920596
H 2.2365264057 -2.4189324854 2.8657306915