16

C 0.1775171372 1.2014713934 -0.0905905249
O -0.1807804679 0.1308291647 0.7733543134
C -1.3579733349 -0.4947066980 0.4418889123
C -1.4272559505 -1.8092555768 0.0775041111
O -0.4765632221 -2.7667578056 -0.0785385209
N -2.7527553639 -2.1322264821 -0.1155331192
C -3.5178898056 -1.0162678137 0.1196644296
O -4.8627268300 -1.1511208027 -0.0353321798
C -2.7045016711 0.0270845548 0.4711380155
H 1.1392955615 1.5841672910 0.2600447049
H 0.2733954231 0.8613028985 -1.1304630215
H -0.5627769911 2.0112479637 -0.0557272788
H 0.3565907425 -2.3648911236 0.1948917169
H -3.1056920920 -3.0388194549 -0.3666693649
H -5.2740753493 -0.3092651168 0.1807963865
H -3.0107038359 1.0290571383 0.7262356097