16

O -0.0408659510 0.1654778030 -0.7275752178
C -0.0101043823 1.2015328502 -0.1110145667
C -1.2354953548 1.8525331479 0.5368527734
C -1.0819651780 3.3870144943 0.7293316439
C 0.4017287175 3.7628366728 0.6945120975
C 1.0665758375 3.3716560778 -0.6418513433
C 1.2564302720 2.0254861442 0.0945772075
O 1.1591925725 2.7110301969 1.3716665539
H -2.1247634138 1.5786679014 -0.0348342958
H -1.3337629668 1.3740185305 1.5181212163
H -1.6139537605 3.9381967767 -0.0542992552
H -1.5207551148 3.6886730400 1.6848324494
H 0.6066861522 4.7518373001 1.1116637703
H 0.4633556556 3.3910760992 -1.5526833792
H 2.0182877353 3.8797211296 -0.8034620441
H 2.1703975895 1.4428398955 -0.0298612502