23

C 0.1354102296 1.4992527888 0.2587494483
C -0.0762724949 0.0383598740 -0.1794140910
C -1.5088755941 -0.3962932209 -0.1136071568
C -2.3215900695 -0.7631869037 -1.1029096708
C -2.3719929873 -1.4367463881 -2.4574522541
C -3.4073192452 -2.4212212933 -1.7927355795
C -3.6191838630 -1.3678191654 -0.6451478858
C -3.3935689663 -1.5935382714 0.8632104100
C -2.2686152003 -0.5650955278 1.2096899044
H 1.1935933078 1.7743202652 0.2071311230
H -0.4273016871 2.1835263012 -0.3839439201
H -0.2011791025 1.6570793438 1.2885806570
H 0.2980329929 -0.0919704175 -1.2013813385
H 0.5343049111 -0.6108096630 0.4651228271
H -2.8464193601 -0.8273302646 -3.2347775308
H -1.4439894267 -1.8529407572 -2.8583240583
H -4.2795242298 -2.6968619229 -2.3910773237
H -2.9169240239 -3.3267998534 -1.4256954588
H -4.5027747520 -0.7501849877 -0.8520696053
H -4.2911515804 -1.4653967831 1.4756505940
H -3.0183030070 -2.6087835170 1.0373510964
H -1.6095625421 -0.9259190371 2.0089682988
H -2.6929484090 0.3833471914 1.5690047846