18

C -0.0644006351 1.8043296625 0.2285951177
C -0.0971558755 0.3034065837 0.0514625191
N 0.8811308014 -0.2689831249 -0.8719098286
C 1.0089350750 -0.5650689648 0.5816136330
C 2.1458710161 -0.0391305436 1.2832014368
C 3.0842796119 0.3885443713 1.9017638549
C -1.4773733658 -0.2979294952 0.0686141592
C -2.2288119635 -0.5396317669 -1.1706608738
O -1.6015133578 -1.6174829173 -0.4610528700
H 0.9661960709 2.1602025374 0.2639959150
H -0.5754918661 2.2990210409 -0.6040460548
H -0.5632422293 2.0982125186 1.1587762910
H 0.4723559274 -1.0967158118 -1.3069320043
H 0.7044684758 -1.5624949271 0.8913429913
H 3.9203204989 0.7639617136 2.4380085452
H -2.0459278541 -0.1251422413 0.9835924512
H -3.3166979118 -0.5467726505 -1.1538255647
H -1.7749682184 -0.2904555745 -2.1282010482