25

C 0.1034726276 1.5548983757 -0.1037491739
C 0.0191603797 0.0339703301 0.0978373075
C 0.8125122620 -0.3777274121 1.3484605744
C -1.4596321135 -0.4786423405 0.0781563800
C -2.2663471443 0.0150203316 1.2797089908
O -2.1187740180 0.0329578277 -1.0833801660
C -1.4903344681 -2.0294450909 -0.0254214540
C -2.8974509637 -2.6237681437 -0.0048683012
O -0.8440047729 -2.3242591413 -1.2726118353
H 1.1401068118 1.8520199085 -0.2938815224
H -0.5106775370 1.8720706938 -0.9482724841
H -0.2300604022 2.1038627579 0.7842643801
H 0.4998337149 -0.4385643541 -0.7665418483
H 0.3967138631 0.0725628229 2.2564524492
H 0.8451494357 -1.4613088811 1.4939450759
H 1.8482665574 -0.0328517464 1.2624224955
H -2.1582326168 1.0956882116 1.3961938124
H -3.3277175594 -0.1948731446 1.1336309929
H -1.9392716635 -0.4638221010 2.2070818184
H -1.7418466878 -0.4585259402 -1.8256022066
H -0.9068635665 -2.4598316746 0.8003744054
H -3.5310398943 -2.1262373768 -0.7433532274
H -2.8576585805 -3.6953363879 -0.2363604014
H -3.3605462724 -2.5263577668 0.9802706188
H -1.0516390715 -3.2317145077 -1.5129366108