17

C -0.3058287788 1.3603302822 -0.2519979092
O -0.2910543565 -0.0658777408 -0.3910418370
C 0.8429437717 -0.5799516061 -0.9156527000
O 1.7929240852 0.0889763365 -1.2478183843
C 0.7536078792 -2.0445962503 -1.0361708662
C 1.9964797809 -2.9033014349 -1.2262588994
C 0.9689238385 -2.9011276079 -2.2925523276
O -0.1276157224 -3.7506556675 -1.9839492337
C -0.4569846866 -2.9442267657 -0.8163488975
H 0.5135653945 1.6936272850 0.3896171699
H -0.2059618741 1.8437316184 -1.2271331163
H -1.2681455356 1.6042116805 0.1980979555
H 2.8841087723 -2.3136378889 -1.4286140125
H 2.1300883020 -3.7869992432 -0.6090588254
H 1.1221252743 -2.6068026179 -3.3243485733
H -0.4852562510 -3.5374760269 0.1042139825
H -1.4091188835 -2.4277617324 -0.9636449953