20

C -1.6503260007 -1.3212761003 1.5920975281
C -2.5298879469 -0.0556275760 1.6088560336
O -2.6122551918 0.4883624607 2.9017492705
C -1.9426819759 0.9883208114 0.6587842462
O -1.3935124290 1.9691198696 1.1225342962
C -1.9894832408 0.7909575461 -0.8252482849
N -2.7490917309 -0.3419453250 -1.3726201443
C -3.2358491546 1.0113496537 -1.6377412921
C -4.5711370719 1.4243442970 -1.0692451418
H -2.0317459324 -2.0166319732 2.3437957059
H -1.6740845162 -1.8081246648 0.6144949507
H -0.6166546215 -1.0716889891 1.8518044702
H -3.5336002093 -0.3352333608 1.2658238275
H -2.0659884619 1.2903888644 2.8738729111
H -1.0646940865 1.0996555963 -1.3087732386
H -2.2745713194 -0.7358262563 -2.1797181543
H -3.0352077613 1.4147833029 -2.6300384908
H -4.7418008663 1.0010190473 -0.0777013546
H -4.6333752659 2.5147129483 -0.9943844340
H -5.3803030569 1.0834800679 -1.7235354045