21

C -0.1762466058 1.5177018092 -0.2319107603
C -0.0238023634 0.0342602027 0.0322612993
C 1.2902179252 -0.6825091717 -0.1771262033
C 0.7217620830 -0.5515995069 1.2147569204
C 1.4104687510 0.2549252386 2.2919973423
O 2.2080354894 1.2547544071 1.7048758605
C 0.4690916081 0.6724823760 3.4587576229
O 0.9986860741 -0.3694073490 4.3010622355
C 2.0814078021 -0.6240408919 3.3860163194
H 0.7216536793 2.0674338057 0.0521927896
H -0.3715487727 1.6973457334 -1.2952136161
H -1.0201189939 1.9346537393 0.3303991310
H -0.9027221442 -0.5437421271 -0.2455047495
H 1.2945202742 -1.6584646474 -0.6504747266
H 2.1518633961 -0.0645722682 -0.4030989251
H 0.2686644358 -1.4463492646 1.6337643728
H 2.6182043765 1.7682963100 2.4084905265
H 0.6849399223 1.6775286203 3.8540070797
H -0.6095035357 0.5719659226 3.2981461308
H 2.2116152584 -1.6911428196 3.1759999244
H 3.0352318901 -0.2062389886 3.7437260458