16

C -0.0261010497 1.5123754119 -0.0000013986
C -0.0145768012 0.0057249611 0.0213746373
N -0.1968903234 -0.6199259486 -1.1483673080
C -0.2049021227 -1.9500517725 -1.1718231653
C -0.0341203347 -2.7682207725 -0.0483287620
N -0.1081756297 -4.1582257130 -0.0886952265
C 0.1628182965 -2.0882706463 1.1536645097
F 0.3530560924 -2.8150661381 2.2657057660
C 0.1745459822 -0.7092532002 1.2077636659
H 0.2165004206 1.9322569232 0.9794695921
H 0.6948673867 1.8900738433 -0.7314285504
H -1.0110992579 1.8861217792 -0.2998964167
H -0.3565994663 -2.4186733138 -2.1435304835
H 0.1525070049 -4.5665809608 -0.9746726369
H 0.3507090297 -4.6152839696 0.6861278420
H 0.3322308225 -0.2121457434 2.1575670350