25

C -1.4611698806 -0.6040044454 0.1705058200
C -0.0534051576 -0.0266694310 -0.0327122938
C 0.6889452977 -0.5314257492 -1.2916391614
C 0.0605570136 0.1365207846 -2.5195110955
C 2.2585425389 -0.4972349465 -1.1395589245
C 2.1308533665 -1.8187085550 -0.3249661762
C 0.9731538036 -2.0838399267 -1.3284035362
C 1.7761925292 -2.2643569435 -2.6343878513
C 2.7588659860 -1.0501855495 -2.4899088272
H -2.1196951139 -0.3995001787 -0.6791324706
H -1.4318679608 -1.6891597051 0.3125659798
H -1.9306269800 -0.1684712252 1.0584273709
H -0.1246605616 1.0665039662 -0.1072117781
H 0.5295993517 -0.2164236046 0.8718498759
H 0.1603484602 1.2261397925 -2.4487742848
H 0.5089037472 -0.1702901182 -3.4648020267
H -1.0095509620 -0.0863394153 -2.5855199650
H 2.7662896167 0.3828905589 -0.7389986471
H 2.9825501331 -2.5050591589 -0.3592327932
H 1.8150171355 -1.6907016132 0.7082609441
H 0.1891396175 -2.8154238169 -1.1261365776
H 2.2999779269 -3.2245406262 -2.6505172697
H 1.1586998523 -2.2138397894 -3.5344907378
H 2.6762151382 -0.3308981013 -3.3083345625
H 3.8051606120 -1.3640165823 -2.4333694012