20

C 0.2332588498 1.5736831909 0.1270063568
C -0.1345739495 0.0989367481 -0.0817754153
C 0.5830058364 -0.5284283688 -1.2435476450
C 1.9969234484 -1.0459447350 -1.1987311056
C 0.8625856868 -1.9986462224 -1.5438734722
C 0.5223688690 -3.1852528235 -0.6828711411
N 0.6272502908 -2.1475537530 -2.9710494720
C 0.2931926746 -0.9956313530 -3.3919465120
O 0.2027208115 0.0291624897 -2.5080803507
H 1.3058713417 1.6875980364 0.3140577667
H -0.0173087315 2.1639279381 -0.7588724990
H -0.3071076565 1.9939834173 0.9803173077
H 0.1062100790 -0.4782529911 0.8182206018
H -1.2156994433 0.0013707910 -0.2381235252
H 2.6942842092 -0.7641890233 -1.9808756184
H 2.4299212876 -1.1494001046 -0.2086773211
H 0.6676440249 -2.9587277831 0.3774295480
H -0.5175966150 -3.4923984178 -0.8311446810
H 1.1639947190 -4.0342538481 -0.9391694363
H 0.0592716969 -0.7342079077 -4.4169465960