17

O 0.0255279497 1.1574812852 -0.5357516413
C -0.1347710245 0.0614713382 0.3498448119
C -1.4798245128 -0.6229991806 0.1812441547
C -1.8171436623 -1.2797706848 -1.1108979531
O -0.7957514884 -1.3042358207 -2.0747850916
C -1.5587554482 -2.1590638765 0.1201076829
O -0.3941952487 -2.9181374798 0.1273197554
C -2.7277908393 -2.8241572130 0.7390358844
O -3.8077369135 -2.2950672616 0.8708647964
H 0.0153286831 0.7931254807 -1.4279193400
H 0.6736207370 -0.6722550501 0.2403086925
H -0.0626362186 0.4721181174 1.3607663671
H -2.3298353009 -0.1660138966 0.6786462487
H -2.8334679128 -1.2180521844 -1.4901613169
H -1.0877683433 -1.8411065580 -2.8190171858
H 0.0245510029 -2.7971808500 -0.7363443003
H -2.5311655195 -3.8683867854 1.0625368350