21

C -0.0090246421 1.5468845328 -0.2625320429
C 1.5015124453 1.5916082931 0.1847043056
C 1.3098373532 0.1888697747 0.8257324638
C 0.4712712724 0.0942011430 2.1265748832
C -0.4404389706 -0.8144146806 1.2598966305
C 0.5283653373 -2.0177287337 1.0556656505
C 1.6170294939 -1.2477797346 0.2492872373
C 0.7827993435 -0.8808332388 -1.0066340953
C 0.0043269479 0.0138444400 -0.0076948126
H -0.6688187101 2.1046605954 0.4063276001
H -0.2293769445 1.8546506023 -1.2880873183
H 2.1960401731 1.6056617812 -0.6586516411
H 1.7891332581 2.3912993512 0.8723140983
H 0.9121948421 -0.3387591262 3.0302645826
H 0.0232476266 1.0584566813 2.3780075484
H -1.4725549051 -1.0512306106 1.5261899449
H 0.8778482220 -2.4162403944 2.0122870361
H 0.1047614416 -2.8394845433 0.4714126556
H 2.6069711944 -1.7052853655 0.1948692908
H 1.3261123697 -0.2763258332 -1.7367807280
H 0.2663439312 -1.6913761940 -1.5308641796