23

C 0.0005335476 1.6308364893 -0.0267035060
C 0.0084420685 0.0999651582 -0.0137686940
C 0.7043174732 -0.5102692045 -1.2350821207
C 0.7126085029 -2.0417763331 -1.2227880815
C 1.4090081180 -2.6392081410 -2.4452736476
C 1.4224111814 -4.1538892997 -2.4423684683
O 0.9485005315 -4.8632462724 -1.5906242605
O 2.0478181809 -4.6282105877 -3.5415696276
C 2.1169734647 -6.0554339831 -3.6388538229
H 1.0200533317 2.0322939237 -0.0421499290
H -0.5184833099 2.0170016684 -0.9111956327
H -0.5026084826 2.0357406627 0.8569209449
H 0.5030865322 -0.2572961185 0.8990371285
H -1.0231798935 -0.2724645903 0.0369855587
H 0.2102459984 -0.1529684759 -2.1499281252
H 1.7373844226 -0.1377784182 -1.2873937276
H 1.2062804731 -2.4063193493 -0.3145324105
H -0.3144986933 -2.4214487998 -1.1734658712
H 0.9303507040 -2.3105503161 -3.3763977050
H 2.4485017404 -2.2954792445 -2.5189296286
H 2.6449396698 -6.2651425488 -4.5693349017
H 2.6600439586 -6.4757964803 -2.7883839319
H 1.1146856198 -6.4911315089 -3.6618139696