14

O 0.3956607160 1.2164880887 -0.3605022725
C 0.1756620789 -0.0650929090 0.0974013362
C -0.0738125374 -0.3623863463 1.5971825345
O -1.1840972588 -1.2464321302 1.2638366058
C -1.2261263362 -0.7571554148 -0.0988143929
C -2.4298754449 0.1975723436 -0.1454670443
O -2.3344927039 1.3851101317 0.0396828056
C -1.3461541223 -1.8190399475 -1.0899821381
N -1.4478506610 -2.6326807621 -1.9047018068
H -0.3846820161 1.7452047690 -0.1363581075
H 0.9633249828 -0.7025633035 -0.3091204849
H 0.7046092258 -0.8955663856 2.1478778486
H -0.4104781609 0.5117570263 2.1658699593
H -3.4117996322 -0.2985827603 -0.2699357229