19

C -0.1172631581 1.5491209149 -0.0001946960
N 1.1993071116 0.8937161642 0.0654997977
C -0.0186518372 0.0675536620 0.0181189799
C -0.3113586076 -0.7280406288 1.2470857894
N -1.5273325301 -1.5723311818 1.2041162770
C -0.2195220046 -2.2025943299 1.2795320687
C 0.3311275927 -3.2115820128 0.2768432489
O 0.8866855974 -3.9979155962 1.3568697467
C 0.3448421448 -3.1175956051 2.3634975521
H -0.4044552723 2.0832227840 0.9018922628
H -0.4239483085 2.0292009137 -0.9256430560
H 1.6493684842 0.9128741851 -0.8452184923
H -0.2572143201 -0.4462755159 -0.9110003850
H -0.0779003739 -0.2096518310 2.1764888803
H -1.9929188381 -1.5880076749 2.1086580092
H -0.4325489618 -3.7597307584 -0.2888314181
H 1.1084970982 -2.8501418284 -0.4077443053
H 1.1251482585 -2.6917783436 3.0069342391
H -0.4068390850 -3.6193234071 2.9899522211