18

O -0.0245146648 1.4283397244 0.0971086737
C 0.0117989516 0.0293311947 0.0464533658
C 0.6304066633 -0.6000631945 1.3393647537
C -0.0355905787 -1.9809910083 1.5210937024
C -1.3940496071 -1.8216659242 0.8567632241
N -2.0753710010 -0.5823086519 1.2789091052
C -1.3717365676 -0.6243453766 -0.0179347732
C 0.8197853198 -0.4094569111 -1.1617501078
O 1.3368444659 0.3829199330 -1.9126882608
H 0.4961526484 1.7345385411 -0.6621907388
H 1.7219040558 -0.6493808657 1.2990637903
H 0.3539955877 0.0742296808 2.1506925751
H 0.5288540334 -2.7699612197 1.0101921035
H -0.1133273481 -2.2644683273 2.5753959887
H -1.9892769744 -2.6956899848 0.6124936481
H -3.0743952224 -0.6659594664 1.1088486454
H -1.9493388614 -0.5528654898 -0.9341566475
H 0.9248684894 -1.5031121039 -1.3133951481