18

C -0.0650243982 1.2807947805 -0.3102801785
C 0.1116642541 -0.1674966847 0.0578856907
N -1.1196133682 -0.9895170059 0.2475995753
C -0.6884596440 -1.3956244460 1.6180015830
C 0.6965164517 -0.7733531339 1.3640787131
O 1.5849954489 -1.6230001983 0.6096873835
C 1.2055135313 -1.0185859000 -0.6477371380
C 0.6959728870 -2.0080543509 -1.6751567696
O 0.5500373284 -1.7217985458 -2.8357349015
H 0.8956194309 1.8036222125 -0.3385181745
H -0.5217247983 1.3647604077 -1.3033509279
H -0.7141037592 1.7941063699 0.4077072188
H -1.9740340402 -0.4455402237 0.2263285951
H -1.2301202219 -0.8918706782 2.4286847677
H -0.7003189111 -2.4757106122 1.7923334036
H 1.2071614109 -0.2384270754 2.1674601379
H 2.0247061879 -0.4277815282 -1.0776772799
H 0.4592437299 -3.0128288775 -1.2675815588