15

O -0.0672161956 1.2768893448 -0.2496567212
C -0.0899561589 -0.0986206848 -0.0573645601
C -0.4816595992 -0.5785295764 1.3316351907
C -1.4805567388 -0.6559437017 0.1698699953
C -1.3464625259 -2.1585997950 0.2939067909
C -1.2335340724 -3.4477547782 -0.1606309601
N -0.3283735232 -4.1194048621 0.6427578283
C 0.1612557699 -3.2458677536 1.5032647888
N -0.4852268573 -2.0510539624 1.3671637626
H 0.8070072620 1.6043965693 -0.0112264986
H 0.6280859964 -0.6837394518 -0.6336601780
H -0.4876348153 0.0357847743 2.2210668731
H -2.3654521090 -0.0575970691 0.0091944273
H -1.7485098346 -3.9525747206 -0.9623524581
H 0.8885512616 -3.4583178328 2.2714965190