18

O -0.1455964892 1.4505525295 -0.0044505267
C -0.0530147971 0.0377529375 -0.0228902411
C -1.4063211121 -0.6181389783 -0.1733879023
C -1.8887088156 -0.7587374244 -1.6061992378
N -1.2810675463 0.0287208054 -2.6560202654
C 0.1850807392 0.1700667453 -2.5288403907
C 0.6719932135 -0.5449937422 -1.2670989442
O 0.2526511530 -1.9143326618 -1.3059220022
C -1.1219224699 -1.8829048972 -0.9565152151
H 0.7215079281 1.8045212175 0.2173431485
H 0.4284097560 -0.3309912295 0.8950559720
H -2.1155612201 -0.5789965414 0.6440513412
H -2.9590724138 -0.8828198283 -1.7358677598
H -1.5050643473 -0.3970044641 -3.5469409394
H 0.6955175072 -0.2657239475 -3.3946635626
H 0.4571145273 1.2317026662 -2.4749864218
H 1.7623321078 -0.5285197821 -1.1915182324
H -1.5214584509 -2.8638431248 -0.7289739104