17

O 0.2132802974 1.0142213951 -0.6779372365
C 0.1098356856 -0.2035974694 0.0388102614
C 0.5544030703 -0.1171676779 1.4753872352
C -0.3420092630 -0.6214886378 2.3191608450
C -1.5611243186 -1.1673383079 1.6237142595
C -1.3979394093 -0.7017326347 0.1503977598
O -2.2664578179 0.4159092409 -0.0202598317
C -1.6996390034 -1.7467659551 -0.8284702093
C -1.9291065516 -2.5883796075 -1.6562252784
H -0.2332740728 1.6807341183 -0.1411635494
H 0.7035315819 -0.9219839786 -0.5350750959
H 1.5134536079 0.3125944106 1.7416438089
H -0.2239002052 -0.6777963314 3.3959231881
H -1.6051496478 -2.2599040701 1.6888197086
H -2.5027540197 -0.7810904624 2.0267808271
H -2.0918336461 0.7583647116 -0.9062466357
H -2.1389412276 -3.3350322833 -2.3819036164