21

C -0.0290127215 1.6533981141 0.0785752066
C -0.0289869342 0.1248201935 0.1869832346
C -1.4087741163 -0.5186830134 0.0080772227
O -2.3289734103 -0.0740703947 0.9846237076
C -1.9207095303 -0.5298336132 -1.4690706835
C -1.4290047341 -2.0056940774 -1.6017144899
C -1.3595661459 -2.0634341827 -0.0441250431
C -2.3791600179 -2.9607432530 -2.2645962709
O -2.1120564281 -3.6850847926 -3.1887151235
H 0.9859176290 2.0487798776 0.1761817976
H -0.4240765559 1.9937069028 -0.8847380918
H -0.6252844373 2.1175818996 0.8727732206
H 0.6552912002 -0.2935058867 -0.5611110736
H 0.3562403529 -0.1751795385 1.1691962275
H -2.3633791464 0.8881019215 0.9596902423
H -3.0130068953 -0.4696245623 -1.4855242462
H -1.5072594350 0.1924123264 -2.1767242977
H -0.4507134488 -2.0875194859 -2.0784561677
H -0.4951884356 -2.5625036824 0.3993531451
H -2.2765010809 -2.4782867020 0.3846003949
H -3.4047288882 -2.9493264408 -1.8203349116