17

C 0.0144466834 1.6430443264 0.1065174334
C 0.0847833684 0.1205247256 -0.0447512404
N -1.2454847350 -0.4485928509 0.0343609500
C -1.7037891625 -1.1660198764 -0.9049437997
N -2.9980754575 -1.7218590009 -0.8563685075
C -3.9671282546 -1.6112585904 0.1266137506
O -3.8948377503 -1.0031787937 1.1597603996
C -1.0182354765 -1.5263584062 -2.1263317275
C -0.4645109503 -1.8364783854 -3.1486800507
H 1.0219471752 2.0696091841 0.1322713363
H -0.5272611874 2.0919222151 -0.7317127629
H -0.5064730165 1.9114285560 1.0291750422
H 0.6159306169 -0.1459226633 -0.9701512898
H 0.6606647341 -0.2929662815 0.7935244281
H -3.2514631942 -2.2787117068 -1.6582363278
H -4.8657519667 -2.1867189916 -0.1798185497
H 0.0367841235 -2.1032472000 -4.0472370043