17

O -0.0050222541 1.4186242475 -0.0498554563
C 0.0149793026 0.0334441785 -0.0044239780
C -0.4912618029 -0.6976063535 1.2547070616
C -0.9139230348 0.0743043415 2.3811816406
N -1.2503581927 0.7165019673 3.2842700333
C -1.3025281945 -0.6539272914 -0.0426352083
C -2.6579889476 0.0046516491 -0.2823720084
C -2.8892226273 -1.1317810898 -1.3168720271
N -1.6699536123 -1.8317032946 -0.8118469304
H 0.5827245423 1.7664631726 0.6309347077
H 0.8587415935 -0.4490827234 -0.5023622762
H -0.0119849271 -1.6433894043 1.4878811190
H -3.3235538541 -0.0261060174 0.5816766067
H -2.6139218511 1.0213611872 -0.6714921267
H -3.8022712506 -1.7224555076 -1.2039193920
H -2.8121708835 -0.7896337263 -2.3546545034
H -1.0016469158 -2.1024221952 -1.5263510321