15

O -0.0256187856 -0.0060391821 -0.0616776748
C -0.0039191538 1.1972347760 -0.0016648926
C -1.2570038854 2.0526214955 -0.0781679523
O -1.5289232870 2.8566387751 1.0862733244
C -1.0202658374 3.5079299504 -0.0773422162
C 0.4636056377 3.8848298938 -0.0553420466
C 1.2064461705 3.1690454400 1.0919159265
C 1.2808497767 2.0347256755 0.0456760438
O 1.1474840665 3.0251606476 -1.0212399570
H -2.1279748974 1.5974128364 -0.5423958856
H -1.7209604738 4.1724443469 -0.5775600641
H 0.6433621976 4.9436010968 -0.2506683720
H 2.1911396790 3.6059942377 1.2610520805
H 0.6791608968 2.9979280800 2.0281005442
H 2.1679420157 1.4068959503 -0.0485027883