22

C 0.0379040552 1.5098752098 -0.0343027697
C -0.0127909565 -0.0018549055 0.0067882785
C -1.3047919604 -0.6036835680 -0.5314991784
O -2.3625044875 -0.5357150398 0.4115778350
C -2.4360720850 -1.6414678352 1.2953711753
C -1.2969468923 -1.7694240183 2.3167740802
C 0.0897728287 -2.0081588308 1.6911366848
C 0.6774794677 -0.7380780732 1.0964875658
N 1.2761701392 -0.6831492058 -0.2528632312
H 0.9543364686 1.8819136692 0.4301574093
H 0.0120847624 1.8731639727 -1.0682158744
H -0.8235356333 1.9306280304 0.4949912217
H -1.6402058074 -0.0365344645 -1.4075585935
H -1.1480620874 -1.6444445858 -0.8550783105
H -3.3871332448 -1.5234926870 1.8249018911
H -2.4980622775 -2.5757715042 0.7097612841
H -1.2702998997 -0.8714978753 2.9459964325
H -1.5536758993 -2.6088500844 2.9761968327
H 0.7775091166 -2.3988780022 2.4492396406
H 0.0131993971 -2.7912311377 0.9254272840
H 1.2229272512 -0.1292776642 1.8168713783
H 1.1121981344 -1.5683914101 -0.7304087460