16

C 0.2039489595 1.2992668339 0.1425600132
C -0.0810850919 -0.1957258706 0.2704854739
N -1.5134386419 -0.5335579329 0.1210336375
C -1.9612155996 -0.7153831926 -1.2054549103
O -3.0847126302 -0.9067261113 -1.5703050548
C -2.3847755332 -0.6848573802 1.1981739846
O -3.5245481749 -1.0804098181 1.1185139103
C -1.9320982790 -0.3026318035 2.6234769043
O -0.9898513052 0.3690497135 2.9457206130
H 1.2806787275 1.4784275607 0.2197083200
H -0.1366573132 1.6851724904 -0.8234453847
H -0.2925744920 1.8554943949 0.9395323986
H 0.4515092812 -0.7511778876 -0.5084009813
H 0.2712376877 -0.5733045277 1.2274951627
H -1.1011550582 -0.6510461573 -1.9009580527
H -2.6789563165 -0.6908320616 3.3442169956