22

C 0.6731767305 -0.3189145429 1.4009812396
C 0.0097568717 0.0937425272 0.0790045940
C -0.1767560688 1.6149045512 -0.0101005388
C 0.8262286966 -0.4087739656 -1.1039219600
C 0.8014118605 -1.8720771854 -1.5496102516
C -0.5574127681 -1.6329726312 -2.2782368560
C -0.0588235342 -2.1621991538 -3.6252690532
C 1.1159953260 -1.4055194197 -3.0027252999
N 0.1810754812 -0.2763098700 -2.4883080548
H 0.7764469392 -1.4062435745 1.4796888896
H 1.6747166150 0.1189114766 1.4898114961
H 0.0856911348 0.0247359555 2.2585199771
H -0.9827866951 -0.3748268154 0.0378092746
H 0.7884469251 2.1302456704 0.0649389705
H -0.6329165110 1.8962094903 -0.9630069338
H -0.8129111060 1.9816278843 0.8020512703
H 1.8230332940 0.0568424698 -1.0942243999
H 1.1453009848 -2.7842110588 -1.0485076167
H -1.5632493765 -1.6621848161 -1.8583318586
H 0.0454777427 -3.2456619916 -3.7237224868
H -0.5057119211 -1.7125831647 -4.5159540579
H 2.0941510187 -1.1556002558 -3.4183957538