22

C -0.7739885518 1.2323272977 -0.0331771638
C 0.1395898680 0.0177665829 -0.1070532862
C 1.5320291737 0.1802798089 -0.7972216681
C 2.1238044354 -0.5994358351 0.3540447587
N 3.2046202277 -1.2162782119 0.5846150553
O 4.1115498358 -1.0710597403 -0.4866481244
C 0.8567554756 -0.5278987338 1.1984039823
C 0.9853761640 0.4976037056 2.3335313139
C 0.3318436893 -1.8622202554 1.7275017951
H -0.2650870528 2.1029675974 0.3924176814
H -1.1201397860 1.5111800947 -1.0345294305
H -1.6613318052 1.0319644950 0.5774224816
H -0.4023416710 -0.8119234808 -0.5730790303
H 1.6644042515 -0.2532235735 -1.7914543983
H 1.8823132024 1.2185697116 -0.8295317439
H 4.8606511796 -1.5973823795 -0.1877549594
H 1.3939923051 1.4507048393 1.9849767156
H 0.0117018652 0.6947740721 2.7953355261
H 1.6579705930 0.1142244797 3.1069516113
H 0.9962127332 -2.2639938219 2.4989685723
H -0.6642639912 -1.7382349479 2.1681673345
H 0.2615786585 -2.6061222447 0.9281458069