19

O -0.1017035836 1.4593707741 0.0089011982
C 0.0244004232 0.0463578572 -0.0176934703
C -1.3797673657 -0.5464642076 0.0245965121
C -1.3900058203 -2.0569256351 0.0006883407
C -0.7692676033 -3.0723398870 0.9976153519
N -1.4268942426 -4.0086989286 -0.0292450876
C -2.6019250408 -3.0173038926 0.0334630783
C -0.8517865093 -3.0389723325 -1.0745167153
H 0.7803796378 1.8415432656 -0.0154369450
H 0.5435684949 -0.2910496656 -0.9295082213
H 0.6085548138 -0.3186409117 0.8426985727
H -1.8846548386 -0.1864545204 0.9295428544
H -1.9494591501 -0.1582621063 -0.8287548479
H 0.3200826030 -3.1668763903 1.0350981242
H -1.2072878745 -3.1455022621 1.9976735294
H -3.1810291773 -3.0849525434 0.9593435406
H -3.2528084653 -3.0559804817 -0.8452027885
H -1.3680625754 -3.0804600025 -2.0383954282
H 0.2309987643 -3.1308724295 -1.2015509484