19

C -0.0988242496 1.5289964389 -0.0691028345
C -0.0309042134 0.0151948433 0.0648436283
O 0.5750793422 -0.5287172972 -1.1085817760
C 1.1455139323 -1.7932285871 -0.7967787765
C 1.5154317022 -1.7369666717 0.6754984796
C 2.3094999822 -0.5192343202 1.1291625086
C 3.0767914528 0.2910953410 0.2264122113
C 3.7866774789 0.9510912543 -0.4864298954
C 0.7872190232 -0.5412277501 1.2214800672
H 0.9041219923 1.9549477658 -0.1362101651
H -0.6564503214 1.8009129301 -0.9697184377
H -0.6127894355 1.9612660889 0.7952930668
H -1.0555875144 -0.3849631077 0.1724575708
H 0.4249234963 -2.6107146659 -0.9620256700
H 1.9990924272 -1.9402107113 -1.4663032333
H 1.6232803801 -2.6634137175 1.2271284047
H 2.7892850053 -0.6532620663 2.0956549958
H 4.3892967859 1.5396926823 -1.1325445263
H 0.3465563334 -0.5380066796 2.2117541117