23

C 0.1673251594 1.3415437669 -0.4577381296
C -0.0634574019 0.0131151306 0.2741513508
C -1.4783897043 -0.5341112119 0.1418626174
C -2.5290672573 0.2278573213 0.9341232712
C -2.0166687063 -1.0906511021 -1.1785931673
C -0.9364946258 -1.8779045864 -1.9018662576
O -0.6378425680 -2.6455057538 -0.7068575689
C -1.7283916502 -2.0171282803 -0.0050451728
C -2.5301690944 -2.9231440144 0.8739735131
H 1.2056085631 1.6709127192 -0.3502386915
H -0.0437370723 1.2450965748 -1.5281672350
H -0.4716542647 2.1405038339 -0.0673627810
H 0.6441532938 -0.7384113804 -0.0866267889
H 0.1555845558 0.1436620410 1.3424003965
H -2.5526435475 1.2815768736 0.6361977811
H -3.5349342409 -0.1724650069 0.7765746088
H -2.3164359792 0.1911938345 2.0087854496
H -2.9572217169 -0.7650541326 -1.6053309851
H -1.3252554509 -2.5339444447 -2.6896371983
H -0.0616129228 -1.3347509370 -2.2788254265
H -1.8859728473 -3.3470589680 1.6534142678
H -3.3465205267 -2.3896192243 1.3655345553
H -2.9505097848 -3.7546687829 0.2996768208