23

C -1.4345094835 -0.3889780305 -0.0775997734
C 0.0816046523 -0.2700514021 0.1366835287
C 0.5492504273 -1.2470160828 1.2239277891
C 0.8364135111 -0.4473322405 -1.1976341917
O 0.3575737487 0.4849098564 -2.1766692304
C 2.3460846846 -0.3023589790 -1.0924264752
O 2.7521391579 0.9526994960 -0.5961534699
C 3.2266841755 -1.4547341644 -0.7138772551
C 3.2218823907 -0.9401183344 -2.1385555741
H -1.7850422050 0.2840249382 -0.8631068516
H -1.7042780751 -1.4101297234 -0.3733770042
H -1.9756805906 -0.1579671330 0.8455294924
H 0.3106365784 0.7477615584 0.4859289810
H 0.4151283120 -2.2876196511 0.9041283199
H 1.6007431063 -1.1033837129 1.4802992509
H -0.0415880432 -1.1078198396 2.1350972378
H 0.6103000310 -1.4392978853 -1.6105255604
H 0.2737841082 1.3365335446 -1.7339832692
H 2.6827657268 1.5757296157 -1.3280424509
H 4.0884244408 -1.2203550410 -0.0996038424
H 2.7685417616 -2.4157267038 -0.5089448545
H 2.7527558712 -1.5408478725 -2.9099974149
H 4.0885559729 -0.3747433030 -2.4629126720