13

O 0.0578327721 1.3101683564 -0.0378944890
C 0.0701624312 -0.0407684577 -0.0365236103
C 0.0238455209 -0.7439609573 -1.2319753981
N 0.0363792397 -2.0847957374 -1.2243446739
C 0.0929373070 -2.7117507632 -0.0709545129
O 0.1069837730 -4.0626114071 -0.0308168718
C 0.1397527458 -1.9867622667 1.1404993955
O 0.1972014460 -2.6524874603 2.3067793374
N 0.1278715820 -0.6676064125 1.1430983170
H 0.0959488303 1.5899536274 0.8857332963
H -0.0228889069 -0.2341906545 -2.1866850305
H 0.0690372713 -4.3568629091 -0.9511441190
H 0.2219393577 -1.9845652481 3.0058797991