19

O -0.2588179897 1.4735459717 -0.1499304796
C -0.0357020753 0.0787044559 -0.0077721027
C 0.2958200569 -0.4707425028 1.4263803746
C -1.0153968582 -1.2614806939 1.3937576364
C -2.1759024165 -0.3322565646 1.1966493359
C -1.3427432765 -0.7124167067 0.0030811348
C 0.9244222726 -0.3607493765 -1.0973959214
C 2.3836144033 -0.3513040687 -0.9222164085
O 1.6479795792 -1.5773717547 -0.9354077882
H 0.5943981811 1.9183691519 -0.0909342883
H 1.1783362850 -1.1124586640 1.4241912287
H 0.3823618696 0.2901314796 2.2084737576
H -1.1369533300 -2.2749519159 1.7533664362
H -3.1574981134 -0.7941654272 1.2273144107
H -2.1425848347 0.6839881662 1.5777912687
H -1.7605478680 -1.2191444114 -0.8587346343
H 0.5349464639 -0.1988851227 -2.1043444039
H 3.0306373858 -0.1850005406 -1.7817471196
H 2.8119853251 -0.0805424554 0.0422947630