15

C 0.0190686580 1.5860857461 0.0251591937
C 0.0086330877 0.0448943768 -0.0242587682
C -1.4371784135 -0.5352843406 0.0198486816
C -2.1321557983 -0.1745072282 1.2526953570
N -2.6629164033 0.1197991574 2.2358500600
C 0.6916711199 -0.4540718171 -1.2106425649
C 1.2457072391 -0.8628118860 -2.2034292662
C 1.8759092533 -1.3230849916 -3.3241710727
N 2.4101208774 -1.7152725821 -4.2780579139
H 1.0444145073 1.9616945959 0.0207356549
H -0.5038090596 2.0045737644 -0.8395204575
H -0.4763471675 1.9310017048 0.9361258510
H 0.5427676743 -0.3356363963 0.8559297302
H -2.0092855099 -0.1631398557 -0.8367129382
H -1.4050025748 -1.6259349978 -0.0629436367