21

C 0.0663063622 1.4810361308 -0.0630677086
C -0.0548398598 -0.0084940188 0.0935808567
C -1.3170039207 -0.7455718190 -0.3251988229
C -1.1111474375 -2.2089654524 0.1669590383
C -2.4137610340 -2.9445817117 0.4516566367
O -0.4369672487 -2.9683805191 -0.8306632091
C -0.1986600438 -2.0523133790 1.4222236732
C 0.6112445424 -0.8075174890 1.1348796627
O 1.1421097751 -0.7717718619 -0.2092788030
H 1.0257952431 1.8344480488 0.3228180048
H -0.0029116050 1.7660200379 -1.1184596920
H -0.7391728295 1.9924306981 0.4744653698
H -2.1811955869 -0.2776345984 0.1623229056
H -1.4875506921 -0.7288437746 -1.4058269887
H -3.0104382288 -3.0207264181 -0.4620997102
H -2.2032379385 -3.9599219792 0.8003328304
H -3.0035240608 -2.4271135482 1.2139691846
H 0.3868464846 -2.4916223309 -1.0042571505
H -0.7879549910 -1.8950258782 2.3341116073
H 0.4113223929 -2.9493659123 1.5612986576
H 1.2581277665 -0.3645854448 1.8885636272