16

C 0.0917565158 1.5528518012 -0.0831041446
C -0.0422571780 0.0354849722 0.0528577165
O 0.5750598404 -0.6095729392 -1.0677219223
C 1.4921315304 -1.6031568532 -0.6374531677
C 1.5322935702 -1.4801272767 0.8738370506
C 0.6479234359 -0.5515670746 1.2518383877
C 2.3842834434 -2.2699047130 1.6768128726
C 3.1315058005 -2.9683008686 2.3138063575
H 1.1449433275 1.8473664233 -0.0688691538
H -0.3505361782 1.8817652064 -1.0274908016
H -0.4280013510 2.0604867215 0.7361571100
H -1.1164364070 -0.2208028650 0.0643581369
H 1.1564094622 -2.6050696866 -0.9477696621
H 2.4771317796 -1.4302700555 -1.0933646255
H 0.4356697038 -0.2491110413 2.2687434324
H 3.7833823446 -3.5768315710 2.8902616835