16

O -0.0474351624 -0.0029452347 -0.0498885386
C -0.0121216583 1.1920745800 -0.0101610715
C -1.2302285943 2.1537544499 0.2309251881
C -0.5959542737 3.2836588051 1.0320342580
C 0.7198404269 3.2553447361 0.8220679225
C 2.0922084031 3.3337544581 1.4301938858
C 2.3560070516 2.0069180410 2.0465263486
N 2.5592662490 2.1293542071 0.5923610186
C 1.1836580273 2.1658015453 -0.0785335839
H -1.6425138514 2.4606632432 -0.7404960517
H -2.0296645760 1.6327885454 0.7668652093
H -1.1448177457 3.8822686780 1.7492755464
H 2.7252127346 4.2005108890 1.5759727864
H 3.2934269541 1.8765497319 2.5794100676
H 1.5249796071 1.4232386320 2.4333559827
H 1.3478624381 2.4503903426 -1.1249841684