22

C -1.3937072246 -2.6866515835 0.3804134128
C -0.3704492108 -1.5503274485 0.2653162754
C 0.9441736423 -1.8984320673 0.9503233114
C 1.9568829350 -2.9220040455 0.3637366360
C 3.0177062499 -1.8397741555 0.5605924092
C 2.7141374346 -0.6119196999 -0.1945754449
C 2.1400398713 -0.5328458140 -1.5980597697
O 3.1803039608 -0.4091096138 -2.5584022079
N 2.0007149167 -0.8224165826 1.0864066738
H -1.6092354465 -2.9215841343 1.4284907744
H -2.3378665515 -2.4185022123 -0.1026210018
H -1.0265236982 -3.6026650407 -0.0955134261
H -0.2189098181 -1.3070350934 -0.7903553097
H -0.7653790964 -0.6421701277 0.7383936677
H 0.7114132221 -2.1860235110 1.9817331246
H 2.0993302211 -3.8013047854 0.9934983973
H 1.8027458789 -3.2583195409 -0.6666793856
H 3.9689659574 -1.9945453338 1.0603467331
H 3.4445653487 0.1843768334 -0.0373911520
H 1.6008914227 -1.4405849153 -1.8740041568
H 1.4296587680 0.3058281905 -1.6653957839
H 3.6249616665 0.4310647415 -2.4064702271