16

O 0.1204950441 1.4264836134 -0.0633562064
C 0.0708441730 0.0559826022 -0.0187183039
C 0.5953578698 -0.9882747025 -1.1889976741
C -0.0615502882 -1.7689731164 -0.0374262530
C 0.6965172888 -0.9027459434 1.0073512822
O -0.8648762631 -2.8720017948 0.4684772048
C -1.8148945752 -1.8957357246 0.8939583314
N -2.7977903877 -2.0339952265 1.6521265716
C -1.2326531286 -0.8043067644 -0.0216578864
H 0.9826591599 1.7191543961 0.2524575633
H 0.0577260961 -0.9473239642 -2.1362493851
H 1.6784980129 -1.0565313016 -1.3193952610
H 1.7854599037 -0.9854040879 1.0181966892
H 0.2674881499 -0.8833558542 2.0111757393
H -2.8801148244 -2.9951520195 1.9895725728
H -1.8140047811 -0.7539863318 -0.9449463946