18

C -0.0632128050 1.4836661692 -0.2030191856
C -0.0027597332 0.0272870852 0.2099862411
O 0.9899216012 -0.4777153962 0.6804510842
C -1.2865335126 -0.7843751174 0.0348614708
C -1.8184443885 -0.8612657333 -1.4258849052
C -2.4673498263 -2.2526682567 -1.4932698478
C -1.6913186937 -3.0756410038 -0.4545649919
O -1.6169653355 -4.2800308142 -0.3773751261
N -1.1040444511 -2.1696909394 0.3906765450
H -0.1903899752 1.5644514966 -1.2884375454
H -0.9235921908 1.9821985751 0.2563014974
H 0.8586179701 1.9867864795 0.0898396374
H -2.0473405109 -0.3015049730 0.6732791348
H -2.4987789713 -0.0407627188 -1.6608497013
H -0.9752357772 -0.8118944103 -2.1232088253
H -3.5227069507 -2.2260161558 -1.1984474606
H -2.4088333765 -2.7277938087 -2.4732599288
H -0.4135222528 -2.4449864082 1.0718300874