21

C -0.0159214995 1.5590723422 0.2456829133
C 0.0599991494 0.0522907077 -0.0151204097
O 0.9691012816 -0.5860462198 0.8791126160
C -1.3133584381 -0.6138228207 0.0914590152
C -1.4869783514 -2.1252139069 0.2339083321
C -1.5932967005 -2.4644535225 1.7295738664
C -1.4588888513 -1.1660102238 2.5195979840
C -2.2394248391 -0.5050159085 1.3466662975
C -2.7912358054 -1.9443974322 0.9755909310
H 0.9670183174 2.0284549471 0.1208407581
H -0.7040381004 2.0447345084 -0.4542752935
H -0.3610428320 1.7566298413 1.2650990524
H 0.4091517386 -0.1037629583 -1.0512263830
H 1.8128678387 -0.1278471772 0.8146969045
H -1.8951129014 -0.2800660010 -0.7769192308
H -1.2418688464 -2.8934530781 -0.4889631536
H -1.4142158815 -3.4768747126 2.0691758262
H -2.0784838730 -1.1984751015 3.4212832966
H -0.4621190099 -0.7869969152 2.7510148318
H -2.8400422200 0.3881198590 1.5095395265
H -3.7815740959 -2.3378235576 0.7989857093