17

C 0.3187592640 0.8865850226 -0.8036962761
C -0.3154295604 0.3535569823 0.4826200657
N -1.5190925471 -0.4587289326 0.3831547665
C -2.0323190408 -0.7207716754 -0.7359290826
N -3.2002039294 -1.5056902761 -0.8719154872
C -3.8327072131 -2.0281253469 0.2925350918
O -4.8217625555 -2.7014454294 0.2863651720
C -3.6788722750 -1.7294551185 -2.1782587446
O -4.6460477890 -2.3639776940 -2.4815062900
H 1.2073550919 1.4723777992 -0.5524333110
H 0.6350479947 0.0779482952 -1.4712595564
H -0.3626766318 1.5421239443 -1.3564049147
H 0.4193608207 -0.2459260181 1.0352513526
H -0.5599718983 1.1914755107 1.1480413143
H -1.6510798113 -0.3850317710 -1.7052936845
H -3.2772792512 -1.7203721517 1.1896395751
H -3.0251764584 -1.2267384106 -2.9192435308