22

O -0.0518349203 1.3328610305 -0.2723090046
C 0.0327857625 -0.0490992681 -0.0120385950
C 0.2472258701 -0.5328243578 1.4504982009
C -0.8391993418 -1.6152882962 1.1929521956
C -1.8242124421 -1.9215734535 2.3085807359
N -2.8772023891 -2.8203609243 1.8457891483
C -2.6203077937 -4.2489589328 1.9956260887
C -3.6017503207 -3.5549501003 2.8746208072
C -1.3252552628 -0.7764533893 -0.0218046851
H 0.8381187154 1.6991716026 -0.2582118220
H 0.7473474751 -0.5375421530 -0.6910043217
H 1.2457082514 -0.8573847301 1.7552462889
H -0.1133785647 0.2320219249 2.1465606442
H -0.3758388381 -2.5478488908 0.8518215415
H -1.2823333978 -2.3354296826 3.1814588362
H -2.3019803605 -0.9910236912 2.6411602537
H -2.9575075601 -4.8826113017 1.1802699422
H -1.6784075425 -4.5539246164 2.4506077310
H -3.3123623395 -3.3989440821 3.9131597652
H -4.6697590449 -3.6706036465 2.7125475844
H -2.1175505809 -0.0817644387 0.2736622212
H -1.6283083450 -1.2967608227 -0.9317345765