21

C 0.0162758457 1.4655503959 0.1954288301
O -0.2977659112 0.0885079609 0.3671594272
C 0.5129167369 -0.5553842849 1.2724589090
C 1.9201023627 -0.9711611336 0.9292064469
C 0.8896016846 -2.0266127905 1.2658664549
C 0.7070498992 -2.0967633827 2.7876903774
C 0.2502245762 -0.5977058755 2.7914370243
C 0.9605648805 0.3683521229 3.7201882408
O 0.3940406289 1.6619257095 3.5394518938
H 1.0184752012 1.5904748020 -0.2397027641
H -0.7256757841 1.8735083416 -0.4949162802
H -0.0250340152 2.0036740465 1.1491816929
H 2.1478264038 -0.8874138226 -0.1286446188
H 2.7667647477 -0.7895796833 1.5884079107
H 0.6140380767 -2.7983171030 0.5583656068
H -0.0812133994 -2.7782975501 3.1129835112
H 1.6178774834 -2.3195363288 3.3555341913
H -0.8271810856 -0.5289590839 2.9692385654
H 0.8352656479 0.0281905719 4.7611682566
H 2.0410640867 0.3759169012 3.5074076060
H 0.8885202533 2.2874871462 4.0768633979