19

O -0.0465394020 1.4340402452 0.1484172903
C -0.0246801530 0.0530966931 -0.0570967868
C -0.3210569620 -0.8301097878 1.1183678406
C -1.3295829950 -0.7019452518 -0.0095850987
C -2.5879002366 0.1199201378 0.1881833700
O -2.7346859859 1.0435748370 -0.9139455517
C -4.0144644812 0.9011651852 -1.5246291235
C -4.6704648120 -0.2335108745 -0.7885241517
C -3.8713960693 -0.6652569956 0.1793227133
H -0.6836161965 1.7984965736 -0.4799712450
H 0.7243736877 -0.2906865419 -0.7701281738
H 0.2237226302 -1.7611974180 1.2262473788
H -0.5553793805 -0.3267930744 2.0505551028
H -1.4367933071 -1.5410660384 -0.6908316739
H -2.4839501210 0.7085963888 1.1115887814
H -4.5839672522 1.8399991934 -1.4331397358
H -3.8945084309 0.6985573872 -2.5999423053
H -5.6559014492 -0.6068552946 -1.0365089972
H -4.0676982834 -1.4644134743 0.8823263461