25

C -0.0840456347 1.4702840650 0.0609775690
C -0.0759722486 -0.0470306430 0.1436142800
O -1.3990994604 -0.5148277833 -0.0065352766
C -1.5079290033 -1.9213689288 0.0479074178
C -2.9704907606 -2.3217901627 -0.1572966220
C -3.4935423317 -1.8469529708 -1.5195247219
C -3.1327285357 -3.8210788531 0.0136836161
C -3.2448478084 -4.4374727517 1.3859434182
C -4.4455809071 -4.4019365276 0.4720498398
H 0.9300528845 1.8649514474 0.1750327060
H -0.4785884099 1.7995366671 -0.9045881478
H -0.7127240221 1.8938649683 0.8494240463
H 0.5705431948 -0.4736053834 -0.6427168075
H 0.3383552384 -0.3791826215 1.1112629216
H -0.8771346775 -2.3843609650 -0.7329358771
H -1.1461639297 -2.2971317450 1.0195565688
H -3.5505969159 -1.8223881750 0.6313260484
H -4.5574412745 -2.0768076497 -1.6314064416
H -3.3516999308 -0.7699345799 -1.6329661654
H -2.9568548552 -2.3459318915 -2.3358502613
H -2.5925935178 -4.4105204573 -0.7251695869
H -2.7632275227 -5.3916076102 1.5696038322
H -3.2434098525 -3.7694496900 2.2414832320
H -5.2452719275 -3.7100347037 0.7170857349
H -4.7854995611 -5.3315363246 0.0290558268