14

N 0.1167777294 1.3846249013 0.1801863261
C -0.0099311754 0.0080367318 0.0342785534
C -1.1441243048 -0.7873731373 -0.0228153384
C -0.6976753195 -2.1272844624 -0.0542164975
O -1.5210004082 -3.1915169231 -0.1363560836
C 0.6924325116 -2.1327115023 -0.0259567001
N 1.0935921841 -0.7864353194 0.0077199579
C 1.5675723573 -3.2210124786 -0.0718897123
N 2.2592710982 -4.1565420310 -0.1040772923
H 0.8077031008 1.8023982677 -0.4312313142
H -0.7665583798 1.8654029739 0.0817813750
H -2.1671654988 -0.4513509592 -0.0660561100
H -0.9929888311 -3.9993057288 -0.1524393718
H 2.0204908063 -0.4840467727 0.2543868277