18

C -0.0254066029 1.5261304513 0.0164927835
C 0.0022135279 0.0075959739 0.0094523243
C 0.7093821091 -0.7219372919 -1.1801839743
C 0.3910269533 -2.1315858471 -0.5985914406
C 1.0117501161 -1.9383918141 0.8009041304
C 0.7758424900 -0.6784138746 1.1612190706
C -1.1371519617 -1.9716901143 -0.4559806433
C -1.3646926784 -0.7115341437 -0.0909392964
H 0.9883643276 1.9402019106 0.0258559687
H -0.5400647337 1.9165484298 -0.8678004706
H -0.5480703608 1.9094227504 0.9002662189
H 0.2271550538 -0.5310905316 -2.1436911184
H 1.7808909112 -0.5070122002 -1.2348437514
H 0.7308320659 -3.0038424779 -1.1564421268
H 1.4915729637 -2.7219239518 1.3720676825
H 1.0182824231 -0.1886996347 2.0958715681
H -1.8518835290 -2.7737360799 -0.5835002325
H -2.3093017552 -0.2401797542 0.1492921373