19

O -0.1715366034 0.1861222670 -0.6435088759
C -0.0663928917 1.2612201213 -0.1004747026
C 1.2264310700 1.9780920758 0.0351517789
C 1.2419712307 3.5055735438 -0.0122402270
C 1.5696287720 2.8151183412 1.2665997289
C 0.6750957306 2.9249744634 2.4779195656
C 0.8100670754 4.2072395937 3.3366021477
C -0.6978264298 4.3726488130 3.0713067255
O -0.7047727342 3.2411399585 2.1710823490
H -0.9447055458 1.7850279042 0.3269822831
H 2.0533537172 1.4560805812 -0.4352145795
H 2.0282230998 3.9769784373 -0.5899952633
H 0.2717947724 3.9876815907 -0.0669545931
H 2.6201998656 2.7602205389 1.5438054369
H 0.7321591611 2.0011827420 3.0707450159
H 1.1106058636 4.0638977258 4.3749275502
H 1.4339050639 4.9763556545 2.8777387759
H -1.3451023465 4.1980005377 3.9392270060
H -1.0129896108 5.2940314600 2.5699505378