23

C -0.0447740264 1.5085975976 0.0140784465
C -0.0054659156 0.0057999193 0.0017942188
C -0.0182584153 -0.7050364225 -1.1307081060
C 0.0225067759 -2.2132958002 -1.0931529536
C 0.0757661940 -2.6962522026 0.3636451381
C 1.1453196151 -1.8887310116 1.1508926273
C 0.0519470396 -0.7812482707 1.3195364979
C 0.0653210122 0.0544441759 2.5893515281
C -0.9893591763 -1.9449444705 1.2103107078
H 0.8360916463 1.9369274032 0.5080579437
H -0.0832876683 1.9032981317 -1.0048827180
H -0.9184753605 1.8906150893 0.5564138639
H -0.0582033541 -0.2116230540 -2.0989255250
H -0.8579735176 -2.6328525201 -1.6014014500
H 0.8942193578 -2.5867173055 -1.6501654733
H 0.1062440461 -3.7866672343 0.4270562778
H 1.3804108502 -2.3633630685 2.1087636219
H 2.0709315429 -1.6131660788 0.6378840808
H 0.9341987861 0.7203687015 2.6318081458
H -0.8334352091 0.6741738491 2.6808645294
H 0.1067502833 -0.5980182821 3.4675755694
H -1.9552650132 -1.7191921951 0.7499490232
H -1.1455573433 -2.4298843511 2.1790704856