21

C -0.0008842123 1.5404997265 0.0548220239
C -0.0194519826 0.0385322091 -0.0257543740
C -0.0728067553 -0.6138239793 -1.1899016888
C -0.0551013031 -2.1148933197 -1.3336024988
C 0.2358006815 -2.8141182021 -0.0186576151
C 0.6321691063 -4.2252694820 0.0033063010
O 1.6092537613 -3.1962921911 0.1862760423
C -0.4160610845 -2.1596127300 1.1787762694
C 0.0505976404 -0.7006505610 1.2935726842
H 0.8943352946 1.8951631328 0.5824679086
H -0.0137811730 2.0012694969 -0.9366042447
H -0.8625351123 1.9187889737 0.6203262344
H -0.1249486438 -0.0451266802 -2.1162554387
H -1.0203963841 -2.4635367098 -1.7317129591
H 0.7029308885 -2.4194885567 -2.0652819432
H 0.4214724831 -4.8341773909 0.8824443183
H 0.7092971992 -4.7805966163 -0.9316447938
H -1.5056086745 -2.1875745854 1.0495769072
H -0.1752258107 -2.7163848386 2.0891556326
H 1.0848013223 -0.6767763934 1.6657670820
H -0.5489859711 -0.1737217227 2.0463982722