19

C 0.0114432885 1.5511632551 0.0220426323
C 0.0254717945 0.0400410725 0.0277399281
C 0.9523891744 -0.8160016311 -0.9154478415
C 0.5894194519 -1.9348467965 0.1126173407
C 0.6528407240 -0.8108229224 1.1956682109
C -0.9406711178 -2.0170742482 -0.1042301723
C -1.2948236635 -0.7198521067 -0.1577812137
C -1.6987389238 -3.1950739728 -0.2088468702
C -2.3116679620 -4.2307931998 -0.2932494081
H 1.0183396921 1.9563911513 0.1639035033
H -0.3744123078 1.9398964650 -0.9271143804
H -0.6229299664 1.9441929707 0.8245359800
H 0.6304044850 -0.9541835185 -1.9504246629
H 2.0032573741 -0.5107187338 -0.8703813550
H 1.1417209733 -2.8692104901 0.1932777863
H 1.6749791263 -0.5050584724 1.4432437571
H 0.0555591937 -0.9442401738 2.1008754649
H -2.2739237578 -0.2834966176 -0.2978307685
H -2.8640047487 -5.1340090106 -0.3694016011