20

N -0.3799134974 1.0255003655 0.3213442809
C -0.4973865690 -0.2246876259 0.4475602577
O -0.6443195096 -0.9939625105 -0.6536610890
C -0.8525774660 -2.3860795137 -0.4472828821
C -2.3053517581 -2.7285044327 -0.1633848925
C -2.6049672971 -4.2448395405 -0.1342319965
C -3.6303159128 -4.3952947590 1.0208608778
C -3.8277568509 -2.9463277124 1.5128310783
O -2.6476805947 -2.2534963257 1.1331606285
H -0.2587235728 1.4512425287 1.2380231853
H -0.4889875561 -0.7959293365 1.3825531823
H -0.5342304390 -2.8724225734 -1.3734207237
H -0.2260341277 -2.7586787845 0.3745743769
H -2.9370579943 -2.2296505580 -0.9163313823
H -2.9920962578 -4.5939153670 -1.0940808916
H -1.6933404952 -4.8125001527 0.0778720098
H -4.5704364253 -4.8446635956 0.6926336317
H -3.2256873017 -5.0231313872 1.8182100977
H -4.7088171676 -2.4885815646 1.0356864113
H -3.9373954771 -2.8548936541 2.5959998695