20

C 0.0533577241 1.5847280808 -0.2224427963
C -0.0471258985 0.0730824814 -0.0147001320
C 0.8795705672 -0.7795398462 -0.9532242943
N 1.6482852351 -1.1383256182 0.2409574481
C 0.8772770053 -0.4398152551 1.1307525611
O 0.9258833454 -0.2962248095 2.3259191397
C -1.4867182301 -0.3871405625 0.0686585677
C -1.8845438109 -1.6760413550 0.7451768337
C -2.2342709171 -0.3519660608 1.3790968251
H 1.0948058424 1.9095448097 -0.3134893588
H -0.4793886065 1.8883361270 -1.1304615077
H -0.3935808764 2.1114144732 0.6254109751
H 0.3843654441 -1.6277145011 -1.4355414275
H 1.4456500552 -0.2057894550 -1.6942484829
H 2.4617298952 -1.7205866358 0.3749879607
H -2.0671422053 -0.1225000699 -0.8132086981
H -2.6775864031 -2.2615426166 0.2932423051
H -1.1124018710 -2.2688938009 1.2233654080
H -1.6716843478 -0.0674533017 2.2608908945
H -3.2696079173 -0.0299084539 1.3704642590