16

N 0.0045422815 -1.1396666673 -0.4464074288
C -0.0128733376 -0.0032010203 -0.2275066828
C -0.0224906002 1.4105820419 0.0435263532
C -0.5315870081 2.3636729257 -1.0925295370
C 0.8439171193 3.0968914203 -1.1085238370
C 1.2730190501 2.3098111587 0.1462354489
N 0.7334639630 2.9020265787 1.3948069226
C -0.3401647142 1.8808971872 1.4876383946
H -0.7895094768 1.8489762784 -2.0186837450
H -1.3821178425 2.9730142028 -0.7801036062
H 1.4386296153 2.8389764546 -1.9889313625
H 0.8262173124 4.1807231197 -0.9841721862
H 2.2827095209 1.8971989790 0.1995090621
H 1.3805310271 2.8907889944 2.1730838218
H -1.3436295737 2.2888387252 1.6526826953
H -0.1523639665 1.0879401310 2.2207884469