19

O -0.8860698024 0.9601493328 0.6500836068
C 0.2588499426 0.6320568540 0.4773135059
C 1.3347129426 1.5602217053 -0.0697393217
C 1.2356981450 2.9644706725 0.5479539348
O 2.0444740620 3.8825248494 -0.1579050647
C 3.3705263012 4.0423263962 0.3192453637
C 4.1520570021 2.7308723100 0.5408959722
C 3.7168863591 1.5665024927 -0.3560867715
O 2.5628887888 0.9020719240 0.1440914923
H 0.6298968074 -0.3909552097 0.7038756135
H 1.1472159210 1.6812933731 -1.1528015292
H 0.1974412738 3.2959377313 0.4550831756
H 1.4900145128 2.9296278262 1.6168890679
H 3.8618930507 4.6468242662 -0.4495902325
H 3.3723654697 4.6315827162 1.2496833397
H 5.2172391614 2.9361173929 0.3799001655
H 4.0557306515 2.3886989082 1.5768947301
H 3.5484842263 1.9021337833 -1.3903209287
H 4.4992390743 0.8020719355 -0.3701958597