20

C -0.2849740170 1.5419752979 0.1029497127
C -0.0248674616 0.0542980839 0.0638351387
C -0.8010813870 -0.8545206357 1.0057872486
C 0.6877341353 -0.6093035012 1.2045033397
C 1.7073986595 -1.6812671850 0.8698659603
C 1.3743713469 -2.4966771389 -0.3719673895
O 1.7494289273 -3.6360168014 -0.5145102198
C 0.5236571918 -1.8222599466 -1.4489062808
N 0.3770895004 -0.3844475941 -1.2605193152
H 0.5869413830 2.0944500050 -0.2621064638
H -1.1430209229 1.8098821948 -0.5266551418
H -0.5065900081 1.8738780834 1.1206225031
H -1.4895872970 -0.3984091273 1.7091106042
H -1.1167175799 -1.8344888824 0.6636741312
H 0.9631204248 0.0194711839 2.0464523374
H 2.6759047904 -1.2008995811 0.6650008382
H 1.8735765666 -2.3813804674 1.6945712854
H 1.0045101140 -2.0149637896 -2.4133970711
H -0.4322978484 -2.3779257654 -1.4654314747
H -0.2713791381 -0.0185732826 -1.9501150129