18

C -0.0390325630 1.5118993740 -0.1021489680
C 0.0158643079 0.0180788669 0.0747021781
C 1.2883038308 -0.7816244366 -0.1476361683
C 0.6647791954 -0.7593496936 1.2195895895
C 1.3481099616 -0.2691383093 2.4609706725
O 2.3225234075 -1.1751655960 2.9530140519
O -0.2366432862 -1.8417593803 1.4825097766
C -1.2346861777 -1.7007553614 0.5710195835
N -1.2033850145 -0.7137175734 -0.2279167834
H 0.9001163926 1.9809250476 0.2050343192
H -0.2122211252 1.7581689328 -1.1544298068
H -0.8532495545 1.9484790945 0.4843239706
H 1.2355098423 -1.6888985188 -0.7401717546
H 2.2081633418 -0.2151488743 -0.2498137891
H 1.8802684825 0.6598548605 2.2351008939
H 0.5892074697 -0.0432239052 3.2254611660
H 1.8701626806 -2.0039059104 3.1436152340
H -1.9990143115 -2.4672239871 0.6105329845