19

C -0.3423251458 1.6169027145 -0.3046040423
C -0.0517287314 0.1389391114 -0.0746170076
C -1.2803953458 -0.6371488561 0.3834166097
C 0.8001498744 -0.5660622475 -1.2228466614
C 1.8752347020 -0.6904046397 -0.1635983877
N 3.0695123489 -1.0690275168 0.2262720935
C 3.0848158257 -0.6696470687 1.5553732765
C 1.9050457224 -0.0597063540 1.9443737901
N 1.1457245480 -0.0934921278 0.7967102830
H 0.5589984907 2.1496335884 -0.6190207796
H -1.1047527484 1.7345726603 -1.0812421074
H -0.7186822245 2.0865769976 0.6100549201
H -2.0676196811 -0.5782340164 -0.3749461654
H -1.0389468170 -1.6898388611 0.5525060151
H -1.6786995311 -0.2211971915 1.3146410160
H 0.3735521064 -1.5033619214 -1.5895058868
H 1.0329809813 0.0806479580 -2.0728559385
H 3.9546188082 -0.8437278047 2.1717928883
H 1.5808853170 0.3609878556 2.8805230345