15

O -0.1591773512 1.2976981056 -0.0830440931
N -0.0088676943 -0.0965832637 -0.0301374723
C -1.1370262408 -0.6795314350 0.0160699782
C -2.5160471617 -0.0544225162 0.0241082333
C -3.4146238944 -1.2670262816 0.0193513794
C -2.7346762492 -2.4132834289 0.0475060019
C -1.2356424812 -2.2073497562 0.0499220785
O -0.5608239775 -2.8728423454 -1.0089517317
H 0.7547935526 1.6005623354 -0.1161711379
H -2.6529733412 0.5779360836 0.9114482048
H -2.6701195636 0.6106835523 -0.8355354327
H -4.4956766742 -1.1820643255 0.0064357292
H -3.1623109522 -3.4088901228 0.0526156155
H -0.7680407489 -2.6078153356 0.9573231220
H -0.8922631724 -2.5080279960 -1.8373926451