18

C -0.3793863686 1.5339461454 0.1262548880
C 0.1073720991 0.0871676584 -0.0534934968
C 0.8415173044 -0.4280564881 1.1402060792
C 2.1274316848 -0.8376746469 1.2256513164
N 3.1610665049 -0.9383801532 0.3044768730
O 2.3467484701 -1.2236746350 2.5686462998
C 1.1595512332 -1.0049938250 3.1603924599
N 1.0910846023 -1.2292115167 4.5150631526
N 0.2226954511 -0.5443653088 2.3905364369
H 0.4657137515 2.2175740734 0.2562641281
H -0.9526849382 1.8634011766 -0.7458762384
H -1.0170383030 1.6164265348 1.0105618292
H -0.7589508012 -0.5595154354 -0.2436615560
H 0.7655280958 0.0098184963 -0.9243715049
H 3.9667052263 -0.3697468263 0.5449471406
H 3.4761918464 -1.8920235806 0.1569290668
H 1.6911944878 -1.9685957491 4.8505275557
H 0.1402751232 -1.3037448799 4.8461299701