21

C -0.2266118136 1.6724304509 -0.0923262371
C -0.1210085126 0.1707632668 0.0555672496
C 1.1362246143 -0.5526653034 -0.3517280585
C 0.7590695227 -0.4692121291 1.1116634860
C 1.5517199077 0.3241247926 2.1204369483
C 2.9788394098 0.7296683110 1.7620353420
O 3.6671696524 1.2678187590 2.8665645619
C 0.8559813206 1.0648270502 3.1842814778
O 1.4772019897 -0.2005747996 3.4641829909
H 0.7272196791 2.1687643656 0.1127493523
H -0.5255815464 1.9429129489 -1.1107907044
H -0.9700284996 2.0929058212 0.5938896983
H -1.0510852520 -0.3578420206 -0.1369830132
H 1.0614020426 -1.5151941246 -0.8453956750
H 1.9628677367 0.0565902831 -0.7024296567
H 0.3710697116 -1.3820831745 1.5529031296
H 3.4944679836 -0.1541738737 1.3518582761
H 2.9734802126 1.4957817364 0.9785316168
H 3.4661179225 0.6758816069 3.6045384407
H 1.3398899945 1.9229406211 3.6444969382
H -0.2319013062 1.0552090221 3.2112075164