19

C -0.5222128902 1.2698554835 -0.2506960603
C -0.0768838177 -0.1886361732 -0.0574088984
C 0.5941842246 -0.7246447002 -1.3294646645
C 0.8666971054 -0.3931533799 1.1529714095
N 2.0234509587 0.4939873617 1.1043996460
C 0.1389272899 -0.3169690365 2.5009081341
F -0.9271440269 -1.1301663845 2.5523824022
F 0.9657091370 -0.6805663211 3.4999290972
F -0.2884541314 0.9274191213 2.7878296982
H 0.3333857608 1.9154349340 -0.4768065399
H -1.2107186094 1.3386396171 -1.0983752463
H -1.0321620161 1.6685958807 0.6288502350
H -0.9691821687 -0.7935241222 0.1408287700
H 1.5328698484 -0.1964972322 -1.5197229852
H 0.8188675422 -1.7931203959 -1.2429877759
H -0.0596268240 -0.5895750649 -2.1965487538
H 1.2389678531 -1.4238006758 1.1077622108
H 1.7371176948 1.4470972685 1.3065566226
H 2.6895202495 0.2336860998 1.8246503587