21

C 0.0142860918 1.6353549785 0.1859221511
C 0.0244065885 0.1170993751 -0.0662960031
C -1.3507043226 -0.5089027545 -0.0635064854
C -1.9391306718 -0.9258436545 -1.1877240486
C -3.2895208002 -1.5899841087 -1.2588387520
C -3.9521006913 -1.7980359015 0.0985072842
O -4.7341653485 -2.6969099678 0.3003498853
C -3.5618158729 -0.7847203602 1.1584774294
C -2.0317670938 -0.6647843080 1.2796248564
H 1.0333581932 2.0343267487 0.1869922983
H -0.5533214908 2.1543783004 -0.5926808703
H -0.4375670776 1.8855433997 1.1510574177
H 0.5111070652 -0.0832479067 -1.0268877230
H 0.6432556538 -0.3657517103 0.7030178274
H -1.4149944530 -0.8122779034 -2.1349251577
H -3.9793439918 -0.9865111753 -1.8704897038
H -3.2364083920 -2.5632553217 -1.7606730045
H -3.9642882244 0.1890138280 0.8461914717
H -4.0322707268 -1.0607744756 2.1048053035
H -1.6281363591 -1.5532109681 1.7871068664
H -1.7857240061 0.1797806957 1.9329533968