21

C 0.0084752262 -1.1925818940 -0.0023653966
C 0.0104085736 0.0109357804 -0.0227551962
C -0.0088029494 1.4493436318 -0.0283287300
C 0.4855829960 2.1366027125 -1.2909474197
C 1.3463698761 2.1688826016 -0.0576960230
C 1.5524747858 3.4725851066 0.7146532238
C 0.4208198310 3.7951334080 1.7044840073
C -0.9589992564 3.5584490882 1.0830188602
C -1.1606890311 2.0704518463 0.7661404712
H 0.0120917397 -2.2539734043 0.0102396582
H 0.7834402162 1.5043607909 -2.1190465586
H -0.0133495744 3.0558587424 -1.5823536876
H 2.2034242475 1.5044297700 -0.0780909399
H 2.5030321579 3.4212217388 1.2553064676
H 1.6543027708 4.3006927541 0.0013237040
H 0.5184716657 3.1578040867 2.5933152069
H 0.5194123831 4.8303149799 2.0484456555
H -1.7495152693 3.8842138845 1.7675060068
H -1.0700466303 4.1679314121 0.1765273295
H -2.1014652504 1.9101417459 0.2268037032
H -1.2480790882 1.5220323476 1.7118976374