18

C 0.0189523997 1.5621914102 0.1952008075
C 0.0030003029 0.0387918628 0.0212857958
O 0.6909240507 -0.6191953852 1.0794289216
C -1.3937825804 -0.4945761127 -0.1184051460
C -2.0751497041 -1.1379430868 -1.0998994974
C -3.3676898810 -1.3642355444 -0.5368986006
C -4.5496270349 -2.0380637899 -1.1564320286
N -3.4443390592 -0.8939921812 0.6858658079
O -2.1924393134 -0.3344558373 0.9547911615
H 1.0500906821 1.9029160237 0.3171365682
H -0.4206048404 2.0617809914 -0.6737159504
H -0.5563780037 1.8530661370 1.0796712476
H 0.5501774773 -0.2308268521 -0.8874511004
H 0.1706653969 -0.4978876232 1.8821660570
H -1.7167393442 -1.4198799620 -2.0762564386
H -4.3088905476 -3.0686440887 -1.4367818545
H -5.3845276760 -2.0524936400 -0.4535367777
H -4.8650614846 -1.5158762915 -2.0655923429