19

C -0.1785514207 1.4966048281 -0.1205105428
C 0.0403449576 0.0072128861 0.0256280502
O -1.1733964192 -0.6752710641 0.4487011460
C -0.5534979958 -1.1364383462 1.6682019068
C 0.8175515847 -0.5875688053 1.2314899010
O 1.7330989424 -1.5479952619 0.7344399406
C 1.2736137670 -1.9577921547 -0.5515403242
C 0.6870976987 -0.6831186402 -1.1847028988
O -0.2652594782 -0.8951830628 -2.2018329571
H 0.7653151561 2.0133829200 -0.3238772452
H -0.8625600058 1.6852133136 -0.9538286939
H -0.6200804370 1.9166591949 0.7874088807
H -0.9879771211 -0.6554026044 2.5539195240
H -0.6012045335 -2.2252670667 1.7840115275
H 1.3479672826 0.0681050289 1.9232279811
H 2.1276623234 -2.3765501744 -1.0904012930
H 0.4821249727 -2.7179604061 -0.4859441036
H 1.5121095252 -0.0416335403 -1.5325487429
H 0.1970149011 -1.1855828943 -2.9935488365