23

C -0.0209780870 1.5405536237 0.0104687147
C -0.0412133800 -0.0023409158 0.0024051632
C 0.6746667060 -0.5333073546 -1.2707771389
C 0.8147855781 -2.0600671798 -1.2838912682
C 1.5336894874 -2.5693887997 -0.0263553731
C 0.8389504906 -2.0736284524 1.2500408169
C 0.6987694277 -0.5468298208 1.2559467799
C -1.4374340834 -0.4552352733 0.0132930936
C -2.5868273010 -0.8108930642 0.0224085787
H 1.0122318917 1.9035739600 0.0025586756
H -0.5345685028 1.9423326814 -0.8678239641
H -0.5176865064 1.9328590012 0.9026439780
H 0.1357331166 -0.1887027874 -2.1598862112
H 1.6718249516 -0.0734144790 -1.3039985896
H -0.1832903436 -2.5113789705 -1.3425670345
H 1.3550391119 -2.3718523053 -2.1848891942
H 1.5805294895 -3.6641153512 -0.0326598585
H 2.5736946999 -2.2128688117 -0.0343650649
H -0.1578751112 -2.5256350747 1.3229010057
H 1.3962513011 -2.3949909493 2.1371840620
H 1.6964284174 -0.0872199085 1.2750648779
H 0.1769284920 -0.2118160674 2.1588113029
H -3.6009110660 -1.1257444807 0.0305347679