20

C -0.4301040376 1.4638239225 0.0630185733
C 0.0344749571 0.0190311750 0.0306034940
C 1.1040625291 -0.4482883747 -0.9975284186
C 1.9197572198 -0.9222815510 0.2091457326
C 2.6103709608 -2.2579290562 0.3138804148
C 3.9562422500 -2.2473395174 -0.3860293653
O 4.2867033909 -3.0131309492 -1.2533416688
C 2.1749423134 0.2131853289 1.1199691502
N 0.8649363213 -0.4651430783 1.2035654350
H 0.4016262170 2.1746494882 0.0626853635
H -1.0472199018 1.6793657085 -0.8157953062
H -1.0354089602 1.6490488500 0.9563438143
H -0.8408688732 -0.6351437617 -0.0081820167
H 0.7581023751 -1.2587181288 -1.6420311352
H 1.5743032772 0.3179575158 -1.6216650721
H 2.7852413657 -2.4748690101 1.3765868767
H 2.0015966525 -3.0638062696 -0.1070333707
H 4.6457393191 -1.4456527354 -0.0331660006
H 2.7856480218 0.0334922979 1.9999513509
H 2.2460340719 1.2244118056 0.7283233391