16

N 0.0281247650 1.3588950735 0.1845843023
C -0.0105462938 -0.0096208034 0.0474781842
C -1.2197126451 -0.7075506785 0.0025702487
C -1.1238157239 -2.0990489823 -0.0755192070
N -2.2418778543 -2.8952508929 -0.1637416943
N 0.0522773817 -2.7412464353 -0.1087339456
C 1.1377430369 -1.9588607283 -0.0775516401
N 2.3473477310 -2.5977918465 -0.1719126356
N 1.1800280214 -0.6237623919 0.0044566910
H 0.9174938055 1.7723777149 -0.0504439707
H -0.7791139230 1.8769277234 -0.1223027383
H -2.1760743256 -0.2000010101 0.0353810185
H -3.1044514445 -2.5266423325 0.2023865930
H -2.0728882934 -3.8701572209 0.0309953615
H 2.3403110852 -3.5824802051 0.0360043381
H 3.1478328870 -2.0690870142 0.1324855541