23

O -0.1529767993 1.5277539892 0.1606470770
C 0.0056948838 0.1190352641 0.0228596524
C 0.8239689738 -0.4859692463 1.1778501125
C 0.7020997976 -2.0222198952 1.2333922605
C 1.0011131929 -2.6849724303 -0.1376047424
C -0.3641855891 -2.6858421018 -0.8969255665
C -1.3718589673 -2.0231082195 0.0799494279
C -0.7766454668 -2.3915513306 1.4515010394
C -1.3988678068 -0.4886183069 -0.0605745426
H 0.7245080557 1.9229570659 0.1831679565
H 0.5301034265 -0.0959928251 -0.9220363891
H 1.8763631889 -0.1872776592 1.0750823271
H 0.4596848059 -0.0541140859 2.1184386851
H 1.3560793771 -2.4101519767 2.0201197807
H 1.7869707891 -2.1573114842 -0.6869491351
H 1.3554948831 -3.7093606182 0.0113342022
H -0.3128417719 -2.1576220401 -1.8538527909
H -0.6756068330 -3.7109080370 -1.1192972398
H -2.3837631243 -2.4149046181 -0.0590475402
H -0.8833230617 -3.4654417326 1.6455947495
H -1.2394998256 -1.8511510708 2.2836890724
H -2.0073063423 -0.0552182816 0.7427932627
H -1.8629198365 -0.1883384890 -1.0067066995