19

C -0.2204686568 1.5252649338 0.0546189105
C 0.0909892728 0.0517472871 -0.0208000510
C -0.6446247890 -0.9315010062 0.8674668480
C 0.8456637305 -0.6951133560 1.0704956124
O 1.7303000762 -1.6318781594 0.4987321656
C 1.3682250869 -1.8098090069 -0.8712004201
C 0.6549509074 -0.5177935763 -1.3163410850
C 1.3407257729 -0.0779509060 2.2624282436
C 1.7349521823 0.4565341388 3.2649764985
H 0.6245287033 2.1239108444 -0.3032088204
H -1.0935637083 1.7750146759 -0.5590499454
H -0.4331163281 1.8301217187 1.0831162830
H -1.3085613419 -0.5145740724 1.6164616251
H -0.9547496898 -1.8947944934 0.4760962067
H 2.2827325074 -2.0188129340 -1.4324459586
H 0.7042859597 -2.6791816263 -0.9745430029
H -0.1093376733 -0.7169576403 -2.0744380889
H 1.3667212315 0.1997619684 -1.7393163684
H 2.0902895161 0.9215666102 4.1508307273