20

C -0.2538336113 1.4942239568 -0.0012458625
C 0.1374522090 0.0107437564 -0.0368873619
C 0.8112190236 -0.4354533843 1.2308932800
C 2.2517211305 -0.1045807515 1.6325139224
C 2.3550019495 -1.5791640367 2.0966371843
N 0.9523979924 -1.8881099017 1.6363476334
C 0.0472709490 -0.9675157334 2.3971273595
C 0.2821394927 -0.5815126438 3.7584426841
C 0.4635469415 -0.2596825690 4.9038714154
H 0.6235569755 2.1321752756 0.1487728226
H -0.7285708942 1.7961799126 -0.9392488518
H -0.9549492290 1.6977232000 0.8145179807
H -0.7488562804 -0.6118917434 -0.2049542134
H 0.8121219420 -0.1763436782 -0.8823640170
H 2.8860518527 0.1186507346 0.7719446689
H 2.3811023418 0.6754957940 2.3865126147
H 3.0583620567 -2.1791403792 1.5169592293
H 2.5174151679 -1.7558097492 3.1625630037
H -0.9900826310 -1.2117384000 2.1799776050
H 0.6172994910 0.0240048006 5.9156232026