19

C -0.0580422159 1.5065910800 -0.1011930318
C 0.0642613778 0.0026489465 -0.0047070048
C 1.3712032700 -0.7043404676 -0.1795765554
C 0.7178283664 -0.6886736107 1.2061459432
C 1.3617127514 0.1219871644 2.3232989956
C 0.0954329496 -1.9050957910 1.6314109242
C -0.4267770358 -2.9238916578 2.0274618490
C -1.0549151833 -4.1430623657 2.4470751759
O -1.1355473718 -4.5235839718 3.5948159518
H 0.8454866732 2.0189973615 0.2379017921
H -0.2279651864 1.8006374539 -1.1426650129
H -0.9005973631 1.8784985507 0.4910284308
H -0.8004923161 -0.5332600508 -0.3844996319
H 1.3980685548 -1.6437834209 -0.7184544678
H 2.2668164733 -0.0988917927 -0.2784070706
H 1.8586806334 1.0132662711 1.9346890101
H 0.6159198384 0.4381994268 3.0588428843
H 2.1118241905 -0.4804756490 2.8438422808
H -1.4801327263 -4.7398442669 1.6130746774