17

O -1.0023351102 1.4331666435 -0.0824404179
C 0.0921693092 1.0010611127 0.1976844699
C 1.3517326414 1.7532176830 -0.0121279062
C 1.2891943260 3.2905833703 0.0303140650
C 1.5801073915 2.6372068089 -1.2592270049
C 3.0427704653 2.4913675916 -1.6784010879
C 3.7675873129 1.8634286116 -0.4687044287
C 2.6729266707 1.1391410051 0.3282979012
O 2.8337401463 0.1891640304 1.0551993197
H 0.2302094379 -0.0087242609 0.6327392272
H 0.2822887162 3.6626066805 0.1845481947
H 2.0723664318 3.8105928632 0.5718495391
H 0.8037788347 2.6359542863 -2.0158058875
H 3.1043093528 1.8208662788 -2.5411083550
H 3.4743605302 3.4504549063 -1.9808315751
H 4.5594831732 1.1631140743 -0.7394829126
H 4.2238890700 2.6218754544 0.1786731590