16

C -0.0648155114 1.5588455308 0.0140888158
C 0.1584863400 0.0649633511 -0.0670794483
N 1.4366438737 -0.4613797645 -0.7607866547
C 2.1967049891 -0.1341609235 0.5636072526
C 0.8467476970 -0.7852638284 1.0153753280
O -0.0171014811 -1.6587314195 1.8540753505
C -0.1575252952 -2.4962709524 0.7229904681
O -0.9012819808 -3.4061507884 0.5997671750
C 1.0900680064 -1.8344914900 0.0149241265
H -0.1638575894 1.9733107148 -0.9942715395
H -0.9999240295 1.7530830273 0.5487716735
H 0.7292503444 2.1037694726 0.5281251644
H -0.7195941588 -0.4201763054 -0.5072591153
H 3.1062531418 -0.7175621600 0.7025408944
H 2.3643276371 0.9313679708 0.7089260914
H 1.9684556967 -2.4759117453 0.0858916276