12

F -0.3928020119 0.2419483257 -0.2572069298
C -0.0089409526 1.4856259525 0.0476348243
F 1.3194503458 1.5563407707 -0.0850964853
F -0.5519710373 2.3121631823 -0.8619999747
C -0.4569240433 1.8869510838 1.4405735185
C 0.1033606356 1.0120677961 2.5458556710
O 0.8409464523 0.0716286951 2.3913470415
C -0.3276323714 1.3863438873 3.9713401183
O -1.0598829457 2.3080019971 4.2148143617
H -0.1695175017 2.9271394047 1.6250014823
H -1.5505974943 1.8675207104 1.4862222377
H 0.1076042045 0.7183590743 4.7425158345