16

C -0.0364181261 1.5236692804 0.0043867691
C -0.0067555742 0.0222346169 -0.0136767770
C -0.0215883577 -0.6906055980 -1.1579858194
C 0.0077208400 -2.1421717817 -1.1505601875
O -0.0020075642 -2.8667560536 -2.1094551633
O 0.0517297304 -2.7305923471 0.1098787797
N 0.0675846275 -2.0178275347 1.2938618082
C 0.0401198427 -0.7262538592 1.2355366449
C 0.0601124601 -0.0303793766 2.5692186777
H 0.8484229408 1.9308991027 0.5060771481
H -0.0707122588 1.9249547781 -1.0104024308
H -0.9097211902 1.8956618315 0.5515816089
H -0.0558757492 -0.2239808340 -2.1359239359
H 0.0954696338 -0.7738906583 3.3660204306
H 0.9318300649 0.6267954585 2.6591074473
H -0.8316966999 0.5911716451 2.7041350293