15

C -0.0093185699 1.5161843080 -0.0192236337
C 1.4264181730 2.0560145179 0.0510388886
O 2.1142829144 1.6750056243 1.2583135154
C 1.9156621727 0.3738171239 1.5290163302
C 0.9780854190 -0.4484232889 0.9878040387
C -0.0481752099 -0.0321535145 -0.0020325393
O 1.1301769221 -1.6543629599 1.5371831186
N 2.2188774912 -1.5362802505 2.4668497779
N 2.6463549291 -0.3466969468 2.4282284084
H -0.5738500207 1.9056630932 0.8345264129
H -0.4830477461 1.9013712506 -0.9268220188
H 2.0105419496 1.6961702310 -0.8075862175
H 1.4362779734 3.1470627107 0.0468754632
H -1.0432007713 -0.3946784347 0.2758859118
H 0.1722438733 -0.4456441442 -0.9942217564