21

C -0.0404770728 1.5694050116 0.0027254634
C 0.0558358457 0.0419516490 -0.0012997134
C 0.6911035665 -0.5096881259 -1.2885951959
C 0.7976806040 -2.0345251616 -1.2292490214
O 1.4978943116 -2.4690342567 -0.0732047472
C 0.8606649875 -2.0660743731 1.1245504850
C 0.7901565266 -0.5336508203 1.2463377600
C 2.1848712145 0.0444817740 1.4157931123
O 2.4303617355 1.0395293880 2.0520927960
H 0.9454088810 2.0385725764 -0.0663247250
H -0.6384622191 1.9143306171 -0.8473142772
H -0.5113613830 1.9348250795 0.9206081025
H -0.9665218763 -0.3613112843 0.0545710495
H 0.0914250905 -0.2174142984 -2.1588029564
H 1.6906848453 -0.0806047978 -1.4322820946
H -0.2125107663 -2.4799496886 -1.2417948123
H 1.3501998903 -2.4314422269 -2.0854165699
H -0.1596252293 -2.4822343308 1.1787228610
H 1.4438241903 -2.5043266083 1.9408263242
H 0.2224454984 -0.2532820037 2.1412829541
H 2.9945223592 -0.5213699394 0.9052496252