19

C -0.0801100060 1.5159878142 0.0529492480
C 0.0286615671 0.0070950032 0.0369153413
C -1.1059697206 -0.7062979595 -0.6808361731
C -1.0823865420 -2.2305676670 -0.6414067362
O -1.6286375411 -2.9092739014 -1.4898575481
N -0.4011850408 -2.7925848915 0.4049851413
C 0.1722204901 -2.0915658672 1.5412108598
C 0.6794653464 -0.7168165335 1.1564034162
N 1.4080674562 -0.5100383231 -0.1039963228
H 0.7850309266 1.9558725830 0.5545976927
H -0.1154587087 1.9124988849 -0.9679902935
H -0.9895825587 1.8398365817 0.5713707740
H -2.0627775917 -0.3868961234 -0.2449679709
H -1.1471039878 -0.4220445440 -1.7374108540
H -0.4368820264 -3.8012551209 0.4256653942
H -0.5563468553 -1.9809297660 2.3597810448
H 0.9969669129 -2.6986399975 1.9337131117
H 1.0711432689 -0.1503608436 1.9990559967
H 1.4133041110 -1.3740613283 -0.6434058419