16

C -0.0262546510 1.5526845910 -0.0347648163
C -0.0153128686 0.0562898810 0.0095641764
C 0.4915209375 -1.0205380434 -0.8784197246
O 1.1830337466 -1.7297013321 0.1156704265
C 0.4903021054 -0.8953444522 1.1474455941
C -0.6989003024 -1.7066684806 1.5780547406
C -1.5527491569 -1.7523198420 0.5424197716
C -1.0552078757 -0.8928056643 -0.5537175685
H 0.9656624405 1.9687119858 0.1736049881
H -0.3349697250 1.9057681860 -1.0241028039
H -0.7287121383 1.9660404583 0.6981684991
H 0.8684937986 -1.0633594706 -1.8937293921
H 1.2041278467 -0.5428580878 1.8909101930
H -0.7367435280 -2.3000046622 2.4818462714
H -2.4289136988 -2.3843352995 0.4614061439
H -1.6828810105 -0.5658598574 -1.3748723193