17

C -0.0619708828 1.5326668502 0.0492122094
C 0.0528197838 0.0294855514 0.0111088639
C -0.8173345985 -0.8510665427 0.8748465885
C 0.6725407162 -0.8011112224 1.1144926065
C 1.4845458051 -1.8765033400 0.4182069801
O 0.9717081495 -1.9380908830 -0.9107696529
C 0.5305154215 -0.6344282786 -1.2736036868
H 0.8799651550 2.0127616441 -0.2414618128
H -0.8409402166 1.8917095277 -0.6339059232
H -0.3200130498 1.8839586050 1.0529928972
H -1.4539279145 -0.3554589886 1.6000803528
H -1.2363066403 -1.7555241979 0.4438224867
H 1.0632331430 -0.3460258327 2.0175264752
H 2.5543327298 -1.6087069843 0.4221823600
H 1.3796075536 -2.8776859574 0.8501062625
H -0.2486700787 -0.7554844362 -2.0345637214
H 1.3516190838 -0.0415427446 -1.7129921456