18

O -0.0322107667 0.2051218010 -0.7429172657
C -0.0264317721 1.2813700507 -0.2144258651
C -1.1050519713 2.1384241272 0.4986382158
C -0.0294015430 3.2375212610 0.6405000442
C -0.2160117438 4.6978774164 0.5195619309
N 0.2315369225 4.0892198130 1.7932953333
C 1.0184872302 2.3338506812 0.0102704977
C 2.4299564900 2.0768441917 0.5004234991
C 2.2112509935 2.6524382061 -0.8597194429
H -1.9802448889 2.3791779398 -0.1111557351
H -1.4395694393 1.6969118802 1.4436407427
H 0.5316862353 5.3095641575 0.0211844594
H -1.2315387221 5.0804141331 0.4487959552
H -0.5402003462 4.0466907458 2.4547227248
H 2.7682870206 2.7349767906 1.2933528853
H 2.7368116632 1.0398512076 0.5830182137
H 2.3596319270 2.0131139192 -1.7237047176
H 2.4333708813 3.7025674778 -1.0193439557