16

C -0.1750623885 1.5559949767 0.0319873749
C 0.1058842881 0.0826078724 -0.0203390113
O -0.6843754295 -0.7592769198 0.8690998557
C 0.7236059931 -0.7221488652 1.0491738645
C 1.4459066996 -1.9177358596 0.4010600844
C 1.1394693546 -1.7281556670 -1.0838362865
C 0.4234861807 -0.6263911127 -1.3026857729
C 2.8820727692 -1.9215709579 0.6837116502
N 4.0148764427 -1.9098992623 0.9123848119
H 0.6547474574 2.1225762840 -0.4025303610
H -1.0813465999 1.7962624666 -0.5340860985
H -0.3220092850 1.8818698649 1.0640768312
H 1.0871192280 -0.3176611949 1.9896072701
H 1.0210161189 -2.8589231448 0.7730281220
H 1.4578218216 -2.4513998025 -1.8237920518
H 0.0743437090 -0.2825051279 -2.2686827629