16

O -0.2401557298 0.1247160277 -0.3420655061
C -0.0067188431 1.2431951861 0.0478607387
C 1.3355290551 1.8366815822 0.0952946746
C 1.8985306019 2.7232756444 1.1491840883
C 3.3080742221 2.2345359372 1.4634871043
O 3.6079888074 1.2479817701 0.4710915335
C 2.6692665626 1.4407365713 -0.5719324009
C 2.7103645244 2.8949965552 -1.1013607608
N 1.6036511065 3.3218951298 -0.1653875209
H -0.8104567853 1.9286881639 0.3982647201
H 1.2719283149 3.1071950597 1.9468367280
H 4.0387796082 3.0538544240 1.4313647478
H 3.3555783517 1.7711425397 2.4546348731
H 2.7156388737 0.6031091237 -1.2636252801
H 3.6534112978 3.4370173027 -0.9833088895
H 2.3463703621 2.9990093423 -2.1252475500