23

C 0.0552569389 1.6076654025 0.0394637621
C 0.0515411306 0.0814343582 0.0630175160
C 0.6756532135 -0.5886003789 -1.1946881733
C 1.5029408112 -1.8038348114 -0.6974484694
C 1.3683257998 -3.0528610376 -1.5621568006
O 2.8828936725 -1.3543567562 -0.7177219977
C 1.0531550001 -1.9841186096 0.7687586318
C 0.8258099721 -0.5435670411 1.2542908269
O 2.0464611380 0.1197277931 1.5414318805
H 1.0803529444 1.9873174660 0.0265029310
H -0.4690245562 1.9903144009 -0.8425504829
H -0.4374650446 2.0182859525 0.9271743124
H -0.9863563276 -0.2660676356 0.1533252970
H -0.0945422335 -0.9022006484 -1.9044748329
H 1.3464374015 0.0913626707 -1.7273778179
H 1.7135647366 -2.8510800956 -2.5806110909
H 1.9653220183 -3.8792229752 -1.1569476067
H 0.3274052029 -3.3875305331 -1.6077762637
H 3.4287398211 -2.0726963831 -0.3770392009
H 0.1112621794 -2.5445548917 0.8031609216
H 1.7894554083 -2.5252939380 1.3724703161
H 0.2390552369 -0.4986344685 2.1773539461
H 2.6493807958 -0.0920160200 0.8132335452