14

N 0.1733170252 1.4334091351 0.0080340087
C -0.0229818409 0.0383585491 0.0106055311
C -1.0879682011 -0.8316789800 -0.0150657827
O -2.4573959988 -0.8444354754 -0.0546769852
C -2.7406834535 -2.1971820890 -0.0547326254
N -1.7456771773 -3.0141192241 -0.0211158144
C -0.6346121461 -2.1652941559 0.0060251660
C 0.7459736619 -2.1410752140 0.0458528682
N 1.0809331832 -0.8068569603 0.0477125647
H -0.2079310371 1.8714070637 -0.8242458105
H -0.2568031388 1.8812447632 0.8107202068
H -3.7919525906 -2.4417587894 -0.0837258041
H 1.4957531783 -2.9128375868 0.0721165724
H 2.0170687658 -0.4384280763 0.0727834044