18

C 0.1260495484 1.5354146355 -0.0407056119
C 0.0050376465 0.0418964991 0.0323112249
C -0.8975049592 -0.7095040632 0.9719763638
C 0.5897994004 -0.9515104917 1.0377647287
C 1.0887198899 -1.8411842954 -0.1362691062
C 0.5072177164 -0.8852902950 -1.1249650636
N -0.0348232718 -2.2340147758 -0.9709251726
C 0.0247909114 -3.2194617374 -1.9376133276
O 0.5623884255 -4.2929852984 -1.8060999867
H 1.1137139011 1.8425033272 -0.4046061038
H -0.6249472784 1.9645838155 -0.7153797292
H -0.0188142429 1.9858889578 0.9461107122
H -1.2895736408 -0.1106554611 1.7885312737
H -1.5627156230 -1.4848335203 0.6103696046
H 1.1840622594 -0.7510199106 1.9196465778
H 2.0115800464 -2.4037910507 -0.1783721103
H 0.9060953061 -0.5540183825 -2.0767942523
H -0.5489691953 -2.9322713331 -2.8402477813