18

C -0.2014352088 1.4573472588 0.0634876559
C -0.0717751841 -0.0517700416 -0.0566019545
C 0.8369952672 -0.4983715637 -1.2016901528
C 1.0461454444 -2.0079701575 -1.2015033937
O 1.4840135166 -2.6132139179 -2.1465609172
C 0.6335131168 -2.6918930531 0.0984076356
C 0.8309614544 -1.8247162903 1.3179248735
N 1.3202392768 -2.2930152873 2.3859000589
O 0.4603973739 -0.5161567440 1.2021062651
H 0.7818556491 1.9152441565 0.2062661845
H -0.6521313000 1.8724863652 -0.8425723994
H -0.8314167021 1.7185534370 0.9174071397
H -1.0715197715 -0.4908138938 -0.1900539981
H 0.4425859883 -0.1913620143 -2.1745741079
H 1.8217725616 -0.0252170375 -1.0878475371
H -0.4395566811 -2.9178887525 -0.0021391316
H 1.1569975616 -3.6380948915 0.2242879293
H 1.3669998870 -1.5638759826 3.1010122698