23

C -0.0571144731 1.5342630025 -0.1969506961
C 0.0217364771 0.0354575814 0.0032684725
C 1.3268921264 -0.7165670291 -0.1359178622
C 0.6577249970 -0.6101931793 1.2128132216
C 1.3008657185 0.1514065010 2.3582647526
C 2.1336420418 -0.7471301287 3.2914150207
C 3.2025357521 0.2186135547 3.8167443618
C 3.4515945467 1.0902780808 2.5827764459
O 2.2045192430 1.1661145828 1.8931551228
H 0.8288857311 2.0354818713 0.1960491125
H -0.1481150738 1.7761463566 -1.2621065041
H -0.9342577770 1.9533307557 0.3103068953
H -0.8505589729 -0.4980076269 -0.3690749188
H 1.3367663596 -1.6726696982 -0.6480609795
H 2.2189712389 -0.1154677018 -0.2729864100
H 0.1538062576 -1.5057795082 1.5710691592
H 0.5125455384 0.6521788324 2.9435999622
H 1.5279471778 -1.2020314975 4.0789048018
H 2.5963589554 -1.5528238661 2.7101771665
H 2.8039321936 0.8243174083 4.6377073541
H 4.1071600321 -0.2809326719 4.1721590252
H 3.7766088772 2.1075136451 2.8258140548
H 4.2126243025 0.6377269250 1.9289597110