19

O 0.1148025607 1.4084677145 -0.1872971371
C 0.1151444703 0.0136262454 0.0015621005
C -1.3310558623 -0.5103324505 0.0941816578
O -2.0695962008 -0.0209954709 -1.0381843323
C -1.3806808411 -1.9616969217 0.2136736918
C -1.3829378121 -3.1674446143 0.2693712111
C -1.4002522129 -4.5976716112 0.3492388574
C -2.0165081949 -5.2858329287 1.5593458451
C -2.7178396688 -5.3525691443 0.2376484577
H -0.5637606215 1.5732518598 -0.8557782961
H 0.6289489415 -0.5163710867 -0.8186092966
H 0.6536856351 -0.2025728372 0.9293269216
H -1.8080579735 -0.0355116256 0.9597491368
H -1.9019929296 -0.6280984381 -1.7683028583
H -0.5357622306 -5.0927217163 -0.0833911357
H -1.5152496275 -6.1733090695 1.9283265480
H -2.4342495688 -4.6464646808 2.3274683767
H -3.6138220110 -4.7584464944 0.1046665746
H -2.7048920223 -6.2867698897 -0.3121469630