21

C 0.2571172833 1.4557335418 0.2319374889
C -0.1111884358 0.0134721131 -0.1397663520
C 0.6026017088 -0.4968436377 -1.3736383980
C 0.2958594759 0.0596599313 -2.7285105750
C 0.6751410540 -0.8038996950 -3.6756713386
C 1.3990892093 -1.9585407652 -3.0214122386
C 2.7594081828 -1.3818816677 -2.4514195952
C 2.0322969525 -1.0741504534 -1.1497042089
C 0.8778662122 -1.9677325496 -1.5454797199
H 1.3290588108 1.5491016217 0.4342022100
H 0.0131928702 2.1511258791 -0.5780399775
H -0.2854312259 1.7835826699 1.1241565680
H 0.1176271491 -0.6491081294 0.7046166744
H -1.1953701319 -0.0584312181 -0.2975987856
H -0.1391547505 1.0393384097 -2.8864218858
H 0.6416703262 -0.6432361827 -4.7465444062
H 1.4619762138 -2.8903255757 -3.5812527398
H 3.4823186599 -2.1874192334 -2.2968177882
H 3.2280123054 -0.5655703738 -3.0114884022
H 2.4975845064 -0.9519766922 -0.1777863427
H 0.3776467636 -2.7670789227 -1.0101637372