18

N 0.0667560703 1.3039872905 0.1163380202
C -0.0048321564 -0.0425115861 0.0250250681
C -1.0537279042 -0.9255853037 0.0097975332
C -2.4614627012 -0.6886728518 0.0304382623
O -3.3344008086 -1.5425114839 0.0111869820
C -0.3247914780 -2.2773327757 -0.0450291936
C 0.8029541327 -2.0432387508 1.0127274966
C 1.2263550414 -0.9421381247 -0.0243261304
C 0.7719953932 -1.9731895930 -1.1173203497
H 0.9351542891 1.7666525616 -0.0914539674
H -0.7670881915 1.8596793731 0.0189874120
H -2.7439889026 0.3944702315 0.0649992302
H -0.9418545724 -3.1719259074 -0.0660208433
H 0.5041740700 -1.7116192460 2.0095397472
H 1.5327058430 -2.8562976712 1.0726365437
H 2.2087902371 -0.4662819174 -0.0216480694
H 1.4987639121 -2.7801008660 -1.2505725634
H 0.4441601059 -1.5792942988 -2.0820779381