17

O -0.0612578059 1.3127293479 0.0796372076
C 0.0156295357 -0.0712989879 0.0116592284
C 1.0821425582 -0.8554745524 0.7861665857
C 1.4080786226 -2.1316110043 0.0446402401
C 0.4957274223 -2.1655313949 1.2604701318
C -0.7591394977 -2.2734996777 0.3495769616
C -1.2672481366 -0.8590903441 -0.0204279796
C -0.3532843260 -0.8318086936 -1.2495607480
C 0.1825333067 -2.2417858615 -0.9086214288
H 0.6386388746 1.6786145594 -0.4720495845
H 1.8303037738 -0.3378857562 1.3720480053
H 2.4065647661 -2.5282264534 -0.0939173632
H 0.6534434337 -2.5899358222 2.2443135950
H -1.4688245298 -3.0840875045 0.4950042318
H -2.2424664627 -0.4126196094 0.1303275130
H -0.5031734538 -0.3633344262 -2.2154276770
H 0.1468312988 -3.0331532890 -1.6533706593