22

C 0.1456385293 1.5913123898 0.1631398010
C 0.0732998790 0.0763323233 0.0515089908
C 1.0645898637 -0.6463489109 -0.9048102928
C 1.2652294867 -1.7554311764 0.1746281125
C 0.4029918656 -2.9922739988 -0.0834907278
C 2.7353093289 -2.1470623764 0.4207394879
C 2.9137198472 -2.9869241888 1.6051687700
N 3.0313602940 -3.6459164368 2.5475316486
C 0.6333207256 -0.7842511982 1.2194878995
H 1.1662276894 1.9209689753 0.3896168024
H -0.1608459650 2.0746960625 -0.7712785659
H -0.5081930256 1.9626944586 0.9600271180
H -0.9541340890 -0.2243045583 -0.1777780588
H 0.6909097326 -0.9692766402 -1.8805169708
H 1.9738633341 -0.0549903554 -1.0603853846
H 0.7554090603 -3.5404653003 -0.9650429155
H 0.4258888165 -3.6749435986 0.7721152546
H -0.6399753991 -2.7134036804 -0.2616351788
H 3.1346934256 -2.6839242620 -0.4489878663
H 3.3474234383 -1.2468714050 0.5458593153
H 1.3970605727 -0.2421329920 1.7872984380
H -0.0798968706 -1.2149928511 1.9265521327