12

N 0.0209670475 1.3486843484 0.0078397069
C -0.0549234919 0.0045403556 0.0009685321
N -1.1847561899 -0.6213109244 0.0046005613
C -1.1816237121 -1.9948581571 -0.0025770403
N -2.2344527706 -2.6915313686 -0.0006174923
O 0.0696314406 -2.6848423431 -0.0142600112
N 1.2695799980 -2.0133181515 -0.0181253958
C 1.1969324517 -0.7476512277 -0.0108036518
F 2.3330717550 -0.0569005107 -0.0140432713
H 0.9099638002 1.8151754015 0.0047721715
H -0.8320493790 1.8832631977 0.0159040296
H -2.0063493895 -3.6848714702 -0.0075872888