17

O -0.1034669204 1.4491586935 -0.0392735784
C 0.0421887675 0.0332925707 0.0639974984
C -1.3678225605 -0.5369795276 -0.0199279760
O -2.1600150694 0.0425344522 0.9950878163
C -2.0919892336 -0.5787135564 -1.4018727242
N -2.3664779031 -2.0586389355 -1.2752154093
C -1.0424765266 -2.6968484027 -1.2255189985
C -1.5466309304 -2.0512077606 0.0041560814
H 0.7275369002 1.8659498194 0.2040884464
H 0.6789222189 -0.3584172734 -0.7402795344
H 0.4847122306 -0.2524051033 1.0295937231
H -1.9347952307 0.9824084457 0.9925469623
H -3.0276184352 -0.0193014204 -1.3772918265
H -1.5164715270 -0.3127099373 -2.2949976816
H -1.0904968922 -3.7808738761 -1.2699829024
H -0.2195522390 -2.2611401602 -1.7885949091
H -1.8543568590 -2.5997825782 0.8882145525