17

O -0.1111933178 1.4795487124 -0.0748337959
C -0.0119338903 0.0749937897 -0.0993152303
C -1.3275723581 -0.6769297742 -0.1218886933
C -1.7569540655 -0.8177446044 -1.5768554859
C -0.7153895811 -0.1048537293 -2.4381418418
C 0.3356494676 -0.6454785099 -1.4373487382
C -0.7075633101 -1.7642722554 -1.0038737018
C -0.6358045480 -3.1633168157 -0.8592026412
C -0.5549517574 -4.3601913032 -0.7458508605
H 0.7740803568 1.8466824968 0.0152471529
H 0.6244164737 -0.3013295824 0.7126799531
H -2.0202767890 -0.8298976816 0.6947882470
H -2.7781847701 -1.0726907149 -1.8277660127
H -0.6196962053 -0.5785195334 -3.4179699542
H -0.7833768919 0.9819721289 -2.5378547772
H 1.3683394847 -0.8218229205 -1.7298504537
H -0.4885722682 -5.4145639629 -0.6442646462