19

C 0.7291526158 1.4992713105 -0.0070140118
C 0.0012281915 0.1616657282 -0.0046972798
C 0.2844657201 -0.7891250899 -1.2035515532
C 1.0355910420 -1.7038488486 -0.1881754277
C 2.5687552086 -1.7069207565 -0.3410246428
O 3.2083579382 -2.1714655404 0.8280256889
N 0.5205865024 -0.8797665229 0.9239312787
C 0.5829953290 -3.1042145051 -0.1133082107
N 0.2791431494 -4.2187625089 -0.0614772348
H 1.7960263551 1.3859557714 -0.2265543459
H 0.2974052815 2.1695907546 -0.7583014653
H 0.6348800565 1.9901870196 0.9679065843
H -1.0666063338 0.3397382378 0.1660204043
H -0.6010973755 -1.2455391718 -1.6447351343
H 0.9168029149 -0.3857338756 -1.9977914114
H 2.8493316658 -2.2875767494 -1.2330368625
H 2.9087788235 -0.6774995326 -0.4858527027
H 2.9937356095 -3.1055645218 0.9380676251
H 1.2377099355 -0.5986010385 1.5856629213