17

O 0.1577411223 1.3956549907 0.1270698801
C 0.1000908674 0.0120355076 0.0402928533
C 1.0782617194 -0.6419391223 1.0019487000
C 1.3521315284 -2.0733651063 0.5319768969
O 0.1635074439 -2.7231104211 0.0845813235
C -0.6394664264 -1.8951483066 -0.6982881066
C -1.3106669048 -0.6433589385 -0.0696381778
O -1.4329726078 -0.0844915914 -1.4381251460
C -0.0568610790 -0.6270618075 -1.3904477882
H -0.5172304700 1.7199185583 -0.4867964237
H 2.0109796538 -0.0694220327 1.0222018588
H 0.6602992970 -0.6235582242 2.0146430289
H 2.0800833296 -2.0521236146 -0.2935689214
H 1.7658198301 -2.6966291344 1.3280541578
H -1.3020781278 -2.4956975548 -1.3206068655
H -2.1736368804 -0.5591294889 0.5918913723
H 0.5498202543 -0.5160290434 -2.2899425224