27

C -0.1030180371 1.5273446423 0.1550637551
C -0.0881239475 0.0002505053 -0.0033395840
C -1.5170141434 -0.5355314384 -0.1747038311
C 0.7903167946 -0.4620794923 -1.1820784006
C 2.2867563645 -0.0908277287 -1.1402198520
C 2.9918127889 -0.6843855901 0.0894242456
C 2.9555720216 -0.5304669068 -2.4558991569
C 4.3798674536 -0.0252239080 -2.6558751528
O 4.7867242175 -0.4011092563 -3.9653136501
H 0.8900483099 1.9306541608 0.3746855271
H -0.4631560298 2.0108410962 -0.7614636187
H -0.7682525468 1.8291159756 0.9709869332
H 0.3142977593 -0.4323404947 0.9224079727
H -1.9801616137 -0.1323518208 -1.0835061706
H -1.5274735850 -1.6277939925 -0.2543865025
H -2.1511264452 -0.2542835383 0.6727334245
H 0.7094814034 -1.5552106716 -1.2688713286
H 0.3584209140 -0.0554981671 -2.1077418787
H 2.3671084899 1.0039939073 -1.0821207956
H 4.0487790587 -0.4051590958 0.1259112112
H 2.5354208760 -0.3402487876 1.0218736785
H 2.9377774510 -1.7799443659 0.0769058772
H 2.9581272801 -1.6261377501 -2.5268776294
H 2.3625645475 -0.1683388002 -3.3045266500
H 4.4039999256 1.0708219307 -2.5322239652
H 5.0564344804 -0.4525860557 -1.9004147511
H 5.7008959520 -0.1282147274 -4.0847977171