15

O -0.0976397242 -0.0398066043 -0.1747965352
C -0.0350318492 1.1650723196 -0.0527437218
C 1.1997701209 1.9290344343 0.0087929559
C 1.4067251080 3.3013463974 0.1462054845
C 1.1295731501 4.7923315205 0.3042538308
C 2.7052090116 4.9512865477 0.3017820378
N 2.7252918961 3.4880344337 0.1490296354
N 3.4808496826 2.3774808574 0.0266649952
C 2.5444237983 1.4305358456 -0.0586735783
H -0.9607958890 1.7796100945 0.0223635027
H 0.6238045961 5.2714127997 -0.5361791916
H 0.6453249210 5.0872129538 1.2371028181
H 3.1279764992 5.4906138558 -0.5486439863
H 3.1490404527 5.3044728157 1.2351156909
H 2.8312747459 0.3952506486 -0.1677163780