23

C 1.8163182983 -0.0124438850 1.1336570500
C 0.8080728854 0.4285635693 0.0679069913
C 0.9702589294 -0.3300144720 -1.2570658868
C 0.7255969235 -1.8340643492 -1.1891531580
C -0.7055777758 -2.3326199622 -1.0443965734
C -0.0710616036 -2.1806644495 -2.4043955292
O -0.3563665729 -1.0323366130 -3.1533343655
C 0.0522895644 0.1469065813 -2.4351943938
C -1.1801161486 0.9756211793 -2.0698834195
H 1.6878962595 -1.0688837366 1.3900076818
H 2.8466952817 0.1221889728 0.7849257029
H 1.6980054422 0.5693239833 2.0529566130
H -0.2089888497 0.2910958810 0.4517632742
H 0.9264497521 1.5040463612 -0.1141428563
H 2.0111652671 -0.1990660656 -1.5816452551
H 1.5307431436 -2.4697482048 -0.8398571252
H -0.8358843934 -3.3396952762 -0.6612871552
H -1.4899612920 -1.6415944449 -0.7574888769
H 0.1189895360 -3.0447495731 -3.0312254913
H 0.6491634108 0.7414359846 -3.1387673517
H -1.8280358110 0.4704401347 -1.3489749152
H -0.8921430707 1.9455697667 -1.6526470005
H -1.7650748462 1.1566070879 -2.9758554395