21

C 0.2000667180 1.6022983366 -0.3401778095
C 0.1030560687 0.1605917190 -0.1565240589
C 0.0210293766 -1.0316396713 -0.0022847188
C -0.0719142259 -2.4792674095 0.1759018965
C 0.7527669660 -3.1956565232 -0.9167324850
C 0.4318408826 -2.9407408094 1.5894993936
C -0.5221233531 -4.0456953114 1.9646876358
C -1.5933235913 -4.0741306028 1.1748368487
C -1.5544754756 -2.9934706953 0.1248802896
H 0.8931480912 1.8562209889 -1.1501563982
H -0.7730842568 2.0397994988 -0.5902555033
H 0.5598963216 2.0978194601 0.5686357502
H 1.8052528668 -2.9030505561 -0.8620605665
H 0.6854548309 -4.2808127416 -0.7864124138
H 0.3800499506 -2.9408265176 -1.9129616471
H 1.4790482200 -3.2629682682 1.5523041402
H 0.3849404925 -2.1170772545 2.3128084805
H -0.3458524159 -4.7051208316 2.8075611670
H -2.4274958977 -4.7603781712 1.2726638884
H -2.2595953014 -2.1872588835 0.3628376056
H -1.8168191178 -3.3504719763 -0.8779072951