19

C 0.7759196922 1.4463484658 0.1088890534
C -0.0832907677 0.1946303254 -0.1100739261
C 0.4287967597 -0.6810226992 -1.2921242817
C 1.2403042007 -1.7827185428 -0.6480820560
O 2.1871483265 -1.3216989446 0.3203172650
C 0.9253616175 -1.8468776438 0.7951674460
C -0.0815962870 -0.7535254191 1.1246390542
C 0.9787787591 -3.0476103551 1.5793351894
C 0.9890590289 -4.0373837390 2.2615698689
H 1.8121136437 1.1724506220 0.3213453667
H 0.7641880302 2.0875543606 -0.7792619757
H 0.3967086717 2.0373474780 0.9496415335
H -1.1084172663 0.5180805989 -0.3145898351
H -0.4014768252 -1.1361408321 -1.8453301619
H 1.0177936325 -0.0999785783 -2.0095360152
H 1.5440779900 -2.6632914751 -1.2089877395
H 0.1779796619 -0.2315180403 2.0506948182
H -1.0608557505 -1.2207599610 1.2758235338
H 1.0096594720 -4.9168091301 2.8567755722