18

N -0.0702752589 1.2349898436 0.3944240358
C -0.0155981517 0.0251091300 0.0196949815
O 1.1670677892 -0.6056408360 -0.2597523481
C 1.0451485409 -1.9819062763 -0.6726160038
C 0.1209705668 -2.0563152664 -1.9006791681
C -1.2409907487 -1.8512508918 -1.2572461275
C -1.1361151097 -2.2924034042 0.1823545960
C 0.2896519971 -2.7658642416 0.4147734675
C -1.2298947432 -0.8094464428 -0.1475886343
H 0.8726527951 1.6263884331 0.4456690430
H 2.0651416618 -2.3210129570 -0.8508388217
H 0.3842850326 -1.2975597277 -2.6432134393
H 0.1883214401 -3.0427937565 -2.3728491601
H -2.1488544087 -1.9763356952 -1.8341631393
H -1.9638243445 -2.7546584482 0.7057220149
H 0.3788686770 -3.8443219234 0.2427562204
H 0.6796674119 -2.5400653726 1.4114201200
H -2.1523047472 -0.2916927870 0.0782694932