16

O -0.0209278581 -0.0577545191 0.0589500858
C -0.0223909475 1.1492921867 -0.0266638624
N -1.1393431945 1.9685473925 -0.0891567722
C -0.7552157903 3.3597102894 0.0399130356
C -0.0282911619 3.7543812190 1.3464099955
C 1.1877510548 4.2551971212 0.6049436975
C 1.2555703148 2.9193189768 1.2996891252
C 1.1585723828 2.1176293864 -0.0286461034
C 0.6462908195 3.4571557102 -0.6331218206
H -2.0357286994 1.6065088802 0.1996906223
H -1.5187791244 4.0556907972 -0.3060320426
H -0.4480870666 4.1037909265 2.2804880092
H 1.7748855807 5.1550401564 0.7048680636
H 1.7861026346 2.6420639534 2.2001747004
H 2.0974807791 1.7065420000 -0.3923927029
H 0.7551260563 3.6964341333 -1.6880174211