20

C -0.2285809610 1.5431143650 -0.0435672496
C 0.1599339586 0.0612938653 -0.0276650125
N 0.7868624541 -0.3883844223 -1.2524629397
C 0.0988224630 -0.5762963246 -2.5098008626
C 1.1849892065 -1.0998919296 -3.4107458658
C 2.3396237611 -1.2008020461 -2.7467163653
C 3.6847384910 -1.6613250263 -3.1944322243
C 2.1137955612 -0.7531264488 -1.3341372465
O 2.9266294717 -0.7167603120 -0.4283567917
H 0.6527562069 2.1710733617 -0.2027060770
H -0.9533378682 1.7632084669 -0.8343622647
H -0.6835016835 1.8244537045 0.9113701988
H 0.8894629086 -0.1296864617 0.7643195771
H -0.7252342713 -0.5567180307 0.1771742868
H -0.7349947721 -1.2892767563 -2.4127479626
H -0.3293430876 0.3620948575 -2.8929664871
H 1.0045222703 -1.3437604100 -4.4500440892
H 3.6797029030 -1.9708681145 -4.2423920488
H 4.4264552044 -0.8655657674 -3.0648311594
H 4.0270635035 -2.5001128006 -2.5787337059