16

C 0.0185001510 1.5627249248 0.0494724671
C 0.0970458239 0.0547800319 0.0778929564
C 1.3345891316 -0.7309495367 -0.1415527937
O 2.4852915702 -0.0199289433 0.3682877928
C 1.9826231557 -0.1067689611 1.6689467014
N 2.4969621805 0.2157691611 2.7611276283
C 0.6985782956 -0.7683197166 1.2537579374
C -0.0214673708 -1.7684997517 1.9558040903
C -0.6424823888 -2.6121760553 2.5465251651
H 0.9574633467 2.0181518833 0.3690772145
H -0.1957594060 1.9081074505 -0.9674074698
H -0.7811680483 1.9200287487 0.7045079423
H -0.7863567044 -0.4598670954 -0.2952053518
H 1.5182244405 -1.5255647438 -0.8519912931
H 3.4275491601 0.6162032990 2.6324263719
H -1.1808140276 -3.3580996555 3.0768376708