21

C -0.1472504946 1.5675331239 0.0217269403
C 0.0818132130 0.0839734277 -0.0143654457
C -0.7806466349 -0.9190597151 0.7340640643
C 0.6900187171 -0.8884727272 1.0363151600
C 1.5451901077 -1.5417850626 -0.0804261476
C 1.5370542990 -2.9516314910 -0.6940557913
C 1.4901798985 -2.6213551653 -2.2273883993
C 0.7235611341 -1.2948766077 -2.2877210199
C 0.7667800519 -0.7326017203 -1.0843348167
H 0.7774558905 2.1217182120 -0.1721744027
H -0.8815361422 1.8736383224 -0.7331258208
H -0.5290443557 1.8798801251 0.9991233948
H -1.4117571359 -0.4852902406 1.5054320610
H -1.2346426644 -1.7538896752 0.2072587031
H 1.0535731983 -0.6503766695 2.0294332884
H 2.5717550114 -1.1594686117 0.0106938399
H 2.3920688166 -3.5762879707 -0.4195297685
H 0.6225704362 -3.4874215939 -0.4152223503
H 2.5051762872 -2.5307914473 -2.6420536222
H 0.9921636837 -3.4075574166 -2.8057217729
H 0.2007451124 -0.9547057564 -3.1740720940