15

C 0.0317817541 1.4481819250 -0.0667018473
N -0.0160550672 0.0160778486 0.1567852824
C -1.2074274460 -0.6817038683 0.0739893118
C -2.4722985803 -0.0771872632 0.0882228593
N -3.6066051712 -0.7816494569 0.0562213687
C -3.4706278564 -2.0891827447 0.0010539499
F -4.5926709090 -2.7914874530 -0.0306288154
N -2.3516272262 -2.7933819080 -0.0320269907
C -1.2293581703 -2.0847054158 0.0056867412
H 1.0726558782 1.7748330311 -0.0277737446
H -0.3942818223 1.7532696903 -1.0350729961
H -0.5100188203 1.9787193147 0.7239610710
H 0.7875169531 -0.4919579028 -0.1785639216
H -2.5811104825 1.0021565669 0.1281790190
H -0.2963102535 -2.6466171939 -0.0191434875