15

O 0.0312050887 -0.0399952306 0.0017182701
C -0.0224142266 1.1738021170 0.0105365889
C -1.3038368322 1.9097779134 0.0315486003
C -1.2432505146 3.2504841822 0.0372474777
C -2.0278893027 4.5528163373 0.0548322725
C -0.6255455103 5.2648771567 0.0391054852
N -0.0376428526 3.9127319517 0.0235316351
C 1.1362907130 3.2323279490 0.0039613621
N 1.1804590870 1.9442496474 -0.0029141855
H -2.2296075018 1.3500919449 0.0415840999
H -2.6452328810 4.7367231859 -0.8260131537
H -2.6205786076 4.7274930780 0.9542939911
H -0.4030616033 5.8515169793 -0.8556841694
H -0.3780751286 5.8417705130 0.9336734823
H 2.0518641724 3.8234011148 -0.0058858767