12

N 0.1808108492 1.2302439204 0.2585237135
C -0.2488589816 0.0769905478 -0.3000689314
O -0.5544299628 -0.0993079300 -1.4519688407
O -0.2742229039 -0.8995125713 0.6727370200
C -0.6637106670 -2.1498726032 0.3256814733
C -1.0626177767 -2.7423067890 -0.8322310657
O -1.3219987521 -4.0229098858 -0.5459362783
N -1.0698754875 -4.2038885286 0.8309914564
N -0.6890808138 -3.0983565343 1.3099228316
H 0.1929213823 2.0562685747 -0.3118465465
H 0.3490105458 1.2957377349 1.2465639425
H -1.1947532219 -2.3999020657 -1.8399561749