19

C 0.0728488442 1.5659934149 0.1552971033
C -0.0013078049 0.0585400707 -0.1046682284
C -1.3946766992 -0.5506663986 0.0288728251
C -1.4671106066 -2.1009576514 -0.0659799996
C -2.0147682011 -2.0771751119 1.3717542265
O -2.3960853479 -2.8859799727 2.1625581095
N -1.9307994905 -0.6718317594 1.4077411643
C -2.4191723911 0.2963033283 2.2703324018
N -2.8467726173 0.0265634261 3.4345192597
H 1.0804328563 1.9432808246 -0.0421614352
H -0.6199763905 2.1173427408 -0.4904522135
H -0.1675174854 1.8098513661 1.1945403828
H 0.3440208541 -0.1521603387 -1.1249858459
H 0.6795091156 -0.4725013367 0.5719235770
H -2.1022356474 -0.0407081072 -0.6362510981
H -2.1746470387 -2.4975614377 -0.7962602523
H -0.5061749611 -2.6079729142 -0.1764837385
H -2.3945050252 1.2920806128 1.8106559403
H -3.1822593134 0.8760265841 3.8859933311