19

O -0.1021074249 1.4489166771 -0.0338421855
C 0.0098937114 0.0677860246 -0.0771746411
C 0.6129785677 -0.6818172051 -1.2636498436
C -0.4052212731 -1.8482483745 -1.0129406124
C 0.1710436442 -3.1097010223 -0.3619129359
C 1.1224974889 -2.7459183417 0.7830204071
O 0.5883385232 -1.7952206483 1.6971047540
C -0.2066064333 -0.7758464119 1.1584237241
C -1.1438480742 -0.9575094135 0.0096795788
H 0.6328178824 1.7970500167 0.4829202867
H 0.3671286264 -0.1559401723 -2.1898200977
H 1.6853839972 -0.9007551749 -1.2589527784
H -0.9966374297 -2.0929764880 -1.8963334200
H -0.6531636963 -3.7265332068 0.0166043874
H 0.7239622847 -3.7154563884 -1.0896781603
H 1.3612568404 -3.6294217631 1.3827229721
H 2.0706202160 -2.3684899792 0.3721376028
H -0.6070511749 -0.1840074389 1.9765362847
H -2.2158966360 -0.8151500595 0.0750193171