14

O 0.0282441486 1.3622894191 0.0103899266
C -0.0211587753 0.0145721572 0.0032954741
C -1.1803196065 -0.6784078869 0.0039049648
C -1.1815993507 -2.1307597413 -0.0038864384
N -2.2747870827 -2.8074006069 -0.0044587862
N 0.1059038847 -2.6822478807 -0.0109146983
N 1.2870456639 -2.0146835284 -0.0124217273
C 1.2191378931 -0.7332902534 -0.0054149176
O 2.3503484029 0.0197199564 -0.0055793041
H 0.9566186021 1.6299129457 0.0089557881
H -2.1404943964 -0.1806908795 0.0100306017
H -2.0952022433 -3.8125279527 -0.0108036052
H 0.2084035094 -3.6844539882 -0.0176786472
H 3.1070255303 -0.5809317804 -0.0104908207