16

C 0.0422651855 1.4369128547 0.2840319983
C -0.0973059309 -0.0197249230 -0.0703974363
N -1.2537502686 -0.5672476076 0.0205222218
C -1.5253066407 -1.9173477217 -0.2264639637
N -2.5530868567 -2.3357413549 -0.8557599890
C -0.6355212360 -2.9111810463 0.4111713176
C 0.7068607300 -2.8349739089 0.3768786895
C 1.4451372930 -1.7828122649 -0.3021855214
N 1.1038591847 -0.5654689884 -0.5364267098
H 0.3534535865 2.0033342636 -0.5996695551
H -0.9010640918 1.8274423897 0.6642884895
H 0.8301313804 1.5674323431 1.0335575371
H -3.0791849797 -1.5344609216 -1.2147137853
H -1.1251552201 -3.7770638230 0.8475036194
H 1.2988477095 -3.6552102234 0.7741511767
H 2.4393160249 -2.0677453474 -0.6583632893