15

C 0.6708836054 0.8591429310 0.4160814089
C -0.2836216635 -0.2818693551 -0.0170480438
C -1.6526262405 0.2288327902 -0.2051814420
N -2.7227960160 0.6431970121 -0.3346009190
C 0.1855140367 -0.9604378690 -1.2275712640
C 0.5967785884 -1.5065106427 -2.2147643833
C 1.0836607992 -2.1745321855 -3.4197073276
C 2.5459069958 -2.3091444093 -3.4456974794
N 3.6945079268 -2.4203448128 -3.4748860601
H 1.6683899276 0.4499545608 0.5882279022
H 0.7320910812 1.6208181549 -0.3634128934
H 0.3073292296 1.3214674544 1.3364454638
H -0.3318289767 -1.0169746478 0.7979643822
H 0.6425287979 -3.1755948733 -3.5073297326
H 0.7709453082 -1.6213391879 -4.3144606619