19

C -0.1692253373 1.5166017911 -0.0131545076
C -0.0120698985 -0.0126293316 0.0032514381
C -1.3309998974 -0.6006938946 -0.2013287161
C -2.4503342563 -1.0063141544 -0.3744225718
C 1.1968524907 -0.6142577384 -0.8491126086
C 2.1294994366 -0.1758143142 0.3297299325
C 0.8879911922 -0.6243479629 1.1718830682
C 0.8523050291 -2.1120860770 0.8006127020
C 1.0541285890 -2.1054930653 -0.5199863036
H 0.7719656651 2.0477522639 0.1340655094
H -0.5958100783 1.8360661085 -0.9689652461
H -0.8634021363 1.8272549875 0.7737420854
H -3.4289821197 -1.3889262909 -0.5260981131
H 1.3633906672 -0.3108147733 -1.8826210699
H 3.0373588506 -0.7651281367 0.4655338163
H 2.3603692501 0.8896278296 0.3703166236
H 0.7378049931 -0.3312657204 2.2108719206
H 0.6739354322 -2.9358854405 1.4760916743
H 1.0868661180 -2.9223956903 -1.2259130839