21

C -0.3057817177 1.5507309673 0.0868911150
C -0.0104079720 0.0587147957 0.0348675102
C -1.1720442124 -0.7128367657 -0.5745249572
O 1.2154847669 -0.1745463579 -0.7723864416
C 1.8785918418 -0.7359351498 0.2807806115
O 2.9899044096 -1.1655984331 0.2962286719
C 0.7225439627 -0.5842243097 1.2754009565
C 1.0529299427 0.3362536500 2.4546788402
C 0.1884562360 -1.9230833347 1.7944012527
H 0.5700461015 2.1294079581 0.3842384897
H -0.6191861075 1.9010855354 -0.9009674274
H -1.1165611760 1.7585332214 0.7927270213
H -1.4489794519 -0.2681519840 -1.5349401842
H -0.9181927829 -1.7590502577 -0.7515812090
H -2.0474263135 -0.6731451051 0.0818910035
H 1.5140722709 1.2761121304 2.1451395717
H 0.1500092205 0.5690010943 3.0293388211
H 1.7565452947 -0.1686994429 3.1228075762
H 0.9170015997 -2.3621116581 2.4820944773
H -0.7490088065 -1.7800348670 2.3424574844
H 0.0127464635 -2.6489584969 0.9981385862