21

C 0.6585959900 1.4607482300 0.2891462216
C 0.0044944484 0.1078366358 0.0292007957
C 0.7329855957 -0.8115983542 -0.9987179838
C 1.1315789567 -1.7834515639 0.1394397712
O 0.7141568787 -3.1008922524 -0.1439878089
C 2.6368414023 -1.7648043827 0.4850338505
C 2.9296988757 -2.6117771847 1.6358443317
C 3.1017913835 -3.3414122643 2.5770502614
C 0.2293387332 -0.9771776353 1.1270182258
H 1.7220728419 1.3569767881 0.5350964486
H 0.5870824430 2.1099208409 -0.5907119102
H 0.1773590705 1.9772319237 1.1270263380
H -1.0510605405 0.2620294108 -0.2103688503
H 0.0605803737 -1.3013561154 -1.7054744895
H 1.5596718321 -0.3574784226 -1.5541046494
H 0.9864805835 -3.6565066374 0.5980227384
H 3.1952937920 -2.1204595773 -0.3898450128
H 2.9656417050 -0.7377824917 0.6808825078
H 3.2872534739 -3.9696466937 3.4130047885
H 0.7047688031 -0.6395756849 2.0527387142
H -0.6745063124 -1.5368305089 1.3763099014