16

C -0.0363105205 -1.2033798286 -0.0618170804
C 0.0043930916 -0.0067433820 0.0431655905
C 0.0451089189 1.4405838890 0.0919128683
C -0.3287935342 2.0897723615 1.4494356476
N 0.6828195540 1.4349473827 2.3464099126
C 1.6501581576 2.3217659769 1.6552856902
C 0.6083558137 3.3937959141 1.3134144441
O 1.0548649865 3.5217760304 -0.0390768771
C 1.4462284221 2.1255771230 0.0943379560
H -0.0703314514 -2.2620647013 -0.1328653553
H -0.5270054781 1.8719426930 -0.7345429867
H -1.3703733836 2.0968221866 1.7630304955
H 0.5610310510 1.7948646870 3.2927975026
H 2.6499638159 2.4795133193 2.0547849222
H 0.3774315045 4.3203059893 1.8385296428
H 2.2124214320 1.7986210990 -0.6043438228