16

O 0.0766666312 -0.0511577296 0.0020234170
C -0.0100272178 1.1579222286 0.0289762128
C -1.3270193287 1.9202057848 0.0963590059
C -1.2243353140 3.2579885148 0.8467399159
C -0.0118868103 4.0285159725 0.4046309940
C 1.0862825015 3.3740411016 -0.0090845222
N 1.1059763006 1.9650206795 -0.0601286151
C 2.2921816836 4.0175512102 -0.4024468763
C 3.3333925278 4.5234197731 -0.7329343946
H -1.6271963942 2.1066322263 -0.9436906284
H -2.0727253637 1.2542761821 0.5335253439
H -2.1352110179 3.8437683062 0.6892300567
H -1.1680404328 3.0741371322 1.9309597088
H -0.0011596764 5.1096201392 0.4399835780
H 1.9856436657 1.4933895789 -0.2084484484
H 4.2440900655 4.9846704095 -1.0263858380