15

N 0.0163475758 1.3375076644 -0.0908185677
C -0.1034227176 -0.0036805850 -0.2121683432
N -1.0313520340 -0.6513927835 0.3994905855
C -1.0830939092 -2.0128370934 0.2799581373
C -1.9904593874 -2.8970436727 0.7891371711
C -1.5295153950 -4.1603739899 0.3250882817
N -2.1447136030 -5.3902943330 0.5066203402
N -0.4294730272 -4.0617340546 -0.3933780192
O -0.1463973791 -2.6801417241 -0.4329216526
H 0.6366849577 1.8506877724 -0.6903300443
H -0.7028327840 1.8433291287 0.4013637544
H 0.6550338164 -0.4726514737 -0.8434566961
H -2.8583632530 -2.6697617486 1.3838084072
H -2.5556436296 -5.5096472515 1.4216560510
H -1.5353724007 -6.1633385356 0.2722416747