19

C -0.1903353322 1.5204962453 -0.2317389330
C -0.0196987905 0.0191744156 -0.0298096742
N 0.8553877737 -0.4916637877 -1.1343788213
C 1.6223462304 -1.3339114633 -0.5679919765
N 3.0050342976 -0.9016430229 -0.3117941471
C 2.3731957072 -0.7710160907 1.1267081049
C 3.3197217720 -0.5368710329 2.2667760448
C 0.8123081594 -0.4052890624 1.2062610195
C 1.3121222916 -1.7749691480 0.9000495900
H 0.7855712498 2.0031559565 -0.3298910958
H -0.7661481224 1.7248793055 -1.1381580461
H -0.7184223264 1.9572407331 0.6236368031
H -1.0099513040 -0.4607791171 0.0214359105
H 3.6159264278 -1.7174161292 -0.1803497120
H 3.8085453393 0.4373531396 2.1722968422
H 2.7861538269 -0.5639836588 3.2211786663
H 4.0993154539 -1.3071678034 2.2935995824
H 0.4818114357 -0.1407088313 2.2093614472
H 1.0895958704 -2.7457972080 1.3249099250