18

C -0.0144948723 1.4456231660 -0.0693246307
N 0.0646052759 -0.0000377019 -0.1670506141
C 0.6404633689 -0.6152147035 0.7952003953
N 1.2189814670 -0.0855916552 1.9163096557
C 0.7500630562 -2.1316166463 0.7782728357
O 1.1333325137 -2.7311686637 1.7680811355
N 0.4773490196 -2.7471398890 -0.4147058770
C -0.7312697005 -2.7218125462 -1.1994689141
C -0.2302421752 -3.9941662326 -0.5712660293
H 0.9802478886 1.9096785071 0.0203071319
H -0.4962772724 1.8488449121 -0.9632176910
H -0.6065576876 1.7745943198 0.8014488925
H 0.9727400154 0.8438063266 2.2096522739
H 1.4514112738 -0.7604475349 2.6306301012
H -1.6001468310 -2.2401583400 -0.7634573111
H -0.5989276520 -2.5509192845 -2.2635783612
H 0.2593100250 -4.7439696726 -1.1860035790
H -0.7491484131 -4.3787271311 0.3029263358