15

C 0.1417735218 1.5558778122 0.0349320628
C -0.0944391410 0.0368910051 -0.0341098322
O -1.4636680736 -0.2758408706 -0.1042929159
C 0.6872513036 -0.6123789932 -1.1923118303
O 1.9924343001 -0.9591716370 -0.6612189107
C 1.9765419735 -1.0731507940 0.6884407067
O 2.9012048630 -1.4376564712 1.3478889951
C 0.5764599141 -0.6330895379 1.1562747473
O 0.0814088186 -0.8300359986 2.2311591586
H 1.2080963738 1.8036408096 0.0169478793
H -0.3427266114 2.0259545679 -0.8251249823
H -0.2947896899 1.9621381235 0.9516343766
H -1.7760897563 -0.3730987648 0.8063052489
H 0.1797169297 -1.5214376701 -1.5257585213
H 0.8533353239 0.0512885791 -2.0417955225