17

C 0.0313347723 1.5387454785 -0.1124139037
C 0.0243688706 0.0133296087 0.0645997039
O 0.6265798855 -0.3749064015 1.2884634890
C -1.3758856302 -0.5399088102 -0.0242111777
C -2.0360948294 -1.1724694657 -0.9944455687
C -3.4272011207 -1.4848343934 -0.5288568821
O -3.4966268002 -0.9751773598 0.8042485295
C -2.2988509787 -0.4149021958 1.1356087859
O -2.0859004882 0.0794672079 2.2145633436
H 1.0538250439 1.9092410727 -0.0014814974
H -0.3451293071 1.8266357857 -1.0994055903
H -0.5951027297 2.0134139636 0.6492724126
H 0.6346174420 -0.4419970981 -0.7234643661
H 0.0325362709 -0.0785808595 1.9938875298
H -1.6711728602 -1.4408373487 -1.9778593471
H -4.2013790264 -0.9995388206 -1.1361282244
H -3.6392994744 -2.5609065938 -0.5072003867