18

C -0.0692432028 1.5041211803 0.1424616343
C -0.0086384174 -0.0223190228 0.0051978501
C 0.7025164235 -0.4733212696 -1.2304221240
C 0.4334650315 -0.0934640719 -2.7204260449
O 1.6218301910 0.7254190265 -2.7900136567
C 2.1362487858 -0.1143758056 -1.7327836837
C 2.1389897627 -1.5733611575 -2.2479156503
C 0.8523771390 -1.5575611765 -2.9941669043
N 0.8704101131 -1.9727292693 -1.5516276989
H 0.9332098099 1.9409943162 0.1827883195
H -0.5934718122 1.9600373753 -0.7029500548
H -0.5966487250 1.7871491498 1.0576001745
H 0.4950288615 -0.4636438312 0.8748932238
H -1.0216912767 -0.4447405322 -0.0049414905
H -0.4550622800 0.3504862242 -3.1648293116
H 2.9711535761 0.3084049665 -1.1775747392
H 2.9528382399 -2.2669849176 -2.4141888596
H 0.5799683702 -2.2378461645 -3.7904807234