16

O -0.0021067774 0.1509003420 -0.7601434341
C -0.1160014196 1.1706673330 -0.1611266520
C -1.2351445356 2.1073285156 0.2912662320
C -0.0792468732 2.9273801094 0.8928584961
C 0.1385356274 4.4056834152 0.5273767539
C -0.3108153012 4.7704287529 1.9717835444
C -0.0405009808 3.2950912024 2.3860883477
O 0.8785772426 1.9363568273 0.3929630166
H -1.7873604388 2.5742620730 -0.5265784862
H -1.9343336625 1.6606800355 1.0007341525
H 1.2020584880 4.6043163084 0.3706954396
H -0.4273666031 4.8082494064 -0.3158985892
H 0.2593277349 5.5433842850 2.4884600100
H -1.3722060749 5.0250915434 2.0216868917
H -0.7514332159 2.7974559569 3.0496759516
H 0.9697680500 3.1632505438 2.7823790956