19

C -0.1117264010 1.5153373150 0.0753281943
C 0.0105421503 -0.0003032824 0.0189607031
C 1.3835272430 -0.6011596793 -0.3384846443
C 0.8787215527 -0.6963152072 1.0562616945
C 1.4247100310 -0.1430733629 2.3690627807
C 0.9601243291 -1.5006750490 2.9391266305
O 0.5122773718 -1.9412268991 1.6347566039
C -1.1570637214 -0.6965228041 -0.4445954580
C -2.1543257272 -1.2491144230 -0.8283497174
H 0.7996669137 1.9662987884 0.4796943685
H -0.2761145051 1.9260801789 -0.9257591184
H -0.9528741696 1.8178334854 0.7068014632
H 1.3804449867 -1.5150994904 -0.9216680316
H 2.1875027081 0.0931019148 -0.5641109759
H 2.5034074551 0.0245622377 2.3879753468
H 0.9133886586 0.7370083221 2.7629936669
H 1.7487194587 -2.1496620467 3.3341892025
H 0.1328101217 -1.4553804570 3.6559538661
H -3.0278730863 -1.7508149013 -1.1628858452