16

O -0.1096198511 0.0324645987 -0.4216534430
C -0.0692844442 1.1894509772 -0.1406087677
C -1.0702149304 2.2419449886 0.3590538863
O 0.0000535059 3.2112551173 0.3976065947
C 0.9968481125 2.2904731309 -0.0963450919
C 2.3350937620 2.2460464904 0.7125460649
C 3.0670601148 2.7156496792 -0.5519150155
N 2.7903357394 1.6858564520 -1.5763264161
C 1.7947017789 2.7567642998 -1.3230685923
H -1.8657477901 2.5095937707 -0.3472907980
H -1.5061968968 2.0487426122 1.3466484092
H 2.2899086327 3.0036532436 1.4976462077
H 2.6434143952 1.2804151443 1.1186755259
H 3.9411718914 3.3505647057 -0.6169265949
H 3.2918453594 1.9481284400 -2.4249153042
H 1.4457936504 3.4196024894 -2.1046094552