16

O 0.0833764373 1.3687888052 0.2630136797
C -0.0037678477 -0.0194296288 0.0689971535
C -0.6995873271 -0.8520643454 1.1214617318
C -1.3939983785 -0.5413476016 -0.1821402753
C 1.1374383486 -0.5911205559 -0.6778273741
C 2.1560370833 0.0704878001 -1.3239745115
N 2.9123382258 -0.9290127533 -1.8406284794
N 2.4079554668 -2.1374803480 -1.5437757431
N 1.3330645315 -1.9339727842 -0.8368020852
H 0.7177194641 1.5243130764 0.9722203526
H -0.3331200879 -1.8593943709 1.2803227710
H -1.0366455914 -0.3226271111 2.0058283414
H -2.1857252168 0.1985926775 -0.1689316540
H -1.5026185455 -1.3391461504 -0.9072193486
H 2.3788417203 1.1139014976 -1.4595319233
H 3.7570358472 -0.8685114171 -2.3862667554