21

C -0.0102169296 1.6563740829 0.0333400782
C -0.0704928033 0.1246546448 -0.0146050084
C 0.3657665943 -0.3925134383 -1.3939991303
C 0.2796838717 -1.9067956620 -1.5797812683
O 1.4000554908 -2.6245702732 -1.0463796150
C 1.6201193504 -2.7393301242 0.2871571543
O 2.5643829484 -3.3830781566 0.6588179450
C 0.6770251770 -2.0246501863 1.2420356331
C 0.7339274185 -0.4855620212 1.1434412845
H 1.0177273955 2.0127982118 -0.1014177786
H -0.6226854803 2.1035877509 -0.7564246200
H -0.3705475923 2.0380201069 0.9941277261
H -1.1201548070 -0.1764707709 0.1263990279
H -0.2697831366 0.0716885466 -2.1586945184
H 1.3949220177 -0.0790679922 -1.6132148834
H -0.6579533729 -2.3042109566 -1.1699875918
H 0.3018964478 -2.1539065078 -2.6436699882
H -0.3531710181 -2.3708551827 1.0904528323
H 0.9848457673 -2.3468913991 2.2377773700
H 1.7825298542 -0.1661902991 1.0789031816
H 0.3492355365 -0.0742776336 2.0834159393