17

O 0.1394039448 1.3395526519 -0.1335413346
C 0.0265449200 -0.0548145940 -0.0539279211
C 0.3595832083 -0.6784436639 1.3091228651
O -0.5801361985 -0.0829477363 2.2228950416
C -1.0016305055 -1.2176530300 1.4481568170
C -1.4295872754 -0.6951646851 0.0716154342
C -2.6528609963 0.2227108684 0.0130634042
C -2.8342507554 0.8451944906 -1.3568286219
O -3.8080283844 0.6865426014 -2.0490457396
H -0.1504587878 1.6842940483 0.7211696217
H 0.5889424498 -0.4775322776 -0.8888349983
H 1.3071886422 -1.0076906974 1.7188013257
H -1.3568243080 -2.0816505298 1.9970739383
H -1.5306054707 -1.5197339468 -0.6413155611
H -3.5640463960 -0.3284313720 0.2655738925
H -2.5246731821 1.0301638281 0.7449289137
H -1.9803764451 1.4714742442 -1.6920470475