18

C -0.1041323968 1.4734276233 -0.0846146044
C 0.0675123225 -0.0083518735 0.0297509931
C 0.8380108640 -0.8364510138 -0.9490214155
C 1.0908768005 -2.2133035157 -0.3629033330
C -0.3026106651 -2.0220157543 0.2577082547
C -0.1758444714 -0.8603303224 1.2798087581
C 0.7982788745 -0.9170284676 2.3535729829
C 1.6171498823 -0.9676385151 3.2333044397
N -0.6630345155 -0.9858212477 -0.8510839019
H 0.6991567637 1.9976190452 0.4445893044
H -0.0825043077 1.7845972469 -1.1333429834
H -1.0605736835 1.7920804346 0.3427358672
H 1.2967116312 -0.3881284523 -1.8236508000
H 1.0707711490 -2.9778225431 -1.1435665056
H 1.9419414378 -2.3729536625 0.3050067942
H -0.9706792776 -2.8575204755 0.4544710475
H -1.1707255717 -0.6209398390 1.6722491999
H 2.3366001138 -1.0095701076 4.0132989424