20

C 0.0223968352 1.5026227974 0.1219859429
C -0.0668525353 0.0100776364 0.0627725469
C 0.1163812949 -1.0181998040 1.1192667402
C -0.4677139680 -2.0566292769 0.0845240162
C 0.9530474296 -2.0834106046 -0.4933535305
N 1.2310866187 -0.7590845834 0.1576921315
C -1.0998848991 -0.8549879826 -0.6729521339
C -2.5292800148 -0.5619078701 -0.2574127299
O -3.3464656288 -1.6177819164 -0.7469642139
H 0.8118370337 1.8085441145 0.8136225898
H 0.2607875289 1.9198386476 -0.8631424986
H -0.9216519777 1.9466199782 0.4564558491
H 0.2232465186 -0.9765917913 2.1957429640
H -1.0584131305 -2.9478824427 0.2826740204
H 1.6030781954 -2.8321590616 -0.0330694438
H 1.0709509245 -2.1081522107 -1.5836926877
H -1.0393221167 -0.8972202649 -1.7678150820
H -2.5873549660 -0.4871235568 0.8409562829
H -2.8492204210 0.4081294454 -0.6704085799
H -4.2581779117 -1.4281191136 -0.5072301837