17

N 0.1451808720 1.3782384352 -0.2919172770
C 0.0764456460 -0.0076764807 -0.0965664594
C -0.9982221074 -0.8353101578 0.0023374740
O -0.5900143553 -2.1203921641 0.0923311247
N 0.7906944205 -2.1544833669 0.0639694501
C 1.1902434857 -0.9087337104 -0.0537661162
C 2.6448090754 -0.5737112335 -0.1543806486
C 3.0506457967 -0.1291612472 -1.5723290683
O 4.4019407511 0.2897933283 -1.6344596079
H 0.8986128742 1.8101907440 0.2289140340
H -0.7214633965 1.8530409334 -0.0753595723
H -2.0641252345 -0.6728934314 0.0164006769
H 2.9040361327 0.2322725625 0.5438072135
H 3.2249579629 -1.4550823196 0.1388266087
H 2.8392638742 -0.9413814704 -2.2831935890
H 2.4511507109 0.7343092107 -1.8763307375
H 4.9582200114 -0.4808624421 -1.4820855354