16

O -0.0743754629 1.4755944052 0.2185570303
C -0.0411321798 0.1108046038 0.0205638412
C -0.4477630695 -0.5795629258 -1.2462173682
C -1.1737688288 -0.8746217901 0.0534160335
N -0.4924751651 -1.7428329254 1.0990802911
C 0.8485507581 -2.2565147206 0.6784948874
C 1.2176498439 -2.8918495432 -0.5565017044
C 1.5955009425 -3.5364167062 -1.5001600308
C 0.6854775471 -0.8153568402 1.0230705683
H 0.6030700874 1.8784884901 -0.3364770305
H -1.0510137126 0.0659966565 -1.8799278724
H 0.1683811601 -1.2899963378 -1.7771220830
H -2.2415282377 -0.7449179815 0.1662017626
H 1.2488791263 -2.8176217746 1.5243487626
H 1.9112302571 -4.0780580907 -2.3574499841
H 1.1211394839 -0.4046574198 1.9303838563