15

O 0.0355652298 1.2841107323 -0.2860663573
C 0.0902597722 -0.1270374522 -0.2009211406
C -1.3507373448 -0.6015112051 0.0275232481
C -1.4612016594 -2.0441325585 0.1374062735
C -1.5294286952 -3.2469146907 0.2257370697
C -1.5937896240 -4.6756141743 0.3283818232
O -2.6071302393 -5.3196193540 0.5093438264
C -0.2640472686 -5.4362091107 0.1964114341
O 0.8009091535 -4.9132342518 0.0164033055
H 0.9268787048 1.6149447523 -0.4298508685
H 0.4824567535 -0.5813274388 -1.1223690601
H 0.7226931632 -0.4661426315 0.6323258479
H -1.7415995279 -0.1289309056 0.9372626166
H -1.9790831984 -0.2428514783 -0.7972635706
H -0.4099498295 -6.5331228533 0.2883992521