20

C 0.0301450801 1.6142466369 0.0798757418
C -0.0519423989 0.0833608612 -0.0654328119
C 0.6796726836 -0.4642810095 -1.2568465015
C 0.1291096481 -0.7830995222 -2.4778222708
O -1.1426236540 -0.7362223178 -2.9584859578
N 1.1039235828 -1.2367891088 -3.3141928566
C 2.3142666679 -1.2202399250 -2.6408237369
C 2.0885248454 -0.7490108463 -1.3733964093
C 3.1182482540 -0.5755061854 -0.2984762780
H 1.0701235375 1.9424093214 0.1707023412
H -0.3939433659 2.1142658528 -0.7970780723
H -0.5122484864 1.9598337087 0.9667943532
H 0.3345682993 -0.3825459530 0.8499630170
H -1.1110725782 -0.2129979084 -0.1070712025
H -1.7148779049 -0.4121713077 -2.2561149465
H 0.9438098681 -1.5413343762 -4.2577602938
H 3.2215497104 -1.5456851990 -3.1228405590
H 3.2334482511 0.4733817609 0.0018304883
H 2.8615748435 -1.1372019130 0.6085107578
H 4.0974389164 -0.9286328095 -0.6354527825