18

N -0.4538027632 -0.8297469589 -0.9727435804
C -0.3033663611 0.2309389717 -0.5382460241
C -0.0975292136 1.5678673756 0.0008111638
C -0.4167858177 1.6988877270 1.5205742277
C 0.6864384345 2.6656503827 2.0274843285
O 1.3976498679 3.1156545177 0.8747077223
C 1.3477811732 2.0769519764 -0.0622779933
C 2.5445520266 1.1796525026 -0.2383879265
C 2.1685043109 2.2120485653 -1.2930922225
H -0.7286256158 2.2620433805 -0.5653211324
H -1.4237191099 2.0892772662 1.6760172232
H -0.3525815577 0.7288047495 2.0161595899
H 0.2889610496 3.5491316483 2.5321537410
H 1.3662891846 2.1464663153 2.7162331648
H 3.4063836100 1.3980183822 0.3818300674
H 2.3897505500 0.1318538311 -0.4705947425
H 1.7531820260 1.8574377981 -2.2303453182
H 2.7852739156 3.0999585088 -1.3716860588