18

C -0.5152903571 1.3407322149 -0.0508915242
C 0.0181363457 -0.0905081615 0.0154244830
C 0.9878093685 -0.4251584102 -1.1118162615
N 0.8423441634 -0.0877806057 -2.3177786812
O 2.0489726671 -1.1564160598 -0.6341869124
C 2.0073087800 -1.1991376260 0.7792152664
C 2.1554500870 0.1256158592 1.4906926931
C 0.7864688960 -0.4941868796 1.2673865390
O 0.0793807693 -1.0133427508 2.3481859621
H 0.2880015364 2.0692562217 0.0956414898
H -0.9620204493 1.5253324134 -1.0302000033
H -1.2757838325 1.5078870484 0.7186868822
H -0.8250114618 -0.7897193706 -0.0635643976
H 1.6187208077 -0.4292648937 -2.8867027240
H 2.3859441667 -2.1237008810 1.1943695338
H 2.5327442758 0.0835867613 2.5066295873
H 2.4637575905 0.9902388118 0.9114456295
H -0.2615246437 -0.2757908218 2.8660618980