20

C 0.0720958409 1.5321061682 -0.0139418929
C -0.0334099156 0.0097843816 0.0874931494
O 0.5654782284 -0.4632917692 1.2871716738
C -1.4833316514 -0.5308331390 -0.0184948722
C -2.2058161779 -0.0291679285 -1.2733964523
C -1.5001775713 -2.0854811305 0.0828299481
O -2.3710277891 -2.3665133075 1.2091712343
C -2.6549028454 -1.1634738739 1.7432631836
N -2.2331590576 -0.1018100394 1.1908897444
H 1.1025162681 1.8324163597 0.1928442227
H -0.1963403789 1.8953235788 -1.0099084226
H -0.5875944345 2.0119173530 0.7155943206
H 0.5524087977 -0.4486387024 -0.7199015620
H 0.0230166226 -0.1228557874 2.0102941861
H -1.6241675965 -0.2534567691 -2.1748155057
H -3.1816571807 -0.5150664331 -1.3684015033
H -2.3729164979 1.0486196399 -1.2246911185
H -1.9215693138 -2.5756049580 -0.7978096234
H -0.5163327912 -2.5005828212 0.3116793335
H -3.2608703660 -1.2050443418 2.6426570762