16

O 0.0800398262 1.3974183905 -0.0125139249
C 0.0157807878 -0.0182628793 0.0292453743
C 0.6477845446 -0.5747878131 1.3551079177
C -0.5703925036 -0.7344810037 2.2090219397
N -0.8703804758 -0.9145804713 3.4906451283
N -2.2061010215 -0.9864343135 3.4512753410
N -2.7946020185 -0.8636678319 2.2556761920
C -1.7480167185 -0.7033220215 1.4532205862
C -1.4726453411 -0.5186829219 -0.0057877905
H -0.4007882573 1.7389575526 0.7507452678
H 0.5714262424 -0.3506099980 -0.8502147925
H 1.1453452859 -1.5371546277 1.1836722884
H 1.3983293753 0.1233735000 1.7334845230
H -2.7486617906 -1.1010006615 4.2919233857
H -2.1024040011 0.2159996913 -0.5132926378
H -1.5598127343 -1.4655784111 -0.5525030183