16

N 0.2324847445 1.2194620683 0.7287232662
C 0.1209485528 0.2417160899 -0.2007689687
O 0.9053106503 0.0295108976 -1.1065452822
C -1.1135318818 -0.6413243658 -0.0346384584
C -0.9180334591 -1.9919695979 0.6817611506
C -1.9488023417 -1.4502502211 1.6903480342
O -2.0392220059 -0.1764949488 0.9878088288
C -1.8652563650 -0.7215362786 -1.3669220553
O -2.1619935680 -1.7498655651 -1.9105413501
H 0.9841903996 1.8847228645 0.6543175836
H -0.5258074568 1.3689703585 1.3746564102
H -1.2365592540 -2.8422155202 0.0797405176
H 0.0840144391 -2.1607063924 1.0744265299
H -2.9156399449 -1.9626126404 1.7045213310
H -1.5958905557 -1.3089776960 2.7166393335
H -2.1730379536 0.2675879275 -1.7671493308