22

C -1.0395828302 1.6100569317 -1.0380229384
N -1.0190179697 0.1711933265 -0.8655275253
C -1.3579026524 -0.4393103341 0.3092220376
O -1.6895055779 0.1864458467 1.3046538392
C -1.3311505293 -1.9560433406 0.2720820842
C -1.1324664283 -2.6767298657 1.6287095383
C -2.2704436611 -3.6637205997 1.2623077241
C -2.7145903540 -2.7064926785 0.1168357049
C -3.9600264606 -1.8825927224 0.4260693861
H -0.0448260277 1.9988952977 -1.2840268706
H -1.7367875052 1.9093835074 -1.8289548454
H -1.3664706266 2.0427423534 -0.0918349598
H -0.7465184589 -0.4059683921 -1.6433681543
H -0.6257398773 -2.3090752540 -0.4872889056
H -0.1427181652 -3.0967879129 1.8211655054
H -1.4000246848 -2.0052619732 2.4467956457
H -1.8965068171 -4.6198947524 0.8857986794
H -3.0161597059 -3.8668652588 2.0357183941
H -2.8307612771 -3.1901311986 -0.8580134747
H -3.8592113123 -1.3427945644 1.3713483478
H -4.1527629814 -1.1400400375 -0.3560370383
H -4.8363370072 -2.5369168584 0.4903709155