17

N -0.1269152931 1.1641593352 -0.9635901198
C -0.0606932601 0.1479520320 -0.2132708248
C -1.2657576964 -0.7211945417 0.0391631453
C -1.6083275775 -0.8249269121 1.5284470840
O -0.8450775382 -1.7740206164 2.2844935014
C 0.5152820085 -1.8035060219 2.2676665264
N 1.1805689158 -2.2334642653 3.2558205897
C 1.2614067409 -1.4796993732 0.9866179668
O 1.0784322159 -0.1568538661 0.4763774555
H 0.7799325132 1.6355623491 -0.9965619603
H -2.1020137565 -0.2579151982 -0.4873468415
H -1.1356326458 -1.7270558063 -0.3764477419
H -1.5284066768 0.1611672467 2.0028750469
H -2.6375948363 -1.1715239619 1.6419286163
H 0.5487793712 -2.4728305198 4.0239765258
H 2.3217506904 -1.5624180209 1.2172784776
H 1.0127078649 -2.2225343291 0.2185144724