15

O 0.1037733179 1.3846704817 0.0643909624
C 0.0321316093 -0.0256618087 -0.0289395935
C -1.4299722641 -0.4757214101 -0.1088973839
C -1.5134835742 -1.4059906075 -1.3269918372
O -2.4682473233 -2.0693237872 -1.6553879537
C -0.2074852223 -1.3317353381 -2.0215505590
C 0.6511942301 -0.5619533239 -1.3283124250
C 1.9794757922 -0.2199854061 -1.6591841285
C 3.1157917839 0.1224826936 -1.8736530792
H 1.0331550998 1.6386187062 0.0223422112
H 0.5484644068 -0.4937691216 0.8233298902
H -1.7916798351 -0.9813936208 0.7885997085
H -2.0650927380 0.3987767016 -0.2806392407
H -0.0105518878 -1.8391816764 -2.9568642016
H 4.1167475348 0.4042455171 -2.0924824700