13

C 0.0736024342 1.3737677374 0.0935326143
N -0.0424689036 -0.0707569602 0.0434353131
N -0.2533713706 -0.7303721821 -1.0817854410
N -0.3250689654 -2.0017777347 -0.7555955202
C -0.1383546995 -2.0369325116 0.5794361079
O -0.1625440520 -3.1505702084 1.3359247580
C 0.1752491680 -4.3503653763 0.7389172160
O 0.0832413602 -5.3689615757 1.3401912720
N 0.0436079648 -0.8427935417 1.1242034381
H 1.0454260927 1.6488810952 0.5076067819
H -0.0225962074 1.7401360880 -0.9275230602
H -0.7196656498 1.7840752990 0.7214588547
H 0.5209923984 -4.2209706589 -0.2958361848