11

O 0.0886141126 1.3261563743 -0.0616308435
C 0.0645843061 -0.0174882012 -0.0447306415
C 0.0094277918 -0.7287327193 -1.2465602821
N -0.0147067160 -2.0615161113 -1.2372138800
C 0.0146275451 -2.6702663456 -0.0802250548
F -0.0086892530 -3.9955840885 -0.0525440679
C 0.0697221228 -1.9501185476 1.1163385291
F 0.0985938864 -2.5876460582 2.2732215874
N 0.0943849540 -0.6403187719 1.1333680737
H 0.1262564922 1.6241589224 0.8573436495
H -0.0146259121 -0.2167138231 -2.2013450498