17

C 0.0008611269 1.4607615510 0.1478631380
C -0.0327066426 -0.0165548602 -0.2289950610
N -1.3806421765 -0.5519158901 -0.0802718908
C -1.6483547547 -1.8725785942 -0.0086935753
N -2.8249603335 -2.4407897373 -0.0995067892
C -2.4967136340 -3.7590529162 0.0975543973
N -3.4687857562 -4.7274719004 0.1482383986
N -1.2220634979 -4.0237714922 0.2798431170
O -0.6367126717 -2.7136818407 0.2111819265
H 1.0133318236 1.8565266132 0.0322414460
H -0.6603657072 2.0500470728 -0.4977743242
H -0.3145663322 1.6074322209 1.1846388509
H 0.3364917214 -0.1548233949 -1.2558680400
H 0.6259786526 -0.5930671525 0.4253444636
H -2.1532467292 0.0099047313 -0.4025380857
H -4.2942698379 -4.5000552288 -0.3847200430
H -3.1324451909 -5.6672499516 0.0004030214