18

C 0.0156359983 1.5659632795 -0.0541799695
C 0.0049256776 0.0579015932 -0.0104445399
C 0.5630946668 -0.9345836138 -1.0456027379
N 0.0150621719 -1.8987430489 0.0010541559
C 0.5900471433 -0.9142792865 1.0639505074
C -0.3580865469 -1.0066643309 2.2490788358
O -1.2533364861 0.1138514273 2.3571923163
C -1.6503279166 -1.0173856713 1.5625808726
C -1.2002133468 -0.9291438773 0.1128780697
H 1.0439063696 1.9409592432 -0.1106549431
H -0.5169657694 1.9279568634 -0.9409982535
H -0.4602971287 1.9844370231 0.8339768072
H 0.0586278340 -1.0055258841 -2.0143784542
H 1.6490832924 -0.9923320706 -1.1694556043
H 1.6667456120 -0.9890030558 1.2236147606
H -0.1280081634 -1.5368732358 3.1660424510
H -2.5320284871 -1.5568240198 1.8889109934
H -1.9341784207 -1.0189125150 -0.6893640275