23

C 0.0813244971 1.3393567384 -0.1908780151
O -0.0945685943 -0.0274146604 0.1099088806
C 0.6427945041 -0.5761370829 1.2087440951
C -0.0201990425 -0.1936881857 2.5366170929
C 0.5951480547 -2.0952617192 0.9684138658
C 1.3929865871 -2.4682987439 -0.2880944914
C 2.8050380486 -1.8870176298 -0.2130047893
O 2.7866351733 -0.4829766446 0.0053208576
C 2.1213400972 -0.1401343117 1.2026462857
H 1.0728994681 1.5443541675 -0.6148271583
H -0.6745492015 1.5883779350 -0.9408176383
H -0.0760550864 1.9944576466 0.6786638746
H -1.0607335691 -0.5305736870 2.5419541794
H 0.4963747416 -0.6540055726 3.3847937163
H -0.0129144471 0.8898037760 2.6927409744
H 1.0110555762 -2.6056334492 1.8465021438
H -0.4501669620 -2.4065189492 0.8736688916
H 1.4479899654 -3.5566200046 -0.4046920311
H 0.8864471435 -2.0613951983 -1.1679865854
H 3.3739806939 -2.3792859189 0.5964448830
H 3.3516969924 -2.0404860469 -1.1478329616
H 2.2181276924 0.9437860631 1.3120020129
H 2.6192757573 -0.6041906615 2.0718151268