21

C -0.2267003363 1.4614383056 0.3151254562
C -0.2406168627 -0.0487811480 0.4650875184
O -1.2654887274 -0.5754796701 -0.3797765618
C -1.3634082904 -1.9694340976 -0.3112288126
C -2.4526986060 -2.5037228161 0.5857729682
O -3.2540927739 -1.5616619356 1.2521302972
C -2.5901526833 -2.6104656417 -0.9219291118
C -3.6746123142 -1.7838099580 -1.5955130442
O -4.9676627235 -2.1248646346 -1.1240183661
H 0.5647744200 1.8943375625 0.9337426914
H -0.0475009305 1.7418094139 -0.7264108706
H -1.1819056267 1.8942621543 0.6269225050
H 0.7286035267 -0.4786675254 0.1696721805
H -0.4252146245 -0.3432326938 1.5087652403
H -0.4084236211 -2.4886063179 -0.3836372710
H -2.2971943420 -3.3956582383 1.1835690941
H -2.9215372457 -0.6922995381 0.9872685661
H -2.4337420628 -3.6004869010 -1.3405625137
H -3.4667578365 -0.7136523636 -1.4669468346
H -3.6756241859 -1.9797240194 -2.6721187635
H -4.9468576432 -1.9560665172 -0.1734407175