19

C 0.1086054430 1.4227308633 -0.0346297786
C 0.0766107609 -0.0292406991 -0.0142560494
C 0.0497369387 -1.2335034340 0.0013989147
C -0.0641654336 -2.6722214527 0.0296506934
O -1.1121186765 -3.2688078627 0.1132051257
O 1.1482119854 -3.2505387015 -0.0536511452
C 1.1821774842 -4.7054970254 -0.0461225286
C 2.4620756145 -5.0953280944 -0.7699876052
C 1.1169155596 -5.2109283381 1.3914225674
H 1.1338815073 1.8011361652 0.0306916040
H -0.3353184930 1.8059898954 -0.9598208190
H -0.4621521479 1.8372676879 0.8031992203
H 0.3042308600 -5.0553745116 -0.5962578353
H 3.3396765187 -4.7130689274 -0.2395256357
H 2.5417490691 -6.1848723886 -0.8279004020
H 2.4715482199 -4.6930056435 -1.7863718691
H 1.9574044750 -4.8215816730 1.9747040121
H 0.1818506160 -4.9037916640 1.8643688037
H 1.1651123288 -6.3043141455 1.4052534468