17

C 0.1089398093 1.5412055001 0.0480177667
C 0.0098004369 0.0209339547 -0.0071524009
N 0.7516830079 -0.5821226133 1.0829354408
C 0.8269097981 -1.9192106688 1.2645418423
N 0.2513652583 -2.7680423990 0.4913269079
C 1.6649485330 -2.2856114989 2.4795412437
O 2.1860328852 -1.4387271860 3.1757750069
C 1.8064022042 -3.7011838215 2.7593332249
C 1.9517790389 -4.8650655745 3.0307999969
H 1.1493613054 1.8732738857 -0.0340344738
H -0.4526562554 1.9875111040 -0.7765684778
H -0.3018770890 1.9309126625 0.9854879096
H -1.0377792948 -0.3028376419 0.0448867072
H 0.3953955314 -0.3598034109 -0.9617553756
H 1.2420709666 -0.0090714542 1.7511695208
H 0.4395640709 -3.7167618134 0.8120982806
H 2.0813639132 -5.8926400645 3.2722464497