22

C -1.4412133873 -0.4077405257 -0.2885196812
C -0.0212404602 0.1170210415 -0.0232791308
C -0.0263853353 1.6429157259 0.1141371931
N 0.6818719012 -0.4367733874 1.1482241507
C -0.0289195797 -1.0974433200 2.2453327446
C 0.8657837305 -1.8492879723 1.3327072788
C 0.5466186651 -3.0388548153 0.4188208902
O 1.7812818925 -3.6772974327 0.8008791539
C 2.1999063193 -2.5426758594 1.5945191668
H -2.1381297587 -0.0849437661 0.4920273948
H -1.8070388384 -0.0066936735 -1.2388535701
H -1.4854993089 -1.4985215091 -0.3558069397
H 0.6061081100 -0.1457697554 -0.8854628823
H -0.6202333487 1.9471762736 0.9832799567
H 0.9903902268 2.0178141422 0.2523771844
H -0.4596681594 2.1148391892 -0.7735292979
H 0.2973104508 -0.8272160011 3.2475119161
H -1.0970999069 -1.2850636142 2.1540015997
H -0.3323186165 -3.6427860380 0.6772912205
H 0.5228872770 -2.8121196336 -0.6560514379
H 3.0707543485 -2.0312661714 1.1639018667
H 2.4159814382 -2.8228316071 2.6327217727