20

C 0.0790901931 1.5252402468 -0.2159486234
C -0.0355602171 0.0437069208 0.1664431159
C -1.4650130369 -0.5100116299 0.1238493641
C -2.3758563740 0.1222535386 1.1718490622
C -2.0816541039 -0.7423893686 -1.3050834655
N -1.0669069451 -1.8717266403 -1.4764691229
C -1.5768706487 -2.0694357223 -0.0497579959
C -2.9721249428 -1.8353353086 -0.6707541012
O -4.0428898511 -2.3479738621 -0.7827896137
H 1.1249506597 1.8457528835 -0.1862523472
H -0.2899100471 1.7024154714 -1.2319263955
H -0.4811844807 2.1770266650 0.4613689643
H 0.5946540999 -0.5484275541 -0.4993760752
H 0.3507201317 -0.0990462106 1.1843191462
H -2.4809885859 1.1986060526 1.0075987271
H -3.3807294276 -0.3109154421 1.1638592991
H -1.9590854942 -0.0181252797 2.1751603797
H -2.2804537641 -0.0225662339 -2.0977124308
H -1.4295238756 -2.5989773676 -2.0988190070
H -1.1941389697 -2.8603624088 0.5941370297