18

C 0.1212554628 1.4821690850 -0.1539608346
C -0.0705432936 -0.0270809532 0.0351141308
C -1.5554158785 -0.3935455044 0.1409993647
O 0.5025944878 -0.7166162498 -1.0921509018
C 1.5491991863 -1.5902079874 -0.6985349938
C 1.6498455673 -1.4463234974 0.7883573073
C 0.7404888292 -0.5670312253 1.2123956601
C 0.5129240782 -0.1535566201 2.5498777856
N 0.2949837681 0.2110721792 3.6278698384
H 1.1826143692 1.7248679816 -0.2514671388
H -0.3941842173 1.8076040791 -1.0617986565
H -0.2875631580 2.0369467018 0.6960032209
H -2.0784212482 -0.0755951090 -0.7651633568
H -1.6769908273 -1.4743085761 0.2508299127
H -2.0185759684 0.0995465584 1.0010559332
H 1.3184582374 -2.6255745321 -0.9959242480
H 2.4897243204 -1.3151247499 -1.2019303723
H 2.3595448248 -1.9839657803 1.4032749290