15

O -0.0619860883 1.4152636622 0.0101152286
C 0.0071283500 0.0134470718 0.0019791205
C -1.4477720617 -0.5237056200 0.0130777364
C -1.4271735559 -2.0744775538 0.0045716768
O -2.7604491172 -2.5128969912 0.0144016280
C -2.1335550161 -0.0511143213 1.2298859968
N -2.6286503912 0.2905970643 2.2146265207
C -2.1567620880 -0.0381322300 -1.1851794949
N -2.6710699596 0.3135713030 -2.1564631094
H 0.8301190074 1.7745951157 0.0052975487
H 0.5039148573 -0.3763957266 -0.8983324504
H 0.5210044778 -0.3859199190 0.8883994387
H -0.8857502964 -2.3997948680 -0.8956247760
H -0.8693341123 -2.4093995921 0.8911138477
H -2.7757910259 -3.4745339450 0.0108335076