14

C -0.0343894810 1.4811080276 -0.0054513128
C 0.0022984941 0.0275949338 -0.0051591830
C 0.0315171465 -1.1778601552 -0.0047022005
C 0.0413266373 -2.5874264527 -0.0025929196
C 1.0909588075 -3.4584766548 -0.0700620102
O 0.6744203979 -4.7275307405 -0.0400991353
N -0.7226243046 -4.7457191333 0.0520159149
C -1.0768711629 -3.4862033827 0.0728836477
O -2.3549407317 -3.1012565260 0.1563896348
H 0.9772562589 1.9008790574 0.0116825817
H -0.5396039771 1.8662703745 -0.8982566127
H -0.5687372162 1.8645453723 0.8708841857
H 2.1565174133 -3.3052719013 -0.1406197256
H -2.9013428518 -3.8981300591 0.1939834449