16

C -0.2477882343 1.5304711853 -0.0015888796
C 0.0622142445 0.0561494089 0.0196120483
C -0.7114626068 -0.9169314294 0.9297295829
C 0.7548355756 -0.7216439268 1.1152642387
O 1.6089939666 -1.7091322291 0.5846890206
C 1.4029125891 -1.8026890424 -0.8171107669
C 0.5547347228 -0.5915172320 -1.2352052701
O 0.3853893916 -0.2094033905 -2.3657327607
H 0.6295939294 2.1147037778 -0.2963085247
H -1.0425281969 1.7397437859 -0.7241826990
H -0.5767649794 1.8798664470 0.9811388968
H -1.3832966797 -0.4417410090 1.6367481428
H -1.0694796575 -1.8579771465 0.5258642022
H 1.1614410517 -0.2571897142 2.0061150676
H 2.3679945321 -1.7836353748 -1.3338136634
H 0.8919803613 -2.7373056502 -1.0895367154