21

C -0.0611715076 1.4978250693 0.0155468803
C 0.0480953139 -0.0156802268 -0.0334558574
C 0.9233731335 -0.5722107514 -1.1820100835
C 1.1186457623 -2.0213371609 -0.7633816316
C 0.9542185345 -2.0821314108 0.7478004368
C 0.6610128802 -0.6691870524 1.2284022428
C -0.1111989653 -2.6494982540 -0.1567077088
C -1.4332939072 -1.9152893370 -0.2709422750
O -1.2942709735 -0.4971584931 -0.1989868469
H 0.9261454114 1.9518155841 0.1411359710
H -0.5066246277 1.8778708796 -0.9083499923
H -0.6977272984 1.8071844336 0.8495388321
H 0.4183946010 -0.4469955974 -2.1453027606
H 1.8857372947 -0.0488466996 -1.2294963745
H 1.8387508141 -2.6453836968 -1.2801591134
H 1.5519388870 -2.7514000080 1.3559559480
H 1.5861203399 -0.1595290909 1.5229071261
H -0.0401641856 -0.6165168606 2.0675652199
H -0.1953651849 -3.7308707950 -0.2093824091
H -1.9222024881 -2.1663428051 -1.2239726129
H -2.1130219045 -2.2367902466 0.5321439790