15

O -0.0861065219 1.3760011384 -0.0069996365
C 0.0251207491 0.0122753348 -0.0093504794
C -1.0416412110 -1.0334493346 0.0632104200
C -0.4930108297 -1.7651129229 -1.1571390559
C 0.8090981736 -0.9240978936 -0.9953967481
O 1.7626463027 -1.6521495422 -0.2162460348
C 1.2845408435 -1.7648509634 1.0700384889
O 1.8495342354 -2.3996562341 1.9124898073
C 0.0542998028 -0.9236434380 1.1690710940
H 0.7034114316 1.7547369183 0.3978725815
H -2.0749922377 -0.9343040299 0.3703727616
H -0.3589927750 -2.8492862277 -1.1104743262
H -1.0406459490 -1.4901878719 -2.0621205093
H 1.3006383953 -0.5170637774 -1.8755794932
H -0.2892689398 -0.6097785758 2.1451477602