20

C 0.4239647849 1.4107174322 -0.3339332597
C 0.0927909826 -0.0212036083 0.0220668453
O 0.8176867800 -1.0012502822 -0.7796021806
C 1.2777745896 -1.7103100268 0.3913925986
C 2.7781842995 -1.8527278836 0.4286073765
C 3.5599983065 -2.0902875489 -0.8021910762
N 3.6089616836 -0.7680389260 -0.1377476320
C 0.6701020368 -0.6305121297 1.3333489952
O 1.5634277416 0.1408056875 2.0902434747
H 1.4742608342 1.6462461667 -0.1412196697
H 0.2135223502 1.5918474749 -1.3923335147
H -0.1867798386 2.0965621251 0.2615167116
H -0.9866912536 -0.1975853687 -0.0770138979
H 0.7970800058 -2.6943153269 0.4790582688
H 3.1559857508 -2.2521156325 1.3676207066
H 4.4793967442 -2.6658814469 -0.7559240498
H 3.0156043147 -2.1539171779 -1.7396444850
H 2.9837323495 -0.1667081427 -0.6750402179
H -0.0894993547 -0.9930409275 2.0290338485
H 2.4037748023 0.2096289521 1.6201336977