17

N -0.1506876908 -1.1359933591 0.2436437130
C -0.0987025924 0.0089295795 0.0968052395
C -0.0122258580 1.4597839647 -0.1036135292
C 1.4080769987 1.9659198280 -0.0850237158
C 2.1427545521 2.4039610038 1.1518832718
C 1.9005233352 3.4007375202 0.0433145373
C 2.8378917950 3.1655186656 -1.1783682530
N 3.7630789220 2.0492631150 -0.8610126279
C 2.3747205248 1.7702055993 -1.2982535702
H -0.4992196905 1.6996387763 -1.0580148577
H -0.5976647501 1.9547947482 0.6793692980
H 1.5105841059 2.5460553224 2.0235970347
H 3.1406805370 2.0402238393 1.3573049141
H 1.3142442520 4.3003836163 0.1800079760
H 3.0740857024 3.8960667670 -1.9404417805
H 4.3652584942 1.9148476347 -1.6725459206
H 2.1645195725 1.1626537788 -2.1690984996