19

C 0.0046968380 1.5618109134 -0.0607754076
C -0.0270438609 0.0431592279 0.1262209464
C -1.4382800755 -0.5428374881 0.0171828781
O -1.9830135982 -0.2844027475 -1.2863705957
C -2.3385215387 -1.4631317730 -1.8868433661
O -2.8154388269 -1.5166662303 -2.9864622583
C -2.0270269562 -2.5770069021 -0.9473021303
C -2.3011217928 -3.9941085322 -1.3213951796
C -1.5110631784 -2.0368457952 0.1577098933
H 1.0277534223 1.9414393539 0.0130526918
H -0.3940834951 1.8390229467 -1.0398519900
H -0.5961044258 2.0671699150 0.7034092096
H 0.6070542630 -0.4490205165 -0.6201912542
H 0.3724653929 -0.2277561697 1.1116633563
H -2.0933817291 -0.0448228479 0.7475320338
H -3.3655181184 -4.1339714555 -1.5384982548
H -1.7626829327 -4.2600566500 -2.2372429289
H -2.0094827903 -4.6854659420 -0.5275886120
H -1.1710875971 -2.5546025168 1.0463959583