15

N -0.0827017749 1.2702448080 -0.2717037113
C -0.0247711808 0.0256262675 -0.0245273356
N 1.1449004261 -0.7162093176 0.1718796790
C 1.2919500256 -2.0968590885 0.2791337034
O 2.3888808535 -2.5908220770 0.3992963109
C -0.0004904699 -2.8882526359 0.2135545205
C -1.1950123759 -2.1156225676 0.7900532908
C -1.3326408877 -0.7580894360 0.1284642005
O -2.3772857389 -0.2973947613 -0.2463422142
H 0.8470923651 1.6914653678 -0.3412288628
H 2.0251937670 -0.2139725107 0.1670928797
H -0.1832116963 -3.1332448088 -0.8407514913
H 0.1672904423 -3.8323094991 0.7343364165
H -2.1340324639 -2.6585039957 0.6699190593
H -1.0386988914 -1.9498686051 1.8649543948