14

O -0.1247884894 1.3503039788 0.1024123676
C 0.0262441991 0.0014669816 0.0422923624
C 0.9308407254 -1.0131220926 0.8345232686
C 0.8155224574 -1.9875177898 -0.3286022190
C -0.1957631060 -2.0332968109 0.8035120947
C -1.1088458051 -1.0266085240 0.0420044677
C -2.5071627737 -0.8365847294 -0.0168989763
N -3.6558325350 -0.6887446713 -0.0566183958
C -0.0683809035 -0.9749291976 -1.1112885387
H 0.5505080138 1.7691483212 -0.4447504054
H 1.7204083816 -0.8851144666 1.5616068831
H 1.5138081193 -2.7396867499 -0.6681854532
H -0.4400513363 -2.8193270249 1.5040570357
H -0.2785325277 -0.8192869347 -2.1606162515