20

C 0.0561632269 1.4580025745 0.1474836127
C -0.1131153904 -0.0465952141 -0.0510533026
C -1.5925089532 -0.4232782182 -0.1757980531
C 0.7132175981 -0.5449739411 -1.2488770120
N 0.8746263635 -1.9905577283 -1.2875386654
C 1.4994870705 -2.4644914482 -0.0594962313
C 1.0445584551 -1.8210617806 1.2507013294
O 1.3154622731 -2.2923696130 2.3225801487
O 0.3726261126 -0.6493667034 1.1897286542
H 1.1102083292 1.7092030915 0.2950596514
H -0.3126896178 2.0033568102 -0.7268018513
H -0.5016296115 1.7927179969 1.0259990668
H -2.0524923428 0.0970697034 -1.0216846041
H -1.7213311773 -1.5002634962 -0.3233055757
H -2.1273189248 -0.1470135919 0.7361447386
H 0.2428279597 -0.2031674882 -2.1764898673
H 1.7135247707 -0.0946128796 -1.2073349204
H -0.0243807084 -2.4413031778 -1.4181087496
H 1.3700903633 -3.5437282528 0.0450444492
H 2.5835035735 -2.2891119331 -0.1163201582