21

C -0.1010307936 1.5245496664 0.1581203158
C 0.0158578000 0.0073996416 -0.0218699315
C 0.7495460314 -0.4727563177 -1.3125275573
C 0.0111641967 0.0030675228 -2.5865029149
C 2.2142786795 0.0255144545 -1.3424908378
C 0.7540591385 -1.9378242671 -1.2941416985
C 0.7514755569 -3.1487289269 -1.2678146621
C 0.7504973441 -4.5095412878 -1.2416451486
C 0.7488942685 -5.7171114880 -1.2172702461
H 0.8778309651 2.0096476940 0.2158272996
H -0.6626402602 1.9942802551 -0.6547600239
H -0.6299284298 1.7467643461 1.0900512021
H 0.5394301250 -0.4211873269 0.8402173245
H -0.9861004496 -0.4365457215 -0.0212898694
H 0.0352146982 1.0940101534 -2.6606584406
H 0.4873490113 -0.4073928669 -3.4810063150
H -1.0331364807 -0.3218919370 -2.5787818842
H 2.7518956171 -0.2832073251 -0.4414446661
H 2.7406737379 -0.3845391740 -2.2085902736
H 2.2484851554 1.1165532006 -1.4110314900
H 0.7480771082 -6.7783628457 -1.1967446323