23

C 0.0173579377 1.8211515825 0.9925742588
C -0.2201453703 0.3434214628 0.6595002791
C 0.7318120984 -0.5595583206 1.4262386594
O 0.4808074081 -0.5501512742 2.8607300953
C 0.4935571256 -1.9873133020 2.9147153607
C -0.9187664478 -2.6143406031 2.7894870127
C -0.6242402464 -2.9254803133 1.2855421056
C -1.6888554772 -2.6855052367 0.2227784691
C 0.7036451513 -2.1116921398 1.3795871091
H 1.0307473556 2.1316757858 0.7146801843
H -0.6887186707 2.4660857929 0.4610831023
H -0.1036046835 1.9938560408 2.0659315279
H -1.2526028490 0.0789296560 0.9044233715
H -0.0855445327 0.1683273751 -0.4157431248
H 1.7612147769 -0.2118105726 1.2425914401
H 1.1738897832 -2.3753780441 3.6773000678
H -1.1256982939 -3.4855562640 3.4165073589
H -1.6957573845 -1.8637488714 2.9565892291
H -0.3149849953 -3.9752311700 1.2154542321
H -2.1347317181 -1.6910398216 0.2920502167
H -1.2755955570 -2.7978924110 -0.7860405917
H -2.4995364350 -3.4153864696 0.3286499995
H 1.5791453046 -2.5661990818 0.9147054963