15

O 0.0478790159 1.3675834650 -0.1233231768
C 0.0702662643 0.0052772682 -0.0180040746
C -0.2311580164 -0.9178515937 -1.1948208255
O 0.4751402815 -2.1476623632 -0.9908219589
C 0.0606130111 -2.0434577587 0.4051360703
C -1.0851894529 -1.0328806711 0.0266203745
C 0.8905027917 -0.8535545580 0.9136198758
C 2.1962867308 -0.7229934361 1.5405910577
O 0.9684283774 -0.5202187774 2.2878814367
H -0.1280646683 1.7261132992 0.7560006540
H -0.4361280257 -0.5730102294 -2.2000260655
H -0.0123905137 -2.9878567812 0.9385246270
H -2.1459394836 -0.9718286781 0.2201908560
H 2.7615600860 -1.6113241190 1.8166752739
H 2.7876897518 0.1763134735 1.3782534752