21

C 0.1980020575 1.4876461354 0.2634204716
C -0.1870831408 0.0598289325 -0.1453441552
C 0.5954822804 -0.4626332028 -1.3270843633
C 2.0080869638 -0.9977353931 -1.1433115013
C 0.8872234456 -1.9293613194 -1.5266749383
O 0.3930181468 -2.8742431931 -0.6303873415
C 0.7157898653 -2.1899360376 -3.0155714785
O 0.8134625151 -0.9136515078 -3.6334022970
C 0.3007563042 0.0613084966 -2.7248791589
H 1.2605558555 1.5495257089 0.5207259977
H 0.0120600848 2.2018976240 -0.5459221288
H -0.3794398955 1.8158132493 1.1332203273
H -0.0415762081 -0.6240324169 0.6979062714
H -1.2588030180 0.0230694525 -0.3822058702
H 2.7684434458 -0.7593051437 -1.8810412921
H 2.3581706856 -1.0669207543 -0.1183366059
H 1.0815530341 -3.5282736238 -0.4713716135
H 1.4875483797 -2.8277951528 -3.4611697097
H -0.2676397868 -2.6597311841 -3.1807627225
H -0.7881923291 0.1870567820 -2.8494529946
H 0.7870760143 1.0115238383 -2.9688217166