21

O 0.0504825839 1.4234205470 -0.0306474504
C -0.0010497770 0.0086693493 -0.0117100547
C -1.4243505188 -0.4639364189 0.0223712096
C -2.4855595399 0.3452881851 0.0309911007
C -3.8657251483 -0.2750851154 0.0661966957
C -3.8726817616 -1.3970473430 1.1507139010
C -3.1625362364 -2.2785815476 0.0815096485
C -3.9133805967 -1.4276548333 -0.9846811575
C -1.6564737013 -1.9636279228 0.0483262399
H 0.9740284708 1.6876056305 -0.0535909869
H 0.5003979302 -0.4204991345 -0.8986452877
H 0.5353054527 -0.3982325383 0.8652300864
H -2.3672334196 1.4221734588 0.0133819983
H -4.6660289089 0.4663540427 0.0708230031
H -3.3499606627 -1.1946039054 2.0892093920
H -4.8829471189 -1.7612047481 1.3581043898
H -3.3403714837 -3.3567624558 0.1003527416
H -4.9306129990 -1.7970607042 -1.1429114529
H -3.4269171663 -1.2524678938 -1.9478329802
H -1.1920896997 -2.4349148387 -0.8308956949
H -1.1587474087 -2.4096338838 0.9224742988