20

C -0.0060219086 1.6061669986 -0.1271374894
C 0.0093240732 0.0767310100 -0.0546697196
C -1.3842282647 -0.5629605436 0.0994043879
C -1.3542314784 -2.1188650583 0.0684821887
C -2.1437430569 -2.5514639566 1.2922946319
C -2.4812582443 -1.3555265609 2.0620403676
C -2.0686469329 -0.2580867526 1.4139911400
N -2.4180889128 -3.7798829357 1.5166594100
O -3.1509415078 -3.9330729356 2.7110422301
H 1.0032907559 2.0010721557 -0.2776258962
H -0.6271772171 1.9568421407 -0.9590318276
H -0.3987075485 2.0538652301 0.7914620641
H 0.4688786747 -0.3230674588 -0.9673406667
H 0.6437304919 -0.2518537215 0.7786587818
H -2.0108065922 -0.1830311056 -0.7215464996
H -1.7772746212 -2.5324093908 -0.8501671992
H -0.3237123230 -2.4844269184 0.1370854262
H -3.0047050032 -1.3923377994 3.0065547849
H -2.2133205071 0.7566940231 1.7684190588
H -3.2817734668 -4.8860271003 2.7430411063