20

C -0.0130298065 1.5668541485 -0.0075539623
O 1.2728975209 2.1551107196 -0.0890190512
C 2.0711324588 1.6161918513 -1.1276138505
C 2.1297557854 0.0800568584 -1.0944397208
C 2.8076497238 -0.4921875834 0.1583933672
O 2.0998964528 -0.1865261509 1.3466867121
C 0.7304840633 -0.5413625021 1.2746898596
C 0.0387189768 0.0305570439 0.0293120837
N 0.7722743691 -0.4959165427 -1.1373342630
H -0.4777531233 1.9773080592 0.8953197347
H -0.6286673849 1.8730556527 -0.8743728916
H 1.6766048025 1.9276249640 -2.1132613889
H 3.0648276034 2.0611712711 -1.0085170957
H 2.6906826201 -0.2678742343 -1.9708433349
H 2.8927539264 -1.5838312138 0.0311997738
H 3.8111846835 -0.0750358018 0.2858027437
H 0.6176366333 -1.6376921143 1.2538729078
H 0.2682848347 -0.1589129065 2.1898048983
H -0.9882286879 -0.3549618545 0.0062529534
H 0.3058894779 -0.2002766343 -1.9921451752