21

C 0.1028519534 1.6197250213 -0.3671571547
C 0.2380717811 0.1196037041 -0.1968989689
C 1.4709092950 -0.6798432505 -0.4163635627
C 2.7326713111 0.0021994518 0.1320793333
C 2.1229367800 -0.0076273965 1.5741748672
C 2.0990703924 1.2524189763 2.4319279386
C 0.8207799771 -0.5991519418 1.0129982747
C 0.0729095324 -1.6714396177 1.6743482103
O 0.2893582939 -2.0660497334 2.7981822466
H 1.0346303877 2.1529604475 -0.1735398087
H -0.1970612726 1.8470477799 -1.3960227166
H -0.6630850325 2.0256064042 0.3012873872
H -0.6459948147 -0.4141663089 -0.5476795938
H 1.4765296291 -1.5527316354 -1.0588014085
H 3.6292844123 -0.6133032129 0.0426742925
H 2.9492848822 0.9863407878 -0.2952125271
H 2.6036850080 -0.8038815188 2.1499056758
H 1.6333214088 2.1017897312 1.9264641290
H 1.5437155898 1.0668121245 3.3569195532
H 3.1176049377 1.5465140720 2.7087973569
H -0.7308367520 -2.1294429547 1.0494860357