23

C -0.8538975886 1.1844708670 0.0486241913
C 0.0681782569 -0.0341032071 -0.0030135338
C 1.1363409636 0.0087224708 -1.1256154749
C 2.3311085622 -0.8427169685 -0.6182591444
C 1.9275351229 -1.3590354542 0.7865942665
C 3.1007139662 -1.6334169214 1.7279630385
C 0.8794413388 -0.3273314212 1.2901699782
C 1.5312994994 0.9183837257 1.8456042487
O 1.3606419896 1.3431372157 2.9613192569
H -0.2910424849 2.1126776375 0.1984010514
H -1.4130178979 1.2871304831 -0.8872531619
H -1.5795557978 1.1025381273 0.8642515233
H -0.5544861297 -0.9237213038 -0.1641772130
H 0.7283347189 -0.3603185524 -2.0709282344
H 1.4485873406 1.0427863176 -1.3087685114
H 2.5703965110 -1.6731563806 -1.2886233441
H 3.2386298213 -0.2328811817 -0.5487320573
H 1.3726255838 -2.2969397572 0.6542562714
H 3.7050004369 -0.7347189898 1.8952501158
H 2.7552976678 -1.9862081943 2.7050839595
H 3.7615188386 -2.4001001232 1.3101649742
H 0.2504460761 -0.7350483515 2.0872574903
H 2.2113623942 1.4538991325 1.1418040391