15

C 0.0672243154 1.4790942542 0.0328502395
C -0.0845739906 0.0001653766 0.0347729547
C -1.1347789720 -0.8418071130 -0.1555933906
C -0.5621086116 -2.1327735463 -0.0143114115
N 0.7248739055 -2.0713445722 0.2397895787
O 1.0340388187 -0.7233653192 0.2722496244
C -1.2803787966 -3.4404363239 -0.1288941991
N -0.4930634298 -4.5306969155 0.0512990890
O -2.4735251809 -3.4810186130 -0.3651980759
H 0.7814304997 1.7986127478 -0.7329060370
H -0.8947834261 1.9531488864 -0.1686979327
H 0.4371902093 1.8362835270 0.9993269310
H -2.1637503156 -0.6069775401 -0.3647635318
H 0.4898541072 -4.4305985722 0.2434092321
H -0.9093388526 -5.4440201667 -0.0128402709