16

C 0.0674732628 1.4782724594 0.0572131077
C -0.0506244250 -0.0034009180 0.0411060193
C -1.1209499716 -0.8641879333 -0.0850858265
C -2.5217063078 -0.5241193432 -0.1954760186
O -3.4286822433 -1.3397925774 -0.2342045632
C -0.5756204397 -2.2091579943 -0.0257704920
N -1.3297661386 -3.3561915767 -0.1878157867
C 0.7656443802 -2.0510275042 0.1389269979
O 1.0817205596 -0.7021383617 0.1791967147
H 0.7062919213 1.8274031556 -0.7615776201
H -0.9123127253 1.9466111903 -0.0482913922
H 0.5175290383 1.8246896996 0.9939991448
H -2.7511943895 0.5622497542 -0.2343659419
H -2.3192944093 -3.1943513701 -0.0522942119
H -0.9808387344 -4.1827495477 0.2725033357
H 1.5970987124 -2.7266245025 0.2340005730