23

C -0.1046044938 1.5340986559 -0.0531478728
C -0.0359660354 0.0323689880 0.1726511781
O -1.3201269943 -0.5096815363 -0.0675827100
C -1.3993899992 -1.9231741152 -0.0279746314
C -1.3442643057 -2.4957562978 1.3971608474
C -1.6394815431 -3.9996047842 1.3732142605
O -2.8847111129 -4.2854091878 0.7637881312
C -2.9299890663 -3.8402729070 -0.5805513595
C -2.7171934023 -2.3275256275 -0.6885800487
H 0.8737347928 1.9922407036 0.1206638628
H -0.4164183387 1.7535947268 -1.0781761487
H -0.8276826545 1.9906956801 0.6287225660
H 0.7011091881 -0.4269289371 -0.5080229682
H 0.2991100643 -0.1797843905 1.2000846952
H -0.5625395378 -2.3506151390 -0.6107523720
H -0.3653394447 -2.3250051566 1.8583055107
H -2.0967288643 -1.9841917570 2.0084717594
H -0.8288173606 -4.5317777796 0.8437796534
H -1.6935033774 -4.4038868841 2.3880327367
H -2.1678492120 -4.3713128002 -1.1783583324
H -3.9126395619 -4.1257449896 -0.9663517372
H -3.5366735234 -1.8051347244 -0.1821106026
H -2.7231105769 -2.0149828005 -1.7381508080