21

C -0.0227874562 1.5465741528 0.0956754506
C 0.1281858706 0.0402375741 0.1172512465
C 1.3724790724 -0.7414954666 -0.1992004161
O 1.3843449148 -1.7812404882 -1.1189532526
C 2.6447908950 -0.0487550481 0.3012467818
C 2.0386443397 -0.0416091309 1.7439816795
C 0.7937199223 -0.7713985861 1.2193891490
C 0.0604776068 -1.8629846694 1.9271243660
O -0.8555875321 -1.2777468373 2.8513244072
H 0.8806172578 2.0613442917 0.4328496086
H -0.2441570506 1.9040006022 -0.9165338961
H -0.8448678537 1.8612587123 0.7470605829
H -0.7517118369 -0.4878911626 -0.2491279141
H 1.1168040753 -1.4334219350 -1.9761015728
H 3.5094017537 -0.7117411338 0.2256896859
H 2.9007235960 0.9161471734 -0.1494219269
H 2.6170076398 -0.6533111382 2.4410074859
H 1.8714636019 0.9374314011 2.2014134609
H -0.4644832822 -2.4847010374 1.1843793358
H 0.7781014317 -2.5155849365 2.4505963657
H -1.2695995762 -1.9906414677 3.3476095224