16

C 0.1001937578 1.3563577359 -0.0024422492
N 0.0510741356 -0.0928562205 -0.0235651649
C -1.0819625770 -0.6272806574 -0.0086737042
O -1.1574393700 -2.0016965813 -0.0270428834
C -2.3979692520 -2.5825755645 -0.0104583338
O -3.4332830555 -1.9747084673 0.0192348485
C -2.2600056217 -4.0988942069 -0.0350609093
N -3.5084412910 -4.8349990995 -0.0204116252
H 0.6740647756 1.6838296434 0.8711232650
H 0.6383513234 1.7106078947 -0.8881999130
H -0.8884160388 1.8396263145 0.0249802729
H -2.0562131229 -0.1346290166 0.0188716760
H -1.6738759273 -4.3644012686 -0.9229821195
H -1.6386111254 -4.3894994719 0.8204281617
H -4.0453957652 -4.5716687718 0.8009862130
H -4.0780097858 -4.5484388724 -0.8115073447