21

C -0.0280199366 1.5315855633 0.0837287739
C 0.0086060676 0.0301812626 0.0211043423
C -0.9182824338 -0.8398390965 0.8331468664
C 0.5715179909 -0.9554616791 1.0341495722
C 1.3059515983 -1.7040414757 -0.1161750967
O 2.6231546226 -2.1100474014 0.0137513036
C 0.3929447449 -2.2156907241 -1.1985903367
C 0.7543699871 -0.7378343488 -1.1338893157
C 1.4363494660 -0.0332154445 -2.2721239660
H 0.9601852165 1.9725550851 -0.0869478332
H -0.7114609407 1.9513919700 -0.6649376515
H -0.3718906209 1.8663794359 1.0677625059
H -1.4325789682 -0.3064856137 1.6289543072
H -1.5149761569 -1.6405081979 0.4105540291
H 1.0616111654 -0.7360591768 1.9751205998
H 2.6286814097 -3.0060441117 0.3701659164
H 0.9335149281 -2.7349521265 -1.9858067321
H -0.6035453853 -2.6080770839 -1.0262839027
H 0.7150142120 0.3250981163 -3.0166334076
H 2.0145006933 0.8303568712 -1.9270164643
H 2.1303274299 -0.7102451538 -2.7790931402