19

C -1.4794108303 -2.2099944461 0.7550198626
C -0.6645174976 -1.1054309582 0.0767415844
C 0.4119059899 -0.4236583246 0.9744104191
C -0.2867101750 0.3531708225 2.1100121145
N -0.3260535335 -0.2532279609 3.3175499362
O -0.7977443300 1.4316756355 1.8656848207
C 1.4734555458 -1.4365739656 1.3948412799
N 2.5559649864 -1.4958913953 0.5756134162
O 1.3694168105 -2.1810186664 2.3627593075
H -2.0445735904 -1.8208624103 1.6065259421
H -2.1942219102 -2.6371314521 0.0451848128
H -0.8400655369 -3.0170678270 1.1228777788
H -0.1616631809 -1.5071974288 -0.8109939533
H -1.3281337571 -0.3056134627 -0.2664477724
H 0.8808063805 0.3566455253 0.3673378257
H 0.1499105978 -1.1375325075 3.4468780220
H -0.7788768232 0.2274199297 4.0771538635
H 2.6704785886 -0.8863560411 -0.2143722729
H 3.2721779456 -2.1748688567 0.7769348128