16

N -0.1471474486 1.3193749629 -0.0820785206
C -0.1473353864 -0.0476287538 -0.0454209889
C -1.1908790439 -0.9368212204 0.0149818693
C -2.6416831803 -0.5843933077 0.0198189694
O -2.9541927791 0.4300676780 -0.9466716432
C -0.5166213192 -2.1925399014 0.0888265959
N -1.1059579543 -3.4379477548 0.2484569864
N 0.7948412488 -2.0786235761 0.0618475037
O 1.0282065119 -0.6737087601 -0.0208836639
H 0.6938934517 1.7420660664 -0.4466058931
H -1.0085833592 1.7009267250 -0.4502661449
H -3.2606806753 -1.4806605997 -0.1365616877
H -2.9572017921 -0.1501294997 0.9757448663
H -2.6747853245 0.0926859084 -1.8053769536
H -1.9595209123 -3.5622313415 -0.2778995465
H -0.4554516772 -4.1943275054 0.0788220913