21

C 0.0807958903 1.4478990986 0.2127711064
C 0.0322318058 -0.0324016193 -0.0297558132
C -0.6977598740 -0.6866795103 -1.2087270422
C -1.2217407998 -1.7286721923 -0.1911089842
N -0.5657856661 -1.0231576797 0.9680215514
C 0.8965327008 -1.0039523593 0.6809504712
C 1.6395602404 -2.1434119340 0.0633818465
C 3.0433659908 -2.4001838015 0.4770379312
N 1.9750420721 -3.3213092425 0.8917848683
H 0.7755745799 1.9332633155 -0.4832676504
H -0.9063051629 1.9021174322 0.0730933449
H 0.4136372261 1.6667445621 1.2314909005
H -1.4930650882 -0.0500181542 -1.6026562464
H -0.0869679336 -1.0320622492 -2.0482284488
H -2.3050627518 -1.7083791023 -0.0600549696
H -0.9031740238 -2.7670953018 -0.3184266164
H 1.4177480561 -0.5805432809 1.5396852332
H 1.3644123361 -2.4112434743 -0.9520728926
H 3.7525817750 -2.8108515137 -0.2361384744
H 3.4831691505 -1.7372088929 1.2183907188
H 1.7131312063 -3.1340992502 1.8577327458