14

O 0.0489430870 0.0067753237 -0.1019186543
C -0.0202394060 1.1840482752 -0.0308139233
O -1.1527260559 1.9272707574 -0.1465266322
C -0.7802371580 3.3176724420 -0.1998393541
C -1.3915311199 4.3620461981 0.7303627679
C -0.1039315468 5.1962684329 1.0651197291
N 1.0326220841 4.2330818295 1.0445429718
C 0.5998774899 3.2647239651 0.3675453358
O 1.0877543064 2.0069955246 0.2129256545
H -0.8078536466 3.6292724551 -1.2513551978
H -2.1933991527 4.9500865954 0.2819566974
H -1.7664434994 3.8781823316 1.6371715458
H 0.0624681756 5.9933619397 0.3304074333
H -0.1541535374 5.6646355298 2.0502690461