18

C -0.5238279689 1.3526747117 0.0363789445
C 0.1563095406 0.0040149137 -0.0867017546
O 1.2661095237 0.0978790318 -1.0223189058
C 2.2500652847 -0.6557101262 -0.4864510166
N 2.1298335654 -1.1352556729 0.6803960007
C 0.8273322856 -0.6202328898 1.1967243538
C 1.1366661966 0.3864435556 2.3212622703
C 0.0033420298 -1.7098176848 1.7184125806
C -0.7094826672 -2.5774188434 2.1463362172
H 0.1597272307 2.1175174587 0.4117716236
H -0.8940716143 1.6731777193 -0.9411570639
H -1.3782739960 1.2802085212 0.7157726769
H -0.5412452570 -0.7291692779 -0.5051152801
H 3.1165143388 -0.7864179635 -1.1262477681
H 1.7445496139 1.2107193539 1.9386241747
H 0.2185945282 0.7881355671 2.7573798337
H 1.7028409912 -0.1215412315 3.1042912221
H -1.3236095558 -3.3567778530 2.5250109011