21

C 0.1736693404 1.3912248168 0.2593887823
C -0.1459548182 -0.0834353648 -0.0256749689
C -1.6575124446 -0.3172618802 -0.1608061170
C 0.5838028939 -0.5518690156 -1.2736709813
C 2.0201728040 -1.0096333421 -1.2199896418
C 0.9062456489 -2.0172037101 -1.4770973883
O 0.5297749932 -2.8581218042 -0.4161698530
C 0.7825579794 -2.5997806284 -2.7885329985
C 0.6957445368 -3.1145470044 -3.8726716590
H 1.2504272325 1.5521172577 0.3738233811
H -0.1750499565 2.0343571421 -0.5574365561
H -0.3191541963 1.7264930641 1.1779283044
H 0.2138601964 -0.6855938993 0.8156797709
H -2.0670672898 0.2402101940 -1.0118647156
H -1.8743872102 -1.3779788126 -0.3128201805
H -2.1868052283 0.0155876674 0.7382654070
H 0.2903683390 -0.0318038015 -2.1826625512
H 2.6924093645 -0.7624132772 -2.0334162125
H 2.4799138478 -1.0781204266 -0.2390897683
H 1.1095226780 -3.6277234695 -0.4333885228
H 0.6057002294 -3.5621888655 -4.8312836607