18

C -0.1943102687 1.5656486451 0.2315255209
C 0.1610099541 0.0834259094 0.0393970332
C 0.8576218174 -0.4977767603 1.2278685475
N 1.9585228688 -0.0426405850 1.8045830143
C 2.1679172093 -0.9148047781 2.8343746606
C 3.3543358877 -0.7547116195 3.7387688934
O 3.6599190982 0.6087150129 3.9476540263
N 1.2700328347 -1.8788475384 2.9344253222
N 0.4438688259 -1.5967875213 1.8926966350
H 0.7048882608 2.1447291290 0.4535253741
H -0.6551995334 1.9692326184 -0.6742124114
H -0.8943233014 1.6985448053 1.0616253757
H -0.7406764887 -0.5023572997 -0.1727285634
H 0.8153264315 -0.0245175163 -0.8337842890
H 3.1441414062 -1.2145289807 4.7087254681
H 4.2135426901 -1.2919923761 3.3018772694
H 3.4730216084 1.0553160214 3.1121634791
H -0.3625434208 -2.1755000461 1.7225543640