22

C -0.0447935179 1.5661680625 0.0057563269
C 0.0854602621 0.0446516310 0.0140345780
C 0.7602270464 -0.5233119266 -1.2507340996
C 0.9526935969 -2.0364211340 -1.1606547451
N 1.7628825128 -2.3800176469 0.0008434249
C 2.1222953765 -3.7872444304 0.0319334453
C 1.1317617453 -1.9637679278 1.2493493020
C 0.8039538091 -0.4717160190 1.2565100556
O 1.0658800538 0.2264260931 2.2077369946
H 0.9403195373 2.0395916641 -0.0513816921
H -0.6341501894 1.8973800143 -0.8547898966
H -0.5250457053 1.9228111389 0.9193126441
H -0.9204987217 -0.4047860294 0.0678803654
H 0.1558244533 -0.2762802248 -2.1303791978
H 1.7396330776 -0.0485122058 -1.3834947934
H -0.0372224520 -2.5399398976 -1.1334244229
H 1.4676144805 -2.4015166003 -2.0557551597
H 2.6590139398 -4.0521685974 -0.8843270312
H 2.7827031644 -3.9825015547 0.8825512533
H 1.2450304209 -4.4571227177 0.1217064794
H 0.1832011015 -2.5152315770 1.4391899258
H 1.8005764680 -2.1649431247 2.0898958331