21

C -0.0850340901 1.5613803723 0.0174468617
C -0.0047200076 0.0280691582 0.0100950662
C -1.4275025455 -0.5651561016 0.0239926907
C 0.8258922066 -0.4996006531 -1.2258677163
C 1.4924856206 -1.7688523471 -0.6822804660
O 2.9549432031 -1.9550705588 -0.6937460322
C 2.9719762807 -2.0966772139 0.7612463060
C 1.5834001202 -1.5109581802 0.7861839795
C 0.8475008997 -0.4833573302 1.1872855230
H 0.9120010708 2.0109168896 0.0659388587
H -0.5760918570 1.9274525923 -0.8911742333
H -0.6628845614 1.9247528890 0.8748090327
H -2.0154753247 -0.1986586344 -0.8251900725
H -1.4036569326 -1.6582082851 -0.0237688496
H -1.9567203222 -0.2853876529 0.9413944884
H 0.2075068330 -0.6558916434 -2.1150701489
H 1.6074071632 0.2266204940 -1.4715348522
H 1.0144004500 -2.6986923652 -1.0168869506
H 3.0601666990 -3.1518949891 1.0525028359
H 3.7707925893 -1.5166873835 1.2352504673
H 0.8842867550 0.0300492633 2.1419556013