16

N -0.1111213222 1.3990933038 -0.3058382942
C -0.0238904632 0.0150089043 -0.0853300991
C -1.0744170746 -0.8812370520 0.0276562182
C -2.5600555742 -0.6855855858 -0.0798335262
C -2.9566318539 0.0506174442 -1.2812363398
C -3.2616532413 0.6782222636 -2.2601837410
N -0.5008469234 -2.0876289426 0.3144479196
N 0.8340985503 -2.0399908839 0.3966854239
C 1.1322229815 -0.7633811857 0.1552167308
H 0.7480225056 1.7788140347 -0.6821652707
H -0.8779416099 1.6388740272 -0.9243849769
H -3.0603618341 -1.6626234002 -0.0744752547
H -2.9413480686 -0.1503996208 0.8019631540
H -3.5482750438 1.2133274828 -3.1316806383
H -0.9687164358 -2.9683915834 0.4448214872
H 2.1632078379 -0.4393750760 0.1607147371