14

C -0.0469876990 1.5316063288 0.0698306777
C 0.0239047565 0.0107007923 -0.0376670323
C 0.7383474319 -0.4591187651 -1.2873385517
O 1.2087687125 0.2746893232 -2.1213788300
C 0.8518201631 -1.9439649319 -1.4699836481
N 0.3886169942 -2.8422489709 -0.6445215912
O 0.7042097386 -4.0220468532 -1.1864742343
N 1.3962145179 -3.7824730765 -2.4065246808
N 1.4729919574 -2.5463394184 -2.5553576530
H 0.9536636195 1.9703478659 0.0880197183
H -0.5765045399 1.9606603351 -0.7843642325
H -0.5700539995 1.8227376644 0.9840947402
H 0.5343238269 -0.4345357187 0.8266679473
H -0.9755279101 -0.4441920249 -0.0328172299