13

N 0.0734266967 1.3573206059 -0.1664534853
C -0.0062494816 -0.0088768382 -0.0843189257
C -1.1429800681 -0.8053986772 -0.0242078647
N -0.6420534349 -2.1276637672 -0.0292131208
C 0.6940662908 -2.0214449980 -0.0832508466
O 1.4573024066 -3.1163831628 -0.0965272614
N 1.1277125256 -0.7788490748 -0.1164872082
C -2.4985183022 -0.4747191988 0.0382997880
N -3.6213195620 -0.1762659099 0.0954431574
H 0.9597863009 1.7386055208 0.1277383594
H -0.7269140974 1.8705312569 0.1704869172
H -1.1803571637 -2.9764125310 0.0025633303
H 2.3741199593 -2.8159823156 -0.1467972595