18

N -0.1656267878 1.2933509466 -0.0174376727
C 0.0543281133 -0.0557288519 -0.0391480524
O 1.1373116252 -0.5904679465 -0.0819003469
O -1.1320027555 -0.7138211460 -0.0458610285
C -1.0326691234 -2.1410707897 -0.0832638943
C -2.4308716260 -2.7000101619 -0.1992278427
C -2.5559625004 -4.2387610058 -0.1675731093
C -3.4721851720 -3.9910339680 1.0478350622
O -3.2022778284 -2.5736003087 1.0178659208
H 0.6312675078 1.8653089216 0.2033150363
H -1.0743763289 1.6269677639 0.2566046225
H -0.4262157035 -2.4501138484 -0.9425091445
H -0.5454578481 -2.5040194757 0.8277742466
H -2.9480231262 -2.2175421111 -1.0395868095
H -3.0158706207 -4.7020366369 -1.0408670203
H -1.6230831238 -4.7572547429 0.0655573944
H -4.5347233257 -4.2072729313 0.8785467833
H -3.1648790458 -4.4483157373 1.9952186252