21

C 0.8041642509 1.4965167447 0.0588570733
C -0.0685448941 0.2446483673 0.0126169329
C 0.4005421476 -0.8241150782 -1.0193329779
C 1.1033853774 -1.6059307885 0.1168429952
C 1.2535842193 -3.1341912459 0.1644901238
O 2.6897503790 -3.0440831908 0.2724558225
C 2.6437253759 -1.6069873738 0.2317034299
C 0.2447706998 -0.7994347632 1.1304202265
O 0.7841513861 -0.3942981112 2.3608642077
H 1.8748865988 1.2558407484 0.0732766180
H 0.6318865245 2.1206859436 -0.8235664583
H 0.5825758918 2.1007637707 0.9449870556
H -1.1200127299 0.5375786035 -0.0553883568
H -0.4313295663 -1.3877734519 -1.4519942449
H 1.0397906693 -0.4709148620 -1.8339389223
H 0.8056621712 -3.6217313503 1.0409545374
H 0.9420658417 -3.6699888187 -0.7424107773
H 3.1818017683 -1.1986938118 -0.6346437940
H 3.0552227066 -1.1646588218 1.1497863237
H -0.6547932348 -1.3713083724 1.3825561061
H 1.5467323169 0.1683659425 2.1909491186