23

C 0.0112315539 1.5600618922 0.1298658647
C -0.0196687068 0.0600675553 0.0827175220
C 1.1629229910 -0.7766942222 -0.3645842395
C 0.5926176345 -0.9756494947 1.0142318236
O 1.3442071889 -0.7320769359 2.1557409059
C -0.6982056718 -1.8255086501 1.0045167794
C -0.5777422008 -3.2834357763 0.5607622833
C -1.4228928539 -1.7248205506 2.3483184048
C -1.2854536442 -0.8032339687 -0.0411269320
H 0.9833876135 1.9194569740 0.4819487900
H -0.1687506785 1.9973442343 -0.8597042332
H -0.7544573905 1.9515727968 0.8093603093
H 1.0622032892 -1.5217492067 -1.1511019762
H 2.1101814045 -0.2447109741 -0.3683673822
H 2.0780588033 -1.3556159123 2.1766160654
H -0.0287873348 -3.8759150379 1.3025084836
H -1.5672869528 -3.7405703000 0.4451761154
H -0.0561412564 -3.3796146174 -0.3964551154
H -1.5097027712 -0.6848216184 2.6775095702
H -2.4313391136 -2.1469746129 2.2742243435
H -0.8813395408 -2.2696701616 3.1283496442
H -2.1907190542 -0.3084525897 0.3219662307
H -1.4819382584 -1.2053456232 -1.0410782574