22

C -0.4535499885 1.4008868549 -0.2779985501
C -0.1172247509 -0.0562846885 0.0102616991
C 0.9424268209 -0.6876194323 -0.9685244760
C 1.8762684411 -0.9129318580 0.2347585004
C 3.2620264932 -0.4194209543 0.5816619317
C 3.0797188740 0.1314953966 2.0324575668
C 1.5899881867 0.5898710840 2.1582539303
C 0.8796677647 -0.3077449525 1.1712160191
N 1.2387412458 -1.7229780538 1.2750850527
H 0.4522998302 2.0051397614 -0.4009267180
H -1.0378016473 1.4889227029 -1.2001132855
H -1.0403215127 1.8417413628 0.5353403838
H -1.0479203453 -0.6291647352 0.1105418893
H 0.6508940100 -1.5805000962 -1.5328225752
H 1.3264926977 0.0546973504 -1.6743197796
H 4.0474233482 -1.1804771679 0.5332901332
H 3.5392712274 0.3851830579 -0.1103010960
H 3.2658203647 -0.6742619529 2.7453152908
H 3.7809080644 0.9397886986 2.2588002663
H 1.2303562613 0.5110750903 3.1892036963
H 1.4777530602 1.6358154078 1.8505138283
H 0.5145856944 -2.3284397061 0.8961299520