15

C -0.0115210129 1.5337838818 0.1291239548
C -0.0040149998 0.0505017012 -0.0076011349
N -0.0664883924 -0.5355672199 -1.1746796696
O -0.0328189351 -1.9178970919 -0.8486729273
C 0.0456127595 -1.9663518591 0.4757128838
N 0.0973334891 -3.1590442315 1.1421302043
C 0.0818408954 -4.4555719628 0.6446904671
N 0.0123542602 -4.7319399558 -0.5885924856
N 0.0681541366 -0.8027382191 1.0688723264
H 0.8985223152 1.8721892898 0.6334378867
H -0.0745137129 2.0034642763 -0.8533687881
H -0.8627101311 1.8536734800 0.7375400061
H 0.1548376546 -3.0433323646 2.1415861477
H 0.1378834299 -5.1753801351 1.4692876765
H 0.0150456439 -5.7404241493 -0.7246255179