20

C -0.3868907492 1.5261043752 -0.4173510036
C 0.0629709377 0.1439596751 0.0589524257
N 0.9579783666 0.2716317104 1.2077026331
C 1.9577705364 -0.6062541977 1.4808882592
O 2.2395055664 -1.5789132330 0.8118474070
C -1.1365015957 -0.7194707750 0.4237316827
O -2.0230866813 -1.0769927888 -0.6353773491
C -1.3077891835 -2.1292278412 0.0385942671
C -0.3226773187 -2.9353683878 -0.7655556737
H 0.4702264591 2.1347851475 -0.7182982966
H -1.0616701914 1.4176386960 -1.2693891516
H -0.9302461480 2.0594177447 0.3726328380
H 0.6368920216 -0.3474386353 -0.7289637090
H 0.8056848933 1.0325403877 1.8515171655
H 2.5129043003 -0.3243654723 2.3980150700
H -1.6427621040 -0.3808889293 1.3333491731
H -1.9476026480 -2.7225760577 0.6954424122
H 0.1761080756 -2.3219290717 -1.5177040929
H 0.4449821298 -3.3589499379 -0.1127529815
H -0.8398259069 -3.7506303688 -1.2818415654