18

C -0.0214108982 1.5559603114 0.0092439997
C 0.0330986993 0.0404486838 0.0598165877
C -1.3077303877 -0.6132414884 -0.2471862896
O 1.0546709703 -0.4882218042 -0.8533893607
C 1.7007548116 -1.2246412608 0.1993173815
C 0.7491461914 -0.6362180740 1.2708322755
N 1.9023429719 0.0563436290 1.8356780649
C 2.8163284870 -0.3778874527 0.8840168473
O 3.9714148484 -0.1249718518 0.6922455190
H 0.9492332484 1.9943464619 0.2520484279
H -0.2961299437 1.8833328736 -0.9983386925
H -0.7706691765 1.9424916007 0.7083991441
H -1.6339955287 -0.3489300173 -1.2572481520
H -1.2339330133 -1.7033456598 -0.1889089119
H -2.0719323974 -0.2795828951 0.4632893939
H 1.8705483443 -2.2778597227 -0.0254969007
H 0.1465159945 -1.2095930000 1.9747042919
H 1.9456535486 0.8643902666 2.4417734940