19

C -0.0391302093 1.5036196969 0.0874397180
C -0.0284968695 0.0105145162 -0.0261139591
C 1.1216076107 -0.8343531336 -0.5569094684
C 0.6224149569 -1.9188610089 -1.4850400912
C -0.7246407121 -2.1735533121 -0.8248946319
O -1.6456145707 -3.0692566517 -1.3534179351
C -0.6348833525 -1.9532801327 0.6812901649
C 0.6010111480 -1.0481800804 0.8627924547
C -1.2698501707 -0.9024616420 -0.2192820931
H 0.9538603950 1.8808342773 0.3545322605
H -0.3298133212 1.9759662241 -0.8591516123
H -0.7416903687 1.8442422845 0.8570205593
H 2.0907454239 -0.3681032647 -0.6911853164
H 0.5049627250 -1.5769076718 -2.5191613770
H 1.2621350609 -2.8104264841 -1.4808457914
H -1.3213888815 -3.9617609902 -1.1897992332
H -1.1046289863 -2.5997439169 1.4099665321
H 1.2027345842 -0.9316846271 1.7548437027
H -2.3057284221 -0.6021949526 -0.3006754135