13

N -0.0360626587 1.3040878909 -0.5784247842
C 0.0063133031 0.1667911348 -0.0008181323
C -1.2377767160 -0.5131889368 0.3400465232
C -1.4512946470 -1.6579848828 0.9958985687
O -0.5817602739 -2.4508415819 1.6926689043
C 0.7207741877 -2.1485620079 1.9075521151
N 1.5260222327 -1.3838206438 1.3097844751
C 1.3363314572 -0.5515350825 0.2031955970
O 2.2479926117 -0.3366876544 -0.5580087608
H 0.9168178024 1.5787095436 -0.8381796268
H -2.1231779536 -0.0414519747 -0.0732097542
H -2.4455724710 -2.0774929010 1.0854438904
H 1.0662852754 -2.7421776135 2.7520124344