20

C -0.0149657500 1.4949680957 0.0214642505
C 0.0362546779 -0.0170037728 0.0173022189
N -0.7067337521 -0.7481868601 1.0904606765
C 0.7695539760 -0.7287915553 1.0970147139
C 1.4451615817 -2.0534065147 0.8163439589
O 1.5034194214 -2.8555705467 1.9911974071
C 0.7902323586 -2.8223072333 -0.3493303421
C 0.3670437133 -1.9421928869 -1.4960086310
C 0.0067979842 -0.6713052319 -1.3227663591
H 0.8035422549 1.9170550001 -0.5716719956
H -0.9562641676 1.8552372301 -0.4099924556
H 0.0673726885 1.8927752950 1.0379867439
H -1.0609778877 -0.0754188469 1.7678618012
H 1.2664577691 -0.1234694012 1.8530965441
H 2.4924476634 -1.8477185442 0.5642620142
H 0.5925901871 -2.9634715781 2.2903862162
H 1.4737340117 -3.6082034014 -0.6853791094
H -0.0968523506 -3.3361206430 0.0457308553
H 0.3187689577 -2.3906959261 -2.4845393258
H -0.3241499475 -0.0669652482 -2.1631587420