21

C 0.1674310175 1.6645337236 -0.0306058247
C 1.6909932432 1.4124233310 0.1405096012
C 1.3664729706 -0.0280016014 0.5966645888
C -0.0452742744 0.1261328949 -0.0275149632
C 2.2525049332 -1.2801916910 0.3385647213
C 2.2575779040 -1.6080014401 1.8555427515
C 3.3422632133 -0.8766411068 2.6639403237
O 2.5190035986 0.3072447396 2.7977332320
C 1.4159752615 -0.3283229780 2.1196777273
H -0.2689204487 2.1402521170 0.8518612334
H -0.1594182448 2.2143683381 -0.9159027087
H 2.2169705242 1.4212552904 -0.8197393878
H 2.2434498509 2.0268514686 0.8544687689
H -0.8922413650 -0.2777896217 0.5364740097
H -0.0787439529 -0.2834248723 -1.0424631786
H 1.7542351698 -2.0368671726 -0.2745682516
H 3.2385414098 -1.0832977199 -0.0950681787
H 1.9774031928 -2.6120600184 2.1702707971
H 3.5619255690 -1.3155374506 3.6456559562
H 4.2873243557 -0.6728574177 2.1439220895
H 0.4858597116 -0.2682873027 2.6943161827