20

C 0.0692204998 1.5711942499 -0.6436753971
C -0.0087962519 0.1945674265 0.0122382154
C -1.4491303514 -0.2970706980 0.1781391323
O -2.1113024802 -0.4274907464 -1.0634620043
O 0.6198670203 -0.8335816116 -0.7749116169
C 2.0259622447 -0.9131697455 -0.7403930012
C 2.4279639810 -2.3699196541 -0.9855088473
C 2.6596142441 -0.0347890198 -1.7539170431
N 3.1689958049 0.6318497127 -2.5486466059
H 1.1005074412 1.8877695516 -0.8129157735
H -0.4575875346 1.5581485625 -1.6002429673
H -0.4094989396 2.3128131348 0.0041188555
H 0.4696421967 0.2178884669 1.0046816172
H -1.4350475855 -1.2500879584 0.7288395881
H -2.0187112772 0.4278791607 0.7684448001
H -1.5584769130 -1.0022681615 -1.6054973476
H 2.3985671391 -0.5911902402 0.2441125848
H 3.5156366368 -2.4748461263 -0.9832813640
H 2.0020036708 -2.9948308404 -0.1975888553
H 2.0439402037 -2.7059507634 -1.9514002700