17

C -0.1593819716 1.5477371092 -0.1401918558
C -0.0715238852 0.0599479562 -0.0091161655
N -0.0865635174 -0.6806220787 -1.0934429087
O 0.0109739047 -2.0190900132 -0.6274766440
C 0.0701471054 -2.0020147607 0.7048457803
N 0.1254237706 -3.1991703790 1.3634426681
C 0.0261796427 -0.7149138197 1.1823190004
C 0.0848305419 -0.3183910981 2.6216258602
O 1.0673370197 -1.0716034606 3.3486166254
H 0.6958317627 2.0375506807 0.3379963401
H -0.1755481798 1.8271154975 -1.1952587709
H -1.0664151882 1.9338247640 0.3366663505
H 0.4723097988 -3.9767140427 0.8211570971
H 0.5239174654 -3.1164907377 2.2897179983
H 0.2666931997 0.7616832035 2.7153311655
H -0.8551137195 -0.5299102933 3.1451055054
H 1.9173985200 -0.9017196775 2.9271181033