14

C -0.0603165733 1.5213267006 -0.0448534574
N 0.2253498240 0.0609176600 0.1461531068
C 0.6786420337 -0.6878343833 -0.9619813391
C 0.7163486629 -2.0731339923 -1.2134944220
C 0.1547466132 -3.2015771878 -0.3948983678
O 0.2317476479 -4.4230518788 -0.6832324352
N 1.4113909084 -2.2606473578 -2.4580992563
N 1.7822698781 -1.0613895634 -2.9489550944
O 1.3187522732 -0.0011984604 -1.9938342535
H 0.8069840390 1.9819603851 -0.5483176346
H -0.9694047635 1.6999770810 -0.6542554046
H -0.1922617089 1.9800154518 0.9503875082
H -0.4972187135 -0.4477850744 0.7092978842
H -0.3610203713 -2.8333102102 0.5387397457