21

C -0.7297438546 1.2292588991 -0.0159354550
C 0.0294261513 -0.0888388977 -0.0218491387
C 1.2584171911 -0.2178102199 -1.0131650174
C 2.1697757663 -0.6152971107 0.1814622215
C 3.0067814627 0.4450921507 0.9552084783
C 1.8073824970 0.6340728251 1.9651747345
C 1.0163603941 -0.4138328255 1.1406256520
O 1.0426925614 -1.7787427630 1.6121567335
C 2.1507899494 -2.0674360794 0.6972071055
H -0.0547326999 2.0841965966 0.1035430195
H -1.2705151021 1.3704134501 -0.9582595432
H -1.4606083639 1.2637086693 0.7992592871
H -0.6682592103 -0.9234614043 -0.1345278142
H 1.1539100662 -0.9609765748 -1.8085531245
H 1.5417707164 0.7343483268 -1.4725492341
H 3.9353586372 0.0747514217 1.3983022583
H 3.2429891103 1.3368558268 0.3688441695
H 2.0085868411 0.3012050537 2.9852856163
H 1.3820031849 1.6403347367 2.0023726226
H 1.8762426642 -2.8351533015 -0.0376185272
H 3.0449510973 -2.3987537195 1.2403926358