18

C 0.0552691192 1.4256168600 0.0555971778
C 0.0593432723 -0.0777404461 -0.0755766270
O 1.0757671044 -0.7183374282 -0.2396403022
C -1.2739557254 -0.8340461053 0.0002633601
O -1.0497421723 -2.2038988093 -0.1864304202
C -1.9933774832 -0.5805228749 1.3384112957
C -3.2775570929 -1.4270679734 1.4297123911
C -3.9765868590 -1.2362415381 2.6973618032
N -4.5166086802 -1.0681891857 3.7051246261
H 1.0074091092 1.8274833202 -0.2926310903
H -0.7727417916 1.8732274391 -0.5022878232
H -0.0770408582 1.7015232026 1.1083444084
H -1.9111447584 -0.4445787374 -0.8145270027
H -0.0858914589 -2.2915781479 -0.2828319812
H -1.3260220082 -0.8492298987 2.1643199364
H -2.2418171036 0.4803974853 1.4416145491
H -3.9610689927 -1.1717015008 0.6111690850
H -3.0194143608 -2.4832818616 1.3109354538