14

C -0.0153082350 1.5130503288 -0.0579050173
C -0.0058366879 0.0245868495 0.0561643588
N -0.0357506867 -0.7524421206 -1.0349031541
N -0.0176286467 -2.0527037569 -0.6224219343
C 0.0235454693 -2.1171867851 0.7271461429
C 0.0320175097 -0.8235559595 1.1805335750
O 0.0740638502 -0.8759366508 2.5508764244
C 0.0873221078 -2.2216796801 2.8006711105
N 0.0589607503 -3.0163280046 1.7706121233
H 0.8818357349 1.9534382015 0.3902895139
H -0.0538172494 1.7972979526 -1.1110759774
H -0.8813469894 1.9469464900 0.4532816643
H -0.0362169185 -2.7852911532 -1.3094379903
H 0.1201846912 -2.5049538815 3.8414015302