23

C 0.0712728996 1.5861883122 0.0392479155
C 0.0188213503 0.0569567414 0.0113426819
C -1.4092111176 -0.5008416531 0.0543466276
O -2.1993418813 -0.0017813069 -1.0262207100
C -1.4356173676 -2.0345538080 0.0996898155
C -2.8508124339 -2.6086640932 0.2201432111
C -2.8800189072 -4.1459300403 0.1867145951
C -4.2924449035 -4.6825198896 0.2118471383
O -4.7210611407 -5.4725845490 1.0127813421
H 1.0994645359 1.9494876099 -0.0481408606
H -0.5156675169 2.0075537846 -0.7809633430
H -0.3428518461 1.9757638280 0.9756949609
H 0.5132868823 -0.3194721746 -0.8968786404
H 0.5843090151 -0.3560633448 0.8559610971
H -1.9118148606 -0.1130591107 0.9510618674
H -1.7699601980 -0.2708998249 -1.8467303990
H -0.9550588649 -2.4234861306 -0.8111918774
H -0.8191126297 -2.3789295536 0.9398627200
H -3.3060879400 -2.2584107272 1.1554358081
H -3.4660365497 -2.2033470938 -0.5909493492
H -2.4141324732 -4.4934445973 -0.7478639815
H -2.3254861906 -4.5839018596 1.0222711479
H -4.9474706218 -4.2747545489 -0.5950568875