13

C 0.0355819581 1.4038768371 0.0718057038
N 0.0330256858 -0.0503518237 0.0352023069
N -0.0822466200 -0.6422902361 -1.1523410892
N -0.0903567200 -1.9087363593 -1.2393183482
C 0.0225576523 -2.7193519388 -0.0804103506
N 0.0215217404 -3.9932114345 -0.1019107518
C 0.1419753910 -1.9660306991 1.1614628932
F 0.2507067213 -2.6245130785 2.2890975157
N 0.1480502677 -0.6878642241 1.2277946026
H 0.9719877812 1.7629332830 0.5062341522
H -0.0635421777 1.7541176988 -0.9540211615
H -0.8009810789 1.7617987154 0.6772470242
H -0.0720740811 -4.3066060002 -1.0718064673