18

C -0.0198676888 1.5482891172 0.0288727650
C 0.0273413156 0.0468133028 0.0051478805
C -0.8668992000 -0.8240299621 0.8413160512
C 0.6145965805 -0.9614249635 1.0292951672
C 1.2391510652 -1.7822852917 -0.1178937957
N 0.6289674068 -3.0726833005 -0.4620510931
C -0.1319786154 -2.8258782980 -1.4489018443
O -0.2231227901 -1.5668885259 -1.9654473607
C 0.6538003704 -0.7690838622 -1.1344854072
H 0.9397495167 1.9865847391 -0.2686737440
H -0.7866294115 1.9313251118 -0.6551827665
H -0.2582883354 1.9175935686 1.0314209791
H -1.3756075922 -0.2924758936 1.6397937067
H -1.4553115650 -1.6272286316 0.4090006960
H 1.0975003059 -0.7593087768 1.9779519705
H 2.3260407959 -1.8628626274 -0.0592032018
H -0.7526243809 -3.5548510334 -1.9599117807
H 1.3324268923 -0.2102674428 -1.7808002522