15

C 0.1640000036 1.5483852260 -0.0328368981
C 0.0377976481 0.0528173223 -0.0199800516
C 0.0469339123 -0.7189709677 -1.1574550688
F 0.1909442112 -0.1489920413 -2.3549441081
C -0.1023164464 -2.1044462599 -1.0780973979
N -0.2518380862 -2.7233567696 0.0846501136
N -0.2540188840 -2.0238035908 1.2121110854
C -0.1227363731 -0.6909964447 1.1734326639
N -0.2074846587 -0.0517373533 2.3921561404
H 1.0901450237 1.8770487796 0.4563425228
H 0.1755106388 1.9293934960 -1.0545100679
H -0.6705050843 2.0122134340 0.5047914144
H -0.0990685372 -2.7166803383 -1.9730303678
H -0.1384362410 -0.6861412210 3.1753576324
H 0.3117233532 0.8046673487 2.5031237674