20

C 0.2613103769 1.4112124425 -0.3341535035
C -0.1556930806 0.0381589722 0.1874912040
O -0.1293328975 -0.9665188156 -0.8585513386
C 1.1467706760 -1.6317073621 -0.8690061195
C 1.5962392120 -1.5837966094 0.5669551814
C 2.8753254310 -1.0981293486 1.2734979722
C 2.0141056254 0.0061379278 1.9880870732
C 0.7800488007 -0.5285819561 1.2322687483
N 0.6148547766 -1.9454483274 1.6062171878
H 1.2956940972 1.4069388469 -0.6924223871
H -0.3868366813 1.7028077951 -1.1643814945
H 0.1764721669 2.1671356830 0.4533769147
H -1.2032762673 0.0752750680 0.5106932875
H 0.9688110175 -2.6291676344 -1.2852166729
H 1.8753391404 -1.1163807328 -1.5139619680
H 3.3645812058 -1.8352186683 1.9134060875
H 3.6065185670 -0.6743489324 0.5811443308
H 1.9449096432 -0.0535166705 3.0761349101
H 2.3012355232 1.0180412242 1.6972564105
H -0.2179602631 -2.2919846223 1.1310536361