12

N -0.1645465647 1.2756010481 -0.1111356216
C -0.0433990290 0.0052133867 -0.0035788300
C 1.2042104183 -0.7521133959 0.0578933356
N 1.2893689696 -2.0257364623 0.1667699405
O 0.1007345804 -2.7462680719 0.2315776910
N -1.1295902427 -2.1550218657 0.1833380042
C -1.2144773217 -0.8717749895 0.0736986774
C -2.6119887684 -0.2959267114 0.0267428165
O -3.6077277407 -0.9666864233 0.0859435857
H 0.7504678472 1.7310233453 -0.1519038159
H 2.1599589781 -0.2327844954 0.0108911323
H -2.6284142863 0.8035150655 -0.0674634957