23

C 0.0093533426 1.4043654396 -0.1329322243
O -0.0101869350 -0.0067097730 -0.0971120629
C 0.7287503192 -0.6457664191 -1.1423339207
C 2.1858157961 -0.7886501574 -0.6809371566
O 2.2921557996 -1.5511393261 0.5036475648
C 0.0450300468 -1.9695653962 -1.4775400056
C 0.7855244661 -2.8149554140 -2.4975668882
C -0.7343426198 -2.6912548732 -0.4075117947
C -1.4657533687 -1.9852537715 -1.5242399109
H 1.0237039596 1.8156479688 -0.0318645596
H -0.4272137685 1.7877253552 -1.0669034231
H -0.5929470117 1.7549042310 0.7090024169
H 0.7125303083 -0.0091072481 -2.0434992326
H 2.7845334472 -1.2911835460 -1.4462112516
H 2.6165561628 0.2181190337 -0.5489207257
H 1.6057184831 -1.2153622658 1.0926112826
H 1.7232684682 -3.2088812950 -2.0927081882
H 0.1746466732 -3.6700643027 -2.8011951825
H 1.0200709289 -2.2412851795 -3.4031450037
H -0.7018426250 -3.7756343781 -0.4088770774
H -0.7905428874 -2.2427427903 0.5759523558
H -1.9898603236 -1.0726812060 -1.2664799000
H -1.9400023321 -2.5818687262 -2.2963754417