18

C -0.0607903894 1.5155092334 0.0123101735
C -0.0325297451 0.0156588813 -0.0350458652
C 0.7514291266 -0.8234195255 -1.0471717073
C -0.2288452962 -2.0085625088 -0.7434349053
N 0.2683331902 -2.8455116910 0.3411856131
C 0.4035997614 -2.0834985846 1.4963276855
O 1.0032457059 -2.4022728111 2.4979017476
C -0.3630940666 -0.8169016442 1.2269408197
C -1.1652000661 -0.9871832677 -0.0350388537
H 0.8991433826 1.9172103179 0.3561169430
H -0.2613553507 1.9346383873 -0.9802645576
H -0.8360805198 1.8797669056 0.6939373118
H 0.6035015060 -0.4306715082 -2.0579323879
H 1.8181332961 -1.0080928229 -0.8769023459
H -0.6051802376 -2.5908555745 -1.5821727073
H 0.9758478242 -3.5453531177 0.1656948449
H -0.7537631947 -0.2623067759 2.0699791004
H -2.2380397570 -0.8770847536 -0.1250430794