21

C 0.0099249670 1.5681746383 -0.1066088341
C 0.0448943077 0.0436068978 0.0424909743
C -1.3409005154 -0.5892434752 0.0488661299
C -2.1749802491 -0.6295236925 -1.2721273116
C -2.6330424851 -2.0773105509 -0.9102853777
O -2.5984738410 -3.0814744588 -1.8949219236
C -1.4784404918 -2.1172132806 0.0828441374
C -0.4431406324 -3.1468398612 0.1686867532
O -1.4026681395 -2.9484042564 1.2219827827
H 1.0195973334 1.9901321678 -0.1072730768
H -0.4755076355 1.8645148301 -1.0426992701
H -0.5454133464 2.0326574416 0.7157429367
H 0.6351668568 -0.3940073759 -0.7728012205
H 0.5606494786 -0.2207477620 0.9749668486
H -1.9421421356 -0.1581007621 0.8593307207
H -2.9508685085 0.1259037928 -1.4081694306
H -1.5270285399 -0.6538834884 -2.1532708092
H -3.5939991389 -2.0669577375 -0.3764344653
H -3.4324575249 -3.0716435435 -2.3739154594
H -0.5635239349 -4.0644784172 -0.4027657499
H 0.5807099456 -2.8710461661 0.4159073155