15

C 0.0706761389 -3.7121162468 0.1602293075
C 0.0451835531 -2.5070690038 0.0871596118
C 0.0170447557 -1.1495776465 0.0022767587
C -0.0055968971 0.0584240910 -0.0682419491
C -0.0299772697 1.5207567343 -0.1778677132
O -0.7323450946 2.1215503627 0.9149114945
C 0.1607300855 2.9135107099 1.6986789980
C 1.4580753086 2.9088594764 0.9425357439
C 1.3580266067 2.1292054330 -0.1250920536
H 0.0918627863 -4.7715051317 0.2264771693
H -0.5553042449 1.7857974476 -1.1091147708
H -0.2635417091 3.9214370026 1.8117324720
H 0.2677770287 2.4871209867 2.7085905941
H 2.3307353462 3.4654668599 1.2594586679
H 2.1177393457 1.9018880546 -0.8600310312