16

C -0.0234542575 1.3652670070 -0.5463506211
C -0.1240017678 0.0033232332 0.0853607617
O 1.0649085170 -0.7675981340 0.1984156587
C 0.4472863217 -0.3579859200 1.4104246409
C 1.1935941756 0.6458921786 2.2306207984
O 2.0520380323 1.3930127844 1.8514035092
O 0.7223701301 0.5899307360 3.5194501207
C 1.2664613993 1.4502130015 4.4441541471
N 0.8131405425 1.4117258193 5.6155646473
H 0.8525453901 1.9036224056 -0.1837264343
H 0.0546163831 1.2585737335 -1.6331354969
H -0.9250556085 1.9485546457 -0.3317208754
H -0.9981928944 -0.5837981026 -0.2039290102
H -0.0338450247 -1.1411705344 1.9920792824
H 2.0534366754 2.0783206171 4.0269046969
H 1.3015646359 2.0911982393 6.1972945946