21

C 0.5148231047 0.7510308185 0.1717618624
C -0.0642908061 -0.6566930510 0.3644691698
N -1.4681775428 -0.6896167350 0.0278169080
C -1.9971800804 -1.2563907392 -0.9894184902
N -3.3526981862 -1.2003196635 -1.1697259172
C -4.2232486324 -0.6745273270 -0.1437805649
C -1.3616331225 -2.0492482324 -2.1518435674
C 0.0809710214 -1.8408496365 -2.5556135837
O -2.0650163148 -2.8190512448 -2.7722564537
H 1.5453392524 0.8001365383 0.5380485945
H 0.5121835462 1.0414425660 -0.8843970986
H -0.0866434718 1.4831309238 0.7178077404
H 0.5595927392 -1.3891029323 -0.1632744324
H 0.0125128199 -0.9117203486 1.4299181089
H -3.7132642593 -1.8680784033 -1.8330396215
H -5.2550017088 -0.7165686546 -0.4996514462
H -4.1403515701 -1.2341622569 0.7979919980
H -3.9625962389 0.3648706353 0.0755515763
H 0.7373908124 -2.4659762668 -1.9405054048
H 0.1897136660 -2.1554482188 -3.5952905408
H 0.3990238518 -0.8037020612 -2.4338922968