13

N 0.0017522279 1.4075637909 0.1495167954
C -0.0204346605 0.0328341709 0.0543310405
C -1.1464727020 -0.7437951603 0.0234791487
F -2.3354780689 -0.1341310093 0.0195233418
N -1.1882870190 -2.0891539668 -0.0073563489
C -0.0453800898 -2.6992865172 -0.0177737269
N 1.1437734489 -2.0376445147 -0.0072584399
C 1.2647782450 -0.6427287483 0.0164081179
O 2.3513474884 -0.0840492695 -0.0032793170
H 0.8929537181 1.8028846514 -0.1181642844
H -0.8069161623 1.8908462818 -0.2089963391
H -0.0002636096 -3.7826280497 -0.0367476306
H 2.0172644538 -2.5468188392 -0.0320820174