20

C -0.0770463069 1.5568753048 0.0920105028
C -0.0844272385 0.0407508440 -0.1221568197
C -1.4507509660 -0.5911931920 0.0926572293
C -1.5284795165 -2.1108846262 -0.0967940118
C -2.7316052398 -2.5173176817 0.7792632946
C -2.8874165208 -1.3046965158 1.7530329179
O -1.8355891467 -0.4035866667 1.4644021655
C -4.2022428185 -0.6456814430 1.5973400713
N -5.2310295046 -0.1340860549 1.4723510425
H 0.9249461735 1.9687985507 -0.0593188636
H -0.7539531744 2.0586929256 -0.6079822472
H -0.4005188775 1.8054823783 1.1059490557
H 0.2409708356 -0.1989847634 -1.1419945661
H 0.6266413467 -0.4413877558 0.5599434338
H -2.1936304977 -0.0969104130 -0.5561762046
H -1.6566767496 -2.3981380471 -1.1428634477
H -0.6063658643 -2.5713977017 0.2718601478
H -3.6377543303 -2.6531005904 0.1862306275
H -2.5554889185 -3.4405887354 1.3333915047
H -2.7873566951 -1.6005428865 2.8018625175