14

O -0.2423086100 1.3982137850 0.0042756320
C -0.0243009555 0.0593012316 0.0096998293
C 0.0919670199 -1.0293195787 -0.9953219832
O 1.2180067658 -1.6516692526 -0.4202180737
C 0.9047188609 -0.9640010361 0.8235098907
C -0.3718043108 -1.6784259295 1.3256890091
C -1.0576423880 -1.0612849417 0.1054592634
C -2.4311321676 -1.0343628601 -0.2515212563
N -3.5508901594 -1.0136324178 -0.5466532645
H 0.4598318217 1.8320986811 -0.4959811490
H -0.1135258282 -1.1200394253 -2.0532025676
H 1.7705103697 -0.7691878836 1.4504209161
H -0.3158135485 -2.7671626070 1.3949575937
H -0.7500681000 -1.2418976456 2.2521441400