20

C 0.0397197069 1.5460844764 -0.0878969800
C -0.0098715821 0.0206649998 -0.0135548144
C 0.7511717679 -0.6933768484 -1.1665832744
O 1.7131039798 -1.5324494039 -0.4936885669
C 1.5503751186 -1.2942507355 0.8385024096
C 2.4830794971 -2.0521525619 1.7239555243
C 2.2623266223 -1.7738277212 3.2048548072
O 3.2132314759 -2.5549975822 3.9145221093
N 0.6479689368 -0.4792600102 1.2068726308
H 1.0769112744 1.8967999104 -0.1108271666
H -0.4673796826 1.9098119535 -0.9880876103
H -0.4485184009 1.9858013794 0.7856500508
H -1.0603569073 -0.2949189019 0.0097855029
H 0.1150397455 -1.3289879900 -1.7882263609
H 1.2947678522 0.0044079273 -1.8127287740
H 2.3697109549 -3.1245482410 1.5258245796
H 3.5155674470 -1.8060659204 1.4489102752
H 2.3867247669 -0.6999259081 3.4015389442
H 1.2311716671 -2.0352686123 3.4802543032
H 3.0876267994 -2.3942533598 4.8538842506