21

C -0.2877368547 1.0638333359 -0.0797767792
O 0.6506376977 0.0096477419 0.0398570252
C 0.9356936946 -0.6346278756 -1.1630875170
C 1.5015460606 -2.0130637669 -0.9768834251
O 1.6383809672 -2.4895171201 0.3264012274
C 0.1182215231 -1.8529524837 -1.5920958264
C -1.0830651741 -2.2785683344 -0.7747140088
C 0.0137334851 -2.0823186017 -3.0877562061
O -0.0039579019 -3.4538731329 -3.4556872569
H 0.0798965148 1.8450964935 -0.7603482429
H -1.2563211182 0.7033421526 -0.4497019259
H -0.4181443655 1.4927209159 0.9162273051
H 1.3383353175 0.0234107511 -1.9351253776
H 2.3067265121 -2.3423312991 -1.6288215796
H 1.4993204467 -1.7354475843 0.9135825630
H -0.9680751813 -2.0062077571 0.2747723372
H -2.0038406238 -1.8183039784 -1.1525939084
H -1.2101107533 -3.3670541245 -0.8071898354
H -0.8722580206 -1.5549598050 -3.4803177167
H 0.8883271159 -1.6604993354 -3.5955122850
H -0.7822751417 -3.8572900018 -3.0594698970