19

C -0.1856269955 1.5345054465 -0.0292114608
C 0.0945746621 0.0256206029 0.0297720961
C 0.7378114214 -0.4917731319 -1.2284009642
C -0.0074387981 -1.0090062809 -2.4334392060
O 0.0410079814 -0.5649713339 -3.7451567543
C 0.9395263104 -1.9571315826 -1.7320325952
C 2.4333075733 -1.6219098515 -1.9701765864
O 2.5551361311 -0.5261360179 -2.9090981053
C 2.2520733165 -0.2485670943 -1.5236051628
H 0.7364005376 2.1045963075 -0.1866210574
H -0.8653476010 1.7731106220 -0.8529220738
H -0.6389802565 1.8872004832 0.9021720200
H 0.7338885619 -0.1978066002 0.8955145482
H -0.8427636419 -0.5183622424 0.1983463894
H -1.0409172668 -1.2373790030 -2.1752369518
H 0.9744249459 -0.3885874643 -3.9253681079
H 0.6191706989 -2.8804805162 -1.2636196849
H 3.2759399183 -2.2980061740 -1.8975715404
H 2.9104059810 0.4370568011 -1.0032372826