19

C -0.0866388068 1.4792686210 0.0083151081
C 0.0222905952 -0.0207499847 -0.0454364949
C 0.6626728378 -0.7370425141 -1.2547542374
C 0.5972338287 -2.0826029579 -0.5176950310
O 1.5318291087 -1.7936475296 0.5368699872
C 0.7236030634 -0.8018455816 1.1907497630
C -0.4093666334 -1.7177694938 1.6840273742
C -0.8302419068 -1.9806890508 0.2274897197
O -1.2738146187 -0.6584156358 -0.1090846245
H 0.9079137501 1.9348536421 -0.0040420356
H -0.6482970946 1.8548350709 -0.8523642688
H -0.6039633734 1.8017913524 0.9171967281
H 0.0256329974 -0.6248226737 -2.1332892096
H 1.6992874777 -0.4833809707 -1.4812091487
H 0.8519109876 -3.0096047342 -1.0267776794
H 1.3102884743 -0.2156201120 1.8953887519
H 0.0030448426 -2.5607363233 2.2400380980
H -1.2260843429 -1.2434227718 2.2294251157
H -1.5888344269 -2.7248406824 -0.0054401457