19

C -0.0184921091 1.5630694443 -0.1155219266
C 0.0265558288 0.0532162537 0.0360832358
O 0.6675369759 -0.5242580463 -1.1284857588
C 1.4015260723 -1.6286519277 -0.8128797305
O 1.9396458833 -2.2964891492 -1.6483995258
C 1.4342425814 -1.8198577975 0.7000429690
C 2.7966837948 -1.4173904488 1.3265884168
C 2.2376473729 0.0202866921 1.5299366191
C 0.8003948445 -0.5131114738 1.2311636109
H 0.9864994893 1.9899348564 -0.1627374012
H -0.5504586737 1.8391320060 -1.0295527397
H -0.5447124492 2.0060788455 0.7360832899
H -1.0001623014 -0.3380075043 0.0579049876
H 1.0192595159 -2.7949032407 0.9620671296
H 2.9696571640 -1.9354449453 2.2724526282
H 3.6774089286 -1.5375622896 0.6926668561
H 2.3885545167 0.4707545349 2.5124193073
H 2.5987711144 0.7200329627 0.7725555947
H 0.1748503608 -0.6007643925 2.1204690977