17

N -0.0324799993 1.2495171888 0.3449684100
C 0.0006439973 0.0302392671 -0.0122730036
O 1.1872325723 -0.6241688376 -0.2161280251
C 1.1480774775 -1.8058563751 -1.0218520882
C 0.0636824229 -2.7692789487 -0.5957332819
C 0.1282867026 -4.1589073229 -1.1233185923
N 0.3545918092 -3.9138772128 0.3043470011
C -1.2193085511 -2.0734602840 -0.3506724870
C -1.2336956139 -0.7553380394 -0.1303934053
H 0.9181181995 1.6214112179 0.3990234809
H 0.9876938845 -1.5161800389 -2.0700283787
H 2.1419038583 -2.2555922477 -0.9394946957
H -0.7908440852 -4.6881952866 -1.3606763704
H 0.9733048840 -4.4179894037 -1.7581771407
H 1.3497353588 -3.9393747497 0.5169071306
H -2.1316816917 -2.6613404195 -0.3391509928
H -2.1469455557 -0.2007029973 0.0455632089