17

O 0.0547075660 1.3866077969 0.0140431031
C 0.0538287566 -0.0324975481 0.0042926229
C -1.4056261502 -0.4731921577 0.0944512446
C -2.1840443288 0.0758941858 -1.0985786157
O -3.3866138930 0.0947332738 -1.1732033167
C -1.5210293731 -1.9914464266 0.2171048466
C -2.7939587220 -2.7172733081 0.0068606939
N -1.6807817792 -2.8806328577 -0.9495465381
H 0.9515622774 1.6963706514 -0.1424295458
H 0.5041183678 -0.4303495911 -0.9199006737
H 0.6223154164 -0.4457005615 0.8503352531
H -1.8446653767 -0.0200037922 0.9929260072
H -1.5571230809 0.4574204143 -1.9345465651
H -0.8311561332 -2.3988751471 0.9549988107
H -3.0129427788 -3.5977878690 0.6041660597
H -3.6569656390 -2.1351996661 -0.3001646800
H -1.8799336293 -2.3379002671 -1.7874593365