16

C -0.0992686507 1.5390498405 -0.0736487280
C 0.0011171723 0.0198380970 -0.0305684422
N 0.9382107962 -0.4145699421 -1.1265893577
C 1.6134006462 -1.3138267947 -0.5457159786
O 2.9555046385 -1.1280470258 -0.1875625001
C 2.3059365401 -1.0575278065 1.1616811689
C 1.1728769691 -1.9177799557 0.8262043670
C 0.7109481336 -0.5709474853 1.2271406047
O 0.1966246746 -0.3724846232 2.4897926440
H 0.8955892377 1.9912275132 -0.0360873155
H -0.5873279518 1.8630762410 -0.9957285805
H -0.6955714963 1.9018186770 0.7723017293
H -1.0065449815 -0.4193880518 -0.0954547552
H 2.9797685460 -1.0122562628 2.0089261357
H 0.8777130725 -2.9242095114 1.0941232183
H 0.2489629935 0.5673870106 2.6974112000