22

C 1.3139795542 1.1569118176 -0.7231237258
C 0.8353748094 -0.2978112249 -0.7354335592
C -0.4966253750 -0.5404274260 0.0030693101
C -1.6904993676 0.1618635997 -0.6611377831
C -0.7630323858 -2.0300156704 0.0821410101
O 0.0781334403 -2.8145258566 0.9360651060
C -1.3202337342 -2.7440534672 1.2447053097
C -1.7124737188 -2.1071285179 2.5535985187
H 2.2895019948 1.2492658218 -1.2106939689
H 0.6223116687 1.8233313553 -1.2478049059
H 1.4206454600 1.5287425834 0.3023415748
H 0.7369057594 -0.6450690498 -1.7734222308
H 1.5969189100 -0.9332925554 -0.2694532387
H -0.3843924238 -0.1547500376 1.0232656154
H -2.6178102455 -0.0290258568 -0.1114114299
H -1.5467251974 1.2446642515 -0.7029709487
H -1.8331105877 -0.1943837089 -1.6884537130
H -0.9325011022 -2.4913945278 -0.8961444099
H -1.8538362686 -3.6730977661 1.0288267263
H -1.1708596532 -1.1769917904 2.7351485861
H -2.7874811144 -1.8961273680 2.5682259937
H -1.4961591526 -2.7899470354 3.3820698530