19

C -0.1269872758 1.4163453452 -0.0991250560
C 0.0570677236 -0.0799759910 0.0137445831
C 1.4278107926 -0.7048373190 -0.1464234164
C 0.7519258652 -0.7094659021 1.1893067964
C 1.1364176947 -0.0173239862 2.5093101543
C 0.1759974524 -1.0172274176 3.1843070730
O -0.5299994095 -0.9726231924 4.1507609443
C 0.1799395986 -1.9374459266 1.9475389146
O -1.0049003006 -2.5587915679 1.5486372375
H 0.7412422261 1.9565908236 0.2924837098
H -0.2554576300 1.7152368985 -1.1449423716
H -1.0091293518 1.7581404841 0.4541541303
H -0.7659326429 -0.6742736063 -0.3772694402
H 1.5123148592 -1.6463847663 -0.6806649063
H 2.2707814131 -0.0334926097 -0.2845439070
H 2.1805516124 -0.1693896769 2.8033107795
H 0.8786517379 1.0361623809 2.6414010957
H 0.9478924413 -2.7169863529 2.0414413028
H -1.7427910263 -2.0432288675 1.8940968964