19

O 0.1808083285 1.3612933569 0.0285156914
C 0.0505421247 -0.0535081683 0.0149587760
C 0.1715632712 -0.5843808878 1.4704217013
C -1.3973400246 -0.6607121183 1.5424952215
C -1.3844010412 -0.5557846513 0.0331070929
C -1.9981457673 -1.0554079782 -1.0291975613
C -1.2933690958 -0.9912664424 -2.3643544668
O -0.0384871393 -0.3213406541 -2.3267038365
C 0.7634678068 -0.6529310224 -1.1873160142
H -0.1060928596 1.6601037472 -0.8437108422
H 0.6370030048 -1.5714006398 1.5202014378
H 0.6674980359 0.0963522232 2.1638694012
H -1.8458759877 -1.5542021808 1.9838742989
H -1.8171961552 0.2242124919 2.0301035768
H -2.9433335659 -1.5918452452 -0.9867315789
H -1.1578189565 -2.0211829089 -2.7427764669
H -1.8899415445 -0.4566802620 -3.1131717593
H 1.7416437697 -0.1966831686 -1.3633073504
H 0.8814730759 -1.7424159311 -1.0892824513