20

O -0.5856801245 0.7679346193 0.8969410993
C 0.0403356177 0.9998578105 -0.1045504792
C 1.3280412820 1.7880550470 -0.1626940882
C 1.2175530991 2.9960100732 -1.1123890213
C 2.5391692173 3.7472336836 -1.2539597772
C 3.7409500496 3.1090920150 -2.0110301017
N 3.9074533065 4.3193291735 -2.8951543825
C 2.6525916452 4.4155924991 -3.6588173244
C 2.6462212369 4.8921066812 -2.2617538877
H -0.3162021297 0.6364256219 -1.0981993264
H 1.5958177959 2.0962708055 0.8523290729
H 2.1133872307 1.1124056002 -0.5330105571
H 0.8738036071 2.6542928559 -2.0968026312
H 0.4491745505 3.6839528693 -0.7371930540
H 2.8667560070 4.0871053872 -0.2664465342
H 4.6320210519 2.9596164769 -1.3991849533
H 3.5370408109 2.1894517381 -2.5726724336
H 2.6889773311 5.1702894122 -4.4385639863
H 2.1327056237 3.5021354645 -3.9407797191
H 2.5664363112 5.9467367058 -2.0162104748