15

C 0.3289876284 1.5415364556 0.1040664422
C 0.0595508117 0.0490691447 -0.1142927036
N 0.8107809394 -0.4272300794 -1.2672937955
C 1.6928761289 -1.3198756126 -1.1324413889
N 2.0087962071 -2.0167960124 0.0682132575
N 3.2078296997 -2.3461091696 0.2291721398
N 4.0623580670 -2.0270987781 -0.8003236566
N 3.5954293190 -2.1013760637 -2.1068553053
N 2.4043592281 -1.7709205298 -2.2824349856
H 1.3739448924 1.7123660280 0.3805506788
H 0.1209508053 2.1079617899 -0.8074717562
H -0.3048091336 1.9241346292 0.9093674702
H 0.2670660269 -0.5169995946 0.8007144611
H -1.0003761186 -0.0875203432 -0.3621737359
H 4.9585957482 -2.4882368341 -0.6996954920