14

O 0.1026323212 1.4306406052 0.1238686539
C 0.0556969824 0.0185523292 0.1866177199
C -1.3605271054 -0.5281178827 -0.0772551316
C -1.4244526172 -2.0159608303 0.0037881837
C -1.9457382932 -2.8583549212 0.9346165361
O -1.7273446272 -4.1179686193 0.5652450209
N -1.0218566521 -4.0487627065 -0.6766853766
N -0.8675308059 -2.8357724040 -0.9621266019
H -0.0131374242 1.6929424355 -0.7949300903
H 0.7655546910 -0.4495817147 -0.5103962804
H 0.3689556112 -0.2510251602 1.2005793640
H -2.0519778487 -0.0832938074 0.6444687771
H -1.6846272353 -0.2087615854 -1.0754909544
H -2.4774170565 -2.7009783281 1.8588237996