19

C -0.3724006517 1.4506552018 1.1932434439
C -0.0896366629 0.2879023639 0.2463942342
O 0.7617284819 -0.6561780690 0.9218561151
C 2.0411350415 -0.7758127872 0.5188884607
O 2.8155640371 -1.5193314005 1.0409773244
C -1.3549618358 -0.4301464981 -0.2112667390
O -2.1888727263 0.4145860815 -0.9624895909
C -1.3140751784 -1.8528835291 -0.6736440573
C -1.9916643893 -1.4967996577 0.6377011791
H 0.5575786079 1.9502864060 1.4776416522
H -1.0159804732 2.1875356773 0.7048254508
H -0.8638503068 1.0932283157 2.1029031409
H 0.4260982784 0.6593650453 -0.6500860723
H 2.2834877475 -0.1176062710 -0.3381558555
H -2.7343026451 0.9206917451 -0.3510348090
H -1.9498214561 -2.0918184793 -1.5178336913
H -0.3772002351 -2.3941512990 -0.6264774748
H -1.4937735742 -1.7860717511 1.5557131932
H -3.0755292895 -1.5229755745 0.6653880557