14

C -0.1855024966 1.4123071594 0.0388380377
N -0.1170040819 -0.0255736901 -0.0816750061
C 0.5878994739 -0.6026971001 -0.9803456986
C 1.4337242675 0.0005342012 -2.0275460733
N 2.1356838149 -0.6001172080 -2.9230898842
O 2.1196781128 -1.9833455912 -2.9362371784
C 1.3763844254 -2.6528673564 -2.0193165552
C 0.6373435306 -2.0498786535 -1.0771672280
F -0.0619732234 -2.7753476743 -0.2167891386
H 0.3995437862 1.9998768739 -0.6816739033
H -1.2340576189 1.7221777438 -0.0460757212
H 0.1388518464 1.6959481996 1.0473237351
H 1.5132174121 1.0794255803 -2.1013943689
H 1.4513009009 -3.7256439945 -2.1391219467