17

O -0.0603072472 1.4049946200 -0.0426594564
C 0.0010281162 -0.0022964956 0.0184728596
C 0.3448480115 -0.6091678320 1.4036948895
C -0.7527836031 -0.0250684195 2.3061176428
C -1.9635272035 -0.0500411466 1.3504352078
O -3.0966806358 0.2582702076 1.5984441225
C -1.4147946294 -0.6018441314 0.0249688775
C -1.0578731720 -2.0766497138 0.3196635144
O 0.0889906264 -2.0016829715 1.1934718017
H 0.8364276056 1.7522943701 -0.0019572591
H 0.6348357889 -0.4259385782 -0.7709222972
H 1.3702840410 -0.4960417254 1.7580573548
H -0.9343880169 -0.6255406482 3.2004398223
H -0.5475676460 1.0056891842 2.6083867263
H -2.0538503553 -0.4371404082 -0.8398466718
H -1.8693888475 -2.6225151583 0.8136364334
H -0.7849380528 -2.6143034132 -0.5963441482