16

C 0.1393851061 1.3649631278 0.1614270672
N 0.1916055791 -0.0826147976 0.1164787107
C 0.5143240643 -0.6356397326 -0.9981569674
N 0.8256972025 -0.0267470023 -2.1875501415
N 1.1641006153 -0.6525524276 -3.3558203423
C 1.1788044389 -1.9474436111 -3.2824252260
N 0.9019433460 -2.7352552347 -2.1986907672
C 0.5820261682 -2.1099018442 -1.0964270606
N 0.2904528664 -2.7641580699 0.0344157334
H 1.1119734019 1.8310395514 -0.0709278449
H -0.5996631734 1.7839182317 -0.5424976374
H -0.1460473294 1.6893312941 1.1648369895
H 0.8165593532 0.9776363345 -2.2541468867
H 1.4442560897 -2.4648661982 -4.1979623053
H 0.3059414415 -3.7685748992 0.0545577371
H 0.0481656298 -2.2069529721 0.8394962912