21

C 0.0399375530 1.6335786062 -0.0945122763
C 0.0250492570 0.1059085876 0.0256635875
C 0.7452626869 -0.6272671952 -1.1384059120
C 1.3779578666 -1.8908012634 -0.5095237220
C 1.4863080620 -1.5181865252 0.9566055476
C 0.7521345625 -0.4373501315 1.2355410093
C 2.2808773070 -2.2889273724 1.9290263652
C 2.5259796815 -3.7380285652 1.7960462350
O 3.5501932587 -2.8038288970 1.4782191543
H 1.0676082184 2.0120736233 -0.1236238672
H -0.4659070508 1.9599494175 -1.0094766329
H -0.4685030151 2.1059031850 0.7528728623
H -1.0279816625 -0.2159832647 0.0705634193
H 0.0785254540 -0.8531518747 -1.9749007586
H 1.5401782207 0.0221910151 -1.5227817355
H 0.7291587991 -2.7697538462 -0.6341131776
H 2.3472117020 -2.1525721834 -0.9443857288
H 0.6507331180 0.0031049672 2.2231332133
H 2.3134325361 -1.8718988724 2.9358614871
H 2.6903996983 -4.3333801762 2.6938281760
H 2.1066514065 -4.2806425246 0.9503368638