17

C 0.1131000596 1.3409217221 -0.3292077409
O 0.0055072148 0.0286873957 0.2111168539
C -1.2726413114 -0.5537382431 0.1411808702
C -1.1865128127 -1.8519558969 -0.6911290063
C -0.8069802439 -1.5757901780 -2.0738726741
N -0.5208424367 -1.3379995360 -3.1675505017
C -1.7548413534 -0.8758193312 1.5726756065
C -1.9219981511 0.3387355401 2.3658954813
N -2.0634320287 1.3105463417 2.9742749007
H 1.1537910364 1.6430523036 -0.1979931703
H -0.1296907510 1.3540667733 -1.3990057063
H -0.5333955340 2.0477927079 0.2055661122
H -1.9909152225 0.1269955153 -0.3326481378
H -0.4363723639 -2.5116406226 -0.2412771515
H -2.1451912123 -2.3823853778 -0.6848082162
H -2.7060244064 -1.4191199243 1.5497015615
H -1.0137910327 -1.5194476099 2.0593539487