19

O 0.0483902173 0.0573525925 -0.0426482397
C 0.0255960004 1.2594359250 -0.0042862258
C -1.1986774143 2.1967421018 0.0100935362
C -0.4428429975 3.5257877237 0.0619433297
C 0.7330992271 3.3682833961 -0.9569501108
C 1.6790681572 4.5368591860 -0.6590050383
C 1.6596420600 4.4872309018 0.8984663954
C 0.7074599672 3.3028200835 1.0977622065
C 1.1787577910 2.2328937768 0.0410075887
H -1.8099631234 2.0623609733 -0.8882584678
H -1.8322979772 2.0059640100 0.8823834297
H -1.0269428981 4.4478801272 0.0840235028
H 0.5340688669 3.1281456184 -2.0033574771
H 2.6772318224 4.3817261769 -1.0778328618
H 1.2941263360 5.4811162744 -1.0562992419
H 2.6471814600 4.3049441911 1.3313079266
H 1.2641849289 5.4045923937 1.3453499230
H 0.4825899443 2.9967380791 2.1214786555
H 2.1870668518 1.8204416288 0.0404364288