23

C 0.1011730676 1.5460610638 0.0508829121
C -0.0212906255 0.0115314822 0.0301572807
C -1.4855055441 -0.4577402126 0.0270842797
C -2.3091399441 -0.0630010747 1.2500996473
O -3.5989750805 -0.6366730399 1.0876554294
C 0.7584764432 -0.5590058526 -1.1917043615
C 2.1465987112 -0.9445734411 -0.6213390881
O 2.1529009898 -0.5485113989 0.7469645766
C 0.8077659727 -0.5880561367 1.1883027563
H 1.1544856806 1.8413471186 0.0359609487
H -0.3902910266 1.9908665074 -0.8211850751
H -0.3492547425 1.9821474166 0.9482599832
H -1.9957811141 -0.0732283373 -0.8645462330
H -1.5142565568 -1.5518470905 -0.0486561452
H -1.8260658740 -0.4337364292 2.1690258568
H -2.3746708142 1.0320411210 1.3352070804
H -4.1403507797 -0.3762595203 1.8384078834
H 0.2505593250 -1.4365266437 -1.6013323520
H 0.8321878426 0.1780863984 -1.9955871910
H 2.3143424334 -2.0292941375 -0.7030611233
H 2.9798047324 -0.4374924156 -1.1161060988
H 0.7486915463 -0.0183915727 2.1200371773
H 0.4885231373 -1.6254584448 1.3934006163