16

N -0.0823141325 1.4036987191 0.1546332033
C 0.0456140675 0.0186769094 0.0435732811
N -1.0373986441 -0.7621160672 0.0222994739
N -0.5537754062 -2.0442985387 -0.0063672239
C 0.7886809689 -2.0684191253 -0.0202037732
C 1.2295942775 -0.7590062107 0.0152584006
C 2.6901403595 -0.7783732943 0.0171313279
C 3.1138666711 -2.0582135631 -0.0183041152
C 1.9368071859 -3.0320865507 -0.0435641574
H 0.5755132044 1.9117476363 -0.4213697214
H -1.0290317790 1.7018405503 -0.0450004800
H -1.2124342447 -2.8024964594 -0.0177306794
H 3.3310677882 0.0936495591 0.0467486477
H 4.1421159084 -2.3939628206 -0.0255158871
H 1.9490672223 -3.7077661183 0.8215151077
H 1.9507501928 -3.6679453957 -0.9383654145