17

O -0.0938388942 1.3458157727 0.0261156024
C 0.0567811903 -0.0466173445 0.0118550611
C 1.0399436518 -0.6703154364 0.9741168796
C 1.3347960221 -1.9022887541 0.5400245236
C 0.5544728990 -2.1649070130 -0.7233798300
C -1.0004256898 -2.1677678692 -0.5268527455
C -1.2265195549 -1.0522827887 -1.5115372290
C -1.3254015837 -0.7583205821 -0.0388306061
C 0.3090929453 -0.7619122158 -1.3624491344
H 0.7787252339 1.7360675751 -0.0951246419
H 1.3502387940 -0.2067639425 1.9036946106
H 1.9444073311 -2.6376738465 1.0522952982
H 0.9119622821 -2.9564748659 -1.3824848362
H -1.6365368951 -3.0122129272 -0.2944941519
H -1.9268686273 -0.9323769083 -2.3237744958
H -2.1948157093 -0.5350562626 0.5652554388
H 0.9883605246 -0.3335529308 -2.0994644835