19

C 0.0503567898 1.5483943363 0.1686195358
C 0.1396933707 0.0548369242 0.0488957474
C -0.8714027424 -0.8736300081 0.6629522797
C 0.5802797527 -0.8903896133 1.1373065025
C 1.4658374944 -1.8834993793 0.4520355371
C 2.6983116293 -2.4244928958 1.0325487046
O 1.5305879637 -3.2434353527 0.8799830983
C 1.2652080876 -1.6436466679 -1.0494229415
O 0.7112634173 -0.3418178687 -1.1840270387
H 1.0410915636 2.0038267774 0.0747936749
H -0.5880716882 1.9568108533 -0.6215410889
H -0.3769813718 1.8330426110 1.1336925311
H -1.5977943737 -0.4415234866 1.3426996316
H -1.2389153976 -1.7194569160 0.0919584150
H 0.8262226325 -0.5572075147 2.1382789711
H 3.5366346500 -2.6790366175 0.3844020209
H 2.9672104130 -2.1826108403 2.0606118052
H 2.1947452642 -1.6864917566 -1.6247749813
H 0.5836913149 -2.4103988947 -1.4449863346