16

C 0.0763002043 1.4913585300 -0.0876604067
C 0.0371812420 0.0016179847 -0.0994063486
C -0.1917325656 -0.8902434600 -1.1306576996
O -0.4871100449 -0.5186789672 -2.4185835690
C 0.2057280169 -1.1253785322 -3.4180316613
N -0.1166596315 -0.9045459377 -4.6148854763
C -0.1271816916 -2.1802068633 -0.5609484662
N 0.1341951519 -2.1076801576 0.7408079332
N 0.2217710424 -0.7874743276 0.9919808987
H 1.0299209464 1.8713608539 0.2954345269
H -0.0524156985 1.8611216296 -1.1069252359
H -0.7244712386 1.9173870003 0.5274422881
H 1.0145866821 -1.7658761685 -3.0464692771
H 0.5034369539 -1.4140086482 -5.2409180900
H -0.2654865106 -3.1384134322 -1.0387847675
H 0.4054154314 -0.4863041241 1.9343726913