20

C 0.3452095193 0.7892729923 2.6563023300
O -0.0293286506 -0.4973422291 2.2102701807
C 0.7017044066 -0.9875871696 1.0999840341
C 0.4618057490 -2.4852646739 1.0087370493
C 0.3562178339 -3.3135739188 2.2302610405
N -0.8380387592 -3.0494117806 1.4021759241
C 0.2722590414 -0.3036772728 -0.1893375572
C 1.0433951942 0.7905281985 -0.7944090279
O 1.1251633734 -0.5375656572 -1.3108299851
H 0.1219062405 1.5687325816 1.9157998901
H -0.2297264010 0.9914126040 3.5629719836
H 1.4177045015 0.8337198396 2.8978620322
H 1.7811985511 -0.8062243995 1.2386135586
H 0.8848936149 -2.9219456360 0.1073143935
H 0.7069326303 -4.3415791204 2.2180087959
H 0.4319382569 -2.8062262103 3.1869000886
H -1.3750933183 -2.3139344236 1.8577799900
H -0.7945700197 -0.3734795034 -0.4064457456
H 0.5438316307 1.5130378591 -1.4380018684
H 1.9435070752 1.1529963500 -0.2987187170