12

N 0.0766898662 1.3117432930 0.1347783721
C -0.0733224217 -0.0301650833 0.0487482051
N -1.1759945547 -0.7117871242 0.0280177691
C -0.7172328080 -2.0301057127 0.0044067568
C -1.0082001830 -3.3541995062 -0.0267022032
O 0.1633264829 -4.0548446384 -0.0449479480
N 1.2763174240 -3.1857902643 -0.0260309275
C 0.6929482661 -2.0267725867 0.0034205391
O 1.1302189790 -0.7374284822 0.0326413884
H 0.9549630229 1.6958115754 -0.1745121931
H -0.7482843562 1.8535601898 -0.0665093173
H -1.9030888275 -3.9534091202 -0.0389645616