16

C 0.2565231637 1.5185874892 -0.4815161945
N 0.0597306492 0.1207227309 -0.1136730444
C 1.2396463049 -0.7169196542 -0.0089787866
C 0.4812075349 -0.3437351468 1.2238477176
C 1.0668500148 0.5532458187 2.2404343259
N 2.1685802670 1.2477449598 2.0888474348
O 2.3370734838 1.9517202002 3.2479805157
N 1.3388234498 1.6882845022 4.1408669707
C 0.5545509829 0.8384208910 3.5421448429
H 1.1860108354 1.9614291025 -0.0980775641
H 0.2673631578 1.5789811296 -1.5737589823
H -0.5899023484 2.1084817101 -0.1165295785
H 1.1505936915 -1.7253471586 -0.4044249637
H 2.2152758072 -0.2510405083 -0.1350819820
H -0.2089249608 -1.0671187252 1.6509691304
H -0.3295554337 0.4561330989 4.0287073281