18

C -0.0014195782 1.6202878386 -0.2079963321
C 0.0535026958 0.0995067870 -0.0347595356
C -1.3235625038 -0.5464769494 0.1694536652
C -1.3355455120 -2.0897793581 0.0632456370
N -2.3276599329 -2.5112189644 1.0428765784
C -2.6991212369 -1.5739036646 1.9631098067
O -3.4254563550 -1.7165929211 2.9175978277
C -1.9794627757 -0.2763055079 1.5214546991
O -1.9567811743 0.7356865044 2.1678474988
H 1.0033841897 2.0287966990 -0.3503035840
H -0.5991202302 1.8931041706 -1.0851382229
H -0.4487798030 2.0947201962 0.6674309275
H 0.5197256487 -0.3576518903 -0.9170707073
H 0.6943339856 -0.1566984480 0.8182710492
H -2.0228222435 -0.1467765043 -0.5798013144
H -1.6047826504 -2.4329114849 -0.9404827969
H -0.3440097576 -2.4990648333 0.3002973819
H -2.6116317564 -3.4728349192 1.1510158318