17

C 0.0153886845 1.4998372822 -0.0676624249
C 0.0236037236 0.0453903062 -0.0195689132
C 0.0145747876 -1.1589488262 0.0135273369
C 0.0505208093 -2.6158057932 0.0382065417
N 1.0002979541 -3.2325024701 -0.8905449397
C 0.0574993218 -3.2576512390 1.4595800969
O -1.2579264738 -3.8465965052 1.2098836294
C -1.3117105803 -3.3150474619 -0.0517495441
N -2.1593064965 -3.4088428380 -0.9670344456
H 0.7143615154 1.8760228141 -0.8226280861
H -0.9810373046 1.8788429679 -0.3193595451
H 0.3027618350 1.9321541723 0.8969587783
H 0.5902554157 -3.2073552715 -1.8209487202
H 1.8445845024 -2.6680239616 -0.9320320939
H 0.8154936926 -4.0310142815 1.5920572169
H 0.0218277119 -2.5651732598 2.3017384826
H -2.9473433086 -4.0000075149 -0.6980713698