19

C -0.0559978356 1.5613308192 0.0003855937
C 0.0935014154 0.0537830016 0.0820416885
C 1.3311599621 -0.7263504916 -0.2271756130
C 2.5918251451 -0.0109367140 0.2607650106
C 2.0425303869 -0.0821707559 1.7281428886
O 1.9897671242 1.0597050114 2.5434888735
C 0.7386529947 -0.7295180484 1.2190099038
C 0.0367358331 -1.7548077385 1.9132349394
C -0.5440660041 -2.6178190799 2.5203174660
H 0.8703416937 2.0993791300 0.2181529580
H -0.3600316532 1.8552059559 -1.0102521801
H -0.8289614852 1.9160129616 0.6910794519
H -0.8020528892 -0.4667274110 -0.2506031120
H 1.3219764726 -1.5606324314 -0.9173181580
H 3.5053377443 -0.5943778847 0.1325405467
H 2.7649049236 0.9917320958 -0.1404821305
H 2.6128626771 -0.8186210508 2.2984376526
H 1.3296363325 1.6621224322 2.1897159387
H -1.0548415679 -3.3793382713 3.0550382915