17

N -0.2190145611 1.4134738049 0.0791240133
C 0.0899965022 0.0594918432 0.0309644984
O 1.2278658947 -0.3604725404 0.0165030102
N -1.0321244784 -0.7553993572 0.0470547137
C -1.0109432178 -2.1471193855 0.0509645596
C -0.0019118234 -3.0167914479 -0.0003047950
C -0.5618785713 -4.4090514728 0.0100036193
O -1.9841827652 -4.2569417646 0.0927096626
C -2.3262696381 -2.8862159497 0.0993931524
H 0.5820645760 1.9939466806 -0.1188269188
H -1.0682595633 1.7259422305 -0.3675605467
H -1.9234665034 -0.3182110745 0.2185280818
H 1.0476592874 -2.7782289238 -0.0422374993
H -0.3088358425 -4.9775358309 -0.8993282171
H -0.2120860369 -5.0035315861 0.8685540349
H -2.9051145064 -2.6412745011 1.0072105383
H -2.9662893125 -2.6426895347 -0.7667546174