17

C -0.0311792714 1.5037695840 -0.0100662967
C 0.0084531446 0.0120488874 0.0111565203
C -0.0585282876 -1.0027370606 -1.1247507586
C 0.8092317244 -1.9923834661 -0.2968713755
C 0.8816053043 -0.9914868849 0.8340552396
C -0.2666731792 -2.0144894415 0.8025517670
C -0.6057246465 -3.0272938414 1.7245921700
C -0.9103501387 -3.8890230252 2.5101150115
C -1.1214245367 -1.0069484787 -0.0334264032
H 0.9374568103 1.9279108464 -0.2995586387
H -0.7773011579 1.8576285748 -0.7300719742
H -0.2969815685 1.9127334635 0.9717967691
H -0.1665097215 -0.8438726604 -2.1892543691
H 1.4921169571 -2.7853853779 -0.5696836361
H 1.6293379871 -0.8601039257 1.6050451409
H -1.1746679248 -4.6491497177 3.2021124734
H -2.1907496450 -0.8578959760 -0.1011556096