18

O 0.0799894040 1.4025815157 0.2353218597
C 0.0237941985 -0.0008603108 0.0415280548
C 0.6993009174 -0.8306314941 1.1588061571
C -0.1869392066 -2.0816523999 1.2753800210
C -0.2782766616 -2.6903739114 2.6619801435
O 0.4439575500 -2.4042004114 3.5819800243
N -1.5480240743 -1.7485853892 0.7796923476
C -2.0951912780 -0.5165405807 1.3840180528
C -1.4244873658 -0.4646379730 0.0636274330
H 0.9929915622 1.6848534592 0.1218632446
H 0.4562346156 -0.2654008054 -0.9358340932
H 1.7385811862 -1.0795248969 0.9338732271
H 0.6975642541 -0.2633906668 2.0931947208
H 0.1822264963 -2.8808782864 0.6145502794
H -1.0905403980 -3.4424100800 2.7680018913
H -3.1788155071 -0.4927631012 1.4346093949
H -1.5915537256 -0.0722957981 2.2376643739
H -2.0116206372 -0.3545881297 -0.8427506822