20

C -0.0886087142 1.5015636854 0.0603327203
C 0.0477768434 -0.0150729202 -0.0516490271
C 0.7443164327 -0.4702991983 -1.3206848371
O 1.1431741249 0.3047677382 -2.1628297519
C 0.9246853606 -1.9732153208 -1.4934272675
N 1.5897525214 -2.2482482821 -2.7378772711
C 1.8315271796 -3.5211706685 -3.1543381351
C 2.5267602964 -3.6460194813 -4.5007273584
O 1.5088229331 -4.4905920887 -2.4885618431
H 0.8919753354 1.9838374715 0.0496634188
H -0.6591834462 1.9052496653 -0.7796814269
H -0.5983674431 1.7732685228 0.9883791714
H 0.6020112766 -0.4301083623 0.8013252324
H -0.9339401662 -0.5071628893 -0.0158774670
H 1.4889072393 -2.3699396951 -0.6371881042
H -0.0562446111 -2.4666665679 -1.4451282482
H 1.8382199256 -1.4379769480 -3.2856693563
H 3.4431377383 -4.2274389245 -4.3705231433
H 1.8793543525 -4.2066386440 -5.1804882503
H 2.7745648013 -2.6842299122 -4.9565682251