21

C 0.0364205389 1.5831539176 -0.0468240690
C -0.0114862417 0.0757908441 0.0543332224
C 0.9273064654 -0.7245091001 -0.9188897528
C 1.8159822072 -1.1913875942 0.2833055040
C 0.6911996712 -0.7450509353 1.1958659487
O 0.8050841796 -0.3071245357 2.5426717101
C -0.4971261888 -0.8731778548 2.8560705875
C -0.6411962707 -1.4943572225 1.4461544554
C -1.3618795797 -0.6307527657 0.3729955480
H 1.0672921445 1.9481420317 -0.1164816459
H -0.5016748952 1.9384810019 -0.9344416828
H -0.4210978905 2.0513725823 0.8314311388
H 0.4255000155 -1.5467525178 -1.4351483202
H 1.4391541702 -0.1102625496 -1.6624461096
H 2.1328675021 -2.2372984010 0.3259035182
H 2.6969952841 -0.5518645850 0.3987350188
H -0.4239185574 -1.5890259268 3.6821836026
H -1.2311843535 -0.0990190396 3.1128182561
H -0.7422591332 -2.5795448548 1.4070155078
H -2.1320473882 0.0323524688 0.7815576901
H -1.8015878198 -1.1922123136 -0.4568629081