17

C -0.0205834004 1.4703865314 0.0085305379
N -0.0339075421 0.0204204224 0.0073884050
C -0.0216752502 -0.7738087804 -1.1207773669
C 0.0252549627 -2.0927223261 -0.7447410620
C 0.0418416943 -3.2950994713 -1.6352682778
C 0.0454106544 -2.0921611634 0.6915251305
C 0.0098678182 -0.7717735789 1.1107383705
C 0.0839295692 -3.2299047142 1.5313728952
N 0.1166783328 -4.1749023076 2.2023654778
H 0.9670535626 1.8597786746 -0.2604735187
H -0.7563926855 1.8532319769 -0.7035417640
H -0.2813037885 1.8315241083 1.0047118919
H -0.0489877072 -0.3298732626 -2.1035749098
H 0.9380052319 -3.9033987573 -1.4710131791
H -0.8207096860 -3.9444898959 -1.4495435047
H 0.0220699476 -3.0023103739 -2.6883898728
H 0.0131991661 -0.3561359318 2.1052529169