22

C -0.1589111634 1.4352056004 -0.0419299870
N 0.0272039739 -0.0075795358 0.0471065559
C 1.4072787044 -0.5011079573 -0.1839266953
C 0.7838054736 -0.5284093718 1.1509760463
C 1.1683801649 0.0559377361 2.5232288731
C -0.2027946978 -0.4919957559 3.0281238824
C 0.3843114207 -1.6435650835 2.1417288678
C -0.2401028660 -2.9726745138 1.8217054755
C 1.7550992495 -1.3532535859 2.8379342620
H 0.6911161106 2.0153235663 0.3536843016
H -0.3064527109 1.7166836772 -1.0895316223
H -1.0566739890 1.7226426355 0.5149166168
H 1.4886743370 -1.3947985985 -0.7981839343
H 2.1799321557 0.2457665444 -0.3675324529
H 1.6205042756 1.0214436637 2.7484284094
H -0.2709565296 -0.7003846590 4.1001878992
H -1.1043834193 0.0000176290 2.6554808982
H -1.1791849827 -2.8353822877 1.2753746441
H 0.4253729725 -3.5795684480 1.1976529417
H -0.4556791319 -3.5407039395 2.7329373789
H 2.6571126808 -1.6470835895 2.2944912791
H 1.8166039113 -1.6161210064 3.8976271397