16

C -0.1204176369 1.5770998334 0.0447523774
C -0.0737528539 0.0484634421 0.0157816961
C 0.8146659436 -0.5291239577 1.1357749720
C 0.8606789352 -2.0179008520 1.1378425321
C 1.8530031653 -2.9278945974 0.9295912608
N 1.2912347248 -4.1761679275 1.0453625586
N 0.0655068978 -4.0924446355 1.3004468964
O -0.2667817176 -2.6911054386 1.3713774313
H 0.8782929060 2.0092115015 -0.0825956913
H -0.7554385127 1.9647042002 -0.7570268270
H -0.5222545882 1.9439068830 0.9955399524
H -1.0837300095 -0.3621506680 0.1195137588
H 0.3041919046 -0.2980561398 -0.9531594911
H 1.8383768844 -0.1532968402 1.0367594409
H 0.4415389708 -0.1842521349 2.1083067522
H 2.8980100362 -2.7865662584 0.7139911303