21

C -0.0453178895 1.6337098701 -0.0801673915
C 0.0015073421 0.1079439048 -0.0466319714
C -1.3693442417 -0.5427198495 -0.0880705550
C -2.6187300516 0.0972571255 0.4703130022
C -2.4720782262 -0.0919223159 -1.0183252998
C 1.1017009209 -0.6580777299 -0.8730573628
C 2.2200070677 -0.1327512213 0.0578686427
C 1.0235766082 -0.6083659576 0.9138390394
O 0.9574797801 -1.8111475511 0.0492181104
H 0.9385776880 2.0939104602 -0.1684523177
H -0.6403109430 1.9889928912 -0.9271526929
H -0.5073866689 2.0250616998 0.8316241091
H -1.3080690466 -1.6150840267 0.0438265833
H -3.3127788014 -0.5375802028 1.0103596274
H -2.5673215094 1.1112922462 0.8500379790
H -2.3231751484 0.7955216892 -1.6237183099
H -3.0616518764 -0.8596966717 -1.5074620475
H 1.1325600293 -0.8776475790 -1.9417560080
H 3.0857196828 -0.7924773010 0.1137562359
H 2.5004430438 0.9198882189 0.0429193199
H 0.9600730901 -0.7660470896 1.9921473571