21

C -0.0041719257 1.5332939612 -0.0391900986
C -0.0168765004 0.0093577551 0.0240000104
O 0.7116186195 -0.4806814064 1.1455295796
C -1.4493406386 -0.5672348953 0.0404825846
O -2.1339646323 -0.0247644290 -1.0765677208
C -3.3688510245 -0.6705286465 -1.3437025875
C -3.1528357132 -2.1275558892 -1.7555716135
C -2.1941607055 -2.7856974112 -0.7988462367
C -1.4420928137 -2.0735106476 0.0366068005
H 1.0259503855 1.8997840043 -0.0504191030
H -0.5241117227 1.8878761978 -0.9311210662
H -0.5123734295 1.9597980155 0.8360149939
H 0.4970249469 -0.4007639358 -0.8525457786
H 0.3968096358 -0.0097759238 1.9253042752
H -1.9298083565 -0.2094579238 0.9756768664
H -4.0163272701 -0.6289081069 -0.4525233821
H -3.8496405624 -0.0924177087 -2.1377927442
H -4.1149951661 -2.6558133361 -1.7644183625
H -2.7644646003 -2.1793025467 -2.7820706819
H -2.1345937821 -3.8710172553 -0.8028221292
H -0.7659043743 -2.5404999514 0.7445959642