22

C 0.1331262915 1.4843823745 0.2437292659
C 0.0226991305 -0.0145638647 -0.0481221987
C -1.4063345279 -0.5319867336 0.0187582382
C -1.5893133329 -2.0341049803 -0.2587231480
C -2.8438064883 -2.3715884799 0.5465768718
C -3.9521226857 -3.2010426777 0.0199403468
N -3.0809685984 -3.7098701257 1.1004602367
C -3.0720517840 -1.1615293123 1.4598442084
O -1.9050962113 -0.3620718338 1.3459539506
H 1.1750025045 1.8167160197 0.2105900486
H -0.4284481140 2.0723009575 -0.4909330730
H -0.2698120884 1.7126466430 1.2336327485
H 0.4224883123 -0.2366772173 -1.0455223468
H 0.6250268468 -0.5835057819 0.6708858317
H -2.0383199901 0.0441113692 -0.6827024787
H -1.6822882434 -2.2618298726 -1.3239739119
H -0.7267789166 -2.5846675734 0.1373266317
H -4.9775614164 -2.9987816532 0.3212723643
H -3.8518779953 -3.6217124456 -0.9778654589
H -2.4069566490 -4.3694954394 0.7173667695
H -3.9613386986 -0.5944370990 1.1388780715
H -3.1988010651 -1.4542432534 2.5049597218