17

N -0.0652476408 1.2862645318 -0.0476693993
C -0.0291585436 0.0276502095 0.0144339516
O 1.1246387983 -0.7131851439 0.0488522883
C 0.8450493457 -2.1265055953 0.0347158917
C 0.0409958518 -2.4684704471 1.2890548969
N -1.1961451697 -1.6584869021 1.2626028539
C -1.2459776093 -0.8694018204 0.0192071411
C -1.1179087456 -1.7904805245 -1.2083379527
O 0.1474629696 -2.4709462593 -1.1298243243
H 0.8828455991 1.6691365959 -0.0621417365
H 1.8128384494 -2.6254276502 -0.0068352374
H -0.1666095759 -3.5441128355 1.2895178213
H 0.6382973537 -2.2368582122 2.1796083188
H -2.0127357619 -2.2568625640 1.3098407594
H -2.1512944030 -0.2646277138 -0.0126541167
H -1.9270025433 -2.5329672716 -1.2124899089
H -1.1513613847 -1.2307212373 -2.1505986371