17

N 0.0574576988 1.2219989106 0.1338377649
C 0.0444962177 -0.1113051400 -0.0322570713
O 1.0840052459 -0.7831671340 -0.1614160083
C -1.3005581250 -0.7499406916 -0.0536351096
N -2.4267381601 0.1386953912 0.1064354005
C -1.3937110386 -2.0144597703 -0.9609003660
O -0.3715872008 -2.3774882488 -1.8109819428
C -1.3293947710 -2.1994020702 0.5199383765
O -0.2423648774 -2.7490649199 1.1644432633
H 0.9358770614 1.7108490945 0.1575744346
H -0.8257577255 1.6984649085 0.2326397572
H -3.0442646799 0.1202420950 -0.6972320584
H -2.9746507019 -0.0845399876 0.9295389675
H -2.3647756839 -2.1391055619 -1.4346236099
H 0.4555320662 -2.0370118569 -1.4259481728
H -2.2577329223 -2.4469143440 1.0296907888
H 0.5524591364 -2.3158226845 0.8054806659