16

O -0.1901902541 1.4066309245 -0.0281766912
C 0.0090293318 0.0493100609 -0.0134272018
C -1.0063801353 -1.0793497847 0.0964772523
C -0.4107333117 -1.7738336088 -1.1225452734
C 0.8440010109 -0.8299223773 -1.0106435526
C 1.8482296064 -1.5208679738 -0.1299629717
N 2.9940957188 -1.9416574984 -0.4474588880
O 1.2638614278 -1.6752218401 1.1135984777
C 0.0912918243 -0.8743495365 1.1461324612
H 0.5706509705 1.8384642001 0.3781939559
H -2.0498544387 -1.0442474230 0.3863721021
H -0.2212781844 -2.8494502120 -1.0633341451
H -0.9795037248 -1.5492138270 -2.0267373337
H 1.2472496819 -0.4060199049 -1.9248934984
H 3.4414650645 -2.4002511453 0.3486000836
H -0.1964009280 -0.5786435736 2.1462109729