21

C -0.1793494948 1.5246881161 0.0985730993
C 0.0581763832 0.0048748527 0.0350409476
C 0.7592309804 -0.4384599291 -1.2241615329
C 2.0302842237 -0.8581430088 -1.2281583145
C 2.7069724240 -1.2940645937 -2.4728337178
O 2.0318867320 -2.2857521496 -3.2914891773
C 2.1023683556 -0.9449201503 -3.7695005362
C 0.8217755181 -0.1420642948 -3.7594560840
C -0.0356947431 -0.4357193881 -2.5130705985
H 0.7712918242 2.0665915660 0.0809586333
H -0.7800713032 1.8774512490 -0.7458878468
H -0.7093917870 1.7957770129 1.0168677291
H 0.6452414518 -0.3045231552 0.9066013858
H -0.9102616354 -0.5089920111 0.1110761539
H 2.6046953451 -0.8906081977 -0.3061835190
H 3.7827689221 -1.4485254732 -2.4186740745
H 2.7552339128 -0.8031053289 -4.6321080075
H 1.0960585633 0.9210748989 -3.7874141948
H 0.2393213563 -0.3411761102 -4.6660133355
H -0.5021691691 -1.4215291502 -2.6312317504
H -0.8570362401 0.2863162853 -2.4567245692