23

C 0.1399426153 1.1341349664 -0.4337058838
O -0.0914553669 -0.0318196481 0.3309317840
C -1.3723456657 -0.5860628819 0.1915487343
C -2.4770947989 0.1963431133 0.8696705149
C -1.6560545042 -1.3472293828 -1.0841994957
C -1.4061532746 -2.0902205941 0.2203584172
C -0.1482495308 -2.9097776972 0.4085072394
C -0.2478849398 -4.2855480357 -0.2404974988
O 0.9663652396 -4.9767502066 0.0151596396
H 1.1934860010 1.3930726687 -0.3031052772
H -0.0576518562 0.9660991091 -1.5020516546
H -0.4716150454 1.9832267333 -0.0978131916
H -2.6188245276 1.1812785298 0.4117027545
H -3.4283261846 -0.3384221750 0.7976040865
H -2.2439278100 0.3435769581 1.9294468388
H -2.6568356969 -1.3264642750 -1.5028720472
H -0.8595230485 -1.3795129404 -1.8208142109
H -2.2917584993 -2.5114606440 0.6922795695
H 0.7102414475 -2.3763881814 -0.0079639933
H 0.0575544179 -3.0442775277 1.4773871886
H -1.1114308946 -4.8333212808 0.1729165474
H -0.4248672866 -4.1725542492 -1.3222251332
H 0.9106311796 -5.8436902686 -0.3966913884