20

C 0.8901746705 -0.5143660105 -1.3116255741
C 0.0438557598 0.1315028255 -0.2211424038
O -0.1149820774 1.5051121480 -0.5594696655
C -1.3323686791 -0.5079508646 -0.1000265626
C -1.5584610694 -1.9019945077 0.5719371150
O -0.4760698584 -2.5558700041 1.2021516930
C -2.4774205161 -1.1853567192 1.5474947772
C -1.7525519589 -0.1054028704 2.2373740726
N -2.2705750766 0.1691470169 0.8787391064
H 1.8310829638 0.0310688226 -1.4226816953
H 1.1245501045 -1.5525530691 -1.0567447268
H 0.3678273611 -0.4925646419 -2.2733125972
H 0.5837260327 0.0391554771 0.7331644536
H -0.8475976203 1.8445842497 -0.0310446686
H -1.8177680473 -0.4647356359 -1.0803783020
H -2.0998428372 -2.5859381762 -0.0914205205
H -0.0244919437 -3.0983853642 0.5482325097
H -3.4602126463 -1.5264529351 1.8535249592
H -2.2957231097 0.4445078325 2.9991583747
H -0.6868394020 -0.2004958032 2.4162897750