27

C -0.2174479560 1.6333178103 -0.1036794932
C -0.0096755505 0.1157483535 -0.0532460969
C -1.3391958905 -0.6499845256 -0.0370113392
C -1.2751002164 -2.1990296755 0.0512394691
C -0.4776030376 -2.7708867657 -1.1341012384
C -0.6105579262 -2.6455748290 1.3695232173
C -2.7273171502 -2.6945537568 0.0757518670
C -3.5621151781 -2.9538924040 -1.1527389896
C -3.1568225643 -4.1007483850 -0.2564491592
H 0.7380649343 2.1672323571 -0.1164409538
H -0.7755079092 1.9276087714 -0.9996670772
H -0.7839323282 1.9847976778 0.7660284037
H 0.5915679263 -0.1909009007 -0.9172274860
H 0.5816451864 -0.1345940384 0.8356833929
H -1.9377162294 -0.2862667704 0.8103607547
H -1.9083134224 -0.3855350126 -0.9387283618
H 0.5722027290 -2.4707761188 -1.0737113452
H -0.4951503611 -3.8649901805 -1.1420311963
H -0.8646470691 -2.4168978795 -2.0948524018
H -1.1377104538 -2.2313203166 2.2364250213
H -0.6311969491 -3.7365684943 1.4589567207
H 0.4344710121 -2.3265401269 1.4291817187
H -3.2819647704 -2.2501358397 0.9005348206
H -4.5977284492 -2.6312886069 -1.1493042171
H -3.0884193468 -2.8938671538 -2.1263074659
H -2.4200552761 -4.7974277739 -0.6408972841
H -3.9129063937 -4.5654553854 0.3672919299