16

C -0.2140690279 1.3102230729 -0.2894929663
C 1.2055649482 1.0832654383 0.1822893329
C 0.2344910453 -0.0638586304 0.1261544713
N -0.2620027678 -0.6770766529 1.3250479249
C -0.5683649040 -0.1121262845 2.5202089088
C -1.0054932748 -1.1296196830 3.3445139547
C -0.9251147847 -2.2853196149 2.5450037560
N -0.4750472030 -2.0099340559 1.3223707803
H -0.8884042988 1.8383995493 0.3754665151
H -0.3954361274 1.4872735764 -1.3435770069
H 2.0100540495 1.1026775372 -0.5441781723
H 1.4780984832 1.4601230553 1.1618671961
H 0.3654146695 -0.8229223792 -0.6329697916
H -0.4568967275 0.9459064662 2.6956148026
H -1.3314994709 -1.0421698842 4.3680800611
H -1.1742094187 -3.3040252205 2.8032073535