17

O -0.1550209518 1.1006764634 0.7015454874
C 0.0243421205 -0.1468863594 0.1104998169
C -0.5980320419 -0.4436397778 -1.2396634030
C -1.1209669723 -1.1017357234 0.0199079956
O -0.6623984139 -2.4088839455 0.2572254759
C 0.5717177470 -2.3299570682 0.9507835836
C 1.2377186437 -0.9896010355 0.5275616982
C 0.3757377942 -2.3642752177 2.4630560033
O -0.6865179332 -2.2936078947 3.0175136652
H 0.3397493668 1.7497379659 0.1894656177
H -1.2129266284 0.3422587024 -1.6663243228
H -0.0577020521 -1.0617806043 -1.9491482369
H -2.1064769710 -0.8743858562 0.4089035438
H 1.1785350017 -3.2008577276 0.6725936084
H 1.9549713520 -1.1423211799 -0.2839705537
H 1.7574337523 -0.5002037565 1.3560586586
H 1.3330994166 -2.4462518648 3.0326812719