19

O -0.0853238243 1.3947293787 0.0732851676
C 0.0344056097 0.0210541718 0.0291884845
C -1.0530252923 -0.9988451265 0.1036239219
C -0.2110132428 -0.8720972514 -1.1781993074
C 0.8551747644 -2.0067203910 -1.1745046953
C 0.2454682543 -3.0293478739 -0.1834190776
C -0.1457987171 -1.9799417596 0.8709271366
C 1.0237409690 -0.8849394368 0.8001193359
C 1.9757328782 -1.4025807420 -0.2904100234
H 0.5873535479 1.7784680426 -0.5000506209
H -2.1298008128 -0.8901832849 0.1377157013
H -0.6596311074 -0.4678263661 -2.0761360265
H 1.1478164586 -2.3834951759 -2.1543090565
H -0.6277699443 -3.5535443326 -0.5837150501
H 0.9766491203 -3.7665839683 0.1642460291
H -0.4594317566 -2.3167321697 1.8570738718
H 1.4316105812 -0.5182897064 1.7400817467
H 2.6941940109 -2.1547531508 0.0514673873
H 2.5230085034 -0.5878898671 -0.7779955549