20

C -0.3615643927 1.7561450878 -0.2850153143
C -0.1954689583 0.2527146618 -0.1461708334
C -1.5179345796 -0.5005537854 -0.2926683199
O -2.5238212230 -0.0161017089 0.5880024040
C -2.5178901665 -0.5010940472 1.8512118050
N -3.3354504970 -0.0424441492 2.6953675892
C 0.9645378181 -0.4052863767 -0.9370103517
C 1.5277326527 -0.7644597196 0.4506268825
O 0.4396830236 -0.0942216250 1.1218978020
H -0.7397962016 2.0103984737 -1.2813932696
H -1.0719474133 2.1301315454 0.4560285083
H 0.5982464974 2.2580416661 -0.1376612721
H -1.9132567858 -0.3648432243 -1.3046228680
H -1.3498171705 -1.5735554972 -0.1302030195
H -1.7679355550 -1.2827709333 2.0145112984
H -3.2159830735 -0.5235599205 3.5844255774
H 0.6833972328 -1.2501199892 -1.5700333335
H 1.5662130769 0.2934401683 -1.5199289920
H 1.5590936432 -1.8354760954 0.6854977749
H 2.4965919421 -0.3207788311 0.7062725121