18

C 0.0596127744 1.4945232348 0.3504037809
C -0.0516163653 0.0408924216 -0.1404911994
C -1.4541661555 -0.4610278960 -0.1724002730
N -2.1524602602 -0.8354560401 -1.2054527369
C -3.3797882012 -1.1949980219 -0.6827150961
O -4.3992367683 -1.6462364045 -1.4297400193
C -4.1573065543 -1.7436424474 -2.8309663212
C -3.3742783270 -1.0189550256 0.6643143005
O -2.1247116986 -0.5426959961 0.9951339242
H 1.1063829530 1.8106641531 0.3713364360
H -0.4894025014 2.1730128091 -0.3091035231
H -0.3489341702 1.5973560060 1.3592514108
H 0.3458499604 -0.0571749846 -1.1534139558
H 0.5464343118 -0.6098182461 0.5094514707
H -5.0843479584 -2.1224590684 -3.2638184410
H -3.9148387730 -0.7668398590 -3.2612942400
H -3.3346706223 -2.4331324701 -3.0452552279
H -4.0800524438 -1.1627894148 1.4605717208