25

C 0.3762415949 1.4903515185 0.0510157630
C 0.1629467200 -0.0262712548 0.0322514822
C 0.6758407270 -0.6751333193 -1.2593347251
C 0.5134796126 -2.2163401834 -1.3167215320
C -0.9478193302 -2.6564989579 -1.4944772157
C -1.1489111104 -4.1684742305 -1.3528914865
C 1.3845485491 -2.7207559592 -2.4735115772
C 2.8132544677 -3.1065708435 -2.1332551236
O 0.9602039940 -2.7885031108 -3.6052090651
H 1.4383754499 1.7429425026 -0.0425294685
H -0.1517461232 1.9744952727 -0.7778578838
H 0.0095987923 1.9321754361 0.9827049486
H 0.6755907641 -0.4799924509 0.8908589410
H -0.9033038021 -0.2426745921 0.1645631834
H 0.1643795151 -0.2410453696 -2.1278875660
H 1.7371611953 -0.4154116304 -1.3751070827
H 0.9136495565 -2.6311564942 -0.3805859669
H -1.5741060384 -2.1375358991 -0.7612854955
H -1.2777225554 -2.3336553985 -2.4874152623
H -0.5803069276 -4.7154607671 -2.1113564713
H -0.8279135541 -4.5236840194 -0.3667438252
H -2.2026624643 -4.4373696430 -1.4740466355
H 2.8024629719 -4.0411898010 -1.5589057987
H 3.3927775837 -3.2531585575 -3.0456419515
H 3.2903552816 -2.3529525778 -1.4982282451