19

C 0.0163455752 1.5305926142 0.0026156886
C 0.0208395099 0.0179275949 -0.0859239895
C 0.5843546515 -0.6295531371 -1.3180098657
C 0.0832156520 -1.8667736788 -1.4202434570
C -0.7221797046 -2.1568528750 -0.1739882304
C 0.3265979806 -2.2072960996 1.0052226655
C 0.2708479194 -0.7118067431 1.3234424874
O -1.1550795782 -0.5640509252 1.6122863598
C -1.3060380739 -0.7392708053 0.1898585406
H 1.0374082667 1.9250217431 0.0567595589
H -0.4637014371 1.9752116293 -0.8759646931
H -0.5242589663 1.8596393485 0.8940617493
H 1.2801915309 -0.1495961748 -1.9959318998
H 0.3137769767 -2.6006172501 -2.1834176667
H -1.4205258249 -2.9910631897 -0.2145667580
H -0.0306325274 -2.7765640642 1.8661626043
H 1.2999049232 -2.5837060929 0.6851916022
H 0.9258994785 -0.2869720542 2.0839074474
H -2.2751400524 -0.4423570503 -0.2152639038