19

C -0.1041054764 1.5190469146 0.0488033686
C 1.4564697308 1.4896420748 -0.0213026491
O 2.1568782735 1.6162089722 1.1936373497
C 1.4485051429 1.3198390550 2.3881397845
C 0.8439068557 -0.1033070919 2.4896559175
C 0.5519272440 -0.7951480571 1.1612818732
O 1.7927013328 -0.9682281822 0.4161318662
C 1.3534896780 -0.0109402420 -0.5391223579
C -0.1047747839 -0.0156879469 -0.0317994947
H -0.5889068648 2.0167380378 0.8897084788
H -0.5081915596 1.9469340721 -0.8736069691
H 1.9154520442 2.1974209495 -0.7162208849
H 2.1839021696 1.4607977041 3.1845496407
H 0.6635348302 2.0701792558 2.5510358386
H 1.5429771078 -0.7628754271 3.0156279573
H -0.0696654031 -0.0633448936 3.0965897838
H 0.0859679965 -1.7684882786 1.3507843231
H 1.6842009844 -0.2176790646 -1.5592702030
H -0.9241698427 -0.5380220619 -0.5255269531