16

N 0.2381567106 1.0137796367 0.4757152221
C 0.0704611402 -0.1589404567 0.0774747369
O 0.9692702488 -1.0492934244 -0.5131807739
C -0.0878387509 -2.0264211212 -0.7497662643
C -0.2263420196 -3.1194512181 0.3498049011
C 0.6961677055 -2.9682239585 1.5695850077
O -0.2094863568 -2.0105828001 2.1834632537
C -1.1734441204 -2.1735602132 1.1329187658
C -1.1012971589 -1.1061539574 -0.0200613809
H 1.2050581502 1.3190652403 0.3538024857
H -0.1364183469 -2.3170502839 -1.7985939178
H -0.4971891020 -4.1169549885 0.0079249715
H 0.7804934817 -3.8745012789 2.1799730534
H 1.6865592906 -2.5424728970 1.3875331370
H -2.1707666084 -2.4289493773 1.4984919908
H -2.0378194338 -0.7407048918 -0.4355919088