20

C -0.6392411430 1.3298739715 -2.4488393719
C -0.2585774191 -0.1107715026 -2.1854453918
C 1.0809951541 -0.7012724397 -2.4641432609
C 2.2355303383 0.2284095119 -2.6697572465
O 3.3367803849 -0.0924869058 -1.8011340109
C 2.4544268302 0.9794643622 -1.4248519100
C 3.0705271547 2.3467327695 -1.3168926703
C 1.4033041543 0.5096813794 -0.4193126811
N 0.6006466186 -0.5534012149 -1.0669387185
H 0.2138426531 2.0099685471 -2.4652677762
H -1.1406229454 1.4043609451 -3.4195279504
H -1.3443839150 1.6865991275 -1.6895018183
H -1.0982258979 -0.7928413131 -2.3131514535
H 1.1702030360 -1.7174215026 -2.8408585205
H 2.5065973237 0.6039031465 -3.6538799046
H 3.7886098502 2.5116372221 -2.1237292549
H 2.3043936536 3.1284282639 -1.3600953075
H 3.6014072856 2.4534227992 -0.3643804169
H 1.8845459181 0.0832651622 0.4674156109
H 0.7667469149 1.3381640705 -0.0883508963