21

C -0.0632749584 1.5322260041 -0.0282675788
C -0.0141436496 -0.0096552095 -0.0593320787
C -1.4198025680 -0.6131513220 0.1585342837
C -1.5385782306 -0.7217519530 1.7088671992
C -0.0951054646 -0.8877810372 2.1505889257
C 0.7333512974 -0.5420111084 1.1608238034
C 2.1290922429 -0.7134401356 0.7922883417
C 2.2350293049 -0.6819047757 -0.5484090999
C 0.8930564751 -0.4733171962 -1.2310935215
H 0.9460622288 1.9556485916 -0.0192933458
H -0.5855410908 1.9174036419 -0.9114619484
H -0.5869769110 1.8952664545 0.8614805849
H -2.2240610113 -0.0214669264 -0.2900690395
H -1.4637561092 -1.6192830526 -0.2735742017
H -2.0013671957 0.1773090945 2.1419957345
H -2.1688077638 -1.5632646309 2.0183438315
H 0.1877447096 -1.2868264130 3.1179000629
H 2.9385049596 -0.9115517523 1.4846750329
H 3.1526765352 -0.8464009419 -1.1030337550
H 0.5439900203 -1.4193695800 -1.6706695745
H 0.9422122891 0.2532337581 -2.0500949367