19

C -0.1271069319 1.3624147500 -0.0087323478
O -0.0651131572 -0.0533712433 -0.0690067916
C 0.6322954063 -0.5466773030 -1.1565430228
C 0.7639383995 -2.0602927202 -1.0005820338
C 1.1869726738 -2.7130560681 -2.3052676300
O 0.1514399478 -2.9290423380 -3.2728563365
C 1.1358477193 -1.9417256377 -3.5585222321
C 0.6652093620 -0.5027117574 -3.5117905762
O -0.0756691238 -0.2186202273 -2.3443195145
H 0.8812332451 1.8026713536 0.0162342884
H -0.6737148593 1.7764517512 -0.8620961513
H -0.6481008776 1.6151256975 0.9167862602
H 1.6377630740 -0.0781977239 -1.2199800017
H 1.4908669021 -2.2808081477 -0.2129536140
H -0.2045743345 -2.4606190567 -0.6857413661
H 1.8913972227 -3.5404550078 -2.2285649983
H 1.8187506324 -2.1838364971 -4.3744337600
H 1.5483729330 0.1561300582 -3.5932756840
H 0.0043490464 -0.2873937222 -4.3574305980