14

C -0.0143961534 1.5223117396 0.0123197541
C 0.0043984695 0.0163872402 0.0134721154
C 0.0799190865 -0.7093925451 -1.1840315325
C 0.0946221685 -2.0937746338 -1.1356712987
N 0.0402897612 -2.7996707895 0.0038752938
C -0.0298915976 -2.1010586625 1.1111640953
F -0.0839971704 -2.7980977196 2.2445552812
C -0.0521378845 -0.7106843779 1.1974226340
H 0.8890170126 1.9243258723 -0.4589174699
H -0.8690263415 1.9023259107 -0.5577834280
H -0.0764229822 1.9240831570 1.0263027426
H 0.1264610778 -0.1977433515 -2.1392871432
H 0.1526827579 -2.6772950745 -2.0506427173
H -0.1119199544 -0.2291017953 2.1661772832