23

C -0.1709052338 1.5653431190 0.0021715060
C 0.0295375492 0.0419128201 -0.0077070197
C 0.8471677724 -0.4799212089 -1.1924537107
C 2.3030196395 -0.0861069122 -1.3093772314
C 1.9270124619 -1.4079211936 -0.6633896218
C 2.3096859428 -2.7211096341 -1.3043463652
C 1.7785793910 -1.3180757541 0.8227512659
C 0.7792362373 -0.5142602942 1.2017805893
C 0.3872840772 -0.1668321463 2.6039105646
H 0.7892435615 2.0905269993 0.0261163297
H -0.7073391675 1.8893934784 -0.8953417472
H -0.7540339704 1.8878480602 0.8709227091
H -0.9717237005 -0.4169344262 -0.0362012509
H 0.3251613192 -0.7166283135 -2.1135060217
H 2.7315236967 -0.1194000794 -2.3070087852
H 2.7000452066 0.6997423450 -0.6752259457
H 2.3046718340 -2.6434403350 -2.3962341770
H 3.3168509608 -3.0324234846 -1.0017498542
H 1.6165780298 -3.5215992225 -1.0212644400
H 2.4414102530 -1.8444563953 1.5034845124
H 0.9915046122 -0.7125981816 3.3338810156
H 0.5053784678 0.9051569142 2.8061897990
H -0.6686716306 -0.4025750646 2.7922733092