20

C 0.3178146600 1.5859325898 -0.1341465235
C 0.1946981091 0.0799955372 -0.0636892684
C 1.4169770351 -0.7806779590 0.2010535971
C 0.3302813566 -0.6445845582 1.2413299736
O 0.5692253887 0.1310314525 2.3783721132
C 1.2841104525 -0.5543593019 3.3829071267
C 1.4707430466 0.4363832175 4.5385947507
C 2.1973719686 -0.1548739184 5.6573224295
N 2.7741441751 -0.6389214688 6.5335925132
H 1.0197214944 1.9565076217 0.6162372735
H 0.6697765029 1.9020041077 -1.1216121734
H -0.6479965072 2.0686543896 0.0493378444
H -0.5392611591 -0.3453828668 -0.7430861245
H 1.5326496461 -1.7237293268 -0.3217444976
H 2.3456312199 -0.2548596538 0.3999158216
H -0.3131999486 -1.5054849898 1.4271654105
H 0.7290860734 -1.4390995945 3.7296041824
H 2.2595886965 -0.8983749403 3.0109682796
H 2.0129584635 1.3164957041 4.1774715965
H 0.4901545059 0.7811714284 4.8828309950