17

N 0.0249592421 1.3174028731 0.0838809321
C -0.0092480978 -0.0585489843 0.0017042331
C -1.1404858540 -0.7846581187 -0.1393313980
C -1.1834597828 -2.2388740861 -0.0594948335
N -2.2042852988 -2.9884942637 -0.2066666899
O -0.0202858861 -2.9047440220 0.2392415754
C 1.2093642941 -2.2506357461 0.2237920069
C 1.7678381663 -1.6281947570 -1.0169840160
C 1.2897428607 -0.7478935488 0.1424361395
H 0.8642288757 1.7663894665 -0.2506264275
H -0.8200933599 1.8058686910 -0.1733329027
H -2.0948701889 -0.2909654331 -0.2907437218
H -3.0235932892 -2.4134333096 -0.3944879064
H 1.8958845005 -2.7611982074 0.8893020642
H 2.8355981799 -1.7050464478 -1.1906994974
H 1.1480974942 -1.6315818083 -1.9064065544
H 2.0369767640 -0.2363670576 0.7410366965