17

O 0.0270569964 0.0327752729 -0.4076828048
C 0.0134895459 1.1514850139 0.0297080048
O -1.1663424082 1.7182925108 0.3792629554
C -1.2710967834 2.9027380499 1.1946442166
C -0.6547764117 4.1743269117 0.6095762650
C 0.8444377678 3.9999543412 0.3263230757
C 1.1698396608 3.1862304822 -0.9443202492
C 1.2797944193 2.0083907597 0.0518546214
O 1.3861294232 2.9313220377 1.1565082926
H -2.3475615702 3.0368051338 1.3207805234
H -0.8273684999 2.6969516940 2.1710952431
H -1.1755282516 4.4815121860 -0.3043713521
H -0.8140628909 4.9665792691 1.3507362875
H 1.3977509882 4.9320701505 0.4677799873
H 0.4107368256 3.1275942845 -1.7256643416
H 2.1362764133 3.4453468975 -1.3778427748
H 2.1381648854 1.3396394546 -0.0203517402