21

O 0.1096983292 1.3978948026 -0.3061796680
C 0.0631069710 0.0028741478 -0.0185950165
C 0.8301521185 -0.3905319060 1.2587704970
C 0.0092105311 -0.2003125814 2.5537866799
C -1.4406855825 -0.7022304737 2.3864714142
C -1.4984874593 -2.1061279843 1.7583488242
O -1.3923506591 -1.9102161559 0.3395013886
C -1.3957522887 -0.5017919927 0.0655761246
C -2.1177611122 0.1094243726 1.2684384187
H -0.1330390377 1.8814486605 0.4893799304
H 0.5425798057 -0.4720785180 -0.8802730920
H 1.1079233812 -1.4452602591 1.1682088116
H 1.7649456653 0.1776230129 1.3008050079
H 0.5057018441 -0.7242120522 3.3782654098
H -0.0201565735 0.8590971520 2.8434767668
H -1.9777901854 -0.6619233463 3.3377173690
H -0.6858459507 -2.7607449473 2.0959956063
H -2.4511549710 -2.6048158396 1.9822642185
H -1.9060110266 -0.3412742222 -0.8875845025
H -3.1923836656 -0.0892673057 1.2127832727
H -1.9813989538 1.1900323959 1.3645245587