17

O 0.2074916380 1.2324120196 0.3220359595
C 0.0382000355 -0.1301123189 0.1026654492
C -1.3774292936 -0.6829270572 0.0376651480
C -2.5647094996 0.2599247595 0.1179659595
C -3.1344825709 0.4735976181 -1.2945005764
C -2.0855642123 0.9903868053 -2.2595695958
O -2.2754598832 1.8149655855 -3.1063572853
O -0.8171425619 0.4813388133 -2.1193790919
C -0.5436920297 -0.5691042890 -1.2148682515
H 0.3495194599 1.6521426838 -0.5358979656
H 0.8062888047 -0.7509100239 0.5576728545
H -1.5216754421 -1.6890161794 0.4177246758
H -3.3360981071 -0.1462903819 0.7766204305
H -2.2464685427 1.2184173995 0.5391777587
H -3.5133372980 -0.4789467511 -1.6868920995
H -3.9595732861 1.1876176927 -1.3170101033
H -0.1661259307 -1.4478830556 -1.7264937365