20

C 0.0535443178 1.6365151811 0.1357464641
C -0.0017487539 0.1009808893 -0.0150025980
C 0.7370532843 -0.5794048065 1.1762899750
O 0.2025584988 -0.2385529708 2.4352227283
C -1.4044820284 -0.3370246216 0.0501718362
N -2.4983296594 -0.6997383467 0.1500689940
C 0.6496192519 -0.3405983889 -1.3266811882
C 0.3168988598 -1.6433875898 -2.0084198163
C -0.0859688150 -0.3339945467 -2.6411125846
H 1.0924940635 1.9689595942 0.0466183561
H -0.5341705140 2.1287878882 -0.6423711684
H -0.3218201247 1.9355742531 1.1159537444
H 0.7502737005 -1.6657674242 1.0135655300
H 1.7729302378 -0.2245492520 1.1747370895
H -0.6715694760 -0.6390453495 2.5083404356
H 1.6922872470 -0.0356087428 -1.3666955914
H 1.1299258858 -2.2080732237 -2.4501658048
H -0.4752139582 -2.2523315158 -1.5861622161
H -1.1413172752 -0.0834441741 -2.6315871809
H 0.4478960476 0.0071268172 -3.5206803344