19

C 0.2565369586 1.3982433515 0.1176292607
O 0.3064837076 -0.0079079469 0.1285462411
C 0.5198710772 -0.5550224925 -1.1482661446
C 0.5239505927 -2.0657247593 -1.0463750458
C 1.3577003779 -2.8303670663 -1.9981984909
O 1.7876016396 -2.6422876537 -0.6575049828
C -0.6544177647 -2.6748852969 -0.4797278420
C -1.6501499535 -3.1709752521 -0.0196397052
C -2.8458171336 -3.7723611141 0.5503032955
H 1.2008842512 1.8390095823 -0.2397205483
H -0.5597901671 1.7734169073 -0.5204774536
H 0.0813934880 1.7254194825 1.1450284926
H -0.2752404063 -0.2396172650 -1.8462090846
H 1.4865481719 -0.2268132186 -1.5633546440
H 1.0538107875 -3.8413568789 -2.2625852769
H 1.9285676208 -2.2968013112 -2.7584480685
H -2.5861000868 -4.5902614286 1.2312499670
H -3.4256327798 -3.0377197262 1.1194792798
H -3.4979366012 -4.1829413132 -0.2285446497