20

C -0.5771513452 0.6514109323 0.2036015537
O 0.1395136704 -0.5429276920 -0.0670271567
C 0.8928281312 -0.5062752055 -1.2701255796
C 1.7600793987 -1.7615789463 -1.3373677541
C 0.8439184481 -2.7877431063 -2.0332574903
C 0.0098847750 -3.6415338464 -1.0866792066
O -0.0327202398 -1.9822002158 -2.8642346890
C -0.0139727228 -0.6766719001 -2.4848657841
N -0.6701419696 0.2526096309 -3.0383402994
H 0.1089627712 1.5054208773 0.3088567116
H -1.3006036882 0.8826273763 -0.5857815854
H -1.0985133842 0.4935273184 1.1504451822
H 1.4595640955 0.4303071794 -1.3366405003
H 2.6445721413 -1.5656398391 -1.9498360145
H 2.0820417854 -2.0797240152 -0.3446559878
H 1.4034564073 -3.4268114232 -2.7226507383
H -0.5237108084 -3.0064770669 -0.3754476608
H -0.7138938767 -4.2373527146 -1.6494638108
H 0.6581398395 -4.3244062772 -0.5277700449
H -1.2392691288 -0.1182032559 -3.8027364749