18

C -0.3259019870 1.0682876127 -0.2491366990
C -0.5482844531 -0.4319611180 -0.1463364294
O 0.0680044972 -1.1322478183 -1.2553433082
C 1.3567793558 -1.4589767318 -1.1218235908
O 2.0506183535 -1.2058042375 -0.1725366169
C 1.8657521499 -2.1833327000 -2.3825402850
C 3.3103160224 -2.6761976051 -2.2045369613
C 0.9623736850 -3.2717777814 -2.7644727715
N 0.2804170823 -4.1526594368 -3.0705708929
H 0.7349713740 1.3099891365 -0.1494363802
H -0.6912952221 1.4518541565 -1.2059179509
H -0.8696871319 1.5752327919 0.5540744949
H -0.1420837807 -0.8313670620 0.7853323848
H -1.6064560544 -0.6891892026 -0.2228443679
H 1.8255525775 -1.4396019781 -3.1899319071
H 3.9511551364 -1.8358067559 -1.9336633383
H 3.3673734876 -3.4188251636 -1.4065534671
H 3.6725229176 -3.1251824167 -3.1315719532