18

C -0.1152079328 1.5313152021 -0.0984298663
C 0.0662599307 0.0218253083 -0.0064576766
N 0.9337329320 -0.4601019371 -1.1337576567
C 1.5509303470 -1.4229825900 -0.6037788698
O 2.7330575684 -2.0720418467 -0.8182193636
C 2.8508085060 -2.2281741401 0.6607156508
C 1.3683503765 -1.7908972540 0.8259365035
C 0.7838347614 -0.4633393858 1.3306675119
O 1.8534691400 0.3749003916 1.7207034429
H 0.8557574811 2.0355075542 -0.1139820984
H -0.6349215482 1.7930733237 -1.0229245484
H -0.7069622451 1.9109639731 0.7433359166
H -0.9206136024 -0.4613645031 -0.0567916069
H 3.0930130808 -3.2594445314 0.9191252625
H 3.5874857224 -1.5228945214 1.0455092958
H 0.7006385099 -2.6353049041 1.0072425353
H 0.0594486661 -0.5862557703 2.1484991230
H 1.5062869361 1.2583851810 1.8782446844