17

C -0.6206971300 1.3534281381 0.0871538870
C -0.1089307230 -0.0665941034 -0.0001779834
C 0.7105160708 -0.5959807074 -1.1723631101
C 1.2913305560 0.3356147713 -2.2070167196
O 2.7018626660 0.5649281135 -1.9820613835
C 3.1189201899 0.9128723186 -0.7515841693
O 4.1747602009 1.4329836508 -0.5600389703
O 2.2587685555 0.6633833748 0.2777975202
C 1.3409723604 -0.4051569723 0.1769260589
H 0.1508382529 2.0856574808 -0.1595080129
H -1.4732384453 1.5093529683 -0.5819427078
H -0.9518349275 1.5692400707 1.1076391471
H -0.7816714217 -0.8092733244 0.4201915772
H 0.5224345543 -1.6121188279 -1.4992293055
H 1.2433354115 -0.0950834886 -3.2076761376
H 0.7871543650 1.3065063608 -2.2324183583
H 1.6437895844 -1.2529588437 0.7826238878