17

O -0.2549640189 1.3805405949 0.1545609039
C -0.0881145125 0.0202643707 0.0022306168
C -0.3966930871 -0.9794017024 1.0934289215
C -1.1678272368 -1.0216959858 -0.2104393414
C -2.6669061704 -0.8882393737 -0.3070775414
C -3.3659082864 -2.1180112358 0.0750575931
N -3.8961570329 -3.0983033753 0.3801323775
N -0.4025648019 -1.6443262202 -1.2945491423
C 0.7063364326 -0.6487755658 -1.1211004283
H 0.3443379784 1.6914891674 0.8417151590
H 0.2976239839 -1.7764876669 1.3509971047
H -0.9416246763 -0.5562379267 1.9325441605
H -3.0073980154 -0.0718321522 0.3394752513
H -2.9431409417 -0.6309370555 -1.3352658080
H -0.1248355347 -2.6025776290 -1.0945242471
H 0.8101706923 -0.0172206869 -2.0085899590
H 1.6848921478 -1.0636218670 -0.8515915908