21

C -0.1017711468 1.5584858775 -0.0514686196
C -0.0145624033 0.0261107491 -0.0234721282
C 0.7610084164 -0.5069780230 -1.2333032752
O 1.0261801701 -1.8937705394 -1.1133727853
C 1.8945072607 -2.1818421945 -0.0385416943
C 1.5267896747 -1.4684818850 1.2414097155
C 2.2257240892 -1.9607181093 2.4778528885
O 1.9307240735 -1.1239295636 3.5797075312
C 0.6387137949 -0.4761572266 1.2402067150
H 0.8953199895 2.0097279799 -0.0007914598
H -0.5879474597 1.9112108200 -0.9676576534
H -0.6797025685 1.9322848063 0.7995729509
H -1.0392446270 -0.3724104287 -0.0733861247
H 0.1896348984 -0.3839118415 -2.1583277578
H 1.7050862767 0.0555558723 -1.3398462802
H 1.8522370864 -3.2698410538 0.1017845763
H 2.9400762030 -1.9395336401 -0.3105046135
H 1.9153371139 -3.0027700815 2.6742103462
H 3.3137113757 -1.9983477862 2.2851608493
H 2.3102460624 -1.5233103133 4.3670592073
H 0.3800268599 0.0085646016 2.1767691220