25

C -0.1483030560 1.5688712353 -0.0112644248
C -0.0047885790 0.0453096460 -0.0061446814
C 0.7423852120 -0.4893524793 1.2224444795
O 0.1022015299 -0.0868712455 2.4354809390
C 0.9390493620 -2.0095358422 1.1710003708
C 1.7500024839 -2.5617312898 2.3476312710
C 1.8829296090 -4.0865916295 2.3239198836
C 2.6937967884 -4.6296049614 3.4929103764
O 2.7466365652 -6.0441319358 3.3737046499
H 0.8321142373 2.0554304735 -0.0623747673
H -0.7354949632 1.9102741793 -0.8690610967
H -0.6389961128 1.9123503243 0.9031477903
H -0.9989385812 -0.4251130133 -0.0409680075
H 0.5188997337 -0.2880968578 -0.9108807865
H 1.7285719766 -0.0072295875 1.2721516030
H -0.7792869156 -0.4779370740 2.4384465871
H -0.0503835575 -2.4917321008 1.1444810262
H 1.4285598392 -2.2728009209 0.2241582480
H 2.7495317314 -2.1048329211 2.3387239808
H 1.2779000308 -2.2374248737 3.2821806172
H 0.8903766865 -4.5540325952 2.3454128279
H 2.3588431700 -4.4140054098 1.3909612114
H 3.7053725035 -4.1910168874 3.4788282307
H 2.2233857970 -4.3269057630 4.4430732325
H 3.2585057788 -6.3884597107 4.1111503489