16

O 0.4832452739 0.4574543424 1.0192528618
C -0.1089141437 -0.3133691235 0.0130254941
C -1.5907663072 -0.0427239987 -0.1100584420
O -1.9899405255 1.0109383652 -0.9997553909
C -2.2367343465 -0.3365858382 -1.3899871147
C -1.4104006220 -0.8691214494 -2.5444799261
N -0.0142870973 -0.4721958834 -2.4482688097
C 0.6106314794 -0.0546049613 -1.3185079943
O 1.7085168851 0.4779257282 -1.3155399430
H 1.3010929155 0.7966586797 0.6167869079
H 0.0041802418 -1.3922758170 0.2354314491
H -2.1584830066 -0.0926869336 0.8172505252
H -3.2849037696 -0.6332873495 -1.4125946516
H -1.5180990967 -1.9635582987 -2.5702717272
H -1.8128969740 -0.4866098656 -3.4890086421
H 0.4770553935 -0.2481097866 -3.3011399765