18

C 0.0402242166 1.5399060415 -0.0720190418
C 0.0564361857 0.0846475614 -0.0299792000
C 0.0691927109 -1.1189624295 0.0016265618
C 0.0735818091 -2.5785542426 0.0490895211
C 0.7139428130 -3.1049172851 1.3441578667
O -0.0920786667 -2.8041658373 2.4870117049
C -1.4319024346 -2.9011789973 2.3025412850
N -2.0848430487 -3.0917551863 1.2380942039
C -1.3542258183 -3.1759670496 -0.0198822208
H 0.6494264411 1.9218030333 -0.8987218769
H -0.9778085645 1.9217147568 -0.2062422738
H 0.4346916091 1.9683892892 0.8558995367
H 0.6621188538 -2.9645142146 -0.7933909513
H 0.8373578057 -4.1935892960 1.2770792579
H 1.6867414132 -2.6482837586 1.5330490888
H -1.9421966678 -2.7812898058 3.2563872531
H -1.9368832550 -2.6597958314 -0.7885198125
H -1.2943597325 -4.2291143181 -0.3244710428