23

C -0.3982522521 1.5691607094 -0.2484517300
C -0.1085894457 0.0762591498 -0.0705192589
C -1.3690576337 -0.7616499146 0.0974938273
C -1.1464907530 -2.2615254624 0.3158259315
C -2.4426540674 -2.6815415906 1.0117141483
C -2.7854238226 -1.4220584222 1.8391901367
O -2.0606441042 -0.3337600093 1.2774639904
O -3.4012025812 -2.9480958848 -0.0010454996
C -4.5689682059 -3.5834353866 0.4628172315
H 0.5281933068 2.1421115336 -0.3526196098
H -1.0050550461 1.7491968428 -1.1429348237
H -0.9484190267 1.9574628159 0.6124497405
H 0.4438320468 -0.3066790948 -0.9380970501
H 0.5288407948 -0.0804182878 0.8088270108
H -2.0244202257 -0.6182152866 -0.7776321288
H -0.9906718031 -2.8239355184 -0.6063839780
H -0.2914846719 -2.4198438135 0.9822775513
H -2.3228850126 -3.5696063862 1.6490393895
H -3.8635175226 -1.2170185853 1.8081929632
H -2.4914296928 -1.5373315196 2.8908616698
H -5.2007292330 -3.7742116774 -0.4081546427
H -4.3392237081 -4.5430215331 0.9530619702
H -5.1355836599 -2.9638258083 1.1741675406