19

C 0.6248231109 1.4487921771 -0.1857555053
C -0.0855131109 0.1113866402 0.0491007832
C 0.1130327559 -0.9070246392 -1.1082924965
C 1.2732078304 -1.7704515739 -0.6418119054
C 1.7633156443 -2.9932853899 -1.3108230998
N 2.5999969982 -1.7818342354 -1.3005591937
C 1.3223657866 -1.6410977852 0.8693245584
O 1.9779263312 -2.3028870449 1.6418320361
N 0.4616043795 -0.6222652371 1.1860633650
H 1.6864273443 1.2904727574 -0.4016125766
H 0.1722215610 1.9830447823 -1.0277716175
H 0.5513831566 2.0912432534 0.6977922207
H -1.1533773481 0.2969041378 0.2106161318
H -0.7901426047 -1.5151560292 -1.2226162739
H 0.3019072120 -0.4069006563 -2.0624368152
H 2.1401167178 -3.8016517647 -0.6911632750
H 1.2815315186 -3.2934441431 -2.2382287639
H 2.5187283255 -1.3086440051 -2.1988385468
H 0.4284271607 -0.2676684741 2.1294316346