19

C -0.3016948764 1.6173846211 0.0345753525
C 0.0301558305 0.1164222461 0.0419393887
C 1.0201537413 -0.2953257427 -1.0772117301
O 1.6306787047 -1.5050615292 -0.6500703151
C 1.4841692132 -1.6455134210 0.7600500773
C 0.8483469761 -0.3505584476 1.2806253097
O 1.8146063108 0.6546371184 1.5493645293
C -1.1968653400 -0.6774997935 -0.0438507991
C -2.2132452689 -1.3165673481 -0.1075015379
H 0.6089567320 2.2061698550 0.1500254713
H -0.7904391789 1.8892808091 -0.9053345380
H -0.9842654015 1.8653474992 0.8516284719
H 0.5213186353 -0.4726110551 -2.0338078000
H 1.7727608997 0.4954616647 -1.2033729011
H 0.8462247261 -2.5117264139 0.9793162593
H 2.4672753654 -1.8170316074 1.2194580629
H 0.2043663711 -0.5250852369 2.1519031897
H 2.4493975653 0.2996927719 2.1789411060
H -3.1091430460 -1.8830635402 -0.1725888872