21

C 0.0387095921 1.6073629710 0.0870556080
C 0.0049727490 0.1038561809 -0.0495837959
C 0.0311095847 -0.4658219138 -1.2659421051
C -0.0622973574 -1.8663655030 -1.6857041490
C -0.8746995643 -2.8084134847 -1.1927703148
C -1.7739563625 -2.5995753233 -0.0103659916
C -1.0027138565 -2.7379277348 1.3151414103
O 0.1847057019 -1.9744146061 1.3476898174
C 0.0165875190 -0.5788740637 1.3065884525
H 0.9202362267 1.9399527446 0.6509820263
H 0.0514672020 2.0997116551 -0.8876723301
H -0.8366682610 1.9753620759 0.6388680907
H 0.1374555706 0.2258582316 -2.1030426259
H 0.5345200951 -2.1164232869 -2.5618525152
H -0.8606591313 -3.7974869094 -1.6439989504
H -2.2161398337 -1.5968836609 -0.0573767302
H -2.6011497697 -3.3185166669 -0.0057345287
H -1.6589556386 -2.4694589407 2.1593710072
H -0.6804283479 -3.7743800066 1.4582993001
H 0.8656592175 -0.1600896140 1.8667353455
H -0.8862828258 -0.2749751139 1.8669579689