25

C 0.0991619620 1.5796816103 -0.0202792846
C 0.0433567505 0.0514760480 0.0193605581
O 0.7519455257 -0.4546076377 1.1509295102
C -1.3944015435 -0.4836307256 -0.0451818755
C -1.4867103662 -2.0048551114 -0.0966975941
C -1.1929096041 -2.8583848709 1.1677256781
C -2.3287980299 -3.8235435232 0.7378981693
C -2.8820458358 -2.7126140802 -0.2048081970
C -4.0682824250 -1.9499395370 0.3818951036
H 1.1349762663 1.9221487679 0.0530730527
H -0.3331735734 1.9713802945 -0.9468320748
H -0.4633157139 2.0109305766 0.8176715016
H 0.6007743987 -0.3450384345 -0.8393427970
H 0.3004657241 -0.1373827982 1.9410631968
H -1.9533438972 -0.0956553772 0.8193229599
H -1.8786714116 -0.0568959257 -0.9347029103
H -0.8557001453 -2.3633964338 -0.9197205261
H -0.1853198144 -3.2616893431 1.2782586029
H -1.4429522121 -2.3192759935 2.0872284698
H -1.9488649936 -4.6853137345 0.1818458867
H -3.0053958172 -4.1872328592 1.5167870933
H -3.1397342906 -3.0456313359 -1.2157605863
H -3.8758416451 -1.6217455330 1.4094831294
H -4.3145991299 -1.0617467884 -0.2098947528
H -4.9573741385 -2.5896409842 0.4054564663