21

C 0.0152129673 1.5195952341 0.2770215563
C -0.0388677403 0.0322402745 -0.1149706856
C -1.4235711571 -0.5443807825 -0.0865899139
C -2.1122253805 -1.0396338423 -1.1176169353
C -3.4977527585 -1.4960842847 -0.7364873535
C -3.4171717315 -1.5525457762 0.8213928245
C -2.2506359817 -0.5857735240 1.1845485824
C -4.6708755404 -1.2735166403 1.5050601824
C -5.7070743388 -1.0304990152 2.0651419338
H 1.0428467713 1.8934354926 0.2388124008
H -0.5926989869 2.1250864402 -0.4026278856
H -0.3594931451 1.6797457567 1.2929282861
H 0.3878862880 -0.0991294803 -1.1156788225
H 0.6034014461 -0.5340966120 0.5748874036
H -1.7460221418 -1.0823894826 -2.1384097403
H -4.2613930944 -0.7779432568 -1.0642301070
H -3.7772107523 -2.4654387578 -1.1625044676
H -3.0931223904 -2.5656826912 1.0897688032
H -1.6873466289 -0.9352855681 2.0572809656
H -2.6345383704 0.4105574354 1.4391615695
H -6.6219731939 -0.8214333195 2.5613734533