9

C -0.0501226190 1.4036312476 0.0107125833
C 1.1834321592 2.0309739160 0.0019959376
N 2.3308756909 1.3439401443 -0.0131581678
N 2.3033501669 0.0212161447 -0.0202097956
N 1.1614681766 -0.6469247399 -0.0126360410
C 0.0026298579 0.0207272876 0.0025233180
H -0.9844405443 1.9524468790 0.0229965241
H 1.2879046841 3.1120410680 0.0069527750
H -0.8907182723 -0.5969648873 0.0079259763