23

C -0.0557594097 1.1108154276 0.2999768015
O -0.2392291470 -0.0079183554 -0.5459626479
C -1.3852781964 -0.7360486666 -0.2361792970
C -1.4542196820 -2.1315321506 -0.7697776433
C -1.3264637413 -1.9054762819 0.7323874951
C 0.0101511097 -2.2337556414 1.3717619589
C -2.5598973296 -2.1516080604 1.5851767625
C -2.8103247961 -3.6230107950 1.9046507525
O -4.0338269331 -3.7031902210 2.6227852355
H 0.8460858254 1.6264053147 -0.0384347002
H -0.9072940707 1.8052814274 0.2368302010
H 0.0715927865 0.8147047986 1.3505932756
H -2.2994055905 -0.1382315632 -0.2355097804
H -2.3963672002 -2.4865666207 -1.1742139721
H -0.5735347144 -2.4844512846 -1.2958598298
H 0.8331577283 -1.8587510446 0.7588037153
H 0.0934026075 -1.7779821339 2.3658357863
H 0.1457657152 -3.3140193744 1.4930619854
H -2.4806280753 -1.5988455059 2.5303858437
H -3.4518350632 -1.7691116513 1.0742346726
H -2.8572441806 -4.2009476393 0.9675368758
H -1.9773964351 -4.0308447810 2.4979398820
H -4.1912250175 -4.6251372672 2.8456604970