13

C -0.0328604760 1.4882380787 -0.0181225708
C -0.0046254787 -0.0012632247 -0.0406872273
N -0.0265513981 -0.6547517632 -1.1637065580
C 0.0022008146 -2.0109842177 -1.0892023090
F -0.0203605030 -2.6277573151 -2.2529397622
N 0.0497880750 -2.7588122541 -0.0403761852
N 0.0719515173 -2.0659815760 1.1206103101
C 0.0490693214 -0.6940060945 1.2709066431
O 0.0728717179 -0.1426166467 2.3568007542
H 0.8516689615 1.8685416239 0.5046599284
H -0.0746901830 1.8849487420 -1.0320595823
H -0.8938285820 1.8347098836 0.5640140548
H 0.1094934131 -2.6326876761 1.9577222242