17

C -0.0393441943 1.5404035232 -0.1512730094
C 0.0420230662 0.0383555510 0.0502418186
O 0.7184279907 -0.5034775411 -1.0928738825
C 0.7541435271 -1.9078753238 -1.2052473507
C 1.5350240807 -2.6063064187 -0.0683361276
C -0.6229912715 -2.4740848495 -1.2764922982
N -1.6986885868 -2.8940952965 -1.2834514180
C 1.4331056850 -2.1828662253 -2.4927471210
N 1.9911070239 -2.4229946502 -3.4736122439
H 0.9607721767 1.9715026946 -0.2467067960
H -0.6065657006 1.7768988784 -1.0549569003
H -0.5372993644 2.0029489874 0.7056724598
H 0.5975081755 -0.2008652752 0.9664029476
H -0.9606367560 -0.4017986745 0.1325196471
H 1.0082407164 -2.4894311438 0.8800102646
H 1.6362308197 -3.6724208689 -0.2812587308
H 2.5265899618 -2.1543466172 0.0010936406