24

C 0.0226532992 1.3149639061 -0.6593847357
C -0.0912308246 0.0203608751 0.1501391216
C -1.4218195592 -0.7043615407 -0.0714297541
C -1.5441745495 -2.0028810331 0.7327739572
C -2.9421704207 -2.6105592190 0.6338774553
O -3.9497351761 -1.9233463374 0.6317957052
N -2.9764344185 -3.9751916159 0.5768662798
C -4.2137980313 -4.7339189759 0.4903371124
C -4.4087874051 -5.4029206694 -0.8721053249
H 0.9786930890 1.8167198221 -0.4799622678
H -0.0533683814 1.1172582427 -1.7344335139
H -0.7773671195 2.0156466109 -0.3965781155
H 0.7408123836 -0.6482515606 -0.1098561040
H 0.0247808676 0.2445578578 1.2191318389
H -2.2604117050 -0.0560990537 0.2026327730
H -1.5458579716 -0.9263050619 -1.1397249884
H -0.7783865571 -2.7258434978 0.4251311864
H -1.3625276901 -1.7917955744 1.7955919096
H -2.1038274912 -4.4763883293 0.5443703914
H -4.2334358531 -5.4873788667 1.2878117057
H -5.0159949120 -4.0194958948 0.6860443050
H -5.3455582385 -5.9690621755 -0.8893526650
H -4.4440268540 -4.6538996552 -1.6683708446
H -3.5935432208 -6.1001475135 -1.0959095377