20

C 0.1815347658 1.6902155517 -0.0052856924
C 0.0419966468 0.1642323286 0.0148877534
C 0.7042725548 -0.5358224020 -1.1935983477
O 0.5414232273 0.2469444077 -2.3575769717
C 2.1606656010 -0.7375293723 -0.7366560191
C 2.0255166994 -1.0816393889 0.7532549224
N 0.7485241870 -0.4648257129 1.1351306915
C 0.2485677092 -0.6089093550 2.3853522900
O 0.8210131108 -1.1781315561 3.2943273247
H 1.2303269630 1.9973410657 -0.0485563613
H -0.3322531532 2.1057283093 -0.8750339909
H -0.2576110701 2.1166526926 0.9014481236
H -1.0214803196 -0.0926569660 0.0654449049
H 0.2275695345 -1.5204742495 -1.3189844736
H 0.9262635532 -0.2306282689 -3.0985661338
H 2.6795781087 -1.5178977941 -1.2993451930
H 2.7069290986 0.1999544410 -0.8800669187
H 1.9799326494 -2.1620970485 0.9313322928
H 2.8453045415 -0.6930502292 1.3639850329
H -0.7542378481 -0.1482551533 2.4949629259