20

C -0.0190654566 1.4458496007 -0.1875658670
C 0.1110370523 -0.0530535608 -0.0348844769
C 1.4741290045 -0.7260197136 -0.0884024680
C 0.7120481441 -0.6559124253 1.2024730280
C 1.1033777861 0.0251156101 2.5250719942
C 0.5256163811 -1.2235736061 3.2588722810
N 0.1886769517 -1.7870508790 1.9505538005
C -0.3657092905 -2.9752553886 1.6371761092
O -0.7180262285 -3.8064608679 2.4523681693
H 0.8128291626 1.9665111508 0.2978445776
H -0.0167871620 1.7346283575 -1.2441127780
H -0.9492855075 1.8147270681 0.2582007208
H -0.7021454788 -0.6282303263 -0.4720913903
H 1.5548119650 -1.6888150675 -0.5824023720
H 2.3522410657 -0.0941991744 -0.1897139000
H 2.1748039530 0.1783858054 2.6625473460
H 0.5763509180 0.9579422899 2.7327656427
H 1.2498083560 -1.8249348660 3.8158772185
H -0.3472036307 -1.0421431856 3.8926476743
H -0.4691816756 -3.1153057416 0.5414299804