14

C -0.0416051194 1.4332896444 0.0309856019
N -0.0316329570 -0.0105317809 0.0144661162
C -1.1499617258 -0.8568192471 0.0419496526
C -0.6935094567 -2.1230120109 0.0437292717
O -1.3641240130 -3.2969084669 0.1383143168
N 0.7006315846 -2.0727762079 -0.0065821769
C 1.1424844757 -0.7497473565 0.0068031692
O 2.2892173906 -0.3410531672 0.0110362756
H 0.9995326253 1.7597888368 0.0184526545
H -0.5566764921 1.8384692848 -0.8471396442
H -0.5281095797 1.8178333221 0.9343598915
H -2.1585321006 -0.4834841439 0.0447312322
H -1.2830125270 -3.7860950730 -0.6899096722
H 1.3234227053 -2.8453584237 0.1539658311