21

O -0.0158399314 1.4470170093 0.2266093425
C 0.0595359849 0.0466824438 0.0082092641
C -1.3537811269 -0.5158421094 0.0730211487
C -1.4028911098 -2.0333071048 -0.1591059917
C -2.7970472603 -2.5893340480 -0.0938646773
C -3.5009687362 -2.9941237183 1.1913974533
C -3.3419178559 -3.9885219784 0.0821036095
O -4.3618415243 -3.8094891502 -0.9037129984
C -3.8562714516 -2.4778097670 -1.1927258434
H 0.8747413292 1.8070442507 0.1845349395
H 0.5057744220 -0.1807627088 -0.9743546690
H 0.6890311913 -0.4432133222 0.7699438186
H -1.7854550654 -0.2734525064 1.0509565015
H -1.9666920795 0.0009775729 -0.6755220693
H -0.9601190084 -2.2699954027 -1.1368853645
H -0.7789367190 -2.5390604915 0.5895133190
H -2.8368019722 -3.1284619488 2.0406401891
H -4.4931897661 -2.6228771065 1.4348193362
H -2.8735263606 -4.9635447753 0.1601028714
H -4.6286191696 -1.7060835648 -1.0903413063
H -3.4289704602 -2.4416274435 -2.2026731535