15

C 0.0338407773 1.4444254936 0.2928897731
C -0.0315193934 -0.0218852299 0.0634891117
N -1.0442751419 -0.8229382444 0.2143531733
C -0.5058498639 -2.0418162245 -0.1378964290
N 0.7549537689 -2.0036155208 -0.4823613305
O 1.0783254887 -0.6485917023 -0.3498051804
C -1.3184776836 -3.2790667089 -0.1291735681
C -1.1831883284 -4.3023637635 -1.1828264521
O -0.6399504375 -4.5086088819 0.1151734833
H 0.7738450645 1.6805765680 1.0634535334
H 0.3310230116 1.9649872321 -0.6223097454
H -0.9452251779 1.8013828712 0.6111256889
H -2.2751771446 -3.1610762850 0.3751403587
H -2.0447488805 -4.9173567540 -1.4389530103
H -0.4530778894 -4.1415911097 -1.9733348566