21

O -0.0056503603 -0.0524593851 -0.1207792905
C 0.0911922097 1.1480063605 -0.0551090774
C 1.3761486834 1.9265141376 0.0028039123
C 1.3462045592 3.1861091356 0.9221725994
C 1.8758076531 4.0591230796 -0.2447916563
C 1.6081701205 2.8879704677 -1.2355870766
C 2.7796200377 2.2992548088 -2.0507247491
C 3.0186968488 0.8955108195 -1.4505295079
C 2.6286756855 1.0367394769 0.0328852010
H -0.8225866872 1.7904235648 -0.0541787940
H 0.3263626773 3.4559655500 1.2146887515
H 1.9552485152 3.1252542234 1.8272266560
H 1.3368078527 4.9901384383 -0.4347246712
H 2.9405913680 4.2938878213 -0.1595302769
H 0.7117680842 3.0511269682 -1.8400546133
H 2.5676699603 2.2601568257 -3.1229224856
H 3.6713503271 2.9240306195 -1.9248048646
H 2.3521845685 0.1671179315 -1.9251468213
H 4.0434586586 0.5405126866 -1.5927665562
H 3.4298561057 1.5349514604 0.5908130074
H 2.4285111519 0.0745013091 0.5092317933