14

N 0.0137762487 1.3892295390 0.1201679927
C -0.0071011006 0.0319793116 0.0420216898
C -1.1356961680 -0.7429160252 0.0159959974
O -2.3559877346 -0.1479644494 0.0221536843
N -1.1340251651 -2.1041477416 -0.0140649603
N -0.0411648626 -2.7597278066 -0.0279943304
N 1.1066283179 -2.0402629068 -0.0169814621
C 1.2670605671 -0.6583054462 0.0060235676
N 2.3722654423 0.0004487094 -0.0084492324
H 0.9105092877 1.8089071653 -0.0796153776
H -0.8200447629 1.8945389928 -0.1275468301
H -3.0089582674 -0.8602824461 -0.0016274008
H 1.9281201144 -2.6271006405 -0.0395437957
H 3.1917310130 -0.6036894958 -0.0450476024