20

C 0.0007452295 1.4224206274 -0.1429262744
O 0.0026282453 0.0340164784 0.0946191543
C -1.2714412508 -0.5818255487 0.0555288675
C -1.7527615133 -0.7889563545 -1.3812694661
O -0.9003713995 -1.6919026718 -2.0933253341
C -0.3774914769 -2.7083673240 -1.3643204143
N -0.4577938451 -2.9325246576 -0.1248094221
C -1.1603855030 -1.9629631093 0.7235143077
C -0.4841128538 -1.9088160351 2.0934982714
H 1.0246426586 1.7730730872 0.0065373009
H -0.3056193127 1.6804811061 -1.1673224673
H -0.6622517567 1.9520345179 0.5591319706
H -2.0085863656 0.0377952243 0.5927164577
H -2.7765566689 -1.1854313877 -1.3768706823
H -1.7509144040 0.1392227005 -1.9569906641
H 0.1767492285 -3.3780992718 -2.0195349694
H -2.1864870018 -2.3313379493 0.8651142347
H 0.5360030213 -1.5329398835 1.9981772284
H -1.0350000670 -1.2517813507 2.7751091606
H -0.4492330740 -2.9126334777 2.5234132300