15

C 0.1082055657 1.3955866550 0.1013580727
N -0.1557446510 -0.0111881266 -0.1289571997
C 0.5247583101 -0.7196950558 -1.0773556543
N 0.5986549792 -2.0435230949 -1.1152150101
C 1.3147317205 -2.3331675290 -2.2388096259
C 1.6944989048 -1.1870599478 -2.9005011534
N 1.1735409916 -0.1426303380 -2.1229367284
C 2.4346795030 -0.9655554395 -4.0728256395
N 3.0446403560 -0.7665134876 -5.0403773140
H 1.1623188185 1.6094534404 0.3326763911
H -0.1830153565 1.9898679657 -0.7731134349
H -0.5048196804 1.7360168763 0.9371810592
H -0.3887625966 -0.5744222375 0.6740797364
H 1.5341771723 -3.3499368474 -2.5262461630
H 1.2521338428 0.8372940268 -2.3344863962