16

C 0.2109879481 1.4605171116 -0.0420702249
C -0.0019109179 -0.0124626996 -0.0012053675
N -0.4007063070 -0.6900562868 -1.0455955120
O -0.4672102088 -2.0126749743 -0.5680278438
C -0.0974779583 -1.9684703257 0.7208458051
N 0.2058231448 -0.7738032927 1.1317535308
C -0.0689883233 -3.2200537838 1.4857679751
C -1.1339417129 -4.2455035098 1.2587686892
N 0.2318030398 -4.4949270465 0.8055032405
H 1.2460061718 1.6993906640 0.2196904577
H -0.0081295207 1.8494151741 -1.0373262938
H -0.4344078568 1.9557194684 0.6894894356
H 0.3674420632 -3.1057159004 2.4714167166
H -1.4601188239 -4.8484365378 2.1009917120
H -1.9000785168 -4.0156309316 0.5243434350
H 0.2989476490 -4.3332918091 -0.1971891256