16

O 0.0342215235 -0.0186245965 0.0797802189
C 0.0358489228 1.1848835480 -0.0181917230
N -1.0661722699 2.0156471664 0.0504379308
C -0.7778391030 3.3897717291 -0.1752334834
C 0.2240277364 4.1752646032 0.7312019757
C 0.9001374511 3.4593727597 1.8386655462
C 1.5322226888 2.3650002071 1.3986663995
C 1.2602754301 2.1425438614 -0.0859598052
C 0.6638393283 3.4854295060 -0.5493677584
H -1.9540058606 1.6658730291 0.3719569890
H -1.5363179814 3.9639397136 -0.6953137976
H 0.0745381898 5.2487591762 0.7669313580
H 0.8436343831 3.7803399181 2.8717662940
H 2.0260347678 1.6191845551 2.0090131935
H 2.0819675881 1.7294284223 -0.6693370614
H 1.0182110950 4.0030554613 -1.4314089966