19

N -0.0349516951 1.4347999603 0.1577561272
C -0.0230068664 0.0040061612 -0.0132975354
C -0.6183900053 -0.8207118719 1.1173939563
C -1.3643406232 -0.7105371378 -0.1819229137
C -2.6514198533 0.0751156193 -0.2959239681
C -3.8597082371 -0.7406830919 0.1558584074
O -5.0098961507 0.0702098083 -0.0194629862
C 1.1069646147 -0.5605806120 -0.7241612719
N 2.0227876531 -0.9696336212 -1.3024797193
H 0.7721906880 1.7349107616 0.6960109005
H 0.0108677245 1.9050880643 -0.7412836543
H -0.1371027118 -1.7560451262 1.3761996246
H -0.9793617417 -0.2333490556 1.9544781945
H -1.3086951895 -1.5896024918 -0.8184815006
H -2.5891843743 0.9874808796 0.3021094237
H -2.8143843935 0.3837524801 -1.3355432259
H -3.9292177679 -1.6673215845 -0.4376376951
H -3.7326206977 -1.0385937224 1.2090347076
H -5.7799325630 -0.4332080095 0.2599809188