17

C -0.0234995584 1.5637805894 0.0099210860
C -0.0030632563 0.0524972760 0.0479611265
C 1.2614221217 -0.7148559045 -0.2239232699
C 0.6861883053 -0.6707188048 1.1729954997
C 1.3050329235 -0.1510065649 2.4620786432
O 0.2359553565 -0.0402513845 3.4016129619
C 0.8510880740 -1.3361161399 3.2317057231
C 0.2406623495 -1.9095319770 1.9398218388
O -0.2559172416 -2.9509488851 1.6259070135
H 0.9279694623 1.9825153802 0.3539972540
H -0.1967461491 1.9263293488 -1.0087640451
H -0.8151140092 1.9629314419 0.6517333772
H -0.9185728510 -0.4301266491 -0.2861677428
H 1.2008433211 -1.6636339869 -0.7468882567
H 2.1720193544 -0.1505166315 -0.4019294738
H 2.1941139460 0.4471195764 2.6169616932
H 1.2588904813 -1.8227203644 4.1093540912