19

C -0.5970546586 1.3351256971 -0.0616521066
C 0.0142615486 -0.0598070063 -0.0236352608
C 1.2732823067 -0.3512220428 -0.8672745953
O 1.5684471558 -0.1441041780 -2.0076881099
C 2.0103641108 -0.9569201858 0.3467654200
O 2.7738859568 0.0947235287 0.9833509886
C 1.7058135099 0.3716566670 1.9209751806
C 0.7568854353 -0.6313472463 1.2359946496
C 0.0150058819 -1.6304265294 2.0949220209
H 0.1318283601 2.1057862862 0.2046969323
H -0.9504012303 1.5559658065 -1.0731672975
H -1.4492092197 1.4180823341 0.6206148929
H -0.7429762435 -0.7975878856 -0.3277924142
H 2.5467259001 -1.9071772056 0.2763277755
H 1.9947334581 0.0787756423 2.9387192588
H 1.4175456231 1.4282995293 1.9239956072
H -0.7980204961 -1.1454341611 2.6485039121
H -0.4309256663 -2.4250330759 1.4870198096
H 0.6798350572 -2.1005265941 2.8269583360