21

C -0.0311661887 1.4897244350 -0.4334389625
C 0.0269152723 0.1538838560 0.3197523999
C -1.3288311687 -0.5090809762 0.3711921713
O -1.8340833969 -1.0881558301 -0.8342408262
C -1.5866681224 -1.9688924408 0.2862697761
C -0.4852343005 -2.9913929885 0.0876350563
C -2.7731530409 -2.4862507270 0.9336328595
C -3.7436109037 -2.9466013449 1.4789821680
C -4.9248784200 -3.4913499760 2.1313445454
H 0.9530569386 1.9659511659 -0.4655272502
H -0.3706618583 1.3347693314 -1.4617735059
H -0.7258485662 2.1866776042 0.0476379184
H 0.7557458002 -0.5060490314 -0.1582495212
H 0.3697949605 0.3184304540 1.3494638040
H -2.0814623097 0.0664966618 0.9162083594
H 0.3591552205 -2.5653467164 -0.4556058863
H -0.1369493249 -3.3700744634 1.0535110297
H -0.8700160216 -3.8389924526 -0.4870191120
H -4.8195672283 -4.5669284182 2.3106996023
H -5.1068778665 -3.0085496615 3.0978930101
H -5.8177584549 -3.3443237811 1.5137205841