18

O -0.1519425285 -0.0048558990 -0.0265994122
C -0.0290439252 1.1919938557 0.0089657001
C 1.2836885705 1.9417567095 0.0015071808
C 1.3807265919 2.8234771824 -1.2617606076
C 2.7278502238 3.5570055817 -1.3181749138
C 3.1005347328 4.1633540560 0.0088802689
C 2.5010850476 3.8434429038 1.1542322601
C 1.4070987276 2.8138109754 1.2686472454
H -0.9260015050 1.8584894434 0.0452197710
H 2.0859319834 1.1961364828 -0.0130162829
H 1.2426651971 2.2135612170 -2.1607146315
H 0.5659374276 3.5591120819 -1.2461142215
H 3.5194461811 2.8663864355 -1.6441764216
H 2.6896304285 4.3392041038 -2.0865978241
H 3.9010276110 4.8990758296 0.0070482066
H 2.8017584719 4.3316129875 2.0781610044
H 0.4476866806 3.3153703933 1.4732237695
H 1.5900523133 2.1713980994 2.1388286485