18

O 0.0175449745 0.2123447877 0.6170611374
C -0.0089947330 1.3007214785 0.1096558271
C -1.2777395178 2.1107247078 -0.2185473951
C -0.7793699012 3.4039976072 -0.8606628383
C -0.7127398964 4.7052637113 -0.0518311492
C 0.0801785321 4.5059573047 1.2158554939
C 0.8021304079 4.5898966930 -0.1034779969
N 0.7356636356 3.3612602017 -0.9002930501
C 1.2239192139 2.1151088678 -0.3247208671
H -1.9126495184 1.5124562238 -0.8787752733
H -1.8393552180 2.2730794716 0.7066683107
H -1.1858200199 3.5573161270 -1.8641725153
H -1.3368271039 5.5728530544 -0.2198662196
H 0.1652863708 5.3913793268 1.8381811129
H 0.0296108832 3.5793531442 1.7812187254
H 1.5564628500 5.3396389296 -0.3143900307
H 1.8714015741 2.2734823230 0.5464095887
H 1.7963708364 1.5225375600 -1.0503533105