21

O -0.0201071232 1.3323202734 0.4189204316
C -0.0389690169 -0.0022378320 -0.0811366823
C -1.4521289431 -0.4914409628 -0.0763159067
C -2.5480545212 0.1612948248 -0.9174206121
C -3.7062061397 -0.7658965148 -0.4817889564
C -3.1048992604 -2.1660371695 -0.7550251483
C -1.8099750510 -1.9659178830 0.0275350608
C -2.1314234389 -1.0238100542 1.1744932308
C -3.6124118675 -0.6774992854 1.0614648652
H 0.8715054960 1.6768913305 0.3119489517
H 0.3665895275 -0.0381202498 -1.1060433622
H 0.5857431247 -0.6661015012 0.5388331167
H -2.7111997649 1.2087231341 -0.6475139791
H -2.3429776028 0.1059141569 -1.9929313449
H -4.6832296233 -0.5642352421 -0.9202005705
H -3.7222044176 -2.9775785180 -0.3546087210
H -2.9376088423 -2.3522567355 -1.8214494851
H -1.0492025712 -2.7317097699 0.1124742374
H -1.6068731213 -1.0729163245 2.1198643677
H -3.8454536205 0.3227831525 1.4409569266
H -4.2622383222 -1.4010882893 1.5659634700