17

C -0.0679272940 1.5291397895 0.0504448057
C 0.0333242199 0.0015585669 -0.0093572537
C 0.8243710141 -0.5376693685 -1.2304564339
C 1.4965238392 -1.8129538593 -0.7029614807
O 2.0763865780 -2.6366866637 -1.3555258620
C 1.2934464549 -1.8275619033 0.8210233169
N 0.7364093573 -0.5224591956 1.1882644107
C -1.3311174270 -0.5742698079 -0.0207475270
N -2.3946564510 -1.0243234881 -0.0554566967
H 0.9363659632 1.9647475343 0.0245724028
H -0.6329299524 1.9155489767 -0.8005780352
H -0.5657918733 1.8400635007 0.9720261574
H 0.2276153078 -0.7423907120 -2.1207789596
H 1.6079688422 0.1785560408 -1.5056707835
H 0.5869617795 -2.6319279352 1.0662127602
H 2.2262333400 -2.0413967043 1.3470538690
H 1.4868243516 0.1228276090 1.4133777397