25

C 0.2422539670 1.6862871930 0.2165605963
C 0.0409452627 0.1639259783 0.3048350917
C 0.6123492712 -0.3642202811 1.6279235936
C -1.4542025881 -0.1882774313 0.1028911428
C -1.9088215683 0.2857156785 -1.2670168543
O -2.9671869856 0.8109993594 -1.5048785399
C -1.8156432391 -1.6974530993 0.2825138482
C -3.3369508183 -1.9081900402 0.2901746226
C -1.1400670787 -2.6241048881 -0.7415970566
H 1.3024866399 1.9453719422 0.2988503399
H -0.1275440283 2.0985877439 -0.7281811870
H -0.2908936987 2.1964567708 1.0273282329
H 0.6112093594 -0.2939867865 -0.5157330750
H 0.0260234873 -0.0041855967 2.4817693615
H 0.6330745478 -1.4562228989 1.6714242510
H 1.6401930730 -0.0122372777 1.7633049299
H -2.0500028020 0.3710512615 0.8359150906
H -1.1787899234 0.0928327934 -2.0895508937
H -1.4484408286 -1.9779665198 1.2762771508
H -3.7906380671 -1.6365678404 -0.6678944600
H -3.5738645752 -2.9585305648 0.4888738552
H -3.8182981777 -1.3013412875 1.0635822782
H -1.5018428825 -2.4376242103 -1.7588204847
H -0.0514722827 -2.5141802124 -0.7478935866
H -1.3642498241 -3.6694591661 -0.5065035272