15

O -0.0300001888 0.4950862350 1.1758846023
C -0.1381703177 0.2939744753 -0.2091605914
C -1.4224492946 -0.4698267249 -0.6057687009
O -1.6496971138 -0.4717540520 -1.9959703422
C -1.3990426337 -1.8642990345 -0.0310488372
N -0.8888299311 -2.2413810438 1.1092908127
C -1.1354674853 -3.5915130612 1.1014274777
N -1.7465893512 -4.0344433349 0.0394409584
O -1.9263158882 -2.8722772829 -0.7277066722
H -0.0274045202 -0.3799584249 1.5911934204
H -0.1882139420 1.2772264627 -0.6853859638
H 0.7341874927 -0.2375386115 -0.6287540972
H -2.2725159530 0.0611818459 -0.1607415123
H -0.9436825963 -0.9668661076 -2.4270404235
H -0.8501147968 -4.2552253708 1.9043741893