21

C 0.0898873033 1.5921289016 -0.0831953952
C 0.0234005442 0.0690734247 -0.0663018858
C 0.9914925368 -0.6617001529 -1.0904812699
C 1.7156036052 -1.2911839775 0.1033904402
O 2.2146521077 -0.2174515735 0.9138546762
C 0.8463479134 -0.6023786416 1.0676351211
C -1.3692938403 -0.5322797991 -0.1234092959
C -2.5711167671 0.0750173370 0.5590441374
C -2.4918596840 0.0459894866 -0.9484302685
H 1.1286392629 1.9074189544 0.0392103512
H -0.2775109874 2.0008444507 -1.0301033753
H -0.4939136429 2.0376459177 0.7289058743
H 0.4611033437 -1.3831913112 -1.7163973792
H 1.6138977791 -0.0189805615 -1.7183436535
H 2.2362887196 -2.2395127371 0.1709766350
H 0.5143437050 -0.8822318142 2.0620617051
H -1.3459209478 -1.6202911468 -0.0966921823
H -3.2670736893 -0.5935083384 1.0539667348
H -2.4633892980 1.0368273468 1.0471657791
H -2.3251286098 0.9880196817 -1.4584136696
H -3.1352464742 -0.6395597973 -1.4889043092