19

C -0.0053329002 1.5601985384 -0.2604639291
C 1.5068057044 1.5979390780 0.1808938489
C 1.3155107066 0.2029013918 0.8309770861
C 0.4773408155 0.0838345750 2.1329987882
C -0.3907738756 -0.8260267655 1.2447103336
O 0.5247378538 -1.9329589141 1.0348177033
C 1.5555895465 -1.2475251051 0.2765027816
C 0.7688306763 -0.8931290855 -0.9986206082
C -0.0023516361 0.0288161046 -0.0151263421
H -0.6589090727 2.1141966285 0.4173944787
H -0.2329116430 1.8764318181 -1.2815541442
H 2.1960847031 1.5987617591 -0.6667272328
H 1.8063702683 2.4003800679 0.8596944789
H 0.9141187766 -0.3785503957 3.0207244233
H 0.0120034284 1.0373297570 2.3910772096
H -1.3768869172 -1.2157506826 1.5006886370
H 2.4793897599 -1.8261411729 0.3168153968
H 1.3331867960 -0.3078866153 -1.7275171426
H 0.2492957993 -1.7168185715 -1.4928379271