18

O 0.0892675253 1.3964314434 0.2548289279
C 0.0922493014 -0.0002987520 0.0118055902
C -1.2979203033 -0.5584544288 -0.0929808037
C -2.1266683590 -0.9547509835 1.1017906861
C -1.7077457044 -1.9940281407 0.0709415411
C -2.6760286721 -2.2726263159 -1.0685268002
C -3.0605300409 -0.8561498324 -1.5527492599
O -1.9776069327 0.0040787765 -1.1973839310
H -0.4742842908 1.7869388849 -0.4225625440
H 0.6439850580 -0.2411887983 -0.9110557470
H 0.6180602436 -0.4661711317 0.8509084939
H -1.6215266059 -0.9824498259 2.0612434405
H -3.1658696985 -0.6476578154 1.1559335175
H -0.9985731576 -2.7633426329 0.3548800608
H -2.1602813526 -2.8305570491 -1.8571538598
H -3.5575895736 -2.8489393120 -0.7717501793
H -3.2045607378 -0.7876060515 -2.6344313566
H -3.9859573990 -0.5164855745 -1.0679615264