23

C -0.6310942936 1.4905478471 0.1851896743
C 0.0061088888 0.1061370247 0.0064499523
C -1.0821214174 -0.9309125168 -0.3273235029
C 1.1109487677 0.0998733695 -1.0864754094
C 2.1142333950 -1.0079053462 -0.6791432910
C 2.0325031691 -1.0509859094 0.8384354859
C 2.1020087555 0.2811022895 1.5666993569
C 0.7684342121 -0.3565868550 1.2609180381
O 0.0254276043 -0.8777166625 2.3261822723
H 0.1187199526 2.2428055911 0.4518632238
H -1.1277988833 1.8212021192 -0.7335836875
H -1.3906893247 1.4757579797 0.9761901901
H -1.6294322205 -0.6322288705 -1.2277326433
H -0.6501677223 -1.9208171009 -0.5051437645
H -1.7944974860 -1.0299401623 0.4952856697
H 0.6917948526 -0.0634916007 -2.0836675913
H 1.6140537388 1.0718952042 -1.1159176032
H 1.8111135669 -1.9776316145 -1.0901869490
H 3.1236506335 -0.8035981660 -1.0524495026
H 2.3725090834 -1.9313246961 1.3719701709
H 2.4092064257 0.2339605055 2.6058832941
H 2.4289616822 1.1719156573 1.0397306772
H -0.3154955708 -0.1371363668 2.8392800491