17

O -0.1232759768 1.2828584917 -0.3380274878
N -0.0338176636 -0.1164363281 -0.2835843628
C -1.1328496738 -0.6528506191 0.0569303717
C -2.4741434582 -0.0233451590 0.3390044995
C -3.4120025797 -1.2352445361 0.5649698625
C -2.7229878458 -2.4024289614 -0.1710151228
C -1.2313876346 -2.1665809754 0.1125423335
O -0.3723473316 -2.8380324846 -0.7759616649
H 0.7618120791 1.5376046313 -0.6203907462
H -2.4343238563 0.6712874006 1.1833896884
H -2.7723451057 0.5726252276 -0.5319155257
H -3.4815008342 -1.4592235143 1.6352842825
H -4.4283953505 -1.0521323760 0.2096366744
H -3.0664674780 -3.3867374114 0.1548997176
H -2.8797892937 -2.3292508940 -1.2534337600
H -1.0220284573 -2.4811365987 1.1524517606
H 0.3698652607 -2.2422236930 -0.9392239105