19

N -0.0490664408 1.5172760971 0.0003628978
C 0.0185167959 0.0507916511 -0.0028696269
C 0.7589945958 -0.5019190224 -1.2560106231
O 0.2008023313 -0.0032458868 -2.4530247595
C 0.6987237911 -0.4599822421 1.2801297011
C 0.0161515231 -0.0275177171 2.5742976494
O 0.7855126150 -0.5697888191 3.6373471838
C -1.3689929343 -0.4620301517 -0.0887386349
N -2.4307131044 -0.8966549031 -0.2314993479
H 0.8820940192 1.8802940858 0.1901792781
H -0.2921819739 1.8226724214 -0.9396693043
H 1.7922837624 -0.1411036356 -1.2208829131
H 0.7759555986 -1.6007938799 -1.2347770767
H -0.6526524230 -0.4326001417 -2.5865422776
H 0.7499545228 -1.5533298190 1.2569904773
H 1.7326251309 -0.0930341087 1.2850964484
H -0.0331594513 1.0683762684 2.6242421990
H -1.0172075840 -0.4051781029 2.5912715772
H 0.3670693855 -0.3208170837 4.4664309218