18

C -0.0924668887 1.3784380637 0.1617753316
O -0.0510255223 -0.0151016925 -0.0928754834
C -1.3211248500 -0.6527712676 -0.0831503514
C -1.1596570091 -2.0110282955 -0.7698621449
C -0.5082833097 -3.0253195761 0.1297496917
C -0.6254791243 -2.9203097605 1.4523892885
N -1.3227989005 -1.8632279755 2.0508645654
C -1.7845834643 -0.7565781957 1.3811794881
O -2.4299698461 0.1146959164 1.9332373969
H 0.9368238867 1.7379378989 0.0909927980
H -0.7081457064 1.8997458383 -0.5867449369
H -0.4932891597 1.6086566198 1.1559689281
H -2.0605664604 -0.0323117457 -0.6075367477
H -2.1501145853 -2.3693493269 -1.0880596259
H -0.5763097639 -1.8531223792 -1.6826108665
H 0.0386243703 -3.8553505990 -0.2987721372
H -0.1998225698 -3.6318374051 2.1493401571
H -1.5162135666 -1.8820373379 3.0410499285