18

C -0.2300780880 1.4615441193 -0.0212646032
N 0.0660146201 0.0401848418 0.0774098642
C 1.3880256203 -0.5086071623 -0.1957236630
C 2.5876422147 0.3764521349 -0.1312464493
C 2.7450977536 0.9110120811 1.0831055832
C 1.7074748861 0.4143209063 2.0619146607
C 0.8055040610 -0.4877906784 1.2213158722
C 0.2349806167 -1.7207298517 1.8241389278
O 0.5310371734 -2.1442703514 2.9151407981
H 0.6043987070 2.1269174418 0.2350241061
H -0.5387326265 1.6765353192 -1.0488300879
H -1.0728868521 1.6842342207 0.6397954876
H 1.3935713772 -1.3973111260 -0.8217425862
H 3.2188254726 0.5593135289 -0.9928331081
H 3.5047592942 1.6348562027 1.3572876030
H 2.1419496767 -0.1764000007 2.8762246387
H 1.1553875036 1.2356626087 2.5366809897
H -0.4998795106 -2.2332641447 1.1664608565