17

C -0.2776825861 1.5248924399 0.0586369660
C 0.0869376225 0.0347946966 -0.0405278626
C 0.7387362453 -0.4815486020 1.2186326785
C 0.1175503626 -1.4107969792 2.0512230085
C 0.7747039550 -1.8311206864 3.2068974972
C 2.0283780036 -1.3173194742 3.5021941495
C 2.5470326046 -0.3952905702 2.5963054998
F 3.7502128879 0.1209040787 2.8425584627
N 1.9551034291 0.0189032331 1.5035130318
H 0.6120902512 2.1171177760 0.2871974783
H -0.7009433993 1.8838037020 -0.8841332440
H -1.0141077008 1.6986348218 0.8499654912
H -0.8061195868 -0.5593116520 -0.2601012702
H 0.7856933723 -0.1080724450 -0.8727122908
H -0.8621400263 -1.7984294383 1.7972751401
H 0.3121365604 -2.5546081875 3.8700873112
H 2.5914813048 -1.6028700131 4.3812335627