22

C -0.1528883816 1.3706544883 -0.0254905336
C 0.0717004316 -0.1004496659 0.2974817997
C 1.1300185521 -0.8119878707 -0.5848713220
N 2.1007408187 -0.7012991401 0.5177505974
C 3.0867310861 -1.7472658390 0.7088343245
C 1.0095358322 -0.4240035441 1.5049597334
C 1.3603912043 0.6408459626 2.5339707046
C 0.5897429287 -1.7130512697 2.2113617864
O -0.2735658296 -2.4672963267 1.8375710658
H 0.7940439721 1.9076708821 -0.1399520215
H -0.7048221484 1.4680374542 -0.9665544542
H -0.7376330965 1.8727335379 0.7524676182
H -0.8761554835 -0.6359640364 0.3612715766
H 0.8506718155 -1.8484617014 -0.8267740915
H 1.4430336690 -0.3030926548 -1.5046887081
H 3.8043640976 -1.7102696232 -0.1183531331
H 3.6439401088 -1.5748563457 1.6359740913
H 2.6655524958 -2.7675715667 0.7393557849
H 1.7454371818 1.5370779637 2.0447041217
H 0.4865996095 0.9135359403 3.1369482848
H 2.1336039420 0.2744249415 3.2195455935
H 1.1969868938 -1.9541588361 3.1159749713