21

C -0.4854579080 1.4541324878 0.1324522313
C 0.0050715363 0.0045235613 0.0810322816
C 0.8622849068 -0.2617742150 -1.1862377695
C 0.1199759832 -0.1233836877 -2.4320027418
C -0.5156517960 -0.0098119904 -3.4467406315
C 0.7844869513 -0.4622340472 1.3082201111
O 1.0729828225 -1.8429549877 1.2761285434
C 1.8961789129 0.3410738666 1.9131223017
C 0.6030529260 0.1363348188 2.6809504349
H 0.3449515671 2.1592971455 0.2492938981
H -0.9980931408 1.7024470483 -0.8005867179
H -1.1885849166 1.6152133667 0.9537822936
H -0.8813875884 -0.6432026974 0.0089907001
H 1.7179241506 0.4264373724 -1.1877074918
H 1.2782746340 -1.2720125513 -1.1118695747
H -1.0626306418 0.0857558808 -4.3515523199
H 0.2412297981 -2.3178074445 1.3871836885
H 2.7666551007 -0.2159260480 2.2388753392
H 2.1070494042 1.3293246993 1.5202772894
H -0.0535775609 0.9875455765 2.8159680386
H 0.6279810388 -0.5587253048 3.5126700957