23

O -0.0788381781 1.4512080943 0.0993822384
C 0.0000110187 0.0333321270 0.0670105889
C -1.4166927497 -0.5165532012 -0.0470358127
C -1.4575773218 -2.0393657145 -0.0599548035
C -1.1480660275 -2.8365157384 1.2486209743
C -2.3775565882 -3.7546257550 0.9838634338
C -3.6474457693 -3.3812224419 1.7818724238
C -3.9849969439 -2.2890990088 0.7213018491
C -2.8120163619 -2.7881561592 -0.1776145472
H 0.8132006404 1.7997265743 0.1849692128
H 0.6021200080 -0.3122200719 -0.7899273702
H 0.4800840602 -0.3585884290 0.9787119698
H -2.0026224729 -0.1195221467 0.7902232400
H -1.8710963692 -0.1194713831 -0.9638082620
H -0.8008209843 -2.4036520909 -0.8602970527
H -0.1775737824 -3.3380325182 1.2736911811
H -1.2433024211 -2.2425580316 2.1646637223
H -2.1594814936 -4.8126345779 0.8307358676
H -4.3878165413 -4.1860033997 1.7984931764
H -3.4892608490 -3.0432518398 2.8110402761
H -4.9720012304 -2.3949486653 0.2652730461
H -3.8921689038 -1.2577928569 1.0706933263
H -3.0994475089 -3.1332695157 -1.1726188785