16

O -0.1456332423 1.4034854138 -0.0074985622
C -0.0750692169 0.0236492542 0.0133430728
C -0.3091850260 -0.8385534008 -1.1890711835
C -1.2303196893 -0.9710367560 0.0050975228
C -0.5738133878 -1.7732422081 1.1586590532
C 0.6008136538 -0.7618115001 1.1804133435
N 1.5028352551 -1.8767629642 0.8834140273
C 0.4996342092 -2.8324704556 0.7766648069
O 0.5238519382 -3.9951113665 0.4813215252
H 0.5476244647 1.7381967128 -0.5873496250
H -0.7590003688 -0.3036735455 -2.0197896444
H 0.3698139588 -1.6359134373 -1.4780293699
H -2.2941212132 -0.7952556298 -0.0821150094
H -1.1877834581 -1.9610251935 2.0364163720
H 0.8398595187 -0.1622570330 2.0589768347
H 2.4455102738 -1.8995865505 0.5197360959