17

O -0.3458702503 1.1971820671 -0.5771652030
C -0.2012266363 -0.1408168710 -0.2062966942
C -0.1450408903 -0.5175976836 1.2661442247
C -1.3780024344 -0.7938843243 0.4670553761
C -2.7044925200 -0.0834330467 0.6120299300
C -3.6285846235 -0.9566147875 -0.2426518662
O -4.7622841168 -0.7279037036 -0.5649402769
C -2.8141728697 -2.2006886438 -0.6209420830
O -1.6375402386 -2.1528155697 0.1675963380
H 0.4688283305 1.6624900758 -0.3599980792
H 0.3672889768 -0.7667278536 -0.8933798113
H 0.4684553466 -1.3670142711 1.5462736212
H -0.1930562860 0.2870944457 1.9926809214
H -3.0728527647 -0.0886722084 1.6448111080
H -2.6903245480 0.9472666630 0.2543011829
H -3.3597270377 -3.1240560715 -0.4090819224
H -2.5925202976 -2.1649965068 -1.6999151162