19

C -0.2336630164 1.4092756820 0.0151009962
N -0.0100369318 -0.0290737552 0.0881565430
C 1.3688723220 -0.4968859831 -0.1303368575
C 0.7441380039 -0.5369421251 1.2086574194
C 1.2530208528 0.1102861838 2.4689581283
C 0.3564557336 -0.3343102043 3.5844428448
C -0.7278168350 -1.2387907842 3.0179374906
C 0.3963012015 -1.7318550907 2.0855972679
N 1.4648731091 -1.2349857805 3.1221746373
H 0.6126539161 2.0091888396 0.3875621544
H -0.4194781247 1.6926268473 -1.0255120986
H -1.1203813479 1.6683554272 0.6022799179
H 1.4758311808 -1.3978058345 -0.7293893832
H 2.1395764654 0.2556392758 -0.2975833083
H 1.9780844799 0.9068441404 2.5876849851
H 0.3919170082 0.1367804823 4.5607016296
H -1.0117341923 -2.0035804189 3.7450273393
H -1.6207879101 -0.8026506669 2.5596333469
H 0.4377298247 -2.7516157550 1.7093702772