18

C 0.0720038845 -1.2023750135 0.1086706134
C 0.0443796664 -0.0066974516 -0.0123372972
C 0.0440719434 1.4454404239 -0.1522166954
C 1.4429778128 2.0572242997 0.0142532346
C 1.4050079194 3.5819088973 0.1406717267
C 1.3480990355 3.5194965572 1.6209231498
C 1.9621695194 2.0697845658 1.4804214129
C 3.3057171784 2.7994063573 1.3391459743
N 2.5725491943 4.0564748158 0.9638796002
H 0.0832369148 -2.2590770739 0.2114497676
H -0.3588022108 1.7168753090 -1.1369555052
H -0.6362072033 1.8883770374 0.5872899526
H 2.1253881758 1.6257707913 -0.7271650181
H 0.9736662612 4.3084438313 -0.5365297784
H 0.7772788189 4.0481654712 2.3723810936
H 1.8118865882 1.2050759821 2.1234761797
H 3.8150001918 2.9744943933 2.2900224923
H 4.0215790794 2.4305500964 0.5947422566