22

C 0.1688217757 1.6640407256 0.0533507499
C 0.0136151526 0.1425091181 0.0420658311
C 0.6662307085 -0.4748348776 -1.2124038157
C 0.7298690233 -2.0119653553 -1.2735352600
C -0.5919763864 -2.7668838943 -1.0166172932
C -0.8494441851 -3.1713432452 0.4381116800
O -1.0213547764 -2.0638480522 1.3310449449
C 0.1340579220 -1.4477994884 1.7478695271
N 0.6403126971 -0.4111155603 1.2446677268
H 1.2266152129 1.9421193700 0.0932036632
H -0.2756420794 2.1062814085 -0.8444748847
H -0.3260722911 2.0964781676 0.9276791011
H -1.0554544735 -0.1045571784 0.0254316918
H 0.1097868418 -0.1012557537 -2.0817086047
H 1.6879003396 -0.0860515781 -1.3071512061
H 1.0977296991 -2.2778092660 -2.2710093569
H 1.4913390302 -2.3755594226 -0.5728916496
H -1.4460521227 -2.1847322214 -1.3840151389
H -0.5904009850 -3.7022706692 -1.5911173668
H -1.7792988725 -3.7432964324 0.5089311515
H -0.0318062647 -3.8122022403 0.8008380879
H 0.5894791740 -1.9144160145 2.6253649913