17

N -0.0855994340 0.8614642127 1.1388816914
C -0.0152076429 -0.0055090583 0.1959039569
N 1.2159349101 -0.4193696516 -0.3397523080
C 1.6379432869 -1.5229439261 -1.0690318438
O 2.8127689017 -1.6191267974 -1.3591286698
C 0.6219975510 -2.5833066022 -1.4359066308
C -0.5999654720 -2.0746779365 -2.2130310565
C -1.5647112486 -1.2744370828 -1.3875054621
C -1.2982047034 -0.4625466264 -0.3609011375
H 0.8416691190 1.1484140861 1.4593131650
H 2.0077203391 0.1486107511 -0.0639891553
H 1.1717547579 -3.3194409052 -2.0246275634
H 0.2812931050 -3.0738013472 -0.5157113681
H -0.2743158932 -1.4933199494 -3.0875680382
H -1.1297263854 -2.9415016214 -2.6223709888
H -2.6125996679 -1.3888582811 -1.6551867697
H -2.1215222434 0.0164452357 0.1573853388