14

O -0.0220097444 1.4480047786 0.0070247462
C -0.0046376449 0.0323465707 0.0021359667
C -1.4137907351 -0.4763653249 0.0124797390
C -2.4783854322 0.3374406154 0.0242707146
O -3.7545800789 -0.1402655811 0.0335413276
C -3.8962842269 -1.4854404829 0.0302530246
N -2.9752693593 -2.3612047889 0.0194964236
C -1.6242570630 -1.9312660476 0.0094500149
O -0.7073768903 -2.7256150586 -0.0011026789
H 0.8866387902 1.7602245496 0.0010377043
H 0.5071064621 -0.3745068236 -0.8837261531
H 0.5221667652 -0.3804344800 0.8763429652
H -2.4406114520 1.4171443820 0.0275591749
H -4.9495753004 -1.7522777287 0.0383285006