14

C 0.0166960922 1.4068571089 0.0212318093
O 0.0216962996 -0.0042387060 0.0578232802
C 0.5952051729 -0.5618667586 -1.1020718347
C 0.5751235903 -2.0173097607 -1.0117506868
C 0.5719171726 -3.2164578226 -0.9641023510
C 0.5649703768 -4.6751054428 -0.8997230043
F 1.2983033985 -5.2044852104 -1.8892449693
F 1.0704930492 -5.1159062411 0.2595779116
F -0.6766907019 -5.1659041387 -1.0104839115
H 1.0364339386 1.8165003889 -0.0473097218
H -0.5685455038 1.7905571996 -0.8288515454
H -0.4416990107 1.7481004537 0.9512563558
H 0.0455746688 -0.2476540822 -2.0065764925
H 1.6374350970 -0.2215614580 -1.2320837295