19

C -0.0352993888 1.5364157505 0.0087451314
C -0.0109413883 0.0058489179 -0.0217753534
C -1.4248997252 -0.5757184115 -0.1034145488
C 0.9441820847 -0.5665741352 -1.0758478732
C 2.3027040858 -0.5940273631 -0.3863507442
O 2.1340109596 -0.1084499931 0.9346564826
C 0.8161908968 -0.6007888315 1.1542654611
O 0.8985796952 -1.9859034719 0.8350021540
C 1.4747955002 -1.8520545396 -0.4531653130
H 0.9707713540 1.9484399948 0.1056927405
H -0.4854986205 1.9321113087 -0.9077048061
H -0.6369758864 1.8980013295 0.8506947515
H -1.9216090983 -0.2510389927 -1.0237393930
H -1.4078265874 -1.6669350773 -0.0860694372
H -2.0362260773 -0.2285087959 0.7376344370
H 0.8159705540 -0.4256503106 -2.1402564394
H 3.2716025121 -0.4162325517 -0.8278977794
H 0.5003065322 -0.4475398547 2.1830806437
H 1.7177386576 -2.7773523026 -0.9533064742