19

C -0.1295265292 1.5556476680 0.0800986969
C 0.1260787488 0.0865920242 -0.0059972674
O -0.7569801552 -0.8038735502 0.6830189421
C 0.6415160405 -0.9068520016 0.9648007770
C 1.3103823677 -1.7282070057 -0.1836729115
C 2.7631012337 -2.0793440721 -0.0109795785
O 0.4997308713 -2.7941810648 -0.7179695277
C -0.0881800880 -1.9141565837 -1.7106529388
C 0.7285117803 -0.7087389827 -1.1997834838
H 0.7529813475 2.1234794713 -0.2320114597
H -0.9619246908 1.8442463275 -0.5720153513
H -0.3859508623 1.8378140394 1.1046714811
H 0.9416376939 -0.8155161033 2.0048899219
H 2.8678715217 -2.8856893429 0.7238751843
H 3.1983058750 -2.4192458781 -0.9547760393
H 3.3333219420 -1.2161855588 0.3490341703
H 0.1721690918 -2.2385740776 -2.7248844225
H -1.1739883930 -1.8439199225 -1.6035323668
H 1.3594910640 -0.1542502564 -1.8931389961