22

C -2.2460746077 -0.0898677794 2.0592313900
C -1.4481778088 -1.3656668214 1.8718255763
O -1.1053228335 -1.6059372415 0.4861495265
C 0.2888272693 -1.7769213286 0.8018482667
C 0.0545423365 -1.4342984579 2.2920513041
C 0.7009571647 -0.1701532925 2.7974564321
C 0.7840920781 0.1289401203 4.2589175879
N 1.9922562265 -0.1444013270 3.4939943843
C 2.7088148135 -1.3798036373 3.7730597120
H -1.7164174866 0.7808988991 1.6647280591
H -3.1996030196 -0.1743994115 1.5283584916
H -2.4604941972 0.0795254411 3.1196992093
H -2.0214345565 -2.2146277639 2.2723752222
H 0.6354036553 -2.7995041582 0.6041598345
H 0.9241117178 -1.0744734591 0.2471708342
H 0.2549904277 -2.2657337513 2.9688248290
H 0.5923205997 0.6768666888 2.1210383773
H 0.6652803067 1.1432591337 4.6317744442
H 0.4277849422 -0.6466699709 4.9380852393
H 2.0797007987 -2.2139357782 4.1215166384
H 3.2433284731 -1.7036260737 2.8739273287
H 3.4512602102 -1.1788370606 4.5520889323