21

C 0.1667549665 1.3754889642 0.2031880332
N 0.0147131365 -0.0371493395 -0.1290116053
C -1.3619648262 -0.5160989446 -0.0855237612
C -1.4762881556 -1.9430133984 -0.6680753874
C -1.1410094998 -2.0106937946 -2.1435441973
C 0.2702243117 -2.2934051428 -2.6178065864
C -0.8048664583 -3.3381092808 -2.7720020881
C -1.8456887506 -0.5099793380 1.3080429779
N -2.2463953603 -0.5091395352 2.3917664974
H 1.2148910432 1.6608674585 0.0812018075
H -0.4519113967 2.0505779189 -0.4141750394
H -0.1047412278 1.5377420042 1.2509115521
H 0.3729149145 -0.2179146671 -1.0595466873
H -2.0554968746 0.1397100675 -0.6497649463
H -0.8129589482 -2.6028544792 -0.0985311995
H -2.5008137702 -2.2949016841 -0.5038809828
H -1.7219980499 -1.3318003077 -2.7642537658
H 0.6278264906 -1.7886401428 -3.5086882531
H 1.0326202047 -2.4636751010 -1.8647366082
H -0.7619024126 -4.2060746313 -2.1223933576
H -1.1830675469 -3.5455497063 -3.7664788323