16

C -0.2306529906 1.5428866161 -0.1106709956
C 0.0922259204 0.0606585934 -0.0431557640
O 1.0338816206 -0.2726867687 -1.0710032227
C 1.9315608432 -1.2014607395 -0.6172807364
O 2.7907881339 -1.6801776751 -1.2964577116
N 1.6429388672 -1.4745909206 0.7137315713
C 0.7668958933 -0.4685353203 1.2612451340
C 1.5079421178 0.5749797163 2.0928078931
O 2.6909819020 0.5321637907 2.3049716645
H 0.6683376108 2.1517904075 0.0207660858
H -0.6594519570 1.7778357889 -1.0877110085
H -0.9616683617 1.8165436516 0.6566283212
H -0.8163984821 -0.5276267834 -0.2204216760
H 2.4344976095 -1.7734687518 1.2657660664
H -0.0048612290 -0.8940928732 1.9190288939
H 0.8634885117 1.3643921682 2.5369553544