18

N 0.0311524955 1.4062424928 0.2246695177
C -0.0678832023 -0.0407991061 0.0111946262
C -1.4854389592 -0.4385596789 0.0289832134
N -2.5912277374 -0.7720858391 -0.0084010386
C 0.5878613072 -0.5760855407 -1.2756008525
C 2.1521275323 -0.4410431569 -1.4056902744
C 2.2268095809 -1.9652626598 -1.5378016245
N 1.6441583306 -2.5068274941 -0.2880428223
C 0.7511197986 -2.0990058894 -1.4010707655
H 1.0108350667 1.6606564995 0.3063088441
H -0.3374385022 1.9039570998 -0.5813284862
H 0.4187967796 -0.5382737535 0.8574888855
H 0.0845509923 -0.1527405867 -2.1495069946
H 2.4474282859 0.0955326736 -2.3090622490
H 2.6844341116 -0.0285641899 -0.5435233692
H 2.9267572021 -2.5477142725 -2.1231488117
H 1.7227474688 -3.5223213553 -0.3254913566
H 0.0598680490 -2.8022519629 -1.8471473017