20

C -0.0401798155 1.4512559245 -0.0242948344
C 0.0377674982 -0.0429805196 0.0503611221
C 0.2322043595 -0.9693590332 -1.1788915082
C 0.9262733647 -2.1516550905 -0.4955572868
C 1.9367035028 -1.6086885816 0.5301327806
C 0.6771439293 -0.9479275687 1.1166680164
N -0.1898445273 -2.1050572907 0.5736638813
C -0.9704926048 -1.1087248939 -0.2849480410
C -2.4432428137 -1.1352092019 -0.5072108400
H 0.9554619141 1.9019627822 -0.1145572059
H -0.6246533142 1.7725426731 -0.8933262130
H -0.5171291668 1.8737812025 0.8676337192
H 0.3125636521 -0.5846771446 -2.1883795168
H 1.0812627068 -3.0816451624 -1.0435645002
H 2.3108112280 -2.4032043334 1.1816690857
H 2.7576161624 -0.9758648579 0.1831057104
H 0.5843560043 -0.6812242808 2.1707434390
H -2.9861608420 -1.0486712853 0.4407065433
H -2.7518500835 -0.3055608712 -1.1524168020
H -2.7524667445 -2.0700272967 -0.9878956896