18

C 0.0234567470 1.6018517419 -0.0688949886
C -0.0055413932 0.0737414786 0.0084438494
C 0.6839933149 -0.5795406772 -1.1917863103
C 0.6765743114 -2.0699355223 -1.1513835067
N 0.1817555150 -2.8277724286 -0.2601195660
C 0.4448433861 -4.1913806432 -0.7010236997
C 1.1899330471 -4.0516174550 -2.0237151193
O 1.6263276324 -4.8568627489 -2.7833149094
O 1.2938584988 -2.6808538978 -2.2342316922
H 1.0509500417 1.9816506090 -0.0939047074
H -0.4854872695 1.9666061391 -0.9680834691
H -0.4739663458 2.0469091468 0.7977101437
H 0.4789122475 -0.2684410263 0.9288544708
H -1.0391348013 -0.2833042564 0.0648179004
H 0.2135027223 -0.2676379744 -2.1343007608
H 1.7296514345 -0.2519215641 -1.2714447350
H 1.0520229399 -4.7420990551 0.0257586442
H -0.4822734489 -4.7581968959 -0.8400831439