17

C -0.0449886186 1.5774579441 0.0423501399
N -0.1931036279 0.1318248195 -0.1047875018
C 0.6356970764 -0.4790334069 -1.1294368596
C 2.2055009130 -0.4744094279 -0.8915187158
C 2.0969135766 -1.9651930813 -0.5370971308
O 2.8489887736 -2.7561949533 -0.0534394677
C 0.6351881622 -2.0420315046 -1.0047177593
C 0.2466740117 0.0214979244 -2.4506005968
N -0.0287256424 0.4095726695 -3.5038155880
H 0.9855193338 1.9105535357 0.2495886609
H -0.3808068863 2.0713849330 -0.8741533877
H -0.6859015751 1.9142831387 0.8606224250
H -0.0208486848 -0.3338470995 0.7800233674
H 2.8037786250 -0.3073641226 -1.7923107259
H 2.5638489872 0.1915072757 -0.1025370255
H -0.0998948836 -2.4530269972 -0.3080261212
H 0.5380167693 -2.5577971773 -1.9638204129