21

O 0.0542409916 1.4086962339 -0.0724244308
C 0.0449842508 -0.0114535829 -0.0471815712
C -1.4052535251 -0.4839012990 -0.0035743244
C -2.1848100300 -0.0748665211 -1.2619779584
C -3.6764477243 -0.4009152727 -1.1144662390
C -3.9039104760 -1.8390588626 -0.7068343625
O -3.1618239700 -2.8253688454 -1.4313654642
C -2.8346335218 -2.6109561383 -0.0503049158
C -1.4700201348 -2.0054783007 0.2311008350
H 0.9637911949 1.7037966194 -0.1706181061
H 0.5380931031 -0.4297002134 -0.9406676316
H 0.5853644015 -0.3942068762 0.8343761865
H -1.8743169494 0.0167019607 0.8557780146
H -2.0487093773 0.9941833150 -1.4422350224
H -1.7815021639 -0.6095891174 -2.1303135315
H -4.1309490310 0.2462762599 -0.3518479318
H -4.2103063930 -0.2006258424 -2.0514162762
H -4.9398595491 -2.1206839182 -0.5100318873
H -3.1221136702 -3.4440447269 0.5920989887
H -0.7410464736 -2.5172095520 -0.4121706385
H -1.1843200624 -2.2338286896 1.2645592569