17

N -0.0058067795 1.4840497804 -0.0501212901
C -0.0563897804 0.0247167745 0.0120115196
C 0.8364866928 -0.4577146734 1.1785021812
N 0.3444153956 0.1294180421 2.4169924312
C 1.2614081080 -0.0132689354 3.5418694276
C 0.7432670447 0.6797792681 4.7234252490
N 0.3501122627 1.2450905783 5.6503477980
C 0.8263673907 -1.9271549164 1.2588302499
N 0.8368070805 -3.0811355879 1.3117725392
H 0.7941931548 1.7989347255 -0.5890409919
H -0.8331606981 1.8526330907 -0.5037023528
H -1.0829391122 -0.2817322826 0.2299278173
H 0.2591660010 -0.4855469670 -0.9080543753
H 1.8810831883 -0.1632984807 0.9538035526
H 0.1622359984 1.1098684665 2.2146162275
H 1.3697542178 -1.0775813839 3.7843711604
H 2.2789249148 0.3701351711 3.3413168968