17

C 0.0637208966 1.5905794934 0.0008403557
C 0.0200079663 0.0563755768 0.0830627587
C 0.8343371300 -0.5002213336 1.2620543845
O -1.3441029710 -0.4376778532 0.0964902820
C -2.1657205053 -0.1042163631 1.1320344978
N -3.3984233091 -0.6309253080 0.9018750378
O -1.8628765975 0.5678241735 2.0908998755
C 0.5573123684 -0.5056247122 -1.1756455296
N 1.0179016575 -0.9244558788 -2.1481088942
H 1.0940819028 1.9189149407 -0.1576336803
H -0.5441208749 1.9400703435 -0.8370247040
H -0.3160376674 2.0147849398 0.9294318221
H 0.4564677594 -0.0816709282 2.1938609421
H 0.7571593051 -1.5896829617 1.2918618721
H 1.8864528180 -0.2310286681 1.1388594462
H -3.5297171951 -1.3013188603 0.1647890764
H -4.0603879036 -0.5938988703 1.6566232373