20

C -0.0979920749 1.6992705554 0.4334665979
C -0.0920947822 0.2070520763 0.0808826134
C 0.8036270860 -0.6196881792 1.0398708104
C 2.2074678265 -0.2231727568 0.9747636347
N 3.3130383097 0.1076230075 0.9091524988
C -1.4919143033 -0.4017510238 0.0357375886
C -2.3623424117 -0.3014193210 1.2710480186
C -2.1317251521 -0.5755050759 -1.2777335007
O -1.5236279003 -1.6854092285 -0.6107425318
H 0.9117225414 2.1131820841 0.3659355029
H -0.7403059440 2.2587934023 -0.2534091031
H -0.4608949960 1.8727893777 1.4518976935
H 0.3310107252 0.0870583192 -0.9222821820
H 0.4656886601 -0.5118257247 2.0769166684
H 0.7240570653 -1.6803299760 0.7792508024
H -2.5990299438 0.7402208046 1.5076843161
H -3.2984332840 -0.8405875029 1.1094130472
H -1.8718230302 -0.7422400544 2.1451237922
H -3.2181600446 -0.6125352784 -1.3471732024
H -1.6231161769 -0.2354986755 -2.1790062350