21

C -0.0020784748 1.5096945661 -0.1088852152
C -0.0836378280 -0.0067211605 -0.1174956258
O 0.6549983894 -0.4850642604 -1.2364215087
C 0.7688984090 -1.8661667625 -1.2985547950
O -0.5140420571 -2.4438742275 -1.5592205706
C -0.3532686879 -3.6273243168 -2.3324300056
C 0.9235998872 -3.4293640626 -3.1310087693
C 1.0704543861 -2.0981415380 -3.8179116245
C 1.6564869479 -2.3037171802 -2.4448714483
H 1.0375616780 1.8404868433 -0.0305890206
H -0.4233182241 1.9210972824 -1.0305751542
H -0.5620125521 1.9153508070 0.7391657004
H 0.3390342941 -0.4255118474 0.8107022099
H -1.1255803098 -0.3439813005 -0.1863733064
H 1.1481061405 -2.2514264610 -0.3322918007
H -0.2619690708 -4.5139669823 -1.6849136003
H -1.2538700309 -3.7440199539 -2.9457566179
H 1.4423680065 -4.3003192562 -3.5131767732
H 1.7663781111 -2.0389740519 -4.6467775318
H 0.1989536687 -1.4582268443 -3.9029851831
H 2.7285795270 -2.3064677030 -2.2950380291