16

O -0.1340809816 1.3374208046 0.1041520310
C 0.0141702587 -0.0252718329 0.0843240326
C 1.1237136973 -0.9037843099 0.6359376637
N 0.5169414478 -2.0596342958 -0.1408962356
C -0.7858086722 -2.2689747497 0.6038617443
C -1.2639766099 -0.9166003729 0.0901015602
C -2.5731023972 -0.3713484765 0.0424605696
C -3.6977926135 0.0564652672 0.0186811089
C -0.2142299018 -1.0223676745 -1.0134807983
H 0.5574927790 1.7304630138 -0.4401755114
H 2.1026253245 -0.6579322197 0.2123681934
H 1.2143597571 -1.0679586439 1.7147287729
H -1.3362806367 -3.1012471553 0.1592206442
H -0.6779181754 -2.4252243567 1.6824903199
H -4.6856265624 0.4445597019 -0.0032059616
H -0.2745191637 -1.0092694597 -2.0923162637