17

O 0.0822338883 1.4344669751 0.2838945981
C -0.0039521003 0.0516931974 -0.0242107344
C -1.4240521713 -0.4309134427 0.0370669697
C -2.1205984614 -1.0529872107 1.2579358069
C -3.6318801751 -0.8519416280 1.0981071047
C -3.4080107217 -1.1791779848 -0.4080933757
C -2.0310302638 -1.8568999161 0.0005742139
C -2.5216119752 -0.0175705282 -0.8880695991
O -2.5646689201 0.7668171919 -1.7990624613
H -0.4169935089 1.9015651578 -0.3961114256
H 0.4115960780 -0.1577069645 -1.0216300694
H 0.6205649074 -0.4716526864 0.7075677945
H -1.5515553532 -1.1776805550 2.1712276904
H -4.1912609935 -1.6424722854 1.6050010026
H -4.0632516035 0.1256091326 1.3390985286
H -4.1880590204 -1.5961657194 -1.0386314425
H -1.5481877452 -2.7778627335 -0.2878470515