17

C -0.0324242780 1.5633910655 -0.0432180444
C -0.0217298777 0.0158075041 -0.0389264602
C -1.3876066283 -0.5178076563 -0.0044157129
C -2.5136598631 -0.9358035244 0.0270650322
C 0.7635193630 -0.5402229068 -1.1911420362
C 1.8724615147 -1.3239741023 -1.2666214145
C 2.1551926378 -1.4952272858 -2.6623605519
C 1.1952619914 -0.8017452722 -3.3246835854
O 0.3407646253 -0.2129334227 -2.4448572529
H 0.9916760376 1.9445718719 -0.0018079662
H -0.5069833247 1.9353373749 -0.9538182919
H -0.5886009890 1.9412248582 0.8181682590
H 0.4964169419 -0.3212178218 0.8676880782
H -3.5049400662 -1.3156442572 0.0501517793
H 2.4198216888 -1.7342265656 -0.4322645117
H 2.9616580443 -2.0591216066 -3.1039371106
H 0.9825787523 -0.6305386131 -4.3668809500