15

O -0.0012704650 1.4132488209 0.0069620108
C 0.0094850497 0.0001934611 0.0018984503
C -1.4192086844 -0.4531739092 0.0124574908
C -2.5660794499 0.2876195129 0.0238023560
C -3.6191137605 -0.6714753078 0.0297836420
N -3.1772368081 -1.9100344514 0.0229129507
N -1.8148994720 -1.7816637205 0.0121877862
C -0.9804060684 -2.9054611270 0.0022800416
O -1.3535059893 -4.0425752305 0.0022029335
H 0.9098821353 1.7201371755 -0.0002218039
H 0.5243910477 -0.3951981133 -0.8895367146
H 0.5395304826 -0.4014418216 0.8815811024
H -2.6311502320 1.3620850702 0.0272677193
H -4.6843989775 -0.4874793973 0.0389540757
H 0.0836512521 -2.6070695421 -0.0056121908