23

C -0.0476816847 1.5469987641 0.0423872612
C 0.1175530650 0.0288476837 -0.0123767206
C 1.0360211422 -0.4754455287 -1.1440191554
C 1.4031561802 -1.9118321647 -0.7239983518
C 1.5461751326 -1.8393174635 0.8026343303
C 2.7691545849 -1.0629217199 1.3243528168
O 1.9760733553 0.1030448584 1.6223444746
C 0.7380142974 -0.5838332495 1.2599289164
C -0.1909025468 -0.6929459222 2.4531521357
H 0.9114284166 2.0210596935 0.2686321866
H -0.4093804474 1.9359956978 -0.9149274709
H -0.7644209136 1.8495220813 0.8129864749
H -0.8696807435 -0.4390761138 -0.1403654918
H 0.5589732366 -0.4272623542 -2.1272038138
H 1.9343369734 0.1515499270 -1.1893483277
H 0.5881547976 -2.5979621561 -0.9838341363
H 2.3075317612 -2.2864502116 -1.2148579041
H 1.3389857492 -2.7826482650 1.3105242689
H 3.2359522493 -1.4770895086 2.2275482858
H 3.5553587905 -0.8514257373 0.5876390155
H -0.5348227801 0.2981622620 2.7669666040
H -1.0705280219 -1.2981229731 2.2082345042
H 0.3210008961 -1.1536533898 3.3031248876