17

C -0.0092417386 -1.2098113182 -0.2532908664
C -0.0390659087 -0.0320349925 -0.0148707721
C -0.0353145040 1.3989635453 0.2686388348
C 1.3649141325 2.0157712508 0.1601930758
C 1.9672042705 2.2480194736 -1.2432293519
C 1.1779746531 3.5836704350 -1.4482489432
O 2.3545698039 4.3698375643 -1.7951036446
C 2.8049901292 3.4656761787 -0.7439818813
C 1.4865135864 3.5550882457 0.0857866216
H 0.0029974400 -2.2508669662 -0.4613562446
H -0.7226986676 1.9095856246 -0.4184124751
H -0.4314652615 1.5723001434 1.2780282485
H 2.0451677876 1.5343780808 0.8703932548
H 2.2497926402 1.5294794773 -2.0114925518
H 0.2484931142 3.7829184511 -1.9798870134
H 3.8420987306 3.5132414881 -0.4137080916
H 1.2272711622 4.3183954781 0.8197991607