14

C -0.0072734729 1.5653482077 0.0617332210
C 0.0358012698 0.0755749856 0.0158515548
C 0.0018405553 -0.7683770530 -1.0598526944
O 0.0638724480 -2.0632883411 -0.6563878363
N 0.1418261449 -2.0931923421 0.7314239234
C 0.1246037457 -0.8369242636 1.1052873652
O 0.1855508832 -0.4707554484 2.3949182693
C -0.0829682784 -0.5127275355 -2.4416966594
C -0.1558357860 -0.2746557667 -3.6194031380
H 0.8892295495 1.9732814378 0.5407649446
H -0.0758661247 1.9786092713 -0.9470500107
H -0.8685502676 1.9194715507 0.6382749394
H 0.2389046198 -1.2747771467 2.9290050154
H -0.2199391565 -0.0713674059 -4.6601507141