21

C 0.2217525903 1.3897573187 0.2244314548
C 0.0540600607 -0.1157924243 -0.0273231177
C -1.4121827654 -0.5293177091 0.1784963699
C 0.5371860682 -0.5099648080 -1.4296337396
C 2.0681116176 -0.2864364464 -1.7023240673
C 2.2423027644 -1.7744920723 -1.4028848218
O 3.0764432984 -2.4317384399 -0.8422166763
C 0.7685453094 -2.0654848836 -1.6591140439
O 0.1689726068 -3.0473114088 -0.8672863518
H 1.2638378709 1.7140285093 0.1487120935
H -0.3615239692 1.9721691447 -0.4988928926
H -0.1351509649 1.6544231430 1.2250152634
H 0.6669599732 -0.6557599775 0.7098390630
H -2.0634352413 -0.0002639868 -0.5281298515
H -1.5437687451 -1.6022089729 0.0307546565
H -1.7478282574 -0.2727940064 1.1887229678
H -0.1159867077 -0.0630755520 -2.1839707512
H 2.2824915598 -0.0393094056 -2.7458019336
H 2.6223762649 0.3939420975 -1.0538286165
H 0.5920103254 -2.2890485169 -2.7202698228
H 0.8483824909 -3.3725030827 -0.2624058425