10

O -0.0900576494 -0.0482732274 0.0002421325
C -0.0494688371 1.1488660643 0.0087583265
N 1.1462327660 1.8818489011 0.0003646421
C 2.4421866831 1.3991261526 -0.0181400988
N 3.2941271961 2.3790051162 -0.0204236748
N 2.5661938066 3.5712746583 -0.0034273807
C 1.3078853445 3.2550348037 0.0083631858
H -0.9349863358 1.8068588138 0.0234261405
H 2.6638521907 0.3447187029 -0.0284067114
H 0.4769594653 3.9434503545 0.0228321281