14

N 0.0912353510 1.4100882189 -0.0402007921
C -0.0506527274 0.0294777438 -0.0114173203
C -1.1672521782 -0.7609516110 -0.0629858989
C -0.6470725882 -2.0875512067 -0.0725746175
O -1.4058229345 -3.1920070225 -0.1082329958
N 0.6617255027 -2.1470600931 -0.0248968565
N 1.0485399461 -0.8187112246 -0.0050942951
C 2.3869842318 -0.4488317395 -0.0706637154
O 3.3153704233 -1.2095000612 -0.0607026486
H 0.7004198311 1.7901892196 0.6726805610
H -0.8015093008 1.8836307388 -0.0220876123
H -2.1997081270 -0.4545787166 -0.0663239886
H -0.8053291815 -3.9498942025 -0.0970914113
H 2.4881925515 0.6481247964 -0.1447665085