21

C -0.1131456179 1.5519566968 -0.0847545289
C 0.0443338897 0.0530332472 0.0304706751
C 1.3503599727 -0.6981865518 -0.2104500663
C 2.6231951523 0.0693275086 -0.0878350242
C 2.7999614111 0.5378856416 1.1525041704
C 1.6943674492 0.1157503584 2.0579133019
C 1.9698448136 -0.3112581609 3.4866535931
C 1.2391864509 0.9753574926 3.2230515561
C 0.7247419633 -0.6514620337 1.1827918676
H 0.7890569565 2.0835868016 0.2239908071
H -0.3342117683 1.8387643687 -1.1190756900
H -0.9410169720 1.9044952778 0.5405429092
H -0.8200226836 -0.4965902181 -0.3375204002
H 1.3200717606 -1.5874640173 -0.8316936974
H 3.2931708118 0.2378912745 -0.9230330040
H 3.6170944880 1.1687658121 1.4860355908
H 1.4028237715 -1.1537384131 3.8703614257
H 2.9930992886 -0.2620248036 3.8437649048
H 1.7621405393 1.9095360107 3.4000570057
H 0.1753175750 1.0147524526 3.4304626077
H 0.2369685678 -1.5226319148 1.6075159459