21

C -0.1116477767 1.4778193292 -0.0310641360
C 0.0185714195 -0.0457634107 0.0432110502
C 0.7512002729 -0.4940436327 1.2985978645
O 0.8198785665 -1.9242391724 1.2735270246
C 1.4404990145 -2.5275625693 2.3141484292
C 1.4235834940 -4.0298034965 2.1301239619
N 1.9324358646 -1.8421773254 3.2584776244
C 2.5952291769 -2.4907838128 4.3687504605
H 0.8708809606 1.9623955015 -0.0392962246
H -0.6401694892 1.7830921148 -0.9386623931
H -0.6672865599 1.8731257375 0.8263988637
H -0.9736126060 -0.5117320849 0.0257384805
H 0.5555323221 -0.4230011862 -0.8349837691
H 1.7659182890 -0.0819269263 1.3471286875
H 0.2339372835 -0.1706320148 2.2094771952
H 2.4410134082 -4.4301043069 2.0956813349
H 0.9053721323 -4.5187329812 2.9601907498
H 0.9145751368 -4.2823875584 1.2002057860
H 2.6232112389 -3.5885271194 4.3266543653
H 3.6293434251 -2.1313100819 4.4374619231
H 2.1029210666 -2.2034620632 5.3058735817