18

O -0.2380809997 1.2931538830 -0.1852321983
C 0.1534333689 -0.0156824056 0.1492315064
C 0.7557642691 -0.6941607410 -1.0666854471
O 0.7718415164 -0.1539163857 -2.1451005086
C 1.1767504431 0.0445702640 1.3033109597
O 2.2713092508 0.8515280500 0.9059308009
C 0.5308759554 0.5333044338 2.5834539274
C 0.1083072779 -0.4475277460 3.6160915391
N 1.2643278191 0.4322494395 3.8487047826
H -0.1239282137 1.3580849502 -1.1482804011
H -0.7117830200 -0.6233616465 0.4693598183
H 1.1663077584 -1.7121841879 -0.9131872018
H 1.5869658505 -0.9605871618 1.4733012521
H 1.8832812318 1.6705177113 0.5687552935
H -0.0340325241 1.4565484441 2.4737271038
H -0.7574580471 -0.2449490574 4.2396971502
H 0.2829044723 -1.5032306332 3.4186696976
H 2.1351229809 -0.0746461410 3.7036861753