22

C 0.4771837437 1.6307306783 0.0254116938
C -0.0059395017 0.1722324978 -0.0513819352
C 0.4811289796 -0.4816268178 -1.3524762481
C -0.0360933675 -1.8951278263 -1.6257381535
O 0.6372313790 -2.9033453483 -0.8952849059
C 0.1858675522 -3.1168706468 0.4158071190
C 0.4873792776 -2.0259163669 1.4296727215
N 1.7089838602 -1.2257156936 1.2793016789
C 0.3962521789 -0.5562905144 1.2223775004
H 1.5712316565 1.6701855024 0.0659984256
H 0.1512404243 2.2020875179 -0.8495278231
H 0.0896243596 2.1347544987 0.9172792563
H -1.1069737473 0.1834564661 -0.0709371231
H 0.1683296860 0.1579900294 -2.1882220863
H 1.5755229769 -0.5148655645 -1.3619211031
H -1.1239638013 -1.9534087782 -1.4466474851
H 0.1351447104 -2.1413608832 -2.6793926479
H -0.9031640660 -3.3067324744 0.4293132189
H 0.6791591784 -4.0386533203 0.7470029625
H 0.2308653606 -2.3579641843 2.4381169923
H 2.1611147784 -1.0739700452 2.1757960535
H 0.1014080914 -0.0023118564 2.1155435986