25

C 0.0230858205 1.4369423100 -0.0043756576
O 0.0087067654 0.0308724210 -0.0050888086
C 0.6682066266 -0.5229573885 1.1141393504
C 0.5895170180 -2.0415721532 1.0202263830
C 1.2265266436 -2.7376237565 2.2286175357
O 0.5579672884 -2.3842871629 3.4418489418
C 1.3607822682 -4.2698466841 2.0678310571
C 2.2040608704 -4.8510549873 3.2104697243
C 0.0030480706 -4.9833511131 1.9767234554
H 1.0495329656 1.8370096444 -0.0368335100
H -0.5131894805 1.7723720655 -0.8957150373
H -0.4744571296 1.8519256958 0.8870317974
H 1.7232088266 -0.1964086066 1.1379880138
H 0.2045665007 -0.1775558168 2.0513577832
H -0.4657548671 -2.3290560837 0.9290052270
H 1.0843645803 -2.3698236631 0.0987002549
H 2.2400496234 -2.3358368995 2.3619610536
H -0.3675650138 -2.6346387338 3.3479897132
H 1.8955766468 -4.4370267886 1.1225003138
H 1.7368132823 -4.6346026452 4.1757562147
H 2.3082051246 -5.9363565773 3.1130328150
H 3.2094055846 -4.4166018539 3.2227435895
H 0.1448822391 -6.0605558702 1.8467840335
H -0.5779655375 -4.8485499816 2.8971212508
H -0.6006228973 -4.6279290908 1.1362413453