17

C -1.5290979032 -0.2460222932 -0.0646301575
C -0.0119913091 -0.1045687926 0.0645640034
C 0.7618531640 -0.6263213441 -1.1677397769
C 2.2604631690 -0.2881826664 -1.0823081807
O 2.3820972224 1.1250854321 -1.0766213250
C 0.5908338151 -2.0651011969 -1.3554231557
C 0.4714100201 -3.2543698235 -1.4877854143
H -1.9072826196 0.3215298674 -0.9224000769
H -1.8185433587 -1.2922709272 -0.2026630515
H -2.0343332192 0.1298231612 0.8303017299
H 0.2630678657 0.9452285859 0.2001158147
H 0.3406424771 -0.6468558447 0.9506244397
H 0.3748870144 -0.1083144473 -2.0569861740
H 2.6801764271 -0.7360402000 -0.1683514357
H 2.7816131487 -0.7328263997 -1.9423202587
H 3.3092456797 1.3479073036 -0.9553928787
H 0.3559975263 -4.3020239646 -1.6163699522