13

N -0.0552772451 1.3295484018 0.0106243651
C -0.0678388144 0.0679450647 0.0038763301
O 1.0564597894 -0.7512141294 -0.0065518668
C 0.7228106346 -2.1653996975 -0.0123927917
C -0.7679019922 -2.1428234859 -0.0043116322
C -1.1790552383 -0.8624244693 0.0047865835
O -2.5335743827 -0.8340946072 0.0122158696
C -2.8578375630 -2.1611116777 0.0066948763
N -1.8556420904 -2.9913480137 -0.0030293492
H 0.9035305372 1.6805026156 0.0074011983
H 1.1596697710 -2.6226601267 -0.9068784206
H 1.1691653872 -2.6322468054 0.8723998466
H -3.9117462432 -2.3913635194 0.0110827910