18

N -0.2271405681 1.4987988209 0.0044589470
C -0.0488142440 0.0631279147 -0.0769611343
C -1.3673543288 -0.6780048744 0.0459488428
N -2.1427461039 -0.6358146265 -1.2118914981
C -1.3812694096 -1.8496915933 -0.8545803358
C -0.0571299515 -1.9471005898 -1.5888338473
C 0.5936367328 -0.5429652498 -1.4021597548
C 0.3946660735 0.3348982350 -2.5515928913
N 0.2869721827 1.0509307661 -3.4531805576
H 0.6594171243 1.9838050317 -0.0933195237
H -0.8163195133 1.8085921223 -0.7643255431
H 0.5961680615 -0.2449319633 0.7548750847
H -1.8898863542 -0.6604174837 0.9959878703
H -3.1293392479 -0.7752832497 -1.0124701459
H -1.9212382186 -2.7565737213 -0.6031357804
H 0.5706046254 -2.7077181244 -1.1128882425
H -0.1676801465 -2.2137846000 -2.6429387060
H 1.6759586162 -0.6378299946 -1.2706451240