16

C 0.0083480059 1.4998738260 0.1242008849
C -0.0671500643 0.0243361541 -0.0355652658
C 0.0494518154 -0.7677230245 -1.1060426287
C -0.0109736797 -2.1949820822 -0.6438564949
C -0.5787058388 -2.1656937197 0.7162430426
C 0.8802703790 -2.5951781776 0.5982817130
C 1.2120242575 -1.3570345024 1.3460995320
O 2.1369198681 -0.9048566009 1.9448777531
N -0.1630833719 -0.7972818499 1.1822102042
H 0.8525175891 1.7697284901 0.7692623281
H 0.1334949257 1.9962586465 -0.8410487593
H -0.8967015860 1.8824088579 0.6093145249
H 0.1673458535 -0.4612137237 -2.1355663416
H -0.2172423933 -3.0158790112 -1.3210095840
H -1.4209908671 -2.6846706275 1.1545946196
H 1.3441538267 -3.5700092652 0.6580032120