18

C -0.0835809054 1.5579719534 -0.0563573313
C 1.4151500887 1.2980412564 0.0049075671
C 1.1733575334 0.1222348338 0.9832966788
C 1.9237884936 -0.9199513285 0.1366021611
C 3.3127828838 -0.8492860091 -0.4712228376
O 3.0657507970 -0.7829257460 -1.9069147813
C 1.7254681439 -0.3347222083 -2.2104948092
C 1.2040355878 -0.0069346856 -0.8388005638
N -0.0842600126 0.0323379188 0.0225543440
H -0.5563266383 2.0328591837 0.8093427506
H -0.5109772373 1.9452562398 -0.9866299050
H 2.2602572653 1.9922083142 -0.0165407129
H 1.0043144700 0.1684890735 2.0608172854
H 1.5152041419 -1.9327982194 0.1947073435
H 3.8733757162 0.0393510860 -0.1517436545
H 3.9312634240 -1.7329651171 -0.2968489095
H 1.7826301301 0.5196099927 -2.8937518999
H 1.1611709678 -1.1436081684 -2.6922527754