16

O -0.1082463968 -0.0187406230 0.4083536814
C -0.0995033188 1.1553381431 0.1553810187
C -1.3891033507 2.0232064262 -0.0518269388
C -1.2616416971 2.8662888443 1.1964040629
C -0.0927275947 3.5113483665 1.3066419419
C 0.9917800213 3.2070682271 2.3365118722
C 1.8237693497 2.6804901451 1.1143001848
C 0.9081727241 3.3730773253 0.1609889662
N 1.0807171183 1.9392394755 0.0528293778
H -1.3170792443 2.5897102647 -0.9846442140
H -2.2693794715 1.3831427318 -0.0738406358
H -1.8283237146 2.5689867238 2.0745878378
H 1.5323933348 4.0760199412 2.7282498751
H 0.7347263955 2.5268611694 3.1516574123
H 2.9045720477 2.6036824912 1.0904423627
H 1.1172236568 4.0285601478 -0.6759017153