15

O 0.1637127446 1.3634489084 0.1163903758
C 0.0922597769 0.0014229802 -0.0162353161
C 0.5603881206 -0.9460790338 -1.1170385355
N 0.0210675932 -1.9293128858 -0.0797741584
C 0.5364668293 -1.0115592714 1.0675623358
C -0.8214653731 -1.0544088101 1.7744017021
C -1.1397223271 -0.9652217839 0.2762412635
C -2.4001340142 -1.0064465909 -0.4116359650
N -3.4107470559 -0.9929815941 -0.9749291412
H -0.2633909512 1.7808208783 -0.6412056349
H 0.0104420292 -0.9670581602 -2.0622423709
H 1.6371910094 -1.0434146111 -1.2807634959
H 1.5404812152 -1.1539876912 1.4639418102
H -1.0866902979 -1.9968101853 2.2573507632
H -1.0904632089 -0.1864555190 2.3772614572