19

C -0.1690797880 1.3213782407 -0.1723266903
O 0.2824546463 0.0027705162 0.0514265370
C 0.8027296828 -0.6088955539 -1.1024873804
C 1.2182734994 -2.0396893760 -0.7988667014
C -0.1730968978 -2.5712455444 -1.1635655715
C -0.2771812025 -1.2626914430 -2.0242331386
O 0.5184972249 -1.8542019743 -3.0851909841
C 0.9564819155 -2.8127094022 -2.1042981416
C 1.6759530368 -4.0352050985 -2.5592705992
H 0.6388407932 1.9673498822 -0.5488914466
H -1.0029424954 1.3635833349 -0.8887563843
H -0.5140151565 1.7105064573 0.7884640647
H 1.5196832054 0.0526731077 -1.6125861054
H 1.8956865515 -2.3876338262 -0.0295761173
H -0.8774008784 -3.2073364909 -0.6467393628
H -1.1689341973 -0.7424677215 -2.3675820552
H 2.6308864273 -3.7730805786 -3.0269217716
H 1.8814247076 -4.6916563989 -1.7085568767
H 1.0756363052 -4.5889915007 -3.2876777850