19

O 0.0492963084 1.3583699503 -0.1372378740
C 0.0457576394 -0.0370495518 -0.0880327851
C 1.1362308787 -0.7564369803 -0.8266535996
C 1.1711761885 -0.7154863673 0.7039527790
C 2.1019774094 0.1294194348 1.3842451691
C 2.8222575563 0.9120811213 1.9511989886
C -1.3311196868 -0.6241011739 -0.0187302359
C -2.4033200082 0.0438918827 0.8045031234
C -2.4836519294 0.0700074722 -0.7013912552
H 0.6220421214 1.6851623021 0.5696102797
H 0.9218470793 -1.7155018869 -1.2858193483
H 1.8597920720 -0.1405908502 -1.3471359834
H 0.9058538773 -1.6330500346 1.2202313827
H 3.4946339638 1.5646215258 2.4509947424
H -1.3386125551 -1.7101912464 -0.0410102020
H -3.0937689900 -0.5857852793 1.3543262762
H -2.1383628138 0.9719791065 1.2972038581
H -2.2717392520 1.0132939065 -1.1900840647
H -3.2279149992 -0.5452618816 -1.1945866011