18

C 0.2229324609 1.5377305031 -0.0694552799
C 0.0596418248 0.0443873306 0.0722433928
O 0.8843595266 -0.7237814013 -0.8520478993
C 1.3810315019 -1.5756875770 0.1868900347
C 2.7377107063 -1.1308753586 0.7595297800
N 2.0481837920 -0.1268722949 1.6237729232
C 0.7066625351 -0.6916140894 1.2848462600
C -0.1153501322 -1.1369498916 2.3743462786
C -0.7983100318 -1.4952694657 3.2982078566
H 1.2463047629 1.8317298143 0.1711874492
H -0.0112556230 1.8406878551 -1.0947273840
H -0.4650799301 2.0578171742 0.6057195318
H -0.9906590795 -0.2565058623 -0.0410153290
H 1.1889735997 -2.6355420473 0.0090698195
H 3.2392061661 -1.9322289527 1.3163528409
H 3.4340522278 -0.6940349635 0.0377803110
H 2.2663272691 -0.2146475989 2.6089807585
H -1.4049323066 -1.8157121042 4.1090206255