12

O 0.0369970985 1.3262469817 -0.0818875709
C 0.0541241630 -0.0216947622 -0.0500967013
C 0.0654646151 -0.7502863145 -1.2368416874
N 0.0824428833 -2.0858390520 -1.2089482509
C 0.0881888185 -2.6943039644 -0.0379952613
O 0.1052190224 -4.0414100026 0.0292273003
C 0.0765179944 -1.9367417906 1.1437205587
F 0.0823128259 -2.5516671630 2.3152488849
N 0.0598395653 -0.6291475507 1.1380527918
H 0.0315909752 1.6295982549 0.8353421540
H 0.0608136263 -0.2545041484 -2.2005885326
H 0.1108316122 -4.3579756282 -0.8842841854