21

C 0.7152508460 1.5591673749 -0.2638719385
C 0.1561539578 0.1695690691 0.0737048610
C 0.3504702306 -0.8875181906 -1.0595885168
N 1.3275900570 -1.9085158324 -0.6338860814
C 2.6379737972 -1.3617865616 -0.2580420355
C 1.6260582084 -1.6582163365 0.7884899549
C 0.7893124590 -0.5172774899 1.2990435491
C 1.0723110059 0.1832826028 2.5756756272
N -0.0021562314 -0.8247282221 2.5060867431
H 1.7954469685 1.5431824849 -0.4349970146
H 0.2425267105 1.9478757752 -1.1722761525
H 0.5196860038 2.2764598706 0.5396190801
H -0.9178781157 0.2894985812 0.2590045197
H -0.5917377330 -1.4087676651 -1.2558456055
H 0.6737355356 -0.4299187746 -2.0006136083
H 3.4704066297 -2.0432778977 -0.4099609487
H 2.8636806165 -0.3230353189 -0.4835225027
H 1.7286076452 -2.5193300862 1.4418929212
H 1.9319574739 -0.1048281757 3.1754690189
H 0.8006800110 1.2323092444 2.6612721476
H -0.9047662566 -0.3573041717 2.4556415318