17

O -0.1881429092 0.0310155145 0.1859012918
C -0.0461559098 1.2212166896 0.0313073057
C 1.2496652114 1.9060488693 0.0063426875
C 1.3843672375 3.3825325768 0.3226412654
C 1.7297664845 2.9415771954 -1.0517324727
C 3.1204600513 2.2652691005 -1.0819219603
C 2.6138390655 1.2192932198 -0.0155664156
C 3.4993614710 1.6984548870 -2.3604001879
C 3.8027704320 1.2279315066 -3.4242616407
H -0.9220517763 1.8953231772 -0.1202233109
H 0.4466348418 3.9213217141 0.4206682633
H 2.1578590563 3.6944757255 1.0202912636
H 1.1926990415 3.2788904298 -1.9291329324
H 3.9175379290 2.9234999898 -0.7172813242
H 3.1613131865 1.1959320453 0.9305081867
H 2.5556343863 0.2122628054 -0.4273187163
H 4.0779532406 0.8106687033 -4.3611454830