18

N 0.2443185911 1.1705862974 -0.2534228465
C 0.1292391550 -0.0495953308 0.0097669714
O 1.0567842401 -0.9802223066 0.4240535342
C 0.0356250843 -2.0273226495 0.4870580640
C -1.0307361753 -1.0247823799 -0.0159715800
C -2.2656513997 -0.7372858161 0.8709372070
C -3.4654553997 -1.0466030601 -0.0577859939
O -2.9415585124 -1.8331395266 -1.1181811283
C -1.6652415547 -1.2914376584 -1.3953547102
H 1.2032701574 1.4977073837 -0.1263844597
H 0.2830847211 -2.8562977255 -0.1811537514
H -0.0866322172 -2.3856916097 1.5125204730
H -2.2642874405 -1.3828124528 1.7529188674
H -2.2710234907 0.3002105238 1.2116812157
H -4.2604475653 -1.6190966321 0.4255423825
H -3.8964665386 -0.1130041922 -0.4506886783
H -1.7442115059 -0.3389001052 -1.9434796450
H -1.1103915890 -2.0067224293 -2.0073633619