18

C 0.0772569567 1.5248612396 0.0361939070
C 1.5995434494 1.2644582643 0.0616024946
C 1.1481181733 -0.1181744716 0.8109725479
N -0.1204414250 0.0408427871 -0.0046643290
C 0.7837326969 -0.4188670860 -1.1475315842
C 1.8116485901 0.7168486226 -1.3989512013
C 3.1002155619 -0.1255945700 -1.7118756386
C 3.0183505482 -1.1197727828 -0.5539583375
C 1.7336787404 -1.1222462539 -0.1565925620
H -0.3202969895 1.9194421056 0.9757812554
H -0.3445389146 2.0837472183 -0.8056660639
H 2.3255154798 1.9702346692 0.4709082501
H 1.0970319988 -0.1353384970 1.8998169579
H 0.3023313260 -0.9222606687 -1.9844622760
H 1.5823260105 1.4796682423 -2.1513008040
H 3.0364106244 -0.5351801708 -2.7299896790
H 4.0395569815 0.4357105052 -1.6562727398
H 3.8614801013 -1.2805796633 0.1108775325