13

O -0.1010814625 1.3387719356 -0.0136673570
N 0.0266609507 -0.0687485590 -0.0424511221
C -1.1250688645 -0.6254344291 0.0199425343
C -1.2637241285 -2.1435042952 -0.0012262089
N -2.7150200084 -2.3406747047 -0.1638680546
C -3.3326367281 -1.1163906975 0.0261987546
C -2.4685706760 -0.0794104662 0.0945479092
H 0.8165125349 1.6215378564 -0.0768666417
H -0.7035688525 -2.6028210598 -0.8203289029
H -0.9105271415 -2.5827117549 0.9406833576
H -3.1254878047 -3.1491072264 0.2790695075
H -4.4147113197 -1.0794386563 0.0580821835
H -2.7116725192 0.9684187671 0.1367780704