16

O 0.2887133788 1.3521937592 0.2367085801
C 0.1004237324 0.0133353349 -0.1108981768
C -1.3520319345 -0.3910947082 0.0089638272
O -2.1952422431 0.3985819150 0.3755765907
C -1.7143937095 -1.8403129427 -0.3511231334
O -0.8338686688 -2.6175276844 -0.6633527776
C -3.1484806453 -2.2120749432 -0.2943309541
C -3.6832218059 -2.9439721975 -1.4975393422
N -3.4670289693 -3.6486348840 -0.2479542018
H -0.5846323286 1.6922736143 0.4826410802
H 0.4280139416 -0.1901355704 -1.1429131431
H 0.6944706174 -0.6626809788 0.5244997111
H -3.8025952081 -1.5485393120 0.2569632680
H -4.7200811269 -2.7765651255 -1.7729294161
H -2.9935448491 -3.1099702317 -2.3205319248
H -2.5829871410 -4.1559791151 -0.3058166774