19

C 0.0455908555 1.6089708725 0.1338506560
C -0.1362437009 0.0994228965 -0.0690078926
C 0.6419309836 -0.4592629546 -1.2576042060
O 0.2178845094 0.1063906906 -2.4871247623
C 2.1737588929 -0.6665542720 -1.1164506086
C 1.9824805039 -2.0264685438 -0.3754035364
O 2.8639090731 -2.7754514739 -1.2621534821
C 2.1496197376 -1.8505455856 -2.1362119423
C 0.7892720721 -1.9849584382 -1.3818599323
H 1.0999115360 1.8717744599 0.2739549063
H -0.3361998021 2.1812754514 -0.7193806583
H -0.5018713153 1.9534144337 1.0157449084
H 0.1730428581 -0.4279220400 0.8411619115
H -1.1992702993 -0.1250265310 -0.2189830000
H 0.3570442093 1.0579855480 -2.4481062443
H 2.9810240793 0.0514107048 -0.9680234032
H 1.9958312700 -2.2560909502 0.6888448197
H 2.3612226960 -1.8609751995 -3.2024342429
H 0.0249989007 -2.7468093587 -1.5330286406