20

C 0.8032012490 1.3289794220 0.2210360898
N 0.6206931519 -0.0995904717 0.0323859690
C 0.4040717316 -0.5789951851 -1.1173781157
O 0.3205501453 0.1650758279 -2.2473180637
C 0.1844056440 -0.5593924168 -3.4816946512
C 1.2332054262 -1.6648040832 -3.5935533281
C 1.2040920362 -2.6001822138 -2.3582069880
C 0.2365414939 -2.0793088116 -1.2732666420
O 0.4361624967 -2.7291438918 -0.0511378946
H 1.0552804215 1.8648617690 -0.7005672184
H -0.1145641129 1.7675154892 0.6318292840
H 1.5951645080 1.4929297275 0.9582920430
H -0.8335742733 -0.9629926366 -3.5549596536
H 0.3038315061 0.1913779009 -4.2656044514
H 1.0585287688 -2.2172675867 -4.5222505059
H 2.2164100198 -1.1931574173 -3.6869181834
H 0.9091654827 -3.6174617187 -2.6283147187
H 2.1944237041 -2.6680187174 -1.9001171942
H -0.7971995073 -2.2546095243 -1.6201876705
H 0.5816901078 -2.0054850515 0.5854288333