18

C 0.0788915248 1.4641695167 -0.2602343738
C 0.0036142355 -0.0474034575 0.0090248025
C 0.6715181190 -0.3799909390 1.3364379968
O 1.6489209803 -1.0730030899 1.4464204303
C -1.4384183224 -0.5714613574 0.0093178344
C -2.0294761911 -1.0779582631 -1.3008416599
C -1.6729453488 -2.0582755302 -0.2260950464
C -2.3428471559 0.0966564223 0.9129754456
N -3.0570883591 0.6433864260 1.6413587200
H 1.1197333678 1.7951247197 -0.3122654296
H -0.4073836964 1.7063834629 -1.2095773301
H -0.4239122499 2.0317391981 0.5290294745
H 0.5554770331 -0.5945240280 -0.7617746477
H 0.1818096281 0.0775175901 2.2259726526
H -3.0778413816 -0.8768834034 -1.4854174588
H -1.3912117368 -1.0065399343 -2.1744044292
H -0.7824172055 -2.6647252769 -0.3480978705
H -2.4758886811 -2.5333128062 0.3240658693