13

O -0.0282413796 -0.0802693931 0.0039464966
C 0.0287462334 1.1268857080 0.0090168888
N -1.0471875290 2.0105966001 0.0285052928
C -0.7205268722 3.4394407603 0.0306058714
C 0.7732103645 3.3567579680 0.0091816586
C 1.1680706994 2.0694034966 -0.0025113929
O 2.5232909753 2.0282160323 -0.0218023844
C 2.8632808602 3.3503665344 -0.0203333452
N 1.8708262130 4.1920728009 -0.0022566800
H -1.9891883459 1.6577027469 0.0397476085
H -1.1306075364 3.9529152388 -0.8483510619
H -1.1056453092 3.9445894706 0.9255312556
H 3.9194808164 3.5691063861 -0.0341776479