19

O 0.0650545822 -0.0200180957 0.4327193411
C 0.1985965531 1.1806513757 0.5129128045
C 1.3077628366 1.9420454647 -0.0887860241
C 1.3336916328 3.2723659540 0.0843674567
C 2.3865638226 4.1801951259 -0.4743282076
C 3.6520100471 3.4570583681 -0.9036240993
C 4.3653671663 2.5539188441 0.0739785849
C 3.6274967491 1.9589650526 -1.1001510460
C 2.3393329493 1.1847237243 -0.8827039430
H -0.5370051891 1.8053985699 1.0696256960
H 0.5320951784 3.7386736668 0.6557325347
H 1.9555843039 4.7118658089 -1.3370453252
H 2.6184905774 4.9664694820 0.2575562756
H 4.2827510150 4.0284975120 -1.5776211105
H 5.4494631446 2.5381033429 0.0660024074
H 3.9239899532 2.4320504410 1.0584110882
H 4.2472915876 1.5683208306 -1.9014869401
H 2.5314463278 0.2238214102 -0.3910566530
H 1.9017872920 0.9237481419 -1.8563648500