16

C -0.0862011619 1.5226178192 -0.0484489575
C 0.1188984372 0.0266790826 0.0169199288
O 1.2304285667 -0.4562587259 -0.8101585025
C 1.7532341983 -1.2175072423 0.2728199958
C 2.1791658762 -0.2981271078 1.4016743022
C 0.7237069733 -0.6374886701 1.2554209652
O -0.0488268511 -1.2326097395 2.2167038847
C 2.2560775527 -2.5303832179 0.0529889958
N 2.6614605402 -3.6032984725 -0.1033437454
H 0.8044911357 2.0667834138 0.2766085742
H -0.3191167261 1.8274519104 -1.0730931423
H -0.9280943111 1.8098966596 0.5900145102
H -0.7909662415 -0.5123363295 -0.2739070048
H 2.6682827120 -0.8082373433 2.2270315881
H 2.5794518990 0.6802939542 1.1512896808
H 0.2378338003 -0.9349389810 3.0860003666