16

N -0.1252186651 1.2845885078 -0.8047424207
C 0.0604804397 0.2366135216 -0.1256876312
C -1.0143908343 -0.8033727416 0.0454548818
C -1.4618061925 -0.9766308738 1.5075921876
C -0.5030853034 -1.5103594611 2.5693138409
O -0.9089570128 -1.9726812932 3.5965295036
O 0.8488963939 -1.3676560742 2.4164565012
C 1.4728822783 -1.2178707720 1.1561775151
O 1.2471129292 0.0225207895 0.5386492012
H 0.7105260260 1.8731521770 -0.7867799880
H -1.8664813040 -0.4614143422 -0.5427860536
H -0.7015079611 -1.7634283822 -0.3803477367
H -1.7928424320 -0.0027424170 1.8908762756
H -2.3362088096 -1.6294747094 1.5542121083
H 2.5407407588 -1.2502729392 1.3704612392
H 1.2019798291 -2.0476680600 0.4956983055