19

C -0.1124446318 1.4339050853 -0.2894631654
C -0.1316836438 0.0316050242 0.3311092373
C -1.4631803257 -0.6630269112 0.1388393988
C -1.8363163878 -1.3292184483 -1.1392969486
O -0.8543459208 -1.4014738863 -2.1342891067
C -1.5476562770 -2.1953734811 0.1032965425
O -0.3804271356 -2.9512609968 0.0800827971
C -2.6970431925 -2.8549213563 0.7559209324
O -3.7714241206 -2.3228642863 0.9266841332
H 0.8497490810 1.9248494408 -0.1139976881
H -0.2753318539 1.3821344060 -1.3701693315
H -0.8948203412 2.0698245105 0.1385764290
H 0.6693435144 -0.5759105977 -0.0974346304
H 0.0738067197 0.0934436943 1.4061206644
H -2.3120558031 -0.2158840250 0.6510556897
H -2.8659054055 -1.2721196795 -1.4834235127
H -1.1805222751 -1.9753370531 -2.8357153453
H 0.0011140666 -2.8397530633 -0.8025594958
H -2.4955598574 -3.9020413363 1.0684081401