20

C -0.3160411780 1.4126810625 0.2856125430
N -0.1041482346 -0.0284963793 0.3016676958
C 1.1158466030 -0.5490784685 -0.3132700872
C 0.9470651743 -0.6043129973 1.1628175680
C 1.7175541333 0.1878068461 2.1559799938
C 1.5573692524 -0.3111738562 3.3845529985
C 0.6426586005 -1.5123720781 3.4048272091
C 0.5194577477 -1.8927344108 1.9027347643
O -0.7455008427 -2.3486652044 1.5031042810
H 0.6150729512 1.9975148175 0.3088307426
H -0.8627055717 1.6787202381 -0.6244630368
H -0.9239041237 1.7014321176 1.1483348484
H 0.9978347901 -1.4515212595 -0.9090577150
H 1.8237033759 0.1756051566 -0.7150954201
H 2.3129325208 1.0556304497 1.8989756802
H 2.0146632123 0.0956499239 4.2800514136
H 1.0293220067 -2.3357949037 4.0143345387
H -0.3463425187 -1.2573442539 3.8071818394
H 1.2583859238 -2.6766036330 1.6831795079
H -1.1124963026 -1.6206894073 0.9703958550