20

C -0.0286012512 1.4624870852 0.0021100004
C -0.0279173210 -0.0530833168 -0.0070991422
C 1.0637295300 -0.6546668560 -0.8899380372
C 0.9408162812 -2.1636300553 -1.2053745045
O -0.3867729406 -2.6626369004 -1.1485173910
C -1.0829321526 -2.2376947576 0.0033777724
C -0.2917587974 -2.0706614763 1.3330768347
N -0.4547653025 -0.5809238559 1.3202064463
C -1.3361931114 -0.7285090010 0.0834820936
H 0.9282703377 1.8460063918 0.3732404830
H -0.1863115193 1.8605291124 -1.0059955120
H -0.8177025870 1.8392480562 0.6568860549
H 1.0233614445 -0.0926440317 -1.8303538647
H 2.0522146540 -0.4553118742 -0.4578897884
H 1.2865654642 -2.3603083611 -2.2237223861
H 1.5842357925 -2.7456028807 -0.5315006130
H -1.9702177476 -2.8674641904 0.0771955910
H -0.8443912374 -2.4744059682 2.1847147888
H 0.7396314859 -2.4268505258 1.3876829783
H -2.2906400321 -0.2215070642 -0.0184758044