20

C -0.1586807309 1.5085739012 0.0107756323
N -0.0340525505 0.0568669911 0.0146659565
C -1.3387641092 -0.5819963622 -0.1507297356
C -1.1963795672 -2.0978075735 -0.1405335063
O -0.5824325850 -2.5325828164 1.0608460014
C 0.7039510991 -1.9735286897 1.1952599469
C 0.6623377660 -0.4279727002 1.2025326680
C 2.1075760654 0.0453339684 1.2015777462
O 2.7600486359 0.2291130364 2.1956610102
H 0.8280692580 1.9770644606 0.0811205428
H -0.6185958911 1.8342731675 -0.9272792811
H -0.7746499986 1.8890486083 0.8465102388
H -2.0416641890 -0.2830449186 0.6504401538
H -1.7687817495 -0.2557532561 -1.1049044941
H -2.1771942755 -2.5782978436 -0.1850916381
H -0.6022665740 -2.4232286522 -1.0097341062
H 1.1170132764 -2.3290128224 2.1417909543
H 1.3548292875 -2.3141742144 0.3723783959
H 0.1881794357 -0.0978508167 2.1443943471
H 2.5402546967 0.1552547526 0.1810169072