19

C 0.3136022608 1.4372408378 0.3777665251
C 0.0048481002 -0.0157757644 0.0081858698
C 0.6622580884 -0.4308508572 -1.3030312840
O 0.4700816524 -0.9396769883 0.9934852680
C -0.2616439297 -0.9637321448 2.1773904816
C 0.3552955262 -1.7035798667 3.3193370391
C 0.2160668700 -0.1950765298 3.3864848936
H 1.3933822133 1.5785968532 0.4931680116
H -0.0396308804 2.1112700506 -0.4094780103
H -0.1735799750 1.7240557503 1.3126911015
H -1.0883471220 -0.1307040228 -0.0872677078
H 1.7505632507 -0.3398372541 -1.2268513549
H 0.4223795175 -1.4710472903 -1.5380465071
H 0.3192251506 0.2036070089 -2.1256403238
H -1.3394104601 -1.0550401910 2.0317737943
H -0.2804788423 -2.3206265938 3.9440978318
H 1.3502679485 -2.0996818003 3.1507764777
H 1.1235832594 0.3856402397 3.2691308139
H -0.5187497585 0.2352176931 4.0588725198