25

C -0.0868974834 1.5072587984 -0.0183385620
C -0.0293743874 -0.0255314510 -0.0093496655
C -1.4186773570 -0.5772007811 -0.3346535002
C 1.1565622168 -0.5329756833 -0.8879615305
C 2.0294705831 -0.6568503633 0.3867997156
C 0.7385762743 -0.6022629339 1.2590109931
C 0.7834403356 0.2450161943 2.5293251044
C 0.2876191542 -2.0229849958 1.6113778297
O 1.2332901618 -2.5731993146 2.5227473742
H 0.8944371950 1.9610425986 0.1490261447
H -0.4474538898 1.8578908336 -0.9922635653
H -0.7689099390 1.8928496280 0.7471455808
H -1.7584713385 -0.1928788473 -1.3036436177
H -1.4361589784 -1.6686567281 -0.3961395625
H -2.1591095341 -0.2696966341 0.4134999701
H 0.9486774064 -1.5028223440 -1.3491925290
H 1.5043877507 0.1473545457 -1.6706544284
H 2.6419179302 -1.5535759064 0.4989418560
H 2.6683780019 0.2166152807 0.5414690390
H 1.1887770716 1.2422868769 2.3421142971
H -0.2177141100 0.3653290076 2.9621479394
H 1.4108505741 -0.2425869431 3.2798454162
H -0.7186574162 -1.9962272814 2.0594619115
H 0.2299640765 -2.6442722850 0.7054585393
H 0.9515656717 -3.4653738513 2.7430466800