13

N -0.2183127181 -1.2072668918 -0.2037545721
C -0.1237580562 -0.0589960622 -0.1203391708
C -0.0176106650 1.3888912414 -0.0133083781
C -0.2829745435 1.9988192334 1.4327866736
N 1.1040151449 2.4980561673 1.3391546930
N 2.1072231598 3.2078730269 1.8709531230
N 3.0635293687 3.1338501025 0.9705885807
C 2.6765070042 2.3991067896 -0.1201431502
C 1.3881900535 1.9889790431 0.1330549241
H -0.6247496454 1.8609137677 -0.7897428802
H -1.0368158096 2.7861510901 1.4701128597
H -0.4357977699 1.2660798682 2.2253891988
H 3.3402504365 2.2368953038 -0.9514145615