16

O 0.0288719887 -0.0462420012 -0.0787217069
C 0.0242766524 1.1593240004 -0.0224428989
C -1.2273650346 2.0521588758 0.0763017461
C -0.7042424619 3.5032221658 0.0592404776
C -1.1847258950 4.3345247509 1.2759614569
C -0.6575868839 5.6976840435 1.2667609102
N -0.2234866540 6.7681120906 1.2323375235
C 0.8010569348 3.3432566816 0.0156869022
C 1.1965754314 2.0673950781 -0.0318224202
H -1.9059483630 1.8296581340 -0.7511410299
H -1.7635220981 1.8082965093 0.9995023162
H -1.0353693582 4.0310397046 -0.8435052507
H -2.2790399965 4.3821299737 1.2817079407
H -0.8786963582 3.8444203339 2.2074152484
H 1.4545928900 4.2093096664 0.0206738012
H 2.2137941259 1.7005047024 -0.0772990163