18

C -0.1409741842 1.4145906787 0.2721405245
C 1.1866853005 0.7850208914 0.0612366259
C 1.9492103117 0.3653122189 1.3100900111
O 2.2088228662 1.4392437658 2.2146126631
C 1.5967811750 1.0964960887 3.4414857078
O 0.4998678755 0.2737416585 3.1354590400
C 0.9649547671 -0.5647448913 2.0760030336
C -0.1391130537 -0.9206238094 1.0756513646
N -0.0564833240 -0.0075860838 -0.0832798855
H -0.4170201653 1.6817701042 1.2873649406
H -0.5612798372 2.0479723716 -0.5038155278
H 1.7489388137 0.9731542749 -0.8481172334
H 2.8912587502 -0.1304907568 1.0516347860
H 2.3147524033 0.5626435140 4.0913457510
H 1.2386903454 2.0023460048 3.9385874714
H 1.4580948395 -1.4518039165 2.4955694464
H 0.0135334889 -1.9392579667 0.7037348197
H -1.1278011627 -0.8744291672 1.5410729910