21

C -0.1820292481 1.6126003288 0.0387178661
C 0.0020039655 0.0817255131 0.0117085757
C -1.3811266029 -0.5965368430 -0.0801002137
C 0.8716130819 -0.3939351582 -1.1451897340
C 1.8398741828 -1.2311741369 -0.7576120087
C 1.8917532282 -1.3734329019 0.7256741864
C 2.2110354096 -0.0828850778 1.4559971274
O 2.8555814432 0.9954590091 0.8498056553
C 0.7668741958 -0.4544553829 1.2354072921
H 0.7734578578 2.1274793411 0.1525960192
H -0.6658845950 1.9619393606 -0.8804822147
H -0.8216021842 1.9035261562 0.8788408442
H -1.9018147465 -0.3015453676 -0.9977053926
H -1.2858323190 -1.6863447501 -0.0784482311
H -2.0085526159 -0.3040289438 0.7697785387
H 0.6738447716 -0.0894688161 -2.1682696474
H 2.5452799511 -1.7233226350 -1.4185190979
H 2.1484072741 -2.3261173922 1.1763370497
H 2.5694313071 -0.1943673932 2.4748421103
H 2.7818252300 0.8742976989 -0.1061568990
H 0.1821033228 -0.7263893190 2.1086147238