20

O -0.0130770993 -0.0144419343 -0.1559678818
C 0.0350767600 1.1916248855 -0.0123799752
N 1.1557020638 1.8996348978 0.2497784370
C 2.5677321191 1.5179430707 0.0236624402
C 2.6988278993 2.8167265068 -0.8279574957
C 1.4973645547 3.3217711045 0.0246198914
C 1.9733159598 3.8936687223 1.3688286885
C 3.2342574760 3.1291280777 1.8589526323
C 3.2963163865 1.6562306813 1.3671999300
H -0.8603534295 1.8471979651 -0.0567933795
H 2.6966590371 0.5479909617 -0.4572944178
H 3.6348894372 3.3767965409 -0.7842176623
H 2.4095599731 2.6443400037 -1.8659462505
H 0.7191622663 3.9203083827 -0.4555895939
H 2.2000396576 4.9613807322 1.2724144639
H 1.1504462874 3.8017752255 2.0855230953
H 4.1195527636 3.6544222112 1.4867832516
H 3.3026905317 3.1699899330 2.9494770961
H 2.8183004664 0.9777900613 2.0807428976
H 4.3412750191 1.3412436103 1.2715835130