16

N -0.1236809216 1.3074919043 -0.1298269655
C -0.0365777326 0.0436827814 0.0090852011
N 1.1507249507 -0.6822292319 0.0975450702
C 1.3339942394 -2.0641442045 -0.0051128903
O 2.4432937642 -2.5557554077 0.0408897899
N 0.1851213452 -2.7920412206 -0.1749912220
C -1.1393290048 -2.2744446387 -0.0057677852
C -1.5483911433 -1.6512351223 1.3023659029
C -1.2716733426 -0.7780484982 0.0844417050
H 0.7973946695 1.7454814824 -0.1933251153
H 2.0241749245 -0.1758878601 0.1194303525
H 0.3295635643 -3.7851081133 -0.0742230943
H -1.8831075601 -2.8134301824 -0.5824329883
H -2.5808271595 -1.7326053948 1.6219339774
H -0.8155953186 -1.6474727484 2.1015011857
H -2.1216439547 -0.3024617452 -0.3862223737