14

N -0.0497730885 1.0429736684 -0.8343980069
C 0.0183837426 0.0715817013 -0.0295161924
C -1.2387387384 -0.5795411868 0.5056561754
N -1.0419921482 -2.0084283560 0.6894418756
C 0.0875136786 -2.5046152404 1.2623785332
O 0.2369692376 -3.6540010759 1.6213105901
C 1.1782652560 -1.4485432993 1.4282000669
O 1.1972222493 -0.4500996599 0.4006545133
H 0.8867313031 1.3823643358 -1.0630922666
H -1.5253443526 -0.0842514390 1.4468214356
H -2.0374773763 -0.3999823450 -0.2128324567
H -1.8285631783 -2.6366477502 0.6172205090
H 1.0679650562 -0.9714983601 2.4124631809
H 2.1468167289 -1.9461170329 1.3959315325