11

O 0.0232550018 1.3260576349 0.0076963289
C -0.0037452220 -0.0058850610 0.0009343787
C -1.1948908186 -0.6746039826 0.0037210367
C -1.2198755100 -2.0952497982 -0.0035645914
O -2.1004895305 -2.8926335379 -0.0026609491
O 0.1581909059 -2.6791390121 -0.0135550541
C 1.1901117625 -1.8909730175 -0.0148273596
F 2.3130761710 -2.5569538963 -0.0241460017
N 1.2273458925 -0.6094095950 -0.0085446892
H 0.9536203072 1.5931154498 0.0042099718
H -2.1389163598 -0.1504741540 0.0114450091