14

N -0.0310178413 -1.1640878957 -0.0943139189
C -0.0360646023 -0.0106604587 -0.0274990861
C -0.0124609914 1.4469416422 0.0604161041
C 1.4273664699 2.0103227388 -0.0220214798
C 1.4416463136 3.5009429561 0.0468306518
C 2.0148326678 4.3670730924 0.9231686385
O 1.7406218014 5.6142328410 0.5517666448
N 0.9419707840 5.5105887945 -0.6293797050
N 0.7940733153 4.2903600867 -0.8852133089
H -0.6170802278 1.8656769631 -0.7504604905
H -0.4842584448 1.7526971196 1.0004374216
H 2.0319716012 1.5996489327 0.7909361705
H 1.8833650912 1.6762886476 -0.9597074279
H 2.6177806432 4.2361011896 1.8069612358