15

O -0.7697419223 1.3311666813 0.3335309286
C 0.3416117095 0.9317612243 0.0830482408
C 1.4954059392 1.8452366469 -0.1212048160
N 2.6870816716 1.4065254359 -0.2986493710
C 3.5368626141 2.5968622265 -0.4259870202
C 2.6432715678 3.8194821389 0.0033088251
N 1.3045195934 3.2129818192 -0.1322644707
C 2.9116994385 4.2958012313 1.3587842429
C 3.1262298177 4.6846132390 2.4758804852
H 0.6015563017 -0.1404824832 0.0040158972
H 4.4363772293 2.5041023027 0.1861066473
H 3.8499193567 2.7020277793 -1.4718972411
H 2.7547060628 4.6507569274 -0.6994657632
H 0.5329634803 3.5834142951 0.4050627773
H 3.3180883499 5.0279757256 3.4626811079