23

C -0.1766266817 1.5929150029 0.1648860924
C 0.0290254626 0.0848208779 0.0871268163
C 1.0325433924 -0.5009823208 -0.9670550099
C 1.7679865020 -1.2471923188 0.1620244733
C 2.2992791808 -2.6499115753 0.0621081643
C 3.5688345025 -2.7418683042 -0.7808477627
O 3.9621595887 -4.1055894433 -0.8293826573
C 2.2820144853 -0.2380249564 1.1544114186
C 0.8257885142 -0.6214743644 1.1956189888
H 0.7715778969 2.1259205257 0.2907841437
H -0.6505149031 1.9720857904 -0.7475556303
H -0.8213322387 1.8586870299 1.0101594064
H -0.9428853458 -0.4041481061 -0.0346324564
H 0.5471934260 -1.1681068690 -1.6845277956
H 1.6305502295 0.2295436352 -1.5237919975
H 2.5183488969 -3.0429464969 1.0622486662
H 1.5453430352 -3.3146025867 -0.3790164371
H 3.3730176327 -2.3476307586 -1.7914173984
H 4.3540461160 -2.1125210594 -0.3325320377
H 4.7606822078 -4.1694254274 -1.3610534436
H 2.8818141291 -0.6475890550 1.9619946347
H 2.5949689934 0.7536108755 0.8350818275
H 0.3935739972 -1.0784715151 2.0794449443