18

N 0.0485450182 -1.1480373188 0.0259665494
C -0.0129259705 0.0092530424 0.0187355149
C -0.0413243010 1.4331594823 0.0084191808
C -1.1884296843 2.1304824949 0.0369287361
C -1.1293907604 3.6360061028 0.0233841851
C 0.3300355934 4.1215064504 -0.0236442082
C 1.1202660621 3.3326439449 -1.1097363135
C 1.2679329767 2.2120203395 -0.0364597979
C 1.1835199981 3.3493787076 1.0259973698
H -2.1524778032 1.6336263416 0.0693737041
H -1.6930164141 4.0195058896 -0.8389363544
H -1.6411747418 4.0332207010 0.9114384921
H 0.3847608073 5.2119563397 -0.0338094540
H 0.6132544710 3.0770562122 -2.0435134449
H 2.0806083417 3.8065124367 -1.3263429779
H 2.1409267963 1.5609043920 -0.0572133226
H 2.1547777903 3.8261348445 1.1779478135
H 0.7327745502 3.1086770967 1.9920288976