15

O 0.1105463039 1.4290925205 0.1382537580
C 0.0459324712 0.0161766972 0.2125138755
C -1.3608959210 -0.5246146600 -0.1011270516
C -1.4296385118 -2.0144505748 -0.0102174610
C -1.9357826493 -2.8272397642 0.9785233937
N -1.6874605468 -4.0817266059 0.5334924691
N -1.0651334411 -4.0682543374 -0.6583745297
N -0.9073496947 -2.8194213570 -0.9864808533
H -0.0003278725 1.6811255147 -0.7840363705
H 0.7768858445 -0.4650860431 -0.4528695487
H 0.3197203190 -0.2442311219 1.2404369357
H -2.0779759276 -0.0641010591 0.5854473419
H -1.6382399596 -0.2177245756 -1.1170473576
H -2.4323912674 -2.6263454176 1.9127291240
H -1.9127027668 -4.9650244958 0.9624162946