23

C -0.0809205587 1.3857758240 -0.1281240906
O -0.0418649112 0.0705247239 0.3764508920
C -1.2434669166 -0.6352881903 0.1713018282
C -1.5726951427 -1.2110621186 -1.2501798560
C -1.7135693014 -2.6039727419 -0.6134547673
C -2.8210718527 -3.5618753679 -0.9499421587
C -0.4186972206 -3.0236327799 0.0252448449
C 0.9795409474 -2.7710619989 -0.5030456614
C -1.2905911428 -2.0336856522 0.7626315899
H 0.8787242119 1.8542729100 0.1036198542
H -0.2302067766 1.4077595707 -1.2184159243
H -0.8860500155 1.9753766904 0.3391086086
H -2.0883182548 -0.0299569487 0.5339959360
H -2.5120016180 -0.8247913692 -1.6543563420
H -0.7930868335 -1.1005474033 -2.0099904599
H -2.6819323905 -3.9964147121 -1.9478721386
H -2.8608875895 -4.3896997310 -0.2341559288
H -3.7984054087 -3.0646318641 -0.9427437116
H -0.5195293289 -4.0117134787 0.4748836299
H 1.1057435058 -1.7534829583 -0.8724258136
H 1.7169357330 -2.9160643248 0.2939257047
H 1.2214135495 -3.4712875061 -1.3113187836
H -1.6879840150 -2.2597495128 1.7461149181