18

O -0.1087694023 1.3865381051 0.0729171332
C 0.0397004282 0.0092278756 0.0529716794
C 0.8807566942 -0.7972262999 -0.9778742261
N 0.7931262505 -1.9254247091 0.0263902876
C 0.8232832523 -0.8470229549 1.0895986092
C -0.6716580039 -2.2024750562 -0.0258351421
C -1.3070520447 -0.7569245345 -0.0133843228
C -2.2084496940 -0.4975432907 1.0946417569
C -2.9518140096 -0.3123708087 2.0217599584
H 0.7620838074 1.7889154709 0.1542213750
H 0.4634153357 -1.0139171557 -1.9657656236
H 1.9133082830 -0.4488885445 -1.0672324320
H 1.8503128746 -0.5082652535 1.2505448060
H 0.3470262842 -1.1051794296 2.0381689542
H -0.9136903895 -2.7572438427 -0.9349618483
H -0.9744031539 -2.7912419629 0.8413536004
H -1.8146851777 -0.5295564948 -0.9568177292
H -3.6118895947 -0.1330371438 2.8337970138