18

C -0.1531874966 1.3745427035 -0.3280185386
O -0.2945855894 -0.0070745463 -0.0501400230
C 0.5784349320 -0.4786258260 0.9527728152
C 0.0747291005 -1.8524892560 1.4124973768
C -1.3571338903 -1.7633908735 1.9753046431
C -1.8772866446 -3.0676776587 2.3755045369
N -2.2751859903 -4.1068499410 2.6869885866
C 2.0014687383 -0.6320942065 0.4119465121
O 2.9864130664 -0.6438263147 1.1000818383
H 0.8570618980 1.6247525917 -0.6829021218
H -0.8717737188 1.6181371936 -1.1129144603
H -0.3682272789 1.9857980583 0.5606468045
H 0.6107533404 0.2111396085 1.8117352358
H 0.0889421944 -2.5447174371 0.5639611778
H 0.7611593204 -2.2419812807 2.1691279388
H -1.3819721239 -1.0954664388 2.8443831715
H -2.0177585235 -1.3299513236 1.2189200635
H 2.0394424859 -0.7700086726 -0.6934732675