15

O -0.1167038682 1.4315174711 -0.0170766680
C 0.0114589110 0.0685466662 -0.0002959757
C 0.6844843821 -0.8915149853 1.0467699291
C -0.6872960103 -1.5474140272 1.3088705002
C -1.2555856110 -0.8752538666 0.0191892295
C -0.7013001945 -1.5317661447 -1.2571443029
O -1.1996676350 -2.1669930900 -2.1393823391
C 0.6913987811 -0.8825679193 -1.0598231806
O 1.4010177415 -1.5750319143 -0.0072048626
H 0.7588909496 1.8298101433 -0.0858452651
H 1.3369680460 -0.6351912387 1.8834341383
H -0.7072068371 -2.6376115632 1.3734450431
H -1.1632218863 -1.1167108542 2.1954825087
H -2.2897890669 -0.5346661296 0.0104599516
H 1.3210172478 -0.6272728974 -1.9148826664