22

C 0.0420036615 1.5674258521 0.1120912461
C 0.0704761193 0.0459557866 0.0716028310
C 1.2586463897 -0.6684824211 -0.5907172531
C 2.1834848328 -0.5108081561 0.6550569550
N 2.5630290277 -1.9536609213 0.5883287162
C 3.0259929188 -2.6115550044 1.8037157737
C 1.0986464023 -1.9370274472 0.2979508082
C 0.7216290643 -0.7251605710 1.2504785226
C 0.2135215810 -0.6971652534 2.6704601989
H 1.0112448291 1.9826958899 0.4093584903
H -0.2094599783 1.9848921512 -0.8692754004
H -0.7080756498 1.9317561934 0.8232478865
H -0.9094179470 -0.3522692968 -0.2239233997
H 1.5978671195 -0.6683835786 -1.6263160912
H 2.9050711557 0.2789934358 0.8728108359
H 2.4432657105 -2.4012216401 2.7124630143
H 3.0187648145 -3.6953700120 1.6432304850
H 4.0637333803 -2.3153183136 1.9928894698
H 0.5167527063 -2.8365665973 0.0835319469
H 0.8258082276 -1.2791002481 3.3621746198
H 0.1815345985 0.3338511451 3.0427159133
H -0.8087799045 -1.0915731329 2.7163012610