16

C 0.0230345916 1.2852445830 -0.1670873885
O -0.0993118533 -0.0272358349 0.3405351671
C -1.3625283576 -0.6191612467 0.1369076917
C -1.5162443732 -1.2333920261 -1.2845933325
C -0.9285926587 -2.5390543008 -0.6964987425
O -0.3322729109 -3.4640771158 -1.1577556204
C -1.2577279456 -2.0568232632 0.7455632012
O -0.4066197972 -2.2803236240 1.8160330387
H 1.0274387847 1.6342297317 0.0819929315
H -0.1042290715 1.3188238799 -1.2581824701
H -0.7159174948 1.9591840442 0.2905277690
H -2.1693432876 0.0293650257 0.4976466158
H -2.5585571249 -1.3482962273 -1.5981072338
H -0.9457137778 -0.7722313065 -2.0926216605
H -2.2560077776 -2.4259157148 1.0125523171
H 0.3776056144 -1.7394628544 1.6556592363