16

O -0.0935086479 1.3036424993 -0.3321329637
C -0.0633101322 -0.0592814031 -0.0733936052
C -0.2913136019 -0.4659656460 1.3413607595
C -1.3628089152 -0.7796888280 0.2965148100
C -2.5928988869 -0.0511836274 0.2672344275
C -3.6258890017 0.5643592371 0.2031762164
C -4.8772392383 1.3135153777 0.1331691559
C -5.0341260977 2.0499127048 -1.1297167137
N -5.1597881339 2.6306029479 -2.1197976637
H -0.6240853008 1.4541758678 -1.1227787329
H 0.6456588927 -0.6356397735 -0.6675778685
H 0.2660641651 -1.3007451556 1.7497886885
H -0.5136062761 0.3354266229 2.0353386082
H -1.4323293378 -1.8171648544 -0.0175013948
H -5.7374209829 0.6406985080 0.2452657068
H -4.9451156045 2.0339660825 0.9587634196