21

C -0.1193080557 1.5762718465 0.0115158290
C 0.0404403530 0.0516122356 0.0391114991
C 0.7886009732 -0.5418322696 -1.1836743615
C 1.6002084602 -1.7583279177 -0.6613308905
C 2.9408929629 -1.9586528875 -1.3765504567
C 1.6940432251 -1.4579496112 0.8276801628
C 2.5094373424 -2.1981743592 1.7945315276
O 3.1934623407 -3.1661947311 1.5388594773
C 0.8524447006 -0.4788693894 1.1925974938
H 0.8568592673 2.0708434120 -0.0338365328
H -0.6959138894 1.8895202694 -0.8646487791
H -0.6415719227 1.9402202437 0.9025366428
H -0.9669342679 -0.3894722264 0.1101118902
H 0.1170318141 -0.8010887649 -2.0064745289
H 1.4897769522 0.2113795828 -1.5645417346
H 1.0120662795 -2.6795812719 -0.7835158106
H 3.5779276584 -1.0741374275 -1.2629512944
H 3.4750807382 -2.8181348846 -0.9680719042
H 2.7809203114 -2.1200939828 -2.4479130504
H 2.4488439627 -1.8033726681 2.8345579860
H 0.7247092639 -0.1276854281 2.2132924950