18

C -0.2348930749 1.5496744779 0.0486837276
C 0.1067832483 0.0766436152 -0.0351590670
O 1.3887536366 -0.1713391056 -0.6690255653
C 1.8976848136 -0.8636023171 0.4844325475
C 0.5743425105 -0.6447158668 1.2511585843
O 0.6235595519 0.2105561435 2.3712136679
C 1.1049184251 -0.4295323301 3.5286381397
C 1.0736375604 0.5160672792 4.6479782042
N 1.0608269458 1.2376556261 5.5488080189
H 0.5204922333 2.0975958295 0.6147831425
H -0.2906952632 1.9639626632 -0.9623558579
H -1.2050025070 1.6922032210 0.5349604087
H -0.6864828160 -0.4725054078 -0.5597374857
H 2.1585905340 -1.9057011191 0.2623881071
H 2.7654838510 -0.3557471605 0.9251524742
H 0.0218525155 -1.5607664341 1.4996965181
H 0.4886680304 -1.3055559433 3.7893611159
H 2.1395297247 -0.7851713212 3.4014412693