11

O 0.0534833771 -0.0549891466 0.0020964102
C 0.0569770351 1.1349611669 0.0088684279
O -1.2004624185 1.7778279875 0.0284855254
N -1.3647517496 3.1327826962 0.0371604264
C -0.2765922564 3.8453972684 0.0261894395
C 1.0329679654 3.2111863847 0.0058920301
N 1.1984852484 1.9390319331 -0.0024228232
C -0.3901252822 5.2608842413 0.0348687908
C -0.4166391955 6.4631174281 0.0413388876
H 1.9159030916 3.8500055370 -0.0024033507
H -0.4606231154 7.5252462935 0.0474781360