17

C 0.0588996826 1.4997193381 0.0674258110
C 0.0089781164 -0.0353126262 -0.0134977036
C 0.7279215944 -0.6035473663 1.2000130904
O 1.8730388833 -0.9676925150 1.2038031264
C -1.4601372734 -0.5651331995 -0.0532994093
C -2.1906691783 -0.0495729599 -1.2138284855
C -2.7738364008 0.3824017540 -2.1707156784
C -1.4842556438 -2.0314610512 -0.0142640651
C -1.4636584566 -3.2310440443 0.0360655031
H 1.0950292443 1.8461607984 0.0395636518
H -0.4826283677 1.9418563933 -0.7722486903
H -0.3974215483 1.8625355730 0.9959146956
H 0.5366504995 -0.3812182571 -0.9060895465
H 0.1161805589 -0.6112455851 2.1340113842
H -1.9614341843 -0.1938439020 0.8544519162
H -3.3006053044 0.7545356428 -3.0146653989
H -1.4532095518 -4.2924198728 0.0773456689