16

O 0.1823160335 1.3657917450 0.0457316571
C -0.0306724761 -0.0309986794 0.0319096338
C 0.3516893551 -0.6224474900 1.4590012055
N -0.9152214960 -1.2004879414 2.0591469985
C -1.5314187335 -1.8573665198 0.8426758486
C -2.9221690087 -1.1969205617 0.9131537216
O -2.7955814656 -0.5512877819 -0.4394165569
C -1.4666976358 -0.4780724318 0.1552945465
C -1.9569447916 -0.2077328759 1.5948867209
H -0.1123843198 1.7249782461 -0.7975256790
H 0.5231197584 -0.5164669372 -0.7813645066
H 1.1044376798 -1.4106361095 1.3879960146
H 0.7325384411 0.1863072688 2.0861992086
H -1.2326943072 -2.8319133948 0.4573913442
H -3.9103230982 -1.5719073063 1.1729101438
H -2.1487189154 0.7487617197 2.0771103688