17

O 0.2552970284 1.3918803333 0.1490009871
C 0.1579633742 -0.0110671681 0.0541227626
C -1.3073128786 -0.4565954244 0.1086732321
O -2.0551267497 0.2301777609 -0.8909098167
C -1.4759480254 -1.9625782641 -0.0198805028
C -2.9039237692 -2.5228261547 -0.1506847144
C -2.4473560262 -2.9359267807 -1.5473544714
O -2.8824995543 -3.4953790064 -2.4979734260
O -1.1815822005 -2.4007865177 -1.3991085259
H -0.4297412290 1.7429657032 -0.4342158879
H 0.6145457225 -0.3942975365 -0.8746759148
H 0.7160391870 -0.4359381786 0.8960269380
H -1.7354655476 -0.1369191369 1.0664157010
H -1.7734193268 -0.1269455415 -1.7439603320
H -0.8302211677 -2.4992657358 0.6803682207
H -3.1706122017 -3.3518674431 0.5055786433
H -3.6955450153 -1.7723668389 -0.1586783029