19

O -0.0550301460 1.4283353224 0.1064765030
C 0.0219706811 0.0135987522 0.0037046214
C 0.8321811928 -0.5762000226 1.1810851837
O 0.6194674618 -1.9689308469 1.3768233869
C -0.7556213345 -2.3170570646 1.3395891631
C -1.3124737816 -2.0752161905 -0.0646563695
C -1.4098807874 -0.5432148859 0.0180822053
C -2.0535568292 -0.3925969669 1.4035449205
O -1.5335159226 -1.4901427925 2.1815647385
H 0.8395538681 1.7841598256 0.1028253422
H 0.4901038232 -0.2765037038 -0.9496236409
H 1.9075073876 -0.4537081395 1.0151820207
H 0.5606065921 -0.0176921456 2.0868589572
H -0.8085477059 -3.3420975855 1.7100717036
H -0.6439535736 -2.4468053907 -0.8434037503
H -2.2975857420 -2.5370493466 -0.1811218203
H -2.0015214607 -0.0755899337 -0.7715143095
H -1.7960401586 0.5518923276 1.8909337837
H -3.1462388146 -0.4770341026 1.3492441507