20

C -0.3166332039 1.2729705721 -0.2740263544
C 1.0878226639 1.1972158843 0.2661193326
C 0.2802425573 -0.0663822388 0.0674187614
C -0.1909694133 -0.8468289524 1.2532890223
C 0.6757015764 -2.0114028305 1.7538073219
C -0.3183599083 -2.9755238450 2.3652184082
C -1.5775725707 -2.5587282366 2.2008548871
C -1.6179930090 -1.2262040694 1.5311741869
N -0.9621824466 -0.1113578451 2.2627473088
H -1.0801553623 1.6545341022 0.3933937551
H -0.4556774320 1.5131967678 -1.3223078171
H 1.9189491832 1.3908244230 -0.4029277214
H 1.2396909858 1.5291727470 1.2874000594
H 0.5724899644 -0.6915247480 -0.7727547276
H 1.2227779915 -2.4756344770 0.9219179304
H 1.4388393410 -1.6785875289 2.4697565864
H -0.0143373524 -3.8775257472 2.8841044484
H -2.4679691348 -3.0809823803 2.5311390843
H -2.4502831665 -0.9310366312 0.9008155620
H -0.7188156038 -0.4222352760 3.2014558053