25

C -0.1265677172 1.5736692168 -0.0495742572
C 0.0108902913 0.0553813480 -0.0327765076
C 1.1497145093 -0.5794625642 -0.8895775573
C 2.1037796833 -0.2887675791 0.3012077370
C 0.8271482893 -0.5916898781 1.1476195675
C 0.6918203516 -0.1314035770 2.5815867467
C 0.6572794358 -2.1106298737 0.8531104272
C -0.6536277281 -2.7473520973 1.3135145683
C 0.8684823034 -2.0814110850 -0.7022382136
H 0.8220466928 2.0957366544 0.1034976482
H -0.5337074511 1.9098796688 -1.0097055540
H -0.8164688832 1.9105003121 0.7323520222
H -0.9801707952 -0.3825363796 -0.2018094822
H 1.3655154586 -0.2296917725 -1.9007367962
H 2.9674294927 -0.9488854551 0.4357216804
H 2.4293815535 0.7503434340 0.3634698773
H 0.8499857364 0.9482634088 2.6731073709
H -0.3018992612 -0.3551062095 2.9859401636
H 1.4282375783 -0.6285366873 3.2247586418
H 1.4815334614 -2.6530186400 1.3331816843
H -1.5284275557 -2.2250573701 0.9114185723
H -0.7139833132 -3.7889406379 0.9795541888
H -0.7381769473 -2.7480244504 2.4055829652
H -0.0266613612 -2.4043992093 -1.2447084837
H 1.7018700758 -2.7123594570 -1.0258736203