15

C 0.1182211233 1.5197193460 0.2489843157
C -0.0151691918 0.0086560980 0.0719757147
C 0.6942475355 -0.5698741411 -1.1842502424
N 1.5991492917 -1.6077551992 -0.6681630263
C 1.4994349284 -1.5601137582 0.5918112696
O 0.6554453073 -0.6665195555 1.1741712796
C -1.4919681763 -0.3773822706 0.1541317715
O -2.2309957977 -0.3904809396 -0.7936605054
H 1.1757942292 1.7977719404 0.2574040737
H -0.3776309814 2.0327836913 -0.5800146322
H -0.3352751934 1.8531508125 1.1872217837
H -0.0259557279 -0.9901081474 -1.8912061969
H 1.2731526367 0.1944433127 -1.7143139255
H 2.0437140439 -2.1809449970 1.2945536638
H -1.8337872775 -0.6280518723 1.1822499264