20

C -0.0346176056 1.5300895277 0.0850460735
C 0.0095754377 0.0296366038 0.0152952720
C -0.9057744682 -0.8471076482 0.8315904978
C 0.5870081616 -0.9679430972 1.0068621306
C 1.2979622598 -1.7221153262 -0.1469835208
C 0.3670114055 -2.1968152310 -1.2340759032
C 0.7317974533 -0.7360861418 -1.1564374688
C 1.4229135467 -0.0149333768 -2.2791478849
H 0.9438627015 1.9803514375 -0.1158597237
H -0.7452862475 1.9487013756 -0.6388390508
H -0.3490728130 1.8588095702 1.0810115514
H -1.4004433880 -0.3186616572 1.6424335457
H -1.5165019717 -1.6380932727 0.4111448511
H 1.0687273825 -0.7658987128 1.9558962481
H 2.3145547361 -2.0875240992 -0.0660173115
H 0.8689147654 -2.7251662319 -2.0405234735
H -0.6264651241 -2.5818666716 -1.0336756492
H 0.7039502398 0.4135217796 -2.9889434285
H 2.0543668241 0.8033627084 -1.9155716678
H 2.0659895440 -0.7023343861 -2.8384496576