17

O 0.1017645186 1.4097540513 0.1175070840
C 0.0133534077 0.0142343048 0.0282707782
C -1.4214750987 -0.5265184483 -0.2045839882
C -2.0474686276 0.1871121160 -1.4088530326
O -1.2871107355 -0.3769058044 -2.5096972763
C -0.4321390915 -1.3449274306 -1.8851458191
O -1.1436245197 -1.8228886991 -0.7743379825
C 0.7360761781 -0.5500385933 -1.2602509881
O 1.2027271914 0.4894839431 -2.0955328963
H 0.6714377143 1.6757299924 -0.6233882453
H 0.4237012548 -0.4503571660 0.9318656074
H -2.0536126047 -0.6260912694 0.6753067645
H -3.1049080173 -0.0584825732 -1.5419651064
H -1.9086503870 1.2692433497 -1.3686444446
H -0.1974996362 -2.1413388616 -2.5899783105
H 1.5857889961 -1.1880196821 -1.0104522945
H 0.4608717173 0.6881451006 -2.6890993897