17

C -0.1737363698 1.4360152721 0.0345801279
C 0.0673627918 -0.0599084844 0.0129699702
C 0.9056219868 -0.5900521411 -1.1479866154
C 2.1317305510 -0.4815815544 -0.2987201456
N 1.2248091820 -0.4660152398 0.9421370009
C 1.1802298845 -1.9464076511 0.8105474583
N 1.0787055519 -2.8770231562 1.6475919534
C 1.5619893782 -1.8774997063 -0.6174276537
O 1.9766213699 -2.8517522248 -1.4794151190
H 0.7480955904 1.9864530085 -0.1758264814
H -0.9205131342 1.7137921948 -0.7169716016
H -0.5415114532 1.7451391409 1.0171791127
H -0.8533456825 -0.6085752381 0.2459283971
H 0.8088600611 -0.4412688252 -2.2175528655
H 3.1240082461 -0.0645971210 -0.3744958939
H 0.9296510560 -2.4973491891 2.5850977275
H 2.5387393002 -3.4614304148 -0.9860040420