19

C -0.1817134174 1.5448834380 0.7926034019
C -0.0630713962 0.0591801777 0.4905905343
C 1.0576255301 -0.4631441767 -0.4822431866
C 1.9977412362 -0.1664398499 0.7039710712
O 3.0192257389 0.3904637231 0.9501217260
C 0.8154030909 -0.8648381507 1.4132574524
C 0.8956625036 -1.8694360524 0.2188176522
C -0.2812241463 -2.7694233200 -0.1310428986
O 2.0779297714 -2.6425002948 0.3034202297
H 0.7862744660 2.0028505465 1.0155304234
H -0.6170721682 2.0759745116 -0.0605357579
H -0.8386073162 1.7099026295 1.6532952224
H -1.0429740190 -0.3669942110 0.2761478163
H 1.1787210361 -0.2478580853 -1.5432051582
H 0.6717145641 -1.0990270993 2.4664444676
H -1.2418463708 -2.2554393800 -0.1767800226
H -0.1133473945 -3.2321193457 -1.1114261741
H -0.3530546152 -3.5731724291 0.6072676004
H 2.1902095064 -3.1231360515 -0.5238180298