11

F 0.0274125011 0.0525766501 0.0052299122
C -0.0572483170 1.3564984708 -0.0325344182
C -1.2154287893 2.0353234143 0.0631550426
F -2.3623284156 1.3903954885 0.2049239006
C -1.1895978993 3.4794533312 0.0089286705
N -2.2495600012 4.1956309327 0.0931548611
C 0.1888262894 3.9733826377 -0.1514417283
N 1.2761060389 3.2963401104 -0.2398548889
O 1.1571749570 1.9067532082 -0.1779267414
H -2.0201924858 5.1893685000 0.0339484376
H 0.3502318717 5.0480701760 -0.2064840479