21

C -0.0377390712 1.5114553747 -0.0273651743
C -0.0144329600 0.0021265531 0.0113452948
C 1.2076814116 -0.7476609447 -0.4997080610
C 0.8690173144 -0.7645351600 0.9736594968
O 1.6767813125 -0.0447396153 1.8586112840
C 0.1343340833 -1.9962654849 1.5096187223
C -1.2199401960 -1.9808695655 0.7999050880
C -2.1534278195 -0.8416971140 1.1337089483
C -1.3019768048 -0.7694717271 -0.1086739843
H 0.9308089103 1.9208532515 0.2711444482
H -0.2733510161 1.8794072277 -1.0324728709
H -0.7945421036 1.9076387698 0.6584633643
H 1.0696276407 -1.6501416680 -1.0881019011
H 2.0601354433 -0.1393441063 -0.7852325732
H 2.5317607211 -0.4849857232 1.9088890174
H 0.6835706791 -2.9231782718 1.3023004234
H 0.0343110927 -1.9130929689 2.5979938449
H -1.6585127115 -2.9247400185 0.4968877179
H -3.2176242351 -1.0104758497 1.0095077569
H -1.8959236630 -0.1985558382 1.9704325374
H -1.7853360385 -0.8341914304 -1.0792862996