21

C 0.1478471324 1.5459138622 0.0132583928
C 0.0066975135 0.0374699798 0.0325244263
O 0.9665450511 -0.6452383927 -0.8409636142
C 1.2692049415 -1.6223968005 0.1949714415
C 2.7101015624 -1.8770217665 0.6083669341
C 2.6316375683 -2.4381651816 2.0471970194
C 1.9914663965 -1.4572299448 3.0619504152
C 0.9034160384 -0.5916803513 2.4651270068
C 0.5689533632 -0.7503458345 1.1940912725
H 1.1606619600 1.8409176153 0.2991769562
H -0.0623297531 1.9337603728 -0.9884214417
H -0.5636040703 2.0016787825 0.7103966989
H -1.0171292393 -0.2540178426 -0.2492719822
H 0.7619468572 -2.5728542715 -0.0330330059
H 3.2228928819 -2.5822246072 -0.0535704574
H 3.2609951038 -0.9301117876 0.5884009154
H 2.0431507390 -3.3642924831 2.0217342746
H 3.6287880060 -2.7207913031 2.3983413734
H 1.6212141768 -2.0170235996 3.9308332333
H 2.7638609187 -0.7843262655 3.4622713572
H 0.4934208021 0.2083261994 3.0772526135