20

C -0.1510061572 1.5527590227 0.0500579041
C 0.1435778885 0.0640368363 -0.0859522310
C 1.3856141633 -0.3937999058 -0.9313747346
C 1.8967265808 -1.1933522219 0.2770923721
C 2.0962037594 -0.2733021620 1.4592025153
C 0.7065781726 -0.6958611298 1.1273130965
C 2.4621569853 -2.5677936878 0.3259158094
N 2.7788386715 -3.1147443867 -0.8913626142
O 2.6023341161 -3.1816779739 1.3699098840
H 0.7170197853 2.1061204800 0.4228057157
H -0.4307093727 1.9862881959 -0.9164478083
H -0.9793066005 1.7256476237 0.7457847311
H -0.7483673770 -0.4494649516 -0.4570525410
H 1.0957781905 -1.0125523884 -1.7842802934
H 2.0493443807 0.4034887142 -1.2845968724
H 2.5301651870 -0.7672357228 2.3210086118
H 2.4359297987 0.7445201985 1.2848168625
H 0.1260782549 -1.2958044341 1.8175598153
H 2.8702036446 -2.5377041544 -1.7097414153
H 3.2792584979 -3.9892308719 -0.8766477076