17

O 0.0485392697 1.2536126885 -0.0551104331
C -0.0826313065 -0.1553467192 -0.0482465027
C -1.5778774332 -0.4656931461 -0.0516840167
N -2.2598714344 -0.0215679312 -1.2573838198
C -2.2012617815 -0.8286155145 -2.4629447271
C -2.8250808973 -2.1457700751 -2.2821587874
N -3.2912543352 -3.1907034472 -2.1227324389
C -2.8118658580 1.2309502566 -1.3492346127
O -3.2968678809 1.7001770535 -2.3552890042
H 0.9734857880 1.4811477428 -0.1847655812
H 0.4040101586 -0.6134927403 -0.9233283646
H 0.3658117854 -0.6065150702 0.8506837482
H -1.7405556127 -1.5406448531 0.0779984490
H -2.0367921816 0.0403599327 0.8033679346
H -2.7288312173 -0.2652145868 -3.2389083216
H -1.1684444842 -0.9797277961 -2.8032427408
H -2.7715759891 1.7653830457 -0.3850991810