25

C 0.0589495165 1.5410970818 -0.0394182086
C 0.0376311974 0.0846503633 -0.0376657275
C 0.0303245823 -1.1200593543 -0.0384049469
C 0.0053771328 -2.5795785308 -0.0236597143
C -1.4244570159 -3.1853113892 0.0124682314
C -2.2156327733 -2.7209683619 -1.2194889136
C -1.3819520292 -4.7294915237 0.1437734743
C -0.6559674376 -5.1987272615 1.4161805635
C -2.7885202965 -5.3500883237 0.1105013447
H 0.8961053345 1.9291858196 0.5517134929
H 0.1603342497 1.9392236236 -1.0553567254
H -0.8627395458 1.9543789563 0.3855000162
H 0.5287062928 -2.9654021828 -0.9107467611
H 0.5802242411 -2.9271103680 0.8409526740
H -1.9217105370 -2.7875987247 0.9089185413
H -1.8203136358 -3.1811712599 -2.1338609673
H -3.2752473046 -2.9761796922 -1.1470911377
H -2.1404214058 -1.6364990621 -1.3328552385
H -0.8264887672 -5.1162647214 -0.7246428462
H 0.4002179138 -4.9183717446 1.4317987028
H -1.1275966491 -4.7788018858 2.3130088061
H -0.7008489843 -6.2892804297 1.5020163408
H -3.3009052370 -5.1723117361 -0.8376729253
H -2.7320983336 -6.4338015218 0.2557654812
H -3.4155839081 -4.9428714107 0.9132461432