20

C 0.1161964877 1.4848610885 -0.2139746287
C -0.0268725796 0.0012259086 0.1553859646
C -1.4185179064 -0.5439206694 -0.0044886835
C -1.8967708716 -2.0220088982 0.0901780704
C -3.2063905661 -1.2127606536 -0.0599651771
N -2.6017960432 -0.2413669803 0.9402460188
C -3.1634202785 1.1125851627 0.9955792124
C -2.4751051067 -0.3681989376 -1.1321955526
O -2.6806335853 0.2811882846 -2.1123708341
H 1.1652990575 1.7909465512 -0.1685399234
H -0.2525264662 1.6708242293 -1.2264786081
H -0.4450710490 2.1275923929 0.4698833638
H 0.6297279820 -0.5981951272 -0.4877328992
H 0.3075184152 -0.1755799326 1.1849720315
H -1.6174343473 -2.6930205039 -0.7237228525
H -1.7676297950 -2.4570598488 1.0825758405
H -4.2385909731 -1.5480710518 0.0211369467
H -4.1553774045 1.0480808697 1.4538786473
H -2.5355175056 1.7253137024 1.6479028504
H -3.2625271443 1.6175990334 0.0230897630