15

C -0.3851427246 1.3467731439 -0.0234903778
N -0.0075014833 -0.0599191930 0.0040921636
N 0.0278895837 -0.6705369101 -1.2116410842
N 0.3397050181 -1.8799657960 -1.3100394013
N 0.6444434138 -2.5752770787 -0.1654011876
C 0.6585136485 -2.0994078326 1.1284706715
N 0.9453600377 -2.7428519324 2.1902948779
C 0.2848211300 -0.6578156089 1.2239951877
N 0.2223605527 0.0151901945 2.3011428222
H 0.4159489994 1.9578719491 0.3998158491
H -0.5656987448 1.6138259953 -1.0632870967
H -1.2836666071 1.5050937232 0.5782115200
H 0.8818614356 -3.5375090195 -0.3550596220
H 1.1853397762 -3.7175557758 2.0074995375
H 0.4708859441 -0.6024441591 3.0757656901