20

C -0.0247586703 1.5639659726 0.0390434602
C -0.0010585026 0.0351676699 -0.0064166585
O -1.3344419096 -0.4756958829 -0.1178302565
C 0.7379091672 -0.4931453973 -1.2421853550
C 0.7413891641 -2.0160289758 -1.2408202106
O 1.2542456150 -2.5838598109 -0.0229081042
C 0.8514903196 -2.0567155204 1.1700549535
N 0.7291933487 -2.7693211128 2.2093760208
C 0.6887989369 -0.5551776400 1.2337146276
H 0.9868770533 1.9820606442 0.0446089770
H -0.5605542118 1.9553066078 -0.8303807020
H -0.5369651878 1.9153608128 0.9422200346
H -1.7903339047 -0.3107585783 0.7143447582
H 0.2428964450 -0.1402337634 -2.1530962969
H 1.7626313837 -0.1064495738 -1.2437267523
H -0.2777102895 -2.3865041756 -1.3929040296
H 1.3813391622 -2.4134157285 -2.0320273175
H 0.9147202916 -3.7482083610 1.9780244581
H 1.6889392013 -0.1124816890 1.3281644940
H 0.1444033678 -0.3109557076 2.1500771191