13

C -0.0917624481 1.4373107348 0.0424997031
N -0.0008411889 -0.0143077103 0.0034907244
C 0.0347662407 -0.7025585620 1.2818804786
C 0.0430365737 -0.6300711468 -1.2072238545
O 0.0135021768 -0.0761455545 -2.2888434678
C 0.1349047458 -2.1051230901 -1.1585898051
N 0.2071065445 -3.2575705005 -1.2097092704
H 0.7704993247 1.8568356358 0.5734543569
H -0.1102966559 1.8121165805 -0.9793963039
H -1.0046167758 1.7458785177 0.5649063561
H -0.8721008893 -0.4828534110 1.8574970709
H 0.1018176386 -1.7802116440 1.1341579783
H 0.9017339233 -0.3738373496 1.8669611333