13

N 0.1062426787 0.9862561089 -0.7853649879
C -0.0611690719 -0.0426999859 -0.0682359961
N 1.0394895303 -0.6014007890 0.6605538297
N 1.4736701072 -1.7586572814 0.5378739664
N 0.8125593516 -2.6985251889 -0.2378391007
C -0.5411351992 -2.8959537108 -0.4026050073
C -1.5639749658 -2.0496367369 -0.1614327209
C -1.4507953991 -0.6282725598 0.1340247329
O -2.3806014264 0.0764906912 0.4618301971
H 1.0893887015 1.2756001483 -0.7664224892
H 1.3853291020 -3.5277522572 -0.2879949351
H -0.7551305520 -3.9105003329 -0.7257200861
H -2.5729779467 -2.4295840359 -0.2711579226