9

F 0.0187044724 0.0578915971 -0.0283534185
C -0.0175533726 1.3954484419 0.0110868309
F 1.2446243384 1.8391878954 -0.0332205195
F -0.6382513779 1.8196295478 -1.0965322980
C -0.7012452050 1.8687265829 1.2129646504
C -1.2662549246 2.2572452444 2.2057099809
C -1.9030328563 2.6947232737 3.3244853182
C -2.4680475932 3.0826908660 4.3173240142
H -2.9657607712 3.4243456807 5.1917632614