15

C 0.6428477589 1.4489142491 -0.1632174185
O 1.1547895504 0.1474350791 -0.4877970373
C 0.3014762833 -0.6710533869 -1.1049939097
O -0.8262989570 -0.3900434683 -1.4270461142
C 0.8866309725 -2.0335166551 -1.3496010761
N 2.3371164962 -2.1827458220 -1.4590388655
C 1.6680068971 -2.7951610611 -0.3095357809
C 1.9623769800 -2.2640318015 1.0011306664
N 2.1805067751 -1.8991423030 2.0754706682
H 0.3694760318 1.9873099141 -1.0738133137
H -0.2371366678 1.3629583446 0.4781514248
H 1.4512282552 1.9588082076 0.3587699044
H 0.2384037044 -2.6361846859 -1.9788566902
H 2.5738141353 -2.8941077188 -2.1458798697
H 1.5108733546 -3.8711904918 -0.3073342580