19

C -0.1877055175 1.5754569044 -0.0640160564
C 0.0886126804 0.0624965904 0.0086527375
C 0.7633204350 -0.5043448261 -1.2107880561
C 2.0205726533 -0.9541778843 -1.2002628029
N 2.6374845034 -1.4968944467 -2.3246379149
C 2.0841924591 -1.4347872795 -3.5948702779
O 2.6858253924 -1.8060789779 -4.5857437474
N 0.8246991347 -0.8958415725 -3.6281907215
C -0.0372762092 -0.6142195798 -2.4857067603
H 0.7447626043 2.1348207780 -0.1867759983
H -0.8418475204 1.8300389514 -0.9038740423
H -0.6779122877 1.9234553426 0.8506288975
H 0.7099081813 -0.1455415510 0.8870801848
H -0.8635981830 -0.4619270917 0.1780506133
H 2.6342419711 -0.9333611745 -0.3063379722
H 3.6014148446 -1.7820041796 -2.2999651475
H 0.4123306686 -0.9179781420 -4.5469664548
H -0.8139084758 -1.3929640716 -2.3703163663
H -0.5785485846 0.3217894504 -2.6807625044