17

O 0.0077657366 1.4091960385 -0.2001428817
C 0.0264374287 0.0136539740 0.0702509611
C -1.3927420564 -0.4834195682 0.0203451981
C -1.6694409824 -2.0045106388 -0.0687571642
O -2.4654814304 -1.8368027998 -1.2701410030
C -2.2794204032 -0.4138523579 -1.2465672470
C -3.3316414036 0.4031032015 -0.4384790451
O -3.7052435043 -0.3730004117 0.7035004721
C -2.4774548822 0.3510104505 0.7636354784
H 0.9085860705 1.7410603004 -0.1454094315
H 0.6346258100 -0.5305697746 -0.6695084942
H 0.4564621901 -0.1937319443 1.0652364635
H -0.7797946767 -2.6154265550 -0.2677390636
H -2.2489807659 -2.4370509920 0.7508565621
H -1.9559949734 0.0191287961 -2.1960687151
H -4.0404628349 1.1463730012 -0.7854686751
H -2.3427788326 1.0592467399 1.5725648352