21

O -0.0729267756 1.3894268911 0.0429236859
C -0.0065238950 -0.0031568993 -0.0285846361
C 0.2578536367 -0.7884004772 -1.3363445152
C -0.4206982777 -1.9316992334 -0.5322233220
C 0.6474869737 -2.2033568460 0.5489767535
C 0.7463293870 -0.7559236432 1.1171117673
C -0.2251077409 -0.6259151466 2.3037021998
C -1.6019127947 -0.9578408012 1.6514040761
C -1.3085938076 -0.8236931497 0.1501496365
H 0.8256892790 1.7366025813 0.0485210483
H -0.3604305962 -0.4133290929 -2.1553637486
H 1.2879203128 -0.9403807141 -1.6750411654
H -0.8701070598 -2.7886204274 -1.0328277195
H 0.3371640231 -2.9268805423 1.3091458871
H 1.5827398515 -2.5614182744 0.1083538172
H 1.7629928439 -0.4076414058 1.3191423408
H 0.0329504994 -1.2927541969 3.1317686255
H -0.2207730794 0.4001199530 2.6847000640
H -1.9507992120 -1.9631595495 1.9100720873
H -2.3803879615 -0.2597939396 1.9708870015
H -2.1382578467 -0.5022080859 -0.4806737741