17

C 0.1809893682 1.5112364119 -0.1978875282
C 0.0490924938 0.0295678457 -0.0358147779
N 0.0660063671 -0.7724693567 -1.0988282949
N -0.0743174079 -2.0140303248 -0.5929572661
C -0.1779574277 -2.0315082557 0.7555031946
C -0.1071691406 -0.7153041875 1.1653510464
C -0.1719699221 -0.2149782222 2.5517892877
C -1.3332372926 -0.4519377891 3.4321802583
O -0.1292407846 -1.2013811287 3.5894223298
H 1.0304441900 1.9044288540 0.3725341651
H 0.3338011919 1.7541105137 -1.2513339724
H -0.7143129763 2.0385305813 0.1503830769
H -0.0702161265 -2.7988343321 -1.2213163806
H -0.2725348305 -2.9439212866 1.3214374306
H 0.4269501574 0.6728861491 2.7602187753
H -1.5578236711 0.2469708398 4.2374640868
H -2.1829079886 -1.0082181520 3.0395557084