18

C -0.1748430906 1.5435146821 -0.1168398302
C 0.1430694632 0.0502029737 0.0086436772
N 0.6992627661 -0.5418582865 -1.1896068848
C 0.1682569232 -0.7497669622 -2.5344385193
C 0.4254411385 0.3936735847 -3.5451935266
O 1.7665110052 -0.0820604155 -3.8080093419
C 1.5825915436 -1.2301006153 -2.9521253360
C 1.9912140329 -0.9446825531 -1.4783696763
O 2.9871068272 -0.9900899043 -0.8076669435
H 0.7235878074 2.1133550601 -0.3706038854
H -0.9304131952 1.7289142785 -0.8868435989
H -0.5666896067 1.9238519890 0.8315740920
H 0.8905483937 -0.1152460932 0.7908504907
H -0.7599078414 -0.5031967736 0.2977145254
H -0.7494683087 -1.3341141729 -2.6022826892
H -0.1940884184 0.3304464317 -4.4480847485
H 0.4089053298 1.4147992877 -3.1522021600
H 1.8435904303 -2.1801947209 -3.4191524948