15

N 0.1810341438 1.3869619804 0.4694164572
C 0.0033199397 0.0655632421 0.1356884279
C -1.1091320704 -0.6832778905 -0.1555150757
C -0.5645720290 -1.9854491127 -0.3220924989
N 0.7310566224 -2.0353110679 -0.1527024613
O 1.1004793533 -0.7000523787 0.1352746696
C -2.5172704139 -0.2592509763 -0.2297650962
C -3.4151426791 -0.6330893447 -1.3399507167
O -3.5012197591 -1.2894174041 -0.0756985365
H 1.1435549511 1.6916266112 0.4301577147
H -0.4473847257 2.0327369361 0.0159599364
H -1.1025683210 -2.8973060810 -0.5408233916
H -2.7538113617 0.6600623197 0.3097547132
H -4.2604821954 0.0055861899 -1.5949465467
H -3.0211239248 -1.2372003035 -2.1559224953