17

O -0.0803609256 1.4006469904 -0.0112670170
C -0.0569483589 0.0151219659 -0.0059257551
C -0.3290156490 -0.8276621222 1.2327234291
C -1.4206254478 -0.1530448777 2.0655995209
N -2.2698012439 0.0371342587 0.8370772507
C -1.3161803088 -0.7872130918 0.0574712804
C -1.7758694722 -1.8372636018 -0.9205773836
C -2.5473445781 -1.2759967295 -2.0341021669
N -3.1668704667 -0.8309080633 -2.9015743466
H -1.0121178299 1.6445403695 0.1084054849
H 0.7262207385 -0.3860634154 -0.6440082206
H 0.3450699469 -1.6030048222 1.5755577169
H -1.8762926620 -0.8334263223 2.7900810755
H -1.1548311132 0.7853445328 2.5622620346
H -3.1807575482 -0.3981318352 0.9294707090
H -0.9053832166 -2.3640551923 -1.3266165645
H -2.3956464543 -2.5924216036 -0.4190310776