17

C -0.0218557012 1.5028844412 -0.0923905012
C -0.1129072463 -0.0074969430 0.0924370692
N 0.8455358119 -0.4586512910 1.0954976374
C 0.9260450982 -1.8101672036 1.3686361394
N 0.4406299498 -2.7706472728 0.5852519266
N 0.7757935563 -3.8979183801 1.2273706455
N 1.4749441348 -3.7439321606 2.3560890762
C 1.5652517008 -2.4316975671 2.4701988697
O 2.1611122716 -1.7868718954 3.4969512703
H 0.9869742175 1.7988998668 -0.3943625656
H -0.7266784384 1.8371475905 -0.8586944156
H -0.2674870363 2.0322422829 0.8359263275
H -1.1427824612 -0.3011717035 0.3529619296
H 0.1232193008 -0.5212965684 -0.8447143495
H 0.8625387111 0.1071074202 1.9333581415
H 0.6610702483 -4.7992991421 0.7997293665
H 2.4933132723 -2.4540529340 4.1094976525