20

C -0.0281818283 1.5179675147 -0.0984776023
C -0.0367845039 0.0265041901 0.1211148517
O 1.2073116107 -0.6745193245 -0.0515666140
C 0.6111063587 -0.6385848629 1.2563224824
C 1.3739442129 0.0566366168 2.3857998309
C 1.9234828532 -1.0965701855 3.2677549875
C 0.9682889774 -2.2526157017 3.0204725508
N -0.4519345371 -1.8569199751 3.1330889714
C 0.1797056108 -1.9734119587 1.7947985563
H 0.8218440464 1.9909965189 0.3976214386
H 0.0283873548 1.7460916223 -1.1680953705
H -0.9507187813 1.9625436144 0.2905716350
H -0.8864759456 -0.4902826081 -0.3320234907
H 2.1653271087 0.6960590338 1.9919346934
H 0.6839798004 0.6768733040 2.9636465045
H 2.9273927050 -1.3892930562 2.9403932066
H 1.9839772052 -0.8173567227 4.3237722924
H 1.2539948941 -3.2630918986 3.2941454006
H -1.0156219023 -2.6875315168 3.2973838064
H -0.1422210499 -2.7443914744 1.1034283088