23

C 0.0356022412 1.5738546069 0.0967535874
C -0.0047139835 0.0506620127 0.0025664532
C 0.6657608124 -0.4552172768 -1.2906705730
C 1.0826304366 -1.9311687143 -1.2700286304
C -0.0504082623 -2.9462880749 -1.0936512273
O -0.8640356962 -2.7597651405 0.0559472305
C -0.1914751343 -2.7972472090 1.3037500318
C -0.0856210972 -1.4014332871 1.9212147118
O 0.6630509290 -0.4816061643 1.1559106870
H 1.0721716520 1.9191824095 0.1676403739
H -0.4207021397 2.0320509500 -0.7872272651
H -0.5019125488 1.9231930408 0.9830144985
H -1.0458156703 -0.2878090863 0.0129568897
H -0.0164456087 -0.2618065332 -2.1291398508
H 1.5639688646 0.1470191229 -1.4781223556
H 1.5885875297 -2.1760211109 -2.2127001193
H 1.8266037140 -2.0685756791 -0.4790474168
H -0.7466051111 -2.8878449872 -1.9382207666
H 0.3768300546 -3.9628618594 -1.0901909964
H -0.7747751192 -3.4349265568 1.9833758841
H 0.8057008841 -3.2460424742 1.2049178998
H -1.1021662754 -1.0170217292 2.0999942368
H 0.4159890183 -1.4816091598 2.8935749167