22

C -0.0996346712 1.5307446717 0.1975427685
C 0.0462410206 0.0033644581 0.1042763460
C 0.7796303348 -0.5248046970 1.3580064471
C -1.3458575282 -0.6418338595 0.0112804271
N 0.7483342313 -0.2914442520 -1.1545548226
C 1.0560471176 -1.6814618034 -1.5603741754
C 2.3973676350 -1.1570314178 -2.0915046011
O 3.2741005235 -1.6019747625 -2.7676209703
C 2.1276634806 0.1867084054 -1.4002087530
H 0.8769811539 2.0206400066 0.2698338760
H -0.6109052489 1.9196171025 -0.6876008203
H -0.6762655901 1.8089683103 1.0848172370
H 0.2141421027 -0.2779359550 2.2619962586
H 0.8941285500 -1.6131077166 1.3333285396
H 1.7738242432 -0.0795031921 1.4648103439
H -1.8740497788 -0.2824652397 -0.8763938290
H -1.2760263180 -1.7327631864 -0.0519561610
H -1.9426877741 -0.3988210354 0.8955349980
H 1.2084189192 -2.4020625956 -0.7404833385
H 0.3691182869 -2.1233178634 -2.2905088090
H 2.2120515846 1.0895045400 -2.0150603096
H 2.7632677454 0.3085341318 -0.5080934419