14

O -0.2028369493 1.4302560157 -0.1238582317
C -0.1307800411 0.0425901165 -0.0291659884
C 0.4061599226 -0.6168219635 -1.3045815919
C 0.4460777819 0.1319043456 -2.5635640521
O 1.6321715105 -0.0867705867 -1.7889759562
C 0.7671924088 -0.3451684768 1.1423626141
O 1.4092926551 0.4717157946 1.7544091373
C 0.8177395440 -1.7746587736 1.4778037779
N 0.8188626755 -2.9049299118 1.7216579951
H 0.5308164309 1.7861586686 0.3998758400
H -1.1327602975 -0.3734104641 0.1640668573
H 0.3242879918 -1.7042734354 -1.3281789210
H 0.3994413440 -0.4109165787 -3.5056061994
H 0.0862569028 1.1563785798 -2.5704082911