23

C 0.3775091440 1.5014055912 0.2736897978
C -0.1318385520 0.1063835719 -0.1135238567
C 0.5509122551 -0.4809969321 -1.3421091261
C 0.3118959887 0.2895144579 -2.6302170824
C 1.9032258411 -1.1360445750 -1.1694726294
C 0.6910012685 -1.9864315849 -1.4929099644
C 0.1489963007 -3.0059113477 -0.5058458050
C 0.9242175295 -4.3054063072 -0.5845586108
O 0.4339531214 -5.3937849156 -0.7417885703
H 1.4585731313 1.4900706000 0.4484560675
H 0.1743676589 2.2410253251 -0.5062870569
H -0.1078966852 1.8496745779 1.1905020039
H 0.0067498635 -0.5611726948 0.7430849591
H -1.2149329683 0.1510032875 -0.2919281548
H 0.7071359232 1.3090296590 -2.5710487410
H 0.7979000401 -0.1995420915 -3.4799604630
H -0.7593703880 0.3597413619 -2.8536286261
H 2.6603059186 -0.9929256278 -1.9334396317
H 2.3033848505 -1.2034157243 -0.1616701826
H 0.6327079017 -2.3321724534 -2.5227809255
H 0.2534501464 -2.6354381932 0.5223233094
H -0.9094673601 -3.2257552377 -0.6777899269
H 2.0280894303 -4.1807459071 -0.4905163244