20

C -0.0911270873 1.5037692016 0.1024415495
C -0.3163466869 0.0417967082 0.4741474740
N -1.0828175289 -0.6410671565 -0.5690173938
C -1.3009468249 -2.0349808526 -0.3590772369
C -2.3207884796 -2.6049757830 0.5926291499
N -3.0984450573 -1.7456650283 1.4243239980
C -2.5339078043 -2.7103836250 -0.9520718794
C -3.5521996413 -1.8878972765 -1.5249610401
N -4.3794603276 -1.1904551673 -1.9399292962
H 0.5120687093 2.0065630109 0.8636194837
H 0.4204226764 1.5840244067 -0.8607935436
H -1.0427636960 2.0426035121 0.0251674668
H 0.6506809331 -0.4711034614 0.5594741345
H -0.7909218751 -0.0284846416 1.4667735040
H -1.9269761103 -0.1404244100 -0.8213405427
H -0.3878932280 -2.6186118816 -0.4610305494
H -2.0742147302 -3.5549391094 1.0587489328
H -3.1245280555 -0.8016999798 1.0546042669
H -4.0600420783 -2.0636938730 1.4958297615
H -2.3995376875 -3.6749447836 -1.4288730097