12

O 0.3416755383 1.7235787873 -1.8373057982
C -0.0283990685 1.6546341755 -0.6941501379
C 0.8279826280 1.3166593113 0.4138575367
C 1.5405969192 1.0543973532 1.3468331796
C -1.5316603759 1.9198510061 -0.3355286706
C -2.1609523554 0.6811473826 0.1131761429
C -2.6467171250 -0.3609549666 0.4561383789
C -1.6455871020 2.9933514898 0.6599883296
N -1.7151376956 3.8529412232 1.4278031378
H 2.1747974581 0.8223319478 2.1686757043
H -1.9873075537 2.2610614490 -1.2723843870
H -3.0879778975 -1.2772218793 0.7644361639