16

N -0.0067301711 -1.2156525448 0.0258645169
C -0.0246401310 -0.0603863938 0.0513179298
C -0.0164148891 1.4006152745 0.0771134212
C 1.4115232037 1.9894012382 -0.0660955424
C 1.4087555645 3.4877145991 -0.0376560688
C 1.4643299703 4.3585014542 -1.1098812942
N 1.4087302897 5.6101418080 -0.5956538953
N 1.3218688201 5.6288188271 0.7465899054
C 1.3196447387 4.3443479845 1.0874045667
H -0.6552326443 1.7722859761 -0.7312271997
H -0.4691857510 1.7400231265 1.0148980225
H 2.0340202499 1.5928173972 0.7424910674
H 1.8483449406 1.6269899130 -1.0014181352
H 1.5461626061 4.1813699955 -2.1711410417
H 1.4407767171 6.4835350628 -1.0937179658
H 1.2627535158 4.0694711619 2.1313764634