21

C -0.0936564733 1.5800447267 0.1194155964
C -0.0137049784 0.0524617721 0.0835707846
O -1.2988154737 -0.5433679961 0.2405480167
C 0.6624924353 -0.4577512967 -1.1936611113
C 0.8519247616 -1.9929778993 -1.4116489367
C 0.3103440849 -1.8687531609 -2.8749987470
C -0.6777210989 -2.8816859340 -3.4336503098
C -0.2213938218 -0.4947059486 -2.4528070569
O -1.1573579097 0.1712158479 -2.8092219819
H 0.9051527950 2.0290138827 0.1120996575
H -0.6397690296 1.9533445535 -0.7533067400
H -0.6137947393 1.9058999460 1.0242284618
H 0.5624365697 -0.3029473672 0.9469054708
H -1.8669134195 -0.1697089252 -0.4446848372
H 1.5933161947 0.0883185857 -1.3857030251
H 1.8635933949 -2.3831544397 -1.2960187995
H 0.1611146397 -2.5562520047 -0.7798003084
H 1.1509421172 -1.7230016921 -3.5660929931
H -1.5160740181 -3.0276755189 -2.7452724623
H -1.0855993209 -2.5378334426 -4.3888748774
H -0.1983118499 -3.8519268384 -3.5964065612