15

N 0.1930172734 1.2994736631 -0.5459440528
C -0.0152739016 0.1036179503 0.2750244021
C -1.3942563666 -0.4816054512 0.1813725384
N -2.1906004824 -0.6365821415 1.2173036821
N -3.3185765497 -1.1659326563 0.6532899591
C -4.4731896216 -1.5095404164 1.3777600518
O -4.6040679835 -1.3777775395 2.5574555232
C -3.1273008984 -1.2911852608 -0.6974566529
N -1.9392470158 -0.8728791375 -1.0312109387
H -0.0339056625 1.0804038840 -1.5123553999
H -0.4606213528 2.0239142564 -0.2611509610
H 0.7111713829 -0.6541942326 -0.0401030914
H 0.1919580853 0.3386632815 1.3220497238
H -5.2425979239 -1.9198308611 0.6984380359
H -3.8842533926 -1.6885074583 -1.3582397698