16

C -0.9184355652 0.8438317460 -0.0108403204
C 0.1858250864 -0.2076869995 0.0098030252
C 1.0205585552 -0.2488909954 -1.2580104630
N 0.7105363719 0.3807182092 -2.3040353046
O 2.1593572227 -1.0110853733 -1.1663123656
C 2.3385548296 -1.6970967284 0.0517522408
O 2.2301520913 -0.8384869979 1.1702621268
C 1.1052849600 -0.0642745932 1.2242173159
O 0.9105993077 0.6497313815 2.1617346168
H -0.4912280348 1.8431435550 -0.1130068940
H -1.5838170736 0.6711837815 -0.8573333776
H -1.4860037934 0.8048015370 0.9203935782
H -0.2678017492 -1.2085396938 0.1108739769
H 1.3973779714 0.2179753566 -3.0423470496
H 1.6188545468 -2.5226067729 0.1390459985
H 3.3569634331 -2.0834454124 0.0502173858