17

O 0.1545308376 1.3451700778 -0.0438680321
C 0.0703361031 -0.0457319588 -0.0129271919
C 0.2576626760 -0.7410624043 -1.3678185195
O -0.9549592963 -1.5148798581 -1.1794698130
C -1.2933587071 -0.7908001201 0.0266032597
C -1.1030460930 -1.5333599352 1.3711002239
C 0.2908505384 -2.1735727058 1.2419142110
C 0.6594609240 -0.6767934789 1.2691491420
O -0.4913730560 -0.4527684321 2.1682129092
H -0.1477830452 1.6596348675 0.8178431183
H 0.1656984297 -0.0449879619 -2.2084736404
H 1.1408025026 -1.3754827733 -1.5023858272
H -2.2238878437 -0.2248870267 -0.0611328970
H -1.9528667025 -2.0114525253 1.8561308622
H 0.5916012962 -2.6696119229 2.1646653419
H 0.5128769729 -2.7785068660 0.3633056592
H 1.6044432733 -0.2839356560 1.6444383537