21

C -0.0194342774 1.5176530033 0.1109398743
C -0.0425379315 0.0311008008 -0.0105884710
C -0.0527481529 -0.7562798163 -1.0930598478
C -0.0446302566 -0.4142542045 -2.5449855916
C 0.0270605539 -2.2178578597 -0.5832804811
C -0.8438219669 -2.0689746604 0.6968785081
C 0.0440656979 -0.9047647157 1.2219362312
C 1.4120119591 -1.6135280167 1.1687726243
C 1.4018587332 -2.3978292417 0.0905104636
H 0.9059679800 1.8604857402 0.5942820501
H -0.0889198171 2.0130152342 -0.8617368087
H -0.8468430063 1.8832262140 0.7330873420
H -0.1054796767 0.6643545489 -2.7158973400
H 0.8710750793 -0.7777584876 -3.0316661213
H -0.8835754629 -0.8852265729 -3.0738374886
H -0.2548267034 -2.9827608807 -1.3081819357
H -1.8739494229 -1.7670646627 0.4869733008
H -0.8242294278 -2.9536451116 1.3401906399
H -0.2220064587 -0.4481978659 2.1762800100
H 2.2219736769 -1.4396328450 1.8645919272
H 2.2016008708 -3.0134796999 -0.2991410559