15

O 0.3629824876 1.2828549309 0.1363812311
C 0.1361234272 -0.0453375333 -0.0033784272
C 0.0643801087 -0.8781659849 -1.0957531839
C -0.1964418266 -2.1766135819 -0.5668268717
O -0.3730201737 -3.2833464682 -1.3598586340
C 0.2546413655 -4.4271542532 -0.9920963962
N -0.0360746131 -5.5103269321 -1.5676499174
C -0.2761790613 -2.1035798239 0.8010647853
N -0.0613932139 -0.7715000479 1.1302225305
H 0.4720004383 1.6674546015 -0.7384862858
H 0.1866861057 -0.6165461501 -2.1339429037
H 0.9929857399 -4.2649371413 -0.1971140029
H 0.5464249505 -6.2606548429 -1.2016989233
H -0.5005004721 -2.8441909205 1.5481639800
H -0.0659944128 -0.3808022522 2.0558212591