15

N -0.0075149039 1.3487049483 0.0094314879
C 1.1650955041 2.0361970015 0.0021319384
C 2.3579829262 1.3476977607 -0.0129290905
N 2.4467370907 -0.0032233669 -0.0212202833
C 1.3137442183 -0.6762092708 -0.0141626386
C 1.0579151979 -2.0692861750 -0.0200842420
C -0.3194205527 -2.2263286853 -0.0072471203
C -1.0049445708 -0.9657505337 0.0063842799
C -0.0208205744 -0.0098767701 0.0021072492
H -0.8800384810 1.8582142067 0.0205447958
H 1.0977645861 3.1150752641 0.0087433748
H 3.2894240684 1.9026390882 -0.0186950264
H 1.8074157325 -2.8450543399 -0.0320006650
H -0.8315095143 -3.1811093279 -0.0076981785
H -2.0749238570 -0.8195846799 0.0175101485