18

C 0.0176193431 1.6852599655 0.5701041363
C -0.0869466332 0.2480809585 0.0476034343
C 0.7512816505 -0.7486209268 0.8973120520
N 0.8958280015 -2.0520075670 0.2238426595
C 2.0747354857 -0.1878687713 1.2393378216
N 3.1399971177 0.1894944804 1.4840656818
C -1.5837514998 -0.1487257063 -0.0748512092
N -1.8500333118 -1.4784788107 -0.1086877356
O -2.4494071329 0.7027876700 -0.1529647077
H 1.0365085182 2.0664092294 0.4770809560
H -0.6642447628 2.3210722180 0.0065043316
H -0.2774425305 1.7420022101 1.6231719312
H 0.3215897331 0.2170728895 -0.9732659182
H 0.2198884168 -0.9250394070 1.8402074739
H 1.4653189431 -1.9426517780 -0.6115504126
H 1.3881766047 -2.7040584278 0.8275070173
H -1.0948300517 -2.1531471607 -0.1156554229
H -2.8081654517 -1.7566468558 -0.2449023493