20

C -0.3561114950 1.5225342091 0.4004710795
C 0.0191054021 0.0488227724 0.3060152342
C 0.5172089797 -0.6193364370 -0.9653130223
C 2.0173693392 -0.6544952494 -0.9810790500
C 2.5670535612 -0.0066564904 0.2807855194
C 3.0246509264 1.4476096419 0.3605520842
O 4.3831397533 1.5919797526 -0.0385695071
C 1.2860212173 -0.5823991961 0.9339044456
N 1.2516186326 -1.6773847211 -0.1905332669
H 0.3849979961 2.1824361572 -0.0537009471
H -1.3099871046 1.7018925340 -0.1074468778
H -0.4819359820 1.8255255530 1.4458529716
H -0.8244853866 -0.5535772633 0.6650751315
H -0.0587996221 -0.8795902431 -1.8474442598
H 2.5611875528 -0.9476071759 -1.8736732210
H 3.4055726351 -0.6206161402 0.6309724256
H 2.3782040434 2.1108079965 -0.2282242906
H 2.9862214630 1.7915624035 1.4003232466
H 4.4407809572 1.3668137590 -0.9724915673
H 1.2934958011 -0.8878549728 1.9791750118