19

C -0.1809144347 1.0855046775 -0.2443050270
O -0.4129917246 -0.2878282270 -0.5320660079
C 0.5893563604 -0.8367055993 -1.3387292297
C 1.6902443068 -1.5601657913 -0.6032516733
O 1.6134362859 -1.5980815421 0.7905968307
C 0.6731366693 -2.3473560548 -1.4126177681
C -0.2799449467 -3.2677431369 -0.7081182504
C -1.7270154141 -3.0218811506 -0.6096418999
O -1.2084110439 -3.9643565232 -1.5456108968
H 0.7751543454 1.2331330840 0.2745485451
H -0.1793323028 1.6854448200 -1.1649381451
H -0.9994301078 1.4189857391 0.3971383356
H 0.8077640913 -0.2601442595 -2.2370953276
H 2.7182966389 -1.5032075361 -0.9451112661
H 0.7502782793 -1.2296925517 1.0251628285
H 1.0142195962 -2.7360808848 -2.3686199679
H 0.1777800454 -3.8965686450 0.0557839031
H -2.2888224788 -3.4481929052 0.2211169452
H -2.1352051054 -2.1094490931 -1.0352583186