21

C -0.0412790648 1.3674450067 -0.2936086432
C -0.0180751067 -0.1388133046 -0.0048518036
C 0.8101245641 -0.4756640328 1.2426562859
C -1.4332823525 -0.6713222548 0.1509855273
O -2.2829930950 -0.4549137648 -1.0212416065
C -2.6455213629 -1.8432077823 -1.0813377262
C -1.6961181760 -2.6815103091 -1.9496368362
O -0.8016557632 -2.8906625172 -0.8225425173
C -1.6880438125 -2.1923052499 0.0717585237
H 0.9704323089 1.7431111079 -0.4774772944
H -0.6546610179 1.5853575114 -1.1717973836
H -0.4549188137 1.9257979011 0.5550293315
H 0.4260565202 -0.6567309691 -0.8624707186
H 0.3808559755 -0.0159587806 2.1410804368
H 0.8655473198 -1.5565054533 1.4065481266
H 1.8334615898 -0.1021167653 1.1383572781
H -1.9164599415 -0.2255307027 1.0346975537
H -3.7227585574 -2.0090204210 -1.1323185512
H -2.1079560160 -3.6348451983 -2.3043621000
H -1.2216909719 -2.1421086125 -2.7757640378
H -1.9050029560 -2.7534670689 0.9820428148