13

O -0.0676741477 1.4508990376 0.0710979368
C 0.0498406591 0.0814739502 -0.0137247221
C 1.2404969660 -0.6466894042 0.7007794543
O 0.9797287871 -2.0448768218 0.6653308944
C 1.5344326485 -1.4446385463 -0.5052281403
C 0.3616309881 -0.7699098409 -1.2804700145
O -0.9119222998 -1.4531678761 -1.1500781819
C -1.2751361655 -0.7232711814 -0.0307208576
O -2.2905296664 -0.7746557556 0.5743831487
H 0.8089600677 1.8478397189 0.1235199614
H 1.8694027057 -0.2576838848 1.4950681921
H 2.4608766018 -1.8532151370 -0.8902142242
H 0.5383758255 -0.3640906186 -2.2738957972