17

O -0.0340776249 1.3565202566 0.1564059499
C -0.0174593639 -0.0208250725 0.0189940417
C -0.5270128919 -0.6251787297 -1.2817577715
C -1.3264413874 -0.7864017372 -0.0156252977
C -1.4119824773 -2.1447004282 0.6520188835
C -0.0773727070 -2.7832347234 0.9171119944
C 1.0876392504 -2.1216904559 0.9120487558
C 1.1504023947 -0.6698679083 0.6793813289
O 2.0914111628 0.0238721452 1.0383563021
H 0.8515560975 1.5703734092 0.4947329014
H -0.8801424336 0.1042970950 -2.0012983098
H -0.0171716100 -1.4875158503 -1.6977028874
H -2.2102764835 -0.1623197390 0.0667449605
H -1.9475227968 -2.0688247079 1.6098239398
H -2.0191028269 -2.8234287022 0.0367602500
H -0.0886100420 -3.8428005649 1.1631297033
H 2.0236177198 -2.6061254865 1.1699511752