21

C 0.1921074997 1.5565531448 0.0689437818
C 0.0445477883 0.0447941563 -0.0098896853
C 0.6612223356 -0.5700981068 -1.2917777284
C 1.1190652937 -2.0145751502 -1.0276559957
O 1.3193229716 -2.7660846617 -2.1962169018
C 0.1847886190 -2.6566470091 0.0263593377
C 1.0268866644 -1.8578132897 1.0615433268
C 2.2190430796 -1.9720098710 0.0746300000
O 0.6188715799 -0.5021835359 1.1814495232
H 1.2498611948 1.8376637218 0.0729071367
H -0.2938995228 2.0344050058 -0.7876808576
H -0.2672241848 1.9367698758 0.9854586050
H -1.0283097710 -0.2003470177 -0.0109771079
H -0.0901655315 -0.5637464967 -2.0893094706
H 1.5173424263 0.0269206431 -1.6356284795
H 1.8838597608 -2.2589670680 -2.7902102053
H -0.8920682123 -2.4864871742 -0.0356147229
H 0.3842783223 -3.7270479023 0.1121368473
H 1.1333798882 -2.2469161512 2.0744209018
H 2.7298601896 -2.9349649326 0.1561607523
H 2.9390111384 -1.1494283206 0.0703120424