20

O 0.2198065890 1.7853241628 0.5699463865
C 0.2309133081 0.4465398782 0.0882977572
C 1.1080999982 0.3184702605 -1.1364297891
C 0.8140814352 -0.6815147827 -2.1822955305
N 0.5943172920 0.7514745759 -2.4564902993
C 0.6967577311 -0.4599077088 1.2211967794
O 0.6216706893 -1.8230476995 0.8908065887
C 1.8722433251 -0.0718723917 2.0639440247
C 0.4756985229 -0.0688500085 2.6573934714
H 0.2366144468 2.3720745371 -0.1929005659
H -0.7953965213 0.1368833908 -0.1924794149
H 2.1447877599 0.6005061963 -0.9651130565
H 1.6279568049 -1.1369295500 -2.7378394066
H -0.0505993301 -1.3234772337 -2.0404944556
H -0.4030827194 0.9501689788 -2.3869010238
H -0.2981488360 -2.0968852870 0.9789822753
H 2.5429495645 -0.8721858619 2.3530993374
H 2.3357050448 0.8888247145 1.8746635481
H 0.0144846758 0.8887531916 2.8632972135
H 0.2254012092 -0.8725228927 3.3414531700