21

C 0.0921175448 1.5317914233 0.0192137513
C 1.3769065835 0.7268346486 -0.0508235613
C 1.9901368302 0.4549408380 1.2879214828
C 1.2029305365 -0.3329539338 2.0231226038
C 1.0732317295 -0.6734743607 3.4851999311
C -0.4287012840 -1.0861494744 3.6295850553
C -1.1322848994 -0.5974299694 2.3365248895
C -0.0379979144 -0.7760779149 1.2666656845
C 0.0186666758 0.0260447590 -0.0259577327
H -0.1252297668 2.0551067567 0.9447123227
H -0.2249780081 2.0538053870 -0.8781760511
H 1.9854751886 0.7851884244 -0.9471575708
H 2.8962961003 0.9465099296 1.6260616186
H 1.7368286901 -1.4914471177 3.7887543357
H 1.3249356067 0.1820600711 4.1205987677
H -0.5046369345 -2.1771379555 3.6941032703
H -0.8884030907 -0.6839615099 4.5363065770
H -2.0519349997 -1.1509017041 2.1261334619
H -1.3949094512 0.4632935210 2.4232234504
H 0.0278797636 -1.8494965948 1.0276512863
H -0.3752717309 -0.4209169835 -0.9309869230