16

N -0.1852758506 -1.2287351499 -0.0052501814
C -0.0963813073 -0.0761426416 0.0007491075
C 0.0145116222 1.3877401345 0.0238591780
C -0.6659824355 2.0336439369 1.2486725233
C 0.5540276852 2.3417461942 2.1803240780
C 1.6884361388 2.5857380951 1.1854978809
C 1.3962735756 1.9865172256 0.0396077611
C 1.2979584395 2.1400369588 -1.4559230170
O -0.1496737350 1.9157156226 -1.3346657092
H -1.1247798659 2.9698971032 0.9180919096
H -1.4311673704 1.4100939506 1.7150840056
H 0.3747099905 3.2206931836 2.8067521517
H 0.7604328733 1.5066589246 2.8615773793
H 2.5220567309 3.2478653836 1.3845813566
H 1.5343845185 3.1216197408 -1.8755447096
H 1.7604618201 1.3493823573 -2.0578299445