19

C 0.0298727354 1.5762879888 0.0267812695
C 0.0139826031 0.0457504296 0.0215911852
C -1.4034110667 -0.5322442078 -0.0254964998
C -1.4192573733 -2.0734744903 0.0302392841
O -0.7845341142 -2.5780739292 1.2036275098
C -2.7801971853 -2.5958113913 -0.1092526765
C -3.9165768811 -3.0067502923 -0.1878465104
C -5.1915352475 -3.4727437454 -0.2802220966
C -6.3235355969 -3.8852201580 -0.3614758887
H 1.0537544162 1.9611586580 0.0591727105
H -0.4510211277 1.9840054123 -0.8694092099
H -0.5029572273 1.9757023001 0.8969655022
H 0.5819267431 -0.3257019419 -0.8417974437
H 0.5232383889 -0.3408223747 0.9104158697
H -1.9993273423 -0.1494664160 0.8142550212
H -1.9181843658 -0.2124277451 -0.9398046679
H -0.8081327332 -2.4580188719 -0.7970044446
H -1.3679793826 -2.3963988724 1.9493613639
H -7.3181399027 -4.2494817325 -0.4343474579