15

O 0.1042296766 1.4215814819 -0.0590426058
C -0.0383619920 0.0627617062 0.0485343841
C -0.4296616999 -0.7434706192 1.2524614703
C -1.6187812482 -0.1771681169 2.0628267636
N -2.0401310148 1.1244371554 1.4657024973
C -2.4871683627 -0.1635443892 0.8739472645
C -1.3524834169 -0.7327764923 -0.0245613941
C -1.5781689567 -1.7815693392 -0.9538342562
N -1.7683033944 -2.6361682747 -1.7136015500
H -0.6178332618 1.7996691843 0.4759803597
H 0.7296962420 -0.4436026391 -0.5325827632
H 0.1501042178 -1.5881059842 1.6030022333
H -1.8410878402 -0.4150953598 3.0935074030
H -2.8078030137 1.4929580246 2.0246725354
H -3.5355224851 -0.3994866578 0.7548704281