19

C 0.0657477098 1.5155024227 0.1337710806
C 0.0402927870 0.0599256191 0.1053528136
C 0.0257012222 -1.1456271852 0.0865964136
C 0.0200329608 -2.5802357351 0.0519641364
C -0.6288193171 -3.3803944630 1.1755705193
C -1.2692933741 -3.3614280199 -0.1791081190
C -2.5804467898 -2.6262128006 -0.4075533460
C -3.7456205666 -3.4350065140 -0.0631670306
C -4.6936974070 -4.1178882291 0.2189849798
H 1.0944280248 1.8922582450 0.1596748301
H -0.4207201421 1.9450467410 -0.7493135467
H -0.4493595026 1.9064596567 1.0184363968
H 0.9093266909 -3.0251642939 -0.3861627436
H -0.1271608452 -4.2822597110 1.5074672926
H -1.1054338692 -2.8103184555 1.9652577500
H -1.1581574121 -4.2614134244 -0.7763038246
H -2.5817839495 -1.6987502004 0.1767836896
H -2.6478522424 -2.3160305990 -1.4586369540
H -5.5368508878 -4.7121799336 0.4697968921