21

C -0.1309319666 1.5351858169 0.0679268599
C 0.1424749110 0.0682909447 -0.0061756646
O -0.7477120526 -0.8166726819 0.6951582414
C 0.6572690675 -0.9161298575 0.9675317710
C 1.3222410185 -1.7638113411 -0.1497831437
C 2.8045859744 -2.0076147512 0.0178908326
C 0.4196359577 -2.8770194641 -0.7695041385
C -0.1366018832 -1.8547648703 -1.8096694911
C 0.7486613705 -0.7364800891 -1.1889212693
H 0.7468599162 2.1106397552 -0.2435446307
H -0.9625030525 1.8089341697 -0.5919593820
H -0.3973669436 1.8231995717 1.0885636431
H 0.9600143709 -0.8148819699 2.0064648955
H 2.9969664939 -2.7430296911 0.8091872651
H 3.2512179761 -2.3892603982 -0.9064115927
H 3.3334753985 -1.0857244266 0.2881517334
H 0.9976974670 -3.6903227716 -1.2169744828
H -0.3228534356 -3.3010727907 -0.0913637330
H 0.1327164234 -2.0894403470 -2.8421159815
H -1.2116312420 -1.6755949463 -1.7551749647
H 1.4153688406 -0.1680084116 -1.8398652974