12

N 0.0279691785 1.2412340982 0.0090801488
N 1.0959776412 2.0495891744 0.0030722222
N 2.2819223835 1.5122950330 -0.0115974992
C 2.3464652981 0.1720860907 -0.0197008007
N 3.4380111505 -0.5748035359 -0.0345889346
C 2.9545605470 -1.8610577393 -0.0370119436
C 1.5652600497 -1.9829942473 -0.0240124348
C 1.1217291783 -0.6530641111 -0.0122363823
N -0.0665398156 -0.0772847612 0.0026632660
H -0.8495488377 1.7442952933 0.0205177302
H 3.6601215247 -2.6835975088 -0.0485380398
H 0.9755270917 -2.8854100560 -0.0232277923