19

O 0.1787786811 1.3779064197 0.0280380169
C 0.0100315353 -0.0199692338 -0.0981985517
C -1.4222802297 -0.4816215927 -0.0774492764
C -2.4777444914 0.3367424469 -0.0857858731
C -3.8399956950 -0.3198504398 -0.0231966446
C -3.9335895595 -1.4200595752 -1.1083301072
C -3.2016624570 -2.2294690078 -0.0146442071
C -1.6849876133 -1.9785787882 -0.0224555759
O -3.8013492264 -1.3709656312 0.9963049878
H -0.2053066501 1.6371946493 0.8725743999
H 0.4749267191 -0.2912610160 -1.0559685967
H 0.5763108160 -0.5676346859 0.6763374355
H -2.3750118156 1.4137180559 -0.1542631229
H -4.6705196209 0.3719949093 0.1280917681
H -4.9548038526 -1.7778411963 -1.2500848477
H -3.4405016191 -1.2450178593 -2.0662353160
H -3.4562378114 -3.2828454782 0.1301356536
H -1.2178026551 -2.4880569173 -0.8772986172
H -1.2329307445 -2.4115720792 0.8801154045