21

C -0.0465503887 1.5801865841 -0.0619070797
C 0.0747354303 0.0677647965 -0.0543708150
C 1.2440630421 -0.5894839451 -0.8455432402
C 1.3667434026 -1.6464399721 0.2938281998
C 0.6359747397 -0.6239233058 1.2250617838
C 0.5452029537 -2.8788713223 0.0274544551
C -0.6553184890 -2.8710405003 -0.5519320379
C -1.3917287948 -1.6544074683 -1.0663457798
O -1.2257086411 -0.4286731433 -0.3744956495
H 0.8887130916 2.0500316806 0.2560924634
H -0.2965955893 1.9400433856 -1.0652110970
H -0.8437374772 1.8969250690 0.6179506194
H 1.0554577328 -0.9482557035 -1.8594670435
H 2.1076909781 0.0805659112 -0.8666820120
H 2.3824260291 -1.9189182129 0.5875745453
H 1.3419843911 0.0190801717 1.7596307989
H -0.1071494238 -1.0195468223 1.9196092081
H 0.9639568413 -3.8292783182 0.3486078368
H -1.1736414318 -3.8134157687 -0.7153097271
H -1.1609446981 -1.5233136812 -2.1381839156
H -2.4691396985 -1.8459846048 -1.0147625634