19

O 0.0588236773 1.4238682110 0.0920770397
C 0.0066200479 0.0150495462 0.0053324535
C -1.4183407096 -0.5364045331 0.0901130970
C -1.4084190953 -2.0696326095 0.1823843645
C -0.4325519271 -2.6902527856 -0.7816546413
C 0.5035207078 -2.0089447222 -1.4388093019
C 0.7157475442 -0.5136576637 -1.2747083855
C 0.2617019560 0.2224790450 -2.4577591381
C -0.1373121772 0.8522029604 -3.4028188961
H -0.2830844717 1.7741881795 -0.7408237999
H 0.5826047977 -0.3501825131 0.8639362705
H -1.9216322890 -0.0940438534 0.9546791095
H -1.9695511323 -0.2214734200 -0.8051385070
H -1.1541616532 -2.3857062585 1.2051551130
H -2.4134975363 -2.4691113089 -0.0011649796
H -0.5085668305 -3.7646765864 -0.9334100387
H 1.1664733965 -2.5131220035 -2.1360645416
H 1.7900127872 -0.3163702205 -1.1584040811
H -0.4747542324 1.3880563064 -4.2555804467