14

N 0.0490912843 1.2129771459 -0.1595831666
C -0.0092605517 -0.0322858879 -0.0660095241
C -1.0941851212 -1.0355927865 0.0006973798
C -0.6176882789 -2.2736551797 -0.7988763980
O 0.3703536028 -2.1188417314 -1.7967426039
C 1.4392155565 -1.4691876378 -1.1989141878
N 2.5377837657 -1.1968451855 -1.7388899424
N 1.0545589522 -1.0717878654 0.1318477452
C -0.0346288228 -2.0251757202 0.5217640498
H 1.0178682226 1.5383348740 -0.1435395376
H -2.1304612333 -0.8953457063 0.2776584667
H -1.3362023549 -3.0512167886 -1.0187255527
H 2.5513378248 -1.5193421368 -2.7067142625
H 0.0210186841 -2.6270868837 1.4172215341