24

C 0.0065460535 1.6278464319 -0.0710164894
C 0.0079974537 0.0978555129 -0.0147217419
C -1.4010760489 -0.5039148295 0.0188554416
C -1.4072889221 -2.0360722595 0.0751437109
C -2.8243787357 -2.6184161089 0.1154858758
C -2.8685452512 -4.1658937257 0.0735652864
C -2.2334823521 -4.8389785259 1.3065461164
C -4.2562391933 -4.6171165591 -0.0835042865
N -5.3531659891 -4.9636513984 -0.1976150508
H 1.0249263980 2.0277379314 -0.0959376970
H -0.5156211657 1.9905550987 -0.9632881189
H -0.4978732976 2.0556363533 0.8025223384
H 0.5507727968 -0.3008924908 -0.8820495805
H 0.5652162755 -0.2363558015 0.8704891993
H -1.9449518094 -0.1066043185 0.8871193892
H -1.9604866438 -0.1701331466 -0.8658868748
H -0.8745987214 -2.4342210507 -0.8000026902
H -0.8386835802 -2.3625326223 0.9544952893
H -3.3460577287 -2.2759914473 1.0178109131
H -3.3976056777 -2.2337360097 -0.7357711118
H -2.3270609483 -4.4992810993 -0.8220690270
H -2.3216577156 -5.9263485283 1.2448281902
H -1.1731472061 -4.5859468925 1.3740757679
H -2.7286533005 -4.5085082937 2.2243586702