16

C 0.0120628290 1.1415226755 0.4157539885
O -0.0777149971 -0.0666695723 -0.3375605799
C -1.3424214373 -0.6294096719 -0.3197769360
C -1.5420268306 -1.9787099856 -0.9573703862
O -0.5136147892 -2.6489951049 -1.5808804972
C -1.4785106098 -1.8811092152 0.5753927529
O -0.2713073198 -2.3566240082 1.0967382583
C -2.6357183816 -2.0831754307 1.3996509808
N -3.5989669954 -2.2178406086 2.0270928880
H 1.0473610528 1.4786273585 0.3432256095
H -0.6492277528 1.9110076044 -0.0020562842
H -0.2497918323 0.9836216818 1.4702506940
H -2.1773866156 0.0684193469 -0.3370910631
H -2.5120052974 -2.1528684217 -1.4133150505
H 0.0900295255 -2.9412608478 -0.8806252443
H 0.3498560115 -1.6127117801 1.0716452895