19

C -0.2015898368 1.5083008359 0.0536645381
C 0.0438709269 0.0011663908 0.0409953026
C 0.7974747529 -0.4729597901 1.2823462575
O 1.2220285351 0.2813195747 2.1430697854
N 0.9688986363 -1.8166363172 1.3728085960
C 0.6914768835 -2.9588303317 0.4994222884
C 1.4342874729 -3.8617439690 1.5272772598
C 1.7093270122 -2.5828629185 2.3732665543
H 0.7426179719 2.0525583404 0.1271252893
H -0.7195211568 1.8232303903 -0.8568444297
H -0.8074729735 1.7964042694 0.9163140917
H -0.9024396654 -0.5504903797 -0.0316359682
H 0.6220772731 -0.2904549274 -0.8464691996
H -0.3747920049 -3.1753846852 0.3636389450
H 1.1611189023 -2.8938823870 -0.4897019183
H 0.8009816800 -4.6022563145 2.0162437332
H 2.3252649080 -4.3553087266 1.1388786780
H 2.7598069581 -2.2863816909 2.4613250015
H 1.2577137045 -2.5609152138 3.3702542051