22

C -0.0976622000 1.3348803301 -0.0661132241
C 0.1138116351 -0.1452018407 -0.3750194173
N 0.8564212100 -0.7852142394 0.7071714692
C 0.2334166873 -1.2951343013 1.9189607144
C -1.1215398909 -1.9766590627 1.6507893487
C -0.4172240332 -2.9262017163 0.6293875079
C 0.9168409802 -2.2165638605 0.9333073849
C 2.2903041688 -2.8373516097 0.9717460349
O 3.2444278336 -1.9312814141 1.4767170842
H 0.8603296005 1.8362767523 0.0983307086
H -0.6146787280 1.8323152150 -0.8922113235
H -0.7032521164 1.4617343751 0.8373272142
H -0.8560836958 -0.6230790827 -0.5737021842
H 0.7122639563 -0.2581939314 -1.2864929194
H 0.5823508090 -0.9159912459 2.8734046143
H -1.4877456214 -2.5145089367 2.5275034720
H -1.9280381503 -1.3399312203 1.2751008365
H -0.4166697484 -3.9658204547 0.9651251541
H -0.7588658947 -2.8988406188 -0.4095123437
H 2.2842072418 -3.7236501541 1.6188372184
H 2.5570565349 -3.1836938329 -0.0439331808
H 2.9220378316 -1.0595228003 1.2002029509