19

C -0.1701662475 1.5594473141 0.1331264554
C -0.0158692327 0.0535824672 0.0002673547
C 1.1369658997 -0.5197824893 -0.9426552537
C 1.9781125693 0.4023452657 -1.6771858236
C 2.6681344436 1.1720255386 -2.2917692420
C 1.7325142164 -1.1986829263 0.3090674775
O 1.9865379919 -0.1810109318 1.2783162487
C 0.6496820637 -0.7008475880 1.1728670925
C 0.0048218293 -1.2505576313 2.4030343474
H 0.7670639414 2.0095356444 0.4681212324
H -0.4405162308 2.0115458113 -0.8258482220
H -0.9550529921 1.8068637805 0.8562942880
H -0.9651419145 -0.4166693552 -0.2756249486
H 0.7170092369 -1.2701625203 -1.6205305241
H 3.2861171789 1.8495469806 -2.8269114452
H 2.3386928261 -2.0968853509 0.3548557917
H -0.3370960705 -0.4414269578 3.0582298973
H -0.8649566767 -1.8633681331 2.1447391139
H 0.7137669876 -1.8645110786 2.9647327796