19

O -0.1701303680 1.4112259513 -0.2473057495
C 0.0022743370 0.0031210372 -0.1559715975
C -1.3715082800 -0.6022103207 0.1066867288
C -1.3579416809 -2.1310507036 0.1555679659
C -2.7529981679 -2.8165598154 0.0335094175
C -2.2162638760 -3.3714125296 -1.2979381895
O -0.9535200498 -2.6923012405 -1.1313404345
C -0.5282401634 -2.6430902985 1.2444601974
C 0.1345094726 -3.0727109393 2.1511274838
H 0.6864504988 1.8029590997 -0.4399504181
H 0.4075859345 -0.4163279956 -1.0879327007
H 0.6900205351 -0.2647838216 0.6594949971
H -1.7700183167 -0.2142982346 1.0513265164
H -2.0509219911 -0.2898982544 -0.6935693613
H -2.9680746076 -3.5566507812 0.8032490056
H -3.5843246871 -2.1145486101 -0.0457469984
H -2.0896686644 -4.4595201062 -1.3368641188
H -2.7386771043 -3.0412309354 -2.2029906181
H 0.7275424692 -3.4523019716 2.9464602138