16

C -0.0312439695 1.4578896523 0.0960228815
C 1.2968851033 0.7456057285 0.0502221168
C 2.0421992106 0.4255149265 1.3710755983
C 1.0482440584 -0.4936546792 1.9986893608
C -0.0422007787 -0.7761254226 1.2579357966
N -0.8954414832 -1.6006770645 1.9753152731
C -0.2685969261 -1.7603765361 3.1002952820
O 0.9281277004 -1.1048344706 3.2083387343
C -0.0173748867 -0.0518018631 -0.0346085117
H -0.3743307611 1.8788439747 1.0359307248
H -0.3032640536 2.0364306099 -0.7811201426
H 1.9018506680 0.8761449614 -0.8386599311
H 3.0100135740 -0.0543668093 1.1788191005
H 2.2410622900 1.3275501762 1.9614481898
H -0.5663636536 -2.3471750616 3.9547943898
H -0.3452070221 -0.5189887527 -0.9553325829