23

C 0.2260497827 1.4972274550 0.1590438863
C 0.0357707271 -0.0031443992 -0.0291083755
C 0.7527119260 -0.5906306184 -1.2607768023
C 1.2435326762 -1.9721186150 -0.7787769896
C 0.1344875467 -3.0322684305 -0.8809604495
C 2.4930244366 -2.4243067717 -1.5299557067
O 2.9768617217 -3.6117375382 -0.9155076725
C 1.5459785933 -1.6416165710 0.6965530247
O 0.5506913865 -0.7127061013 1.1069660392
H 1.2903703654 1.7471545050 0.2230059875
H -0.2097236207 2.0506916782 -0.6801398604
H -0.2599451566 1.8317229916 1.0798744053
H -1.0415019599 -0.2174086367 -0.0852170606
H 0.0960216403 -0.6502938466 -2.1330143616
H 1.6078779836 0.0416147674 -1.5313829796
H -0.2108774816 -3.1385261660 -1.9155789628
H 0.5069985208 -4.0033754730 -0.5465754737
H -0.7258043192 -2.7611323613 -0.2623543812
H 2.2478041611 -2.5975712536 -2.5905082125
H 3.2515614923 -1.6257034862 -1.4912465345
H 3.7438087203 -3.9180335889 -1.4074578638
H 1.4938009180 -2.5145332567 1.3527544583
H 2.5531079795 -1.2041988328 0.7941126955