21

C -0.0003832634 1.4044154202 0.1162797207
O -0.0100007945 0.0209423668 -0.1418046441
C -1.2930484599 -0.5766029906 -0.0336842369
C -1.2506073587 -1.9708064613 -0.7274763703
C -2.1991795297 -2.8355828897 0.1230799127
C -1.8192199287 -4.1094692781 0.9610134036
C -2.3837253254 -3.3863947111 2.2446230442
C -2.2398334023 -2.1146948135 1.4418694187
C -1.6883492120 -0.9078861261 1.4102586378
H 1.0237130039 1.7559627887 -0.0339084915
H -0.6675960551 1.9510994294 -0.5692996349
H -0.3034931854 1.6430045818 1.1471934236
H -2.0283817926 0.0895717552 -0.5192049015
H -1.5081824262 -1.9199695748 -1.7886667383
H -0.2185362040 -2.3281701352 -0.6460431503
H -3.1810183420 -2.9692545966 -0.3462458419
H -2.2887237460 -5.0556767279 0.6813665173
H -0.7364955797 -4.2431461002 1.0250447812
H -3.4253681911 -3.6700238347 2.4294713191
H -1.8245297341 -3.4685910209 3.1796047106
H -1.4428735730 -0.2629885114 2.2456716502