18

C -0.0377121390 1.3825576168 -0.1568940044
N -0.0024324862 -0.0274679450 0.1559583607
C -1.1580273813 -0.9269464512 0.0596818858
C -1.1365518283 -1.5614272030 -1.3471289142
O 0.0544237031 -2.3671096285 -1.3142316614
C 0.6044772539 -2.2298013082 0.0201066264
C -0.6472951581 -2.1245880904 0.8929090289
C 1.1513498925 -0.7871477954 0.0853266434
O 2.2889274167 -0.3809205627 0.0168672430
H 0.9883488501 1.7521942290 -0.1071983964
H -0.4305361308 1.5729451453 -1.1651027636
H -0.6543008915 1.9295954731 0.5645008306
H -2.0900995686 -0.4498042962 0.3608258168
H -2.0129195019 -2.1939669916 -1.5358202660
H -1.0581133950 -0.8139745797 -2.1443328839
H 1.3342923595 -3.0168974387 0.1880429918
H -0.4495722054 -1.8574051617 1.9318368795
H -1.2834047197 -3.0098513020 0.8311015230