21

C -0.1190483044 1.4994980039 -0.1157696973
C 0.0204531596 0.0029633260 0.0526844266
C 1.3484515519 -0.7049283794 -0.1645079564
C 0.7231748156 -0.6255069867 1.2132578440
C 1.3757856056 0.1509932310 2.3402530140
C 2.2813891490 -0.8032121628 3.1292397056
O 1.5618438440 -1.9686426497 3.5120522343
C 1.0184063173 -2.6114946310 2.3916246832
O 0.1040648456 -1.8010946512 1.6919698818
H 0.7808541684 2.0329379438 0.2050074392
H -0.2908135517 1.7542457904 -1.1670744446
H -0.9624949967 1.8902013270 0.4640852632
H -0.8448418317 -0.5706758518 -0.2692234606
H 1.3344206564 -1.6649288633 -0.6679857519
H 2.2233188445 -0.0950081912 -0.3698888529
H 1.9594104177 0.9947815675 1.9613236389
H 0.6003264534 0.5433651569 3.0082777631
H 3.1527776707 -1.0869998440 2.5154033420
H 2.6461956187 -0.3450414411 4.0519491302
H 1.8296062909 -2.9295700131 1.7101965608
H 0.4620509453 -3.4777692611 2.7545285766