14

C -0.2664433535 1.4915284405 -0.0045314995
C 0.0224064520 0.0166168302 -0.0034189291
N 0.1583761052 -0.5342221568 -1.1622803415
O 0.4284002021 -1.9094666950 -1.1910948602
C 0.5571675975 -2.7056513358 -0.0711841509
N 0.8020687418 -3.9459564283 -0.1507236207
C 0.3907859749 -2.0133752102 1.2015137609
F 0.5086620764 -2.7493454714 2.2856951776
C 0.1324464818 -0.7000760947 1.2482935715
H 0.5137590035 2.0362186657 0.5383958136
H -0.3141557595 1.8622561954 -1.0287960620
H -1.2189239117 1.6968516428 0.4962672722
H 0.8823037846 -4.2347665855 -1.1270672880
H 0.0087992448 -0.1855959169 2.1931846261