15

N 0.0062916215 1.3480462833 0.0566094204
C -0.0201841707 -0.0215899638 -0.0139116334
N -1.0885189493 -0.7201773936 -0.1259535994
C -0.7485608697 -2.1377734345 0.0090244014
C 0.7795069301 -2.2241503876 0.1185645538
O 1.4359336735 -1.6655208320 -1.0380027267
C 1.2491163797 -0.8205898281 0.1049605008
C 1.4303046037 -3.3092884236 0.7875392888
C 1.9233696475 -4.2487997459 1.3525042951
H 0.8172952080 1.8072308515 -0.3287717584
H -0.8701254691 1.7942816460 -0.1759047219
H -1.2180533071 -2.5597379722 0.9057185409
H -1.1143428540 -2.7059800034 -0.8533833687
H 2.1484335149 -0.4617545231 0.5973165482
H 2.3717829109 -5.0740604131 1.8483208491