21

C 0.2009651667 1.7128265703 0.1266443167
C 1.5513733181 1.9348926476 -0.5921639040
C 2.1783339401 0.5215647635 -0.5573323191
O 1.0605501511 -0.3365889661 -0.7381155699
C -0.0170234070 0.1746738085 0.0510140027
C -0.0531648201 -0.5593285593 1.3966183701
C 1.0540108075 -0.2078087974 2.4053154573
C 2.4771441816 -0.0603606099 1.9222549061
C 2.9511627352 0.2572170674 0.7158831913
H 0.2385444689 2.0590201971 1.1623461599
H -0.6103097895 2.2541235956 -0.3647214675
H 1.3897836272 2.2317569396 -1.6325948994
H 2.1750501723 2.6925300038 -0.1131061981
H 2.8389783223 0.3525481203 -1.4134103733
H -0.9345500631 -0.0687779318 -0.4959895239
H -1.0251597513 -0.3868488594 1.8767795065
H -0.0025491749 -1.6280201138 1.1617088049
H 0.7941350610 0.7281465256 2.9240914294
H 1.0371793362 -0.9659683438 3.1982558348
H 3.2131119685 -0.1757070054 2.7173011368
H 4.0284417192 0.3832345777 0.6189129485