15

C 0.0360435967 1.4942041371 -0.0125556763
C 0.0281563808 0.0431946620 -0.0033799616
C 0.0194366727 -1.1670931213 0.0047125641
C 0.0078740345 -2.5257814117 0.0139128823
C -0.0064036009 -3.7367651349 0.0239653756
C -0.0040393177 -5.2012888595 0.0107746666
O -1.2770002480 -5.7701901421 0.1457175875
C 0.6448938951 -5.6526018162 -1.3065597701
O 0.0471380867 -6.3520366568 -2.0821915572
H 0.9718394840 1.8865183277 0.4010059431
H -0.0704520598 1.8850703428 -1.0306263847
H -0.7880903221 1.8954724442 0.5878370505
H 0.6505893362 -5.5590553285 0.8253216402
H -1.4575817590 -6.1991644943 -0.7067919901
H 1.6701545109 -5.2835959584 -1.4964000099