15

O -0.0846184525 1.4452244588 -0.1374314774
C 0.0058456212 0.0308693675 0.0057760568
C 0.5064293158 -0.4420398608 1.4247364632
O -0.6186221987 -0.9259592206 2.2024325453
C -1.6333597709 -1.0488499435 1.3035076066
C -1.3531659880 -0.5710677165 0.0539790917
N -2.4752946006 -0.7570610820 -0.6847888814
N -3.4569992874 -1.3343849434 0.0344139254
C -2.9548137300 -1.5231395031 1.2641672809
H 0.8050698835 1.7884262890 -0.2741261235
H 0.6586242458 -0.3809749778 -0.7767144418
H 1.2235143771 -1.2644181405 1.3254892295
H 0.9688191332 0.3864833002 1.9675280347
H -2.6599981438 -0.5025110945 -1.6394142656
H -3.5616920248 -1.9782364527 2.0303070956