19

C -0.2193212850 1.1811173115 -0.9319836718
O 0.2684714313 0.1368300548 -0.1064251289
C 1.1242522690 -0.7749300610 -0.7860344359
C 1.9367156218 -1.5184928649 0.2722484923
C 0.3253028189 -1.7540670421 -1.6484135699
N 0.8179692591 -2.2168951166 -2.7199506602
N -0.9210312427 -2.0666036222 -1.0708152750
C -1.8462916552 -2.9606066492 -1.5423275710
O -1.7238282062 -3.6482158851 -2.5315807557
H 0.6061302720 1.7788195850 -1.3426834607
H -0.8217049063 0.8008617061 -1.7690978891
H -0.8447383015 1.8199808648 -0.3044142884
H 1.7990249700 -0.2383484245 -1.4643546237
H 1.2795649091 -2.0781523293 0.9450348195
H 2.6207532072 -2.2197188657 -0.2109265937
H 2.5117054075 -0.8048595929 0.8675065327
H 0.1876520648 -2.8986847702 -3.1443971124
H -1.1552705171 -1.5191292276 -0.2525466515
H -2.7472809266 -2.9898221008 -0.8996317263