15

C -0.0219212224 1.5102200457 -0.0233291787
C -0.0205529505 0.0559876113 -0.0191328903
C -0.0150528252 -1.1489351976 -0.0100108548
C 0.0158159865 -2.5658874454 0.0192628896
C -0.3675409875 -3.4738502834 -1.1829057460
C -1.0621328411 -3.6408115339 0.1085424251
O -0.2413707374 -4.4486921831 0.9875597800
C 0.7375600315 -3.4590043446 1.0154884001
O 1.7184377068 -3.4308161344 1.6778689330
H 0.7656381698 1.9001422363 0.6305905938
H 0.1533292209 1.9078380664 -1.0289175154
H -0.9775395562 1.9095586524 0.3339164770
H -0.8973630610 -2.9341522041 -1.9610238981
H 0.3217834755 -4.2406365753 -1.5210734806
H -2.1144241699 -3.5604110105 0.3386506752