13

N -0.2177023912 1.3869595729 0.0077072538
C -0.0488795559 -0.0473910325 -0.0100544835
C -0.4997441416 -0.7802496011 1.2547240398
C -1.3825877158 -0.8110011377 0.0456242395
O -2.5441308691 -0.0693154948 -0.0176025862
C 1.0479071701 -0.5904937660 -0.7709347193
N 1.9267105796 -1.0039409833 -1.4016107353
H 0.4834260013 1.8360290742 0.5884767292
H -0.1333636846 1.7700594573 -0.9290538600
H 0.0462368035 -1.6746714668 1.5305721398
H -0.7995815429 -0.1407618944 2.0778468343
H -1.4524442054 -1.7350583546 -0.5174389616
H -2.2808298179 0.8500341567 0.1513921696