12

C -0.0599746393 1.4599079424 0.0040013538
C 0.0074236998 0.0085158800 -0.0194393182
C 0.0595142414 -1.1955650998 -0.0400629428
C 0.1096822926 -2.6029610390 -0.0674920113
C 1.1286094627 -3.4659549024 0.2221298256
O 0.7167689985 -4.7126153356 0.0563363719
N -0.6627726279 -4.6207409097 -0.3686681632
N -0.9664422577 -3.4101423999 -0.4258639154
H 0.6689539393 1.9027964893 -0.6834985558
H -1.0548751540 1.8066820259 -0.2945957886
H 0.1436269386 1.8511038688 1.0068253122
H 2.1453830462 -3.3095163900 0.5422198518