18

C -0.0316067554 1.5393837182 -0.1076292767
C 0.0856605188 0.0339078144 -0.0439864257
C 1.3734172637 -0.7459275131 -0.1796236526
C 2.5033567586 -0.0668501846 0.5874041748
O 1.6867367412 0.0445758642 1.7892473944
C 0.6300662989 -0.6924977108 1.1520355839
C -0.0825056070 -1.7655312934 1.9011864721
N 0.3583773459 -1.9117366028 3.1780309041
O -0.9655447744 -2.4313107041 1.3900955646
H 0.7330918909 2.0244998135 0.5036525395
H 0.0661548948 1.8985060110 -1.1372945231
H -1.0077113613 1.8609615510 0.2689212563
H -0.7454564149 -0.5220184616 -0.4708919531
H 1.4852965496 -1.5881512917 -0.8486236362
H 3.3605677754 -0.7233692170 0.7694739283
H 2.8523387204 0.9103230568 0.2366145162
H 1.1221869273 -1.3501324423 3.5147444945
H -0.0542952224 -2.6203814777 3.7603488388