18

C -0.0427870265 1.5586976159 0.0331026605
C 0.0545615621 0.0293960014 0.0647912359
C 0.7655563024 -0.4843909069 1.3205136824
C -1.3700914232 -0.5623805811 -0.0518118054
C -1.4077384378 -2.0215140513 0.0146918219
N -1.4448247754 -3.1735861060 0.0887756802
O 0.7012796606 -0.4569711330 -1.1447553944
C 1.9886514883 -0.1546961706 -1.4002889545
O 2.5376411914 -0.5117099295 -2.3992265855
H 0.9454010900 2.0207701570 0.0990264786
H -0.5187681862 1.8950520728 -0.8921917884
H -0.6327997427 1.9197539831 0.8807127415
H 0.1763499855 -0.2363130832 2.2086984706
H 0.8849731571 -1.5694158696 1.2779654675
H 1.7500021377 -0.0263004486 1.4418432238
H -1.9948863448 -0.1591123161 0.7519461789
H -1.8065909171 -0.2414366582 -1.0026912451
H 2.4765651787 0.4444880342 -0.6124556486