27

C 0.2540113276 1.7891400014 -0.3817888518
C 0.2242956122 0.2805882278 -0.1193866150
C 0.9575258416 -0.5153367504 -1.2083085882
C 0.8910676660 -2.0540945041 -1.1045226475
C 1.3739371988 -2.6876707230 -2.4297756169
C 1.1474475630 -4.1977919899 -2.5698669938
C 1.6089374511 -2.6592225283 0.1287815748
C 3.0754206313 -2.2683768557 0.2831152344
O 0.9759473683 -2.2945536553 1.3579288108
H 1.2826503595 2.1666921408 -0.4074947460
H -0.2103794918 2.0372654520 -1.3433040358
H -0.2807409691 2.3406558519 0.3980544789
H 0.6565417439 0.0589512384 0.8594837758
H -0.8204482315 -0.0583595185 -0.0720792962
H 0.5323374367 -0.2321614004 -2.1812599133
H 2.0074083778 -0.1953524811 -1.2481243231
H -0.1720006364 -2.3305924546 -0.9946683218
H 0.8476313522 -2.1819951395 -3.2483526565
H 2.4372990592 -2.4595009598 -2.5794897334
H 1.7635220766 -4.7818196217 -1.8798586051
H 0.0997570124 -4.4597022658 -2.3817859196
H 1.3929530265 -4.5309194459 -3.5833148705
H 1.5635671915 -3.7542841180 0.0270766106
H 3.1843680613 -1.1924870450 0.4438676261
H 3.4997639670 -2.7801119868 1.1509799172
H 3.6567451308 -2.5501836636 -0.5991393174
H 0.0383483334 -2.4980621351 1.2795380635