17

C 0.0036723259 1.5165097821 -0.2989569876
C 1.4882540327 1.5965614419 0.2401638395
C 1.3032137009 0.1688819183 0.7989590458
O 0.6102598058 0.0386156089 2.0630729513
C -0.3264871453 -0.8011597931 1.3070218427
C 0.5583824871 -2.0396029932 1.0210674062
C 1.5495804754 -1.2399761288 0.1398049715
O 0.6768686886 -0.8522639719 -0.9748149273
C 0.0352626910 0.0021151650 0.0016700023
H -0.7128561470 2.0609889967 0.3179581303
H -0.1502764966 1.7721297295 -1.3479076605
H 2.2361182892 1.6529617023 -0.5522838962
H 1.6953245893 2.3592872657 0.9916359906
H -1.3031522130 -0.9167848416 1.7754764103
H 0.9753591316 -2.4310608610 1.9507047509
H 0.0799119854 -2.8268693970 0.4357351970
H 2.4971558690 -1.6820642936 -0.1657307069