20

C -0.2005379194 1.5468051986 0.0229970778
C 0.0683290238 0.0521535227 0.0252156959
C 0.7259020667 -0.4916849381 -1.3087871323
C 1.5591190156 -1.6301399582 -0.7259782577
N 3.1143648478 -1.9216958854 -0.6772784987
C 3.2526666053 -0.4991209837 -0.1274298469
C 1.9782435036 -1.0305944642 0.5816296089
C 2.8150311678 -2.3212360209 0.7946268990
O 0.9575270737 -0.2759754388 1.1468669875
H 0.7264144482 2.1064665996 -0.1361939254
H -0.9041462158 1.8057777780 -0.7754648940
H -0.6325836849 1.8622477503 0.9765249088
H -0.8689631998 -0.4906843230 0.2042471462
H -0.0416738441 -0.8196960271 -2.0129698634
H 1.3072013996 0.2964918324 -1.7914517309
H 1.0059363999 -2.5721026288 -0.6935409324
H 4.1545281294 -0.3569749864 0.4723495612
H 3.1610183029 0.2804009268 -0.8840071841
H 2.2821258653 -3.2696246682 0.8922720743
H 3.7037813045 -2.2781187055 1.4277863761