21

C 0.1002069475 1.5025177622 0.2522340542
C 0.0322119444 0.0540425538 0.1136923656
C -0.0194281413 -1.1452379460 0.0087419181
C -0.1154816004 -2.5985857983 -0.1193466785
C -1.5823364411 -3.0297369409 -0.3377040811
C 0.7973574798 -3.1694684272 -1.2159340452
O 0.8035199774 -4.5756879864 -1.2344450097
C 0.9825783378 -2.4586627742 -2.5311830600
C 2.1220358160 -2.5516599587 -1.5305752099
H 0.7501930694 1.9457790719 -0.5102822454
H -0.8899235015 1.9600953790 0.1483008048
H 0.4967369526 1.7908632662 1.2321009385
H 0.2285803881 -3.0521721770 0.8210681070
H -2.2174862994 -2.6549062604 0.4683913290
H -1.9646019602 -2.6343743506 -1.2838737482
H -1.6622459153 -4.1208994156 -0.3499831299
H 0.0065968155 -4.8708895569 -1.6872355860
H 1.0470334222 -3.0771417726 -3.4196419240
H 0.5062331866 -1.4944571993 -2.6680914656
H 2.4082096999 -1.6498545117 -1.0029549782
H 2.9270440821 -3.2416770172 -1.7541213254