22

C 0.6185315425 0.9834617100 -0.5910569669
C -0.0365170837 -0.1689114550 0.1784712480
O -0.1567127468 -1.3318684579 -0.6374086279
C 0.7682994460 -0.5557060002 1.3888620240
C 1.9898920904 -1.4794331037 1.3477003235
C 1.3885541702 -2.1711600809 2.5939514434
N 0.1592696449 -1.3001358578 2.5758307436
C 0.6117587869 0.1068000681 2.7024845370
C 1.7261161240 0.5848636588 3.6053113908
H 1.6231361825 0.7019600265 -0.9218741241
H 0.0284282748 1.2422903780 -1.4778227372
H 0.6940183443 1.8795609404 0.0328081435
H -1.0307961402 0.1481057181 0.5324695814
H -0.6378751111 -1.0869913803 -1.4337970801
H 1.9780709665 -2.1185734761 0.4654714002
H 2.9740701129 -1.0095066327 1.4379149143
H 1.0931334942 -3.2069247494 2.4182635784
H 1.9599667074 -2.1230206461 3.5260396743
H -0.2693037907 0.7454659050 2.7614628748
H 2.6645691990 0.0454687918 3.4624062333
H 1.9246711135 1.6451042323 3.4157938697
H 1.4362034924 0.4858249710 4.6572565658