17

O -0.1245924241 1.5204161478 0.0082735452
C -0.0256659816 0.1352768055 -0.0074800894
C -1.1669251531 -0.8121293392 -0.1311799551
C -1.0067632828 -1.5877741565 -1.4376915746
C 0.4922322580 -1.4865187079 -1.6565303880
C 1.0504188442 -0.6241614687 -0.7944849694
C 2.0278894513 -1.0791417636 0.2564927844
O 1.0573076320 -1.6135886689 1.2134728724
C -0.1322614658 -0.8394368941 1.0896728317
H 0.5873144486 1.8712655204 0.5548852910
H -2.1580321917 -0.5079299811 0.1949013391
H -1.2723239951 -2.6495786325 -1.3514571944
H -1.6397893330 -1.1705775379 -2.2335463929
H 1.0410493944 -2.2573326441 -2.1893082563
H 2.6858336960 -1.8948263690 -0.0464425021
H 2.6144194207 -0.2840561407 0.7361359761
H -0.5897040081 -0.6317158295 2.0511669324