18

C -0.0066255704 1.4933262442 0.0720710392
C -0.0055872218 -0.0010029748 -0.0007774859
C 0.0306221604 -0.7678962550 -1.0956632253
C -0.0202977544 -2.2474034887 -0.7920680469
C 0.0117578958 -2.2940944788 0.7434509014
C 1.2172646911 -1.6945926235 1.4474590660
C -0.0059280000 -0.8405964162 1.2398092074
C -0.7275071985 -3.3186734432 1.4195297462
N -1.3265318098 -4.1525399534 1.9540738905
H 0.8618569950 1.8657838021 0.6292565558
H 0.0062471333 1.9421915140 -0.9242687559
H -0.8963368057 1.8605146132 0.5987588567
H 0.1007105118 -0.3925638130 -2.1105139395
H -0.9389024257 -2.7098094260 -1.1736707483
H 0.8158465612 -2.8028239695 -1.2339677633
H 1.4167391669 -2.0608132182 2.4481748352
H 2.0946945628 -1.4870327170 0.8438696961
H -0.5939029621 -0.5493444862 2.1034344307