20

C -0.0451840205 1.5519090153 -0.1545519366
C -0.0362532105 0.0174576293 0.0056971115
C 0.7519783923 -0.4586110417 1.2481713074
C 2.2417208925 -0.1070291762 1.2094041488
C 3.0305488423 -0.8588760784 2.2840488843
N 4.1474341257 -0.2121873504 2.7312475661
O 2.7033954228 -1.9518821733 2.7024931778
C -1.4046015992 -0.4973120163 0.0518187566
C -2.5333309518 -0.9072532575 0.1100770797
H 0.9698053993 1.9383365541 -0.2840547243
H -0.6342242573 1.8458959790 -1.0269716581
H -0.4871106498 2.0274038151 0.7267639073
H 0.4523830504 -0.4110307937 -0.8820320181
H 0.2918673285 -0.0321157157 2.1471753758
H 0.6635871806 -1.5433469067 1.3432182138
H 2.6680505562 -0.4012571851 0.2394539722
H 2.4081545391 0.9711383542 1.3066963016
H 4.4566605096 0.6599595705 2.3405787614
H 4.7545091094 -0.6991984775 3.3701662541
H -3.5269091795 -1.2789331550 0.1536585988