19

C -0.0878175541 1.5449377537 0.1194538316
C 0.0635457770 0.0345254156 0.0226258270
O -1.1772523566 -0.6082338813 0.2458006992
C 0.6702523182 -0.5785495036 -1.2462519210
C 2.1085217614 -0.1907224804 -1.4195574897
C 1.7625607654 -1.2812778270 -0.4423200722
C 1.2299063661 -0.6769821345 0.8588575533
C 2.1502658051 0.1606337720 1.7087871221
O 1.7717069770 0.8371251270 2.6349748527
H 0.8283462568 2.0714590049 -0.1601745360
H -0.8938830322 1.8729193552 -0.5438806340
H -0.3270153801 1.8414757207 1.1465230716
H -1.5549459758 -0.2473230797 1.0558127955
H 0.0636089354 -0.9652926266 -2.0550627344
H 2.5646908297 -0.5259484333 -2.3451125306
H 2.4781958047 0.7732550070 -1.0784849119
H 2.1372341491 -2.2907360551 -0.5548828990
H 0.7415490881 -1.4147698474 1.5006250816
H 3.2281428247 0.1313350828 1.4249440842