20

C -0.6002140807 1.0812812637 1.0447053929
C 0.0013554813 -0.1439940093 0.3980051216
N 1.1036554169 0.0681436799 -0.5546792982
C 1.3661311196 -0.6778081457 0.6843349172
C 2.3323101017 -0.0480885914 1.6596745320
N 2.1432232500 -0.6203177076 2.9917241442
C 3.0596485864 -0.0623506435 3.9768846121
C 2.8158370852 -0.6279254971 5.3069916416
N 2.6094540807 -1.0549288560 6.3600521821
H 0.1633438786 1.8242175250 1.2852675273
H -1.3173224101 1.5558269939 0.3666173089
H -1.1362068613 0.8170606534 1.9633874858
H -0.7320309918 -0.9037707489 0.1288542189
H 1.0303771452 -0.5652921378 -1.3453624497
H 1.4750031474 -1.7589352546 0.6137185654
H 3.3592778496 -0.2704068059 1.3395306363
H 2.2311094795 1.0494686667 1.6329868387
H 1.1858766241 -0.4719806317 3.2952785600
H 4.0875598310 -0.3078242047 3.6810076177
H 3.0177910465 1.0395503417 4.0644536851