14

N 0.0479460866 1.0165370538 -0.8969404480
C 0.0053448622 0.0187804761 -0.1251397011
O 1.1893998464 -0.4041332190 0.4489115778
C 1.4732563350 -1.4252014157 1.3061393397
N 0.7682900768 -2.3155458006 1.8575299441
C -0.5969212979 -2.4938478940 1.7159804279
C -1.4988778039 -1.8053854390 0.9922469857
C -1.3303862572 -0.6509639650 0.1244346954
N -2.3720431658 -0.1837063054 -0.4546512942
H 0.9970391400 1.3788571061 -0.9854628721
H 2.5427620243 -1.3884256396 1.4974225806
H -0.9632131265 -3.3347908461 2.2981090330
H -2.5317830131 -2.1347093152 1.0373174320
H -2.1033098270 0.6213562337 -1.0288010608