17

C 0.1866914611 1.5803829281 -0.2001503110
C 0.1047449366 0.1355977794 -0.0532623968
C 0.0418673291 -1.0598701934 0.0780641719
C -0.0258190320 -2.4963636441 0.2156772258
O -0.0483765002 -2.9401991611 1.6284316620
C -1.2622824077 -3.5589240709 1.4702953469
O -1.8938757426 -4.1373438815 2.2944935848
C -1.3954399392 -3.2091177669 -0.0132498226
C -2.6158974295 -2.3987538521 -0.4241637106
H 1.1285426857 1.8792263892 -0.6722953056
H -0.6346358675 1.9642087076 -0.8146848563
H 0.1307696203 2.0736821120 0.7761330096
H 0.8138253710 -2.9831590257 -0.2880035323
H -1.2887235565 -4.1007903394 -0.6377748874
H -2.7099360470 -1.4906621279 0.1762405966
H -2.5522195893 -2.1065302638 -1.4761531765
H -3.5198676725 -2.9986403195 -0.2872230785