19

O 0.1860448202 1.3579084885 -0.0740139949
C 0.0878984207 -0.0253785912 0.1651132578
C -1.3858072139 -0.4751796377 0.0489459933
O -1.8939645140 -0.0234240116 -1.1838381965
C -1.5118990503 -1.9911843767 0.1408984424
O -1.8310077522 -2.6127698412 -0.8589138658
C -1.2162771431 -2.6464599591 1.4336628526
C -1.9520763194 -3.9449535598 1.7462472939
C -0.5103230604 -4.0000316618 1.3902927138
H -0.3227543161 1.5136010830 -0.8808000982
H 0.6890914695 -0.6069642230 -0.5535597663
H 0.4808973341 -0.2137649743 1.1693941187
H -1.9544899599 -0.0101610208 0.8678825516
H -2.0296998168 -0.8313425520 -1.7081448100
H -0.9866020488 -1.9891263685 2.2641219565
H -2.2470653759 -4.1007324055 2.7772152631
H -2.6668107951 -4.2650958953 0.9972219545
H -0.2497861989 -4.3598604387 0.4018293343
H 0.2189714404 -4.1934205443 2.1681347591