20

C -0.0073960117 1.4717148676 0.0058742838
C 0.0005052580 -0.0328079425 0.0008260247
C 0.6200471964 -0.9727136756 -1.0824666663
C 0.0121175071 -1.9169639108 -0.0084016661
C 0.0315322338 -3.4357305906 -0.0335038837
C -0.6309358457 -4.0194781504 1.1328713352
N -1.1598155598 -4.4572020014 2.0624180095
C 0.6329814480 -0.9819143371 1.0679556162
C -1.2351128926 -0.9882138981 0.0050442859
H 1.0126406483 1.8711273694 -0.0000537201
H -0.5273603301 1.8659923996 -0.8740243643
H -0.5141369303 1.8586347775 0.8965194091
H 0.1383875443 -0.9730257272 -2.0652522181
H 1.7109610841 -0.9676732591 -1.1704730405
H -0.4649654573 -3.8055995485 -0.9387779862
H 1.0652965893 -3.8004689079 -0.0668655369
H 1.7249680742 -0.9775112117 1.1412252157
H 0.1637227343 -0.9945049158 2.0553615168
H -1.8441490254 -1.0013167978 0.9129182159
H -1.8559742551 -0.9895647894 -0.8962617807