17

C 0.0247902234 1.5208999460 0.0403333889
N -0.0117574315 0.0777167532 0.1294234724
C -1.2762918527 -0.6048425090 0.4585941900
C -0.4590247354 -1.6619782494 1.2666957064
N -0.0760076044 -2.8989171753 0.6278505373
C 0.6714840996 -0.5779212237 1.2580450645
C 2.0525255387 -0.9861628614 1.0060951877
N 3.1480837445 -1.2912119375 0.8014353618
H 1.0535269594 1.8547309576 -0.1273676478
H -0.5789266606 1.8501118098 -0.8110307491
H -0.3597113588 2.0190680515 0.9500311366
H -1.9418463713 -0.0075211572 1.1043546195
H -1.8426977348 -0.9639901280 -0.4075530363
H -0.8498745361 -1.8855136766 2.2604459560
H -0.8694963991 -3.5284958612 0.5681932450
H 0.2505101732 -2.7295954132 -0.3191485224
H 0.6475093760 0.0155292244 2.1877523394