20

C 0.1703431548 1.1029942319 -0.2328230935
O -0.4415034841 0.0249905316 0.4454766107
C 0.4282573883 -0.6233188808 1.3230515640
C 0.0946289113 -1.9627026497 1.8634339006
C -0.5682265752 -2.8364912055 0.7902635341
C 0.7195900306 -2.7202267278 -0.0918738079
C 0.6000569655 -2.2945128512 -1.5511474977
C 1.3356199382 -1.7627358542 0.9441115773
H 1.0103399428 0.7686355816 -0.8582357453
H -0.5913447861 1.5586461669 -0.8700644010
H 0.5434862690 1.8617565600 0.4721436110
H 0.8789560425 0.0526909292 2.0544017767
H 0.0538682798 -2.1521002981 2.9298756300
H -0.7667403138 -3.8572146021 1.1224398109
H -1.4809407731 -2.4175625446 0.3587745776
H 1.2606018889 -3.6709829456 -0.0402613780
H -0.0165141493 -1.3988764285 -1.6526781801
H 1.5858727226 -2.0852945366 -1.9825487329
H 0.1412671260 -3.0895206599 -2.1503245025
H 2.3871685014 -1.7485392766 1.2125069660