20

C -0.1899989845 1.4117266436 -0.1657638405
C 1.2458433106 1.0319659460 0.0963044937
C 0.1821170281 -0.0367083126 0.0443297790
C -0.2339207166 -0.7703359677 1.3000851783
C -1.6629148669 -1.3008284186 1.1901539239
O -2.0488277445 -2.0337875662 2.3623124331
C -1.0731868266 -2.7780331504 2.9387369300
N 0.1608299003 -2.8358034240 2.6730987842
C 0.6831578832 -1.9587813948 1.6278953605
H -0.7313949302 1.9158017192 0.6283572684
H -0.4648856389 1.7349634651 -1.1634987804
H 1.9541451552 1.0942851436 -0.7220521375
H 1.6649193585 1.2808261034 1.0657492827
H 0.1831215561 -0.6580427657 -0.8492580060
H -0.2046252053 -0.0697739163 2.1460105023
H -2.3920233216 -0.4938770488 1.0867889740
H -1.7581116771 -1.9637815084 0.3189565034
H -1.4991602236 -3.3803252259 3.7394479102
H 0.8597695137 -2.5585212260 0.7233793946
H 1.6679540100 -1.6002605856 1.9468022462