17

N 0.0829201680 -1.1258753561 -0.0022315692
C 0.0458133340 0.0299142265 -0.0052450088
C -0.0010145778 1.4755979666 -0.0025725076
C -0.9860725739 2.1688309083 0.9892568922
N -1.5354713500 3.0516388758 -0.0884542490
C -0.3787896462 3.6109125994 -0.8543844407
C 0.9998907907 3.6713831185 -0.2064876178
C 1.3681910679 2.1867414910 0.0458203274
C -0.8075208021 2.2238258933 -1.1090564721
H -1.7804583367 1.5055498580 1.3340129924
H -0.5393419561 2.6843948714 1.8459455923
H -0.6937874490 4.4067153253 -1.5202421173
H 1.7150401635 4.1564614761 -0.8759704164
H 0.9819893809 4.2574806821 0.7180973733
H 1.8706862615 2.0217455987 1.0029591942
H 2.0149810338 1.8004439317 -0.7475621299
H -1.2721600582 1.8036758836 -1.9923053228