19

C 0.0693208206 1.4711335082 -0.3439826107
C -0.0908349348 0.0327732288 0.0932044792
C -1.3073988980 -0.6608162048 -0.4895313830
O 1.1039972101 -0.7854615191 0.0766733375
C 0.4782352500 -0.5430911918 1.3312803896
C 1.3297311983 0.0602375305 2.4511171281
N 2.2945965350 -0.9069244736 2.9971194658
C 2.0783458961 1.2757958650 2.0981035423
N 2.6809079302 2.2312101142 1.8580452774
H 1.0133150835 1.9052150574 -0.0231171263
H 0.0217490885 1.5224914494 -1.4370764036
H -0.7509794591 2.0808985037 0.0499173755
H -1.2628051106 -0.6404124752 -1.5834304395
H -1.3605372554 -1.7039941068 -0.1688020333
H -2.2271502793 -0.1514773245 -0.1829397736
H -0.0546665416 -1.4122163758 1.7330999995
H 0.6488103423 0.3366618307 3.2672658227
H 1.7883856061 -1.7056047175 3.3694605486
H 2.8727908581 -1.2553945989 2.2361662041