21

C -0.1218625160 1.5051032005 0.0001105677
C -0.0129438551 0.0112976892 0.0239212024
C -0.0552315694 -0.9310719355 -1.1634290171
C 1.1704929964 -1.8426890608 -1.2123213132
C 1.8994020930 -1.5495622956 0.1290542091
C 0.8177624994 -0.8860547698 0.9935010196
C -0.4342974196 -1.8165909186 1.1586683008
C -1.0579752216 -1.0792449664 -0.0217735473
O -2.4182548441 -0.9025231335 -0.2222493051
H 0.8219274878 1.9755444139 -0.3009406652
H -0.8939316682 1.8235392465 -0.7075030151
H -0.3923870505 1.9045226573 0.9844780283
H -0.4931149392 -0.5546190959 -2.0826326990
H 0.8923373359 -2.8991748444 -1.2989550349
H 1.8016319416 -1.6119732560 -2.0761662539
H 2.3133462246 -2.4504228194 0.5935223729
H 2.7300717951 -0.8528445768 -0.0321298009
H 1.1829137146 -0.4271729679 1.9131788981
H -0.2729051176 -2.8993478487 1.0824895062
H -0.9803910087 -1.5991784794 2.0804810675
H -2.7478409686 -1.6419531486 -0.7447986308