19

C -0.9596913415 1.6880882253 0.9863546574
N -0.8591660357 0.3110293502 0.5621275985
C 0.1716633620 -0.4088034429 0.7431197371
N -0.0015263189 -1.7315849379 0.2443640421
C 0.7779402260 -2.8447975613 0.2350176904
O 1.9128529633 -2.9699551146 0.6617320588
C 1.4952796965 -0.0376666276 1.4151355494
C 1.5724934499 -0.5959590312 2.8452551446
O 2.6134626932 -0.3695678079 0.6284315313
H -0.0148836938 2.1838052296 1.2421805348
H -1.4424686146 2.2635738760 0.1895536738
H -1.6192122635 1.7490013003 1.8611473339
H -0.9213780039 -1.8293239647 -0.1677784740
H 0.2407036981 -3.6918682356 -0.2269301296
H 1.5046124680 1.0529088566 1.4778246160
H 1.5829590602 -1.6886401379 2.8424079995
H 2.4993755266 -0.2466913651 3.3084562770
H 0.7269884913 -0.2520088711 3.4500238474
H 2.6855629968 -1.3407656701 0.6462668414