20

N -0.1216464207 -1.1483318274 -0.1243308874
C -0.0871757377 0.0030835071 -0.0233792188
C -0.0303179763 1.4546349965 0.1162487316
C -0.5113827646 1.9734980826 1.4965624627
C 0.0349214056 3.4116594426 1.5327781868
C 1.4176240261 3.3253310760 0.8679425278
C 2.5485326462 2.6731303025 1.7175061566
C 2.5178441838 1.4115781605 0.8090549813
C 1.3910432568 2.0510291224 -0.0508954378
H -0.6768724422 1.8855739396 -0.6584968691
H -1.5964800529 1.9126938095 1.6066500853
H -0.0684367256 1.3660534226 2.2925209435
H -0.6201042014 4.0693317671 0.9486823699
H 0.0793055667 3.8173062768 2.5482794991
H 1.7033476001 4.2614297047 0.3847375880
H 3.4934835545 3.2204909112 1.6985774763
H 2.2830362590 2.4971689766 2.7641825845
H 3.4410472615 1.2296530008 0.2552789102
H 2.2396730071 0.4789034149 1.3066117254
H 1.6419001039 2.1861880435 -1.1038182560