16

C -0.1269636622 1.4940487095 0.0467634788
N -0.0767020395 0.0501864487 -0.1217418786
C -1.1668568510 -0.7537960527 -0.0343558857
C -1.1581950109 -2.1224556905 0.0464627125
N -2.3261759266 -2.8238852988 0.0832903550
C -3.4494132622 -2.1795075531 0.0429386986
C -3.5531984270 -0.7314170753 -0.0364490397
N -4.5670412962 0.0315954735 -0.0808081007
O -2.3214662801 -0.0701910823 -0.0632051216
H 0.8336208025 1.9095982766 -0.2632372159
H -0.9106261339 1.9150173449 -0.5844100248
H -0.3245548269 1.7931368243 1.0844903017
H 0.8051134274 -0.4058434110 0.0442525165
H -0.2278159395 -2.6752504842 0.0774069195
H -4.3798776359 -2.7410691740 0.0736072516
H -5.4171083880 -0.5291918556 -0.0535581873