18

C -0.3473300299 0.6915260995 -0.2934929117
O -0.0544623969 0.4720106249 1.0755795341
C 1.0708429792 -0.3526150847 1.2861421322
C 0.8012583928 -1.8147953284 1.0610851602
N -0.2329505263 -2.5483963593 1.8744371044
C 1.1459575111 -3.0331302205 1.8892560696
C 1.2760517165 -3.9347824406 0.6534843056
C 0.9655702954 -2.6616770928 -0.1862540202
O 1.0288695128 -2.4025542437 -1.3530615228
H -0.5192468116 -0.2443592951 -0.8401457943
H -1.2514060535 1.3032641355 -0.3291665213
H 0.4714214083 1.2324907868 -0.7921260791
H 1.9136757302 -0.0364431218 0.6509411810
H 1.3642763358 -0.2019834075 2.3323258634
H -0.3901873801 -1.9644821104 2.6975677315
H 1.7441065779 -3.0591371583 2.7909827322
H 2.2903439686 -4.2885566833 0.4481986253
H 0.5649591797 -4.7604849801 0.5898944801