16

O 0.1979096673 -0.0265342522 0.0505669908
C 0.0928863757 1.1628292140 -0.0613052938
N -0.9555965988 1.9606005069 0.3328156340
C -0.8483654778 3.3333312283 -0.1087835152
C -0.9389088655 4.3753705285 1.0352359413
C 0.5047366695 4.6757538374 1.3554992365
C 1.3538884348 4.1235723660 0.4921901376
C 0.6424682479 3.3374329469 -0.5760620638
O 1.0526336190 1.9597470689 -0.6235230992
H -1.8287787146 1.5199907167 0.5670330287
H -1.5513700506 3.5561190269 -0.9192976547
H -1.4710174301 5.2774307844 0.7068506239
H -1.4900063258 3.9806691063 1.8961926698
H 0.7913139952 5.2951705627 2.1983303613
H 2.4333190742 4.2095854860 0.5096619148
H 0.7922884095 3.7456581421 -1.5800148420