14

O -0.0460589361 1.4447079749 -0.0627388984
C -0.0399758414 0.0458179457 -0.0265184796
C -0.0255868729 -0.6703158453 1.3836541851
C -1.4729290842 -0.0996479213 1.5820519747
C -1.4617893991 -0.5962853136 0.0740633067
O -2.4588010373 -0.5273637935 -0.8594341508
C -0.7320493641 -1.8104154287 0.6512357009
O -0.7710823708 -3.0024919719 0.5827636120
H 0.8545611707 1.7537919352 0.0762456235
H 0.6281146689 -0.3792372464 -0.7847585430
H 0.7824140417 -0.7039316862 2.1065256337
H -2.1260500321 -0.6259616632 2.2785377288
H -1.5179150567 0.9814149114 1.6851029562
H -2.8002636365 -1.4182451273 -1.0016415497