22

C -0.4655833541 1.4049776156 0.1233804804
C 0.0409892857 -0.0441943172 0.0918539468
C 0.7458706508 -0.3644746992 -1.1955494904
C 0.0678957115 -0.8762532461 -2.4050305379
N 0.9983848424 -1.7844962640 -1.7060043003
C 2.3650226684 -1.3450857416 -2.1593802551
C 2.1629271740 0.0693165699 -1.5427285334
O 2.2388475295 1.2096620977 -2.3605834270
C 3.5637218357 1.5907955772 -2.6607615802
H 0.3554128737 2.1123979597 -0.0307065300
H -1.2010687885 1.5802221398 -0.6681986670
H -0.9372354974 1.6355290329 1.0832324764
H 0.7233576692 -0.2184628907 0.9339462624
H -0.7941380542 -0.7421200976 0.2212164128
H -0.9719568684 -1.1695448581 -2.2942014755
H 0.3348584882 -0.4976048999 -3.3887577992
H 3.1394202292 -1.9431830632 -1.6750473997
H 2.4997347369 -1.3789976634 -3.2457845595
H 2.7812475394 0.2066385039 -0.6425091799
H 4.1371203202 1.8201387053 -1.7487140231
H 4.1021039768 0.8081731100 -3.2164531623
H 3.5120331910 2.4888407291 -3.2806897984