18

O 0.8928949420 -0.7597229095 -1.1863232933
C 0.2097623170 -0.4695846453 0.0109291126
C -1.3176809614 -0.5020654648 -0.1470438295
C -2.2047176287 0.4721559020 0.6722968817
C -2.8739526594 0.8282818556 -0.6513557263
C -1.9427267527 1.3618664365 -1.6769744049
C -0.8423600655 2.3448831401 -1.4736629245
O 0.3316131241 2.1031609111 -1.3142888944
N -1.9691399135 -0.0884496998 -1.4658560402
H 0.8956003101 0.0696005963 -1.6805211806
H 0.4884905441 -1.2423617711 0.7377206459
H 0.5266214686 0.4951867571 0.4245374978
H -1.6655529716 -1.5294180101 -0.0153573092
H -2.8736159119 -0.0188819562 1.3801594354
H -1.6915172982 1.2900834088 1.1871750722
H -3.9464419738 0.8573843276 -0.8180364529
H -2.4620096465 1.6123719547 -2.6065925591
H -1.1926994626 3.3983486069 -1.5455167707