20

O -0.0642032250 1.1713090406 -0.8258156631
C -0.0287954631 0.1556294164 0.1632387588
C -1.3311616946 -0.6059845249 0.1939528248
O -1.5447892014 -1.5175879101 -0.8982212912
C -1.4750838380 -2.0503506089 0.4322430864
C -0.3439733688 -3.0005467949 0.7464444075
N -0.7274634705 -4.3567471367 0.3695614013
C -0.4709321778 -4.7256975458 -1.0213466520
C 0.3664222180 -5.2777969437 0.0787704456
H -0.2587350246 0.7360823069 -1.6636634869
H 0.8156451476 -0.5281716041 0.0041305451
H 0.1261507073 0.6657103073 1.1204557454
H -2.1969445879 0.0241792787 0.4065645574
H -2.4381134786 -2.3941694166 0.8126347663
H 0.5784446957 -2.6706996255 0.2420435587
H -0.1556922401 -2.9906649756 1.8279244019
H -1.2344244686 -5.3366342244 -1.4933720966
H -0.0217627069 -3.9757694841 -1.6685969102
H 1.3856409351 -4.9039105341 0.1652151057
H 0.2266588121 -6.2983916103 0.4230076051