17

C 0.0798535514 1.4603728463 -0.1252079404
N -0.0440685643 0.0087593358 0.0538094058
C 0.6466220119 -0.5062940169 1.2315832351
C 0.8183235292 -2.0652244751 1.1861898952
N 2.2563663221 -1.8439934304 1.0317408449
C 2.2124094117 -0.4798460190 1.0206255294
O 3.0400125103 0.3765540253 0.8759943744
C 0.1876381601 0.0232879514 2.5106918555
C -0.2187717632 0.4811838683 3.5464191330
H 1.1345909804 1.7163045540 -0.2444033682
H -0.4524019857 1.7431123933 -1.0373429076
H -0.3225596385 2.0456665725 0.7153334012
H -1.0280583207 -0.2339222531 0.1312817361
H 0.5397111210 -2.5900743310 2.1031565889
H 0.3355518563 -2.5140234264 0.3136335715
H 3.0142357501 -2.4781925445 0.8274889297
H -0.5643283521 0.8882793295 4.4646481954