18

O -0.0674352973 1.4846500074 0.0107439607
C 0.0380337541 0.0693817736 0.0020690692
C -1.3733475847 -0.5030577842 0.0124015475
C -1.3890768522 -2.0332714183 0.0042286792
C -2.8113560179 -2.6020395210 0.0146788962
C -2.8386554024 -4.1152073396 0.0067000176
F -2.2135239651 -4.6314911196 1.0793896661
F -4.0976565111 -4.5819114796 0.0161574471
F -2.2341345730 -4.6197133960 -1.0832674064
H 0.8205750907 1.8534717819 0.0043778749
H 0.5766369985 -0.2859794846 -0.8919057608
H 0.5935155501 -0.2955946550 0.8817265035
H -1.8956793091 -0.1220835863 0.8985753442
H -1.9124303558 -0.1125276836 -0.8594652512
H -0.8630932499 -2.4093074296 -0.8812068101
H -0.8463656794 -2.4188656314 0.8753425783
H -3.3591136526 -2.2734589212 0.9039225829
H -3.3759165430 -2.2638553830 -0.8603418388