21

C 0.3997429533 1.4754922362 0.6591731740
O -0.2012146249 0.3538250448 0.0499635851
C 0.7245231368 -0.5032306719 -0.5607169802
C 1.6277056379 -1.4313530361 0.3220710250
C 1.1363907173 -2.6382635523 -0.5142474269
O 0.0663872485 -3.3477101307 0.1298624930
C -0.9406506415 -2.6040527308 -0.6158572859
C -2.0374796939 -2.0367003885 0.2617472577
C 0.1423168709 -1.7302814309 -1.2983797387
H 1.0855944248 1.1858264299 1.4688760485
H 0.9629994887 2.0773511101 -0.0714400882
H -0.4023005110 2.0870804525 1.0787330853
H 1.3532627586 0.0729460752 -1.2590841358
H 2.6974397478 -1.2129034826 0.2746358889
H 1.3132369045 -1.5134055355 1.3647208558
H 1.8762471322 -3.3009715758 -0.9696122448
H -1.3887875195 -3.2717618638 -1.3668412397
H -1.6387106957 -1.3598668635 1.0166025691
H -2.7603057442 -1.4837800754 -0.3475075476
H -2.5657770211 -2.8589051103 0.7560843387
H 0.0799652207 -1.6595362005 -2.3836960633