23

C 0.1140871399 1.4415967240 0.2739764915
O -0.0100405073 0.0493834466 0.0866377058
C 0.7642991517 -0.4438396442 -0.9992561598
C 0.5890169684 -1.9500864288 -1.1151413577
C 1.0186495277 -2.6676973035 0.1740260724
O 0.1265489542 -2.4743615301 1.2523579384
C -0.7890614254 -2.4606762634 -1.6355720593
C -0.0458273228 -3.3760327585 -2.6463225021
C 1.2608926318 -2.5799373321 -2.3747580490
H 1.1519431142 1.7299871110 0.5000969193
H -0.2116808704 1.9954853523 -0.6192676883
H -0.5245497233 1.7186598305 1.1157304894
H 0.4478719611 0.0518044759 -1.9320494359
H 1.8293434674 -0.1974602602 -0.8414130969
H 1.0585078930 -3.7491254616 -0.0019558420
H 2.0451582244 -2.3488193057 0.4315781581
H -0.0500434914 -1.5245717792 1.2848029176
H -1.4246611157 -2.9381033911 -0.8878705810
H -1.3632458412 -1.6708198920 -2.1284837970
H 0.0176781260 -4.4130454719 -2.3075308149
H -0.4117960804 -3.3783921315 -3.6753348259
H 1.4658063454 -1.8361261934 -3.1512712754
H 2.1767917127 -3.1530421332 -2.2022372975