18

C -0.1473188484 1.5039455605 -0.0726898367
N 0.0739848674 0.0755916072 0.0136363584
C 0.7482163407 -0.5456073100 -1.1548681672
C 1.3279521211 -1.9025742955 -0.6520184006
C 1.4784611615 -1.5966186195 0.8098820502
N 2.0713975404 -2.1372543081 1.8615417226
N 1.7099628723 -1.3144732496 2.8714638507
C 0.9081747291 -0.2636098532 2.4811380566
C 0.7407133045 -0.4437628135 1.1284996096
H 0.7914698103 2.0835196072 -0.1364696745
H -0.7498341924 1.7298987440 -0.9579581202
H -0.7033030922 1.8459513756 0.8052579868
H 0.0435681966 -0.6595014814 -1.9837272434
H 1.5743481754 0.1010769224 -1.4976113527
H 0.6149435462 -2.7196375647 -0.8169837320
H 2.2564110176 -2.1647215729 -1.1648668808
H 2.0818598070 -1.4832643666 3.7893935541
H 0.5616156731 0.4721021781 3.1874640291