22

C 0.1300496195 1.0617272968 -0.7793165752
C -0.2346177205 0.4885141503 0.6024712583
C -1.4970560051 -0.2429792116 0.6089641671
C -2.5460783724 -0.8379363264 0.5808958559
C -3.8038436039 -1.5350501633 0.6167666455
C -4.4184150750 -2.0612547877 -0.6479433355
N -3.9093786234 -2.9832918218 0.3523155710
C -2.6901799105 -3.7177617858 0.0182212943
C -3.0423137899 -5.0221159893 -0.6914751362
H 1.0814360791 1.5999159044 -0.7305705766
H 0.2242117439 0.2619481406 -1.5189744513
H -0.6409301323 1.7539819441 -1.1282061663
H 0.5708105620 -0.1717389353 0.9497058216
H -0.2880615432 1.3041709713 1.3351678870
H -4.4785970412 -1.2033360741 1.4034255560
H -5.4973197377 -2.0336945938 -0.7771403155
H -3.8391636207 -1.9202051856 -1.5593967373
H -2.0029163104 -3.1201300380 -0.6014314009
H -2.1667864320 -3.9286501813 0.9578370436
H -3.7059364443 -5.6322146071 -0.0722352170
H -3.5517381380 -4.8271814072 -1.6411240754
H -2.1374901241 -5.5989316092 -0.9065168130