19

C -0.1329566888 1.5017024453 0.0038132866
C 0.0133819976 -0.0123666378 0.0240243168
C 0.6836966068 -0.5427449632 1.2867281849
O -1.3359307283 -0.5490646557 -0.0730513509
C -1.4772157984 -1.7738835543 -0.6085606843
O -0.5687217273 -2.4598518517 -1.0103018636
C -2.9493023355 -2.1819204368 -0.6469008331
N -3.2128249561 -3.4977818513 -1.2012515057
H 0.8527968596 1.9744638793 0.0444746383
H -0.6366111491 1.8315229979 -0.9087530280
H -0.7160484382 1.8472745432 0.8631932569
H 0.5643580909 -0.3596355666 -0.8545358985
H 0.1101128717 -0.2602095928 2.1753138316
H 0.7678316585 -1.6308874987 1.2474739054
H 1.6908919697 -0.1247135994 1.3802284552
H -3.3420105842 -2.1205461782 0.3747981493
H -3.4941222953 -1.4200433394 -1.2167928628
H -2.8190860033 -3.5446770410 -2.1372800182
H -2.6897746505 -4.1891166488 -0.6703788599