18

C 0.2185261167 0.9051983571 0.9827765467
C 0.0242836402 0.2339105135 -0.3610338176
O 0.8806289922 0.2122691300 -1.2174667414
C -1.3129982189 -0.4539578856 -0.5633718226
C -1.5296690693 -1.3725708803 -1.7568790417
C -0.6860160728 -2.4852437939 -1.0636513412
C -1.7799156347 -3.5486644092 -1.1847456996
C -2.5008274707 -2.2315653178 -0.8903057852
N -1.4169983973 -1.8187885690 0.1465657098
H 1.2450504816 1.2593271415 1.0831677803
H -0.4715926866 1.7513762677 1.0827384368
H -0.0237393633 0.2007091834 1.7860421818
H -2.1411745281 0.2061229568 -0.2729613442
H -1.5940139714 -1.1431084642 -2.8234781999
H 0.3975861450 -2.5913310921 -1.0658670705
H -1.9345955496 -3.9852986076 -2.1742783999
H -1.8112524767 -4.3044709529 -0.3956518849
H -3.5536629062 -2.0340854175 -0.6796063168