19

C 0.5255580769 0.6093410038 0.3207758333
N 0.2769463701 -0.5813225193 -0.4839570127
C 1.1076645063 -1.6942101192 -0.0419629916
C -1.1264248795 -0.9576155464 -0.5420700521
C -1.9527880644 -0.0361357610 -1.4687284013
C -3.1049393403 -0.7854935269 -2.1741201269
O -3.1709783058 -1.9799805543 -2.2479567138
C -2.4966748564 1.1607701003 -0.8299745123
N -2.9697177313 2.0921909620 -0.3345967450
H 1.5886471618 0.8627481911 0.2732111732
H -0.0388881873 1.4625416712 -0.0624209517
H 0.2521940886 0.4733414499 1.3839747340
H 0.8949881822 -2.0137799185 0.9954666605
H 0.9598548309 -2.5552218914 -0.7005558431
H 2.1612741619 -1.4033630119 -0.0923469851
H -1.2003100330 -1.9574500959 -0.9761070209
H -1.6064225186 -1.0001961563 0.4525718091
H -1.2844086275 0.2929010082 -2.2801233762
H -3.8621937347 -0.1222165256 -2.6394426175