27

C 0.3603160051 1.4232542626 0.1310337338
C 0.2214102580 -0.1060988720 0.1520013081
C -1.2153685499 -0.6446332161 0.1215698572
C -2.0551453066 -0.0425550101 1.2554105128
C -2.0195188541 -0.5889157924 -1.2364218298
C -1.2539762703 -0.3279423103 -2.5321370488
C -2.4216179341 -2.0784887192 -1.0283139371
C -1.3822330243 -2.2137092048 0.1211759458
C -0.1671383063 -3.0754600769 -0.2161198694
H 1.4140183775 1.7112725767 0.0595885944
H -0.1612791180 1.8675299239 -0.7228533250
H -0.0425873215 1.8829192854 1.0381343099
H 0.7878978622 -0.5213452135 -0.6879349162
H 0.7116754714 -0.4893095630 1.0577480389
H -2.1858387980 1.0375588364 1.1352339348
H -3.0541997327 -0.4905310673 1.2831474165
H -1.5857438411 -0.2204191602 2.2306650486
H -2.8648131376 0.1064804953 -1.1888831531
H -0.4043506070 -1.0071775834 -2.6563670280
H -1.9164036998 -0.4807823198 -3.3919871587
H -0.8720284996 0.6963816443 -2.5892642524
H -3.4568606445 -2.2161857670 -0.7063992341
H -2.2472271915 -2.7297859610 -1.8908009751
H -1.8096105527 -2.5793599983 1.0616012462
H 0.2873816424 -2.7997541661 -1.1731518204
H 0.6092609333 -3.0060660242 0.5531640783
H -0.4647560306 -4.1275789392 -0.2910923572