19

O -0.1332656727 1.4102516071 -0.0858512102
C -0.0494628869 0.0200718220 0.0451205674
C -0.5260666058 -0.6451714807 1.3173840301
C -1.3425395082 -0.7247729914 0.0379894964
C -2.6834172812 0.0080751150 -0.0561089458
C -3.7220343630 -1.1210116563 0.0393186850
C -3.0289618194 -2.3572638524 -0.5460285199
O -3.5625379524 -3.3919829785 -0.8488600465
C -1.5290759214 -2.0498475904 -0.6835251713
H 0.5575308412 1.8033461334 0.4576743092
H 0.7963953833 -0.4364465428 -0.4713299600
H -0.0047806274 -1.5319532024 1.6645439240
H -0.8947021358 0.0076680371 2.1024029357
H -2.7991862477 0.7733904458 0.7124561628
H -2.7590622586 0.5139108506 -1.0260699507
H -3.9571940287 -1.3535878977 1.0864276530
H -4.6704158202 -0.9272053926 -0.4668687683
H -1.3096682173 -1.9599635720 -1.7569898147
H -0.9261841275 -2.8776857236 -0.3016977563