19

C -1.4339227010 1.4374224847 0.4722001860
C -1.6145019289 0.1006552112 -0.3378432381
C -0.7734997929 -0.6344334180 0.7565116489
C 0.3031681126 -1.5659344941 0.2284898654
C 1.6040418448 -0.7549355002 0.2006406961
C 1.4016231087 0.6076310265 0.9037977008
C -0.0567217574 0.7316150855 0.5113190940
C -0.2181585462 0.3520940589 -0.9952980803
C 0.7043183247 -0.8533152923 -1.0369295392
H -1.9816948999 1.5152739509 1.4157466854
H -1.5016422578 2.3680438555 -0.0985470475
H -2.5341675805 -0.2385459009 -0.8204058974
H -1.2169943992 -0.8215853088 1.7362626607
H 0.2953987588 -2.6429814993 0.3306009090
H 2.5649099804 -1.2560964593 0.2230197334
H 2.0465357831 1.3872341064 0.4856724168
H 1.5717609869 0.5438021267 1.9833812165
H -0.1134529559 1.1387868515 -1.7448157914
H 1.0145825495 -1.3653908148 -1.9380578491