22

C -0.5758064095 1.9533823686 -0.2500437405
C -0.7760195112 0.4881166984 -0.6259425932
C -1.8962372958 -0.1961621619 0.1460363808
O -2.6448623099 0.4168347826 0.8770538724
C -2.0014169295 -1.7103834762 -0.0320024436
C -1.4871757785 -2.4503751700 1.2500690892
C -2.9804123162 -2.6835843828 1.5849408411
N -3.3091755469 -2.3422119729 0.1925173552
C -4.5629101128 -1.7015791537 -0.1455181176
H 0.2141961481 2.4060702773 -0.8556244531
H -1.4981615127 2.5198511550 -0.3989169328
H -0.3020426799 2.0531121978 0.8039062955
H -1.0105479321 0.3814897385 -1.6951725495
H 0.1436929368 -0.0970434249 -0.4835968062
H -1.5254414410 -2.0013869822 -0.9778702690
H -0.9443157655 -3.3648001919 1.0086934472
H -0.9117221153 -1.8542285484 1.9589343862
H -3.2795083901 -3.6936480804 1.8894692629
H -3.3599783054 -1.9600297389 2.3206581797
H -4.7503659029 -0.7676193661 0.4030796796
H -4.5815667941 -1.4818983631 -1.2193288517
H -5.3816822156 -2.4010652549 0.0585571174