18

O 1.9325154679 4.1597662889 -0.0680031631
C 1.0531896522 3.3303248474 0.0072939963
N 1.2120166223 1.9720616417 0.0004817195
C 2.3990256415 1.2201941464 -0.1009215656
C 2.3481801810 -0.1120390350 -0.2114489032
C 3.5903729950 -0.9449336846 -0.3657005488
C 4.7695666278 -0.0451322527 -0.7363009871
O 4.8146256509 1.0843211349 0.1165997778
C 3.7227665309 1.9603381029 -0.0687337484
H -0.0189946178 3.5956760472 0.0934329060
H 0.3580202367 1.4329151798 0.0308358073
H 1.3866447496 -0.6214049084 -0.1991374223
H 3.8109169237 -1.4896141147 0.5630624802
H 3.4457450192 -1.7065626430 -1.1429231123
H 5.7249922170 -0.5625441782 -0.6141625733
H 4.6834769548 0.2719961881 -1.7888266139
H 3.8399724242 2.5551942633 -0.9881153843
H 3.7443176230 2.6672639260 0.7623016655