12

O -0.0671839773 -0.0456954904 0.0054227895
C -0.0066637510 1.1570658771 0.0099616514
C -1.2114817299 2.1113103617 0.0310142528
C -0.7959632132 3.3888805034 0.0310197097
C 0.6774828566 3.3396066522 0.0102774733
C 1.1693352196 2.0676556386 -0.0022938289
C 2.5677649630 2.2693085181 -0.0207903965
N 2.8784542068 3.5492923316 -0.0194119291
O 1.6310318309 4.2471988548 0.0010425334
H -2.2285593968 1.7450187994 0.0434878822
H -1.3947069278 4.2885916647 0.0433925509
H 3.3752526091 1.5510977989 -0.0352255387