14

O -0.2283829820 0.1802584260 0.5336152129
C 0.0326675569 1.0932599642 -0.2006988177
C 1.3432792267 1.8590563169 -0.1348049468
O 1.3112159376 2.8576914344 -1.1368679378
C 2.4097148807 3.6382139818 -1.2174015839
C 3.5716286049 3.6522639350 -0.5050698559
O 4.3683983277 4.6358145493 -0.9736928810
N 3.7312531086 5.2888893494 -2.0137034782
C 2.5730127914 4.6962790954 -2.1551475264
H -0.6611389464 1.4552902034 -0.9898211858
H 1.4570951308 2.3022091754 0.8659823680
H 2.1809468085 1.1630732306 -0.2923728411
H 3.9626992289 3.0698703751 0.3116386691
H 1.8804930457 5.0284428131 -2.9143752454