16

C 0.0177328830 1.5146414758 0.0087069143
C 0.0591576188 -0.0040962216 0.0034190259
O 1.1158145836 -0.6123251609 -0.0070911180
C -1.2300903308 -0.7073969558 0.0112309172
C -1.3386155344 -2.0540876448 0.0076268165
N -2.6572609922 -2.4641943121 0.0167855908
C -3.5353368189 -1.3768043537 0.0273097861
O -4.7374093334 -1.4486576591 0.0368081138
C -2.6295174530 -0.1340773783 0.0241239551
H 1.0356817219 1.9047926665 0.0011147366
H -0.5259811210 1.8906451275 -0.8657393028
H -0.5104877251 1.8847545294 0.8950948902
H -0.5308436196 -2.7716736417 -0.0011070906
H -2.9789420519 -3.4187542284 0.0164691756
H -2.8565695639 0.4751467756 0.9063831828
H -2.8704347831 0.4806501316 -0.8506194135