19

C -0.1944912240 1.4170882465 0.3498671690
C 0.0772226197 -0.0461560444 0.1034311410
O -1.0450805269 -0.7947462220 -0.2822895177
C 1.4150104992 -0.5112244556 -0.4343810837
C 1.0002281732 -0.8310234106 0.9888523902
N 1.7112727189 -0.1820515581 2.0502335585
C 1.0786690643 0.0451052893 3.2625499853
N 1.9512976493 0.4138736996 4.2822214550
O -0.1172960990 -0.0801584044 3.4288724784
H 0.7045758207 1.9320004623 0.6959177149
H -0.5314965419 1.9075329239 -0.5716136335
H -0.9720342216 1.5238880101 1.1106797665
H -1.3196850591 -0.4833285427 -1.1519107900
H 1.4177620486 -1.3302716177 -1.1441813607
H 2.1957157488 0.2297406964 -0.5725777182
H 0.6676692953 -1.8486505227 1.1816970127
H 2.7009445792 -0.3783702264 2.0916146701
H 2.7773159291 0.9334228734 4.0242198160
H 1.4654696061 0.7935919031 5.0808373563