20

C -0.1474155987 1.4121819856 -0.2554076636
C -0.0584222896 -0.0957631646 0.0117892550
C 0.8918181121 -0.4177561946 1.1749415400
C -1.4345621480 -0.6699145098 0.3015218697
O -2.3921446042 -0.4374150880 -0.8072133394
C -2.5006455765 -1.7806629601 -1.0532353423
N -3.0491956750 -2.4271062081 -1.9780606365
C -1.6502322537 -2.2007680632 0.1273714001
O -0.5185700774 -2.9784426984 -0.1683210533
H 0.8360000306 1.8139197183 -0.5182835722
H -0.8371158427 1.6273668823 -1.0756043581
H -0.4999302985 1.9493989636 0.6332507927
H 0.3188771867 -0.5955968021 -0.8880877831
H 1.8879847877 -0.0110824448 0.9757000818
H 0.5352281332 0.0289778566 2.1108834362
H 0.9879513869 -1.4965241527 1.3198707399
H -1.8563973175 -0.2560326388 1.2232666799
H -3.4946495733 -1.8138142358 -2.6625048828
H -2.2336720905 -2.6443468748 0.9443563486
H -0.7366699618 -3.5145379106 -0.9396906427