21

C -0.5454597364 1.4005940275 -0.0477127929
C 0.2204202042 0.0811321638 -0.0418117074
C 1.4023301169 0.0058070774 -1.0163795943
O 2.2077781863 -1.0808381307 -0.5617633716
C 1.9167451995 -1.3608218396 0.8187726464
C 3.2458365853 -1.4203353487 1.5648052631
O 4.1100160241 -2.3720181602 0.9763071254
C 0.9139704032 -0.2846859693 1.2828645520
O 1.5367302006 0.8918445156 1.7867612379
H 0.1056816336 2.2299827328 0.2357652646
H -0.9559069321 1.6043708607 -1.0421438249
H -1.3823858891 1.3733328298 0.6571572124
H -0.4639325818 -0.7432282567 -0.2787426885
H 1.0979268900 -0.1978268865 -2.0480531621
H 1.9768528637 0.9432862391 -1.0007348058
H 1.4424881946 -2.3523222831 0.8714478052
H 3.6970418839 -0.4173541373 1.5710487410
H 3.0865756219 -1.7358243081 2.6036501755
H 4.1173436817 -2.1631522588 0.0340030426
H 0.2082131385 -0.6921596936 2.0191881587
H 1.9272537013 0.6904266759 2.6419166429