21

C -0.2178448220 1.5687579039 -0.1027651489
C 0.1331561647 0.0763246049 0.0520639332
C 0.8199529775 -0.4965678096 -1.1506242751
C 2.0914916171 -0.9243388807 -1.2208922715
C 2.4083022378 -1.4334818397 -2.5670191027
O 3.4411384327 -1.9445901844 -2.9402980390
C 1.1624091718 -1.2088338072 -3.4493614472
C 0.7829567718 -2.4704248847 -4.2277373888
C 0.0959652288 -0.6728684850 -2.4716214408
H 0.6834118534 2.1665116009 -0.2685044320
H -0.8949397104 1.7385059509 -0.9449619561
H -0.7102288601 1.9391341990 0.8008186921
H 0.7672997636 -0.0597348209 0.9341116390
H -0.7925538689 -0.4864557535 0.2350282930
H 2.8106443992 -0.9332931590 -0.4106610423
H 1.4348829573 -0.4244980854 -4.1669814241
H 0.4583951812 -3.2669030355 -3.5488480715
H -0.0302323429 -2.2754924624 -4.9335600411
H 1.6503108951 -2.8365058001 -4.7833207803
H -0.7352962532 -1.3809654471 -2.3482057158
H -0.3579984546 0.2654713054 -2.8104094301