19

C -0.1457069274 1.5106325523 -0.0042084686
C -0.0182206229 -0.0108938013 -0.0134554088
O 0.6747501261 -0.3608982046 -1.1999740762
C 0.9983083173 -1.7320873453 -1.2778662274
C 1.8321058510 -2.2157318796 -0.0945266760
O 2.5850595319 -3.1633615727 -0.1958483315
C 1.5936755161 -1.5139807779 1.1907089527
C 2.3458962481 -2.0092774900 2.3925360765
C 0.6802884868 -0.5316971834 1.2152100915
H 0.8439139939 1.9730394440 0.0464261720
H -0.6398967411 1.8450540155 -0.9194900810
H -0.7353835215 1.8429184835 0.8549421431
H -1.0368294827 -0.4484074994 -0.0434624240
H 0.0878710376 -2.3579058121 -1.3308452167
H 1.5633583939 -1.8862574742 -2.1996179805
H 2.1787031486 -3.0807284404 2.5409632845
H 3.4246261227 -1.8855076578 2.2498581245
H 2.0484311527 -1.4717770919 3.2963020061
H 0.4070998787 -0.0616829646 2.1587391499