21

C -0.0538255950 1.4358471193 0.2077956098
C -0.0138880695 -0.0185968243 0.2704001847
C 0.0308426273 -1.2208662548 0.3246721513
C 0.0465268415 -2.6804426647 0.3822608175
C -1.3393342745 -3.2834599673 0.1230453210
C -1.9606061705 -3.3409807554 -1.3091016357
C -0.9937421525 -4.5161340609 -1.6402598129
C -1.5245806247 -4.8010012771 -0.2034634461
C -2.9334782387 -4.4170213853 -0.7433645496
H 0.5733573650 1.8186519179 -0.6052065139
H -1.0730609574 1.8001208322 0.0364898921
H 0.3041769076 1.8863953438 1.1403840162
H 0.7898640636 -3.0655155242 -0.3242977620
H 0.3852442075 -3.0037937380 1.3764248466
H -2.0350217615 -2.9076016272 0.8814247217
H -2.2141394643 -2.4930660756 -1.9464505675
H -1.3268873136 -5.2067929752 -2.4198868709
H 0.0665438042 -4.2887122419 -1.7603839032
H -1.2744379775 -5.6480476105 0.4382404828
H -3.6683009717 -4.0793354508 -0.0070586587
H -3.3772417150 -5.1019019798 -1.4706767735