20

O -0.5001401428 0.4787337153 0.6008568517
C 0.0938384254 0.9108293661 -0.3531930875
C 1.3504920610 1.7454497047 -0.2921123440
C 1.1717030188 3.1014802597 -1.0068687788
C 2.4526380066 3.8837173174 -1.0565707439
C 3.1036301098 4.6545401683 0.1094991052
C 3.6388673296 5.7035501423 -0.9223075117
C 2.9786548670 4.8904064281 -2.0438144804
N 3.4585969694 3.5093052342 -2.0475940746
H -0.2725348273 0.7175016158 -1.3898922976
H 1.6359803305 1.8730037686 0.7560748931
H 2.1481105475 1.1922887763 -0.8076689171
H 0.8266861905 2.9297011790 -2.0328620611
H 0.3988905199 3.6888843488 -0.4961831623
H 2.3754493599 5.0897834356 0.7987556800
H 3.8446492671 4.0980001581 0.6932202347
H 3.1912879963 6.6897944480 -0.7792800157
H 4.7249222267 5.8215093516 -1.0006312162
H 2.5394424497 5.2762297515 -2.9573594498
H 4.3955960341 3.4208547307 -1.6568157938