19

C -0.1678593436 1.5674879142 0.0240392985
C 0.0705646749 0.0629772766 -0.0187017688
C 1.1973735248 -0.5232763913 -0.9376738992
C 1.7883490326 -1.2860137847 0.2590509744
C 2.1549685539 -0.2684935689 1.3417587399
C 0.7168033410 -0.6160158328 1.1850456223
O -0.0871569636 -1.1206547300 2.1814652422
C 2.3089214779 -2.6050154852 0.2442940453
C 2.7257091466 -3.7356783891 0.2297005067
H 0.7566080366 2.1177407823 0.2291008505
H -0.5619077446 1.9274214657 -0.9322792227
H -0.8930420469 1.8253260741 0.8028933632
H -0.8686697003 -0.4559239358 -0.2341854950
H 0.8160775872 -1.1788271502 -1.7216619991
H 1.8706066739 0.2156138251 -1.3860961749
H 2.6405104516 -0.7146759357 2.2060216235
H 2.5586893800 0.7040975668 1.0630849527
H 0.4415571187 -1.2812867930 2.9691085375
H 3.0989007793 -4.7290852283 0.2137451530