15

C 0.0018771245 1.5123007997 0.0412001937
C -0.0114929222 0.0217771566 0.0005601044
C 0.9841813057 -0.9959676717 -0.5028734855
C 0.6164560035 -1.0031349411 0.9590044504
C -0.5100599251 -2.0069363284 0.6041117200
C -1.0577504515 -3.1326384207 1.2755131365
N -1.5041379330 -4.0289491379 1.8561775658
C -1.1157302683 -1.0180830814 -0.3433999876
N -0.1150698398 -2.0006170453 -0.8620450426
H 0.9951355594 1.8786302006 0.3213321228
H -0.2481268345 1.9403073511 -0.9359059085
H -0.7143841488 1.8991189011 0.7743914138
H 1.9322434813 -0.9172922574 -1.0185301257
H 1.2046899208 -0.8495395626 1.8514281269
H -2.1262192321 -0.9553202026 -0.7298203144