19

C -0.1189252930 1.3934540326 0.0047549686
C 0.0188819737 -0.0901728644 0.0055665394
O -1.1057916802 -0.8966640785 -0.3637637744
C -0.3617815150 -2.0312600184 0.1603986922
C 0.5772710057 -1.0700866186 0.9804394613
C 1.2903946739 -0.8856226326 -0.3639694477
C 0.7736860280 -2.2291531723 -0.8828448564
C 1.6848705235 -3.4023446287 -0.5782812758
O 0.9288512568 -4.5927496416 -0.7671559078
H 0.8038456620 1.8599875491 0.3623924649
H -0.3189026437 1.7637930551 -1.0063395452
H -0.9407722336 1.7087600395 0.6550966927
H -0.9836602667 -2.8498394960 0.5126003851
H 0.9021851276 -1.0042487988 2.0096252181
H 2.2400564593 -0.4007190277 -0.5572112509
H 0.4260249981 -2.2767770924 -1.9205504777
H 2.5597602055 -3.3771444397 -1.2472021100
H 2.0596594200 -3.3254254543 0.4551577784
H 1.5077029080 -5.3451768223 -0.6147309247