19

C -0.2761078403 1.5267825825 0.1667453548
C -0.1242137469 0.0170253649 0.0314648989
C 0.6148145847 -0.5348995417 -1.2299168225
C 0.8734736974 0.3435545515 -2.4470758661
O 1.8971415938 -0.2258533769 -3.2470977731
N 1.8385832893 -0.7379708219 -0.4067627339
C 1.0537250465 -0.6277558229 0.8432993644
C 1.6828359388 0.1589286756 1.9053949846
N 2.1607235157 0.7830748007 2.7527872208
H 0.6769122785 2.0478998282 0.0442746971
H -0.9783456495 1.9143603045 -0.5779853988
H -0.6643394130 1.7815877002 1.1575265235
H -1.0805799686 -0.4719178574 0.2251848602
H 0.1713421449 -1.4823156454 -1.5657172599
H -0.0214666762 0.4026430046 -3.0758606034
H 1.1382077866 1.3627016616 -2.1356244536
H 2.7014967792 -0.1891935490 -2.7163311557
H 2.3051572243 -1.6303911235 -0.5259159725
H 0.7563556448 -1.5938892157 1.2721874751