20

C -0.3951116947 1.0525273714 0.1183710479
O 0.5355490838 0.0183035572 -0.1328821946
C 0.9486667644 -0.6312900154 1.0256283145
C 0.1363065799 -1.7083076442 1.7054223075
C -0.5978118244 -2.5621032555 0.6975973724
N -0.0706401003 -3.9296135797 0.6141580772
C 0.6786705123 -2.8569517887 -0.0467412305
C 0.9534186996 -2.9429142722 -1.5183218585
C 1.4671251227 -2.0264547921 0.9543379208
H 0.0309544589 1.8304032731 0.7703283439
H -0.6483702241 1.4989968696 -0.8456542341
H -1.3101059208 0.6681190217 0.5910402235
H 1.4821250049 0.0221833227 1.7228551032
H -0.0343164350 -1.7063822586 2.7774054201
H -1.5871081554 -2.3808845629 0.2945370053
H 0.3570203239 -4.2224732527 1.4905101282
H 0.1406564827 -3.4693193682 -2.0250097777
H 1.0532760637 -1.9403888195 -1.9425104409
H 1.8811699214 -3.4939233671 -1.7133731617
H 2.4273992565 -2.3020518688 1.3788714235