23

C 0.0803512150 1.4901973717 -0.1023772422
C -0.0467441796 -0.0009254618 0.2272504042
C -1.4610802336 -0.5365706567 0.0425026362
C -2.4977452588 -0.0369566997 1.0739989923
C -2.8759175242 -1.2959037142 1.8803347292
C -2.8401368502 -2.4348434297 0.8412008047
C -1.6457007255 -2.0794313519 -0.0638707927
C -1.9296576561 -1.7980498385 -1.5507449670
O -1.9034183077 -0.3719350895 -1.3420158333
H 1.1196062625 1.8219940842 -0.0201025643
H -0.2618107176 1.6793724026 -1.1234203655
H -0.5198346583 2.1079390974 0.5735809773
H 0.6309189320 -0.5737633489 -0.4178615320
H 0.2673801579 -0.1945677672 1.2619894097
H -2.1207375026 0.7696845611 1.7087394627
H -3.3647073614 0.3471202917 0.5275987076
H -2.1223894458 -1.4790754219 2.6568493469
H -3.8413625179 -1.2068828337 2.3868251759
H -2.7510387995 -3.4244645062 1.2977177610
H -3.7693536264 -2.4312347482 0.2589109955
H -0.7608917768 -2.6849164989 0.1442212482
H -1.1421373253 -2.1205428699 -2.2443478699
H -2.8991996399 -2.1435543120 -1.9316971249