19

C -0.1009123190 1.5568994003 -0.0148053717
C 1.4492362437 1.5431630160 -0.0670010371
C 1.4228609207 0.1095545663 0.5536708478
C -0.0677158126 0.0101301474 0.0959973099
C 2.4100117788 -0.9145332351 0.1090184591
C 3.2589445853 -1.6713041358 0.8946261770
N 3.9702407152 -2.4639791689 0.0560059767
N 3.6497736948 -2.2843412519 -1.2385665675
C 2.7064376418 -1.3479105831 -1.2093139297
H -0.4708684071 2.0207084550 0.9044176847
H -0.6343380558 1.9947128234 -0.8614210218
H 1.8176745041 1.5156111163 -1.0968463675
H 1.9960322247 2.3177819336 0.4765781998
H 1.4561697703 0.1926514205 1.6452423379
H -0.7715879284 -0.4791763172 0.7739665520
H -0.1432347775 -0.4660916326 -0.8861418964
H 3.4026303125 -1.7000415844 1.9636900279
H 4.6772658555 -3.1382254001 0.2938791448
H 2.2669317729 -1.0115650197 -2.1376045760