19

O -0.1281188792 1.3433292377 0.0874368030
C 0.0232830147 -0.0277839672 0.0490630211
C -0.2204274997 -0.8535807492 -1.2300411523
C -1.0789457874 -1.0434334398 0.0104288109
C 0.0194318716 -2.0723114747 0.4565358760
C 0.5650736751 -2.1528715441 -1.0066900263
C 2.0912516404 -1.9969184770 -0.9609241886
C 2.3531706904 -1.1387696984 0.3198364124
C 0.9539025797 -0.8991933412 0.9044331845
H 0.5375661654 1.7422826562 -0.4837750999
H -0.4909318120 -0.3618661510 -2.1569451655
H -2.1440942433 -0.9649409268 0.1663433798
H -0.1285951682 -2.9533233767 1.0767537411
H 0.1975308644 -2.9945819963 -1.5978180998
H 2.5809698367 -2.9736339426 -0.8828473604
H 2.4759014453 -1.5218687015 -1.8695263028
H 2.9923018995 -1.6746110855 1.0292320284
H 2.8617785622 -0.1952814296 0.0936206122
H 0.9123144246 -0.6510352223 1.9669522461