17

C -0.1605241102 1.4390185993 0.1269603884
N -0.0230565786 0.0048565210 -0.0072711020
C -0.1035465913 -0.7373491127 -1.1390978657
C 0.1670412056 -2.0466823260 -0.7862739092
C 0.3962694022 -1.9814909641 0.6076166357
N 0.2828009000 -0.7412398141 1.0724936712
C 0.1985648547 -3.2327284356 -1.6610442120
C 1.2605105139 -4.2530368958 -1.5790696943
O -0.0333550688 -4.5028420834 -1.0351005971
H 0.8179240780 1.9303416311 0.1485274127
H -0.7372190788 1.8261620912 -0.7152953438
H -0.6855455287 1.6576825733 1.0580481314
H -0.3441198496 -0.2900602751 -2.0911074811
H 0.6093687030 -2.7969721448 1.2821599759
H -0.3008450740 -3.1167187734 -2.6236192375
H 1.5207057560 -4.8373394850 -2.4615010685
H 2.0592358165 -4.1236596658 -0.8501408643