20

C 0.5273712089 1.7973670296 0.1010778023
C 0.1430919611 0.3098457336 0.0256111974
C 0.6571224417 -0.3242657992 -1.2566511743
C -0.0511912366 -1.5159412455 -1.8723002553
C -0.0982869153 -0.1633464671 -2.5412329072
O -1.2776076779 0.5913464278 -2.4852022912
C 0.7553550215 -0.4345197427 1.2166532811
N -0.1375767780 -1.0341843048 2.0576226425
O 1.9576022741 -0.4932614513 1.3956294925
H 1.6155684774 1.9031079023 0.1073275392
H 0.1186766062 2.3324628992 -0.7594526864
H 0.1390050671 2.2608771464 1.0139394575
H -0.9480074736 0.2249895972 0.0441793488
H 1.7403396584 -0.3179051972 -1.3275040605
H 0.5375050928 -2.3093654875 -2.3195448367
H -0.9662603301 -1.8457753340 -1.3898704224
H 0.4829034700 -0.0256317416 -3.4529009380
H -1.9133082697 0.1944945998 -3.0894612820
H -1.1300553848 -0.9235199507 1.9526385624
H 0.2162242666 -1.4913369143 2.8825471303