20

C 0.0218249332 1.5415872488 -0.0462016460
C 0.0542973551 0.0281485200 0.0416890439
N 1.0206858997 -0.6627779462 -0.8376050513
C 0.5562201378 -1.1798212872 -2.1039235229
C 1.3687782628 -1.6197251250 0.2224991009
C 0.7482211895 -0.6456880116 1.2733475511
O 1.6886824807 0.2479307133 1.8428564293
C -0.1091610232 -1.2345537076 2.2908576488
C -0.7858254414 -1.7265639700 3.1550580952
H 1.0162695316 1.9564738249 0.1241144093
H -0.3249584574 1.8527639329 -1.0375421874
H -0.6671641414 1.9564383393 0.6966042898
H -0.9627124124 -0.3870218505 -0.0615513223
H 0.2482774106 -0.3539818184 -2.7537841274
H 1.3684441111 -1.7137235209 -2.6087838511
H -0.2999970247 -1.8755257519 -2.0036011652
H 0.8161952570 -2.5709860224 0.1671384745
H 2.4397146661 -1.8199199216 0.3370424475
H 2.0628525535 -0.1783281949 2.6211244638
H -1.3938327083 -2.1574037209 3.9119193794