18

O 0.1898794307 1.0953200142 0.5994441803
C -0.1595451922 -0.1272844795 -0.0216968171
C -1.6293631303 -0.0773881621 -0.4646757194
C -1.6930388503 -1.0508023776 -1.6540181314
N -0.2848764885 -1.2625349575 -2.1588620351
C -0.3011477479 -2.7092310926 -1.7922084741
C -1.7563235050 -2.5509804811 -1.3243779209
O -2.5847465985 -3.2787470557 -0.8652596005
C 0.5872185702 -0.4068646156 -1.3502160962
H 1.0841242548 1.0151888424 0.9452724910
H -0.0115974474 -0.9670590642 0.6754963257
H -2.3297499552 -0.3439038665 0.3298779022
H -1.8559217607 0.9431400168 -0.7892176821
H -2.4041913423 -0.7344401839 -2.4237638164
H -0.1519551812 -3.3810488836 -2.6448928120
H 0.3906174164 -3.0065711205 -0.9916264621
H 0.7424939688 0.5538975568 -1.8573429148
H 1.5668750389 -0.8759298397 -1.2140923171