16

C 0.0401963348 1.5467438043 0.1311625555
C 1.5262318605 1.8297959756 -0.0123967294
C 2.3986655473 0.7904441529 0.6795237670
C 1.7329267509 -0.1750582345 1.6457461240
O 0.4414323572 -0.5980626847 1.1921441241
C 0.0476355729 0.0113695572 -0.0140473953
O 0.9944822334 -0.2535289351 -1.0398360866
C 2.0558251766 0.6419564848 -0.7772722398
H -0.3929133912 1.8409330743 1.0901159032
H -0.5284186800 2.0177471894 -0.6770735977
H 1.8907159817 2.8361777627 -0.1754463924
H 3.4120684603 1.0794273152 0.9394827254
H 2.3538829554 -1.0721267265 1.7673490850
H 1.6231415433 0.2865773776 2.6374765097
H -0.9003250511 -0.4470655126 -0.2950370949
H 2.7868049980 0.6814258493 -1.5742029578