17

O 0.2312304474 1.2046647162 0.4287761918
C -0.0011162821 -0.0143042755 -0.2629478130
C -1.3661094929 -0.5181035326 -0.1225704021
C -2.5105622341 -0.8818365432 -0.0212927574
C -3.8956810729 -1.3409099652 0.1269905103
O -4.6976654121 -1.0008956025 -1.0119908941
C -5.1734313803 -2.1831749457 -1.6526911147
C -4.7220100133 -3.3166740559 -0.7769658615
C -4.0047561553 -2.8483779222 0.2348205777
H -0.4611625721 1.8200237724 0.1656137089
H 0.2379141786 0.0795373355 -1.3346000006
H 0.7110993131 -0.7343425235 0.1555526429
H -4.3296888096 -0.8434220053 1.0089585442
H -6.2683142429 -2.1278449296 -1.7439816505
H -4.7645313264 -2.2581427087 -2.6729896507
H -4.9600989659 -4.3531153118 -0.9794732881
H -3.5269921492 -3.4066038023 1.0281655270