14

C -0.0150878871 1.4646300904 0.0681653393
N 0.0247438313 0.0129276969 0.0274943197
C 0.0431714242 -0.7825243177 -1.0641337355
O 0.0246407127 -0.2402428301 -2.2865535987
N 0.0791925933 -2.0692054895 -0.7885904287
C 0.0849164753 -2.1278585902 0.5773035219
C 0.0519895708 -0.8634349576 1.1219866450
C 0.0437019752 -0.4114287112 2.4534091029
N 0.0364243189 -0.0207476675 3.5459776137
H 0.8643873926 1.8561608520 0.5860254224
H -0.0264908725 1.8359755151 -0.9559809934
H -0.9134500645 1.8074830564 0.5881496820
H 0.0428094087 -0.9746555509 -2.9138879946
H 0.1122123910 -3.0664583359 1.1082483940