17

C 0.3801194868 1.5866089329 -0.0838654934
C 0.0771591441 0.1031290482 -0.0123312262
N 0.9796904539 -0.7786080283 -0.8262767180
C 1.1914917662 -1.6909189020 0.3119621255
C 2.4810692663 -1.3003663965 1.0853194453
O 1.7557057211 -0.2897455514 1.8265279369
C 0.4876327920 -0.6904120394 1.2543949869
C 3.0339510658 -2.3328289310 1.9652177323
N 3.4545549951 -3.1745357382 2.6363376953
H 1.4100361911 1.7773822632 0.2258417017
H 0.2494556460 1.9555340341 -1.1059434705
H -0.2928758476 2.1511391453 0.5704030948
H -0.9848464088 -0.0875738942 -0.2235139331
H 0.5402445865 -1.2082920882 -1.6308442732
H 0.9548483726 -2.7469374797 0.1889953245
H 3.2685772723 -0.8726206000 0.4574591584
H -0.2593300734 -0.9078761345 2.0185752527