15

O 0.6155495201 1.1650163265 0.2408624462
C 0.2065204695 -0.1169181426 0.0167885741
C -0.2982193730 -0.5628794087 -1.1795408458
N -0.5888088365 -1.9101054585 -1.0158481648
C -0.2827308651 -2.2868947481 0.2518423585
O -0.5395735887 -3.5733452111 0.6219454712
C 0.4239815221 -4.2255915764 1.3328340691
N 0.1554313660 -5.3429781399 1.8443688411
C 0.2182320832 -1.2054216798 0.9423733334
H 0.8596206690 1.2516988053 1.1663363578
H -0.4767820397 -0.0494974013 -2.1075585737
H -0.9734247326 -2.5258188610 -1.7103541585
H 1.3674533198 -3.6696160272 1.3678266643
H 0.9765436439 -5.7150620522 2.3171388421
H 0.5174978820 -1.1866762049 1.9786231149