16

N 0.0973850287 1.1786870838 -0.2913581299
C 0.0342500381 -0.0306381594 0.0272065983
O 0.9709033692 -0.8935106785 0.5497561998
C -0.0055219818 -1.9716536201 0.6187275367
C 0.3796530714 -3.3826987907 0.3574763852
C -0.0216585094 -2.9254105827 1.7562637874
C -1.0763555754 -1.0724857080 0.0132721318
C -2.3246197620 -0.7227132950 0.7958013731
O -2.7966462432 -1.4015838440 1.6695655454
H 1.0269695012 1.5667590711 -0.1238585259
H -0.3053604750 -4.0081339784 -0.2054255436
H 1.4307401002 -3.5804113148 0.1784136662
H 0.7706372735 -2.8240194110 2.4897265267
H -0.9868294882 -3.2162161632 2.1507139933
H -1.3766678568 -1.3340113746 -1.0085354952
H -2.7905209605 0.2345371954 0.4797271008