21

C -0.2940630762 1.4792591614 -0.0216947968
C -0.0570461385 -0.0279060265 0.0549843299
C 0.9070040450 -0.5963291264 -1.0319830531
C 1.9995482260 -1.2013500691 -0.1125416540
C 1.1185699019 -2.0037620051 0.9048555131
C 0.7318913474 -0.4831351273 1.2921503884
C 2.2627627252 -0.2143777148 0.9701760587
C 3.3630347448 0.2837983285 -0.0303343037
O 3.3495673791 -1.0618940563 -0.6556524268
H 0.6505944220 2.0313744211 0.0253313213
H -0.7969271149 1.7528193456 -0.9552285688
H -0.9213572266 1.8225752354 0.8085105506
H -1.0259958340 -0.5395134795 0.0289225666
H 0.4486131267 -1.3670566827 -1.6577444273
H 1.2964658304 0.1795153422 -1.6947937472
H 0.3093021704 -2.6404176049 0.5314336123
H 1.6818457754 -2.5040303909 1.6923373402
H 0.3147506436 -0.2585119812 2.2753288314
H 2.8276970497 -0.7094672233 1.7640693789
H 3.0878836003 1.0541496657 -0.7555751136
H 4.3390391323 0.5039429681 0.4081499398