23

C 0.2936575812 1.5428183897 -0.3815988311
C 0.0090181450 0.0716162694 -0.1641122330
C -1.4261896016 -0.3928576711 -0.3451059310
C -2.3945503551 0.1789254217 0.7005286735
C -3.8127940094 -0.3798294232 0.5560867413
C -4.7775915910 0.1726365100 1.5966678326
O -6.0534856171 -0.4058064236 1.3632629092
C 1.1022193017 -0.8992890213 -0.3273985398
O 0.6723628632 -0.5019441952 0.9770758154
H 1.3524490752 1.7563120936 -0.2165470242
H 0.0321853088 1.8419095767 -1.4025770460
H -0.2862801647 2.1632409850 0.3086107934
H -1.7660614772 -0.1238232023 -1.3543507861
H -1.4463027901 -1.4870430802 -0.2866403825
H -2.0017531720 -0.0503862161 1.6990421406
H -2.4270161974 1.2733454534 0.6227572200
H -4.2111184633 -0.1520493091 -0.4406954063
H -3.7988405743 -1.4733125546 0.6426207931
H -4.4097566293 -0.0670771499 2.6078762744
H -4.8188659799 1.2719820458 1.5191833986
H -6.6617020729 -0.0698733314 2.0278163161
H 0.8759991103 -1.9293985019 -0.6015114354
H 2.0944684399 -0.5540599054 -0.6174360328