20

C 0.3595881463 1.4995166146 0.0641715304
C -0.0679884323 0.0429758915 -0.0239223249
C 0.7989617976 -0.8859520868 -0.9328747464
N 1.0925932083 -1.6980202804 0.2467089611
C 0.3229755692 -0.8723573303 1.1797322856
C 1.8680376744 -2.7883530618 0.3746383798
O 2.4593705471 -3.3033611357 -0.5676715298
C 1.9943444569 -3.3932620559 1.7763692576
O 2.8247958543 -4.5143980591 1.7263657442
H 1.4254565513 1.5842663457 0.3032776669
H 0.1878386056 2.0163895728 -0.8857197738
H -0.2021900141 2.0307307620 0.8397151299
H -1.1318746789 -0.0284807116 -0.2603874843
H 0.2664075741 -1.4289662864 -1.7197301796
H 1.6866385152 -0.4145510867 -1.3693518039
H 0.9324959291 -0.3820708166 1.9492165253
H -0.5047971407 -1.3984695074 1.6685320859
H 2.3943065494 -2.6291746061 2.4634722493
H 0.9897795868 -3.6549668129 2.1475637801
H 3.0823482503 -4.5756607889 0.7891893967