16

C -0.2723653574 1.4850246330 0.0567192357
C 0.1158410062 0.0112590483 -0.0527177264
N 0.7293702318 -0.4937809023 1.1708673639
C 0.1769638423 -1.3129042516 2.1037705052
C 1.1112869750 -1.4754578804 3.1012119705
C 2.2111377668 -0.6991271809 2.6695726534
N 1.9663413019 -0.1044745066 1.4930075058
C 3.4564076509 -0.5230783049 3.3345341444
N 4.4554637848 -0.4031689846 3.9060720939
H 0.6088403543 2.0921178442 0.2756966644
H -0.7059468583 1.8259916654 -0.8877630217
H -1.0082409535 1.6398632374 0.8510844583
H -0.7570538400 -0.6154806249 -0.2535120906
H 0.8335438347 -0.1400031952 -0.8632420306
H -0.8176877487 -1.7114259448 1.9830910458
H 1.0292637291 -2.0632245822 3.9996597381