18

O -0.0541218254 0.0137414878 0.3255775232
C -0.0027495859 1.1915889562 0.0882192943
C -1.1716804767 2.1677511766 -0.0442796911
C -0.4891667834 3.5448649385 0.0137634046
N 0.8838738702 3.3546835235 -0.5129025593
C 1.2985046877 2.0023493588 -0.1324137013
C 2.1309825336 1.9731940960 1.1427093314
C 2.9519308652 3.1129060214 1.5573116893
O 1.7009399521 2.8310884906 2.1999306581
H -1.6441776772 1.9945487897 -1.0200165356
H -1.9249004000 1.9813815760 0.7244634918
H -1.0061604141 4.3138984624 -0.5635038092
H -0.4131568161 3.8872810888 1.0490423788
H 0.8650380431 3.4222127620 -1.5241279722
H 1.8868299564 1.5226275877 -0.9228627043
H 2.4089794281 0.9678501109 1.4602835977
H 3.8353195616 2.9438675220 2.1710306393
H 2.9517279706 4.0043932313 0.9359631744