20

C -0.2180238532 1.7114464298 -0.0406462723
C -0.1651026819 0.1968823135 -0.0536788359
C 0.6148036006 -0.5914814205 -1.0801870832
C 1.4184316841 0.0253143396 -2.2085007989
O 2.3374073888 -0.8932275492 -2.7540988465
C 1.0762122940 -0.5654712627 0.3648241765
N 2.2390196746 0.1822006670 0.7567353171
C 3.5137354785 -0.1466301073 0.4312375984
O 3.8492654653 -1.0257726853 -0.3407308336
H 0.7376351526 2.1656983409 -0.3117180984
H -0.9680692402 2.0760595054 -0.7497191788
H -0.4987729667 2.0844232601 0.9513569867
H -1.0951911967 -0.2648931742 0.2677210952
H 0.1733795137 -1.5393303416 -1.3762621353
H 0.7389857813 0.3058374327 -3.0222550902
H 1.9140896516 0.9495379901 -1.8744113894
H 2.9391219300 -1.1406827440 -2.0335899585
H 0.9355168017 -1.4805063728 0.9349081746
H 2.1230230603 0.8988083277 1.4578709113
H 4.2510401416 0.4942116907 0.9517017112