23

C 0.0034915508 1.6373585258 0.0045108003
C 0.0378763474 0.1076535281 -0.0349510590
C 0.6681080351 -0.5044158600 1.2248211939
O -0.0290537514 -0.1039574926 2.4027462679
C 0.8046143715 -2.0409390332 1.1543114756
C 1.5512889869 -2.6330321078 2.3851610871
C 0.7760754367 -3.9113774446 2.7974163835
C -0.5397626706 -3.7664295193 2.0742731678
C -0.5208414884 -2.7781899847 1.1804221972
H 1.0168361103 2.0530177970 0.0396780807
H -0.4951582825 2.0476547878 -0.8788804538
H -0.5276620241 1.9829638528 0.8950433753
H -0.9832215736 -0.2794618513 -0.1515320014
H 0.6004457688 -0.2356589757 -0.9129385724
H 1.6749241188 -0.0809424084 1.3439390968
H -0.8229539254 -0.6497774270 2.4616895547
H 1.3379888160 -2.2748596145 0.2209663952
H 2.6047401306 -2.8312397102 2.1735011998
H 1.5063931657 -1.9009552788 3.1958070284
H 1.2877830199 -4.8276611907 2.4709461388
H 0.6575740285 -4.0018142436 3.8833891622
H -1.3748735667 -4.4392353449 2.2407405089
H -1.3380203742 -2.5398923642 0.5075704425