18

C 0.5256797410 1.2410765657 -1.0044604012
C 0.0074287259 0.0966202831 -0.1615122710
O 0.9264063630 -1.0019915396 -0.0101644921
C 0.6462105614 -0.2130396699 1.1434142330
C 1.7261223895 0.5992901665 1.6662101855
N 2.5711429669 1.2506708627 2.1109939778
C -1.4259656923 -0.2658798027 -0.4139354287
C -2.2810872202 -1.0605284171 0.5348655983
C -2.5424643760 0.4113081146 0.3485744965
H 1.5711760194 1.4604707398 -0.7817815823
H 0.4443799595 0.9815018736 -2.0649140859
H -0.0703300089 2.1420476846 -0.8311464911
H 0.0763848423 -0.7170166284 1.9206075295
H -1.6173278205 -0.4379170202 -1.4703410276
H -2.9756136862 -1.7675683318 0.0959446221
H -1.8653256358 -1.3923247006 1.4788611983
H -2.2626148224 1.0761867139 1.1590428644
H -3.4243242368 0.7235403056 -0.1988205055