15

N -0.0798052699 1.4028035179 0.1876222359
C 0.0017161983 -0.0340089954 0.0529925430
C 1.0451498750 -0.6017088126 -0.7545647488
C 1.9346980972 -1.0652651289 -1.4190819462
C -0.4816432716 -0.7524837568 1.3072625910
O -0.8096503360 -0.0011397990 2.4047742334
C -1.3681930697 -0.7596930254 0.0617089693
C -2.5633152101 0.0262837241 0.0120673923
N -3.5250569579 0.6676243055 -0.0407813289
H 0.8499839529 1.7946693735 0.2946709512
H -0.5112612858 1.8315587255 -0.6251975184
H 2.7186255095 -1.4732644731 -2.0085602911
H -0.0216393456 -1.7001102704 1.5634917241
H -0.8431572332 0.9216619764 2.0960224588
H -1.4020905631 -1.6824982614 -0.5061700256