21

C 0.5535324283 1.6693742854 -0.1331547849
C 0.3552269636 0.1733045185 -0.0202035213
O 1.2035001941 -0.5998467118 -0.9241536892
C 1.4249083435 -1.6090186141 0.1089966614
C 2.9015392220 -1.8303798658 0.3990474031
C 3.3379555142 -0.5088197443 1.0639167520
O 3.6612851822 0.4778045750 0.0932354389
C 2.1126601320 -0.1296367635 1.9372742085
C 0.8636725806 -0.6447149570 1.1906178463
H 1.5869679004 1.9576178621 0.0709311101
H 0.2921067541 2.0036864066 -1.1426198622
H -0.1040968667 2.1881815317 0.5728874569
H -0.6964293517 -0.0737395838 -0.2282573796
H 0.8548460055 -2.5186060961 -0.1081352234
H 3.0061396692 -2.6718506852 1.0950126469
H 3.4880057815 -2.0532367697 -0.4968001184
H 4.2352314675 -0.6256638692 1.6785644884
H 3.0199470539 0.3716666120 -0.6235737723
H 2.1855764304 -0.6469004703 2.9010231421
H 2.0950535302 0.9427011914 2.1467262857
H 0.0868951851 -1.0126476317 1.8621920008