18

C 0.1105688239 1.5658511687 -0.0533369364
C 0.0780648505 0.0478422901 0.0110788611
O 0.6643520189 -0.4398497669 -1.2146970419
C 1.1453343961 -1.7011381066 -1.2218341853
N 1.4191769034 -2.4718099212 -0.2551835702
C 1.3065684721 -1.9589110986 1.0918172130
C 2.6298535842 -1.3353190886 1.6034711998
O 2.0954043062 0.0001509560 1.4667199619
C 0.7672955255 -0.5156863211 1.2398688155
H 1.1439589182 1.9157070676 -0.0038594215
H -0.3433812270 1.9152033098 -0.9837744871
H -0.4437564067 1.9912196573 0.7886659988
H -0.9599593921 -0.3159405627 0.0303012841
H 1.3024812796 -2.0315621938 -2.2475434101
H 0.8601754201 -2.7182192458 1.7364984865
H 2.8716798831 -1.5693454766 2.6478780767
H 3.5037740549 -1.5045796882 0.9678981466
H 0.1240341291 -0.3538956792 2.1168904685