18

C 0.0835341077 1.5344487062 0.1307634809
N -0.0303362104 0.0935952687 0.1748662064
C -1.2917193097 -0.4961754231 0.6539954931
C -0.4562961824 -1.6318422462 1.3217013236
C 0.7399102051 -0.6410943601 1.1936806396
C -0.8422178364 -2.1133398943 2.6249309666
C -1.1542876837 -2.5085169657 3.7243938497
C -1.5648492013 -2.9854149491 5.0183845751
O -0.8380055484 -3.0730938437 5.9820563090
H 1.0997503013 1.8159435375 -0.1640568357
H -0.6063100961 1.9375122541 -0.6179946065
H -0.1398924136 2.0172873923 1.1009474275
H -1.8052367076 0.1179489964 1.4114715090
H -2.0046369662 -0.7826354173 -0.1249910812
H -0.3358907755 -2.4720430093 0.6318780392
H 1.6996305753 -1.0447743907 0.8578157743
H 0.8878581601 -0.0750832865 2.1272953922
H -2.6335351780 -3.2781084392 5.0742693174