13

O 0.0395622583 0.0873256319 -0.1250524867
C 0.0064469847 1.2795703513 -0.0967152416
C -1.0758942327 2.3058943556 0.0995891119
C -0.0752563578 3.1430116638 0.8551427976
C 1.0810172507 2.3819993684 0.0965735848
C 0.7673524760 3.3454822965 -1.0644429669
C 0.7780338446 2.8432568972 -2.4356718388
N 0.7918663589 2.4416501080 -3.5189513187
N -0.5901871382 3.6233183734 -0.4377686899
H -2.1413484611 2.1981210948 0.2430483319
H -0.1560748465 3.6472318194 1.8067630814
H 2.0875027646 2.1415559873 0.4243099242
H 1.3310683684 4.2797298625 -1.0106797692