17

C 0.1000943124 1.1983768502 0.7102312813
C 0.0859037463 0.0742939696 -0.3049921167
O 1.0066675456 -0.1319938000 -1.0601705616
C -1.1717769336 -0.7861879910 -0.3312738277
C -1.1876788895 -1.9572498409 -1.3236401176
O -1.2915133840 -2.9322610496 -0.2580299597
C -1.2981206328 -1.9121811882 0.7609387395
C -0.2265202607 -2.0536183351 1.7337401736
C 0.6517900490 -2.1701442254 2.5463435296
H 1.0501179767 1.7313452342 0.6606547815
H -0.7243389562 1.8940255475 0.5152856065
H -0.0465887797 0.7942455083 1.7174396657
H -2.0542147665 -0.1419797861 -0.3503997708
H -2.0503801615 -1.9992941876 -1.9969041775
H -0.2588016072 -2.0644426654 -1.8904930159
H -2.2642465928 -1.8874652895 1.2821393647
H 1.4335450045 -2.2826868610 3.2569985852