17

C 0.0830372054 1.4945365423 0.0691489422
C -0.0275415049 -0.0067177119 0.0240870379
C -1.2070477379 -0.6843027020 -0.0038909037
C -2.5627183129 -0.0506913934 0.0056191902
C -1.1671610604 -2.1393906402 -0.0465869907
N -2.2236839711 -2.8651170614 -0.0751314336
N 0.1473803954 -2.6196775430 -0.0519427518
N 1.2895528648 -1.9094210480 -0.0233384370
N 1.2174858652 -0.6459051623 0.0135345567
H 1.1369581564 1.7746696932 0.0853738292
H -0.3878221584 1.9593322007 -0.8031762449
H -0.4012328440 1.9073926646 0.9600459099
H -3.1273581296 -0.3611537659 -0.8801179177
H -3.1393439106 -0.4129052914 0.8635394666
H -2.5127208838 1.0376453597 0.0382161527
H -2.0048922318 -3.8618097888 -0.1030827911
H 0.3101694681 -3.6167591420 -0.0803101050