21

C -0.6366825309 1.3336549718 -0.0531807815
C 0.0197242822 -0.0423932635 -0.0338097750
C 1.1090094246 -0.2140038800 -1.0921542746
O 1.1740464084 0.3309418751 -2.1626741883
C 2.1205633540 -1.2015087968 -0.5101649630
O 1.6231363872 -1.5669447949 0.7597913126
C 0.7370420906 -0.5278942131 1.2501233121
C 1.5695421957 0.5714664318 1.9249318058
C -0.1954904754 -1.2000469790 2.2498773088
H 0.0759570543 2.1233590655 0.1991604318
H -1.0141686990 1.5432450780 -1.0575090943
H -1.4733410983 1.3887506418 0.6494912963
H -0.7340992137 -0.8065817728 -0.2788352012
H 2.2151049981 -2.0928891578 -1.1399405009
H 3.1098456551 -0.7199657081 -0.4595460208
H 2.2301944684 1.0786769224 1.2138315066
H 0.9308182502 1.3307960054 2.3851439032
H 2.1916207295 0.1254038781 2.7056092995
H 0.3747762890 -1.5974959224 3.0946572927
H -0.9294867607 -0.4866214897 2.6370156876
H -0.7274360893 -2.0295663117 1.7761368526