19

C 0.0687531023 1.4874648517 0.0194015477
N -0.0098123491 0.0335594376 0.0696989556
C 0.7701627421 -0.5127141357 1.1736040021
C -1.3805876522 -0.5076109198 -0.0382590505
C -2.3094470169 -0.2079746313 1.1763133283
C -2.0249887733 -0.0091676662 -1.2663155465
C -2.5968012541 0.3898012141 -2.2433588784
C -1.2781969485 -1.9841451890 -0.1778135375
N -1.2256667300 -3.1352240707 -0.2555500995
H 1.1192283231 1.7710928206 -0.0950623428
H -0.4818344097 1.8650834829 -0.8438107275
H -0.3135071489 1.9873461454 0.9271355450
H 0.4485453257 -0.1568936075 2.1681202331
H 0.7293037835 -1.6043678012 1.1650649780
H 1.8140853154 -0.2148430452 1.0381989316
H -2.4329298508 0.8714617800 1.2840910919
H -3.2922374068 -0.6564073713 1.0184705670
H -1.8808431823 -0.6173419426 2.0934143480
H -3.0894554595 0.7358138782 -3.1189428054