16

C 0.0447323331 1.4851919570 0.4031894514
C -0.0308882504 0.0277106525 0.0486403121
C -1.1474308753 -0.7059486299 0.0722297768
C -1.1792425112 -2.1486155848 -0.3196542700
C 0.1849712565 -2.7839187129 -0.3568999675
N 0.3526491407 -4.0224144330 -0.2015416029
O 1.2573273536 -1.9522191383 -0.6223840195
C 1.2394264773 -0.5868669224 -0.4037997847
O 2.2545159339 0.0232173251 -0.5934259027
H 0.7492684302 1.6511280017 1.2244565283
H 0.4140236908 2.0712075477 -0.4438144327
H -0.9360352623 1.8652698542 0.6983737747
H -2.0915021248 -0.2492219798 0.3579170918
H -1.8070413630 -2.7394291090 0.3526224597
H -1.6398566195 -2.2475783584 -1.3146629409
H 1.3417841600 -4.2641820197 -0.2870562539