17

C -0.0006781275 1.4139461335 -0.1577826835
O 1.2853593038 1.9741567699 -0.0330973275
C 1.9453409337 1.5512756146 1.1423545633
C 1.2092957028 1.5331954568 2.4871149156
C 0.3623434473 0.2569365089 2.4886075194
C 1.8318309860 0.2013295041 2.8445410977
C 2.1060262973 0.0175670228 1.3102081447
C 0.6301843892 -0.4304716731 1.1446594234
O -0.0171395619 0.0114919046 -0.0308135005
H -0.6765807284 1.8633681163 0.5870008918
H -0.3480513871 1.6433023238 -1.1670275386
H 2.8898899771 2.0953989432 1.1930374542
H 0.9756011973 2.3621473558 3.1416533716
H -0.4915727880 0.1512740742 3.1442426123
H 2.3385561967 -0.1339023551 3.7351362775
H 2.9198420815 -0.5230615711 0.8346867400
H 0.4958047102 -1.5121323192 1.1972253285