18

C -0.0181704777 1.5217637081 0.0455204717
C 0.0256071140 0.0040037487 -0.0200965972
C 0.7764431822 -0.5217496013 -1.2502537286
C 1.0408384106 -2.0072012944 -1.1044483345
C 0.9428283599 -2.6134806221 0.0856982625
C 0.6144773068 -1.8490385739 1.3327630220
O 0.6671461030 -0.4508009944 1.1692711810
C 1.3838922633 -2.7436247850 -2.2792235886
N 1.6594941099 -3.3076852956 -3.2529107776
H 0.9959249149 1.9280152092 0.1082094679
H -0.5038425431 1.9317469474 -0.8449159719
H -0.5736741867 1.8478830731 0.9283579188
H -1.0030314536 -0.3947411211 -0.0461113689
H 0.1899486609 -0.3358364207 -2.1567453143
H 1.7244525926 0.0177070064 -1.3714602228
H 1.0954767126 -3.6839435468 0.1809554956
H -0.3788624144 -2.1692978155 1.7007159396
H 1.3335406347 -2.0976270323 2.1228976654