17

C -0.6194067672 1.2564519850 0.1698834988
C 0.2130018780 0.0045377459 0.0000585867
C 1.0318898147 -0.1643259174 -1.3022781590
C 2.2433900185 -0.2646097403 -0.3358869460
O 1.4303842558 0.0361465000 0.7947345772
C 2.8659904065 -1.6560989999 -0.2798220753
O 2.5775164500 -2.4853171108 0.5502285954
C 3.8191651304 -1.9150970214 -1.3498653703
C 4.6016928920 -2.0951029736 -2.2470149851
H -0.0424544038 2.1471259615 -0.0977352283
H -1.5105506649 1.2107198083 -0.4657684835
H -0.9463528699 1.3571419253 1.2094140654
H -0.3740053686 -0.8871023024 0.2546451545
H 0.8179450072 -1.0476317365 -1.9054403060
H 1.0479785053 0.7198137936 -1.9415890982
H 3.0398130353 0.4745339777 -0.4932202673
H 5.2966891908 -2.2741987548 -3.0314383989