19

C -0.1278949625 1.6451656270 0.0511263967
C 0.0151580149 0.1315945660 -0.0025004632
C -1.3483224190 -0.5340759522 -0.1638894633
O -1.8742965357 -0.1626027170 -1.4308024476
C 1.0740173480 -0.4904911442 -0.9635716434
C 1.6967485378 -1.1208267641 0.2777923344
C 2.0601963155 -0.0956341320 1.2717867229
N 0.6520737781 -0.5267523518 1.2117088927
H 0.8362257577 2.1596730664 0.0603126451
H -0.6863564585 1.9878771160 -0.8242071837
H -0.6815928958 1.9404137950 0.9495106139
H -1.2242941182 -1.6238715629 -0.0813634745
H -2.0028273076 -0.2114350629 0.6604980595
H -2.7413376561 -0.5658840636 -1.5264948264
H 0.6331769684 -1.1993693384 -1.6653818147
H 1.7144319253 0.2004541891 -1.5197814318
H 2.0104459996 -2.1556600640 0.3717770734
H 2.5506340661 -0.4256686374 2.1827175289
H 2.3420440222 0.9031195609 0.9493282813