14

N -0.1294466971 1.2395953096 -0.2828556400
C -0.0591172154 -0.0007876203 -0.0954886505
O -1.1984672904 -0.7468578835 -0.1635174892
C -1.0501259274 -2.1316037240 -0.0045402537
C -2.4429133551 -2.7704848950 0.0493941252
O -2.6077616605 -3.3305870439 -1.2521175705
C -1.4291013825 -3.3239239566 -1.9179988087
O -1.2417377500 -3.7838012878 -2.9938371751
O -0.4644849659 -2.7186068680 -1.1524216749
H 0.7910175268 1.6639933652 -0.1883825417
H 0.8366322696 -0.5911841147 0.1315398306
H -0.4086302402 -2.3593577550 0.8519071281
H -2.5047008595 -3.5655611637 0.7974843065
H -3.2153782725 -2.0215771324 0.2250859338