12

O 0.0364869638 1.3079532024 0.1505920542
C 0.0540060839 -0.0294223482 0.0587867874
N 0.0650950486 -0.5698471342 -1.1560677634
C 0.0829114151 -1.9063769137 -1.2138054809
C 0.0896768924 -2.6987734509 -0.0755981914
O 0.1076683366 -4.0545730665 -0.1422169220
C 0.0764616129 -1.9843127667 1.1249482922
F 0.0823732227 -2.6937449130 2.2558502900
N 0.0590489559 -0.6841969830 1.2228708877
H 0.0350990605 1.6404344307 -0.7571250702
H 0.0921628464 -2.3688595670 -2.1966367446
H 0.1098308512 -4.4003412499 0.7584012109