18

O 0.0630753612 1.4551999688 -0.0608027746
C 0.0348495272 0.0726436208 0.2235153757
C -1.3621586123 -0.5104237732 0.0391650461
O -1.7613722462 -0.2466686756 -1.3419122920
C -1.9495584750 -1.4686148394 -1.9058521127
N -1.8169579555 -2.5104373582 -1.1978824237
C -1.4796872396 -2.0398021731 0.1322144280
C -0.6074640712 -2.9129804428 0.9982068797
C -2.0769559713 -2.7633044843 1.3089050055
H -0.3019890146 1.5592224264 -0.9471790618
H 0.7441779314 -0.4930322423 -0.4012819389
H 0.3458994203 -0.0415265067 1.2671182581
H -2.0728496610 0.0208877146 0.6803918927
H -2.2140339860 -1.4450885806 -2.9564927741
H -0.2723426563 -3.8447675999 0.5582390969
H 0.1084633114 -2.4387334681 1.6604038639
H -2.3596973222 -2.1703895424 2.1732464265
H -2.7341844103 -3.5958543641 1.0875141545