23

C -0.2769688659 1.4690117560 0.0860351658
C 0.0731533705 -0.0218453405 0.0657215507
C 0.9717263333 -0.4878893882 1.2342996566
C 2.3374374046 0.2149444187 1.2353809062
O 0.3064439600 -0.1853831025 2.4817799972
C 0.0140333810 -1.3754688899 3.1978010491
C 0.5633450565 -2.5052307680 2.3632136709
C 0.4640420916 -3.9327070460 2.7931661498
C 1.1028399537 -1.9919031233 1.2617243150
H 0.5996582164 2.0999735148 -0.0895035691
H -1.0097743484 1.7029439982 -0.6924335127
H -0.7050199874 1.7439323805 1.0536438399
H -0.8491082362 -0.6125412832 0.1086928933
H 0.5666927021 -0.2827072231 -0.8796351077
H 2.2176204431 1.2926929801 1.3714271125
H 2.9543560893 -0.1661258114 2.0534322969
H 2.8674816059 0.0426488669 0.2923752940
H 0.4760764126 -1.3374887417 4.1983448003
H -1.0735050220 -1.4718799220 3.3554595256
H 0.9660106467 -4.0932547139 3.7557643209
H -0.5822083721 -4.2326567956 2.9336421861
H 0.9142605511 -4.6058239498 2.0592747903
H 1.5783235934 -2.5471418663 0.4616041086