19

O 0.0519765506 1.4973429733 0.0111965487
C 0.0174482990 0.0877199178 -0.0168060685
C -1.4511962807 -0.3994741563 -0.0098594181
C -2.1947924766 0.1489220385 -1.2338936833
C -1.4174577247 -0.0691582166 -2.5035983151
C -0.1138445125 -0.3379024143 -2.5193327298
C 0.7370663843 -0.4412117315 -1.2805704645
C 0.7147512029 -0.4490945310 1.2187446941
O 1.1802586163 0.2768677971 2.0636603115
H 0.4975969964 1.7301471999 0.8412394439
H -1.4677676728 -1.4964532765 -0.0244388473
H -1.9374428573 -0.0700354182 0.9140775799
H -3.1813418626 -0.3237995328 -1.3075673023
H -2.3779856520 1.2222494904 -1.0943653056
H -1.9619568347 0.0148834040 -3.4405842534
H 0.3998046155 -0.4905272019 -3.4653077768
H 1.6582337417 0.1401103470 -1.4034372559
H 1.0496591626 -1.4860003285 -1.1313151205
H 0.7654995246 -1.5541577504 1.3101840029