22

C 0.0502729656 1.3682849689 -0.3802691277
C 0.2556983339 -0.0952237568 -0.0717360526
N 1.6316223256 -0.5181028638 0.2649048433
C 0.5866167943 -0.5891429449 1.2825082877
C 0.7343000480 0.0883996387 2.6484124832
C 0.6812786994 -1.3280674158 3.2985471890
C 0.1663492972 -1.9158835212 1.9439834922
C -1.3348068544 -2.1833949706 1.9165168198
O 0.8923599822 -3.0050653013 1.4033541264
H 0.6602336898 1.9897488345 0.2806206086
H 0.3371274708 1.5940829787 -1.4130672802
H -1.0002945478 1.6523502686 -0.2522386476
H -0.3238567910 -0.7794557532 -0.6927539164
H 1.8086469969 -1.4596797344 -0.0813519660
H 1.6553555878 0.6556629113 2.7906636212
H -0.1189962484 0.7186636799 2.9165179627
H 1.6790083756 -1.7128690767 3.5192448910
H 0.0381675188 -1.4587489923 4.1728693007
H -1.8979676994 -1.3193065076 2.2815716098
H -1.6695191729 -2.4057785750 0.8984788177
H -1.5886510144 -3.0365962233 2.5593418803
H 0.5010276823 -3.8257507338 1.7193500770