17

O 0.1220108237 1.5142912745 -0.3443807926
C 0.0062744318 0.1569504794 -0.0658719618
C 0.1362498104 -0.2694631879 1.4458476285
C -1.2796483961 -0.8853920476 1.3978486842
O -2.2964920892 0.0344721977 1.8270351482
C -2.5137326110 0.4999699668 0.4692722925
C -1.4422400831 -0.4536262869 -0.0847891990
C 0.9315990615 -0.6335672378 -0.9581899278
O 1.6206643816 -0.1029313454 -1.7962248320
H 0.7454172245 1.5832959125 -1.0861829720
H 0.9486643675 -0.9727270728 1.6521873473
H 0.2143549429 0.5885398543 2.1149414168
H -1.4276103006 -1.8944387992 1.7890203512
H -3.5334562912 0.2781732393 0.1344062052
H -2.3062070184 1.5672503767 0.3488147770
H -1.7187336655 -1.1076139814 -0.9117769669
H 0.9403915313 -1.7326102424 -0.8073142190