13

N -0.2506446382 1.3708668428 0.1272093257
C 0.0133441589 -0.0606477113 -0.0246495493
C 0.8055405277 -0.3949536453 -1.2353561820
N 1.3971725095 -0.6123677748 -2.2042114220
C 0.6882457913 -0.5877912200 1.2077875641
C 0.3528668033 -1.5740215924 2.0775234373
O 1.2741299399 -1.6407009447 3.0313077576
N 2.2383499928 -0.6242805763 2.7280501937
N 1.8665384336 -0.0485523968 1.6775023047
H 0.6277183786 1.8576846292 0.2849025169
H -0.6473106885 1.7420253392 -0.7312151190
H -0.9490916979 -0.5755220856 -0.1261321609
H -0.4705088611 -2.2673141941 2.1319082431