20

C 0.0820903377 1.5137228193 -0.0020359047
C -0.0906126513 -0.0026438422 0.1224183975
C 0.7149624287 -0.5876576371 1.2729511724
C 0.8418005305 -2.1005485682 1.3021757481
C 2.1312873703 -1.9909731983 0.5258605231
N 2.2192043931 -0.5226636145 0.9967983960
C 2.7907396319 -1.0292504274 2.3091867228
C 2.1931073342 -2.3859070953 1.9773220552
O 2.4006546765 -3.6163800419 2.5603155284
H 1.1384590990 1.7655510226 -0.1294294158
H -0.4730972085 1.9066718860 -0.8590238301
H -0.2809895941 2.0294522503 0.8942114585
H -1.1485014816 -0.2535606045 0.2758385148
H 0.2130643842 -0.4940420825 -0.8100386931
H 0.4425539370 -0.0863737512 2.2118250133
H 0.0891918360 -2.8782857763 1.2467628517
H 2.5053563270 -2.3914489632 -0.4051780278
H 3.8844463950 -1.0232045192 2.2561800441
H 2.4599110801 -0.4808342037 3.1985327138
H 3.3312618743 -3.8467106626 2.4606715618