23

C -0.1301083345 1.5987969608 0.1499291813
C -0.0227880585 0.0733135786 0.0690751896
C -1.3884197709 -0.6092824457 -0.0780052840
O -2.0469009880 -0.2060231238 -1.2789084477
C -1.3503465930 -2.1458040722 0.0378288995
C -0.4677023603 -2.8197073042 -1.0082523910
C -1.1774060389 -2.6334584755 1.5004311513
O -2.5671087946 -2.9932161414 1.5975688595
C -2.7772559278 -2.7299853221 0.1936598343
H 0.8589073866 2.0645445994 0.1916863682
H -0.6613204849 1.9935914832 -0.7202582808
H -0.6836216546 1.9066906493 1.0435946412
H 0.6120120498 -0.2059524583 -0.7833722646
H 0.4815247675 -0.3154141486 0.9624996280
H -2.0459248675 -0.2435258537 0.7220015284
H -1.4503871322 -0.3792352419 -2.0152109388
H 0.5849748991 -2.5391442751 -0.8999315050
H -0.5289174735 -3.9087294551 -0.9207018977
H -0.7845326196 -2.5609565863 -2.0254860697
H -0.5158013803 -3.5033347046 1.6158627922
H -0.8959947649 -1.8760700018 2.2435522900
H -3.6028749552 -2.0327661949 0.0167379980
H -2.9596115941 -3.6542042859 -0.3715157722