17

C 0.0469855490 1.5003867161 -0.1069832476
C -0.0417737346 0.0090407292 -0.0455032094
O 0.4425350037 -0.7240915463 -1.1754000121
C -0.2369227524 -1.8690762844 -0.5834776955
C 0.6739112791 -2.1605820091 0.6206338805
C 0.3431831692 -0.8092216660 1.2929713492
N -1.1187282409 -0.8829128497 1.5727667095
C -1.2874927059 -0.8843091886 0.1180820663
H 1.0932617244 1.8238599553 -0.1216748521
H -0.4422522768 1.8820851118 -1.0079159451
H -0.4378195200 1.9358587998 0.7710486980
H -0.4946304416 -2.6484890166 -1.2980417314
H 0.3771097007 -3.0122247344 1.2407831953
H 1.7109259278 -2.2762803715 0.2987951164
H 0.9890369742 -0.4172908815 2.0779222459
H -1.4058915513 -1.7384129912 2.0482275210
H -2.2675890246 -0.7195015728 -0.3282022890