17

O 0.0724124736 -0.0131086484 -0.1738526440
C 0.0992969724 1.1758821096 -0.2612020946
O 1.0668577065 1.9235247485 0.3259270593
C 0.9609527724 3.3107392373 0.1868522506
C 1.1050523219 4.0217162772 -1.1274720576
C 2.0832958073 4.2935426379 0.0003794649
C 1.5069293770 5.1630857791 1.1571109504
C 0.0762960079 5.5881437093 0.9619691035
C 0.3771860314 4.1652584128 1.3489439571
H -0.6304220820 1.7901451689 -0.8192731840
H 1.5344755529 3.3970448330 -1.9055261620
H 0.3935910866 4.7514988558 -1.4976061966
H 3.1396855587 4.0941355538 -0.1169411859
H 2.1414016873 5.6035238169 1.9145739499
H -0.3207122489 6.1896386186 1.7748134315
H -0.3308392849 5.8606358746 -0.0052549803
H 0.0269161799 3.7088152251 2.2652520676