21

C -0.1661691218 0.8180181622 -2.0142765539
C -0.0144871005 -0.3584152373 -1.0724750832
C 1.2998640620 -0.6551496616 -0.3373072180
C 2.5368822229 0.2021431473 -0.4981744335
C 0.1043019620 -0.1427897515 0.4038277330
O 0.1151362362 1.1863831981 0.9700882236
C -0.5027159997 0.6734529681 2.1579455143
C -1.8587798366 0.1140779826 1.8652835607
C -0.6188085229 -0.7218613289 1.5937737392
H 0.2685385627 1.7275119469 -1.5947250783
H 0.3117850748 0.6212447740 -2.9802158878
H -1.2254069494 1.0228175182 -2.2029584354
H -0.5757524812 -1.2428731066 -1.3668757431
H 1.5042066722 -1.7151465455 -0.1975190096
H 2.2964389054 1.2661231499 -0.4521143877
H 3.2509486679 -0.0033165467 0.3064610014
H 3.0405478014 0.0021693241 -1.4500868994
H -0.1589745732 1.0588617723 3.1101532041
H -2.4327014933 -0.1959233097 2.7335148747
H -2.4408438560 0.5207431412 1.0433587003
H -0.4321831626 -1.6872291472 2.0442969084