15

C -0.0385258726 1.5554352885 0.0257279949
C -0.0013675377 0.0223026101 0.0486547280
C 0.7375295167 -0.5189832474 1.2789426560
O -1.3126852632 -0.5210838086 -0.0382965207
C 0.6877984084 -0.4908767205 -1.2278531763
F 1.9583783493 -0.0495511536 -1.2815026616
F 0.7237729218 -1.8265293479 -1.2696262928
F 0.0670396579 -0.0648855963 -2.3324977854
H 0.9687981562 1.9784332733 0.0023255643
H -0.5916196644 1.9055707030 -0.8479564117
H -0.5396960353 1.9220340348 0.9275640514
H 0.2407833279 -0.1648262434 2.1881236953
H 0.7235100282 -1.6105955467 1.2761872337
H 1.7748991338 -0.1763025394 1.3040074887
H -1.8024654570 -0.2270841358 0.7362658162