20

C 0.2338397723 1.5948318785 -0.0789987886
C 0.0422390635 0.0742106544 -0.0380273749
C 0.5196400795 -0.6230875214 -1.3250541344
C 0.5657149530 -2.1554153058 -1.1365971812
C 1.6384579906 -2.4268336627 -0.0999644940
O 2.6497386741 -3.0529612324 -0.3087294270
N 1.3856055391 -1.8106294782 1.1390514572
C 2.1304811548 -0.6107179500 1.5035909514
C 0.6599837125 -0.5468738497 1.2143020706
H 1.2940159959 1.8546891874 -0.1668216974
H -0.2925635540 2.0332872452 -0.9330714718
H -0.1514669549 2.0682546352 0.8299078814
H -1.0355083959 -0.1254847927 0.0404019238
H -0.1460497552 -0.3557649504 -2.1519503494
H 1.5191601086 -0.2674377282 -1.6082778285
H -0.4095510181 -2.5182619273 -0.7908004525
H 0.8289547331 -2.6772432350 -2.0578119415
H 2.4833576177 -0.5560707960 2.5297871768
H 2.8282491158 -0.2262185075 0.7636539222
H 0.0157920778 -0.4856284733 2.0908145979