19

O 0.0099071795 0.5408549991 1.0897202895
C -0.0136706201 1.4298881427 0.2793430421
C -1.2885932418 2.0677439231 -0.3050251906
C -0.8485476658 3.3778157425 -0.9614931247
C -0.8305594381 4.6733408149 -0.1304440370
C -0.0439360103 4.5108908084 1.1394463418
C 0.7020075364 4.6944026202 -0.1519404509
C 0.7322714531 3.3995364798 -0.9836616825
C 1.2263702521 2.1023062967 -0.3402784807
H -1.6945865922 1.3630169738 -1.0418610905
H -2.0417633133 2.1756058013 0.4800313335
H -1.2933670608 3.5320751408 -1.9450630360
H -1.5231668079 5.4958251583 -0.2630196033
H -0.0467868878 5.3808105502 1.7885783939
H -0.0233600625 3.5721269716 1.6865688912
H 1.3677659189 5.5355539087 -0.3035712573
H 1.1449372713 3.5655673611 -1.9792571408
H 1.9979839219 2.2311382219 0.4234154842
H 1.6307826274 1.4087128849 -1.0884595019