16

O 0.3795497226 0.9256858673 -0.7613660500
C 0.0357624038 -0.2570646427 -0.0955448369
C 0.4622196980 -0.2115573850 1.3778076733
O 1.4500755918 0.3649128008 1.7841145916
N -0.4711600596 -0.8901981547 2.0959650443
C -1.6407341203 -1.3046685111 1.3295206505
C -1.4544435262 -0.5388877187 0.0132431543
C -2.4741305709 0.3339149230 -0.5705925490
O -2.1913484556 -0.9693796532 -1.1136620933
H 1.1177652020 1.2984322882 -0.2555267166
H 0.5219520013 -1.1320586560 -0.5626775623
H -0.3903603456 -0.9955484264 3.0951475314
H -1.6500777590 -2.3860626232 1.1407331471
H -2.5715833773 -1.0391086315 1.8394192904
H -3.4437083592 0.4327984812 -0.0847616519
H -2.1549102159 1.1707124819 -1.1856104127