17

N -0.0380984842 1.3072686111 -0.0243050733
C -0.0760031516 -0.0580285019 0.0245447175
N -1.1426507265 -0.7722717303 0.0375101407
C -0.7302126062 -2.1623269370 0.0631017199
C -0.0279051814 -2.6510152521 -1.1895888468
C 0.7808456543 -2.2524918119 0.0209907053
O 1.5364829727 -3.2625695650 0.6109254339
C 1.2576284629 -0.8105901095 0.1017014651
O 2.2074674715 -0.3680192594 -0.8564058295
H 0.8074898107 1.6918012322 -0.4195255098
H -0.8923230758 1.7613475560 -0.3122102114
H -1.3415639944 -2.8531034113 0.6324268754
H -0.0331316115 -3.7175330376 -1.3869497159
H -0.0700471015 -2.0142834396 -2.0691690020
H 1.5050114221 -3.1437776680 1.5670119412
H 1.7326368144 -0.6276264326 1.0756235219
H 1.9785298445 -0.7771664431 -1.6989915223