17

C 0.0171270490 1.5363003464 -0.0261143692
C -0.1260618050 0.0217200731 -0.1362170720
N 0.8481700792 -0.5164354928 -1.0753393620
C 0.8651155074 -1.8822368536 -1.3201987005
N 1.2877561254 -2.3461414971 -2.4967859234
N 1.2337958207 -3.6951818003 -2.3594911906
C 0.7808362435 -4.0859769967 -1.1505342724
C 0.5236485482 -2.9370613837 -0.4322892484
H 1.0290530356 1.8079614159 0.2880848386
H -0.1808004918 2.0220131277 -0.9887339144
H -0.6945515672 1.9388763618 0.7001019646
H 0.0573155160 -0.4318765366 0.8449279232
H -1.1619646999 -0.2386902009 -0.4138719140
H 0.9095226506 0.0088665211 -1.9381182062
H 1.5114821731 -4.2710421799 -3.1339162443
H 0.6759673762 -5.1279497813 -0.8911826465
H 0.1531775389 -2.8722055731 0.5765888575