20

C -0.0767481764 1.3998283763 -0.1357438923
N -0.0023425166 -0.0447097884 0.0299036832
C 1.3066083746 -0.6396787724 -0.1787762202
C -1.1453846446 -0.7419852442 0.3035994321
O -2.2112652641 -0.1541920505 0.5294190109
C -1.1038804936 -2.2279370921 0.3028762451
C -1.9495300769 -2.9464855594 1.3640419090
C -2.4270823711 -2.9433833018 -0.0464013844
O -3.5403232233 -2.2448478521 -0.4583827088
H 0.2639367326 1.6891461120 -1.1377006638
H -1.1101437955 1.7104086441 0.0021259968
H 0.5572976245 1.9061692610 0.6021008260
H 1.4207860309 -1.5607369801 0.3922219483
H 1.5069254129 -0.8506128781 -1.2382648279
H 2.0706699933 0.0601966983 0.1734199905
H -0.1993487390 -2.7226506172 -0.0211667827
H -1.5382638767 -3.8532557995 1.7941660220
H -2.4718356549 -2.2936556484 2.0547658561
H -2.3067641422 -3.8590785855 -0.6178229842
H -3.4339857440 -1.3398809021 -0.1045665759