21

C 0.1501491127 1.5318743570 0.0019564807
C 0.0012226221 0.0116694813 0.0032164179
C -1.4739681630 -0.5013460213 0.0201163189
C -1.4686127904 -2.0543425508 0.0245555482
C -2.1526195080 -0.0253847261 1.2366782414
C -2.6852976477 0.3366607659 2.2514095238
C -2.1922431916 -0.0224601365 -1.1720580638
C -2.7640210059 0.3440829578 -2.1661313775
C -3.4682803767 0.7941813039 -3.3586830923
H 1.2076472966 1.8124180625 -0.0140881003
H -0.3323743578 1.9717964433 -0.8755547016
H -0.3046154085 1.9712961471 0.8944612326
H 0.4793781280 -0.4148504538 -0.8858377074
H 0.5041640455 -0.4155548287 0.8782384346
H -0.9404244784 -2.4240206218 0.9078789214
H -2.4893954494 -2.4415705362 0.0395816952
H -0.9667056213 -2.4247369868 -0.8735060205
H -3.1683615122 0.6654437143 3.1380572282
H -4.1089269134 0.0036917320 -3.7648783307
H -4.1058461719 1.6577194447 -3.1394466486
H -2.7680457690 1.0909489223 -4.1472724700