21

C 0.1296258397 1.2556561753 0.0229052792
O -0.0702339834 -0.1015483582 0.3687293533
C -1.3468403930 -0.6033232502 0.0692397893
C -2.4551420437 -0.1042401459 0.9713041633
C -1.6286571296 -0.9264976238 -1.3775926895
C -1.3509138487 -2.0421527982 -0.3800735914
C -0.0803260356 -2.8165492772 -0.4702336599
C 0.1168391175 -4.0708261930 0.2662914474
O -0.1551149809 -4.0853459014 -1.1361707675
H 1.1815122739 1.4782789370 0.2168959254
H -0.0862115302 1.4402893870 -1.0388448163
H -0.4881295366 1.9343915708 0.6266726633
H -2.6184958153 0.9723335723 0.8539538333
H -3.3977242009 -0.6066809089 0.7373885305
H -2.2099106006 -0.3006795892 2.0201149208
H -2.6366136436 -0.8115827727 -1.7610687473
H -0.8430971638 -0.7117922939 -2.0946293329
H -2.2056667147 -2.6366496717 -0.0694823874
H 0.8016594390 -2.2303686261 -0.7196809577
H 1.1206489509 -4.3801458436 0.5553892986
H -0.6831806005 -4.4511385384 0.9012449855