18

C 0.0315693502 1.5568709123 -0.1517040800
C 0.0375655309 0.0468621384 -0.0633993634
C 1.1557405379 -0.7212446618 -0.6281715200
O 1.0519337207 -0.5062609321 0.7831916934
C -1.3296649157 -0.6062791116 0.0325273826
C -1.4109958080 -2.0621973216 0.5780201704
C -2.3232340167 -1.4779682561 1.6830984237
O -2.9720980099 -1.9140835085 2.5931544663
N -2.1357826180 -0.2023262001 1.1977998854
H 1.0507254029 1.9416332851 -0.2311278130
H -0.5391535374 1.8963533054 -1.0230931990
H -0.4245923436 1.9899474343 0.7445295246
H 1.0024324588 -1.7488494531 -0.9552286405
H 1.9714048512 -0.1954128984 -1.1223614494
H -1.8612570725 -0.4640236733 -0.9174753409
H -1.9003642555 -2.7891710092 -0.0710819511
H -0.4642749967 -2.4503935301 0.9537601945
H -2.6205730986 0.6565082104 1.4134998665