18

C -0.3449999572 1.4551861321 -0.1511128621
C 0.0281800568 -0.0228467832 0.0464308454
C 0.9402429662 -0.2017141676 1.2707926311
O -1.1537289409 -0.8200530787 0.1858392893
C 0.7058928672 -0.5552868124 -1.1865006508
C 0.3156561034 -1.5748786181 -2.0206434634
N 1.2947605027 -1.6168944965 -2.9554827355
N 2.2400547481 -0.6876381500 -2.7279950609
N 1.8811897605 -0.0441097845 -1.6539426834
H 0.5453479047 2.0509051793 -0.3678821875
H -1.0452559745 1.5563919606 -0.9842626517
H -0.8170968750 1.8539583659 0.7545723700
H 0.4599382558 0.2074212084 2.1674975564
H 1.1420570457 -1.2632735640 1.4354242939
H 1.8909898522 0.3161966287 1.1209880128
H -1.6200373196 -0.5102022116 0.9688647940
H -0.5350494453 -2.2320844066 -2.0166013974
H 1.3871500392 -2.2280019518 -3.7509483101