17

C -0.0222357965 1.5788699880 0.0076648851
C -0.0243437986 0.0505497391 0.0397785647
N -1.3793420592 -0.5238402813 0.0187490045
C -1.9985876887 -0.7424822591 -1.2108990469
N -1.4051275049 -0.4531426864 -2.2978602842
C -2.0776242078 -0.8052265146 1.1800720362
N -3.2741906678 -1.2586569214 1.1864241541
C -1.3613626689 -0.5524674716 2.4211293959
N -0.8759645313 -0.3775816921 3.4562922224
H 1.0087311008 1.9453624601 0.0084222741
H -0.5153236966 1.9425777657 -0.8966115989
H -0.5295532935 1.9972186254 0.8822996718
H 0.4865494245 -0.3453616186 -0.8387827125
H 0.4883979179 -0.3219121210 0.9291420106
H -2.9944288721 -1.1700807485 -1.1009754921
H -1.9970715841 -0.6922257405 -3.0908885724
H -3.6049694433 -1.4116704533 2.1350974977