15

C -0.0197083542 1.4972018482 -0.0090290885
C 0.0018082829 -0.0077526764 -0.0061606903
N -0.0195635675 -0.6136813795 -1.1620958916
C -0.0012636966 -1.9998157674 -1.2239665904
N -0.0187276859 -2.7231232790 -2.2748182632
N 0.0408058255 -2.6854503664 0.0170562183
C 0.0619538733 -2.0372302440 1.1912539510
F 0.1006969982 -2.8219249745 2.2507682827
C 0.0443632001 -0.6846602758 1.2597197673
H 0.8691306185 1.8942553179 0.4942837159
H -0.0521722005 1.8674598954 -1.0334365530
H -0.8914734351 1.8692107415 0.5410897431
H -0.0488912615 -2.1098333361 -3.0873559476
H 0.0543478433 -3.6949511703 -0.0149948534
H 0.0615288195 -0.1676186037 2.2065345898