23

C -0.0902978237 1.6421989971 -0.1769462048
C 0.0523140012 0.1577391836 0.1820979005
C -1.2800882226 -0.5688047919 0.1426673897
C -1.7497527072 -1.2916930251 -1.1005393249
C -1.4567519401 -2.0742051980 0.1558590927
C -0.3432916600 -3.0840485234 0.2208749806
O 0.7812407498 -2.8295874507 -0.5862558852
C -0.1012873254 -3.8313241925 1.5111999753
C -0.7043811361 -4.5394489639 0.3136386348
H 0.8773208699 2.1531604507 -0.1508834625
H -0.5094192003 1.7626350578 -1.1812142295
H -0.7574498846 2.1553610087 0.5244510961
H 0.7499745230 -0.3100747227 -0.5192700212
H 0.4969493866 0.0700290735 1.1833678529
H -2.0590625003 -0.0384421310 0.6884624193
H -2.7777225099 -1.1846709329 -1.4295319060
H -1.0253566056 -1.3946505049 -1.9019766878
H -2.3292743544 -2.4101973652 0.7113129874
H 1.3591954064 -2.2311744108 -0.1021387244
H 0.9270742232 -4.0695047808 1.7610522323
H -0.7373448522 -3.6139540367 2.3627652513
H -1.7536114118 -4.8117610981 0.3439925252
H -0.0667316958 -5.2269649625 -0.2293399718