25

C -0.1450358543 1.5439446222 0.0645749853
C 0.0152851043 0.0238593499 -0.0337738140
C 0.8546983871 -0.4652266587 -1.2321222006
C 2.3095433741 0.0179102256 -1.1501796146
C 0.7505262211 -1.9957802977 -1.3479124099
C 1.3597444910 -2.6518659594 -2.5947605679
C 1.6615012061 -4.0694987194 -2.0893283068
C 2.0814397373 -3.8021573442 -0.6369510534
O 1.4066647273 -2.6123183451 -0.2308232557
H 0.8079366219 2.0494271379 0.2479379368
H -0.5686406419 1.9590667660 -0.8576296321
H -0.8174542579 1.8109047340 0.8861519970
H 0.4610570441 -0.3671898338 0.8885186161
H -0.9814965515 -0.4309030021 -0.1040638430
H 0.3985594303 -0.0583375478 -2.1477181731
H 2.3600467077 1.1078563300 -1.0848940407
H 2.7987752112 -0.4024902959 -0.2668913015
H 2.8911951925 -0.2747573249 -2.0294947298
H -0.3206493917 -2.2596929304 -1.3065975117
H 0.6771357846 -2.6305542811 -3.4479936012
H 2.2853671826 -2.1474751902 -2.8893567552
H 0.7557670071 -4.6847016969 -2.1183338276
H 2.4352152001 -4.5846180071 -2.6639440235
H 1.8098778014 -4.6190902107 0.0418853676
H 3.1677893757 -3.6478553002 -0.5591185306