15

O -0.0911735542 -0.0151899943 0.0807875491
C -0.0277272620 1.1698553941 -0.1154698223
C 1.2680706427 1.9599010191 -0.1287971675
C 1.3851983674 2.8565990024 -1.3740617433
O 0.3712478568 3.8483624665 -1.4454726048
C 0.9476808448 5.0827103479 -1.0773644932
O 2.3553578006 4.9662969275 -1.2424340866
C 2.6889618804 3.6537333990 -1.3677001640
O 3.8096953364 3.2532311382 -1.4425860907
H -0.9398211691 1.7778512550 -0.2992459178
H 1.2875006952 2.5933789137 0.7690435142
H 2.1156112825 1.2714105088 -0.0830169908
H 1.3392021223 2.2474954013 -2.2829007194
H 0.5718085404 5.8678950817 -1.7389557292
H 0.7372444059 5.3336034192 -0.0275920638