19

C -0.0946176697 1.5319886996 0.0118845408
C -0.0917123586 0.0277565873 0.0040636794
C 0.4768781781 -0.7859194987 -1.1930516855
C -0.4769144373 -1.9035434513 -0.7740488254
C -0.5175289016 -1.9192307090 0.7829104369
C 0.3798055291 -0.7860716342 1.2573304320
O 1.7516569442 -0.9889053995 1.4944940716
C -1.3561811553 -0.9547526031 -0.0255489083
O -2.7071648466 -0.7496971719 -0.1299257972
H 0.9300220793 1.9171876878 0.0730314444
H -0.5541227997 1.9396273190 -0.8947523882
H -0.6463553117 1.9271260750 0.8726884804
H 0.1798404550 -0.3471320530 -2.1496597561
H 1.5586436845 -0.9731745233 -1.2062276322
H -0.7789818038 -2.7835786284 -1.3265724690
H -0.8412434058 -2.8040070509 1.3166339816
H -0.0158213367 -0.3248634420 2.1687012567
H 2.0881155869 -1.5762111978 0.8104418096
H -3.0483627502 -0.4888861455 0.7328473686