22

C 0.0029197700 1.6493770249 0.0315612252
C 0.0287979351 0.1098330635 0.0057882573
C 0.7146387437 -0.4281941771 -1.1649035509
C 1.2980647668 -0.8510660637 -2.1323635001
C 1.9426592492 -1.3272009408 -3.3341251359
C 1.6640636668 -0.5023481718 -4.5791003657
C 3.2581209194 -2.0414379381 -3.1912194455
N 2.0671157082 -2.7803791305 -3.5771594187
C 1.5178424683 -3.7104265654 -2.6002655294
H 1.0182229509 2.0549085684 0.0413886390
H -0.5089978094 2.0439776689 -0.8502781244
H -0.5206454324 2.0066495584 0.9232861686
H 0.5151097968 -0.2626541368 0.9166953764
H -0.9997659610 -0.2727700179 0.0360632043
H 2.0112485291 0.5271186762 -4.4465424478
H 2.1730457635 -0.9434917836 -5.4393882119
H 0.5904880133 -0.4749056432 -4.7894268466
H 4.0193211409 -1.9223275091 -3.9590508496
H 3.6396366332 -2.1724146249 -2.1798437873
H 1.6058147454 -3.3668870914 -1.5592315972
H 0.4580183051 -3.8766963787 -2.8166556045
H 2.0418905468 -4.6661955071 -2.7008281754