17

O 0.0424433395 1.3864652143 0.0606678341
C -0.0360402975 -0.0004753404 -0.0314663827
C -1.3454034012 -0.7421445965 -0.0031117427
C -2.6015543522 0.0794227767 -0.2952768435
C -2.4003577176 0.5738291838 -1.7073130201
C -1.2647815866 0.1001090454 -2.2592316090
C -0.7993278830 0.3465109224 -3.5745862418
C -0.3749381014 0.5228810836 -4.6884094194
C -0.4915925573 -0.7326210184 -1.2799534995
H -0.4182600617 1.7652175255 -0.6986884298
H 0.7888631849 -0.4571770053 0.5064284900
H -1.4304272841 -1.6330060469 0.6082524010
H -3.5157423075 -0.5216167944 -0.2115530320
H -2.7102153795 0.9133747645 0.4117231066
H -3.0926559580 1.2413649611 -2.2065267364
H -0.0090005854 0.6886313814 -5.6712774567
H 0.0701581387 -1.5869936368 -1.6391654381