18

C 0.1435003991 1.5591761585 0.1292430850
C -0.0827751590 0.0525460970 -0.0914776205
C 0.7001321507 -0.4913545722 -1.2455851028
N 0.1354330001 -0.7613914448 -2.4244109935
N 1.1524064092 -1.1878186390 -3.1661550296
N 2.3376831691 -1.2271922740 -2.5786038113
C 2.0829853075 -0.7863899105 -1.3428387227
C 3.1736742377 -0.6388505935 -0.3288756787
O 3.5153458025 0.7222085624 -0.0679488621
H 1.2044472864 1.7638245195 0.2950264647
H -0.1851125906 2.1309945941 -0.7442326657
H -0.4214229215 1.9102323586 0.9981272979
H 0.1964693497 -0.4905604644 0.8197604710
H -1.1429443552 -0.1495942719 -0.2704486006
H 1.0226554617 -1.4863644872 -4.1190239552
H 2.8560891423 -1.0430801786 0.6374364607
H 4.0466635387 -1.2140374465 -0.6643095859
H 3.7734843617 1.1171337327 -0.9078182106