19

C 0.2495263816 1.4476074119 0.1472034256
O 0.4691229219 0.0607984067 0.0168670746
C 0.6307191732 -0.6208586722 1.2572103921
C -0.7174344380 -0.8952585591 1.9443892593
C 1.3537176760 -1.8656477478 0.9981330133
C 1.9465059190 -2.8970529424 0.8109284957
C 2.6348254352 -4.1389878375 0.5906044459
C 3.5510786306 -4.3233306408 -0.5529819010
O 4.0633706787 -4.1507657177 0.7608069130
H 1.0572483000 1.9352377596 0.7152787553
H 0.2323504056 1.8609337799 -0.8639916145
H -0.7071911727 1.6849735429 0.6350823619
H 1.2498200191 -0.0006814381 1.9284876715
H -1.3490369612 -1.5035893781 1.2924439298
H -0.5614971695 -1.4308125024 2.8847295479
H -1.2358104613 0.0415797677 2.1658394144
H 2.1422121556 -5.0258939143 0.9877696829
H 3.6676484312 -5.3181788376 -0.9813130978
H 3.7121260051 -3.4907125706 -1.2347674096