21

C -0.1007149549 1.5538420861 0.7017898201
C 0.0823830986 0.1529889719 0.1233671968
O 0.9605258795 -0.5587377505 0.9958562030
C -1.2670871772 -0.5507454844 -0.0386693627
C -1.9156481838 -1.0999165753 -1.2748758906
C -1.0434172592 -2.0014828744 -2.1975711531
C 0.3647701849 -2.2949932060 -1.7337600432
C -0.7914012546 -2.9559906555 -1.0434962723
C -1.6170014987 -2.0326716135 -0.1021384602
H 0.8715831178 2.0378990095 0.8274916169
H -0.7124248785 2.1701235131 0.0350272121
H -0.5866197896 1.5029726839 1.6817222737
H 0.5554672302 0.2594769512 -0.8621379847
H 0.6647982433 -1.4740975281 1.0158600323
H -2.0273343088 -0.0718121352 0.5801349338
H -2.8868777750 -0.7547744246 -1.6083194666
H -1.3604743491 -2.2474849762 -3.2026308551
H 0.8950459636 -2.9571431924 -2.4135837670
H 1.0145797515 -1.5881600241 -1.2383325321
H -0.9208635760 -4.0304748673 -1.0235174346
H -2.3264433640 -2.4476504883 0.6031830335