17

C -0.0356591624 -1.2099636442 0.0304644278
C -0.0389904485 -0.0081007410 0.0133904585
C 0.0048820911 1.4493245784 -0.0073331939
C 1.4275176950 1.9934249075 0.0012383183
C 2.5675077701 1.7769262872 -1.0200275285
N 3.2350240305 2.7043685315 0.0118461383
C 1.8991733064 3.4665526211 -0.0148093819
C 2.5434038118 1.8072549125 1.0545998767
H -0.0502161510 -2.2714709870 0.0460191217
H -0.5180240142 1.8245496623 -0.8971780141
H -0.5383763611 1.8500884435 0.8588728768
H 3.0235556004 0.7855790013 -1.0774257335
H 2.4655042880 2.2296340596 -2.0106432092
H 1.7465110050 4.0478779905 -0.9288795775
H 1.7255221194 4.0742854455 0.8780937154
H 2.4185682874 2.2886866033 2.0289246664
H 2.9976593222 0.8181635380 1.1515267288