18

C 1.0187049054 -0.3858197762 0.1997891902
C -0.2059453654 0.3982752692 -0.2135417411
O -0.1683009839 1.5484993658 -0.5692485961
C -1.5686786026 -0.3514725244 -0.1690541712
C -1.6976374578 -1.1864298019 -1.3671889950
C -1.7757307864 -1.8897976113 -2.3406093804
N -1.7146958890 -1.0361366068 1.1247227423
C -2.8470965394 -1.9426782099 1.2952394102
C -1.4588869722 -2.4724419340 1.2276438908
H 1.9116854833 0.2166955154 0.0314363745
H 0.9412459348 -0.6502604596 1.2589049659
H 1.0816366838 -1.3213227527 -0.3653135666
H -2.3261951103 0.4382314514 -0.2026054312
H -1.8563996258 -2.4928491637 -3.2116874002
H -3.3679626248 -1.8595760057 2.2444706602
H -3.4810865413 -2.1326863082 0.4319130708
H -1.1878442348 -3.0150182266 0.3255605133
H -0.9399880037 -2.7812520309 2.1302393733