20

C -0.0955422799 1.5165152402 0.1966628416
C -0.1581300466 -0.0007446326 -0.0076395968
C 0.5953148326 -0.4879442879 -1.2576536649
C 0.8099120783 -1.9860653905 -1.3635172404
C -0.3622773556 -2.8353578322 -1.6963351496
N 0.5934246263 -2.4745073175 -2.7532637042
C 0.1412648115 -1.3291886006 -3.5486895460
C -0.0872900024 -0.1465383039 -2.5948034263
O -0.6941462760 0.8598109943 -2.8570918285
H 0.9404856382 1.8531513127 0.3182411320
H -0.5237648428 2.0415009736 -0.6591967012
H -0.6465004430 1.8086225936 1.0958839345
H 0.2664374952 -0.5091016281 0.8666727195
H -1.2034737091 -0.3253843925 -0.0716736422
H 1.5790919232 0.0068242234 -1.2853855646
H 1.6549896077 -2.4240656547 -0.8404255736
H -0.3671478344 -3.8867990621 -1.4258191808
H -1.3479779868 -2.3712009870 -1.7115939202
H 0.9236628140 -1.0532787652 -4.2676537908
H -0.7641868604 -1.5537755731 -4.1199278776