15

C -0.0024231237 1.4134957534 0.0122223771
C 1.4402560837 1.9617223477 0.0136855826
C 2.1729920111 1.2157265711 -1.0486778704
C 1.7091535451 0.0661478422 -1.6047991061
C 0.4280888243 -0.5912595249 -1.2066055597
O -0.0347119559 -0.0117004254 -0.0000547068
O 2.5424595467 -0.3571742561 -2.5364451785
N 3.6353744529 0.6357464419 -2.5448952223
N 3.3630351075 1.4954758095 -1.6782481806
H -0.5356757022 1.7120904762 0.9171901030
H -0.5479503469 1.8117352412 -0.8575236374
H 1.4299582828 3.0394281414 -0.1806626228
H 1.9026687726 1.8119152610 0.9963978401
H -0.3166476822 -0.4906550439 -2.0140748045
H 0.5670799241 -1.6594423052 -1.0137870136