22

C 0.0093927473 1.5367565138 0.0461634292
C -0.0165549160 0.0050313095 -0.0178211163
C -1.4617248608 -0.4938452937 0.0987211368
C 0.6505329496 -0.5127468690 -1.3513673365
N 1.8339520956 -1.3660178456 -1.1731870348
C 1.5062494117 -2.3819224213 -0.1040100749
C 1.8071255020 -1.2917344161 0.9459423158
C 2.7232802409 -0.7030173866 -0.1474515579
O 0.6806518562 -0.4693777739 1.1657941016
H 1.0331294217 1.9160129411 -0.0177534015
H -0.5665397285 1.9688153188 -0.7795465806
H -0.4232895074 1.8835572389 0.9891406705
H -2.0720423995 -0.1091178969 -0.7256988764
H -1.5042722664 -1.5863072039 0.0727794673
H -1.9028367909 -0.1588327819 1.0420535265
H -0.0853457797 -1.0825329973 -1.9288544027
H 0.9486340473 0.3438023835 -1.9654703380
H 0.4992413524 -2.8041648377 -0.1395445802
H 2.2465408470 -3.1873567586 -0.1206156918
H 2.1992308727 -1.5504303791 1.9333856997
H 3.7185382265 -1.1567005106 -0.1731962970
H 2.8098877283 0.3835220463 -0.2219857288