21

C 0.5243780817 1.6351712133 -0.0813162383
C -0.0967216487 0.2445222498 0.1408714349
C 0.1474508073 -0.7419454025 -1.0347171347
C 1.2933876649 -1.6941391287 -0.5790697920
C 1.2909203959 -1.5106587650 0.9238380862
C 0.5412990066 -0.4799551828 1.3050067707
C 1.0900588082 -3.1059897670 -1.0920815700
C 1.3917214211 -4.3267460685 -0.3339504987
O 0.0441734581 -3.8800387094 -0.5003140234
H 1.5974076727 1.5569034835 -0.2877543740
H 0.0510466930 2.1446259044 -0.9274350366
H 0.4019669098 2.2699303854 0.8028322271
H -1.1726554997 0.3825504451 0.3075054936
H -0.7529579833 -1.3410215286 -1.2002945535
H 0.3779082467 -0.2260997722 -1.9712524884
H 2.2601149911 -1.3584208171 -0.9874750369
H 1.8820784466 -2.1283760240 1.5905099866
H 0.4288784460 -0.1373219484 2.3287632162
H 1.1229621015 -3.1854267218 -2.1816125758
H 1.6516645193 -5.2410726492 -0.8666175707
H 1.7815503910 -4.2598914662 0.6797653977