17

O -0.4409735759 0.6838826216 -0.8392336531
C 0.1224443841 1.0198254905 0.1704320118
C 1.3060586828 1.9780538573 0.1578153495
N 1.3172259148 2.7765843373 -1.0461120542
C 2.4302226497 3.7070957408 -1.0655502965
C 2.1727602163 4.7489388028 0.0213407426
N 1.8517928704 4.0860285692 1.2812333180
C 1.3515443964 2.8294692383 1.4321988310
O 1.0173312004 2.3717554085 2.5104774016
H -0.1448947436 0.6337854469 1.1712167465
H 2.1935093009 1.3101786921 0.2608332020
H 1.2531405892 2.1848914818 -1.8650525614
H 3.4093776725 3.2228162159 -0.8893552693
H 2.4746714018 4.2058249983 -2.0374854106
H 3.0590310422 5.3761322074 0.1664779370
H 1.3430848930 5.3964352492 -0.2914246302
H 1.8400053051 4.6359549121 2.1287453453