13

C -0.0536756297 1.3804275346 0.0783630859
O 0.0287170596 -0.0501676897 -0.0489001552
C 0.6407821715 -0.5086760355 -1.1198817284
N 1.1485041522 0.2385025477 -2.0227941272
C 1.7602148801 -0.3901751455 -3.0912967207
N 2.2955921060 0.2406832981 -4.0410279520
O 1.7670406699 -1.7958093959 -3.0850619972
N 1.1757857077 -2.5321036820 -2.0357753462
N 0.6409309036 -1.9295350852 -1.1025164600
H 0.9479316140 1.8147877445 0.1098363216
H -0.5990329973 1.8037512665 -0.7679701681
H -0.5851490646 1.5535246135 1.0127215366
H 2.6898952670 -0.4027351813 -4.7264966890