19

C -0.2858514969 1.4598652952 -0.1105754101
C 0.1729171788 0.0024094985 0.0577690323
C 0.8513178725 -0.5311906590 -1.1789105199
C 2.2180373918 -0.8267621618 -1.2095022632
N 2.8261490280 -1.2838303512 -2.3030201441
C 2.0586640355 -1.4481794205 -3.3794551975
C 0.6897922675 -1.1616396519 -3.3761313050
C -0.1682298307 -1.3561466802 -4.5962805099
N 0.0960355932 -0.7028609433 -2.2692356088
H 0.5673058252 2.1253227398 -0.2777122349
H -0.9570476871 1.5472353162 -0.9691300684
H -0.8166479193 1.8057085876 0.7812497897
H 0.8520911446 -0.0836124335 0.9127322390
H -0.6988353718 -0.6263003555 0.2716978655
H 2.8336754614 -0.6906971056 -0.3233673654
H 2.5437167405 -1.8216462701 -4.2782142438
H -0.9654052436 -2.0780915168 -4.3919288734
H -0.6524479883 -0.4154733661 -4.8766298071
H 0.4174431989 -1.7152122618 -5.4460653450