19

C -0.2687875964 1.5144842560 0.2865472004
C -0.0965454362 0.0285523519 0.0232225863
O -1.3638610824 -0.5944462954 0.1057663864
C -1.3150077910 -1.9828998027 -0.1245024986
C -2.7329990596 -2.5205137841 -0.0067641216
C -2.8226246996 -4.0060799152 -0.2326536577
O -1.8848458491 -4.7291974684 -0.4838569772
C -4.2152013435 -4.6475782300 -0.1352991972
O -5.2176959115 -4.0304636025 0.1082322961
H 0.6967743399 2.0256645073 0.2296798620
H -0.9417819596 1.9599123669 -0.4515852665
H -0.6924809773 1.6817636439 1.2808673907
H 0.3441513945 -0.1408281200 -0.9738512756
H 0.5936648957 -0.4188603688 0.7584067850
H -0.9052559943 -2.2049282129 -1.1228459595
H -0.6566089460 -2.4825893422 0.6039938344
H -3.1571313568 -2.2907276041 0.9790615645
H -3.4014227049 -2.0179932239 -0.7175535054
H -4.1934317819 -5.7435195459 -0.3145994866