16

N -0.0340160014 1.2020979633 0.3455469154
C -0.0220122263 -0.0163058889 0.0191331493
O 1.1103108882 -0.7122377328 -0.3421744996
C 0.7657282225 -1.9521316151 -1.0065628502
C 1.6762825364 -3.0096315292 -0.5850037478
C 2.4123220914 -3.9007796094 -0.2590736269
C -0.7062232471 -2.2002364014 -0.6776775139
C -1.0570170355 -2.1985553823 0.7756519290
C -1.1962387500 -0.9231443847 -0.0368055446
H 0.9014125472 1.6039310145 0.2651322409
H 0.8761572874 -1.7898592420 -2.0873109684
H 3.0671498064 -4.6848267017 0.0324032603
H -1.2958244280 -2.7591580543 -1.3924716657
H -1.9805722705 -2.6862980133 1.0641683459
H -0.2577809493 -2.2631634744 1.5062495174
H -2.1704964414 -0.4900072683 -0.2132689911