16

C 0.1020050882 1.3061883819 0.0521196190
O 0.0182623478 -0.0966604427 -0.0614911159
C -1.2756032430 -0.5900540177 0.1703610529
C -1.2405274709 -2.0980507560 0.0860231286
O -0.5224424206 -2.5878713462 1.2446168334
C -0.3177204599 -3.9008454111 1.2804063121
O -0.6693805255 -4.7117560161 0.4674621213
C 0.4237746379 -4.2604788847 2.4969031495
N 1.0009603904 -4.6015487733 3.4370148946
H 1.1397726716 1.5851622067 -0.1417376348
H -0.5466917235 1.8137170979 -0.6789620300
H -0.1780659419 1.6497442081 1.0596915623
H -1.6513915304 -0.2795579251 1.1591503429
H -1.9882199888 -0.2180705406 -0.5861515075
H -2.2499609796 -2.5192195428 0.0915566806
H -0.7238948418 -2.4294121482 -0.8179753891