21

C 0.1597938628 1.5204133969 0.1648170137
C -0.0952775551 0.0226810337 -0.0536452428
C 0.5968934364 -0.5174032373 -1.2755170588
C 0.1959058737 -0.2096522271 -2.7292398922
C 0.5580273326 -1.6794190686 -3.1238790457
C 0.9614668042 -1.9447387200 -1.6712160072
C 2.0499720145 -0.9738480779 -1.2357067683
C 3.0717259924 -0.4819949802 -2.1147418825
C 3.9242831794 -0.0646644173 -2.8551925296
H 1.2276239192 1.7215142097 0.2975302183
H -0.1832872786 2.1076180412 -0.6934384730
H -0.3678018343 1.8852677692 1.0513397782
H 0.2333891264 -0.5413367962 0.8286522624
H -1.1754842664 -0.1549650817 -0.1453544051
H -0.8732657602 -0.0051183910 -2.8274459055
H 0.7584577178 0.5852910854 -3.2257800923
H -0.3175550354 -2.2551708547 -3.4305277598
H 1.3478309914 -1.8063333508 -3.8692089715
H 0.8141601776 -2.8689118528 -1.1229969122
H 2.3911823674 -1.1635592586 -0.2201502337
H 4.6813527643 0.3020914180 -3.5027615322