20

N -0.0203676971 1.1464663605 0.5638686110
C 0.0390295984 -0.0291285307 -0.1321801043
O 1.0591719148 -0.3975019355 -0.6912912785
C -1.2296299447 -0.8176126944 -0.1508592359
C -1.4651685429 -1.7349846668 -1.3406226929
C -1.1509440907 -2.3331599208 -0.0197841113
C 0.0795435358 -3.1376678724 0.4224425777
C -0.7786139089 -3.7301062843 1.5798567299
C -2.0601038020 -3.1541443123 0.9074589118
H 0.8257551033 1.6835334055 0.6578362857
H -0.8289850789 1.4191974653 1.0932060067
H -2.1029405876 -0.3463229310 0.2921703922
H -2.4784546419 -1.8056504267 -1.7231961171
H -0.6770814829 -1.7295077210 -2.0865724678
H 0.3648615782 -3.8892219467 -0.3199788024
H 0.9693730835 -2.5675489987 0.6901055298
H -0.7439537810 -4.8132886150 1.7130101392
H -0.5650020883 -3.2570062465 2.5416651124
H -2.7507678619 -2.5971772442 1.5472897753
H -2.6308170755 -3.9140311241 0.3636710385