18

N 0.7104160990 -0.3095620189 0.4476485294
C -0.1470054214 0.5765722876 -0.1309061286
O 0.1829598103 1.6272901607 -0.6431116016
C -1.5978393158 0.1523437580 -0.0926608307
O -1.9137956807 -1.1175269822 0.4885135022
C -2.3864297999 0.0669224937 1.1531160229
C -1.8596857887 0.3661182841 2.5331889240
C -2.4672954004 -0.5628414804 3.5928334793
O -2.0657875378 -0.2209573298 4.9074693416
H 1.6995649260 -0.1486138869 0.3505512682
H 0.3721320588 -1.2249944586 0.6955236801
H -2.1250017469 0.3936618023 -1.0141532792
H -3.4627930699 0.2100681314 1.0372640447
H -0.7682800166 0.2787507735 2.5448797682
H -2.1084336130 1.4028844994 2.7892850425
H -3.5595743579 -0.4765019557 3.5848249589
H -2.2238870490 -1.6086926388 3.3512748954
H -1.1154744461 -0.3589174595 4.9729065028