15

C 0.0770950894 1.4867312431 -0.0365965528
C 1.3366011502 0.6842369297 0.0031956660
N -0.0090007395 0.0275924275 -0.0104167117
C -0.2177807111 -0.6223069044 -1.3479011032
C 1.0327811064 -0.3027788163 -2.1216045739
C 1.8891255352 0.3881201321 -1.3301219143
O 3.0327397174 0.6687169089 -1.9454111417
N 2.9465175009 0.1336421226 -3.2500621902
C 1.7557008237 -0.4252427044 -3.3326391423
H -0.2760747028 1.9752603019 0.8676454028
H -0.1442730428 2.0127067631 -0.9631512583
H 1.9370600011 0.6004366037 0.9026682164
H -0.3570082620 -1.6972406962 -1.1886295408
H -1.1384692862 -0.2353241894 -1.7975182351
H 1.4851064799 -0.9021360218 -4.2645024508