27

C 0.1627077010 1.7517305378 0.0778109796
C 0.1939921273 0.2257747506 -0.0691427920
C 0.6097792389 -0.5038598637 1.2132102215
C -0.3438095773 -0.3314162341 2.4102966723
C 0.1553093494 -1.3877656155 3.4028919382
C 0.4437491766 -2.6121217996 2.5120351942
C 0.8206612802 -2.0558768289 1.1018004986
C 0.0290847490 -2.7497836974 -0.0200456743
C 0.3521725076 -4.2426436445 -0.1498632141
H 1.1369216880 2.1382259143 0.3987218858
H -0.0887311661 2.2336232849 -0.8723595597
H -0.5788641140 2.0722965951 0.8163253301
H -0.7929441589 -0.1255641117 -0.3950654758
H 0.8913557587 -0.0359060488 -0.8755873215
H 1.5769416536 -0.0804573216 1.5229624919
H -0.3381354166 0.6816288775 2.8225229920
H -1.3762152921 -0.5540734410 2.1055585703
H 1.0781979732 -1.0336428717 3.8787151733
H -0.5562383454 -1.6062407675 4.2046785514
H 1.2182936169 -3.2607874375 2.9306334703
H -0.4633219190 -3.2229869646 2.4324008632
H 1.8831144329 -2.2438558216 0.9026976226
H -1.0481302148 -2.6236215067 0.1555760210
H 0.2412593334 -2.2638882151 -0.9789660168
H 0.1180190549 -4.7923424876 0.7674997064
H -0.2179354134 -4.7009827167 -0.9642254911
H 1.4167727959 -4.3950888044 -0.3620438675