21

C 0.6244881436 1.9055034445 1.7909014646
C 1.0626590909 0.5006511152 2.2068845777
C 0.8572448792 -0.5322628806 1.1176490140
N 0.6211782414 -0.1405979840 -0.0708979214
N 0.8532457642 -1.9162233232 1.4925398081
C 0.1580498057 -2.8263946049 0.5831271061
C 1.6173655763 -2.4149065126 2.5508938549
C 1.5249016958 -3.9097437642 2.8298012091
O 2.3361777139 -1.7126359375 3.2312308657
H -0.4371140116 1.9340633017 1.5302522098
H 0.7974410523 2.6031998234 2.6161077866
H 1.1819070554 2.2507316642 0.9182000044
H 2.1167040501 0.4933335528 2.4938561642
H 0.5295836305 0.1746533644 3.1063481701
H 0.5202761973 -0.9074396241 -0.7330606357
H 0.7809892507 -3.1333555874 -0.2672601046
H -0.1593738178 -3.7219658678 1.1120617436
H -0.7357550825 -2.3318607388 0.1969975796
H 1.8334718111 -4.5113502384 1.9697189161
H 2.1920071884 -4.1142551323 3.6662285176
H 0.5086965951 -4.2121867004 3.1025367494