18

C -0.0675029346 1.4766786836 0.1335392272
O 0.0202454408 0.0633325663 0.1129921460
C -1.2071647647 -0.5681787908 -0.0270394117
C -2.1871009400 -0.5989962746 1.1736010759
N -2.4616879199 -2.0279434398 0.8787875944
C -1.2852822431 -2.1308792550 -0.0338978538
C -1.8124992163 -2.0726482543 -1.4800543322
O -2.0481951941 -2.8851213451 -2.3231297478
C -1.8773852170 -0.5251189778 -1.4418480622
H 0.9502523129 1.8584350851 0.2362523439
H -0.5051113686 1.8712161826 -0.7945495233
H -0.6685524466 1.8344457970 0.9819745988
H -1.6465540542 -0.4274412432 2.1137385207
H -3.0726691781 0.0450691995 1.1402653958
H -2.4292788147 -2.6527249299 1.6737349948
H -0.4693758399 -2.7986172485 0.2494492836
H -2.8770489072 -0.0909792743 -1.5189418124
H -1.2290108347 -0.0780452207 -2.2020523875