20

C -1.0671994641 0.9683986251 0.1616965176
C -0.0586933049 -0.1634683078 0.0430532051
C 0.8235240300 -0.3223908152 -1.2433330230
C 1.0843012475 0.9433740871 -2.0514441547
C 1.9986623138 -0.7663761459 -0.2965949865
C 3.3426721620 -0.2775531315 -0.5299609471
N 4.4091295504 0.1499121578 -0.6682680775
C 1.2276311536 -0.1143273791 0.9089742529
O 1.5969192395 1.2202666139 1.1526982277
H -0.5933873534 1.9441797527 0.0415070074
H -1.8517312522 0.8673024063 -0.5956629361
H -1.5500823270 0.9525623825 1.1442519996
H -0.5566494636 -1.1197363919 0.2393493844
H 0.4968454920 -1.1238637417 -1.9115010330
H 1.4425420796 1.7577297954 -1.4180413480
H 1.8380192294 0.7585392241 -2.8234652746
H 0.1673065416 1.2728789626 -2.5499909762
H 2.0234430323 -1.8545296621 -0.1897754246
H 1.2290310047 -0.7054291512 1.8343356295
H 2.5256429889 1.2433774089 1.4119905470