21

C -0.0634463035 1.5333492588 -0.0913380747
C 0.1164710043 0.0314214334 -0.0231515200
C 1.4242714448 -0.6969922920 -0.2672046213
C 2.5976248478 0.0029455656 0.3755107348
C 3.1734161920 -0.8631740617 1.4664587150
C 1.9187681480 -0.0727896658 1.7572050771
C 1.8393408269 0.9394744364 2.8685738793
C 0.7392380300 -0.7645454454 1.1032829331
O 0.1111768908 -1.8857982433 1.6342543906
H 0.8169939602 2.0654486216 0.2756482641
H -0.2350970783 1.8522133004 -1.1257125766
H -0.9257579063 1.8607474663 0.5009229546
H -0.7196839469 -0.5262210992 -0.4450278161
H 1.5009947922 -1.4999440773 -0.9921126997
H 3.1386675105 0.8496066929 -0.0321401575
H 3.1339045779 -1.9454039696 1.3782670961
H 4.0748858017 -0.4855147453 1.9416313467
H 2.7961443117 1.4533897522 3.0082131289
H 1.0755886934 1.7002821126 2.6761283160
H 1.5905815818 0.4535904293 3.8200854971
H -0.6653243088 -1.5941410199 2.1233865826