15

O -0.8623888813 1.2534620961 0.3653795395
C -0.3172987732 0.0325809908 0.1514078192
C 0.2032363056 -0.4237475969 -1.0336776751
C 0.3134007251 0.1997734162 -2.3940655342
C 1.3965246842 -0.3695436217 -3.1932081393
C 2.2746710589 -0.8838846564 -3.8333757275
N 0.6126139539 -1.7150470453 -0.7380663706
C 0.3391582644 -1.9494682473 0.5674182309
N -0.2349465990 -0.9055188882 1.1373720446
H -1.1097159598 1.2787316053 1.2975145663
H -0.6276102750 0.0956943673 -2.9552711058
H 0.4656601976 1.2789345809 -2.2723117741
H 3.0578232898 -1.3047863240 -4.4142607735
H 1.1011005810 -2.3171695838 -1.3809963765
H 0.5766717078 -2.8822012531 1.0548407759