17

C 0.0043651226 1.4713762755 0.1136808373
N 0.0173606445 0.0289418827 -0.0000425736
C -1.0874183550 -0.8062913319 0.0383946189
C -0.7922896633 -2.1328538817 -0.0020937937
C -1.7228906684 -3.3014933835 0.0026758250
C 0.6634756756 -2.2162404970 -0.0652550557
O 1.4069536782 -3.1746098921 -0.1223129539
C 1.1609227891 -0.7563707775 -0.0476002237
N 2.3507605551 -0.3201457221 -0.0659600424
H 0.9975430850 1.8340257655 -0.1546303043
H -0.7326976398 1.9036694643 -0.5702061938
H -0.2237975961 1.7997720271 1.1351051644
H -2.0705831082 -0.3534253171 0.0889691064
H -1.5997766081 -3.9105588631 -0.8998783611
H -1.5254967893 -3.9613562700 0.8548387523
H -2.7670654488 -2.9803241933 0.0561062528
H 2.9803293670 -1.1270705857 -0.1079552148