18

O -0.0256268815 1.3194533686 -0.1499144661
C -0.0133775301 -0.0836480871 -0.0189758571
C 0.1728236496 -0.6053637129 1.4352101377
N -1.2629998671 -1.0617518714 1.5287851959
C -1.4371571244 -0.6159552584 0.0760872604
C -1.4438903871 -2.0341537484 0.4534485851
C -0.5688488453 -3.2152592528 0.0307905686
O -1.7323285852 -4.0651014350 -0.0420721360
C -2.6098851233 -3.0141996259 0.4244382081
H 0.8841722233 1.6331711265 -0.1284112253
H 0.6172353404 -0.5468316809 -0.7926952681
H 0.9072453725 -1.3985804847 1.6123299221
H 0.3408400130 0.2176312372 2.1324878092
H -2.3156927225 -0.0787228917 -0.2671641218
H -0.0578886788 -3.1296687665 -0.9366953348
H 0.1468009964 -3.5618004878 0.7884443326
H -3.0392940684 -3.2329777311 1.4093776781
H -3.4132868313 -2.8018468977 -0.2908742484