16

N 0.0084293206 1.3672353669 0.1607391016
C -0.0647357689 0.0001559337 0.0047968301
N -1.1795591850 -0.6084231694 -0.0086155950
C -1.1923213139 -2.0645007371 -0.0485111037
C 0.1327390504 -2.6911110198 0.3606378440
O 1.2024024201 -2.0690258456 -0.3526050132
C 1.3065660196 -0.7091160541 -0.0152749242
C 2.2158195223 -0.0633109171 -0.9725504188
N 2.9112247336 0.5070903204 -1.6975427545
H 0.7654032737 1.8417716609 -0.3108065175
H -0.8867132845 1.8282053776 0.0716234486
H -1.9927914294 -2.4247217114 0.6093393618
H -1.4570666092 -2.3839120208 -1.0653473617
H 0.2970463015 -2.5841467928 1.4447228655
H 0.1812701585 -3.7522108992 0.1057344518
H 1.7504869207 -0.5852383721 0.9893834952