19

C -0.0094514687 1.5713367726 -0.0355384090
C -0.0419574385 0.0415584830 -0.1153923150
C 0.7195257201 -0.5035583227 -1.3191635328
C 2.2952217654 -0.6030742798 -1.1279518997
O 2.9682723200 0.1763251189 -0.1900333690
C 1.9853403202 -2.0312280644 -0.7024296171
O 2.3113288301 -2.6029186718 0.3093612452
C 0.6663344936 -2.0874546987 -1.4565659897
O -0.3579075168 -2.8271629733 -0.8745849586
H 1.0183263031 1.9328039264 0.0492536624
H -0.4559755119 2.0205661211 -0.9295994050
H -0.5728843698 1.9291990959 0.8316710551
H 0.3725774197 -0.3812605173 0.8091697780
H -1.0753478010 -0.3177649843 -0.1726347164
H 0.4327906498 0.0122513880 -2.2378676466
H 2.7936922956 -0.5278079644 -2.0997815043
H 3.0545044530 -0.3604662137 0.6095663813
H 0.7730688394 -2.3721807355 -2.5081414460
H -0.0546116832 -3.0890372101 0.0048800374