17

C 0.1822293076 1.5562555580 -0.3359995438
C 0.0526707666 0.0731551253 -0.0612397215
C 1.2574291630 -0.8359660449 -0.0645704757
C 0.5150433461 -0.5779964283 1.2226580097
C 1.1812545719 0.2330897341 2.3370983068
C 0.1782265726 0.8977071869 3.1863081394
N -0.6309053215 1.4265490698 3.8173804386
C 2.0686248535 -0.6151628953 3.1497356939
N 2.7740857543 -1.2972731256 3.7576077312
H 1.1454602491 1.9596170411 -0.0078787575
H 0.1096581496 1.7480803559 -1.4112117318
H -0.6092987564 2.1267458648 0.1606157364
H -0.8610041641 -0.3619546905 -0.4568033208
H 1.1866478076 -1.8235714675 -0.5050459917
H 2.2307922405 -0.3687358164 -0.1827926799
H -0.1002456183 -1.3832289389 1.6093854819
H 1.8039679979 1.0194654115 1.8944097148