20

C -0.0028323895 1.6094652972 -0.1614461942
C 0.0125331674 0.0845937438 0.0260398942
C 0.5680008099 -0.6367575200 -1.2127629562
C 0.7861628964 -0.3112753483 1.2499698220
O 0.5681818670 -1.6026422435 1.8224741296
C 0.4505804980 -0.4552731173 2.6689573429
C 1.8892062614 0.0211717269 3.0793690594
N 2.8682739779 -0.9102949402 2.4695854486
C 2.2465230751 0.1588200181 1.6513403055
H 1.0053900306 1.9997071596 -0.3390625268
H -0.6159139108 1.8825203055 -1.0258008287
H -0.4110460005 2.1172781613 0.7179964878
H -1.0168394583 -0.2576196258 0.1912498652
H 1.6036450877 -0.3374701798 -1.4100425038
H 0.5523815178 -1.7208194669 -1.0712929818
H -0.0246060803 -0.3953200155 -2.1008091693
H -0.4739343843 -0.3169396943 3.2173822863
H 2.1349555209 0.6499803511 3.9245069803
H 3.7925189765 -0.5655262642 2.7334628263
H 2.8356830771 0.9175157825 1.1538678224