18

C 0.0048319796 1.3913088204 -0.3038429142
O 1.3004486143 1.8946286053 -0.1108167863
C 2.1034630615 0.7444189248 0.1476401693
C 3.3346943510 1.0366408002 1.0226877046
C 3.4826033078 -0.0095395593 2.1533312318
C 2.8114686369 -1.3531167764 1.8093443199
N 1.3745800487 -1.1840258159 1.5537040657
C 1.1254066972 -0.1930625961 0.8182991493
O -0.1301368566 0.2340286304 0.5264935092
H -0.7269543985 2.1411414729 0.0055408745
H -0.1648199939 1.0923437464 -1.3511915723
H 2.4184700952 0.2898131930 -0.8070826134
H 4.2275072918 1.0502872533 0.3916278278
H 3.2191794094 2.0413128409 1.4377015661
H 4.5406539294 -0.1643514310 2.3855994356
H 3.0055518247 0.3654416758 3.0650855344
H 3.3052794021 -1.8207534469 0.9434530846
H 2.9259417695 -2.0506727879 2.6436569434