12

O -0.1459617512 1.4893292031 0.1435381747
C -0.0100980990 0.1135510718 -0.0058363716
C -1.3223513803 -0.6724931136 -0.0017547567
O -2.0309511592 -0.3285402435 -1.1798176297
C -1.0178059247 -1.3544120665 -1.2969078663
C -1.3685898961 -2.6478981006 -1.7814279150
N -1.5911145819 -3.7064064194 -2.1898517737
C 0.2811843947 -0.5304595138 -1.4126453393
O 1.1749800145 -0.4688670039 -2.1922748320
H 0.7076323677 1.9030736803 -0.0257887572
H 0.7102892658 -0.3334056469 0.7013543604
H -1.8815159504 -1.0741794570 0.8340060766