16

C -0.0401479251 1.5169705209 0.1125091981
C -0.0256729555 0.0292899699 0.0218089479
C -0.0105409851 -0.7378696510 -1.0883238758
C -0.0253211485 -2.2297968570 -0.7796837424
C 0.0351446693 -2.2530507974 0.7403461842
O 1.2137043342 -1.6620148282 1.2852883747
C 0.0127368319 -0.8612573819 1.2246029956
C 0.0419393505 -0.2442125775 -2.4182400653
N 0.0714174555 0.1405809483 -3.5114574842
H 0.8568924600 1.8797903882 0.6289256305
H -0.0860266803 1.9817567570 -0.8745918882
H -0.9009824230 1.8609553855 0.6991358675
H -0.9390922862 -2.7070462798 -1.1522680914
H 0.8247572918 -2.7524699063 -1.2310771234
H -0.3771224567 -3.0857143275 1.3026280917
H -0.3867363129 -0.5454264231 2.1836224204