14

C -0.0914745065 1.4933451876 0.0508319974
C 0.0640743485 0.0110279721 0.0540649674
O -1.1570227033 -0.7802011109 -0.0280453221
C -0.6802951320 -1.6517680334 0.9380675770
O -1.2633671954 -2.5485101747 1.4527420409
C 0.6671301570 -0.9900147670 1.0449506167
C 1.2100731388 -0.8195788226 -0.3860806132
O 1.0544979738 -1.7688218248 -1.3809087134
H 0.8788948070 1.9781573946 0.1878354247
H -0.5090742606 1.8276312560 -0.9045219382
H -0.7631112413 1.8149939596 0.8517102017
H 1.2692794990 -0.8771610813 1.9354310059
H 2.1628740477 -0.2840055859 -0.3914113977
H 1.6032010274 -2.5315537192 -1.1677738770