14

O -0.0739502648 0.1217980200 0.5559828125
C 0.0217073406 1.2233472590 0.1307482062
O -1.0004299057 2.0474147586 -0.3090020310
C -0.0715701612 3.1174626989 -0.6980114296
C 0.1996128712 4.1100526076 0.4621032757
N 1.2064932573 3.1788813319 1.0471267941
C 1.1114887128 2.2751207875 -0.1247673538
C -0.2576460466 3.5778944530 -2.0421195995
C -0.3880654364 3.9897274490 -3.1636630284
H 0.6186732453 5.0522171806 0.0957993636
H -0.6590397578 4.3114138192 1.1082459625
H 2.1241620129 3.5921607119 1.1523986794
H 2.0219689845 1.9915574905 -0.6501142908
H -0.5130259723 4.3460781025 -4.1569201609