19

C 0.0634858134 1.5894145953 -0.0042841665
C 0.0291456934 0.0640904083 -0.0143313967
C 0.9214390380 -0.5753475954 -1.1057055225
O 2.2503297059 -0.1520092215 -0.6660778388
C 2.0362750835 -1.1013798336 0.4029642489
C 1.2217556119 -2.0088189634 -0.5435120079
C 0.1558159530 -2.6810837578 0.3098264688
O 0.0797868603 -1.8617965073 1.4923231100
C 0.7522045708 -0.6467394665 1.1731210568
H 1.0932412114 1.9526219877 0.0279494575
H -0.4133677361 2.0000702287 -0.9013131378
H -0.4714621569 1.9833575141 0.8659688748
H -1.0049613844 -0.2917187760 -0.0617468504
H 0.7170534101 -0.3709847597 -2.1572597123
H 2.9279751624 -1.3915531235 0.9558928068
H 1.7957241944 -2.6394726541 -1.2197493164
H -0.8240343496 -2.7375087643 -0.1842111847
H 0.4436183370 -3.6955866853 0.6074118886
H 0.8744435516 -0.0680412157 2.0878814819