10

C -0.0179363821 1.4777919489 0.0101053091
C 0.0008836658 0.0250951334 0.0024671994
C 0.0172206704 -1.1757795758 -0.0039239741
C 0.0377025013 -2.6329145978 -0.0124446201
F -1.2031326229 -3.1421257915 -0.0039000778
F 0.6586915862 -3.1093987123 -1.1016491483
F 0.6784802617 -3.1214201279 1.0598068595
H 0.9999087172 1.8808147075 0.0018469802
H -0.5434553155 1.8654014667 -0.8685733921
H -0.5254009619 1.8562149588 0.9032785443