11

O -0.0492807571 0.0318207156 -0.3336744935
C -0.0679001138 1.1808164292 -0.0747664601
C -1.0609244425 2.2385461571 0.3900387334
O -0.0187997492 3.2444342911 0.3709218848
C 1.0237731787 2.3589893762 -0.0673776519
C 2.0831019633 2.1841221206 0.9242643218
N 2.8858955531 2.0087362687 1.7360372085
C 1.5454817672 2.6967742400 -1.3901925989
N 1.9114579074 2.9379038284 -2.4588979542
H -1.8691554911 2.4540719622 -0.3175386158
H -1.4722356060 2.0753283010 1.3923036759