20

C 0.1041746644 1.5330281154 0.0493967710
C -0.0425724140 0.0450925246 -0.0587928565
C -0.9351351190 -0.7612031688 0.7953187988
N 0.5273217549 -0.9222266881 0.9767100016
C 0.9646064937 -1.8093378936 -0.1512827259
C 2.4229074019 -2.2896874416 -0.1015832566
O 2.0166675560 -3.6741958458 -0.1176859096
C 0.6221111004 -3.3106508652 -0.1181632180
C 0.4715895396 -0.8081570685 -1.2200171734
H 1.1156126173 1.8523836861 -0.2240881461
H -0.6009709205 2.0421478208 -0.6184250747
H -0.0936009996 1.8698272203 1.0711068192
H -1.4085454236 -0.2673279905 1.6384885664
H -1.5110080132 -1.5853060438 0.3772847199
H 3.0449882214 -2.0329499591 -0.9688687882
H 2.9453049012 -2.0167378460 0.8231782160
H 0.1067774859 -3.6354866642 0.7953286340
H 0.0941825515 -3.7070457750 -0.9950940310
H -0.2705175065 -1.1551236396 -1.9461737973
H 1.3003012182 -0.3429430573 -1.7606666998