19

O -0.2677749530 1.4540080274 -0.1439058269
C -0.0790515629 0.0605383824 -0.0447462923
C 0.2640406481 -0.5334783705 1.3603417139
C -0.7295025545 -1.6831045919 1.0424094069
C -1.4099823212 -0.7370745717 0.0135127933
O -0.1874748811 -2.8548588259 0.4565898455
C 1.0842311887 -2.8089423233 -0.1688923209
C 1.3425533601 -1.6998748114 -1.1646573240
C 0.8504958307 -0.4631993422 -1.1142042496
H 0.5982588555 1.8765129372 -0.1435300170
H 1.3038097142 -0.7745731627 1.5905889766
H -0.1435284031 0.1113677739 2.1427082951
H -1.3521435851 -2.0342828582 1.8677912726
H -2.1915406283 -0.1306783474 0.4798257703
H -1.7756205808 -1.1891539240 -0.9093008607
H 1.8850354217 -2.8021378929 0.5907535614
H 1.1666520683 -3.7717356388 -0.6840355189
H 2.0088043100 -1.9696256359 -1.9807581200
H 1.0865494226 0.2452389159 -1.9050836554