17

C -0.0809459513 1.3333857317 0.0351122326
O 0.0612215913 -0.0799275347 0.0090498817
C 0.6524051744 -0.6080951440 1.1557858443
O -0.1679932027 -0.4885111314 2.3075884913
C -0.4418351713 -1.7557895043 2.8171015035
N -1.1395843807 -1.9611158908 3.8523390385
C 0.2063292778 -2.7402581159 1.9618623240
C 0.8383629850 -2.0973400627 0.9656294049
N 1.6001738602 -2.5297466626 -0.0845500964
H 0.8908048762 1.8266027824 0.1840837279
H -0.4889921206 1.6283282377 -0.9333274124
H -0.7651090730 1.6469316440 0.8308512722
H 1.5993190600 -0.0810398902 1.3632570098
H -1.4775303706 -1.0776119297 4.2351054597
H 0.1261657439 -3.8022495614 2.1345298667
H 1.5234984895 -3.5064200917 -0.3260389744
H 1.5857377521 -1.9173170965 -0.8882392840