21

C 0.1286864413 1.4918499379 0.3340159569
C 0.0244745716 0.0220554600 -0.0819486359
C -1.3854168942 -0.5503021279 0.0945609790
C -1.4895069516 -2.0240271086 -0.3167020739
C -2.8830464900 -2.5969351448 -0.1206725509
C -3.0628000247 -3.9742972919 0.3850069878
O -3.2433268734 -2.8603472747 1.2519754461
C -3.9328342293 -2.0172706409 -0.9293257116
C -4.7803662595 -1.5244073646 -1.6249444318
H 1.1446078910 1.8751373704 0.1965367188
H -0.5474252749 2.1190948387 -0.2574760753
H -0.1377987375 1.6238514221 1.3884684288
H 0.3315133641 -0.0850302292 -1.1310849386
H 0.7357026838 -0.5756411356 0.5037876817
H -1.6951696591 -0.4547518752 1.1428282508
H -2.0986928085 0.0402848349 -0.4939017595
H -1.2062878292 -2.1425781216 -1.3702619020
H -0.7917330383 -2.6263216645 0.2762429535
H -3.9673159784 -4.5233504572 0.1298834927
H -2.1785797758 -4.5826325384 0.5733914281
H -5.5382207275 -1.0919112191 -2.2303465547