19

C -0.1134038149 1.5281614844 -0.0121849837
C -0.0717896802 0.0088405444 -0.0113601501
C 1.1726729539 -0.6795602885 -0.6547881305
C 1.7735688444 -0.5365489738 -2.0129087587
O 1.9739412533 -0.2494804156 0.5376449409
C 0.6837957436 -0.6919620154 1.1610517710
C 0.5211484753 -0.5683197292 2.6389817206
C 0.8680066234 -1.9162939479 0.2285128977
O 0.9130598577 -3.1044818146 0.2325278104
H 0.8615771981 1.9415364947 0.2531120632
H -0.3960281957 1.9073943669 -0.9997153258
H -0.8548830002 1.8957516019 0.7047507754
H -1.0376726402 -0.4383203527 -0.2744586834
H 1.9406766989 0.5154793549 -2.2635329310
H 2.7301209165 -1.0642378933 -2.0634714429
H 1.1030821340 -0.9687486352 -2.7621727777
H 0.5361582666 0.4798553093 2.9529959714
H -0.4333549899 -1.0078003602 2.9448010738
H 1.3248811155 -1.0998197801 3.1562105795