19

O -0.0534258855 1.3587866648 0.6012626124
C 0.0256856059 0.0723980487 0.0041534150
C 0.8800768297 -0.8995627393 0.8493592702
C -0.1027273837 -1.4105054797 1.8883215127
O -0.5107256090 -0.3626428078 2.8239699264
C -1.9057703955 -0.5096484868 2.4622575537
C -1.5320328816 -1.3876383666 1.2495637668
O -2.2526178393 -2.5673354726 1.0278103187
C -1.3475975046 -0.6377826740 -0.0783744563
H -0.1135963293 1.2152015294 1.5557238782
H 0.4430424831 0.2320244294 -0.9939913073
H 1.2287437321 -1.7426987218 0.2410092197
H 1.7540417999 -0.4065470019 1.2845736654
H 0.1952189853 -2.3213400367 2.4198659608
H -2.4663560581 -1.0511334373 3.2383862896
H -2.3876156358 0.4543536160 2.2700654346
H -2.3813394714 -3.0142800115 1.8715954342
H -2.1506025117 0.0724210868 -0.2890461174
H -1.3354218305 -1.3884603388 -0.8758232076