27

C -0.0285364858 1.5770276545 -0.1045592589
C 0.0640006450 0.0475376321 -0.0040354260
C 0.6611576804 -0.5320485650 -1.3016738251
C 0.7016833027 -2.0641124201 -1.3038746602
C 1.4429780714 -2.5956306753 -0.0721882319
C 0.8372971928 -2.0248055576 1.2157152705
C 0.7961417579 -0.4755104565 1.2743295108
C 2.2267058859 0.0875028648 1.4008620802
C 0.0088251096 -0.0790048937 2.5376081833
H 0.9576296197 2.0341156443 -0.2385150294
H -0.6366160392 1.8612050604 -0.9701424774
H -0.4887972032 2.0266431761 0.7795044438
H -0.9660331225 -0.3352572414 0.0686524299
H 0.0729620459 -0.1711204738 -2.1543920809
H 1.6757510431 -0.1372315171 -1.4491406180
H -0.3266777610 -2.4522856958 -1.3003175983
H 1.1688503484 -2.4314597352 -2.2248778969
H 1.4037676283 -3.6907959351 -0.0450313334
H 2.5056523026 -2.3297808170 -0.1399619442
H -0.1913249432 -2.4002980176 1.3129498088
H 1.3832825196 -2.4006746123 2.0902400167
H 2.8489044836 -0.1346956890 0.5297624442
H 2.2189706549 1.1737774982 1.5319883780
H 2.7252421782 -0.3423233719 2.2769326829
H 0.4564313518 -0.5362785605 3.4274587466
H 0.0021669587 1.0032405064 2.6977219726
H -1.0318759457 -0.4177456219 2.4791802922