20

C -0.1825263369 1.4176656511 -0.0352899934
N 0.0415469874 -0.0165404709 0.0605284327
C 1.4066902843 -0.4963571928 -0.1707009669
C 0.8014187138 -0.5312047262 1.1849763575
C 1.2825843474 0.2784906498 2.4127110517
C 0.9180197331 -0.7916277461 3.4690576623
C 1.4615222069 -2.1111322570 2.8758557421
C 0.3041687225 -1.7825990778 1.9061637300
O -0.4198474019 -1.1963596900 3.0386223299
H 0.6732539544 2.0296828301 0.2944893450
H -0.4005483765 1.6730416356 -1.0770232240
H -1.0525528803 1.6889977293 0.5709625090
H 1.4990554509 -1.3981721604 -0.7723868724
H 2.1851070006 0.2463637687 -0.3468400939
H 2.3468411402 0.5277731343 2.3939582382
H 0.7062736426 1.1934659024 2.5692022269
H 0.9882851977 -0.5290072332 4.5243547208
H 2.4852960941 -2.1472139015 2.4940732274
H 1.2332875284 -2.9686335822 3.5091536428
H -0.2593252687 -2.5180069233 1.3342305844