10

O 0.0349531712 -0.0207550505 0.0030603427
C -0.0175367909 1.1804048861 0.0101003589
N -1.2126469611 1.9114979664 0.0290850698
C -1.1192392550 3.1812289138 0.0342031308
O -0.0003352296 3.9367685600 0.0234804434
N 1.2370553423 3.3207373794 0.0045181123
C 1.2191919136 2.0283196346 -0.0014780817
C 2.4995228412 1.3838898621 -0.0223501593
N 3.5210685257 0.8438679944 -0.0390362081
H -1.9917541175 3.8305997137 0.0486630312