21

C 0.3370938937 1.5179210812 0.0911747873
C -0.0961456302 0.0623130976 -0.1282494768
C 0.5223481549 -0.5769079261 -1.3560311614
C 0.0823651276 -0.0946383952 -2.7585403044
C 0.8732052179 -1.0614897048 -3.6279928921
C 1.3359242784 -2.0738009530 -2.8670349979
C 2.7498002563 -1.8951337892 -2.2954358330
C 1.9372481609 -1.2715103552 -1.0989254958
C 0.7026803246 -2.0492089213 -1.4643810295
H 1.4227209115 1.5893587123 0.2128709608
H 0.0568565418 2.1503632918 -0.7574420497
H -0.1325737709 1.9378886244 0.9859800940
H 0.1516399077 -0.5316114534 0.7596952896
H -1.1896485534 0.0183977286 -0.2261857500
H -1.0162248780 -0.1152837320 -2.8297318310
H 0.3924572285 0.9273207926 -3.0107147749
H 1.4262097424 -0.6888594647 -4.4863410295
H 3.2601036910 -2.7980359143 -1.9388088199
H 3.4418484195 -1.2735941105 -2.8711866279
H 2.3535195660 -1.1748849523 -0.0983606151
H 0.1985196299 -2.8502850666 -0.9381249627