19

C -0.4985645422 1.1975123014 -0.1517735263
C -0.0551790393 -0.2417140424 0.0601004885
C 1.1424390333 -0.7589138500 -0.7651823396
C 1.2548279554 -1.0849863465 -2.1831842290
O 1.8553868761 0.1028026633 -1.6410130945
C 1.8130186513 -1.3683559128 0.4738910484
C 0.7667290508 -0.6152700730 1.3103797169
C 0.9491304721 0.1301469049 2.5555782757
O 0.2086135968 -1.1008446049 2.5142661875
H 0.3503031904 1.8835850766 -0.0884644555
H -0.9536169895 1.3245085249 -1.1392337814
H -1.2413004961 1.4900072301 0.5974043191
H -0.9058213257 -0.9286861517 -0.0284701964
H 1.9551893475 -1.8524207257 -2.5110579868
H 0.4085382949 -0.9159210170 -2.8485561944
H 1.7005289149 -2.4543861709 0.5451193020
H 2.8612246740 -1.0984519752 0.6217175297
H 1.9041989843 0.0831380814 3.0775365144
H 0.3564097111 1.0227979975 2.7499517118