21

C 0.0490698438 1.5732969588 0.1740372638
C -0.0410888452 0.0695081062 -0.0184169363
C -1.3086166725 -0.4358149454 -0.6912949523
C -1.4492519448 0.0236355397 -2.1416357871
O -2.5739065706 -0.6191276784 -2.7596357956
C -3.6766356749 0.1143934871 -2.9896194686
O -4.6730305021 -0.3415873362 -3.4642485295
C 1.2406216320 -0.6874386690 -0.2906717828
C 0.5631151654 -0.8051544986 1.0539951836
H 0.9635704855 1.8448971681 0.7097783359
H 0.0612194047 2.1118123525 -0.7805036931
H -0.8008906790 1.9481364380 0.7568172599
H -1.3218415462 -1.5311410140 -0.6847871399
H -2.1916049361 -0.1080554231 -0.1263094093
H -1.5629028268 1.1124548616 -2.2121971855
H -0.5702932328 -0.2620778275 -2.7265606645
H -3.5523245745 1.1772174269 -2.6991701222
H 1.2012684086 -1.5446302414 -0.9551339263
H 2.1657191234 -0.1240811761 -0.3506127071
H 1.0282143618 -0.3176362313 1.9042764402
H 0.0675850405 -1.7393141081 1.2962845468