12

C 0.0280204008 1.5012804476 0.0098843302
C 0.0126010587 0.0456170938 0.0022190167
C -0.0023462869 -1.1568454645 -0.0040929437
C -0.0146674249 -2.6212081544 -0.0118590109
C -1.3609153682 -3.1983027214 -0.0021429954
C -2.4588672552 -3.6838798706 0.0056998053
H 1.0531062813 1.8877592202 0.0022224784
H -0.4863987464 1.9087645348 -0.8672787370
H -0.4696017775 1.8992730865 0.9009848835
H 0.5276391809 -2.9902723174 -0.8936209636
H 0.5442957997 -2.9996865535 0.8553920836
H -3.4323130022 -4.1076574912 0.0127532828