16

O -0.0045661641 1.3699937594 0.0566247033
C 0.0273787503 -0.0042338966 0.0204236396
C 0.6577304982 -0.9540232087 -1.1309293213
C -0.0409964510 -1.8634365895 -0.0975175188
C 0.6065082339 -0.9975575597 1.0462535586
N -0.5789690957 -3.1724587130 0.2204450591
C -1.6642098158 -2.8453160832 0.8166251321
O -2.0635175428 -1.5242050278 0.8805382557
C -1.2197810760 -0.9052324850 -0.1223884547
H 0.8829571115 1.6963357702 0.2416266581
H 0.2058606593 -0.8874029613 -2.1228550971
H 1.7485895843 -0.9706097678 -1.1716304348
H 1.6944470867 -1.0502219627 1.1270140112
H 0.1157406087 -1.0410510808 2.0187273413
H -2.3357487260 -3.5321115602 1.3194000421
H -1.8041360516 -0.7894742433 -1.0392067744