19

O -0.2826148116 1.2971578067 -0.0735023438
C -0.0216633362 -0.0564546268 -0.0340490507
C 0.6733218447 -0.9686675623 -1.0994072760
C 0.2011563405 -1.9233917402 0.0402447561
C 0.7265914391 -0.8789950897 1.0651435911
C -1.1275641947 -1.1275672311 0.0432470298
C -2.2554211450 -1.1829049596 1.0869956579
C -3.1768039024 -1.3094483683 -0.1408604467
O -2.0503655488 -1.2782560496 -1.0432185343
H 0.5505783281 1.7723465519 -0.1602832388
H 0.1706758959 -1.0662108422 -2.0614052204
H 1.7557967965 -0.8514518526 -1.2042472039
H 0.3237232286 -3.0026856101 0.0830704457
H 1.8119457393 -0.7563571928 1.0983864459
H 0.2898660381 -0.8908483592 2.0667861950
H -2.2373620353 -2.0500807682 1.7498478149
H -2.3811217216 -0.2745467009 1.6785398800
H -3.7374998109 -2.2473717137 -0.2258764159
H -3.8561210242 -0.4667755611 -0.3121787561