17

C -0.0585973954 1.4568992651 -0.3619136761
C 1.3681313453 1.6594205628 0.2203663337
C 1.4271955846 0.1580887456 0.6215195567
C 1.2424361479 -0.1384518312 2.1120657952
O -0.1374501541 0.0870402955 2.3813057599
C -0.8436455374 -0.4347598371 1.2603986847
C -0.0157712941 -0.0467858191 0.0324439225
H -0.8445521242 2.0288481057 0.1390566545
H -0.1374519919 1.6348900581 -1.4369498038
H 2.1190247369 1.9550227188 -0.5160992052
H 1.4254408841 2.3511843061 1.0653516389
H 2.2404818951 -0.4175496415 0.1763973352
H 1.5113891270 -1.1855980981 2.3321575437
H 1.8214610722 0.5152771554 2.7712531013
H -0.9286444103 -1.5321944994 1.3359341843
H -1.8503447179 -0.0063018929 1.2722253745
H -0.1290232080 -0.7538986437 -0.7910198000