18

C -0.3058983965 1.6035062275 0.0699655033
C 0.0373675898 0.1243855846 -0.0218244235
C 0.7141907581 -0.5212263823 -1.2720074665
C 1.8950458639 0.2076985020 -1.9599721680
N 2.6578270507 0.9295061472 -0.9124197503
C 2.8897609465 -0.5185506289 -1.1228514840
C 1.7638888204 -1.2552887136 -0.3620918357
C 1.1746461221 -0.4705817011 0.8449564686
O 1.4563055431 -0.3927466878 2.0032467467
H 0.5713205341 2.2148075775 -0.1478143415
H -1.1036966373 1.8658429314 -0.6328941716
H -0.6527445408 1.8473458056 1.0790539494
H -0.8525795626 -0.4799927525 0.2113474942
H 0.0810420796 -1.0883384860 -1.9524711410
H 1.9498329630 0.5242857081 -2.9943718191
H 3.4119443460 1.4348585739 -1.3749872831
H 3.8774104738 -0.8945859629 -1.3576225708
H 1.8349677260 -2.3401554229 -0.2941954570