16

C -0.4860449797 0.5094346593 1.0855969477
C 0.4432101850 0.4042036275 -0.1206653601
N 0.9815276606 -0.9480214772 -0.2264885153
C 2.0201815059 -1.1276530570 -0.8966510967
O 2.7713594707 -0.2193714394 -1.5847793410
C 3.8498756113 -0.9151530409 -2.1506816778
C 3.7212147493 -2.1952340812 -1.8155932117
O 4.4465602277 -3.2794499523 -2.0915681324
O 2.6007629334 -2.3735773171 -1.0422913443
H -1.3015429046 -0.2151038348 1.0056803391
H 0.0577779910 0.3011190730 2.0119098582
H -0.9164761136 1.5135254450 1.1559643122
H -0.1155452169 0.6446301955 -1.0366905471
H 1.2464215085 1.1511601883 -0.0452185655
H 4.5623829688 -0.3616051522 -2.7304442440
H 4.0660409626 -4.0281089366 -1.6164405613