19

C 0.2067429310 1.5191373004 0.0382991805
C 0.0899504864 0.0699621939 -0.0260514845
C -0.0143235782 -1.1271243471 -0.0781987264
C -0.1465904566 -2.5721050548 -0.1403914153
C -1.5856643881 -3.0971328881 0.0145509069
O -2.5320805628 -2.3676354415 0.1790053929
C -1.7258305767 -4.6089113175 -0.0551248112
C -3.1620231877 -5.0843757736 0.1069013182
O -3.1436457022 -6.5018884424 0.0214261753
H 0.8529702448 1.8315199107 0.8660697931
H 0.6309981343 1.9272092114 -0.8857582668
H -0.7729860956 1.9858522904 0.1879362726
H 0.2447072173 -2.9634700829 -1.0906210604
H 0.4641069564 -3.0576285070 0.6346027731
H -1.3207878306 -4.9647275455 -1.0116727954
H -1.0920523931 -5.0660587163 0.7161945783
H -3.5577819761 -4.7383202733 1.0721029984
H -3.7889202186 -4.6358133479 -0.6765003164
H -4.0462224940 -6.8176586589 0.1218602173