15

N 0.0151657819 1.5009830719 -0.0706766172
C 0.0259322945 0.0508159329 -0.0412091200
C 0.0959662221 -0.5099795395 1.4045787528
O -1.3092126140 -0.8196504358 1.4044070732
C -1.4226877200 -0.5636827483 -0.0105933827
C -2.5256802043 0.2931740728 -0.3915167202
C -3.4407703815 0.9875891220 -0.7442950973
C 0.9342253252 -0.5627575002 -1.0179409631
N 1.6638495593 -1.0090402343 -1.7966103442
H 0.9637275812 1.8629629064 -0.0382603467
H -0.4119696832 1.8339906264 -0.9305127479
H 0.7181274254 -1.4050635824 1.5176011778
H 0.3550189446 0.2405062815 2.1560234408
H -1.4673303690 -1.5057481014 -0.5730893971
H -4.2556849623 1.6008406581 -1.0426356983