14

C -0.1016640295 1.3322256151 -0.1958655753
N -0.0344244697 -0.0318850510 0.2842531217
C -1.0613765796 -1.0710853279 0.1856014772
C -0.9723022833 -1.7959545232 -1.1228708212
C 0.0232732069 -2.1115668713 -0.0036689865
C 1.0058070917 -0.9442094871 0.0675917264
O 2.1896870254 -0.7837612729 -0.0461801516
H 0.9206914516 1.7137759141 -0.2538050861
H -0.5611683308 1.4007972702 -1.1918529771
H -0.6708081298 1.9621873772 0.4949010481
H -1.9050864608 -1.0934115639 0.8627514169
H -1.7121292514 -2.5707170411 -1.3052609173
H -0.6387082204 -1.2715624027 -2.0136520111
H 0.1226313397 -3.0920531155 0.4381579659