19

C 0.1800790945 1.3964559659 -0.0779140748
O -0.2842265244 0.0871841587 0.2103579517
C 0.5280388820 -0.5888321901 1.1277106770
C 0.0772910047 -1.9822499057 1.5556914858
C 0.1992298815 -2.9925242528 0.4654309165
C -0.0696774430 -2.7686073470 -1.0093736487
C 1.4785220859 -2.5724475727 1.1876062943
C 1.8987790086 -1.2173912347 0.7074447209
O 2.9252040191 -0.7473549339 0.3001019157
H 1.1854815663 1.3834138390 -0.5155831038
H -0.5220322768 1.8336854251 -0.7910090821
H 0.2016967957 2.0183621733 0.8303303406
H 0.7277325916 0.0426725602 2.0118668359
H -0.4784409843 -2.1791160214 2.4635422422
H -0.1076624914 -3.9806303001 0.8055385267
H 0.2048910717 -1.7635933432 -1.3302503110
H 0.4871311906 -3.4942535387 -1.6114763762
H -1.1358712733 -2.9019391712 -1.2213791916
H 2.0950066812 -3.2894246806 1.7150617408