18

C -0.0238496889 1.5397299883 0.0145376550
C 1.2986940419 0.8090983844 0.0273042991
C -0.0047356335 0.0290601096 0.0393616060
C -0.0593526199 -0.6844679941 -1.3004914008
C 1.0468448361 -1.7286740849 -1.5115384355
C 2.3296160547 -0.9610106109 -1.5233711556
C 1.9350273284 0.5090542848 -1.3189329709
C 0.7960406326 0.1338600078 -2.3047105575
N 1.5461825136 -1.1271606238 -2.7943683244
H -0.3153420558 2.0409759226 0.9308209088
H -0.3415131395 2.0566169513 -0.8859670923
H 1.9258899871 0.8711289023 0.9098066933
H -0.3437330777 -0.4871340715 0.9307971783
H -1.0409348838 -0.9972865232 -1.6590471225
H 1.0048512632 -2.8025234146 -1.3692695280
H 3.2976810569 -1.4304009541 -1.3904098373
H 2.6696219908 1.2232639646 -1.6933623144
H 0.3752155539 0.8258585014 -3.0296535112