16

O 1.1110847872 1.3889685638 -0.5049803379
C 0.2727946860 0.4786927534 0.1345475667
C -0.0970703902 -0.6439272143 -0.7605221163
N -0.4044832292 -1.5021724567 -1.4696623550
C 0.9293395060 -0.0704710978 1.4138917783
N 2.1254669189 0.3005960791 1.6274000775
N 0.1748334813 -0.9788569864 2.1308785711
C -1.1040052286 -0.6915336900 2.7606696510
C 0.1096045238 -1.0206323089 3.5765022432
H 1.9652571059 1.3032429458 -0.0400912052
H -0.6672479371 0.9774847640 0.4170298601
H 2.5232679005 -0.0930406953 2.4788276850
H -1.4449429651 0.3409884618 2.7765587786
H -1.8800857718 -1.4347646129 2.6075709248
H 0.2128211786 -2.0031965586 4.0262719893
H 0.5777455137 -0.2051822570 4.1240931687