18

O -0.0667946467 1.3881428345 -0.0033801497
C 0.0193391905 0.0008313906 -0.0510208194
C 0.8244767786 -0.7029938792 -1.1583660827
C 0.6389357450 -2.1007180786 -0.5438020894
C 1.3305963042 -1.9342630612 0.8255785821
C 0.3675726834 -0.8336875532 1.2909248325
C -1.0012561244 -1.5114208228 1.1325316540
C -1.3177488158 -0.7504725105 -0.0948386299
N -0.8462856760 -2.1529263014 -0.1995749395
H 0.8245364865 1.7474086706 0.0564987265
H 0.3548942316 -0.5822402568 -2.1387988532
H 1.8768765615 -0.4042369270 -1.2199787539
H 0.9185125834 -2.9600915399 -1.1508668751
H 1.2811461372 -2.8307634114 1.4509366062
H 2.3755057987 -1.6227501801 0.7311758010
H 0.5807779981 -0.2529118177 2.1862573978
H -1.6339295127 -1.9760875323 1.8805780184
H -2.2500673430 -0.4438798838 -0.5562221957