15

N -0.1502666401 0.1809530795 -1.2210139532
C -0.2793349586 0.0611373257 0.1162143266
O 0.4673619677 0.5543342820 0.9429101864
C -1.5209294800 -0.7583683749 0.5617132566
N -1.5174777238 -2.1414126664 0.1298907515
C -1.8553217239 -2.5403769341 -1.1131950116
O -2.0487804833 -1.7910174170 -2.0588965556
C -1.5843753073 -0.7305859030 2.0854079936
O -1.6440237384 -1.7352397140 2.7469855676
H 0.6629171175 0.6563753344 -1.5785331879
H -0.7833415452 -0.3126241326 -1.8427394500
H -2.4155236733 -0.2526830505 0.1667016666
H -1.4609567960 -2.8124446980 0.8869132380
H -1.9332566607 -3.6382661645 -1.2006571769
H -1.5743665546 0.2762496134 2.5340930784