13

O -0.0965709895 -0.0334780369 -0.0003553586
C 0.0041720386 1.1734154465 0.0075060633
C 1.2463760930 1.8928904002 -0.0010606058
C 2.2754716552 2.5305754963 -0.0077896950
C 3.4594184513 3.2980804817 -0.0143863276
N 4.6710619403 2.7150724937 -0.0318671539
N 5.5247086224 3.7402939210 -0.0331271300
C 4.9222629130 4.9586054364 -0.0171549126
C 3.5706955891 4.7152966583 -0.0042998544
H -0.8918255899 1.8278822918 0.0224601372
H 6.5122674895 3.5434897337 -0.0453583021
H 5.4919645322 5.8738810277 -0.0162021171
H 2.7697052949 5.4348106495 0.0100379166