19

O -0.0011097921 1.3462381370 -0.2346966119
C -0.0324359942 -0.0216997036 -0.0840479914
C -0.3530535039 -0.6794237846 1.2037891806
C -1.3854270307 -0.7744777040 0.0699876157
C -2.5879315337 0.0747040974 0.1555037153
O -2.5458877039 1.1880755708 0.6800345561
C -3.8455980239 -0.4351347737 -0.4499426110
C -5.1592549709 0.0332204815 0.1618556150
C -4.7408758391 0.5781012904 -1.1572263730
H -0.7882476275 1.6968166541 0.2208434057
H 0.6828097410 -0.5026680806 -0.7437072256
H 0.1515707183 -1.5994675609 1.4771815502
H -0.6356269235 -0.0343344238 2.0292239068
H -1.4908697560 -1.7274173416 -0.4349784522
H -3.8135105599 -1.4383285698 -0.8580484231
H -5.9656809336 -0.6897308898 0.2026869531
H -5.0638649806 0.6833113520 1.0235986122
H -4.3645732801 1.5939485451 -1.1829692941
H -5.2479251757 0.2406995843 -2.0536697284