22

C -0.6491644066 1.0049039238 -0.0133314674
N 0.0777295540 -0.2427348341 0.1603646836
C 1.4766636951 -0.2666682675 -0.2529809948
C 1.1162528683 -0.3604377320 1.1905833084
C 1.4772072762 0.7413020453 2.1691484302
C 0.5658563554 0.7731282821 3.3817478012
C 0.7740405815 -0.2104558017 4.5205329003
C 1.0713963914 1.2564346275 4.7103481160
O 2.4014125805 1.6896376544 4.7620359110
H -0.0454186378 1.9171616051 0.1150303984
H -1.0665427274 1.0252409668 -1.0255645977
H -1.4845561332 1.0437363888 0.6939156037
H 1.8004256409 -1.1408129772 -0.8129266490
H 1.9222078171 0.6719697289 -0.5845235787
H 1.1249252825 -1.3513282357 1.6449888042
H 2.5083300417 0.5885667022 2.5043832598
H 1.4681177163 1.7183046574 1.6741740946
H -0.4687189264 1.0228075843 3.1624068390
H -0.0879009321 -0.6450828013 5.0149470893
H 1.6342518444 -0.8685631129 4.4442272824
H 0.3841327808 1.8366996793 5.3262364033
H 2.7780905969 1.3897788969 5.5955606222