21

C 0.9596655625 -0.4500062659 1.2616853832
C 0.1290138105 0.0644326799 0.0682934064
C 0.7939072938 -0.3367784166 -1.2695551596
C 0.0483105733 0.1319733666 -2.5413916747
C -0.0505931542 1.6673026451 -2.6515065550
C 0.6955919426 -0.4275763496 -3.7272894209
C 1.2495347023 -0.8782321320 -4.6947770469
C -1.2506743660 -0.4148728495 0.1501755514
C -2.3789883527 -0.8257641974 0.2198879582
H 1.0173299760 -1.5424982986 1.2492435684
H 1.9774714033 -0.0504832575 1.2147412422
H 0.5105367170 -0.1447296559 2.2101157340
H 0.1072124251 1.1605180707 0.1281913402
H 1.8125791858 0.0685419483 -1.2833656786
H 0.8858320726 -1.4275413256 -1.3006260878
H -0.9721162462 -0.2700056166 -2.4895534205
H 0.9452018440 2.1220952760 -2.6423723091
H -0.5423264753 1.9526786605 -3.5847446143
H -0.6319925747 2.0820484841 -1.8235182831
H 1.7249493287 -1.2819253389 -5.5539693741
H -3.3777599983 -1.1806526467 0.2848044005