13

O -0.0471241818 1.3536040908 0.0726042131
C 0.0688780288 -0.0138594683 0.0679168425
C 0.7915310764 -0.9501893007 1.0663516628
C 0.1000128892 -1.9220606003 0.0867731565
C -1.1353182396 -0.9863762096 -0.1036381493
O -1.0807793421 -1.0140783724 -1.5589405310
C 0.3155122692 -0.9948263344 -1.1465553721
H 0.8337833574 1.7419115467 0.0340991358
H 1.8856074505 -0.9391392815 1.0507867029
H 0.4197810332 -0.9444118994 2.0945160980
H 0.0898031505 -3.0083200337 0.0761688295
H -2.1052367002 -0.9938299850 0.3922456704
H 1.0936230184 -1.0103772922 -1.9096497592