19

C -0.1105981661 1.4574832068 0.0147012611
C 0.0547160630 -0.0414613589 0.0090501879
C 0.7952849143 -0.6770408899 -1.1843711692
N 1.0709360827 -2.0549782418 -0.6974709178
C 0.4126398379 -2.1318527315 0.6337876600
C 0.7412992756 -0.7442256482 1.1971355003
C -1.0795631310 -1.9792507155 0.4139524144
N -1.9744805048 -2.8650380143 0.4997321422
O -1.2671455465 -0.6726106043 0.0248179956
H 0.8684740683 1.9451703169 0.0327555265
H -0.6464085828 1.7940566323 -0.8778974421
H -0.6758899112 1.7781277919 0.8938957015
H 0.1626371114 -0.6544156422 -2.0777489373
H 1.7288822421 -0.1466515796 -1.4082464081
H 0.6840751269 -2.7534015729 -1.3223996988
H 0.7033403278 -3.0173923175 1.1937230076
H 1.8138270007 -0.5515708588 1.2585596485
H 0.2526400909 -0.5264020493 2.1489430805
H -2.8850707391 -2.4838614334 0.2333590372