21

C 0.3352811594 1.5757541383 -0.1424746911
C 0.3036269185 0.0608178438 -0.0549574353
O 1.2247215925 -0.4868120830 -1.0109712632
C 1.3363347378 -1.8756392899 -0.6877455306
C 1.4285144044 -1.9023108300 0.8342067368
C 2.7687697421 -1.3092463289 1.4000118321
O 3.7598784737 -1.0023116477 0.4486992881
C 1.9791243137 -0.1043982011 1.9844782252
C 0.6819177395 -0.6001243124 1.2876460556
H 1.3325497174 1.9700862515 0.0684171546
H 0.0486150604 1.9015949338 -1.1460720257
H -0.3674503570 2.0114013834 0.5743268980
H -0.7099612498 -0.2882305549 -0.3181289150
H 0.4516010853 -2.4248097523 -1.0446371194
H 2.2259057418 -2.2653960381 -1.1873688150
H 1.1147302389 -2.8488912460 1.2768084586
H 3.2583096216 -1.9389369431 2.1467213922
H 3.3408410340 -0.4522783757 -0.2277825477
H 1.9103965106 -0.1142516028 3.0754238796
H 2.3652945148 0.8715608350 1.6786030185
H -0.1885364195 -0.7114019799 1.9363681438