15

N 0.1619828965 1.4544673125 -0.0234529367
C 0.0571003525 0.0492881945 -0.0482419697
C 0.0252628542 -0.8027920349 1.2703417006
O -1.4089067916 -0.5484177821 1.4645742976
C -1.2930875947 -0.8131021404 0.0291173105
C -0.2998770970 -1.9653716087 0.2984068092
O 0.6751149086 -2.0357806381 -0.7422365032
C 0.9224652624 -0.7063116830 -1.0138820364
N 1.6759778645 -0.2337965936 -1.9029272533
H 0.2700772255 1.8330941575 -0.9571966456
H -0.6281069035 1.8798698111 0.4469642834
H 0.6827226211 -0.7559896306 2.1379396395
H -2.1945589021 -0.7742398345 -0.5826461511
H -0.6148647622 -2.9440547042 0.6455984047
H 2.1254566358 -0.9743866555 -2.4439182895