23

C -0.1757988617 1.5249332622 -0.0292623810
C -0.0041216844 0.0111184623 -0.0117381143
C 1.1345390709 -0.5953977454 -0.8912606389
C 2.1065701062 -0.2900184124 0.2833086559
C 0.8520440111 -0.6095986941 1.1537823728
C 0.7169477905 -0.1807945445 2.5961530582
C 0.6859665527 -2.1136165605 0.8570364115
O -0.6051156114 -2.5366096678 1.2701912482
C 0.9035179737 -2.1046017057 -0.6954452090
H 0.7653266952 2.0699833714 0.0877258003
H -0.6241763031 1.8466979279 -0.9758695818
H -0.8458815674 1.8483491835 0.7748803972
H -0.9826142218 -0.4626355733 -0.1386962667
H 1.3250449587 -0.2413779440 -1.9058110979
H 2.9849835692 -0.9345600667 0.3989596154
H 2.4150244338 0.7537568969 0.3473684861
H 0.7916785811 0.9063397015 2.7022348144
H -0.2470925043 -0.5000308908 3.0041933061
H 1.5043765606 -0.6296947626 3.2136367410
H 1.4573662703 -2.7015087222 1.3767803211
H -0.7084004288 -3.4624125827 1.0309400336
H 0.0106843922 -2.4693383446 -1.2131180483
H 1.7601157266 -2.7099646984 -1.0080444339