17

C -0.3985029458 1.1609921729 -0.6135670748
N 0.7775270295 1.4438561452 0.2250719026
C 0.2500331855 0.0666161918 0.1484945884
C -0.3249453251 -0.4652443162 1.4022946352
O -1.4152298846 -1.3888429763 1.3458591389
C -1.5623459475 -0.2132172920 2.1433945801
C -0.8060759893 -0.4199834657 3.5048161196
N -0.2227463964 -1.7836387471 3.4995742591
C 0.4450057575 -0.6839984795 2.7652672778
H -1.3285584748 1.5883772653 -0.2518034711
H -0.2872972047 1.1606790558 -1.6943034883
H 1.6065292342 1.5256875995 -0.3576018690
H 0.8241348156 -0.6589649335 -0.4266344294
H -2.4066884842 0.4370813167 1.9481654748
H -0.9732852611 0.1386792953 4.4154803726
H 0.2773295894 -1.8833147845 4.3841513000
H 1.4570808918 -0.3653133877 2.9739331235