11

C 0.1759459980 -1.1921681092 -0.0060880062
C 0.0742861545 0.0070362953 0.0018141979
C -0.0685825942 1.3988197091 0.0114015138
C -1.1541850747 2.2416819033 0.0315501405
N -0.7165897185 3.5593568889 0.0324011535
C 0.5699671837 3.4595179817 0.0134040359
O 1.0458297998 2.1933942784 -0.0002584912
C -2.5244144296 1.8797672817 0.0492479644
N -3.6383660193 1.5672497492 0.0635342780
H 0.2600206359 -2.2516857395 -0.0129434097
H 1.3017523346 4.2518986209 0.0071998231