20

C -0.0979380944 1.5412462272 0.0527057503
C 0.0583984572 0.0214934806 0.0305938501
C 1.0200949286 -0.5351072603 -1.0829708603
C 2.0287159918 -1.3193813144 -0.1986114220
C 3.1356433814 -2.1103417384 -0.8390894995
N 1.1582343778 -1.9752198119 0.8497838821
C 0.7816801442 -0.5835929994 1.2670966111
C 2.2501535510 -0.2698235543 0.9181946476
O 3.1488412607 0.3909677275 1.3362783841
H 0.8729944709 2.0397925751 0.1464997105
H -0.5714741284 1.9010195543 -0.8663490144
H -0.7195073537 1.8624667889 0.8953334896
H -0.9314383373 -0.4412274460 -0.0548290668
H 0.5161008400 -1.2008499393 -1.7910179248
H 1.4994102528 0.2640882893 -1.6581831782
H 3.7909071240 -1.4475790457 -1.4133567264
H 3.7371291477 -2.6168054613 -0.0799791856
H 2.7386195434 -2.8657900640 -1.5263878262
H 0.3687397268 -2.4727678565 0.4341753041
H 0.3486006455 -0.4384851313 2.2557350747