19

C 0.0440386786 1.5607074338 0.0657191136
C 0.0278797218 0.0657304244 0.0343208438
C -0.3709346745 -0.7158966986 -0.9705723936
C -0.1558122727 -2.1908512585 -0.6828636403
O 1.0413068282 -2.6786196330 -1.3166778332
C 0.1116521204 -2.1987987168 0.8474176917
C 0.5344221892 -0.7565003253 1.2000331442
C -1.2981030312 -3.0213348567 -1.0816180670
C -2.2283090327 -3.6919849620 -1.4443997060
H 1.0622537832 1.9376194478 0.2260017136
H -0.3366919935 1.9920297099 -0.8637130064
H -0.5624727012 1.9434571730 0.8961478166
H -0.7553976789 -0.3743903065 -1.9256542776
H 0.8918361893 -2.6643170011 -2.2685901827
H -0.8100849988 -2.4607945360 1.3708892905
H 0.8643754587 -2.9527228124 1.0840827181
H 1.6241277076 -0.6538712445 1.2906047050
H 0.1143393196 -0.4234497997 2.1565057377
H -3.0503544130 -4.2893983880 -1.7529272978