19

O -0.0131559236 1.4652802261 0.1130038498
C 0.0040327373 0.0725926307 -0.0832037564
C -1.4088247299 -0.5621068497 -0.0312331354
C -1.3667939920 -2.0873995591 -0.2834227733
C -2.7264705548 -2.7073442862 -0.5193995239
C -3.0018491171 -4.0999239248 -0.0867676483
N -3.6562929304 -2.9683027467 0.5887721072
C -2.0112872602 -0.2478618261 1.2676446677
N -2.4183915986 0.0161851416 2.3176756879
H -0.2879554386 1.6399381869 1.0206255747
H 0.4152804388 -0.0951311346 -1.0832762187
H 0.6561353469 -0.4413354235 0.6393400259
H -2.0174538832 -0.0783604403 -0.8047798329
H -0.7368753853 -2.2592347404 -1.1655367652
H -0.8705607768 -2.5796615100 0.5615971149
H -3.2294429121 -2.3440301512 -1.4150789536
H -3.6645924671 -4.7331931051 -0.6694569767
H -2.2088464556 -4.6334760694 0.4322584629
H -3.2108680175 -2.7764546781 1.4829663134