18

C 0.2548519446 0.3448315295 -0.7966330463
C -0.0078739574 -0.0948775448 0.6406680878
O 0.1646825290 0.9676708436 1.5703907761
C -1.4013175147 -0.6946530604 0.8333621265
O -1.4903859941 -1.8678158148 0.0116209951
C -2.6697087123 -2.5138074279 0.0149496399
N -3.6632293914 -2.1120555851 0.7016983708
C -2.6438519869 -3.6731322338 -0.8355634040
C -2.6709525909 -4.6511327729 -1.5339871677
H 1.2616871377 0.7605943772 -0.8880308467
H 0.1538787450 -0.4982531623 -1.4848085599
H -0.4656016141 1.1151570664 -1.1018080892
H 0.7318467920 -0.8496315906 0.9309407168
H -0.3734407414 1.7098560653 1.2729824135
H -1.5644389039 -0.9607293578 1.8816547374
H -2.1852651417 0.0161662773 0.5431077680
H -4.4601580571 -2.7305761220 0.5704724371
H -2.6926871621 -5.5151261270 -2.1521744852