14

O 0.1624607052 1.4267123541 0.0824872648
C 0.0566344605 0.0211618218 0.0505871852
C -1.4307181502 -0.4428702345 -0.1049776250
N -1.0298111734 -1.0902273340 -1.3665390857
C 0.2465377485 -0.5579708738 -1.3729604527
N 1.2247675410 -0.4393531531 -2.1611724437
C 0.8197732673 -0.6338946537 1.1046134046
C 1.4578991565 -1.1672575639 1.9719416164
H 1.0193200954 1.6450550889 -0.3062667361
H -1.8055165020 -1.1319677400 0.6542645621
H -2.0969348646 0.4167343832 -0.2198521207
H -1.6149108073 -1.2812136256 -2.1669630000
H 1.0378835415 -0.8331574991 -3.0843432971
H 2.0286540916 -1.6362594804 2.7351361280