18

C 0.0580304650 -1.3654674928 0.1460354676
C 0.0065682714 -0.1844857424 0.3676676451
C -0.0277826504 1.2522624838 0.6034457363
C 1.2182604042 2.0036379517 0.1165213950
C 2.5562485239 1.3648347370 0.1773163448
N 1.8835315326 1.5820213400 -1.1188379979
C 1.0968548638 3.4856088724 0.3259209778
C 1.4980145104 4.4557218510 -0.6961647050
O 0.1157665048 4.1551244223 -0.4740506756
H 0.0821119164 -2.4118654424 -0.0344600276
H -0.8977876061 1.6875634982 0.0952715908
H -0.1687313476 1.4494833611 1.6745371111
H 3.4388927493 1.9768656725 0.3413372863
H 2.6157789545 0.3507567798 0.5616955737
H 1.4781604408 0.7028252487 -1.4354492570
H 1.0982187602 3.7989599719 1.3722948328
H 1.8100058021 5.4542222965 -0.3926383691
H 1.9087934047 4.0797944906 -1.6288829891