13

N -0.0752030326 1.3213724846 0.0104434563
C -0.0022356199 0.0502538314 0.0034740881
N 1.1153718146 -0.7877218129 -0.0065832331
C 0.7642352936 -2.1343354316 -0.0117591166
O 1.5194580073 -3.0714600100 -0.0204253976
C -0.7525630700 -2.1335989667 -0.0040070601
C -1.1684949321 -0.8516996820 0.0047450837
C -1.5031788894 -3.3237190681 -0.0063279316
C -2.1281902078 -4.3527707601 -0.0084923687
H 0.8498533508 1.7555911005 0.0079710417
H 2.0743923888 -0.4806071718 -0.0098090835
H -2.1811178450 -0.4776226290 0.0118472945
H -2.6769455582 -5.2623060344 -0.0105187432