17

N -1.3916898883 -0.1124983388 -0.0400943471
C 0.0625295180 0.0000875843 0.0951324546
C 0.5262461853 -0.7182865100 1.2893167411
N 0.9225553508 -1.3132165730 2.1968448695
C 0.8391340900 -0.5088730448 -1.1329409416
O 0.3963066747 0.1645394443 -2.3427162708
C 1.7613659739 0.4491794549 -2.6894781009
C 2.3774885086 1.3757853548 -1.6978128559
C 2.2900655233 -0.1081105035 -1.3869456061
H -1.6502072113 0.3454751161 -0.9107755882
H -1.6535072753 -1.0903942926 -0.1373230254
H 0.2971164114 1.0612639833 0.2367358534
H 0.6860586109 -1.5908841770 -1.2374200049
H 2.0554414146 0.3142663020 -3.7227880329
H 3.3825312737 1.7114580386 -1.9335427687
H 1.7609319402 2.1097082223 -1.1874863470
H 3.1549127193 -0.7213057212 -1.1796535993