17

C -0.1644443588 1.5903527662 -0.0164311507
C -0.0069370832 0.0631162543 0.0029937117
C 1.1756642073 -0.4462788997 -0.8907667938
C 2.0719393150 -0.5108922699 0.3845773503
C 0.7780549508 -0.4599945711 1.2547840352
C 2.9495833422 -1.6571869416 0.5398927495
N 3.6364879263 -2.5791389603 0.6612948410
C -1.2907316901 -0.5852426205 -0.2390621330
N -2.3066341261 -1.1029123527 -0.4306377302
H 0.7996041420 2.0749650958 0.1653146675
H -0.5408878955 1.9288707728 -0.9855306751
H -0.8638983684 1.9177273813 0.7575508419
H 0.9836632114 -1.4384460331 -1.2999969143
H 1.5011361013 0.2217375613 -1.6895436309
H 2.6626780849 0.4013497492 0.4998835407
H 0.7941706764 0.1973510556 2.1253352357
H 0.4544422927 -1.4567015176 1.5557481650