20

C 0.0730537075 1.4894758020 0.2884089482
C -0.1003359959 -0.0103910028 0.0286191255
C 0.6166883918 -0.4874018774 -1.2271006562
C 2.1728905481 -0.5134839316 -1.2350858720
C 2.1249666165 -1.8722986699 -1.9836982043
O 3.0594318580 -2.8040044054 -1.4934896711
C 0.6303412518 -2.0090555999 -1.5415855328
C 2.2531040066 -1.7245999412 -3.4425122894
N 2.3483740958 -1.6437604365 -4.5920600043
H 1.1295230953 1.7536069494 0.4069357157
H -0.3254152324 2.0833369384 -0.5414392138
H -0.4494388324 1.7969060101 1.1991661065
H 0.2712968034 -0.5808475720 0.8905925517
H -1.1686889219 -0.2482460346 -0.0579832412
H 0.2508680657 0.0697004973 -2.0967573228
H 2.7168531919 0.3030746788 -1.7106628953
H 2.5805795993 -0.6935978648 -0.2362018856
H 2.9767076006 -3.6233041035 -1.9953404540
H 0.5978074689 -2.6104605821 -0.6283434293
H -0.0834320587 -2.4006263643 -2.2684324857