21

C 0.4986150639 1.6264368266 -0.2470121913
C 0.0716560540 0.1821470248 -0.0292920066
C 0.7803372864 -0.9467353127 -0.8455061981
C 0.9776848297 -1.7694464353 0.4580818821
C 2.3912393344 -1.6010757065 1.1000579494
C 1.8568239513 -0.3433494706 1.8700870876
C 0.4319486356 -0.5575020575 1.2920336269
C 2.7673211641 -2.7338020909 2.0129036093
O 3.7887295080 -3.3696054229 1.9510381918
H 1.5822348531 1.7513363829 -0.1496590063
H 0.2221791520 1.9638800879 -1.2520535432
H 0.0182273176 2.2985188310 0.4729304285
H -1.0113169659 0.1074582405 -0.1764612308
H 0.1584062820 -1.4247545612 -1.6057933842
H 1.7186706667 -0.6420236887 -1.3198169993
H 0.5335982475 -2.7660449633 0.4817234052
H 3.2083821549 -1.4338110597 0.3944764770
H 1.9036320838 -0.4548856434 2.9573554070
H 2.3535619392 0.5941657662 1.6120254904
H -0.3649853184 -0.6474861750 2.0320304902
H 1.9984061602 -2.9646570223 2.7907134643