17

C -0.2766048018 1.4836138239 -0.0239536183
C 0.0043145955 -0.0088259615 0.1554271941
N 0.6032668543 -0.6017421586 -1.0580624219
C 1.6356478030 -1.2625759226 -0.6964333372
C 2.4826171651 -1.9562807588 -1.7095411218
O 3.5062692549 -2.5345529360 -1.4512398870
N 1.9657365483 -1.3305212098 0.6893322397
C 2.3991625665 0.0064156586 1.1787577504
C 0.9755080137 -0.3972186729 1.2790862908
H 0.6484614161 2.0414805491 -0.1946578647
H -0.9354035168 1.6441262971 -0.8809958428
H -0.7624261276 1.8892423344 0.8685561314
H -0.9540382501 -0.5194576879 0.3221326812
H 2.0766720075 -1.8693378866 -2.7371067506
H 3.0308862091 -0.0230629598 2.0603073161
H 2.6880091353 0.7368953976 0.4281833003
H 0.5746117670 -0.6821448662 2.2460118602