20

C 0.0337594191 1.4716503834 -0.0554818208
C 1.2749230156 0.6757862843 -0.0203881471
N -0.0890957691 0.0060457329 0.0447604198
C 0.2589190595 -0.6327256895 -1.2996561555
C 0.6639235802 0.2438532667 -2.4493197612
C 1.6490054108 -0.0315909920 -1.3405631191
C 2.6468825435 -1.1667432510 -1.4554765078
C 1.7959080664 -2.3747785406 -1.9545444514
C 0.3611004721 -2.1363743248 -1.3951771542
H -0.2545080864 1.9587889213 0.8724931191
H -0.2949566963 2.0020592150 -0.9418535580
H 1.9350851907 0.6718071767 0.8419158996
H 0.8464545836 -0.2882850250 -3.3769458573
H 0.2550655858 1.2333401526 -2.6121393051
H 3.5011082487 -0.9668174182 -2.1112210727
H 3.0524429198 -1.3813402763 -0.4592820203
H 1.7752622687 -2.3920453312 -3.0495193448
H 2.2115175440 -3.3358620223 -1.6391913956
H 0.2713019968 -2.5407579457 -0.3813668370
H -0.4080833133 -2.6152301963 -2.0103066304