14

N -0.0328743666 1.3476970592 0.0104700109
C -0.0232332901 0.0658487859 0.0032820001
N 1.1310652692 -0.7380088674 -0.0079292267
N 1.2235573071 -2.0710502015 -0.0159070622
C 0.0998302228 -2.7431022722 -0.0130896054
C -1.1841696714 -2.0746558792 -0.0018534569
C -1.2404371589 -0.7286844532 0.0059756489
C 0.1713457730 -4.1651054165 -0.0214342612
C 0.1693180207 -5.3686147439 -0.0281372303
H 0.9112720780 1.7379215825 0.0071215626
H 2.0296885432 -0.2759942205 -0.0106061631
H -2.0823945535 -2.6808704276 0.0000240324
H -2.1736266990 -0.1790742357 0.0144952545
H 0.1876391855 -6.4304428398 -0.0341792035