21

C 0.0247610415 1.4077264585 -0.0256495721
O -0.0612229095 0.0596356182 0.3871253478
C -1.3052271902 -0.5707296034 0.1733150975
C -2.4379828261 0.0492034516 0.9845391829
C -1.6694506182 -0.8987042938 -1.3012335835
O -1.7553069917 -2.3082415270 -0.9986322351
C -1.1903135341 -2.1080908706 0.3275669005
C 0.1964841146 -2.7308992246 0.3928913580
O 0.1054005815 -4.1084859424 0.0754310984
H 1.0732768368 1.6990264997 0.0697818688
H -0.2796340477 1.5369906795 -1.0750021689
H -0.5817071346 2.0785061774 0.5976259423
H -2.6633193852 1.0688985498 0.6576065699
H -3.3494562841 -0.5442777854 0.8695739093
H -2.1715336163 0.0758823704 2.0458505836
H -2.6186589314 -0.5070525361 -1.6834363474
H -0.8654021871 -0.6761943284 -2.0139501707
H -1.8382462690 -2.5570248369 1.0898802036
H 0.8788872674 -2.1990596471 -0.2835929067
H 0.6037840521 -2.6543162822 1.4058080108
H -0.3790920988 -4.1499813072 -0.7587165491