21

C -1.5641876484 0.0593814129 -0.3717950219
C -0.0734809425 -0.0394032832 -0.0237888298
C 0.7743666155 -0.6868372292 -1.1133192829
C 0.8305387245 0.0588256656 -2.4418922154
C 1.4952261642 1.4141839237 -2.3106238554
O 1.0389670730 2.4492440926 -2.7234409998
C 2.0336027005 -1.4290074106 -0.6793300230
C 0.8265818295 -2.1907447049 -1.1700180075
O 0.0282048521 -2.8924973119 -0.2622456785
H -1.7406790228 0.6906028669 -1.2482655384
H -1.9783692914 -0.9327841130 -0.5731168818
H -2.1227391866 0.4968967094 0.4613303310
H 0.3242723208 0.9617298801 0.1898219586
H 0.0372004167 -0.6220804155 0.8943016952
H 1.4293628881 -0.5221045304 -3.1580820349
H -0.1612257865 0.1998197907 -2.8809575592
H 2.4791804514 1.3904201678 -1.7867085496
H 2.9177432248 -1.3936983648 -1.3078710996
H 2.2374397899 -1.4673616359 0.3857343239
H 0.8893847047 -2.6465101459 -2.1589770779
H 0.5282279323 -3.6533619845 0.0507637569