23

C -0.5958339395 1.4857059773 -0.0881681999
C -0.3220671314 0.0087530227 0.1400923034
O -1.4514186656 -0.7219707157 -0.3175079698
C -1.4158494667 -2.0985292793 -0.0814961952
C -0.4978551352 -2.8879831385 -0.9890669164
C -1.6517968160 -2.5676656499 1.3455910110
C -2.7475118914 -2.6945512560 0.3236025455
O -3.8505025527 -1.8770096558 0.5134158417
C -4.4875789768 -1.5187309092 -0.7007263174
H 0.2543561532 2.0873473847 0.2472688656
H -0.7640693469 1.6855012766 -1.1503704042
H -1.4859629570 1.7999020281 0.4640404031
H 0.5848800961 -0.2997784785 -0.4018180276
H -0.1496900689 -0.1957541576 1.2074198684
H 0.5576833745 -2.6730410877 -0.7888619038
H -0.6438040480 -3.9631307549 -0.8476990911
H -0.7024967961 -2.6484384613 -2.0378923215
H -1.1513492948 -3.4586936456 1.7088816096
H -1.8147025083 -1.7913882339 2.0848258020
H -2.9797298532 -3.6864131948 -0.0728093542
H -5.3566135274 -0.9114633827 -0.4359639000
H -3.8180656003 -0.9364544075 -1.3444976537
H -4.8328489776 -2.4073785005 -1.2515657857