22

C 0.0446805614 1.5479410818 -0.0127842627
C 0.0106628660 0.0131249094 0.0502937230
C 0.8127595479 -0.4726630033 1.2687801446
C -1.4491817029 -0.5507353050 -0.0008631657
C -2.2238088877 -0.0328606243 -1.2351239404
C -1.4461159227 -2.1105234938 -0.0465121419
O -2.7428716624 -2.6644767180 -0.1029636266
C -2.1831061319 -0.1668795804 1.2164238287
N -2.7738195653 0.0874888791 2.1782380655
H 1.0799756383 1.8993232047 0.0286692620
H -0.3985083215 1.9383004963 -0.9316544449
H -0.4891266165 1.9876319129 0.8369653636
H 0.4951447368 -0.3747993612 -0.8564311229
H 0.9472260255 -1.5568728187 1.2857439015
H 1.8102328180 -0.0232480967 1.2568689136
H 0.3262037163 -0.1758264378 2.2039776952
H -1.6198494045 -0.1907473901 -2.1347118122
H -3.1551357684 -0.5910367845 -1.3420428257
H -2.4595958145 1.0292799449 -1.1565935640
H -0.9385030981 -2.4188215878 -0.9665933212
H -0.8842125083 -2.5115716121 0.8042714345
H -3.1721397854 -2.5043967253 0.7456464861