18

O -0.1017516673 1.4304345575 -0.0342567105
C 0.0503072482 0.0207023757 -0.0170838186
C 0.1394853309 -0.6290537982 1.4012869057
C -1.3771018240 -0.2672818880 1.5520896063
C -1.3644156008 -0.6140079350 0.0037635810
O -2.3460059885 -0.2196669419 -0.8900197504
C -1.0710344520 -2.1195252756 0.0755310101
N 0.3018848099 -2.5144434734 -0.3302636133
C 0.0170476417 -2.1335948261 1.0780138704
H 0.7731403006 1.8258099611 -0.0759717854
H 0.7534042750 -0.3167705427 -0.7779621953
H 0.8877806665 -0.3105879372 2.1259429006
H -1.9848435596 -0.9002308086 2.2038807464
H -1.5526038806 0.7893900182 1.7498984008
H -2.2681949635 0.7383990277 -0.9776797967
H -1.8862501500 -2.8323286331 0.0365130875
H 0.3375501544 -3.5307713070 -0.3827011169
H 0.0965902891 -2.8753654033 1.8646881882