16

O 0.0309817233 0.0021309938 0.0200730135
C -0.0101041512 1.1927384857 -0.0267374391
C -1.0899135362 2.2884827650 0.0515607949
C -0.0460107381 3.0040913669 0.9738221270
C 1.0184195578 2.3475932885 0.0352395659
C 0.7192085451 3.0412247970 -1.3244806865
C -0.8655515882 3.0087084929 -1.2950847487
C 1.2678611380 4.3896671154 -1.4126062017
N 1.6955929430 5.4622260197 -1.4726902655
H -2.1132693722 2.0840507810 0.3566760269
H -0.0724323595 4.0957764354 0.9857518010
H -0.0193859486 2.6045530170 1.9881681011
H 2.0597140183 2.2048118829 0.3116857280
H 1.1158383196 2.4575293963 -2.1599822157
H -1.2714176113 2.4606784365 -2.1477077133
H -1.2882945397 4.0150041660 -1.2957964480