21

C 0.1666662663 1.5648432237 0.0722729225
C -0.0068779571 0.0287779767 0.0225545196
C 0.6562452299 -0.6117489574 1.2643540009
C -1.5140626742 -0.3630306095 -0.0664512999
C -2.3792663938 0.1122494760 1.0760063436
C -3.5319482856 -0.6686344150 1.5442350416
O -2.3220692271 -0.6301456949 2.3007283397
C 0.6499836807 -0.4802521135 -1.1874707495
C 1.1799102341 -0.9003862037 -2.1818595083
H 1.2276270049 1.8264064287 0.0418131622
H -0.3241541331 2.0460183413 -0.7789847583
H -0.2539138759 1.9736972812 0.9957257140
H 0.1829062225 -0.2533326826 2.1813429396
H 0.5620136255 -1.7005529225 1.2380247579
H 1.7206030771 -0.3623519008 1.2953538516
H -1.9219470912 0.0435582594 -1.0002530887
H -1.5884654336 -1.4534317903 -0.1337590852
H -2.4245220081 1.1913843634 1.2266546754
H -4.3839870877 -0.1619241179 1.9954009233
H -3.7576789409 -1.6241578899 1.0721611467
H 1.6535181174 -1.2704149223 -3.0573034987