17

O -1.1022124093 1.0474639007 0.6215968574
C -0.2143981084 1.0882157287 -0.1928451329
C 1.0861447428 1.8466819002 0.0052618034
C 1.3562241684 2.8162923521 -1.1825276080
C 1.5133412177 2.1394362087 -2.4632970975
C 1.6508732738 1.5607650081 -3.5078498436
C 1.0997189987 2.5922314353 1.3202398846
C 1.8033586056 2.0830798120 2.5001042437
O 2.3652445556 3.1338720663 1.7076059462
H -0.2981648433 0.5637589399 -1.1680125212
H 1.8956035263 1.1035286180 -0.0019981867
H 0.5448247051 3.5528710187 -1.2443908325
H 2.2675054238 3.3751765373 -0.9425646353
H 1.7726054452 1.0641713606 -4.4386464726
H 0.2552134051 3.2619189079 1.4804654445
H 1.4688985966 2.3734949903 3.4942405849
H 2.3239879665 1.1279816253 2.4452107858