20

C 0.0314711508 1.5221374055 -0.1111860520
C -0.0352192367 0.0055777443 -0.0810730829
O 0.7256475498 -0.4981743825 -1.1660890832
C 0.7309169932 -1.8984480779 -1.2445020446
C 1.5025509122 -2.3028792146 -2.5066480687
C 1.7001553536 -3.8358612592 -2.6045588515
O 2.4408192560 -4.2145983447 -3.7390318872
C 0.8262702856 -1.8310412715 -3.7181764837
N 0.2975628177 -1.5375752520 -4.7035810403
H 1.0660296355 1.8632683125 -0.0156884472
H -0.3706323334 1.9035843768 -1.0536305394
H -0.5513203597 1.9435679938 0.7130140941
H 0.3629090819 -0.3841172282 0.8707369379
H -1.0785682695 -0.3407241697 -0.1625505542
H 1.2265221689 -2.3455413887 -0.3659813935
H -0.2955363430 -2.2985146510 -1.2838472307
H 2.4908565658 -1.8309889214 -2.4712234272
H 2.2755438003 -4.1661605610 -1.7345308014
H 0.7180105008 -4.3312104848 -2.5674539204
H 1.9258496300 -3.9904738255 -4.5231031840