18

C 0.2943421582 1.3476073774 0.0438257110
N -0.2657252363 0.0115343168 0.0239608965
C -0.1407849591 -0.9071049215 -1.0251520502
O -0.1050817249 -0.7574142413 -2.2158871241
C -0.0101794579 -2.0652100334 -0.0289961968
O -0.6158727720 -3.2966424023 -0.0707437345
C 1.1883893744 -1.7437316151 0.8800375936
C -0.1286949378 -1.0271050985 1.0630480301
C -0.9757110719 -1.0173198925 2.2967729749
H 1.3304000754 1.3601931261 0.4116806660
H 0.2815615606 1.7287775128 -0.9801762094
H -0.3055396052 2.0132843638 0.6717638769
H -0.0718455413 -3.8881235733 -0.6026483305
H 1.4035859899 -2.5323324818 1.5969160112
H 2.0610413410 -1.2227437934 0.4965832199
H -0.6385789229 -0.2574289754 3.0103294441
H -2.0194921946 -0.8104259452 2.0422605446
H -0.9268405257 -1.9895849132 2.7951272867