22

C 1.9979922257 0.9203347682 -0.5383268475
C 1.2067984378 -0.3058414941 -0.1382566314
C 1.8439556553 -1.4339170292 0.6519132017
O 3.1487223766 -1.2935927113 1.1416586266
C 0.7765452497 -0.5853135384 1.2977902346
C 1.1677395912 0.3810562017 2.4000200207
N -0.5014190966 -1.2718106858 1.3563314291
C -0.9979134308 -1.8208933785 2.6108455119
C -1.6565493003 -0.6403685111 1.9794999591
H 2.8338569006 1.1055360122 0.1401778602
H 2.4116135516 0.7979089323 -1.5460463808
H 1.3693731424 1.8172998960 -0.5523420269
H 0.4737095848 -0.6354825271 -0.8685626570
H 1.5565962496 -2.4527141953 0.3978006212
H 3.7550637717 -1.3785331025 0.3984240334
H 2.2324671985 0.6079868310 2.3448941301
H 0.6104283404 1.3214947142 2.3340316849
H 0.9897977902 -0.0494049852 3.3909616685
H -1.4455599188 -2.8086758575 2.5403696879
H -0.4390525408 -1.6449593945 3.5271303997
H -1.5275766174 0.3171210078 2.4786506975
H -2.5971260712 -0.7482228731 1.4455447865