16

O 0.1054412314 1.3252229543 0.4341362286
C -0.0100948226 0.0467218636 -0.1551634540
C -1.4182930207 -0.5268726000 -0.0424901698
C -1.5668141839 -1.9926195056 0.2259673472
N -1.8774558476 -1.0238841592 1.2763849528
C -2.4020901658 0.1827140996 -0.8172937230
C -3.1747457940 0.8198454832 -1.4991845444
C -4.0548400035 1.5232251562 -2.2609730083
C -4.8327930088 2.1507401124 -2.9388102476
H -0.5057271684 1.9145535452 -0.0229911407
H 0.2943678115 0.0550108161 -1.2126387030
H 0.6845190219 -0.6030151635 0.3885638339
H -2.4240704538 -2.5210215883 -0.1787307643
H -0.6519095692 -2.5774969863 0.2882392177
H -1.1084902151 -0.9435536127 1.9389467099
H -5.5207119616 2.6998447250 -3.5325752450