18

C -0.0719512022 1.4968957511 0.0080224706
C 1.4237749071 1.9353045289 0.0294959325
C 2.1388438054 0.7689250348 -0.6741091058
C 3.5534901034 0.2644538135 -0.3052728831
C 3.3673569247 -1.2451730322 -0.3117152409
C 2.0709362937 -1.6054076199 -0.3252627397
C 1.2422804948 -0.4111934779 -0.3376459775
C 0.0134226298 -0.0203146263 0.0136113333
H -0.6384102565 1.8939099639 0.8579550398
H -0.5774570682 1.8684825855 -0.8969031757
H 1.5903109914 2.9089365617 -0.4403414745
H 1.7634757750 2.0022684171 1.0700734702
H 2.1097722522 0.9245462216 -1.7634858076
H 4.3334003003 0.6011645991 -0.9961991092
H 3.8578678846 0.6005440328 0.6977611061
H 4.2018603433 -1.9350793289 -0.2452053425
H 1.7001421556 -2.6215873364 -0.2649101523
H -0.8129257243 -0.6612439184 0.2978276662