17

O 0.0203946811 -0.0483282058 0.0016654334
C -0.0008397328 1.1599290169 0.0090201838
C -1.2347961870 2.0814805634 0.0318753185
C -0.6953540681 3.5362094134 0.0323663164
C 0.8002229753 3.3560297680 0.0097665782
N 1.7870807108 4.1541016636 -0.0004737371
C 3.0033202057 3.3103003017 -0.0225096294
C 2.5328874114 1.8098977510 -0.0239599600
N 1.0896675112 1.9955403731 -0.0015403859
H -1.8565918482 1.8555311734 -0.8379714600
H -1.8315197239 1.8456502237 0.9165359879
H -1.0223614744 4.1107564742 -0.8377281360
H -0.9970442222 4.1007246604 0.9180380318
H 3.5985955867 3.5492978050 -0.9093978013
H 3.6237198650 3.5396665293 0.8495880494
H 2.8428371886 1.2600366149 -0.9168689315
H 2.8691286609 1.2500859637 0.8530992415