19

C -0.2165386259 1.5329169765 -0.0755813931
C 0.0847535961 0.0325405306 0.0215218025
C 0.9374215931 -0.4962815106 -1.1694326867
N 1.9666660377 -1.3409585189 -0.5398946063
C 1.9455332701 -1.1291269941 0.8441362313
C 0.9235623901 -0.3607754704 1.2229361049
C 2.9012637554 -1.9991639303 -1.3036784546
N 3.8216103905 -2.7637312054 -0.5878369652
O 2.9349030093 -1.8912165902 -2.5167080105
H 0.7104626587 2.1151427409 -0.0998107619
H -0.7859853633 1.7617981024 -0.9828196482
H -0.8061649014 1.8713466681 0.7825839500
H -0.8756843979 -0.5023849021 0.0541562579
H 0.3650076968 -1.0771690135 -1.8945787556
H 1.4205230408 0.3243613159 -1.7129506568
H 2.7254750387 -1.5586445662 1.4564266469
H 0.7031767767 -0.0689008894 2.2398302771
H 3.4797311928 -3.2540827029 0.2256401421
H 4.3591494718 -3.3523462605 -1.2076320339