17

C -0.0280378654 1.4781279308 0.1773109513
C 0.0482140522 -0.0040436534 -0.1166869975
O 1.1042537658 -0.5392983171 -0.4181098368
C -1.2211118557 -0.7671245112 -0.0399584943
C -1.3236243245 -2.0700984744 -0.8387702500
O -0.2994666333 -2.4841007450 -1.6505878440
C -1.2489797922 -2.1594962826 0.6659216321
C -0.0939152215 -2.6851936084 1.3230088828
C 0.8594139922 -3.1569366779 1.8834338474
H 0.9602340751 1.9280210063 0.0788916100
H -0.7269568882 1.9655563239 -0.5120553707
H -0.4125313679 1.6421009799 1.1903951822
H -2.1223316388 -0.1780182482 0.0889545822
H -2.2917632504 -2.2787860278 -1.2836772953
H 0.5180645876 -2.0689537030 -1.3167858060
H -2.1906728544 -2.3473385869 1.1744754054
H 1.7076706693 -3.5696908549 2.3705820812