11

F -0.0050221513 0.0849911266 0.0034514280
C -0.0149948385 1.3959971881 0.0105053463
N -1.2051981898 1.9635072735 0.0299746324
C -1.1594638709 3.3049685860 0.0365246363
N -0.0340692598 4.0365486557 0.0247560022
C 1.0846876819 3.3182204325 0.0055034942
N 1.1688666891 1.9861315970 -0.0027019149
C -2.4050450219 4.0043739795 0.0571939460
C -3.4515368451 4.5951025247 0.0745644509
H 2.0233778247 3.8662976657 -0.0045948389
H -4.3772964484 5.1170793305 0.0899432275