18

O -1.1555585650 0.6031975314 -0.0358109676
C 0.0558979482 -0.1190623131 -0.1953892609
C 1.0469805701 0.5963978366 -1.1363167821
N 0.5481416090 0.8432958044 -2.4797503788
C 0.4230069258 -0.3311747019 -3.3293099348
C 0.2599172778 0.0808961728 -4.7850243654
O -0.3627897925 -0.5438808409 -5.6020376712
C 0.6875824986 -0.4509258042 1.1524468496
O 1.8192542118 -0.8359860543 1.2919520782
H -0.9481661427 1.4601805664 0.3551626586
H -0.2408769565 -1.0775719939 -0.6431822894
H 1.3143762706 1.5617074045 -0.6838915169
H 1.9686410327 0.0086910865 -1.1860440513
H -0.3487376264 1.3152168481 -2.4117432190
H 1.3672779761 -0.8940302344 -3.2742868037
H -0.3850818923 -1.0350642368 -3.0755349049
H 0.7890319329 1.0276168078 -5.0358882402
H -0.0015458981 -0.3025170390 2.0164288500