14

N -0.0085694496 0.9466767064 0.1372417616
H 0.0094806471 -0.0298869368 -0.1095178644
H 0.8226650690 1.4561890757 -0.1165803200
C -1.2081548662 1.6058058385 0.0645616070
C -1.2802271900 3.0122225104 0.0392222499
N -2.4128671422 3.7054313211 0.0132528630
N -3.5840640057 3.0839191204 0.0106535588
C -3.5892059882 1.7432739170 0.0335947609
C -4.9210800334 1.0574381569 0.0277548173
O -5.9901371529 1.6044432166 0.0023752725
C -2.4412641389 0.9572072092 0.0596869104
H -0.3703593482 3.6085184884 0.0401280310
H -4.8374595057 -0.0548949147 0.0498823216
H -2.5146921953 -0.1268003091 0.0768651505