21

C 0.0312770521 1.4950658012 0.4043975324
C 0.0333270158 0.0433542803 -0.0958864430
C -1.3369546539 -0.5521441466 -0.1782294512
O -2.0507328476 -0.8490000847 1.0318325638
C -1.8596761312 -1.9046940381 0.0731242823
C -2.9629828028 -1.7593522360 -0.9760311465
C -2.4287912293 -0.2979957538 -1.2563430889
C -3.3974977640 0.8487171202 -1.0171755049
O -1.7684258796 -0.1929347064 -2.5064703231
H 1.0532318594 1.8758892164 0.4904014766
H -0.5113457684 2.1518585189 -0.2824818386
H -0.4431086784 1.5658601587 1.3876753566
H 0.4869312840 -0.0115565384 -1.0912586057
H 0.6377797324 -0.5792167700 0.5736638495
H -1.3549636065 -2.7984640816 0.4230053646
H -2.8087312346 -2.3917817711 -1.8533793767
H -3.9851751931 -1.8641068169 -0.6027187445
H -3.7859743465 0.8076865955 0.0030007855
H -2.9032057671 1.8123127145 -1.1732957598
H -4.2489381822 0.7859197875 -1.7069130136
H -2.4389674986 -0.1084167095 -3.1927056647