20

O 0.0236696636 -0.0581560484 0.3693332328
C 0.0231141821 1.1449843096 0.1642128429
N -1.1458724488 1.8583944612 0.0821133691
C -1.3391454593 3.3013743481 0.1870939291
C -1.5107154856 4.0317186008 -1.1568251211
C -0.2181892776 4.3148105533 -1.9345138764
C 0.6648020157 3.0721229408 -2.2004759109
C 1.5729968581 2.7100312296 -1.0506137430
C 1.2952247468 1.9023731925 -0.0248283456
H -1.9598508984 1.2748111194 0.2151768097
H -2.2390461517 3.4586821290 0.7911730160
H -0.5052459592 3.7347686516 0.7472018306
H -2.1957205635 3.4430716533 -1.7800467573
H -2.0128232421 4.9874779154 -0.9616675892
H -0.4923959376 4.7646296371 -2.8954506225
H 0.3744897085 5.0697093042 -1.4020925664
H 0.0223938219 2.2245165145 -2.4609429991
H 1.2926559441 3.2704714770 -3.0755138555
H 2.5681946744 3.1510792145 -1.0869112123
H 2.0643285684 1.6587281265 0.7019194491