17

C -0.0439696961 1.3423314411 0.0238583223
O 0.1274348398 -0.0716338305 0.0105198834
C 0.7045775376 -0.5445483630 -1.1268033335
C 2.1899536796 -0.3552719755 -1.6804020647
C 1.5221478130 -1.3311067023 -2.7056774241
C 0.8759422127 -2.0536148331 -1.4550300676
O 1.7198050775 -2.7377444272 -0.5722939674
C 0.3140719599 -0.3945934210 -2.6120946088
O -0.4615016321 0.1851332487 -3.3108001699
H 0.9249411709 1.8594542700 0.0132636530
H -0.6400449025 1.6772451925 -0.8328139670
H -0.5667732105 1.5848350254 0.9504021989
H 2.4757939853 0.6305282486 -2.0476190922
H 2.9472570026 -0.8152835431 -1.0509590641
H 1.9730220825 -1.7867200109 -3.5807995145
H -0.0489131151 -2.6092782430 -1.6481574017
H 1.9187989648 -3.5985461267 -0.9534632020