23

C 0.1058088874 1.5153911128 -0.0984705710
C 0.0054387964 -0.0110096824 0.0385796754
C 0.7530795225 -0.4839560313 1.2929552392
C -1.4588409451 -0.5133134579 0.0380392791
C -2.2906658641 0.0471166483 -1.1286074409
N -1.4455614896 -1.9853611072 0.0744464777
C -2.7056014690 -2.6071364600 0.4543353063
C -2.5656592154 -4.0658407160 0.5200043006
N -2.4651904604 -5.2161070590 0.5482618312
H 1.1502140131 1.8334901598 -0.0219107529
H -0.2786244883 1.8789414071 -1.0547268350
H -0.4489119284 2.0196908821 0.7023906242
H 0.4940795272 -0.4601151901 -0.8403600233
H 0.6664290155 -1.5644728521 1.4169934649
H 1.8138128183 -0.2202843646 1.2347800450
H 0.3434495223 -0.0042794478 2.1907532400
H -1.9212124326 -0.1893742565 0.9823513373
H -2.4182607945 1.1299672202 -1.0560293390
H -1.8077447654 -0.1719276964 -2.0887909604
H -3.2924655462 -0.3930842961 -1.1501774937
H -1.1369088998 -2.3521905604 -0.8210628951
H -2.9878136106 -2.2457999025 1.4511494754
H -3.5617543435 -2.3888156800 -0.2085954149