21

O -0.0473030113 1.3967643240 0.0221505731
C 0.0303007858 -0.0202741058 0.0018861506
C 0.6331513217 -0.5684230653 -1.3163960474
C -0.0035500633 -1.9617205951 -1.5305918812
C -1.3079718408 -1.9148564365 -0.7327071716
C -1.2511438549 -1.9333602882 0.7881762119
C 0.1091132428 -1.9984533495 1.4851233138
C 0.7296144790 -0.5999498791 1.2575754104
C -1.3872228270 -0.6276223013 0.0475395467
H 0.8511245918 1.7413305228 -0.0065046433
H 0.3159255496 0.1084356038 -2.1166069578
H 1.7288896202 -0.5879177914 -1.3073053432
H -0.2040280667 -2.1469193196 -2.5895279225
H 0.6552938873 -2.7706062156 -1.1941912968
H -2.2015580559 -2.3343610786 -1.1824141023
H -2.1090591527 -2.3645048975 1.2929703517
H -0.0120518335 -2.2091110858 2.5513245458
H 0.7401413181 -2.7985895052 1.0812510118
H 1.8215576033 -0.6185755786 1.1658362099
H 0.4741463821 0.0570903499 2.0955126185
H -2.2497673354 0.0251163325 0.0877000019