21

C -0.4698115124 1.3737897642 0.5138285515
C -0.4085490808 -0.1314610315 0.7835234840
C 1.0110192924 -0.6187754883 1.0371197118
O 0.9776121787 -2.0108503358 1.2804746814
C 2.2421155827 -2.5698364939 1.5214859584
C 2.0658145771 -4.0674034715 1.8213000837
O 3.3359247807 -4.7107465944 1.8580212888
C 1.3026502416 -4.2938410174 3.0492730855
C 0.7341804064 -4.4780868056 4.0922204505
H 0.1221843266 1.6471558161 -0.3666894032
H -1.4986460994 1.6985836368 0.3345281537
H -0.0841727283 1.9485559563 1.3632170553
H -1.0237869716 -0.3888777355 1.6530797698
H -0.8203288292 -0.6878335530 -0.0662166206
H 1.6546491119 -0.3985958444 0.1675231655
H 1.4499149393 -0.0922224998 1.9024324945
H 2.9023115079 -2.4768649516 0.6446459573
H 2.7422412407 -2.0796131462 2.3743250332
H 1.5302700033 -4.5121231971 0.9746472072
H 3.7124241262 -4.5589456821 2.7316604442
H 0.2120517962 -4.6476350154 5.0014331571