20

C 0.0221507299 1.5819872897 0.0281822705
C 0.0703101237 0.0604553163 0.0325245668
C -1.1715260653 -0.5275834684 -0.4152439739
N -2.1708521643 -0.9870960147 -0.7756995593
C 1.3050013286 -0.7704491141 -0.3326771486
C 2.6702332182 -0.0961603295 -0.3673950881
C 2.9100435365 0.4987091316 1.0490576685
C 1.8311670511 -0.1159582241 1.9849663660
C 0.7996889350 -0.7824111794 1.0840707015
H 0.9576842352 2.0252062384 0.3658741970
H -0.1828865006 1.9538615297 -0.9802109685
H -0.7770338558 1.9397896507 0.6842829614
H 1.1355683620 -1.6121012710 -0.9942239047
H 3.4185234398 -0.8617054676 -0.5975039871
H 2.7515859121 0.6640583128 -1.1511276698
H 3.9178944711 0.2724420137 1.4066460109
H 2.8356899283 1.5886896877 1.0317089457
H 2.2690129109 -0.8888414836 2.6251865358
H 1.3941397162 0.6320119566 2.6545480578
H 0.2543825973 -1.6329590145 1.4764196382