18

C -0.0063879400 1.5824980761 0.0360839093
C 0.0821130201 0.0712421345 0.1132793937
C 1.3283615950 -0.7437271241 -0.2404184129
C 2.5534150271 -0.1017878546 0.3270711977
O 3.6575182598 0.0935805482 -0.0998868013
C 1.9521634758 -0.0176031195 1.7538604880
C 0.7062341540 -0.7357176131 1.2001882810
C 0.0149409007 -1.8634508310 1.9105232384
H 0.8926121840 2.0768446967 0.4108846246
H -0.1477661858 1.9026781999 -1.0012437800
H -0.8591546687 1.9500123873 0.6175634004
H -0.8018375419 -0.4202345118 -0.2929805110
H 1.3045025237 -1.4954125741 -1.0211691051
H 2.5395741356 -0.6456521962 2.4315382319
H 1.8206329537 0.9668848308 2.2109394635
H -0.5405233021 -1.4960833197 2.7817768949
H -0.6998307903 -2.3682305379 1.2526513999
H 0.7331084891 -2.6097153114 2.2678508369