18

C 0.0769035049 1.5759667281 -0.1251170346
C 0.0159572617 0.0481724028 -0.0136257588
C 0.7680890540 -0.4650940054 1.2382426011
C 2.1888155307 -0.1279400751 1.2223356481
N 3.3119339056 0.1427282663 1.1886240114
C -1.4410523641 -0.4684477844 0.0552430021
O -2.1026739711 0.0141717516 1.1915861742
C -2.2123353106 -0.1045722092 -1.1988170700
O -3.2525274067 0.5047438388 -1.1466314680
H 1.1119610216 1.9262029928 -0.1077800379
H -0.3785139234 1.9264647240 -1.0566796255
H -0.4604372781 2.0378062291 0.7077218187
H 0.4838347492 -0.4039753017 -0.8977540385
H 0.3060594180 -0.0401216818 2.1354271008
H 0.6732844045 -1.5542544577 1.3174211967
H -1.4056182155 -1.5747815767 0.0757322828
H -2.9064831252 0.4501638927 0.8656102528
H -1.7749723256 -0.4373767242 -2.1619925755