23

C 0.0376206983 1.5943288590 0.1399703337
C -0.0080273645 0.0693066685 0.0039237232
C 0.6530544618 -0.4854971259 -1.2753884182
C 0.8461372750 -2.0081007292 -1.1914004987
C 1.2993294669 -2.5880614461 -2.5340435708
C 0.2543963626 -2.3379789362 -3.6317607933
O -0.8153096094 -3.2925966391 -3.5889621051
C -0.2906369372 -0.9342380479 -3.5675269567
C -0.1156701749 -0.1205119712 -2.5241690335
H 1.0702389494 1.9606914611 0.1249809452
H -0.5030796744 2.0985147314 -0.6672019844
H -0.4144964223 1.9152618455 1.0835438894
H 0.4977505335 -0.3790975541 0.8684596258
H -1.0490968857 -0.2771747878 0.0463436936
H 1.6512035411 -0.0207782670 -1.3479706595
H 1.5649588537 -2.2502325100 -0.4010854846
H -0.1048720934 -2.4737820363 -0.8949428250
H 2.2464353609 -2.1193707536 -2.8325789356
H 1.4759624350 -3.6655198368 -2.4621887306
H 0.7187348429 -2.5067824394 -4.6106833312
H -1.4112189285 -3.0195550487 -2.8835539533
H -0.8847867270 -0.6110919983 -4.4190602898
H -0.5479615338 0.8772409122 -2.5583784508