12

C -0.0011439721 1.5141853475 -0.0280495725
C -0.0010996206 0.0213344595 0.0355473189
N -0.0802407288 -0.6926687736 -1.0660639662
O -0.0573839778 -2.0216181930 -0.6836173421
C 0.0364516005 -2.0769566014 0.6620239945
C 0.0767705444 -0.8202455681 1.1826392752
C 0.0752243500 -3.3547126277 1.2712395487
N 0.1082915510 -4.3894346957 1.7882011382
H 0.9163108561 1.9220770855 0.4074694434
H -0.0736350580 1.8430247561 -1.0659538790
H -0.8456117272 1.9273517745 0.5322454931
H 0.1502280826 -0.5401055137 2.2199576680