22

C -0.1981244077 1.5673085500 -0.1256950840
C -0.0130583318 0.0442552642 -0.0144074911
C -1.3561671165 -0.6561014051 0.2285655536
C 0.7371158904 -0.4877737883 -1.2156819529
C 0.1078073489 -0.8891835202 -2.5234937933
C 0.9180139162 -1.9095322277 -1.7653601975
C 2.4111795352 -1.6638436641 -1.9966165126
C 2.2319213115 -0.2050209245 -1.4626814163
H 0.7608676958 2.0776519102 -0.2613926643
H -0.8341376078 1.8183501940 -0.9820233708
H -0.6696624302 1.9736289136 0.7753982167
H 0.6205550202 -0.1482152201 0.8646785908
H -2.0734125662 -0.4360627632 -0.5696371434
H -1.2383962324 -1.7427891641 0.2890004635
H -1.8005184812 -0.3150450581 1.1691151481
H -0.9651370384 -1.0493978799 -2.5054925685
H 0.4773459951 -0.4846642671 -3.4645535091
H 0.4744093518 -2.8388032227 -1.4257703961
H 3.0545707814 -2.2633248644 -1.3484636605
H 2.7606790064 -1.7735336890 -3.0291294993
H 2.4599637563 0.6086019678 -2.1595715016
H 2.7879566229 -0.0326341412 -0.5367986415