21

C -0.2301587998 1.5623098118 0.1128490809
C 0.0012750536 0.0599563844 0.0315871346
C 1.1806815115 -0.5442772898 -0.7912242217
C 2.1493618949 -0.0915612733 0.3367155678
C 0.9106984611 -0.6947019210 1.0774889750
C 0.6841719915 -0.8209162529 2.5605235664
C 1.0006939972 -1.8655630384 0.0466300687
C -0.1545682907 -2.7883741743 -0.2103141920
O -1.2075640640 -2.7888522002 0.3819059990
H 0.6777257223 2.1469294174 0.2800235850
H -0.6881715634 1.9246589774 -0.8143282184
H -0.9262610440 1.7926404027 0.9270240633
H -0.9557662447 -0.4377964995 -0.1347662172
H 1.3447916640 -0.4854747630 -1.8683332054
H 3.0862670496 -0.6493666309 0.4261144624
H 2.3269165687 0.9784412739 0.4435829095
H 0.6413023521 0.1651970202 3.0359134846
H -0.2581995097 -1.3399785422 2.7587974208
H 1.4922375464 -1.3862893132 3.0381105311
H 1.9187588485 -2.4672403700 0.0884962645
H 0.0372676849 -3.5364412190 -1.0162681689