21

C -0.3544188547 1.5134173278 0.0750902429
C 0.0370487022 0.0332151698 -0.0098871288
C 0.7694763720 -0.3996145580 -1.3206828444
C 2.2690311636 -0.6043046189 -1.0519181078
C 2.8519624206 0.6350023340 -0.3135878531
C 2.4450884527 -0.0525818611 1.0030534657
C 2.4539577601 -1.4197898515 0.2969300856
O 1.2229324459 -1.8450177750 0.8896951827
C 0.9239883796 -0.4338758702 1.1438010071
H 0.5095685169 2.1828174574 0.0609090503
H -1.0011345197 1.7897035891 -0.7640998298
H -0.9093778157 1.7140724733 0.9987047941
H -0.8876433845 -0.5512564966 0.0668867403
H 0.3376085729 -1.3350354073 -1.6868824217
H 0.6327197168 0.3490347211 -2.1093472099
H 2.7997243763 -0.9647274095 -1.9354398895
H 3.9436679860 0.6753481156 -0.3824436507
H 2.4535983910 1.6185035287 -0.5724190334
H 2.9621332735 0.1550193201 1.9400658904
H 3.2481773710 -2.1673958354 0.3386264005
H 0.4714624837 -0.2917416233 2.1296323495