16

O -0.0988629897 1.4357284891 0.2357043812
C -0.0043064880 0.0666380593 0.1098349525
C -0.8359220407 -0.8576275822 0.9267405226
C 0.6805213345 -0.9876858242 0.9768969096
C 1.2447090354 -1.6483231527 -0.3038323104
N 0.1755919280 -2.0561069216 -1.1944044901
C 0.5553601556 -0.6170273553 -1.1772378853
C 1.1645093528 -0.0121748678 -2.3567895217
O 1.6013470997 -0.6601886107 -3.2882582457
H 0.7873635375 1.8155952456 0.2163228942
H -1.2425684712 -0.3814377544 1.8133236816
H -1.4500713607 -1.6266562252 0.4760180182
H 1.2456035130 -0.8763242350 1.8922234399
H 2.2600944696 -2.0043454432 -0.4285494331
H 0.5978862416 -2.4261158950 -2.0502370473
H 1.2179195725 1.0963262034 -2.3496806562