19

O -0.2558219301 0.6063508551 1.2049576234
C -0.1546764823 1.4199473571 0.3266801410
O -1.2722457244 1.8563862943 -0.3099444281
C -1.1573877267 2.9048033428 -1.2880520960
C -0.3060655792 4.0519566951 -0.7514520447
C 1.1084518564 3.5231130165 -0.5038889932
C 1.8470358011 3.8202098670 0.8338736616
C 2.1791508375 2.3067293050 0.9764758602
C 1.1620449094 2.0011079078 -0.1535042965
H -0.7311283278 2.4993304336 -2.2157716297
H -2.1853474908 3.2105491765 -1.4948298271
H -0.3187825662 4.8889994802 -1.4570995587
H -0.7603690371 4.4062490918 0.1812818532
H 1.7491951887 3.7328850557 -1.3650557754
H 2.6908032897 4.5118489001 0.7864068326
H 1.1591351595 4.1694377592 1.6099770214
H 3.2041979862 2.0669013920 0.6857964613
H 1.9629639701 1.8325942729 1.9343851174
H 1.5193669358 1.3473552173 -0.9565204327