15

O -0.1961071694 1.2891884104 -0.2551669837
N -0.0513976725 -0.1046222960 -0.1872592432
C -1.1587524541 -0.6674122526 0.0557883958
C -2.5757905611 -0.2248169759 0.3884536657
C -2.9284942739 -1.7192214275 0.6618226897
C -3.3468792064 -2.5134483045 -0.5845667076
O -1.9695808516 -2.7668230540 -0.9538879961
C -1.4746134910 -2.1343660761 0.2499987814
H 0.7053080516 1.5804939070 -0.4315024211
H -2.6182522120 0.4222165103 1.2698766042
H -3.1327673623 0.2614923356 -0.4182859849
H -3.3877290520 -1.9636844339 1.6170416359
H -3.8760896500 -3.4514367268 -0.3749612115
H -3.8924929788 -1.9586484843 -1.3578728557
H -0.7795271964 -2.7677586417 0.8053106312