18

C 0.2375685098 1.5779218081 0.0598605367
C -0.2213587612 0.1318076321 -0.1005097144
N 0.5569124277 -0.5233380812 -1.1559511066
C 1.8083739750 -1.2031793209 -0.7950967487
C 2.2905383527 -1.2618728270 0.5559065257
C 2.7350228767 -1.2832388123 1.6733838756
C 0.5782157072 -1.9884015264 -1.2157031076
C -0.1320626262 -2.8071387244 -0.2740779999
C -0.7575608324 -3.5112766912 0.4737053312
H 1.2752794905 1.6194345815 0.4041595458
H 0.1692250299 2.1146005080 -0.8906076546
H -0.3841731801 2.0939326733 0.7977941461
H -0.1556537735 -0.3972428465 0.8593288444
H -1.2686006844 0.0955082282 -0.4197936125
H 2.5898488676 -1.0931172955 -1.5445163380
H 3.1213920356 -1.3155813031 2.6620720592
H 0.5794543053 -2.3766569156 -2.2326862657
H -1.2991873002 -4.1328725571 1.1430316033