16

O -0.0764158363 1.4029791060 0.1243039051
C -0.0329011779 0.0135338669 -0.0009062080
C -1.3370416027 -0.7393668791 0.0121053457
C -2.5817909956 0.0873380013 -0.3150191767
N -2.3661385956 0.5221361220 -1.6899249144
C -1.2377681506 0.0467268734 -2.2738964084
O -0.8808499087 0.1585761766 -3.4329233559
C -0.4739049031 -0.7351874812 -1.2374286500
O 0.2535791578 -1.8042355593 -1.7278564212
H 0.6000322545 1.7816848198 -0.4473208161
H 0.7845071490 -0.4814038356 0.5250277640
H -1.4397200507 -1.6063209403 0.6522907682
H -3.4897002134 -0.5217795837 -0.2347077326
H -2.6769389990 0.9468760042 0.3571895378
H -2.9921547267 1.1379226196 -2.1831769105
H 0.3783473791 -1.6063363305 -2.6690318569