19

O 0.0397291512 1.3486388618 0.4298923609
C -0.0954421906 -0.0335379834 0.6651451959
C -1.3979334759 -0.5880075652 0.0979723432
C -2.5830753880 0.2735293240 0.0523813321
O -1.7859699263 0.0451416607 -1.1305639494
C -1.5398182052 -2.0882335758 0.1347042304
O -1.5178295558 -2.6083029574 1.4413947863
C -2.4542170828 -2.7822238624 -0.8244391792
C -0.9521938788 -2.9200638545 -0.9776530426
H -0.2144510376 1.4806478526 -0.4934655666
H 0.7433048232 -0.6030376880 0.2285292690
H -0.0725417272 -0.1850320964 1.7494022271
H -3.5702722114 -0.1815431698 0.0304042226
H -2.5209318397 1.2831458199 0.4488787870
H -0.5988250468 -2.7179826473 1.7077740230
H -2.9984364657 -3.6322901105 -0.4307954213
H -2.9776661408 -2.1779786128 -1.5554015270
H -0.4797848419 -2.4064370615 -1.8076563189
H -0.5029852201 -3.8678083040 -0.7012529423