20

C -0.0165295827 1.5452783452 0.0017540062
C -0.0089654750 0.0078729529 0.0586373234
C 0.7054777209 -0.4634920447 1.3361206715
C -1.4531057161 -0.5194943711 0.0352016346
C 0.7477364287 -0.5115250237 -1.2059292827
O 2.0743549443 0.0079847604 -1.2958693458
C 0.7596574652 -1.9742723852 -1.3089029832
C 0.8189306639 -3.1738410121 -1.3750142959
H 1.0010146198 1.9387205445 -0.0532385760
H -0.5656766712 1.9053811487 -0.8757107732
H -0.5025041985 1.9584142488 0.8915401690
H 0.1769767197 -0.1025893428 2.2241402582
H 0.7475283081 -1.5559276009 1.3895966732
H 1.7282805872 -0.0751160201 1.3847410750
H -1.9699875616 -0.2189329605 -0.8834172880
H -1.4840593418 -1.6107535358 0.0978904449
H -2.0187596861 -0.1143386014 0.8806766953
H 0.2283815339 -0.1057824814 -2.0839634749
H 2.6426815670 -0.5514596448 -0.7564848045
H 0.8613252344 -4.2326534062 -1.4494273572