20

C -0.1322954027 1.3803089316 0.0026494112
O 0.1070920320 -0.0092771223 0.0597617498
C 0.7314614132 -0.5507886567 -1.0870144499
C 1.2348035529 -1.9440581131 -0.7314108164
C 1.8907383242 -2.5790326695 -1.9503742988
O 1.0415975166 -2.6042127480 -3.1076763995
C 0.3358111864 -1.4764316246 -3.4275047713
N 0.0782803297 -1.1738410083 -4.6293551564
C -0.2297119249 -0.6704091429 -2.2793810388
H 0.7928895708 1.9419957993 -0.1998172938
H -0.8748791054 1.6516707690 -0.7608470847
H -0.5173346613 1.6776915724 0.9809214041
H 1.5894888909 0.0839994231 -1.3719183194
H 1.9579167945 -1.8922981780 0.0884529135
H 0.3888566098 -2.5522639391 -0.3916349117
H 2.8139717239 -2.0405566396 -2.2085407785
H 2.1530746146 -3.6226757309 -1.7637927348
H 0.5139824767 -1.8545483825 -5.2562738316
H -1.1309911731 -1.1835430724 -1.9180471700
H -0.5361632688 0.2975523125 -2.6766859129