17

C -0.0923358614 1.6160863894 0.1686782620
C 0.1259285067 0.1167734367 0.1387282011
O 1.2247457280 -0.3929092270 0.1848986091
C -1.0809556999 -0.6854183308 0.0519342438
C -2.0845063000 -1.3548183558 -0.0167254688
C -3.2937201766 -2.1521072581 -0.1067528571
C -4.0019184779 -2.2157573616 -1.4912419452
C -3.7724561053 -3.7347851355 -1.3744816336
O -3.0613532680 -3.5804505433 -0.1255823446
H 0.8718293153 2.1231929208 0.2264445330
H -0.6328678041 1.9371381975 -0.7282961398
H -0.7117454931 1.8882748950 1.0301648515
H -3.9667404671 -1.8803255873 0.7182010117
H -5.0385034618 -1.8786967569 -1.4931682084
H -3.4532653822 -1.7250274219 -2.2945760726
H -4.6791003138 -4.3389604043 -1.2521929720
H -3.1419245788 -4.1869793068 -2.1475842001