18

C -0.0894559499 1.5092596427 0.0200119531
C -0.0298362942 0.0076518859 0.0400051799
C 1.1390772935 -0.7842507759 -0.6471856293
O 2.0708935390 -0.3997008987 0.4085393731
C 0.8357520657 -0.7550275728 1.1173108188
C 0.6016944989 -1.9893397234 0.2071486680
C -0.8753831038 -2.1049558495 -0.0858380360
C -1.8298806724 -1.4634253821 0.8580879438
N -1.2879054827 -0.6893163046 -0.2743211343
H 0.9075030964 1.9185339784 0.2015709789
H -0.4564264977 1.8675014993 -0.9462833532
H -0.7694279081 1.8815398109 0.7935463787
H 1.4899869568 -0.7583431820 -1.6795180794
H 0.8488341742 -0.6805557566 2.2048632304
H 1.2250973528 -2.8719950728 0.3338106899
H -1.2264546224 -2.8221528021 -0.8220528112
H -2.8885209443 -1.6914765768 0.7753192919
H -1.4982775618 -1.2223399700 1.8646361170