17

O -0.0347827006 1.4292437054 -0.0075487472
C 0.0055427719 0.0570688834 0.0690116276
C -0.2905503359 -0.8351202392 -1.1342831766
C -1.1863211832 -0.9310148161 0.0619481312
C -0.4948597796 -1.7785178314 1.1192248637
C -1.0760579912 -2.4345282573 2.3417998357
C -0.4059858875 -3.2714898569 1.2842472851
C 0.6321611400 -0.7602406623 1.1810418031
O 1.5498442384 -0.5858218379 1.9338436433
H 0.7373226544 1.7334870040 -0.4975208224
H -0.6823936273 -0.2657717215 -1.9722081639
H 0.3587372335 -1.6634566696 -1.4033674220
H -2.2358303843 -0.6693563784 0.0476216323
H -0.5520501184 -2.2699801647 3.2774402838
H -2.1570036152 -2.4783046640 2.4219510130
H -1.0324766353 -3.8858691792 0.6459967931
H 0.5700784103 -3.6899738743 1.5071103101