18

O 0.4022516891 -0.0739948040 -1.4189188303
C 0.0025241506 0.0942711066 -0.0631082853
C -1.3789656896 -0.5132088885 0.0729913179
C -1.4999583521 -2.0757551376 -0.0132407247
C -1.1112903249 -2.1138510593 1.5002250197
C -1.9477489352 -0.8125361811 1.4899519597
O -3.2741780071 -1.2829087728 1.1978821440
C -3.0216927391 -2.2098867145 0.1104732113
H 1.2534026632 0.3581148493 -1.5367285488
H 0.7270486773 -0.3737713749 0.6186062528
H -0.0487490132 1.1624363698 0.2038797464
H -2.0695287574 0.0393804014 -0.5721151554
H -0.9905412276 -2.6597425642 -0.7773567357
H -1.4951241422 -2.9360632594 2.1089464279
H -0.0476153202 -1.9685893058 1.6835955909
H -1.9869949355 -0.0918540102 2.3062247056
H -3.5638707476 -1.8908604069 -0.7871585117
H -3.3541211386 -3.2160694979 0.3916192256