23

C -0.1493751850 1.3717597338 0.1255298697
O -0.0017829431 -0.0257956496 -0.0454109393
C 0.6418972097 -0.4861520506 -1.2208340585
C -0.0309497852 0.0230538402 -2.5086880222
C 2.1158096183 -0.0585834872 -1.2408717729
O 2.7204991788 0.3620136060 -0.2899078913
C 0.5969034451 -2.0444325254 -1.0799856470
C -0.8459586232 -2.5687255040 -1.0741098536
C 1.4485813584 -2.8053714786 -2.1076474318
H 0.8102555042 1.8983253491 0.0857393452
H -0.8360066124 1.8116151948 -0.6108799320
H -0.5801747810 1.5093493069 1.1201926956
H 0.0966617179 1.1024934307 -2.6318807235
H 0.3997063462 -0.4577152350 -3.3911507559
H -1.1010681899 -0.1929341141 -2.4859119927
H 2.6111324379 -0.1645264463 -2.2338868158
H 1.0212699136 -2.2257601918 -0.0851253001
H -0.8590881767 -3.6176005329 -0.7606578569
H -1.4661998846 -1.9950154262 -0.3833286998
H -1.2977502420 -2.5226743859 -2.0710536303
H 2.5108789600 -2.5506962338 -2.0509254544
H 1.3638438057 -3.8811757768 -1.9251889148
H 1.1115270073 -2.6262148934 -3.1346083876