20

C -0.0982754492 1.5688119603 0.0670488051
C 0.0334080624 0.0475792372 0.0275798088
C -1.3248590203 -0.6110333440 -0.2218409784
C 1.1365273509 -0.5415554031 -0.9289602454
C 1.7819692422 -1.2597984740 0.2692443353
C 2.1951502678 -0.2471662290 1.3144964792
C 0.7506558603 -0.6183299940 1.2236889691
C 2.2825887547 -2.5938664169 0.2571543551
N 2.6805934555 -3.6812413397 0.2322906682
H 0.8592307538 2.0620337839 0.2584863914
H -0.4801051300 1.9468563369 -0.8879171770
H -0.7977363980 1.8800212400 0.8509481704
H -1.7467878086 -0.2836178424 -1.1781530256
H -1.2397026294 -1.7023199040 -0.2446964051
H -2.0372970187 -0.3460169469 0.5675984586
H 0.7256694064 -1.2251413814 -1.6735073850
H 1.7884989329 0.1800532041 -1.4302385547
H 2.7275460458 -0.6558173197 2.1663764582
H 2.5521801539 0.7244919206 0.9847915527
H 0.2421053377 -1.1030790980 2.0493121489