17

C -0.0403563710 1.5334376505 -0.0066660818
C 0.0614152885 0.0296350071 0.0018563608
C -0.8035243220 -0.8150491348 0.9081334018
C 0.6995120950 -0.7967462131 1.1065163750
C 1.4290989527 -1.9253549578 0.4389862485
O 2.1487483194 -2.7599302982 0.9281540394
N 1.1211819833 -1.8286761395 -0.9203071720
C 0.4343890706 -0.6652605152 -1.2792156709
N 0.1663988356 -0.2116122836 -2.4338681684
H 0.9081237497 1.9912413298 -0.3030199039
H -0.8016049467 1.8547196028 -0.7223021445
H -0.3110003604 1.9100200937 0.9839212031
H -1.3896620075 -0.2798364834 1.6472712104
H -1.2704070666 -1.7153927285 0.5239640718
H 1.1244732070 -0.3742929837 2.0070772920
H 1.4802678036 -2.4979553289 -1.5844827417
H 0.5116316888 -0.8223892470 -3.1760235693