17

C 0.0258640937 1.4475430001 0.1658762139
C -0.1658881532 -0.0563600811 0.3272797469
O -0.0335358614 -0.4364360734 1.6988794925
C -1.5328416900 -0.5679640358 -0.2392222591
C -1.7905878638 -0.0182714398 -1.5698818035
N -1.9598116464 0.4788219699 -2.5983781474
C -1.6722908200 -2.1188243751 -0.2912196308
N -1.3375060916 -2.7450965310 0.8656902047
O -2.0927051575 -2.6830753501 -1.2772987251
H 0.9751321448 1.7427326384 0.6204677125
H 0.0317316911 1.7391685988 -0.8858133087
H -0.7840331981 1.9988146761 0.6606602034
H 0.6371317505 -0.5892599860 -0.1920338100
H -0.5253370202 0.1980349583 2.2333671056
H -2.3184685285 -0.1940830837 0.4329879423
H -0.8275585652 -2.2436865963 1.5795109446
H -1.3369196043 -3.7525875192 0.8534205382