21

C 1.2105257120 0.4320267058 -0.3115018062
C -0.1886752758 0.4931172582 0.3188829939
C -1.2560052155 -0.1513351921 -0.5778120153
N -0.2020146600 -0.0657199139 1.6776174775
C 0.0553094576 -1.2630534685 1.9094313782
O 0.3964118233 -2.3157100689 1.0591865428
C 0.6443875305 -3.2112060106 2.1800229051
C 0.1504068534 -2.1129100908 3.1732698687
N 0.9603998600 -1.5936449835 4.2443693257
H 1.5134709310 -0.6030037161 -0.4914618370
H 1.2195331774 0.9671942579 -1.2667414238
H 1.9487328287 0.8997294849 0.3470232254
H -0.4516953339 1.5508859215 0.4385917612
H -1.0227473566 -1.2019698685 -0.7712531187
H -2.2400506471 -0.0979363925 -0.1025920950
H -1.3117532476 0.3739256801 -1.5371070976
H 0.0484678667 -4.1241543800 2.0976344049
H 1.7088090133 -3.4548668531 2.2614762112
H -0.8426417143 -2.3502710733 3.5684182991
H 1.0496002098 -2.2668085612 4.9976522400
H 1.8931563872 -1.3570807553 3.9224442599