19

C 0.0375129943 1.5438071041 0.1474726941
C -0.0406594282 0.0246391859 -0.0201010433
O 0.7096204050 -0.6549815498 0.9855014294
C -1.4542312546 -0.4814235311 -0.0333310838
C -2.7162767647 -0.1138436377 -0.8822436037
C -3.6132023099 -0.4904116495 0.2872878150
C -3.2232947237 -1.5414415873 -0.7413402944
C -1.9668245161 -1.9055072009 0.1056298261
C -2.3613692601 -0.8552437647 1.1391519189
H 1.0815504126 1.8682568826 0.1642462780
H -0.4745915594 2.0577115055 -0.6724355079
H -0.4408460942 1.8525980350 1.0846487669
H 0.4513061961 -0.2531432308 -0.9618553809
H 0.3647878360 -0.3669354062 1.8384955496
H -2.8794768049 0.6058061048 -1.6736786315
H -4.5918609952 -0.1127325800 0.5513720713
H -3.8499136292 -2.1179094160 -1.4085244277
H -1.4015375539 -2.8175287328 0.2394547608
H -2.1727346599 -0.8409719913 2.2052003228