17

C -0.1199495058 1.5532792811 -0.0393659938
C -0.0697349630 0.0267281119 -0.0828770295
C 0.8296355090 -0.5152098551 -1.2365339697
C 2.2262318567 -0.0902962302 -1.0951219802
C 3.3639175975 0.2716583844 -0.9653247352
C 0.7199882239 -1.9717692378 -1.3332113011
C 0.5839890985 -3.1694113546 -1.4010508697
C 0.4741599645 -4.6036678638 -1.4802711047
O -0.5629749567 -5.2040196618 -1.6448793885
H 0.8771597338 1.9777071932 0.1064795904
H -0.5298406100 1.9641057774 -0.9686199650
H -0.7569538685 1.8897441631 0.7834512936
H 0.3092616088 -0.3738239794 0.8623448720
H -1.0720468572 -0.3876149228 -0.2293761300
H 0.4379522251 -0.0957242330 -2.1759894568
H 4.3733752420 0.5845892826 -0.8589702314
H 1.4409824713 -5.1366652752 -1.3757975405