18

C 0.0569496664 1.4916508923 0.0095397771
O 1.2071618750 0.6389639147 -0.0060381265
C -0.1008074466 0.0347067266 0.0032220019
C -0.4400070919 -0.7326277327 1.2671856612
C 0.1286731485 -2.1546140820 1.1642739748
O -0.3219912333 -2.8090572847 -0.0099442008
C 0.1062004148 -2.1419887903 -1.1854664957
C -0.4641918273 -0.7190352511 -1.2621992557
H -0.0991598468 2.0486257852 0.9332523313
H -0.1167352894 2.0584968921 -0.9049850952
H -0.0299095349 -0.2185804352 2.1421121663
H -1.5295763005 -0.7890540416 1.3796735191
H 1.2301853901 -2.1101255575 1.1757479796
H -0.1968654058 -2.7718496852 2.0060969380
H 1.2072966654 -2.0972690107 -1.2175287046
H -0.2354442943 -2.7501761276 -2.0274927742
H -1.5557184360 -0.7743512402 -1.3544394873
H -0.0708362733 -0.1955756722 -2.1392299293