21

C -0.1508642105 1.5425102884 -0.0935742149
C -0.0023820327 0.0273340715 -0.0210689368
O -1.2734630452 -0.5800292419 -0.1110338764
C 1.1666488527 -0.6109658875 -0.8657564033
C 2.1145212683 -0.2042788417 0.3043851318
C 0.8574646285 -0.5650848324 1.1437335091
C 0.6455755944 -0.2507225485 2.5970058053
O 0.7531464891 -1.9834743494 0.9139944177
C 0.9447117677 -2.0858540232 -0.5159587246
H 0.7915968020 2.0843325204 -0.0059335387
H -0.5964490155 1.8270811596 -1.0561217303
H -0.8215416545 1.8883346992 0.6995742919
H -1.7919636350 -0.0988167849 -0.7636646396
H 1.3574675777 -0.3499096569 -1.9070143834
H 2.9858503459 -0.8386664022 0.4786662533
H 2.3999004127 0.8460584732 0.3160663700
H 0.7487992528 0.8222345777 2.7831221089
H -0.3554432598 -0.5660657985 2.9060517969
H 1.3766985640 -0.7817531372 3.2139048250
H 0.0484048913 -2.5075132964 -0.9797704365
H 1.8117444260 -2.7194599291 -0.7359767556