15

C -0.1211175319 1.3822594798 0.0628152829
O -0.0193847177 -0.0377526342 0.0536337313
C 0.6745213116 -0.5611573808 1.1174386343
O -0.0743442397 -0.4862834469 2.3482413513
C -0.4325501572 -1.7365089096 2.7641194710
N -1.1364153831 -2.0424555824 3.7611902650
N 0.1447344828 -2.6575851216 1.8971639662
C 0.8629424919 -2.0747004254 0.8834555192
O 1.4881495405 -2.6074671625 0.0069117988
H 0.8743602451 1.8455802043 0.1026146275
H -0.6135312390 1.6645824634 -0.8685939271
H -0.7168674173 1.7326700273 0.9129115369
H 1.6276033061 -0.0410859602 1.2862195599
H -1.4500990306 -1.2067674839 4.2502957278
H 0.0291715083 -3.6508176375 2.0212606051