14

N -0.0191098038 1.4953776788 0.0130799163
C -0.0011309597 0.0375186591 0.0530791944
C 0.5746174943 -0.5926568999 -1.1636975476
N 1.0066518718 -1.0398168610 -2.1382422673
C 0.7663092074 -0.4127412045 1.2649436853
N 1.7667885811 0.1838054442 1.8233007334
C 2.1213809153 -0.6536326149 2.8744723556
C 1.2974471896 -1.7264651764 2.8790299853
O 0.4146212818 -1.5818092776 1.8429550587
H 0.9250992874 1.8415824936 0.1592406960
H -0.3330387481 1.8152734372 -0.8973763726
H -1.0279768436 -0.3361332372 0.1468256337
H 2.9355019153 -0.4178025014 3.5403585196
H 1.1879789411 -2.6091196601 3.4843332192