20

C -0.2501375055 1.5720827495 0.1785319553
C -0.0789062708 0.0630536594 0.0579297668
C 0.4819091658 -0.5820734349 -1.2426590677
C 0.9758742200 0.2922289714 -2.3773516335
C 1.7183755413 -0.5110251866 -3.4514897346
O 2.1364813361 0.2947342025 -4.5403593349
O 1.5982949313 -1.1504078370 -0.4652241915
C 1.1522419721 -0.5527135796 0.6948393804
N 1.6417519433 -0.5416340757 1.8490674426
H 0.6475040394 2.1128640257 -0.1319638746
H -1.0915807289 1.9239184617 -0.4262791258
H -0.4477021631 1.8335812517 1.2216180111
H -0.9891995240 -0.4424768828 0.3941346173
H -0.1349431279 -1.4022206884 -1.6263250028
H 0.1209147557 0.7997618110 -2.8402680461
H 1.6397759688 1.0703089382 -1.9807286510
H 2.5617923803 -1.0478316809 -2.9942334327
H 1.0483759592 -1.2647860768 -3.8804448761
H 2.8272378941 0.8849796621 -4.2231713060
H 2.5094318429 -1.0790630903 1.8920183537