21

C -0.0141146387 1.5999075560 -0.0923262070
C 1.5305197780 1.5212074293 0.0406369901
C 1.3900415930 0.0756600628 0.5988604071
C -0.0733374789 0.0549408549 0.0462904117
C 2.3939578734 -1.0066037256 0.1486013585
C 2.3790891366 -2.0990393932 1.2457640096
C 1.9905153928 -1.3354570239 2.4966174455
O 2.7274571310 -0.1147781195 2.6734614838
C 1.4084952269 -0.0448923865 2.1110706858
H -0.4769033495 2.1081265897 0.7581651088
H -0.4172447824 2.0349372781 -1.0094721802
H 2.0260472000 1.5232004538 -0.9351157559
H 2.0302415073 2.2509230063 0.6829547331
H -0.8480085998 -0.3664699107 0.6943036554
H -0.1261585147 -0.4466276667 -0.9244220964
H 2.1555169527 -1.4002291241 -0.8433395614
H 3.3907971834 -0.5604582385 0.0933367448
H 1.6164552375 -2.8621044050 1.0466916945
H 3.3400136598 -2.6137808679 1.3427816001
H 1.7252391495 -1.8539647440 3.4148572037
H 0.6720459619 0.4788287246 2.7177334884