21

C 0.1505137091 1.6925108487 0.0396933418
C -0.1421746470 0.1914351431 -0.0655451920
C 0.5873313429 -0.4587154673 -1.2372316782
C 2.1066676317 -0.6974361524 -1.0717094079
O 1.9461317685 -2.1273340883 -1.1782733939
C 0.5257478778 -2.0033243475 -1.4183560360
C -0.2965719766 -2.8563555821 -0.4514935794
C 0.0053619519 -4.3305010356 -0.6297088724
O -0.8258615140 -5.1734090640 -0.8541742290
H 1.2207967097 1.8821119719 0.1768988668
H -0.1656528723 2.2209471420 -0.8663130866
H -0.3755732620 2.1390277015 0.8884669981
H 0.1445100415 -0.3005961439 0.8719638853
H -1.2227865410 0.0377541518 -0.1775732236
H 0.3337773709 0.0716259317 -2.1598112762
H 2.7443863898 -0.2979852259 -1.8694424502
H 2.5300126322 -0.4070750713 -0.1012085752
H 0.2848300800 -2.2977140346 -2.4497925303
H -0.0363890877 -2.5834886886 0.5789573014
H -1.3686707859 -2.6977524458 -0.6024613141
H 1.0819248004 -4.5898343234 -0.5390608581