17

N -0.0724967611 1.4101431972 -0.2065698564
C -0.0251626989 0.0079825157 -0.0394683567
C -0.3807202948 -0.8815074670 -1.1868232182
C -1.2294043519 -0.9901100413 0.0619030417
C -0.4722368534 -1.8263974108 1.1015981671
C 0.7003383151 -0.7849192399 1.0494446003
O 1.9843009970 -1.2155384575 0.6644105517
C -2.6220793454 -0.7041860573 0.0853986598
N -3.7560406516 -0.4729260599 0.1333855205
H -0.0268223190 1.9053990482 0.6769029962
H 0.6764923229 1.7443658356 -0.8033296594
H -0.8521676847 -0.3601267130 -2.0121642249
H 0.2548645520 -1.7178495950 -1.4622140686
H -0.9659028847 -1.8770606308 2.0733120481
H -0.2046990350 -2.8336550700 0.7703712171
H 0.7356511837 -0.2044813179 1.9827189259
H 2.3953485897 -1.6672535862 1.4084679859