16

O -0.0971348931 1.3601596252 0.0104772704
C -0.0441976499 -0.0187338170 0.1100750706
C -0.6493263277 -0.7435486402 1.2834865532
C -1.3219330828 -0.8186734067 -0.0873786325
O -2.4260296017 0.0454809190 -0.2829370299
C -3.6218915786 -0.3601439294 0.2228809483
N -4.6053023489 0.4226965365 0.1655040862
C -1.3406471698 -2.0382230879 -0.8394388413
C -1.3533248389 -3.0682418005 -1.4605048606
H -1.0211296982 1.6073080570 -0.1313304957
H 0.8583436128 -0.4309403212 -0.3288503957
H -0.1694892420 -1.6409765620 1.6565134604
H -1.1596487649 -0.1355799888 2.0228580170
H -3.5954106235 -1.3752445928 0.6328550969
H -5.4301837098 -0.0199607343 0.5652766276
H -1.3620850731 -3.9712189968 -2.0198074049