15

C -0.0410583552 1.4003998251 -0.0399690855
N 0.0499907585 -0.0528238536 -0.0570911505
C 0.5920464567 -0.6185286195 0.9279933890
N 0.7754525338 -1.9836589072 1.1068846633
C 1.3939890002 -2.1783775818 2.3108876315
C 1.7563631851 -3.5127147331 2.8594166538
N 1.6313210589 -1.0662215205 2.9242552814
O 1.1291271185 -0.0473726669 2.0558248072
H 0.9477453174 1.8751805729 -0.1017065752
H -0.6250203833 1.7274504745 -0.9037075569
H -0.5281273059 1.7814197622 0.8678675962
H 0.4766500051 -2.6750628171 0.4426919815
H 2.4454638666 -4.0363657362 2.1887909453
H 2.2367800220 -3.3815184754 3.8294501744
H 0.8664268615 -4.1381293035 2.9846926345