17

O 0.1342474185 1.3924720388 0.1349867002
C -0.0175220108 -0.0004041707 -0.0734377918
C -1.4612610310 -0.3990580725 -0.0371688174
O -1.9226893694 -1.6192625371 -0.6261519031
C -2.5518753085 -0.3735396870 -1.0034793309
C -3.5788033522 0.0522684913 0.0931860856
C -3.6084100226 -0.9402551437 1.2436217749
C -2.4616388701 0.0154310881 1.1107754018
O -2.1156950003 0.9899676324 2.0414254463
H -0.3732912105 1.6164680265 0.9263467708
H 0.4014598343 -0.2369435752 -1.0564205528
H 0.5455719210 -0.5874493435 0.6725224406
H -2.5748892596 -0.1273788771 -2.0578134312
H -4.3454811112 0.8005341052 -0.0519766339
H -4.3157977298 -0.6693458938 2.0219727134
H -3.4817166934 -2.0013512108 1.0671291720
H -1.8685113346 0.5501529190 2.8631592753