13

O -0.0995487400 -0.0665773386 0.0050214418
C -0.0041217902 1.1468591500 0.0094362544
N -1.1526274854 1.9551160283 0.0294620326
N -1.2336434420 3.2885411549 0.0368193119
C -0.1109241157 3.9421422407 0.0239244733
C 1.1772287010 3.2937979883 0.0025921397
C 1.2198679231 1.9286197348 -0.0043613370
C 2.3530814408 4.0945066274 -0.0104185254
C 3.3324702416 4.7939463944 -0.0211734369
H -2.0400767434 1.4686862483 0.0397531665
H -0.1823078702 5.0227086534 0.0299704762
H 2.1540634246 1.3817574551 -0.0202072006
H 4.2035424458 5.4025918430 -0.0309575166