22

C -0.1973059321 1.4866140634 0.0167810076
N 0.0233458011 0.0510147699 0.1038151818
C 1.3495988711 -0.4603495486 -0.2232558896
C 0.8418794662 -0.5192877609 1.1846718016
C 1.4759449407 0.3848550597 2.2292919269
C 0.3134075317 -1.8555499555 1.6772748248
C 1.3161992831 -2.7801461637 2.4087559117
O 0.6210332449 -2.6228729177 3.6621951614
C -0.4484371856 -1.8931126384 3.0252814916
H 0.6862450889 2.1060711807 0.2337921467
H -0.5292721349 1.7246766085 -0.9990306411
H -0.9967632053 1.7757256155 0.7068004710
H 1.3799632865 -1.3504872590 -0.8482450138
H 2.1375859588 0.2631420842 -0.4322345841
H 2.0354869775 1.2047369517 1.7761288581
H 0.7202051055 0.8207106242 2.8915595815
H 2.1705804547 -0.1787421077 2.8586180136
H -0.2222181986 -2.3293711142 0.8537751650
H 1.3126724920 -3.8233197646 2.0661939261
H 2.3552910742 -2.4328036237 2.4640686017
H -0.6422196912 -0.9338947411 3.5185668539
H -1.3812297995 -2.4713573327 3.0027560335