14

N -0.0840727041 1.3092422728 0.0111333653
C -0.0546285630 0.0452225745 0.0038843195
O 1.0826675256 -0.7378968351 -0.0068543006
C 0.7683603401 -2.1571739939 -0.0130378417
C -0.7265098244 -2.1891472863 -0.0048790413
C -1.1657933499 -0.8910791913 0.0048377851
N -2.5129851446 -0.9147571161 0.0122770581
N -2.9822139883 -2.1800887198 0.0078318687
C -1.8993982257 -2.9663491596 -0.0026229535
H 0.8610719641 1.6946660709 0.0080245000
H 1.2227012683 -2.5996989826 -0.9065515119
H 1.2326002842 -2.6096379717 0.8703527096
H -3.1586004499 -0.1427988476 0.0201974168
H -2.0272991524 -4.0380475843 -0.0078910140