20

C -0.4345769121 1.3985599132 0.2516386014
C 0.9863417436 1.1034027577 -0.1608729286
C 0.0068995451 -0.0247900552 0.0022233275
C 0.0706725388 -1.0015843886 1.1863125755
C -0.8077122631 -2.1427141037 0.7278889935
C -1.1378188129 -2.0376344681 -0.5584501298
C -0.5390355753 -0.8230868984 -1.1776153971
C -0.9871924363 -0.2103603816 -2.4512816832
N 0.2269513666 -1.0435623045 -2.4328696605
H -0.6195700178 1.6960054299 1.2790725753
H -1.0878102372 1.8713552320 -0.4733411736
H 1.2882270513 1.3871081479 -1.1657891546
H 1.7760845236 1.2049715765 0.5762733715
H 1.0939957597 -1.3551113712 1.3804955367
H -0.2804615766 -0.5417013185 2.1174840494
H -1.0884746715 -2.9594055976 1.3831444653
H -1.7191235473 -2.7478486286 -1.1339594849
H -1.8280161395 -0.6330530073 -2.9960884201
H -0.8809030158 0.8661524522 -2.5687045913
H 1.0517085568 -0.4466190859 -2.4288194924