19

C 0.0630098757 1.5350578204 -0.0797321651
C -0.0997700096 0.0637887450 0.1168000150
C -1.3978237791 -0.7616601309 0.1790735974
C -0.6464397736 -1.7939372271 1.0964687004
C -0.5171775862 -3.2399478299 0.6008703605
C -1.7983065861 -3.9333111172 0.5434713189
C -2.8699558461 -4.4771904631 0.5065742476
C 0.6089503328 -0.9147937699 0.9624208439
O 0.9006403138 -0.8101663047 -0.4391165414
H 1.1041522354 1.8290009259 0.0775558970
H -0.2232804782 1.8245124684 -1.0972790473
H -0.5706674392 2.0923082848 0.6177785808
H -2.2152244216 -0.2562966408 0.6984115598
H -1.7542375759 -1.1361216572 -0.7835939010
H -1.0458086121 -1.7736512021 2.1140600333
H -0.0546870572 -3.2230973192 -0.3928356174
H 0.1697231723 -3.7912679670 1.2568620903
H -3.8087068662 -4.9713316075 0.4673295507
H 1.4416690113 -0.7987333981 1.6484957065