19

C -0.0273140115 1.5275722848 0.0088530254
C -0.1144942166 0.0031096970 -0.0880922894
C 0.8025855564 -0.5561341573 -1.1808878498
N 0.7628917931 -2.0025720540 -1.2620966501
C 0.2620861241 -2.7979644799 -2.2196332253
N 0.3961839596 -4.0737618915 -1.8979559700
C 1.0074430569 -4.0002098684 -0.6806439145
N 1.2897792640 -5.1306228839 0.0610523175
N 1.2597148838 -2.7709156733 -0.2448874091
H 0.9921659326 1.8540439890 0.2419912888
H -0.3223834834 2.0076878654 -0.9311172567
H -0.6850231901 1.9076276449 0.7955146993
H 0.1662915365 -0.4592186480 0.8632145350
H -1.1450227560 -0.3070603079 -0.2976909358
H 0.5148786836 -0.1707321868 -2.1646365519
H 1.8390596747 -0.2528176155 -0.9953828889
H -0.1814841147 -2.4134938429 -3.1264451424
H 1.4205404583 -5.9516421032 -0.5113508421
H 2.0293518487 -4.9992979784 0.7354176902