16

N 0.3064614051 1.2072010763 0.4612986828
C -0.1031476514 -0.1239322793 -0.0354718363
C -1.5745081627 -0.1636368987 -0.0915591094
N -2.7278122343 -0.1859311252 -0.1467531238
C 0.4779417925 -0.5552131999 -1.3563030363
C 0.0465513876 -0.3653495746 -2.6517692590
C 1.0410490027 -0.8939268359 -3.5184589681
C 2.0514922787 -1.3927330616 -2.7302849612
N 1.7035945343 -1.1794758218 -1.4203867735
H 1.3204073255 1.2195595926 0.5375576106
H 0.0747326758 1.9003157728 -0.2464851466
H 0.1972841881 -0.8464004185 0.7365000345
H -0.8887285989 0.0915208435 -2.9370591275
H 1.0126091146 -0.9141550812 -4.5967551865
H 2.9770441133 -1.8833277550 -2.9850670249
H 2.2428786291 -1.4791574834 -0.6261284047