21

C -0.0996078864 1.3845280518 0.2613738117
C -0.0911588655 -0.0694335371 -0.2001213000
C 1.0165678600 -0.3934269127 -1.2298688169
C 1.7156912814 -1.6734351756 -0.6885880556
C 3.2006075792 -1.7638010004 -1.0291928384
C 1.4193939516 -1.5162022085 0.8210142554
O 0.1258453191 -0.9541376543 0.9120579238
C 0.9627486771 -2.8940340232 -1.1953964856
O 1.4352812590 -3.7520939987 -1.8970524170
H 0.8694946239 1.6642125650 0.6883395137
H -0.3081756679 2.0542407949 -0.5800556768
H -0.8683616216 1.5391808793 1.0232500572
H -1.0803243331 -0.3221128024 -0.6014072847
H 0.6180757135 -0.5231601352 -2.2400089132
H 1.7527836061 0.4159437506 -1.2737063793
H 3.7321480135 -0.8762202411 -0.6726231940
H 3.6560862841 -2.6476350655 -0.5730943599
H 3.3479312142 -1.8488651500 -2.1085071755
H 1.4128043733 -2.4649713083 1.3687202439
H 2.1843619472 -0.8671578262 1.2779056995
H -0.0980798387 -2.9472227624 -0.8615937185