20

C -1.2198088976 1.5677963234 -0.1810526941
C -0.9840690394 0.0713364990 -0.1701169978
C -1.6275931551 -0.8776660828 -1.1342217648
C -2.5598780170 -0.4214195934 -2.2496952221
O -2.4084525885 -1.2361398625 -3.4125731178
C -3.9460863449 -0.4050493561 -1.7700992361
C -5.0767039857 -0.4387585549 -1.3623924546
N -0.1889938034 -0.6448582978 -1.1703190021
C 0.4271918283 0.0471498493 -2.2939846050
H -0.3511893039 2.0922522267 0.2317791584
H -1.4123266816 1.9788336928 -1.1734509964
H -2.0824434256 1.8093622655 0.4482914362
H -0.8191237464 -0.3126469309 0.8369914025
H -1.9022240369 -1.8690416189 -0.7678442502
H -2.2924574265 0.5820020799 -2.5895930898
H -2.7023326940 -2.1252360941 -3.1826896928
H -6.0794966831 -0.4502039311 -1.0124447456
H -0.0866088143 0.9553636663 -2.6393737674
H 1.4459344552 0.3297846866 -2.0105820943
H 0.4813855601 -0.6443130971 -3.1389259662