16

N 0.0529994867 0.2728145751 -1.0447160805
C -0.0221239786 0.1837552367 0.3124792432
O 0.6540090669 0.8509716561 1.0682186000
C -1.0920276013 -0.7958324780 0.8206980384
C -1.0087085222 -2.1853346384 0.2070869338
C -2.2412351287 -2.8789253100 -0.2249588021
O -1.3952206556 -2.2561956704 -1.1884430365
C 0.1528013939 -2.9673046738 0.5584971027
C 1.1263250117 -3.5946017304 0.8776687571
H 0.7744185384 0.8536369600 -1.4392951087
H -0.4504054222 -0.3675104048 -1.6375234259
H -0.9778103959 -0.8563905109 1.9041838547
H -2.0790075024 -0.3752037712 0.5996876631
H -2.2564991660 -3.9660555715 -0.2578106866
H -3.2025560805 -2.3956568004 -0.0564975773
H 1.9901515457 -4.1479802780 1.1537224747