21

C 0.3704862735 1.3244574130 -0.1712268711
C -0.1287375933 -0.1000363820 0.0262085311
C -1.6337361487 -0.2223481280 -0.1413173153
O 0.5662828458 -1.0230670812 -0.8785556124
C 1.2558030644 -1.6352958808 0.2053649762
C 1.7243518257 -3.0467931314 0.1676189425
C 2.7314849351 -1.9030306180 0.1773771703
C 0.4808657009 -0.8521194695 1.2576807882
O 1.1926104037 -0.1430852733 2.2350375963
H 1.4625723462 1.3757314762 -0.1253870269
H 0.0650400477 1.6934805238 -1.1551409961
H -0.0393482407 1.9908782033 0.5938237251
H -1.9355242235 0.0904896672 -1.1461054307
H -1.9550196450 -1.2578013333 0.0030031074
H -2.1545374739 0.4095687452 0.5862009552
H 1.6197884611 -3.6538518161 1.0612384349
H 1.5920630115 -3.5822186050 -0.7665129236
H 3.2558978682 -1.6915157694 -0.7481969042
H 3.3052240809 -1.7332304038 1.0836373939
H -0.2646987974 -1.4418970656 1.7975746497
H 1.9523602577 0.2684516586 1.8089625195