20

C -0.3593715730 1.3686304489 0.0131405050
C 0.0167876576 -0.1060733096 -0.0116832804
N 1.2281387922 -0.4374309260 -0.7906354532
C 1.9547111412 -1.0459072850 0.3287963800
C 0.7513627277 -0.6919117532 1.2163167183
C 0.7787553501 -0.1470879888 2.6107686181
C 0.1673992303 -1.5024513344 2.3289266432
C 1.4277531400 -0.6203902254 -2.1152793494
O 2.4064072532 -1.1534089560 -2.5981805133
H 0.4912268608 1.9827973357 0.3215010719
H -0.6881713783 1.7037647033 -0.9756048124
H -1.1851385742 1.5392139325 0.7124098159
H -0.8482815315 -0.7105217681 -0.3176349844
H 2.1474074743 -2.1148944982 0.1841165240
H 2.8985949237 -0.5445232533 0.5689978260
H 1.7352798921 -0.1108431150 3.1224004375
H 0.1114716281 0.6722041164 2.8578373727
H -0.9131381331 -1.5942561727 2.3809383646
H 0.7052601290 -2.3877455898 2.6528201795
H 0.5930528897 -0.2113826011 -2.7221256435