19

O 0.1356651040 1.4079457649 -0.0239731196
C 0.0326791906 0.0043634721 0.1076921191
C 0.0864549703 -0.6486193432 1.5340627400
C -1.2933190422 -1.2611912650 1.2656048456
C -2.3301320804 -0.2033900066 1.0021166430
C -2.4379763971 1.1426768168 1.7053868521
C -2.9617570356 0.9920776693 3.1156315685
O -3.9031084229 1.5871676420 3.5748271202
C -1.3677075604 -0.5562662300 -0.1035360852
H 1.0616908000 1.6540318783 0.0693864796
H 0.7450980595 -0.4977661842 -0.5597269265
H 0.8835513619 -1.3896318817 1.6252671776
H 0.1552369004 0.0456672696 2.3771343113
H -1.5686639757 -2.2814388629 1.5020806033
H -3.3055553846 -0.6487680001 0.8124262838
H -1.4544974125 1.6219488703 1.7525726615
H -3.1004801908 1.8175228788 1.1553912740
H -2.3950141876 0.2574678514 3.7358978584
H -1.7312699571 -0.9378767397 -1.0502000466