15

O -0.0341642991 1.5213213142 0.0125315435
C 0.0287619958 0.1012154382 0.0018011758
C -1.3239544513 -0.4440024369 0.0117829213
C -2.4314117239 -0.9105379848 0.0198025515
C -3.7869614341 -1.4620515202 0.0296933072
C -3.8296056154 -2.9228509800 0.0224613654
C -3.8912239196 -4.1279418269 0.0168786892
C -3.9174658963 -5.5683037442 0.0099502017
O -4.9257503554 -6.2361240018 0.0165407836
H 0.8711290663 1.8487054818 0.0057823021
H 0.5572138455 -0.2703337730 -0.8911525320
H 0.5753150455 -0.2829030116 0.8783887479
H -4.3342559671 -1.0993485529 0.9113493529
H -4.3507767319 -1.0902217449 -0.8376342608
H -2.9125933590 -6.0373311871 -0.0023125893