16

C -0.6507957354 1.2960529170 -0.4725572291
O -0.6810401078 -0.1106453324 -0.5517837799
C -0.9015360567 -0.7246370998 0.6918617690
C -0.9706813418 -2.2438983421 0.4990658434
O -0.7732545627 -2.9272498332 1.7175109976
C -2.2952335283 -2.7015547448 -0.1189798184
F -2.6057864160 -2.0393744547 -1.2325746392
F -2.2745533404 -4.0065582267 -0.4037230858
F -3.2975816593 -2.5017994033 0.7704784162
H -0.4660445856 1.6737905549 -1.4804954886
H -1.6066317683 1.7031558928 -0.1080402687
H 0.1513133080 1.6489843528 0.1943162002
H -0.0758383340 -0.5257204338 1.3931104279
H -1.8318014854 -0.3586980723 1.1598040234
H -0.1666165760 -2.5480307360 -0.1769892044
H -1.5615988902 -2.7977763683 2.2583190466