18

C 0.0047869525 1.3541914402 -0.0331388375
C -0.0301201572 -0.1018196857 -0.4335530099
O 0.9255054296 -0.7009786662 -0.8614418904
C -1.3725798998 -0.8093386692 -0.2626042179
N -2.3617877284 -0.1769475595 0.2197496467
O -1.2981556445 -2.0934072289 -0.6794868626
C -2.4772394741 -2.8574114313 -0.6189398704
C -2.2795991867 -4.3290212987 -0.4770522128
C -2.8401941124 -3.5280784633 0.6799768150
H 1.0097772624 1.7440173913 -0.1972159993
H -0.7266722829 1.9245304805 -0.6129786126
H -0.2842592148 1.4666481841 1.0156218418
H -3.1927059123 -0.7627086676 0.3062309127
H -3.2681097621 -2.4847792619 -1.2656088026
H -2.9401943832 -4.9880101361 -1.0280391941
H -1.2544351106 -4.6701853633 -0.3943247735
H -2.1821480352 -3.3493715486 1.5224028540
H -3.8895529203 -3.6314548858 0.9329004933