23

C 0.1156086375 1.7069244068 0.0947105538
C 0.1199013148 0.1858565455 0.0169994511
C 0.7458575901 -0.5969573134 -1.2003761266
C 1.6885141515 0.2149127375 -2.0835656480
C 1.4246542759 -1.6102668938 -0.1916851523
C 0.5895321388 -2.8905284978 -0.0258643691
C 2.9051737633 -1.9513109295 -0.3442834224
C 1.0954355041 -0.5868200754 0.9127782520
O 1.5517389650 -0.3822337202 2.0032404713
H 1.1078029935 2.1258017012 -0.0939275150
H -0.5806463297 2.1424317702 -0.6290492337
H -0.1909977800 2.0273489399 1.0948498495
H -0.8931729944 -0.1916332231 0.2049810465
H -0.0082479437 -1.0789890265 -1.8292321282
H 2.4615244872 0.7319903947 -1.5059205910
H 2.1961368178 -0.4268123053 -2.8107666276
H 1.1350124269 0.9761816284 -2.6427862541
H 0.6918069108 -3.5236537094 -0.9144491488
H 0.9273128939 -3.4655441542 0.8422005207
H -0.4749151376 -2.6731343348 0.1080903672
H 3.5279676329 -1.0600330945 -0.4532493820
H 3.2544946616 -2.4869567306 0.5438463676
H 3.0738010100 -2.5949151355 -1.2148338309