12

C 0.0886983686 1.3719901482 0.0077714890
O -0.0493770866 -0.0589642764 0.0013963926
C -1.3127354576 -0.5122528230 0.0121486991
O -2.2950700419 0.1752127525 0.0261022924
C -1.2870823631 -2.0414313142 0.0039415612
C -2.6168386579 -2.6375929032 0.0126490038
N -3.6542981562 -3.1430230302 0.0191904708
H 1.1610566313 1.5635858918 -0.0019574046
H -0.3885811239 1.8048557003 -0.8743306254
H -0.3707535060 1.7952311037 0.9038948174
H -0.7317722851 -2.3783654365 -0.8781079626
H -0.7163973417 -2.3873207730 0.8726338663