18

C -0.0247200908 1.5580292592 0.0931256946
C 0.0834523325 0.0685778348 0.0053490261
N -0.8470342443 -0.8555168170 0.6739264915
C 0.6253697088 -0.9242774884 1.0050764493
C 1.2616696682 -1.7067639059 -0.1301573952
O 2.0488477999 -2.6074210945 -0.2006614643
C 0.6689509730 -0.7461133497 -1.1485739072
C 0.1376972209 -1.0438168440 -2.5193961702
C 1.4165849256 -0.2670439837 -2.3665686155
H 0.9128144598 2.0375347793 -0.2051242268
H -0.8191473461 1.9356464893 -0.5612251823
H -0.2578151995 1.8741109973 1.1153232575
H -1.2712805407 -0.3510208278 1.4557403862
H 0.9693122860 -0.7876213190 2.0226898899
H 0.1987008386 -2.0730761208 -2.8566899308
H -0.7524805425 -0.5121174633 -2.8383265931
H 1.3996278961 0.7965105294 -2.5814796347
H 2.3552373346 -0.7646337652 -2.5869418248