17

C 0.0197823205 1.2864997701 0.8557563810
C -0.1529284624 0.3738728968 -0.3599148661
O 0.8519732500 -0.6301097100 -0.4107473548
C -1.5580223142 -0.2465952220 -0.3974978329
N -1.8941863963 -1.0389104761 -1.6139255389
C -2.2923374096 -2.2374290738 -0.8288438964
C -1.7331546060 -1.5419552010 0.4178739242
O -1.4513309803 -1.8752650339 1.5317410781
H 1.0397526416 1.6784342975 0.8846141609
H -0.6763681371 2.1311035905 0.8249400230
H -0.1667310442 0.7306202006 1.7819614950
H -0.0214628201 0.9490345207 -1.2840070816
H 0.8801059804 -1.0567051814 0.4538814906
H -2.3112117254 0.5088503868 -0.1275915749
H -2.6489194787 -0.6418713887 -2.1601926682
H -3.3723412188 -2.4255871494 -0.7499018719
H -1.7931110994 -3.1659225565 -1.1264199869