13

N 0.0949845813 1.3147577132 0.0056021299
C 0.0119550767 0.0530844635 0.0018093086
N -1.2128555285 -0.6286541950 0.0091211556
C -2.5342061589 -0.1017804468 0.0202951581
O -2.8561956642 1.0522482153 0.0258144978
C -3.4366516017 -1.3010045242 0.0239359421
C -2.7045057210 -2.4142999637 0.0153630854
C -1.2588122433 -2.0419687591 0.0056065487
O -0.2985980655 -2.7699046241 -0.0037555815
H 1.0764941380 1.5905958671 -0.0012419482
H 0.8363099348 -0.6653158664 -0.0071872559
H -4.5110102711 -1.1851325594 0.0322996618
H -3.0205924167 -3.4474624604 0.0148923678