17

C -0.0699098089 1.3867365506 -0.0271525873
O -0.0120843848 -0.0400771469 0.0725648251
C -1.1731537784 -0.6953859689 0.0525013159
C -1.3988137520 -2.0422836381 0.0266742310
N -0.4796124541 -3.1152097185 -0.0476815442
C -2.8207222363 -2.1212058867 -0.0090521283
C -3.6541125434 -3.3590183772 -0.0542850475
N -3.3916720020 -0.9362013446 0.0034876457
O -2.3205901688 -0.0091799355 0.0253755910
H 0.9662655956 1.7243378116 -0.0089284831
H -0.5493977448 1.6938147062 -0.9614381693
H -0.6194823301 1.8151181115 0.8160173221
H 0.4420388037 -2.7775500183 -0.3018971021
H -0.3881529190 -3.6014166963 0.8394437703
H -3.5766968131 -3.9224452094 0.8822664700
H -4.7024359098 -3.1024314958 -0.2179281183
H -3.3108953638 -4.0179226438 -0.8578945511