17

O 0.2632867527 1.5287673608 -0.4183123932
C -0.0177881684 0.2171236081 0.0281751003
C 0.1132721742 -0.0395600894 1.5779331602
C -1.2993526297 -0.6201394786 1.5375872842
C -1.7952602036 -1.8733224881 2.1043461075
O -2.2157768832 -0.5952646224 2.6107003042
C -1.5558324509 -0.0228131750 0.1550628016
C 0.6763713678 -0.7858640418 -0.7720240203
C 1.2843190145 -1.5913663969 -1.4262116080
H 1.2106752427 1.5917411996 -0.5830077833
H 0.9296039740 -0.6773264208 1.9207141283
H 0.1365864441 0.9213157841 2.0992242501
H -2.5619678166 -2.4408309263 1.5783785022
H -1.1618476544 -2.4538534509 2.7738668913
H -2.0606812177 0.9445648182 0.2229742580
H -2.0323487500 -0.6419461977 -0.6056297017
H 1.8099334444 -2.3052678927 -2.0113019315