18

O 0.5344267689 1.3318403596 0.1549387628
C 0.0888918678 -0.0015679036 0.0435136778
C 0.6488875961 -0.5429685060 -1.2832211317
C 0.1409945215 0.1810202134 -2.4463953981
N -0.2721878964 0.7298981921 -3.3749973630
C 0.5683104849 -0.8504506753 1.2350010226
C -0.1349714398 -0.4550895088 2.5149373031
C 0.5897686963 -0.0921850452 3.7387701381
O 0.0052580118 0.9226273864 2.9154525436
H 0.3918999314 1.6137087700 1.0687269152
H -1.0125284576 -0.0466822543 -0.0060468595
H 1.7413830006 -0.4624128345 -1.2647048280
H 0.3925241839 -1.6020067150 -1.3948349472
H 0.3784982737 -1.9144392769 1.0489478889
H 1.6509861418 -0.7148395794 1.3376551574
H -1.1563285388 -0.8223977870 2.6211299646
H 0.1160823494 -0.2198974073 4.7099834675
H 1.6779856445 -0.1211225182 3.7417984162