19

C -0.4405243734 1.2665188949 0.1244800444
N 0.2822280211 0.0099743089 -0.0523014537
C 0.7840396830 -0.5728412801 1.1581310495
C 1.9512508693 0.1288886868 1.6644060943
N 2.8663203445 0.7033459548 2.0769604479
C -0.0570385497 -1.1826229897 2.2860118603
C -1.3084174690 -1.8469215244 1.6989342112
C -0.3913896607 -2.7712905235 0.8345936850
C 0.8407904323 -2.0636235252 1.4094194024
H 0.2475813925 2.0298655137 0.5015395214
H -0.8118390966 1.6034680748 -0.8466435774
H -1.2892050546 1.2022535621 0.8243856467
H -0.2543231164 -0.6608658100 -0.5841447873
H 0.0828520011 -0.8748786165 3.3146840232
H -1.8762870443 -2.4060628002 2.4441567470
H -1.9962207920 -1.1872781280 1.1622788668
H -0.4400175059 -3.8117633645 1.1612092095
H -0.5199691629 -2.7551430693 -0.2529457933
H 1.7845460617 -2.5394958947 1.6455663821