13

C 0.0265322661 1.5514836046 0.0104799357
O 1.1906899440 0.6828257674 -0.0062879008
C -0.0695037985 0.0997081142 0.0031894159
C -0.6041584641 -1.0201928298 0.9107875960
C -1.8675268604 -1.0743923028 0.0147638004
C -0.6226098106 -1.0098458407 -0.9060578303
O 0.0395072683 -1.9933798096 -0.0098373136
H -0.1187978264 2.1063634972 0.9356659631
H -0.1374898421 2.1168381131 -0.9051910453
H -0.4930675578 -1.1822806365 1.9817923160
H -2.3628326732 -2.0447804946 0.0142675478
H -2.5590111845 -0.2280488573 0.0266062493
H -0.5333162407 -1.1597137052 -1.9808745943