19

C 0.0728150430 1.5536133510 -0.1056075364
C 0.0056050713 0.0498089898 -0.0078281455
C -1.3424810251 -0.5899180903 0.4576279854
C -0.6457156564 -1.2125017067 1.7044551599
C 0.7265103445 -0.8069713675 1.1150430008
N 1.1763257505 -1.7521643659 0.0540938524
C 0.7857089560 -0.8087955529 -1.0280876786
C 1.7589213478 -0.2792533941 1.9795813450
N 2.5930236096 0.1509049007 2.6574829297
H 1.1047391481 1.9042653699 -0.2084283828
H -0.4920726698 1.9045052545 -0.9778618187
H -0.3578880183 2.0315266287 0.7805928784
H -2.1233395374 0.1372465184 0.6900653613
H -1.7465107665 -1.3210027167 -0.2459933927
H -0.8754528433 -0.6738290482 2.6269892916
H -0.7657076209 -2.2847532584 1.8647702076
H 2.1629658341 -1.9794637308 0.0908453293
H 0.2070304219 -1.2743321573 -1.8339348724
H 1.6271960109 -0.2580794842 -1.4688269741