23

C -0.0483660180 1.6039526709 0.0459881013
C -0.0430632605 0.0910878947 0.0901860598
C 1.2158193037 -0.6844774563 -0.2174485013
C 0.6679555074 -0.6722417931 1.1859504237
C 1.3915441920 0.0629984938 2.3258667854
O 1.3786705754 -0.8171052324 3.4426046808
C 0.2058601759 -1.6030080234 3.3256140906
C 0.0973576671 -1.9500298764 1.8329065946
C -1.3011395890 -2.3805970256 1.3983657113
H 0.9098952331 2.0225473102 0.3699430951
H -0.2324528384 1.9605964897 -0.9733327669
H -0.8280249475 2.0256569981 0.6905680126
H -0.9633991224 -0.3589712800 -0.2727965037
H 1.1318785452 -1.6030022232 -0.7914854066
H 2.1236437093 -0.1203020710 -0.4143644142
H 2.4366176063 0.2989967531 2.1021726493
H 0.8757809010 1.0034819790 2.5793820256
H 0.3165855898 -2.4750045095 3.9759217885
H -0.6850414434 -1.0365216970 3.6520938950
H 0.7978964553 -2.7711530186 1.6327774054
H -2.0393966639 -1.5959081350 1.5945123241
H -1.3395909883 -2.6190637777 0.3302253089
H -1.6137172901 -3.2789853204 1.9414483007