15

C -0.1190986925 1.4780044996 0.0130033138
C 0.0962289212 0.0026963615 0.0744600938
O -1.0603037755 -0.8454747816 -0.0994022216
C -0.5837344603 -1.7418046921 0.9496496787
C 0.7190264795 -0.9719196109 1.0788338929
C 1.2941760365 -0.7954741429 -0.3203887644
O 1.2288676265 -1.7795704698 -1.3022756636
H 0.8201151008 2.0070049906 0.1989037020
H -0.4821045025 1.7717296096 -0.9785373100
H -0.8557405615 1.8020011268 0.7550772393
H -1.2353438201 -1.6748355048 1.8265006103
H -0.5202716202 -2.7805048336 0.6067335284
H 1.2788972724 -0.8001080147 1.9889052948
H 2.2359199435 -0.2537514075 -0.3463213717
H 0.2976735322 -1.8343377603 -1.5583568328