17

O -0.0711594268 1.3126190152 0.0397164864
C 0.0551849705 -0.0569688926 0.0170393749
C 0.6265040045 -0.9619590544 -1.1195849974
C 0.0836647946 -1.9143336813 -0.0079658706
O -0.0006113637 -3.2872666710 -0.0222600936
C 0.7588364519 -0.9892238579 1.0538071479
C -1.1871518753 -1.0056822032 0.0613046080
C -2.0350287099 -1.0344759250 1.2335684261
C -2.7650596836 -1.0585632020 2.1888965219
H 0.8089684884 1.7026508142 0.0725729207
H 0.0907639422 -0.9573551026 -2.0718296817
H 1.7116622657 -0.9435093600 -1.2539157492
H 0.8910290582 -3.6508861952 0.0019232551
H 1.8530977289 -0.9724804778 1.0557106566
H 0.3394798885 -1.0091983537 2.0599764956
H -1.7798236153 -1.0023776265 -0.8585194612
H -3.4077652088 -1.0798334561 3.0337412804