16

C -0.0535033875 1.5402634043 0.0494342210
C 0.0087906768 0.0388713804 -0.1048038895
C 0.7145075466 -0.6669253564 -1.2062870469
C 1.7368369268 0.0747184371 -2.0696011199
N 2.7412878671 0.4211310169 -1.0856812974
C 2.4410313312 0.0437415535 0.2018552933
O 3.0727071065 0.3048600839 1.1932657912
N 1.2389595065 -0.7540839028 0.1727152424
H 0.7976217677 2.0521938772 -0.4042220124
H -0.9681504071 1.9173683968 -0.4197137468
H -0.0820199704 1.8126124983 1.1089906693
H -0.8690475497 -0.4697411316 0.2892673970
H 0.2917740908 -1.5793248583 -1.6149845843
H 2.1343773553 -0.5905653647 -2.8454848254
H 1.3178112757 0.9590133971 -2.5691899617
H 3.5335091137 1.0144885481 -1.2677972399