12

O -0.4061394410 0.0985137278 0.0075755095
C -0.0903887559 1.2567037068 0.0084815607
N 1.2027113234 1.7529010492 -0.0038696156
C 2.3805901459 1.0327863952 -0.0181460395
N 2.5886720634 -0.2414174438 -0.0335496150
C 3.9791655756 -0.3411816620 -0.0422203320
C 4.5272530052 0.8917166829 -0.0324881805
O 3.4943916776 1.8058011123 -0.0161847910
H -0.8130021324 2.0961493494 0.0192910110
H 1.3159670590 2.7555015425 0.0008464393
H 4.4707138081 -1.3007491198 -0.0553398097
H 5.5228933211 1.2977248296 -0.0343548471