19

O -0.2958951946 1.3144033726 0.1022050168
C -0.0154039284 -0.0834364043 0.0472997053
C 0.7210980867 -0.4711583439 -1.2507916524
C -0.0642629239 -0.0756518158 -2.5041590200
C 0.6923586521 -0.3967098488 -3.8037609580
C -0.0537572250 0.0938312385 -5.0237774392
O -0.3637081761 -0.5866594622 -5.9669424216
C 0.7259083791 -0.5302350881 1.2293777827
C 1.3748557279 -0.8642233622 2.1847230440
H 0.5201027608 1.7629546433 0.3509698913
H -1.0029051666 -0.5626882680 0.0433922900
H 1.7055608844 0.0152780725 -1.2502885951
H 0.9071922271 -1.5514893161 -1.2378449311
H -1.0305355411 -0.5965645556 -2.5089467066
H -0.2903812416 0.9951526149 -2.4558558250
H 1.6661502748 0.1155549959 -3.7876768423
H 0.8779590583 -1.4692167760 -3.9152129003
H -0.3160594429 1.1783143938 -4.9899209173
H 1.9286586690 -1.1679417206 3.0388200086