18

C -0.1904267872 1.4377086451 -0.0322923928
N 0.0234646053 0.0030784954 0.0793606642
C 1.3592427478 -0.4937269518 -0.2019801393
C 0.8464500410 -0.4977479940 1.1950292843
C 1.3844807619 0.3241787776 2.3516918212
C 0.6671208841 -0.3164562946 3.5552912876
O 0.3249628475 -1.6557269992 3.1601924435
C 0.3476689776 -1.7888052361 1.8052830866
O 0.0288880679 -2.7961693911 1.2462834076
H 0.6960536857 2.0520120169 0.1961805540
H -0.4939584592 1.6571118243 -1.0603208043
H -1.0054969748 1.7409991748 0.6324380359
H 1.4097707228 -1.4336330651 -0.7445548884
H 2.1384848070 0.2331569128 -0.4329308166
H 2.4677452481 0.1975470995 2.4403048889
H 1.1786013350 1.3932861482 2.2752123638
H 1.2919060933 -0.3827704971 4.4479997137
H -0.2563215238 0.2146812944 3.8122500300