15

O -0.1197531594 -0.0787056230 -0.0078422399
C -0.0296087028 1.1211215149 0.0082972197
C 1.2495364767 1.9166220404 0.0834080528
C 1.5115395076 2.9027609793 1.2158921956
C 2.1822440519 2.1883479336 2.4181124063
N 2.0209468706 0.7542098719 2.5835545181
C 2.2709315828 0.2704440680 1.4331486336
N 2.5894541704 1.2222419327 0.3803656244
C 2.9544091278 2.4593486204 1.1793070131
H -0.9312618141 1.7738534631 -0.0701164220
H 1.3507340939 2.4340990517 -0.8801531634
H 1.0999581223 3.8986128309 1.3189572523
H 2.3033668234 2.7860654819 3.3121208748
H 2.1853956088 -0.7780290973 1.1801592357
H 3.8895851902 2.9823648114 1.0249782689