23

C -0.0569361868 1.5674472453 0.4702522389
C -0.0195818726 0.1024627734 0.0024479090
C 0.9567134752 -0.7106768412 0.8625547457
C -1.4297585977 -0.4790740655 -0.0548624708
C -2.2008780373 -0.8706991936 1.1948462650
C -1.8310935614 -1.9317725245 0.1874144700
C -2.8679322877 -2.3268631446 -0.8627908142
C -3.1231536899 -1.0311448112 -1.6035927859
C -2.3293391291 -0.0480772356 -1.1755951703
H 0.9408207471 2.0172310696 0.4321580933
H -0.7205618721 2.1760918655 -0.1518407007
H -0.4178304173 1.6338710467 1.5027194108
H 0.3677535826 0.0903634677 -1.0265214441
H 1.0581629009 -1.7375996119 0.5002048633
H 1.9504710732 -0.2517656006 0.8429791295
H 0.6386024090 -0.7495489440 1.9104984158
H -1.6658700290 -0.8944015179 2.1393345068
H -3.2360299671 -0.5532098233 1.2741936794
H -1.0969641005 -2.6679298185 0.4923507530
H -2.4852684900 -3.1047368978 -1.5380013543
H -3.7828269279 -2.7349229390 -0.4128912119
H -3.8817064403 -0.9360400390 -2.3725529458
H -2.3253356413 0.9650125600 -1.5633543825