17

C 0.0554321987 1.5416663774 -0.0738174133
C -0.0211854445 0.0401896252 0.0015550912
O 0.2719053635 -0.6480656380 -1.2650419235
C -0.6110169229 -1.7459778499 -0.8958081510
C 0.1616280884 -2.7455214606 -0.0204093889
C 0.8978551664 -1.9664934311 1.0493897992
C 0.7988294633 -0.6362429354 1.0900694881
C -1.3668947568 -0.7178672711 -0.0299528295
O -2.4916047838 -0.5180888960 0.3100664960
H 1.0902328003 1.8702645771 -0.2132722421
H -0.5483477515 1.9167444144 -0.9030250987
H -0.3211616648 1.9767010495 0.8572067189
H -1.1159107266 -2.1932901133 -1.7552500236
H -0.5396226686 -3.4589854689 0.4326265344
H 0.8582724475 -3.3357561898 -0.6301324481
H 1.4977961492 -2.5155281386 1.7690583628
H 1.2693076521 -0.0314933208 1.8585094581