21

C 0.1279738769 1.4467059735 0.1628865791
C -0.0127888141 -0.0824429702 0.0432058869
C 0.8963810208 -0.6728291546 -1.0783317051
C 1.1635460604 -2.1075996564 -0.6133019528
C 1.4538125268 -1.9311469812 0.8858763401
O 2.7713672571 -1.4224770060 1.1049105862
C 0.4753153591 -0.8299583789 1.3399404701
C -1.4108340564 -0.4253335990 -0.2333886767
C -2.5585898604 -0.7042023646 -0.4624306814
H 1.1673113511 1.7086498188 0.3840975651
H -0.1657128990 1.9406308744 -0.7681465951
H -0.5058396169 1.8364470000 0.9647297526
H 0.4329709459 -0.6029040305 -2.0645626951
H 1.8376342543 -0.1144952476 -1.0971543185
H 0.2658509540 -2.7227820944 -0.7463361062
H 1.9860085071 -2.5992494417 -1.1438925479
H 1.3126559947 -2.8624103980 1.4513851532
H 3.3972117672 -2.0693539056 0.7630696213
H 1.0005385541 -0.1474204884 2.0121079540
H -0.3721732874 -1.2502346819 1.8837743123
H -3.5722548853 -0.9483723380 -0.6630545423