23

C -0.1077410308 1.3484155155 -0.0061833452
O 0.2436785397 -0.0119167417 0.1169802508
C 0.7021870942 -0.5983664921 -1.0770760470
C 1.3680192631 -1.9501972713 -0.8797966843
C 0.3816708856 -2.9560695812 -0.3540975343
C 0.3488973300 -2.6111580856 -1.8132237267
C -0.3509669322 -1.2613635687 -2.0729142193
C -1.8263032267 -1.1700309454 -1.6883676927
C -0.1267338694 -0.7891982198 -3.5098396947
H 0.7407353954 1.9531210165 -0.3633720376
H -0.9527349647 1.5042650405 -0.6919238799
H -0.3963798645 1.7000088655 0.9876449986
H 1.3463188523 0.1106602696 -1.6177586026
H 2.4372265095 -2.1079878040 -0.8093321386
H 0.8084677633 -3.9263481533 -0.1202454118
H -0.4095283488 -2.6464880526 0.3203970977
H 0.5359365277 -3.3525583298 -2.5820490951
H -1.9852465722 -1.3595912969 -0.6246469354
H -2.2339737037 -0.1774126299 -1.9110288754
H -2.4136917476 -1.9006924478 -2.2564328491
H -0.7055389405 -1.3943767007 -4.2175385196
H -0.4349291659 0.2550887302 -3.6347365025
H 0.9284839060 -0.8673046068 -3.7936684555