23

C -0.1636593804 1.4574311645 0.0176236476
C 0.1087522752 -0.0501881573 -0.0034899739
C 1.2203527549 -0.4161234304 -0.9811348739
O 0.5132688319 -0.5556596063 1.2646427731
C -0.4848400176 -0.6090536530 2.2717499433
C -0.2229235502 -1.8259869550 3.1818707366
C 0.5249123280 -1.2032561107 4.3633613912
O -0.1130255277 0.0524310579 4.5544263731
C -0.3843556059 0.5871538312 3.2660285740
H 0.7338812319 2.0053523415 0.3223619515
H -0.4570080329 1.8036269678 -0.9788585772
H -0.9740405642 1.7122619794 0.7071924798
H -0.8181477561 -0.5672839615 -0.3066653296
H 2.1546684820 0.0773879838 -0.6951026412
H 1.3896639170 -1.4959280265 -0.9791013072
H 0.9608268905 -0.1030759096 -1.9967114043
H -1.4752237200 -0.6652583269 1.8030486599
H -1.1706364127 -2.2500587895 3.5265628264
H 0.3382033299 -2.5946518096 2.6480726245
H 0.4429593726 -1.7659165564 5.2967009767
H 1.5925828269 -1.0721950237 4.1238147469
H 0.4324272891 1.2412500916 2.9306214421
H -1.3043013919 1.1761807186 3.3375905006