19

C 0.0471864055 1.5133613009 0.0746734983
C 0.0313645044 0.0112351279 0.0105602208
C 0.0148729303 -0.6848292699 -1.1397633013
C 0.0159249370 -2.1860786913 -1.2332586367
C 0.5654011266 -2.8457850499 0.0404398122
O 1.9832634378 -2.7634629235 0.1018872385
C -0.0941373943 -2.2254113357 1.2777430249
C 0.0251209428 -0.7058758895 1.3172508949
O 0.0823798623 -0.0977744799 2.3681244727
H 0.9230682684 1.8699141222 0.6258830783
H 0.0547063322 1.9532412450 -0.9256716835
H -0.8255244293 1.8875263808 0.6198146037
H -0.0033165171 -0.1382335963 -2.0815729909
H -1.0084326444 -2.5397023334 -1.4249096138
H 0.6144458804 -2.5103604890 -2.0915337991
H 0.3554329248 -3.9195533037 0.0142161606
H 2.2313044604 -1.8324131470 0.0716625705
H -1.1673703847 -2.4650120309 1.2744086952
H 0.3296598367 -2.6312274268 2.1991041245