21

C -0.1527605097 1.5769127391 0.0119863022
C -0.0329406764 0.0519209888 -0.0362831260
C 0.7577628570 -0.4219013758 -1.2573805838
O 0.8042630813 -1.8370690843 -1.3338598967
C 1.4451398561 -2.4926607163 -0.2429195230
C 2.9781245797 -2.4170021709 -0.3221464916
C 0.9516812853 -1.9966778714 1.1231766278
O 0.8679793598 -2.7529144302 2.0623837597
C 0.6362426685 -0.5129230617 1.2299384664
H 0.8354633499 2.0490383193 0.0649889891
H -0.6622619515 1.9640335886 -0.8764941114
H -0.7206092035 1.8987585446 0.8905608630
H -1.0380199751 -0.3824491335 -0.1178168346
H 0.2768777284 -0.0950432141 -2.1843545295
H 1.7708244063 0.0146831510 -1.2404534467
H 1.1413703325 -3.5402486303 -0.3206514847
H 3.3489494548 -1.3950725631 -0.1982483773
H 3.4214604694 -3.0362287797 0.4625719237
H 3.3095675029 -2.7867891466 -1.2960849219
H 1.5963900311 0.0053966978 1.3809051496
H 0.0417043533 -0.3491740712 2.1330524558