20

C -0.7168765058 1.1557475570 -0.1197328677
C 0.0413080318 -0.1600424910 -0.1489297203
C 1.3714956594 -0.2702824287 -0.9400818531
O 1.9998407168 0.9976523621 -1.0047256939
C 1.9291186077 -1.1910192550 0.1796544282
C 0.8006123117 -0.6761346359 1.1394792810
C 1.2837069561 0.4256563876 2.0936736570
C 0.0928752165 -1.7165497822 1.8772064141
N -0.4754726286 -2.5462856853 2.4490490862
H -0.0688469729 1.9920113312 0.1477940722
H -1.1415055612 1.3688821813 -1.1061254170
H -1.5445800924 1.1094798104 0.5955525601
H -0.6203125807 -0.9624109501 -0.4884909308
H 1.2962550713 -0.7176233706 -1.9390801418
H 2.8793925932 0.8775929951 -1.3770082865
H 1.8226260987 -2.2515707373 -0.0573545832
H 2.9529613383 -0.9920695198 0.5062668989
H 1.8335210531 1.1824731877 1.5314999055
H 0.4434733980 0.9039490412 2.6043888818
H 1.9463804287 0.0021053021 2.8543398793