17

C 0.0654667915 1.4607314760 -0.0133755230
N 0.0019351478 0.0059572712 0.0184508732
C -0.0055756721 -0.6977186521 -1.1968201989
C -0.3294857139 -1.9871788562 -1.2999618545
C -0.7211247231 -2.7584144789 -0.0691725142
C -0.0134247730 -2.1667774565 1.1576517800
C -0.0746175030 -0.6454438420 1.2387244361
O -0.1286029314 -0.0456993172 2.2953392142
H 0.9208869146 1.7904446101 -0.6128577181
H -0.8482451121 1.8880310203 -0.4417716015
H 0.1776403248 1.8124479542 1.0108296521
H 0.2659452142 -0.0930776044 -2.0552859108
H -0.3240796006 -2.4647058164 -2.2719068998
H -1.8125084236 -2.7211775977 0.0684025188
H -0.4661566645 -3.8183845878 -0.1685174662
H -0.4085127956 -2.5547063752 2.0980186085
H 1.0529408800 -2.4290467873 1.1200199940