16

O 0.0891872131 1.4521291833 -0.0284363856
C -0.0210160911 0.0736364381 0.0299497556
C 1.0355445528 -0.5679560080 -0.7266523976
C 1.9035473973 -1.1190233350 -1.3483989799
C -0.4245362785 -0.7570312644 1.2483723670
C -1.6141005699 -0.1780317572 2.0567104315
N -2.0355497020 1.1280355626 1.4698715095
C -2.4657437470 -0.1612725882 0.8531318104
C -1.3152502484 -0.7392219635 -0.0106082739
H -0.6602777066 1.7792843360 0.5065662147
H 2.6770028890 -1.5912118422 -1.9017962831
H 0.1964061812 -1.5596316792 1.6245762360
H -1.8456087298 -0.4157148693 3.0863934250
H -2.8132778127 1.4804734978 2.0250243990
H -3.5167966188 -0.3828471345 0.7245738783
H -1.4739077587 -1.5262344861 -0.7363532170