25

C 0.0451156149 1.3700442520 -0.1188030310
O 0.0212519454 -0.0352682256 -0.0980547345
C -1.2806821778 -0.5604937474 0.0874132354
C -1.1738603631 -2.0880535866 0.1332324691
C -0.4100234047 -2.5335939629 1.3889270978
C -2.5532781229 -2.7763734128 -0.0763974440
C -2.4069971607 -4.3050694411 -0.1109434838
C -3.5994569759 -2.3694703711 0.9665672793
O -3.1058121793 -2.3386083430 -1.3290246187
H 1.0824467570 1.6796443519 -0.2705044569
H -0.5706199060 1.7786672695 -0.9361325196
H -0.3186513252 1.8010946563 0.8280322347
H -1.7091785165 -0.1708179215 1.0267890178
H -1.9418600605 -0.2520105456 -0.7346488717
H -0.5645482444 -2.3673909002 -0.7399891902
H -0.9874412920 -2.3415126503 2.3001956017
H -0.1592550683 -3.5971406320 1.3656330372
H 0.5219839140 -1.9680801663 1.4618062939
H -2.1365437655 -4.7172037549 0.8649654583
H -3.3556672847 -4.7515306644 -0.4218130185
H -1.6342044928 -4.6091726446 -0.8275530264
H -3.7946326460 -1.2949761088 0.9282877757
H -4.5411799037 -2.8862276792 0.7617850717
H -3.2766584720 -2.6311071523 1.9774510689
H -2.5051581593 -2.6216310191 -2.0274694461