25

C -0.0600389313 1.5716128673 -0.0763512845
C 0.0589621784 0.0451741322 -0.0309282088
C 0.7141257671 -0.5230424781 -1.2982308560
C 0.6299613872 -2.0537956566 -1.3275740551
C 0.9625651077 -2.6892760401 0.0035656736
C 1.2020575839 -4.1750376158 -0.0162935515
C 1.0238255553 -1.9711488529 1.1280006325
C 0.7837948999 -0.4836036714 1.2326092017
C 2.1004943855 0.2471486784 1.5696247711
H 0.9132449387 2.0516643968 -0.2232345874
H -0.7064881174 1.8832094122 -0.9038028860
H -0.4911245788 1.9683846720 0.8497330327
H -0.9610860263 -0.3639055872 0.0119230535
H 0.2361860056 -0.1036471918 -2.1912060230
H 1.7659828544 -0.2114228803 -1.3372746046
H -0.3812741243 -2.3683384971 -1.6294488587
H 1.2969606826 -2.4567695284 -2.1017416620
H 2.0520813136 -4.4315639492 -0.6622452688
H 1.4031940626 -4.5679781700 0.9840228081
H 0.3338132324 -4.7103865465 -0.4233725706
H 1.2823131251 -2.4750507816 2.0590103297
H 0.1093616618 -0.3163558193 2.0859644235
H 2.8111576585 0.1979076125 0.7382687041
H 1.9297753239 1.2998885525 1.8130598210
H 2.5816576839 -0.2195619775 2.4354734755