23

C 0.0409616764 1.3342575705 0.1516511212
O -0.0829997171 -0.0517441166 -0.0566894501
C 0.6195337728 -0.5520006719 -1.1943037945
C 2.1331506164 -0.6304393603 -0.9377144720
C 0.0303452170 -1.8988007692 -1.5059916513
C -0.3982898049 -2.3175753980 -2.6971753018
C -0.9563056877 -3.7195637495 -2.6559220392
C -0.5157830889 -4.2283816614 -1.2580289163
C -0.1841713386 -2.9552952458 -0.4392823777
H 1.0628962501 1.6375784398 0.4230875272
H -0.2614604597 1.9081859147 -0.7389697925
H -0.6251634847 1.5952027019 0.9782848697
H 0.4432993472 0.1196246562 -2.0508287159
H 2.6413910142 -1.0348076916 -1.8179338229
H 2.5548116673 0.3573820692 -0.7300037304
H 2.3451653275 -1.2800476687 -0.0837130651
H -0.3954363280 -1.7149960178 -3.6002009388
H -2.0509305693 -3.7006808280 -2.7601511241
H -0.5854826615 -4.3543743353 -3.4690646547
H -1.2713116929 -4.8555608849 -0.7780096973
H 0.3874975312 -4.8378849931 -1.3638115068
H 0.6848555267 -3.0927126261 0.2136077294
H -1.0101155636 -2.6525035541 0.2165605339