19

C -0.2461545666 1.5415204980 -0.0376987522
C 0.0296039057 0.0504058110 0.0462050536
O 0.7227322024 -0.3830203714 -1.1635240678
C 1.8415018215 -1.1867450978 -0.7651390322
C 2.9348588142 -0.2554174284 -0.2177399747
C 2.3139238097 0.2323263312 1.1443863497
C 0.9319544535 -0.4685308358 1.1876601315
C 1.3186748975 -1.8070678119 0.5409888699
O 1.2489070036 -2.9376962772 0.9267113885
H 0.6749447284 2.1263955870 -0.0992736086
H -0.8346384498 1.7503372719 -0.9359834603
H -0.8197425899 1.8766831839 0.8327288626
H -0.9330844263 -0.4807114680 0.0938458090
H 2.1150639370 -1.8645252979 -1.5713294398
H 3.8800171897 -0.7857521068 -0.0666861100
H 3.1079009137 0.5658134893 -0.9168240692
H 2.9217196608 -0.0906434432 1.9936553860
H 2.2317290210 1.3189870559 1.2005861657
H 0.4501728338 -0.5287782600 2.1614826082