18

C -0.0546910977 1.6192379801 -0.0338354573
C 0.1099282194 0.1093431195 0.0770752649
O -1.1082136668 -0.5666117487 -0.2250801153
C 1.2582298822 -0.8458203883 -0.3225074469
N 2.6893414170 -0.5722620721 0.0790571793
C 2.8298320660 0.7523301595 0.7095615773
C 2.2072673732 -0.3467411080 1.4876919054
C 0.7718078057 -0.7386675807 1.1196286486
O 0.0996441398 -1.5835055699 1.9679484182
H 0.3294330753 2.0122845728 -0.9817807190
H -1.1236550359 1.8440847097 0.0198079361
H 0.4309649231 2.1549530876 0.7840268356
H -1.2152958168 -0.5934440305 -1.1823160493
H 1.0983503289 -1.5745897227 -1.1093999599
H 3.8671052494 0.9705259127 0.9543993580
H 2.2789833717 1.6032787002 0.3384376162
H 2.7039268128 -0.8281977604 2.3237945662
H -0.7643013273 -1.7346357408 1.5605199016