19

C -0.3110883407 1.4171903938 0.0077765797
C -0.0056496225 -0.0656579108 0.1671307803
O 0.4972244626 -0.5051249086 -1.1147066644
C 1.1117352005 -1.7049939629 -1.2759409244
O 1.3912383798 -2.0731224018 -2.3838215072
C 1.4226692278 -2.5071794021 -0.0212743381
C 1.7196231404 -1.6575367795 1.1980259026
C 2.4497181592 -0.3422154399 1.0479930154
C 0.9614586039 -0.3660286913 1.2949168325
H 0.6097801634 1.9775501462 -0.1759771578
H -0.9912706984 1.5781461473 -0.8322567132
H -0.7802108414 1.8048721365 0.9170348416
H -0.9438998175 -0.6086294925 0.3551171057
H 0.5508338062 -3.1455706855 0.1800645953
H 2.2472029320 -3.1767169215 -0.2784627959
H 1.8947279262 -2.2169639059 2.1114562996
H 3.0902269367 -0.0239804354 1.8623400146
H 2.8052677135 -0.0559900358 0.0638734144
H 0.6034976083 -0.0465415903 2.2688806394