16

O -0.8964089780 0.7333664988 0.6542565126
C -0.0397212792 0.8821156474 -0.1785746684
C 1.1883317164 1.7586113963 0.0210405253
C 1.3331436526 2.8004320090 -1.1239297949
C 1.5052700396 2.1886141350 -2.4388310950
N 1.6434543440 1.6841608002 -3.4693205759
C 1.1652672009 2.4596642121 1.3613989092
C 1.9869743766 2.0106773152 2.4883528142
O 2.3679422913 3.1488896299 1.7081833152
H -0.0961501827 0.3771473456 -1.1664453989
H 2.0653338355 1.0990493144 -0.0328433372
H 0.4601522041 3.4627456479 -1.1495330112
H 2.2053858865 3.4236364077 -0.9033382665
H 0.2491145062 3.0068501753 1.5805449287
H 1.6675395562 2.2268640000 3.5057445069
H 2.6227678999 1.1339060852 2.3752512658