14

O -0.7815956245 0.8702580886 0.4141913190
C 0.2830681057 0.7299473817 -0.1255347306
C 1.4314601737 1.7226078863 0.0212687027
O 2.6529890331 1.0388920091 -0.2200758182
C 3.5652893092 1.8772970500 -0.9292392418
C 2.7102069530 2.9196946182 -1.6116671687
O 1.6216898929 2.3504631526 -2.3457436444
C 1.3738442889 2.8316295777 -1.0200975996
H 0.5169537788 -0.1230695673 -0.7959271973
H 1.3881458470 2.1664220954 1.0274177579
H 4.2753782133 2.3672975148 -0.2454885235
H 4.1252010857 1.2461297986 -1.6262430883
H 3.1375072419 3.8377474934 -2.0044244714
H 0.6795870411 3.6590634110 -0.9151874160