21

C 0.5165894377 1.6391001799 0.0246207260
C -0.0715122161 0.2195908398 -0.1015938698
C 0.4716653873 -0.4723100812 -1.3576469525
C -0.0377594177 -1.8975355417 -1.5979706860
C 0.7198847064 -2.9707444997 -0.8119121085
C 0.5681833571 -3.0040214359 0.7030171436
O 0.6552596602 -4.0724539903 1.2822815966
C 0.3492110544 -1.7868802308 1.5231711148
C 0.0864984637 -0.5109001802 1.2060261811
H 1.5993708079 1.6004511006 0.1861460062
H 0.3326895535 2.2149031073 -0.8874914013
H 0.0719679604 2.1842097743 0.8630714828
H -1.1600098741 0.3393618445 -0.2383525140
H 0.2048955209 0.1572400846 -2.2146726638
H 1.5697663779 -0.4813099969 -1.3190820759
H -1.1128514786 -1.9550415725 -1.3831328087
H 0.0693067936 -2.1346911265 -2.6623839612
H 0.4526960701 -3.9735590239 -1.1571047774
H 1.7965833451 -2.8602437985 -1.0093051800
H 0.3697788755 -2.0433746622 2.5798922545
H -0.0823259452 0.1446000694 2.0616849634