16

C -0.0507806861 1.5547405359 0.0760069255
C 0.1229573477 0.0273126261 -0.0040742111
C 0.8007150919 -0.3667285042 -1.2465272331
N 1.3308856125 -0.6429774129 -2.2345299121
N 0.8332409449 -0.5065361163 1.1510284949
C 2.1628781625 -0.7327259305 1.3189247467
C 2.3304624856 -1.1225270575 2.6301353285
C 1.0314014382 -1.0905279981 3.1779676437
N 0.1245407475 -0.7132792686 2.2812326441
H 0.9208931614 2.0537864135 0.0608099794
H -0.6456688039 1.9126598442 -0.7678751314
H -0.5644521209 1.7959019732 1.0085048561
H -0.8635193266 -0.4469659519 0.0089315457
H 2.8603311628 -0.6194847948 0.5045140508
H 3.2532957296 -1.4001107272 3.1123520152
H 0.7175229530 -1.3331808709 4.1825945770