13

N -0.1608065313 1.3979570263 0.1289821482
C 0.1022360160 0.0469379990 0.0722250343
O 1.2211889019 -0.4216792771 0.0926404092
N -1.0482137130 -0.7348830320 0.0315830609
C -1.0437902684 -2.1143882246 0.0060269826
N -2.1674900775 -2.7850840822 0.0326165326
O -1.7974708274 -4.1067031779 -0.0146153300
N -0.4442460565 -4.2419150596 -0.0705189987
C 0.0463223009 -3.0350047780 -0.0587791745
H 0.6547852193 1.9729706977 -0.0125409401
H -1.0152229408 1.7605153017 -0.2636877875
H -1.9552399647 -0.3076954657 0.1413451618
H 1.1014569516 -2.8315361975 -0.0894025688