19

O -0.0490673296 1.4838317905 0.0379754719
C 0.0155168476 0.0864380027 -0.0664103559
C 0.7937198364 -0.3454293140 -1.3246440714
C 0.0704605029 0.0919265447 -2.5884574718
C 0.5613605394 -0.4817079660 -3.9363622999
C -0.8567081259 -1.0782025659 -4.0358766265
O -1.2103678700 -0.5746551803 -2.7299954484
C 0.6430480525 -0.5072312923 1.1741205328
O 1.0358601098 0.1835402646 2.0839109318
H 0.3509450062 1.6992520997 0.8953271806
H -0.9993350643 -0.3416981259 -0.1501921805
H 1.7936153870 0.1052208756 -1.2986802441
H 0.9071708877 -1.4369313423 -1.3360999669
H -0.0587849808 1.1805726541 -2.5779197029
H 0.8280869883 0.2521425579 -4.6977616395
H 1.3648021613 -1.2163334986 -3.8481782425
H -1.4899135840 -0.6477215082 -4.8214747793
H -0.9256552673 -2.1711924293 -4.0870125408
H 0.7280437328 -1.6130350767 1.2019132132