15

O -0.2680398002 1.3811448748 0.0953664157
C -0.0054199640 0.0071401826 0.0558509076
C 0.8506329985 -0.3267553165 -1.1625388761
O 1.1852891634 0.5262568657 -1.9473696735
C 0.7070004149 -0.4633277487 1.2992094095
N 0.7407799160 -1.7580766037 1.6103249752
N 1.4838319380 -1.8072595684 2.7319952598
C 1.9124364534 -0.5885618559 3.1402875704
C 1.4302405348 0.3210973972 2.2241616074
H 0.1450193371 1.7426659232 -0.7058972403
H -0.9358749232 -0.5771024605 -0.0512979842
H 1.1457628078 -1.3876179878 -1.2691275933
H 1.6372958672 -2.6970072523 3.1753204189
H 2.5076325981 -0.4669879472 4.0314500305
H 1.5537178980 1.3900788674 2.2202454421