15

O -0.1925325099 0.1987304848 0.6221753133
C 0.0639474440 1.0670790772 -0.1668384765
C 1.3373870643 1.8958292414 -0.1111132393
O 1.3071057839 2.8098890044 -1.1815434671
C 2.4501297946 3.6395523737 -1.2284478431
C 2.3589078723 4.5580331559 -2.3510802902
C 2.3224794285 5.3377127519 -3.2716192208
C 2.2392931276 6.2518527746 -4.3827805667
O 3.0838060414 7.0734052631 -4.6537914964
H -0.6100480567 1.3398164072 -1.0075537403
H 1.3880893139 2.4046620487 0.8660622151
H 2.2056441194 1.2183597848 -0.1698788583
H 2.5536335764 4.2175262858 -0.2939686145
H 3.3688512728 3.0360142034 -1.3269968865
H 1.3167405373 6.1421135630 -4.9875102588