19

C -0.1098961538 1.4745778147 0.0740132408
C 0.0039000818 -0.0193832899 0.0649762813
C 1.3076527454 -0.7320347686 -0.2665976753
C 0.7120889201 -0.8566709039 1.1086619929
O 1.4220741294 -0.3460695832 2.1872486325
C -0.2389394940 -2.0108686039 1.3919775205
O -0.9486683917 -1.7126737907 2.5990092767
C -1.1351025735 -2.0213318718 0.1476224660
O -1.1950432758 -0.6709326449 -0.3191693325
H 0.7707548457 1.9097356412 0.5535134764
H -0.1917346545 1.8778905163 -0.9403570740
H -0.9977310917 1.7861744867 0.6342996534
H 1.3258362912 -1.5806714140 -0.9424562021
H 2.1840504289 -0.0948069810 -0.3220700394
H 0.8311470185 -0.4412030866 2.9477612599
H 0.2523784308 -2.9711806930 1.5681083956
H -1.5692117468 -1.0020284127 2.3950513220
H -0.7195262415 -2.6828938730 -0.6245597210
H -2.1511222986 -2.3551209517 0.3752168363