16

O 0.2032840196 1.3451250452 0.0385847751
C 0.0267272243 -0.0510045521 0.1949695948
C -1.3169588818 -0.5392096262 -0.3593198532
C -1.4593020556 -2.0374804230 -0.2487732178
N -1.8274728667 -2.5726480265 1.0651111498
C -2.7803608166 -2.7194005021 -0.0546201144
C -4.0123367404 -1.9734288489 0.0411026324
N -5.0029972096 -1.3792662615 0.0877426590
H -0.4580855721 1.7890781751 0.5791840955
H 0.8520220470 -0.5162762657 -0.3565308939
H 0.1213258361 -0.3597718412 1.2469016804
H -2.1353918900 -0.0594288631 0.1893708491
H -1.4050043532 -0.2350012666 -1.4086215908
H -0.7452254559 -2.6148044004 -0.8359164907
H -1.3795900347 -3.4673237494 1.2448876040
H -2.9013808505 -3.7002313936 -0.5063805291