20

O 0.1747247250 1.4071215780 -0.1267326578
C 0.0693715719 -0.0038041486 -0.0163197582
C -1.3830947860 -0.4921100275 -0.0921742180
C -1.4877122210 -1.9941542410 0.0043559298
C -1.0133711389 -2.8954430442 -1.1656279916
N -2.1934789029 -3.7916494128 -0.9666679951
C -2.7674279661 -2.8743041633 0.0504267559
C -2.3068392954 -3.2426524647 1.4681843278
O -1.0693023432 -2.5036397122 1.2968269680
H -0.2246307118 1.7925667032 0.6595280988
H 0.6451761083 -0.4081414625 -0.8559903174
H 0.5335442992 -0.3761259329 0.9075446324
H -1.9579870976 -0.0434812547 0.7289165615
H -1.8294362610 -0.1456564741 -1.0317207563
H -1.0023284260 -2.3742954127 -2.1313498214
H -0.0502342211 -3.3922305628 -1.0133622214
H -2.7702050756 -3.8695079015 -1.7953862923
H -3.7901397895 -2.5282109410 -0.1079949958
H -2.9097262385 -2.8172286277 2.2812231398
H -2.1381003398 -4.3102577469 1.6402581414