20

C -0.0152296094 1.5331876946 -0.1025589800
N -0.0372987410 0.0963740127 0.0840856956
C -1.2939421374 -0.5795936915 0.4471137077
C -0.4587129450 -1.6300998857 1.2365283356
N -0.1033380823 -2.8673706650 0.5759415592
C 0.6953028784 -0.5485552989 1.2000080028
C 2.1215369818 -0.9866997533 0.8877928044
C 0.6688180763 0.2555078248 2.4404043459
N 0.6242270872 0.9170436269 3.3886034766
H 1.0060410370 1.8663345860 -0.3125397356
H -0.6339958738 1.7873898480 -0.9690071896
H -0.3900126865 2.0929163953 0.7706153519
H -1.9475581486 0.0185780043 1.1024156061
H -1.8780114946 -0.9456051898 -0.4051876494
H -0.8201023420 -1.8583918321 2.2391934158
H -0.8402165554 -3.5534953517 0.6991276353
H 0.0028122537 -2.7205713653 -0.4234034598
H 2.1278946287 -1.6248074976 0.0037643240
H 2.7552069023 -0.1143743366 0.7015108125
H 2.5445156607 -1.5461334251 1.7263178911