23

C -0.1554198601 1.5465052023 0.0149914661
C 0.0407544585 0.0199997864 0.0115428790
C 0.7645208566 -0.4550660463 -1.2675563103
C 1.0975426337 -1.9713284225 -1.1771877590
C 2.3414943193 -1.5305501968 -0.3449554622
C 2.2993850608 -0.2063466211 -1.1652240688
C 1.8744721435 -1.2327919416 1.0624162141
C 0.7768955132 -0.4920029970 1.2473805621
C 0.2161100830 -0.1711384693 2.6044589203
H 0.8053282064 2.0714152315 0.0340752595
H -0.6945714008 1.8639986365 -0.8840008789
H -0.7342627615 1.8788032452 0.8815044614
H -0.9646127981 -0.4321402409 0.0133178223
H 0.2445768504 -0.0950971077 -2.1599730458
H 0.3753575497 -2.6337288843 -0.6921141766
H 1.3779297797 -2.3773628529 -2.1534690411
H 3.2434902271 -2.1438882030 -0.3751639777
H 2.7819076797 -0.3115913988 -2.1410437356
H 2.6562029721 0.7015287226 -0.6730246639
H 2.4268923735 -1.6394758617 1.9055693335
H 0.7788125751 -0.6771384146 3.3940447486
H 0.2385058555 0.9049449185 2.8160908782
H -0.8343299774 -0.4811131944 2.6848810849