20

C -0.0053785840 1.4739037612 -0.2577657922
C -0.0609452733 -0.0020983646 0.1564128986
C -1.4669706267 -0.5506126938 0.1837003643
C -2.4811726288 0.0003717721 1.1867366020
O -3.4289279218 -1.0499504009 1.4057920140
C -3.2878257726 -1.9304812132 0.3037165615
C -3.4646185471 -1.1824801359 -1.0391951381
N -1.9792262544 -0.9746873322 -1.1632016735
C -1.7825072929 -1.9719402939 -0.0425232395
H 1.0286784126 1.8279118388 -0.3024480029
H -0.4561949298 1.6095863567 -1.2451818387
H -0.5426098541 2.1135226710 0.4509447327
H 0.5268111210 -0.6008511833 -0.5468012730
H 0.3926593361 -0.1334465123 1.1473370257
H -2.0003493100 0.2461035824 2.1405387207
H -2.9858852072 0.9040604580 0.8181678493
H -3.8549248773 -2.8394462581 0.4989274920
H -3.7879354831 -1.8311297169 -1.8571959829
H -4.0766686727 -0.2744245563 -1.0267125876
H -1.0887181638 -2.8028817090 -0.0886841826