15

O -0.1027892884 -0.0722271460 0.3208215104
C -0.0822696016 1.1258679321 0.1667267432
C 1.1521333722 1.8807727232 0.0229217379
C 2.1478176480 2.5454327575 -0.1060956999
C -1.3513382048 1.9790554654 0.0622556825
C -1.6491120777 2.3527666535 -1.4325265382
O -2.9688925332 1.8829939642 -1.6370293908
C -3.1539818807 0.8513767965 -0.6980819458
O -2.4957950363 1.2738062481 0.4789019488
H 3.0405939478 3.1124742149 -0.2170451263
H -1.2345860913 2.8693323294 0.6892274956
H -1.6271170751 3.4291020037 -1.6131989362
H -0.9407411679 1.8624146988 -2.1150408659
H -4.2210382760 0.7405687872 -0.4917759588
H -2.7224738849 -0.0968311484 -1.0579524064