16

N -0.0438727884 1.4861471420 0.0613187315
C -0.0142789477 0.0827383017 -0.0516200915
C 1.1926883433 -0.7149751929 -0.5582508141
C 1.9933024830 -1.7126744742 0.2564906884
O 2.7037604805 -2.6096790803 -0.5798905943
C -0.1549283842 -0.9936952594 -1.1383265928
O -0.9003664250 -1.8521033252 -0.2383320635
C -0.8918190220 -0.8622785932 0.7500283983
O -1.4817830872 -0.8711050664 1.7778133802
H 0.7493205273 1.9387994168 -0.3714816847
H -0.9033556978 1.9002607773 -0.2792238453
H 1.8095888210 -0.1030276485 -1.2174531131
H 2.7489569330 -1.1817361017 0.8435723007
H 1.3408164426 -2.2437480406 0.9606519983
H 2.0559739265 -3.1776623156 -1.0103165692
H -0.4755952650 -0.9533510999 -2.1695533690