17

C -0.0322787312 1.4924932647 0.0099856041
C -0.0105961438 -0.0241985519 0.0537320932
O -0.0774547383 -0.6589422864 1.0852461668
N 0.0928108138 -0.6708579097 -1.1688769816
C 0.0800924039 -0.1365742072 -2.4599826381
N -0.0173443102 -0.9787494447 -3.4167516173
C -0.0438479388 -2.2948906516 -2.8189029813
C 1.1936444990 -2.7238213362 -2.0605171628
C 0.0465924383 -2.1095960857 -1.3057766602
H 0.8766192448 1.8908021618 -0.4519545279
H -0.8890470660 1.8624041886 -0.5620302560
H -0.1020957243 1.8545339663 1.0349377637
H 0.1587221587 0.9337099474 -2.6024397612
H -0.6600533841 -3.0361587567 -3.3126187770
H 1.3339863456 -3.7903588279 -1.9266356270
H 2.1041693247 -2.1497606235 -2.1962056431
H -0.5039186120 -2.6385959374 -0.5413151642