16

O -0.0324942292 0.0487636679 -0.2555692227
C -0.0041278266 1.2124723301 0.0127023156
O -1.1415446785 1.9695259802 0.2093396686
C -0.7148496042 3.2695665027 0.5820068594
C 0.0712809234 4.0978795680 -0.5142614276
C 0.9598946175 4.6034444132 0.6441953419
C 0.7075965788 3.1820932700 1.1984212325
C 1.1596361947 2.1972590852 0.0910503376
N 0.9687798598 3.0895009201 -1.1069344147
H -1.4976385702 3.7782871712 1.1395766822
H -0.4077099426 4.7518395025 -1.2401029386
H 1.9773572467 4.8928263249 0.3814293616
H 0.4776520126 5.3649284791 1.2608602189
H 0.8826729726 2.8867634590 2.2313986675
H 2.1441813600 1.7388019974 0.1460230367
H 0.5196612652 2.5832851485 -1.8656972088