18

C 0.0901346466 1.5995496467 0.1989107255
C -0.0169726809 0.0864111252 -0.0073047564
C 0.6945145575 -0.4432284053 -1.2712490334
C 0.6672720767 -2.0124311084 -1.2891879141
O 1.3021438008 -2.5642014372 -2.4154711474
C -0.0133045663 0.0160312592 -2.5670010341
O -1.1526210004 0.3929944114 -2.5830338821
C 2.1004995634 -0.0361100438 -1.3316983741
N 3.2212810291 0.2401616745 -1.4072277697
H 1.1335907148 1.9190587347 0.2802254446
H -0.3753447100 2.1453507780 -0.6256882979
H -0.4212737369 1.8886973679 1.1211661225
H 0.3959395498 -0.4388543987 0.8609972496
H -1.0683452042 -0.2021375264 -0.0960472193
H 1.0997851889 -2.3716712974 -0.3450303375
H -0.3793252127 -2.3278920191 -1.3289803589
H 2.2517454166 -2.4178220169 -2.3326788719
H 0.5936101873 -0.0731340644 -3.4880177553