20

C -0.0992368155 1.5783700729 -0.0153529234
C 0.0175169066 0.0614679873 0.0305404869
C 1.1597405982 -0.5600578947 -0.8166967070
O 1.4748574663 -0.5779028353 -1.9794835084
N 1.7385538964 -1.1106968427 0.3019216963
C 2.9178350265 -1.9155390032 0.4705636654
C 0.7494414849 -0.5863298824 1.2264372040
C 1.0231905556 -0.0258662126 2.5856553999
C 0.1936750261 -1.2945728461 2.4195313445
H 0.8574593831 2.0559477855 0.2171368828
H -0.4037523094 1.9012430162 -1.0151889912
H -0.8447714716 1.9432895329 0.6989196187
H -0.9437947254 -0.4165870738 -0.1823294579
H 3.3557041378 -2.0647560630 -0.5192737994
H 3.6591226895 -1.4218314185 1.1112153359
H 2.6817346474 -2.8961693037 0.9020147496
H 2.0213630700 -0.1310998155 2.9984546483
H 0.5170279793 0.8889601451 2.8763587405
H -0.8753252815 -1.2413564115 2.5986095567
H 0.6487789057 -2.2317346368 2.7239007878