18

C -0.3218366504 1.1030957079 0.0932600244
N -0.1218945852 -0.3410456150 0.0958230881
C 0.7023477686 -0.8627859326 1.0991145973
C 1.1836386117 -2.1486608700 1.1935982851
N 1.8953320796 -2.1904991047 2.3823359112
C 1.8150583396 -0.9524032864 2.9352766452
N 1.1010040571 -0.1319748139 2.1902676175
O 1.0876408851 -3.2292281013 0.3801942385
C -0.2166946415 -3.8229089230 0.3512435363
H 0.6089165818 1.6799403966 -0.0128693169
H -0.9954592799 1.3598056097 -0.7287128378
H -0.7873747548 1.4054670490 1.0335524878
H 0.1443578781 -0.6914060798 -0.8151827233
H 2.4091391951 -2.9863693903 2.7211698483
H 2.2976855445 -0.6986168176 3.8664532554
H -0.4837571647 -4.2307562075 1.3337943138
H -0.9717599150 -3.0881572091 0.0513401126
H -0.1739141196 -4.6316548421 -0.3813096134