15

C -0.0099962856 1.4695766083 0.0094510847
N -0.0409637455 0.0215775623 0.0009791235
C -1.1391814415 -0.7947705737 0.0035497988
C -0.7094904872 -2.0900104357 -0.0062889289
N 0.6823471626 -2.0484568120 -0.0150758128
C 1.1457423636 -0.7514740318 -0.0116233076
O 2.2811829388 -0.3278170568 -0.0161381094
C -1.4570009593 -3.3228415268 -0.0079339444
O -0.9386230350 -4.4236181848 -0.0168769121
H 1.0410862032 1.7623317085 0.0019182245
H -0.5066815152 1.8784268136 -0.8757698418
H -0.4908180157 1.8678673553 0.9081683993
H -2.1459701655 -0.4092054848 0.0124098939
H 1.2716443626 -2.8636953760 -0.0229794042
H -2.5591168104 -3.1904122156 0.0003777166