19

C 0.1531711930 1.3065544525 0.2023834116
O -0.2528404954 -0.0070617071 -0.1516182074
C 0.4537946370 -0.5493291346 -1.1965789855
C 1.8912304929 -1.0251792158 -1.0603997748
C 0.8491072007 -2.0098887042 -1.4889470042
O 0.6692448233 -3.2047184396 -0.8374950645
C 0.4682438957 -1.8260703016 -2.9582706807
O -0.6478577632 -2.6349435073 -3.3046453057
C 0.1363446998 -0.3239225701 -2.6858082612
H 1.2145754905 1.3340907696 0.4836018352
H -0.0108306861 2.0177162135 -0.6194051912
H -0.4550151870 1.6074953166 1.0581465208
H 2.6864609450 -0.6902389949 -1.7266214606
H 2.1934312248 -1.1702988269 -0.0266511163
H -0.0478050378 -3.6509393920 -1.3095742702
H 1.2410459941 -2.0434366036 -3.7025084982
H -1.4305519718 -2.2608500818 -2.8836524388
H -0.9219911794 -0.1146182522 -2.8719939281
H 0.7416518339 0.4170085496 -3.2191109203