19

C -0.6837192817 1.1290354238 0.1085359433
C 0.1919089382 -0.0958149258 -0.1345223029
C 1.3417496026 0.0930298797 -1.1536043732
C 2.3909162248 -0.8756541352 -0.6715729029
C 2.1424598330 -1.3113091437 0.5612076197
C 0.8983761840 -0.6553939625 1.1432047817
O 1.2588604268 0.4616398958 1.9734787261
C 0.0538897444 -1.5819561991 1.9027540766
C -0.6171307324 -2.3423286444 2.5495972951
H -0.0955550518 1.9612448357 0.5016868266
H -1.1563479861 1.4485214007 -0.8261739591
H -1.4771755161 0.9077540456 0.8289333867
H -0.4339526337 -0.9148193531 -0.5042983132
H 1.0149164287 -0.1026262058 -2.1810104278
H 1.7292923971 1.1212452873 -1.1384515969
H 3.2585086401 -1.1470141381 -1.2635623744
H 2.7537378087 -1.9904908264 1.1441909813
H 1.6451398783 0.1097366651 2.7825867005
H -1.2169871549 -3.0129308796 3.1139502330