15

C 0.1110115442 1.4571053568 0.0238865817
C -0.0778621057 -0.0142292465 -0.0072168269
C -1.1655211494 -0.8157110229 -0.1645188578
C -0.6884949853 -2.1775938442 -0.0986048043
C 0.6682242434 -2.0409519081 0.0957919144
N 1.2436211125 -3.2538523440 0.1717647468
N 0.2876855558 -4.2259910611 0.0321883408
C -0.8681069804 -3.5834268892 -0.1305419849
O 1.0961298991 -0.7713737149 0.1591973028
H 0.7868942660 1.7950797264 -0.7702889093
H -0.8528560389 1.9520407478 -0.1138160393
H 0.5345905555 1.7904143290 0.9784843484
H -2.1741728399 -0.4604803709 -0.3079578188
H 2.2025664498 -3.5166881679 0.3125450350
H -1.7701564367 -4.1622855502 -0.2616903285