17

C -0.0506025069 1.4398038468 0.3246427354
C 0.1151513307 -0.0408831304 0.0477723860
O 1.1905852334 -0.5911252300 0.0882734191
C -1.1630882410 -0.8010910640 -0.3124418727
C -1.0283094624 -2.2899040680 -0.1234915707
O -1.4199726838 -2.8149749817 1.1434424206
C -2.2046626415 -3.1788689954 -0.0054171402
C -3.5549086085 -2.6859395601 -0.0763122459
C -4.6914516713 -2.3025088350 -0.1580420547
H 0.9262983643 1.9166729344 0.4108962608
H -0.6386288341 1.9215380450 -0.4642843393
H -0.6056038502 1.5752208587 1.2606360402
H -2.0157041043 -0.4204738550 0.2570153492
H -1.3763934252 -0.5774894241 -1.3685172781
H -0.1106749899 -2.7208513147 -0.5202013474
H -2.0822226276 -4.2179346869 -0.3105235437
H -5.6965194217 -1.9647160095 -0.2214982985