20

C -0.0084413829 1.5677741204 0.0359890236
C 0.0295102825 0.0388778900 0.0182913254
C 0.8063980588 -0.5480990547 -1.1867106675
C 1.3135283165 -1.9454258000 -0.7227337362
C 2.4857822459 -2.4269197831 -1.4410432380
C 3.4515982735 -2.8275912915 -2.0344195073
C 1.5087215069 -1.7621708260 0.7836903520
N 2.1999879064 -0.5065558508 1.1320268114
C 0.7241400315 -0.5864393348 1.2210040137
H 1.0061373686 1.9690749556 0.1224397952
H -0.4561740847 1.9644572773 -0.8811647166
H -0.5958446115 1.9424521243 0.8812948548
H -0.9998866064 -0.3464930924 0.0037658683
H 0.1965849730 -0.6158195247 -2.0904990741
H 1.6692064568 0.0823173686 -1.4101471559
H 0.5035566171 -2.6779686763 -0.8490249041
H 4.3078141864 -3.1764485264 -2.5561263243
H 1.6521152251 -2.6376147892 1.4082589747
H 2.6031046398 -0.5957235194 2.0608012991
H 0.2537099868 -0.5457834469 2.1990972856