17

C -0.0252008957 1.5024135252 0.0256956708
C -0.0206741863 0.0049244835 0.0077097466
C -0.0165562890 -0.7920931663 -1.0956607335
N -0.0029208319 -2.1311665623 -0.6802025443
C -0.0062445945 -2.1882740389 0.6742119896
N -0.0674930531 -3.3478267472 1.3987014874
C -0.0088572389 -0.8717210067 1.1599911595
C 0.0530224074 -0.5649880022 2.5572747754
O 0.0764168680 -1.4027836933 3.4588337057
H 0.8564208752 1.9068902850 0.5367462629
H -0.0315216374 1.9042633442 -0.9914062643
H -0.9047513700 1.8995370466 0.5456406111
H -0.0157147430 -0.5483468662 -2.1454985847
H -0.0667546709 -2.9268007103 -1.2916013341
H 0.4381501989 -4.1442373363 1.0391371794
H 0.0743660883 -3.1570527810 2.3882881902
H 0.0910957129 0.5149389163 2.8132214822