19

C -0.0219931393 -1.1380188893 0.4529225790
C 0.0068311799 0.0197006789 0.1317749238
C 0.0642355191 1.4324654969 -0.2466718426
C 1.4465117174 2.0081313768 -0.1555096352
C 2.2076184525 2.6149464155 -1.0707897052
C 3.4879622725 2.9631429358 -0.2960229124
C 3.7104319624 1.6239443013 0.4890563636
C 2.3293802398 2.0343548424 1.1062479830
C 2.8691891326 3.5049867819 1.0387428502
H -0.0537847689 -2.1622002791 0.7307296072
H -0.3173909217 1.5576995617 -1.2673764826
H -0.6200701871 1.9956409347 0.4058130148
H 2.0036120496 2.8238359902 -2.1118726021
H 4.2931684291 3.4769012458 -0.8203952769
H 3.7450918258 0.6987688432 -0.0904525719
H 4.5369111356 1.6706015815 1.2055634535
H 1.9385064135 1.5879432905 2.0201817649
H 3.6160204895 3.7285761871 1.8075014389
H 2.1345484377 4.3106458442 0.9629491899