18

C -0.0751113577 1.5702221354 0.0541512774
C -0.0058419344 0.0382350728 0.0089073342
C -1.4110050079 -0.5801372310 -0.0663646214
N 0.8587391794 -0.4347213485 -1.0745027818
C 1.8661802851 -1.2646189570 -0.6592180287
O 2.6657054365 -1.8796379775 -1.3230158405
N 1.7960389793 -1.2524265944 0.7453634363
C 0.7426663970 -0.5069393096 1.2374021547
N 0.3737759024 -0.2650564317 2.4273563505
H 0.9290436549 2.0012760198 0.0723627982
H -0.6017074411 1.9557515377 -0.8249253347
H -0.6075133222 1.8872779547 0.9536448622
H -1.9398835920 -0.2205104237 -0.9554528133
H -1.3555859579 -1.6713760865 -0.1130774411
H -1.9837420177 -0.2990427773 0.8203669889
H 0.5812089565 -0.4379451163 -2.0414160062
H 2.4692230934 -1.7538296419 1.3011586099
H 0.9802961464 -0.7091913750 3.1175960055