16

O 0.0994041005 1.3970653971 -0.1377014804
C 0.0421777607 -0.0067458145 -0.0077094821
C 0.8008017984 -0.5097058789 1.2202065148
O 0.0984647851 -0.2777271276 2.4543725697
C -1.1324759693 -0.8508739594 2.5741554577
N -1.5946319112 -1.2802889840 3.6703596573
C -1.9804234148 -0.8813841380 1.3456607477
O -2.2559716871 0.4111811323 0.7718097313
C -1.4127873810 -0.4810320236 0.0442176644
H -0.5955994062 1.7475056580 0.4357058010
H 0.5314119241 -0.4258104061 -0.8944208882
H 1.0114537587 -1.5838257591 1.1223658696
H 1.7439110458 0.0303657049 1.3182578126
H -0.8953752982 -1.1776963912 4.4098101348
H -2.8371289597 -1.5452032167 1.4070905148
H -1.8550207057 -0.8724161632 -0.8697637249