14

C -0.0174512400 1.5202816073 0.0582395772
C -0.0019337137 0.0204806304 0.0130179042
C 0.0708720608 -0.6561457969 -1.2070312261
O 0.1292870150 0.0213776827 -2.3801456164
C 0.0787996976 -2.0464674966 -1.1306320292
F 0.1479277716 -2.7189621811 -2.2863150562
N 0.0240556973 -2.7304222450 -0.0197029531
C -0.0432643600 -1.9925248396 1.0954640117
N -0.0589183520 -0.6664909734 1.1644480645
H 0.8871064997 1.9332968345 -0.4011951018
H -0.8658479207 1.9186247236 -0.5085599363
H -0.0832540062 1.8526329426 1.0942835529
H 0.1738534548 -0.6219550787 -3.0984628921
H -0.0901535141 -2.5375724898 2.0332524505