21

C 0.2320680609 1.5796425876 -0.1914664464
C 0.1153560141 0.0888772937 0.0474556728
O 0.8755352777 -0.7022270022 -0.9000560179
C 1.3560077845 -1.5883129725 0.1424077401
C 2.8747830404 -1.6024302986 0.2341782549
C 3.2148236597 -0.2212644096 0.8314311687
C 2.0682907200 0.0463817276 1.8319669593
C 0.8182755422 -0.6294322242 1.2346375713
O -0.0294322590 -1.2200466754 2.1918415425
H 1.2695341854 1.9224260501 -0.1508927650
H -0.1669647450 1.8305182721 -1.1795320166
H -0.3492119083 2.1329584181 0.5547158771
H -0.9424024818 -0.2131934475 0.0299679655
H 0.8803040509 -2.5732322311 0.0900907617
H 3.1828288380 -2.4064721584 0.9141435144
H 3.3451232341 -1.7850814290 -0.7361641108
H 4.1983612432 -0.1903063819 1.3075920666
H 3.2118622624 0.5305904037 0.0371965938
H 2.2781678855 -0.4584690381 2.7822504037
H 1.9266016731 1.1105493454 2.0462188458
H -0.2010407682 -0.5747113296 2.8854968983