21

C -0.8348248256 1.1368951791 -0.0202331425
C 0.0136768031 -0.1317592574 -0.0901861763
C 1.0134196919 -0.1951224539 -1.2385628275
C 2.3144198312 0.5577936493 -1.0837101436
C 2.2579856342 -0.9164426554 -0.7617183054
C 2.0510453942 -1.3019119737 0.6939066334
C 0.8788824275 -0.4284307534 1.1449747648
C 0.9691210433 0.4514127109 2.3202903270
O 0.2179945123 -0.7670148327 2.3609647053
H -0.2097168560 2.0347069111 0.0216760884
H -1.4771927615 1.2199815362 -0.9025650634
H -1.4835498768 1.1235714067 0.8618104877
H -0.6653664107 -0.9909583980 -0.1947714192
H 0.6283708873 -0.3504428544 -2.2404881695
H 2.8287138475 0.8474330798 -1.9934713776
H 2.4232365108 1.2703016652 -0.2716087201
H 2.7852853020 -1.6069337732 -1.4099226926
H 1.7574078410 -2.3565279224 0.7665987263
H 2.9372454124 -1.1648821651 1.3221038734
H 1.8838123239 0.4548075993 2.9130302705
H 0.3790896082 1.3635889418 2.3793771110