15

O 0.1288950278 1.4071442437 -0.1225533419
C 0.0296589917 0.0093282486 -0.0262061716
C 0.2324533511 -0.5596340946 1.4109736915
C -1.3112170612 -0.5673442568 1.5753560833
O -1.6779608638 0.6774148834 2.1606894194
C -1.4304612131 -0.5396408530 0.0198746770
C -1.9359933589 -1.6867224360 2.2860676086
N -2.4477779148 -2.5699824288 2.8285845923
H -0.4012964623 1.7808924084 0.5929914200
H 0.6730868074 -0.4009278569 -0.8058944460
H 0.6446057417 -1.5703591185 1.4090050820
H 0.7686269001 0.0655157773 2.1270159614
H -2.6360191965 0.7744052235 2.0963065126
H -2.2153385738 0.1021125722 -0.3876012098
H -1.5148225554 -1.5440789026 -0.4015486988