21

C 0.0219491337 1.3849977598 -0.3299002807
O 0.0089873168 -0.0180677619 -0.2321318056
C -1.2706736184 -0.5345603971 0.0820913202
C -1.1795275883 -2.0263055814 0.2024481967
C -1.3008428768 -2.9063057240 -1.0340630945
C -2.3666273596 -2.9359140195 0.0312062807
O -2.3487317440 -3.9599940720 0.9885884342
C -1.0271316361 -4.0310719315 1.5277153607
C -0.4056533074 -2.6255486168 1.3706104868
H 1.0445262615 1.6882874981 -0.5676446695
H -0.6493996900 1.7471547099 -1.1254512902
H -0.2806781579 1.8656944667 0.6145473691
H -1.6305741783 -0.0962992510 1.0304645890
H -1.9976456802 -0.2549314286 -0.7002737677
H -1.5457181932 -2.4058360072 -1.9651723667
H -0.6396147248 -3.7583666076 -1.1481550783
H -3.3731207369 -2.5888573214 -0.1736815241
H -1.1074325340 -4.3608554718 2.5670118964
H -0.4379519790 -4.7811082779 0.9820483074
H 0.6737375379 -2.6708067962 1.2047261436
H -0.5819411851 -2.0157172585 2.2641150425