19

O -0.2192593783 1.5471425476 0.0315038501
C 0.0339173828 0.1527591225 -0.0232209319
C -1.3126902324 -0.5567663263 0.1020194609
C -1.2053513304 -2.0460864133 0.0272689169
O -2.2281722965 -2.8418408488 0.6492235113
C -0.8539372641 -3.0867620727 0.9939231324
C -0.1920295688 -3.9574162655 -0.1190581246
C -1.1649971146 -4.2668211003 -1.2249788186
C -0.5661926708 -2.8876165938 -1.1363051031
H 0.6203100530 2.0093745222 -0.0453806000
H 0.5221961299 -0.1257745372 -0.9705569317
H 0.6981897641 -0.1692881864 0.7942539591
H -1.7762613663 -0.2840134248 1.0552174752
H -1.9740924290 -0.1910274981 -0.6939297451
H -0.5899091562 -3.0468383240 2.0443555042
H 0.7556724514 -4.4643663784 0.0029932368
H -0.7621561723 -4.8826182109 -2.0230285879
H -2.2126268392 -4.4233555913 -1.0024541837
H 0.0526262777 -2.4611248805 -1.9148656006