11

O -0.0726046486 1.4595862275 0.1669767446
C -0.0150265730 0.0749187833 0.0042415989
C -1.3550276070 -0.6623135550 0.0101712963
O -2.0581760463 -0.2704337334 -1.1595235759
C -1.0878267769 -1.3344786056 -1.2902819527
C 0.2276304156 -0.5727515447 -1.4094395951
O 1.1288718907 -0.5265691598 -2.1905476285
H 0.7311960222 1.8369427716 -0.2073333117
H 0.6937835188 -0.4080517960 0.7012645375
H -1.9263975074 -1.0361833962 0.8504083852
H -1.4253980281 -2.2859409016 -1.6817564086