14

O -0.0642903190 1.4556732432 -0.3600689239
C -0.0188962719 0.2116713222 0.3117105404
C -1.3508413915 -0.4917444747 0.2250764231
O -1.6476841013 -1.1126863716 -1.0284397567
C -1.4906220464 -1.9638618725 0.1155616453
C -0.3616041424 -2.8515090139 0.1279709518
C 0.5568362566 -3.6367706793 0.1539101923
C 1.6018663240 -4.5141461806 0.1827745571
N 2.4921531926 -5.2599395693 0.2095000605
H -0.2192318886 1.2734631073 -1.2937024230
H 0.7707674284 -0.4433790952 -0.0807850333
H 0.2129350928 0.4329632432 1.3588910128
H -2.1929909486 0.0477392532 0.6603092331
H -2.4174901446 -2.4110996321 0.4737009005