20

N 0.3515458525 1.0558630653 -0.3922120665
C 0.1780484174 -0.1621287465 -0.1111561981
O -1.0594589710 -0.6922724400 -0.1351050960
C -1.2230855344 -2.0503408413 0.2400674512
C -2.0935207946 -2.3299808598 1.4909508317
C -2.8137091089 -3.4593678056 0.6931266335
C -2.2265321783 -2.8531721613 -0.5894977823
C -3.0109699570 -2.2802121932 -1.7326771050
C -2.0592494825 -3.4324244104 -1.9603021374
H 1.3415002428 1.2854514699 -0.3362649771
H 0.9578807820 -0.8875423205 0.1617064963
H -0.2414843704 -2.5392465211 0.2957447850
H -1.5754289741 -2.6010835641 2.4131298857
H -2.7542824088 -1.4816146839 1.6815720210
H -2.4140443510 -4.4530698872 0.9177065732
H -3.9027292724 -3.4947695337 0.7686474046
H -4.0770000388 -2.4813777307 -1.7663303587
H -2.7216588387 -1.2988206947 -2.0915709497
H -1.1334003556 -3.2307001175 -2.4907611747
H -2.4774856282 -4.4155451137 -2.1516777366