16

N 0.0727030018 1.3571873747 -0.0974509407
C 0.0004994499 0.0003646210 -0.0310800029
C -1.1071883419 -0.8017833373 -0.0107278512
C -0.7396110088 -2.2652502758 -0.0059669856
C 0.7883147054 -2.2634573188 -0.0033132577
O 1.5103216138 -3.2233757569 0.0196399169
C 1.2733427930 -0.8016040255 -0.0341783542
C -2.4793801925 -0.3579877131 0.0097330430
O -3.4452441809 -1.0993859609 0.0244893057
H 0.9413721396 1.8060005622 0.1385456212
H -0.7548100011 1.9109134401 0.0501639606
H -1.1191812470 -2.8096425320 0.8674755539
H -1.1131618096 -2.8133118728 -0.8803549083
H 1.8850920783 -0.6202231274 -0.9269178593
H 1.9135169764 -0.5929696639 0.8328592934
H -2.6309449765 0.7488095163 0.0157081551