19

C 0.0620819929 1.2317038172 -0.2912805946
N 0.0218388640 -0.1479979405 0.1644397587
C 0.7234961993 -0.3705562268 1.4184301994
C -1.2876393200 -0.7018286532 0.1504730385
C -1.8802792646 -1.1888933082 -1.1458248865
O -0.9579141769 -1.4258408761 -2.1955484747
C -0.1354888785 -2.4054934604 -1.7343695330
N -0.3810254313 -2.9357656047 -0.6049904352
C -1.4955842822 -2.1983796989 -0.0649456966
H 1.1032821729 1.5598255191 -0.3745574418
H -0.3993037212 1.3036407076 -1.2799455157
H -0.4596850908 1.9327972291 0.3872558542
H 0.2620809176 0.1542088734 2.2759646511
H 0.7431107997 -1.4414286412 1.6366879780
H 1.7562680717 -0.0190842957 1.3269871629
H -2.0356150518 -0.2658394877 0.8246139515
H -2.8667189801 -0.9171496015 -1.4981842888
H 0.6694254681 -2.6736879292 -2.4065301439
H -2.1869418588 -2.7415067423 0.5673725665