15

O 0.0858254001 0.4287174031 1.4469635639
C 0.0434274987 1.3127415939 0.6245226575
N 1.0918377904 1.7320410739 -0.1528866634
C 2.3800612517 1.1516500811 -0.1336861573
C 3.1696200520 0.9431400326 1.1361922210
C 3.7639003361 1.7577211152 0.0315039414
O 4.3237809692 0.9165524225 -0.9777805611
C 3.0204853389 0.3389612712 -1.2607655445
H -0.8693489521 1.9066061522 0.4141837068
H 0.8982792115 2.4485079131 -0.8372065829
H 2.7898919714 1.5057462776 1.9819509476
H 3.5772060270 -0.0350049375 1.3733567038
H 4.1219658477 2.7778653331 0.1082083849
H 3.0115798203 -0.7530450710 -1.1704461990
H 2.6774217371 0.6349840290 -2.2597770787