19

C 0.0215244585 1.6178683746 -0.1147067909
C 0.0443694086 0.1134950015 0.0224172746
C 0.5443017229 -0.7102551249 -1.2145759193
O 0.4508107611 -2.1032713991 -0.7789774506
C -0.0391306072 -1.8741572682 0.5096322558
C -0.4947161158 -2.5240002519 1.8218104576
C -0.6429882874 -0.9629261899 2.0148237957
C 0.6587133584 -0.6773518133 1.2090232632
C -1.1237388992 -0.7647808956 0.5468633112
H 1.0228267790 2.0144129506 -0.3202955516
H -0.6333309489 1.9331805779 -0.9355986348
H -0.3425781030 2.0899916454 0.8029862611
H -0.0880038253 -0.5692348059 -2.0989946914
H 1.5849724489 -0.4871754485 -1.4775081239
H -1.4211849994 -3.1051886045 1.7980370744
H 0.2690953402 -3.0222835389 2.4259587784
H -0.9989557760 -0.4502795811 2.9053544292
H 1.6841890072 -0.6849443736 1.5811602910
H -2.1384915723 -0.8724474445 0.1610796502