23

C -0.1016298661 1.5680016282 0.2033709511
C -0.1954041033 0.0423458259 0.2940069763
C 0.9762434167 -0.5762158080 1.0713729527
C 0.8987402124 -2.0885900869 1.2068252573
C 1.0662538815 -2.8765864520 -0.0832501720
C 1.4696701235 -2.8364549669 2.4123231989
C 1.1860189696 -2.0889307226 3.7088037070
O -0.2189090948 -1.9407562655 3.3675880604
C -0.0273679594 -2.7393119001 2.1944471937
H 0.8158581840 1.8803562260 -0.3084761515
H -0.9486872311 1.9884816377 -0.3478172887
H -0.0939056549 2.0234915528 1.1999151137
H -1.1327576818 -0.2405504376 0.7885926828
H -0.2411502784 -0.3762208433 -0.7187312317
H 1.9238335203 -0.3113491806 0.5814362022
H 1.0021496643 -0.1164899053 2.0634731230
H 2.0575739152 -2.7050845323 -0.5183108289
H 0.9636830492 -3.9530429504 0.0906164723
H 0.3184822541 -2.5909578106 -0.8294609176
H 2.1425988721 -3.6775847713 2.3065111788
H 1.2957940370 -2.7186607413 4.5992693845
H 1.6817747227 -1.1257472774 3.8787239136
H -0.7890631527 -3.4757471686 1.9589233722