23

C -0.1012006216 1.5605523182 -0.4748155555
C -0.0353526947 0.1933927089 0.2167361349
C -1.3758814514 -0.5149547717 0.2194745513
C -1.8168089790 -1.3600858825 -0.9535511826
C -1.5346174457 -2.0097104711 0.3836881210
C -0.3667739159 -2.9560275595 0.5638571702
C -0.7229880913 -4.3961168874 0.1309552126
C 0.3830087107 -5.3308732436 0.2962538883
C 1.3140579694 -6.0774808079 0.4416865475
H 0.8728503002 2.0595419192 -0.4634106969
H -0.4168641381 1.4571188799 -1.5181910417
H -0.8198056897 2.2206975402 0.0234843598
H 0.7175251684 -0.4265461527 -0.2826528293
H 0.3136558113 0.3233537670 1.2497686788
H -2.1649552368 0.0722154398 0.6858102461
H -2.8408149820 -1.2922797936 -1.3044789330
H -1.0892091479 -1.5217852953 -1.7446346053
H -2.4174815885 -2.3099369316 0.9453644782
H 0.4983846258 -2.6229152982 -0.0174344190
H -0.0471230569 -2.9721992860 1.6127235359
H -1.5878378479 -4.7468675543 0.7095537857
H -1.0456441305 -4.3867901474 -0.9178952689
H 2.1278880822 -6.7476688404 0.5660463118