19

C 0.6006401739 0.4718054578 0.5656825121
O 0.1064795854 0.3178149712 -0.7543355563
C 0.8280302444 -0.5818590464 -1.5602987966
C 0.4874005665 -2.0405250233 -1.2780716412
C 1.1408261528 -3.1330593683 -2.0697442734
N 1.3879939496 -2.9895713904 -0.6441632609
C 2.6388840392 -2.6762782884 -0.0990057471
N 3.6276039245 -3.5581915754 -0.4808925724
O 2.8343763349 -1.7480364883 0.6591873946
H 0.5884883363 -0.4677345350 1.1293414564
H 1.6338664674 0.8435469029 0.5668679267
H -0.0499183123 1.2025104534 1.0529644410
H 0.5179951926 -0.3605102031 -2.5886410644
H 1.9128272097 -0.4173259662 -1.4864636128
H -0.5545982674 -2.1771394786 -0.9935174678
H 0.5732493726 -4.0070003502 -2.3798362870
H 1.9436101341 -2.8434514825 -2.7458231975
H 3.3518172845 -4.4664641307 -0.8190542288
H 4.4515525313 -3.5353020185 0.0993025655