18

C -0.0389441235 1.5538668163 -0.0203773737
C 0.0500755284 0.0371784735 0.0239626783
O 0.8192906431 -0.4661856106 -1.0909118880
C 1.8603579606 -1.2172394117 -0.6471608606
N 2.7268555837 -1.8107966338 -1.3490605017
N 1.8320538227 -1.2350681466 0.7445094153
C 2.8096034353 -1.9351917453 1.5486073981
C 0.7781678874 -0.4978605056 1.2445379844
N 0.4222743980 -0.2608413733 2.4403038341
H 0.9600241549 1.9984372375 0.0001965034
H -0.5524526537 1.8813270921 -0.9277716006
H -0.5937149838 1.9015739473 0.8544075469
H -0.9494633729 -0.4076805646 -0.0350924908
H 2.5495170162 -1.6610155482 -2.3391880563
H 3.5032366880 -2.4271153408 0.8672670229
H 3.3592013655 -1.2354611800 2.1878704443
H 2.3230924330 -2.6853926923 2.1814334865
H 1.0388430471 -0.7055610141 3.1207181176