21

C 0.1655242903 1.5267701617 0.0908689411
C 0.0595586989 -0.0004928710 -0.0024121782
C -1.3767811391 -0.5114155253 0.0259014285
O -2.1743816923 0.0094865577 -1.0371377729
C -1.6221355217 -2.0453143836 0.0966313437
C -2.6687267696 -1.8579603034 1.2442927429
C -2.6146322074 -2.7327330912 2.4895236825
C -2.1686080950 -0.4100463504 1.3636111752
O -2.2725643679 0.4427705249 2.2011409251
H 1.2121315813 1.8434153151 0.1112328425
H -0.2981212345 2.0108290982 -0.7758165922
H -0.3227270214 1.8972543348 0.9965814135
H 0.5303092988 -0.3584937897 -0.9268819302
H 0.6070068456 -0.4589673009 0.8303746221
H -2.2666687297 0.9586983487 -0.8970690374
H -1.9916359795 -2.4787430792 -0.8328570713
H -0.7335846558 -2.5883152776 0.4299514987
H -3.6838621286 -1.8437092667 0.8295043277
H -1.6025842120 -2.7636598192 2.9070711179
H -3.2823315763 -2.3426657345 3.2635494727
H -2.9175908842 -3.7599397985 2.2636023181