18

C 0.0434125261 1.5272032927 -0.0667219445
C 0.0274553219 0.0737448991 0.0090070230
C 0.0218171941 -1.1288526322 0.0824662159
C -0.0104167949 -2.5791193235 0.1506708324
N 0.1079986433 -3.1954630357 1.5374111465
C -1.0887337552 -4.0211694440 1.2566171411
C -2.2692005266 -3.0912654288 1.1154864341
C -1.3502721424 -3.3224043060 -0.0552756844
O -1.7596279302 -3.8196090557 -1.2743896605
H 0.8656288204 1.8867307314 -0.6953594373
H -0.8905788423 1.9159359443 -0.4877871407
H 0.1671530202 1.9715835374 0.9270935210
H 0.7298410035 -3.0126798200 -0.5314441980
H 0.9419864685 -3.7753526544 1.5659969760
H -1.1685895708 -5.0579288865 1.5576580564
H -3.2265037768 -3.5935646645 1.0141719454
H -2.2787770222 -2.1468495853 1.6528182205
H -2.3850883465 -3.1962682285 -1.6613921070