19

C 0.2394785303 1.2768317135 0.0166336581
C 0.0798258643 -0.2015826584 0.1543444047
O 0.6392948473 -1.0893708567 -0.9287183062
C 0.0286182797 -2.0173587762 0.0606194242
C 0.7400965798 -1.1927291404 1.1695747813
O 2.1269517614 -1.2261136353 1.2191931948
C -1.1990471811 -1.0797765887 0.1181460899
C -2.2062674003 -1.0768020416 1.2525591476
O -2.8322028992 0.2018015800 1.2352223458
H 1.2892195890 1.5638838852 0.1329482898
H -0.1136585773 1.6118656016 -0.9630067446
H -0.3553484712 1.7776958802 0.7855704105
H 0.0821515753 -3.0827068138 -0.1663524565
H 0.3602230648 -1.2324801469 2.1906512833
H 2.4035023582 -1.1969206100 0.2906320341
H -1.6968746522 -1.0082750342 -0.8515007149
H -2.9386854673 -1.8823395191 1.0857432800
H -1.7322381292 -1.2689923050 2.2252365433
H -3.5170450622 0.2122323457 1.9105326947