19

C -0.0660637984 1.5803472789 -0.0609796122
C 0.0572175545 0.0750455803 0.0826388139
N 1.0851216728 -0.5860446633 -0.7637931764
C 1.3624079526 -1.5678091277 0.3025278727
C 2.8254440755 -1.9962496898 0.4538096921
C 3.2853382098 -2.7493949144 -0.7100949560
N 3.6182257317 -3.3452824713 -1.6428142915
C 0.7792579817 -0.5411847463 1.3218769367
O 1.7291043423 0.2853471832 1.9486142995
H 0.8942395483 2.0820582458 0.0888793537
H -0.4212244459 1.8395966005 -1.0636997527
H -0.7798641128 1.9806301247 0.6660085875
H -0.9362223664 -0.3898916851 -0.0174742686
H 0.7752893484 -0.9615579324 -1.6541418195
H 0.7258896027 -2.4639790550 0.2562851447
H 3.4618139500 -1.1167087566 0.5853221646
H 2.9404769720 -2.6164295995 1.3500550643
H 0.1506064685 -0.9442001364 2.1166213713
H 2.2105804427 0.7590452345 1.2605834858