15

C -0.0283774627 1.3899210864 -0.3216366568
O 1.1592306684 1.6883173239 0.4386067537
C 1.4337924740 0.2886391504 0.6458531238
C 0.0705608701 -0.1117392610 0.0349317995
N -0.9170278911 -0.5994113030 0.9723715920
C -1.3336626735 -0.1113402486 2.1571873178
N -2.2580313791 -0.9063105299 2.6489644948
N -2.4039293873 -1.9037073097 1.7354879630
N -1.6125937346 -1.7356421122 0.7311026303
H -0.9135627318 1.9138565185 0.0538396696
H 0.0976967195 1.6028232882 -1.3898445022
H 2.2990725692 -0.0552101838 0.0667617568
H 1.5773298221 0.0377532497 1.7020241732
H 0.0836227304 -0.8198275081 -0.7908097288
H -0.9532710537 0.7906777993 2.6084242632