25

C -0.4092522891 1.4723902888 0.3969767779
C 0.0318443580 0.0609068735 0.0468363048
O 0.6476154465 -0.5123005439 1.1797892713
C 1.1096256411 -1.8301823966 0.9566416226
C 1.8035380851 -2.3085891992 2.2041848305
C 1.0202041824 -2.9279776051 3.3364945643
C 1.9797894458 -3.7743274787 2.5343983105
C 1.4874297721 -4.9077347744 1.6545375615
C 1.3314739888 -6.2199617450 2.4325589190
H 0.4508819317 2.0794423198 0.6935040766
H -0.8911651046 1.9476445273 -0.4627590943
H -1.1188621385 1.4565561060 1.2290864105
H -0.8343311796 -0.5474618077 -0.2674470948
H 0.7349177034 0.0754977995 -0.8043385181
H 0.2653110557 -2.4883883467 0.6942841710
H 1.8044054838 -1.8442117556 0.0980748572
H 2.6273497743 -1.6617255153 2.4935876634
H 1.2711792865 -2.6578466089 4.3562147553
H -0.0413869059 -3.0873099730 3.1693079319
H 2.9191793234 -4.0053509507 3.0333033853
H 0.5259137306 -4.6428756959 1.2005760178
H 2.1872538606 -5.0599803189 0.8219124844
H 0.9842408538 -7.0290801249 1.7823495703
H 2.2846076201 -6.5323909541 2.8735441427
H 0.6107759039 -6.1085403406 3.2493685786