18

C -0.0425912976 1.5504387483 0.2604356485
C -0.0296682572 0.0499888037 -0.0163531205
O 0.7843505170 -0.6634047652 0.9108766944
C -1.4329892149 -0.5321117036 -0.0466175508
C -2.1377110089 -1.0278950193 1.2030683839
C -1.7951167684 -1.9964115737 0.1061074614
O -2.8111264022 -2.2379826889 -0.8623699304
C -3.0236411378 -1.0323868877 -1.4472736537
N -2.3153451943 -0.0380358395 -1.0885879435
H 0.9748187182 1.9510520198 0.2381605835
H -0.6490719594 2.0690276814 -0.4858127050
H -0.4799023819 1.7554180605 1.2459980996
H 0.4238109754 -0.1293529869 -0.9990777181
H 0.6939195775 -0.2365689808 1.7690185034
H -1.5328019675 -1.1275146142 2.0969765929
H -3.1734100782 -0.7473605324 1.3620656226
H -1.1204166988 -2.8300015954 0.2425820878
H -3.8034347712 -1.0216114862 -2.1990989264