13

N 0.0283435606 1.3361677844 0.2337154403
C -0.0424708986 0.0043027351 -0.0216178984
N -1.1779921461 -0.5845307356 -0.1835177105
O -1.1394192049 -1.9636116225 -0.5166061271
C 0.0098885149 -2.6767922211 -0.6629480717
N 0.0394670522 -3.9000197558 -0.9761304961
N 1.1955233431 -1.9854280085 -0.4364412596
C 1.2934540034 -0.6687609516 -0.1055359735
O 2.3347975199 -0.0867943923 0.1156257330
H 0.9189602969 1.6638995782 0.5744976164
H -0.8087042867 1.8168877627 0.5185002301
H -0.9015008471 -4.2656863347 -1.1031394951
H 2.0445357124 -2.5290154284 -0.5204657477