19

C -0.0227997150 1.6175232342 -0.0731655967
C 0.0216357478 0.0849972202 0.0461517773
C 0.7651352744 -0.5177147052 -1.1635075080
O 0.4490177025 -0.3579976143 -2.3136003774
C 1.9775077698 -1.3096877531 -0.6631925000
C 2.2047943663 -0.8029131447 0.7708985625
C 0.7993571389 -0.4450688832 1.2449686717
C 0.4543342874 -0.1832709042 2.6423741720
O 0.1389249461 -1.4431390333 2.0408366539
H 0.9812601048 2.0529897588 -0.0308034233
H -0.4704868935 1.8969917561 -1.0301602779
H -0.6149008365 2.0563837681 0.7345190702
H -1.0001205403 -0.3078891923 0.0640816327
H 1.6931883807 -2.3700398245 -0.6560094130
H 2.8253392623 -1.2027633149 -1.3424683447
H 2.6657110549 -1.5374628604 1.4339225855
H 2.8375106612 0.0926301622 0.7627529068
H 1.2326498843 -0.2101309458 3.4050344715
H -0.4012923961 0.4467341862 2.8832601070