23

C 0.1460596569 -0.0599697659 1.2393625390
C 1.5081603299 -0.5215611445 0.6989511066
C 2.5482928070 0.6054313218 0.8110828791
O 1.9714414049 -1.6555866261 1.4461084956
C 1.3872224413 -0.9471521394 -0.7597671809
C 2.2670290421 -2.0196861456 -1.3733961281
C 0.7686859315 -2.2150370101 -1.2803087004
C 0.1751189658 -3.2994031043 -0.4105004561
O 0.0378324017 -1.9863313048 -2.4666991367
H -0.2515174470 0.7698886960 0.6467661564
H -0.5749341905 -0.8801415744 1.2095246056
H 0.2365590773 0.2857407840 2.2765385054
H 2.6743666556 0.9092813086 1.8573343747
H 3.5152963829 0.2653662551 0.4314236637
H 2.2417653356 1.4898412240 0.2434229092
H 2.0384283840 -1.3870548763 2.3680127527
H 1.1861364228 -0.1024490420 -1.4125802125
H 2.6903998872 -1.8300400022 -2.3537261100
H 2.8898604774 -2.5884321173 -0.6922452427
H 0.7208766552 -3.3963630238 0.5275243465
H -0.8746381324 -3.0780827826 -0.1895696256
H 0.2068044751 -4.2627667593 -0.9364314442
H 0.0884566755 -2.7908827708 -2.9953498673