21

C -0.0403860928 1.4585127016 -0.0082871509
C 0.0025203717 -0.0725233688 0.0051167866
C -1.4012584507 -0.6379144681 0.2189698785
C 0.8457206316 -0.6256918480 -1.1512593001
C 2.1305203116 -0.5162640214 -0.3505886257
C 1.1810446216 -0.5783117611 0.9143637826
C 1.1817534578 -2.1301629394 0.7932763243
C 1.5634603464 -1.8856538484 -0.6633140821
O 1.9716943179 -2.8099540162 -1.6027157405
H 0.9581604758 1.8860520199 -0.1403730989
H -0.6751732932 1.8289881747 -0.8212347260
H -0.4524687901 1.8418100603 0.9326089777
H -2.0882003775 -0.2431929116 -0.5386936583
H -1.4293822240 -1.7271269892 0.1464945389
H -1.7978005163 -0.3502843082 1.2001274373
H 0.7229142929 -0.4643976835 -2.2160445104
H 3.0783522135 -0.0432513319 -0.5602387064
H 1.3740398106 -0.1022695141 1.8746493616
H 2.0241576912 -2.5598060586 1.3469993371
H 0.2683326266 -2.6815813791 1.0381486075
H 2.7776678856 -3.2291237889 -1.2811575828