22

C -0.1251495959 1.5557824976 -0.0676298148
C 0.1140060425 0.0463963993 -0.0542204640
C 1.0431860121 -0.4822777684 -1.1666692524
C 1.3696660421 -1.9197841209 -0.7185610246
C 1.4900905818 -1.8379663990 0.8147703413
C 2.8173121574 -1.2371123372 1.3621052884
C 2.0820532242 0.0829033490 1.7246070517
C 0.7318101170 -0.5275347655 1.2364952030
H 0.8098940738 2.1145440015 0.0457407428
H -0.5836145167 1.8724340627 -1.0107178992
H -0.7945437100 1.8604063170 0.7443400769
H -0.8592151209 -0.4505018438 -0.1824825910
H 0.5846648667 -0.4356492453 -2.1593033820
H 1.9574662895 0.1244632383 -1.2097198156
H 0.5401391232 -2.5839280536 -0.9900324208
H 2.2719403969 -2.3244978345 -1.1894037504
H 1.1832716739 -2.7658833494 1.3023485383
H 3.2238746160 -1.7720197282 2.2241174385
H 3.6164281221 -1.1397945092 0.6203062213
H 2.1018895611 0.3417543365 2.7860013514
H 2.4202980691 0.9589686451 1.1645468649
H -0.0106591659 -0.6301489621 2.0317618964