16

C -0.0474847539 1.5877307305 0.0632438540
C 0.0032086850 0.0552096887 -0.0133283976
N 0.8486812917 -0.4232058076 -1.1258745726
C 1.8002053358 -1.2728101476 -0.6281220266
C 1.8497118908 -1.3249851819 0.7266037554
C 0.7750495157 -0.5036823548 1.2539559982
O 0.4782935275 -0.2130134600 2.3894510646
C -1.3287210713 -0.5314221859 -0.0952969741
C -2.4295043676 -1.0073482022 -0.1776468426
H 0.9679978151 1.9920465412 0.0443772178
H -0.6143006945 2.0053033063 -0.7725376913
H -0.5250203116 1.8729593943 1.0034448539
H 0.4030523598 -0.6368331090 -2.0058048978
H 2.4425726838 -1.7954449205 -1.3273587609
H 2.5727914272 -1.8544385957 1.3264085419
H -3.4016749636 -1.4318995955 -0.2308632123