20

C -0.0803034426 1.5251711099 0.0590579643
C 0.1081833914 0.0415873450 0.0027965399
N -0.8327534952 -0.8838805682 0.6920589751
C 0.6259782569 -0.9523060678 0.9912723341
C 1.2994892940 -1.7856777537 -0.1213843880
C 0.4674479282 -2.9237398888 -0.7732206677
C -0.1057510325 -1.9048170594 -1.8244172031
O -1.4914161778 -1.7412882807 -1.9067431000
C 0.7440681485 -0.7604551563 -1.1624168302
H 0.8304163005 2.0482814040 -0.2508646551
H -0.8907591022 1.8432880931 -0.6072127904
H -0.3278822559 1.8546715609 1.0747012162
H -1.2688194119 -0.3602443193 1.4500060179
H 0.9582477208 -0.8203354534 2.0151264056
H 2.3713522941 -1.9307985822 0.0085122244
H 1.0794438333 -3.7129798034 -1.2174373814
H -0.2922401677 -3.3778727811 -0.1342299899
H 0.2427695755 -2.1244291043 -2.8379019784
H -1.7698223814 -1.5670549501 -0.9938649852
H 1.4049618741 -0.1738882743 -1.8018413782