18

C -0.1853865514 1.4411507509 0.1782637537
N -0.1053795454 -0.0130707037 0.2340993673
C -1.1181373444 -0.6953215336 -0.0274487310
O -2.4037083051 -0.3389693370 -0.3833964336
C -2.8026530305 -1.7433901580 -0.5097663011
C -1.3941140655 -2.1970608766 -0.0787000832
C -0.5352087927 -2.9885107574 -1.0653158308
C -1.3261643740 -2.8105884045 1.3110069163
O -2.2822838053 -3.1191583171 1.9725967707
H 0.5818662877 1.8135387835 -0.5087563648
H -1.1618508358 1.8231886373 -0.1401304105
H 0.0462739566 1.8487787461 1.1682333363
H -3.6031821908 -1.9924634932 0.1875883790
H -3.0824939071 -1.9757873161 -1.5397575652
H -0.5376949331 -2.5104202351 -2.0484186343
H 0.5008717018 -3.0300025975 -0.7165326718
H -0.9053164820 -4.0128796772 -1.1759422088
H -0.2886340130 -2.9508077108 1.6838649718