18

O -0.0056684544 -0.0622326695 -0.1935787138
C -0.0210953431 1.1328900277 -0.0497056679
C -1.3130622073 1.9537222263 0.0232516136
N -1.6446617039 2.2212952394 1.4258845950
C -0.8394508641 3.2270996171 2.1178586995
C 0.5671036968 2.7069928775 2.4665035154
C 1.5201881692 2.7377090228 1.2856758851
O 2.2493022624 1.5374953271 0.9768135060
C 1.2458201923 1.9627992402 0.0696137495
H -1.1921479005 2.8764386613 -0.5780573928
H -2.1133495824 1.3503783340 -0.4115627279
H -2.6231559130 2.4744113938 1.4830423192
H -0.7516810306 4.1727542194 1.5482295806
H -1.3645297889 3.4648619642 3.0482850510
H 0.9860109239 3.3048344122 3.2826276131
H 0.4790477256 1.6763292991 2.8239192557
H 2.1101791695 3.6478128801 1.1729279227
H 1.6076182485 2.3403392274 -0.8911014839