19

C -0.0162085413 1.4799798542 0.0422525646
C -0.0002285538 -0.0116974283 -0.0168862763
C -0.0225804936 -0.7830701655 -1.1168818663
C 0.0044043009 -2.2148486348 -0.7585449365
O -0.0058929338 -3.1729309751 -1.5040003029
C 0.0478385278 -2.2752223355 0.7473364812
C -0.6676687757 -3.4255026009 1.4258238916
C 0.8269522815 -3.4082780406 1.3833995261
C 0.0456403779 -0.8409593301 1.2524161177
H 0.8715928715 1.8579329390 0.5646890552
H -0.0476104849 1.9275204366 -0.9538513071
H -0.8842758842 1.8371433038 0.6105198210
H -0.0558217791 -0.4382120352 -2.1428618307
H -1.1634504154 -3.2175598382 2.3681013591
H -1.1816888403 -4.1184743189 0.7681828174
H 1.3186701081 -4.0896598961 0.6972135063
H 1.3704555427 -3.1883543292 2.2961778710
H 0.9386085495 -0.5926993414 1.8418014218
H -0.8176708579 -0.6130681940 1.8920699568