17

C 0.1072075934 1.5742586515 -0.0639057580
C 0.0830647534 0.0554899102 0.0180089941
C 0.9834976937 -0.7728297290 -0.9452915209
C 1.2909421494 -1.7395080085 0.2326962078
O 2.6034380809 -2.1901035208 0.4303843544
C 0.7763784672 -0.6419967712 1.2194237570
O 1.8643693479 0.1477819801 1.6884361253
H 1.1249801934 1.9550313012 0.0529804547
H -0.2780658556 1.9133616823 -1.0315202737
H -0.5100351069 2.0268838357 0.7196027667
H -0.9496168039 -0.3061671020 -0.0375499290
H 0.5279004837 -1.1926922893 -1.8449586085
H 1.8806332949 -0.2150048642 -1.2326845686
H 0.6459769414 -2.6225521105 0.2233306755
H 3.1263583043 -1.3928719396 0.5862053713
H 0.1393720653 -0.9567654717 2.0550576511
H 2.2425045775 -0.3080352540 2.4472373607