17

C -0.1426506377 1.5639011146 0.4699322104
C 0.1182717972 0.1126434898 0.1360918309
O 1.2245010183 -0.3344086267 -0.0400640963
C -1.1367201789 -0.7990064524 0.0105991024
C -0.7859956210 -2.1851502601 -0.5788010788
C -0.4378845674 -2.1272820600 -2.0528768683
O -0.8927790791 -2.8759493062 -2.8788321218
C -1.7644248691 -0.9211736568 1.3227999704
C -2.2495712474 -1.0311583847 2.4171492031
H 0.8004290058 2.0749071999 0.6649585303
H -0.6464169047 2.0459637319 -0.3767505887
H -0.8100997982 1.6479701783 1.3318437877
H -1.8426008050 -0.2815973487 -0.6563721040
H 0.0898553043 -2.5669609047 -0.0414305610
H -1.6149600229 -2.8822157594 -0.4444819342
H 0.2908327615 -1.3363704228 -2.3339709627
H -2.6913539357 -1.1310822722 3.3779899206