20

C -0.0364252582 1.5094874775 0.0454813416
C -0.0461408397 0.0129175604 -0.1107752354
C 0.8633864623 -0.6794177347 -1.0638010646
C 0.4355932716 -1.9294957831 -1.2753003619
C -0.7390729849 -2.2163393627 -0.3681215070
C -1.6747570996 -3.3471090296 -0.7364017248
C -0.1288597838 -2.1612017595 1.0849791792
N -0.3971024329 -0.7046232164 1.2149728912
C -1.2773386512 -0.7975903124 0.0064751515
H 0.9369893438 1.8590047664 0.4058600067
H -0.2400855606 2.0008072666 -0.9122240902
H -0.7922946341 1.8240635446 0.7689642125
H 1.7612039470 -0.2223138548 -1.4617098330
H 0.9434545665 -2.7007231615 -1.8435130459
H -1.1318356952 -4.2956579276 -0.8163579176
H -2.4590203787 -3.4749792407 0.0172237308
H -2.1607064731 -3.1610832729 -1.7004205275
H -0.7716645982 -2.6741029825 1.8064949046
H 0.9117026807 -2.4769195963 1.2160618778
H -2.3021615818 -0.4348233405 -0.0154473980