25

C 0.2893828255 1.4709468404 0.0253787064
C -0.0601046590 -0.0214836967 0.0244190508
C -1.5682195905 -0.3885291212 0.0979102966
C -2.1864134266 0.1426469799 1.4057700256
C -2.3190048217 0.1889317442 -1.1177041051
C -1.6296497633 -1.9344655236 0.0735944983
C -2.9852237190 -2.6297282906 0.1587212103
C -2.9244052608 -4.1496020375 0.2214495902
O -4.0476422895 -2.0489491562 0.1781624798
H 1.3747555237 1.6027886276 -0.0288061743
H -0.1453924720 1.9954248912 -0.8306027869
H -0.0540635018 1.9725614070 0.9348703141
H 0.3608328022 -0.4789904119 -0.8815325697
H 0.4530281630 -0.5013448506 0.8692554340
H -2.1447015093 1.2349994175 1.4463580766
H -3.2328706391 -0.1556183596 1.4871906661
H -1.6483149889 -0.2421817416 2.2805947492
H -1.8690355664 -0.1549535366 -2.0570069737
H -3.3657464501 -0.1178783678 -1.1051770669
H -2.2875192362 1.2823988088 -1.1167642723
H -1.1499441818 -2.3072943411 -0.8441945622
H -1.0135838054 -2.3430019370 0.8882869644
H -2.4355218295 -4.4674342624 1.1496492411
H -3.9342755673 -4.5597733218 0.1861085636
H -2.3286210462 -4.5525709103 -0.6045635260