20

C 0.0835945126 1.5963542155 -0.0187791850
C 0.0069505078 0.0645262655 0.0131091022
C 0.6290340383 -0.5454250815 -1.2476574920
N 0.7700138858 -1.9945906351 -1.1593256840
C 0.8591115838 -2.7286468713 -2.4084915192
C 1.2510586633 -2.5832922773 -0.0100037506
O 1.6163170163 -3.7488549073 0.0403758845
C 1.2550886707 -1.7186300407 1.1992133924
C 0.6712167624 -0.5207432670 1.2323096170
H 1.1239705907 1.9379943426 -0.0418952148
H -0.4242046998 1.9983161300 -0.9013179776
H -0.3919101552 2.0285300118 0.8669806576
H -1.0559327035 -0.2229841904 0.0457110091
H 0.0018524567 -0.3195929786 -2.1164355681
H 1.6099681365 -0.0736017622 -1.4313410422
H 1.7148367125 -2.3965378177 -3.0141733735
H 0.9860224590 -3.7844742098 -2.1737019829
H -0.0537175775 -2.5855858347 -2.9970076009
H 1.7143666787 -2.1732412815 2.0693293092
H 0.6333126808 0.0531180497 2.1559643887