19

O -0.0474112734 1.4023755909 -0.0378816486
C 0.0125742726 0.0001158832 -0.0838417488
C 0.5996757042 -0.6309077381 -1.3159352535
C 0.0919247506 -1.8632840571 -1.4176236033
C -0.7411437038 -2.1260413476 -0.1768535654
C 0.3078935097 -2.1909273856 1.0083029686
C 0.3137903110 -0.6969473925 1.3447170024
C -1.1910579935 -0.4680559655 1.6539800366
C -1.3482683202 -0.7175161469 0.1394059730
H 0.8228515904 1.7326805967 0.2064877547
H 1.3194460915 -0.1490177135 -1.9662856216
H 0.3388509876 -2.6148007004 -2.1579234531
H -1.4344259304 -2.9652468697 -0.2254601471
H -0.0476640511 -2.7860440774 1.8553023606
H 1.2679170423 -2.5933360271 0.6779910352
H 1.1072728668 -0.3126039716 1.9877164769
H -1.6732176127 -1.1537576501 2.3559979347
H -1.4173355582 0.5669536786 1.9095963062
H -2.2265113137 -0.4190663962 -0.4350284674