14

O -0.1276210883 1.4237470605 0.0127964254
C 0.0365493860 0.0650186777 -0.0236182824
C 0.0815770399 -0.9980761683 1.0517412233
C -1.0198827129 -0.9958422135 -0.0413840163
C -0.2784057904 -1.8690531824 -1.0904520691
O 0.4070270583 -2.9251341156 -0.3825518478
C 1.1211832978 -1.8635091733 0.2909265649
C 0.9218188896 -0.8799165939 -0.9113517279
H 0.6369316522 1.8137804322 0.4517311831
H -0.1618665835 -0.9522476581 2.1043400259
H -2.0702186826 -0.9320492662 0.2058076888
H -0.7563362008 -2.1828535557 -2.0165881165
H 2.0559714411 -2.1751539757 0.7540034412
H 1.6639609235 -0.6342014777 -1.6664290326