16

O 0.2049898270 -0.2058665314 -0.3788892860
C 0.0966157904 0.9804157441 -0.2174968551
C 1.2633808020 1.9472506894 -0.0465448369
C 1.2942270420 2.9410577208 -1.1656516701
C 0.9776398301 4.2428496779 -1.1141748061
N 1.0911676261 4.8525866606 -2.3690861751
C 1.5054121811 3.9515224412 -3.3390101098
O 1.6968038516 4.2007799479 -4.5043738855
C 1.6593146872 2.6124838723 -2.5962928003
H -0.9003593757 1.4788375020 -0.2088459286
H 1.1240527215 2.4721528833 0.9077665636
H 2.1848300002 1.3577694984 0.0096075782
H 0.6711596560 4.8317395373 -0.2604915217
H 0.9284878218 5.8256209951 -2.5675548715
H 2.6864128393 2.2462776378 -2.7105032738
H 1.0099377295 1.8591902933 -3.0576671715