12

C -0.0353068962 1.3499998868 0.0505154046
O 0.0254700371 -0.0850322221 -0.0331977122
C 0.6414938786 -0.5637349443 -1.1148176542
O 1.1342877568 0.0847057560 -1.9981626563
C 0.6471812075 -2.0542479471 -1.1024372610
N 0.1318318512 -2.8203362213 -0.1801128168
O 0.3762902130 -4.0684457665 -0.5933534848
N 1.0727612148 -4.0106448662 -1.8251643186
N 1.2246283652 -2.8034560014 -2.1115988039
H 0.9721956687 1.7712044968 0.0739990200
H -0.5734042039 1.7573641550 -0.8082367577
H -0.5657774727 1.5646969043 0.9767452009