21

O 0.3449736140 1.0091449127 -0.7804288272
C 0.0199229700 -0.1432234659 -0.0380871223
C 0.0975910915 -0.0758919060 1.5131095721
C -1.3432418505 -0.6740497564 1.6066766313
O -1.4067862259 -1.9975097899 2.0951807538
C -2.4158084765 0.2651967055 2.1794172508
C -2.6615626262 1.2973784733 1.0643672550
C -2.5360680245 0.4767961574 -0.2408916782
C -1.4750803270 -0.5959210436 0.0496349021
H -0.1114199692 1.7617424371 -0.3902244026
H 0.6521977768 -0.9333691876 -0.4494802745
H 0.8735827814 -0.6916826644 1.9743815430
H 0.1867467429 0.9464038214 1.8973438902
H -1.2180521722 -1.9757737716 3.0396694618
H -3.3217412640 -0.3281460220 2.3510484888
H -2.1247388721 0.7201359314 3.1331727684
H -3.6276041791 1.8012225295 1.1569367203
H -1.8978951124 2.0858047371 1.1044249885
H -3.4924892149 -0.0088431160 -0.4610569376
H -2.2796449108 1.0899992152 -1.1102599355
H -1.6822731413 -1.5452218271 -0.4465913581