21

C -0.3760850421 1.4880728122 0.1864645335
C 0.0605048063 0.0471449778 -0.0325776121
C -1.0734245358 -1.0081748223 0.1882833883
C -0.3747272843 -1.5007447000 1.4845174798
C 0.8642192620 -0.6206170094 1.1620443133
C 2.0595331528 -1.3523446836 0.5396569766
C 1.8296137050 -1.3387697670 -0.9776634170
O 2.3081746497 -2.1078137332 -1.7698552069
C 0.8869969207 -0.1757906568 -1.3020863033
H 0.4865983523 2.1639873532 0.2157193013
H -1.0400114308 1.8281326426 -0.6169482750
H -0.9186659475 1.5985153205 1.1320906057
H -2.0761190091 -0.5914073047 0.3137646559
H -1.1199120990 -1.7646289707 -0.6005449153
H -0.8900292876 -1.1919639197 2.3971741833
H -0.1865118140 -2.5759012213 1.5505084882
H 1.1668911623 0.0570825221 1.9634317629
H 2.9974410198 -0.8123239055 0.7250154351
H 2.2077854047 -2.3750963969 0.8966742867
H 0.3001055668 -0.3852277641 -2.2002279638
H 1.5153646377 0.7005302768 -1.5191231372