17

C -0.1712897970 1.3853117711 -0.2276139736
N -0.0790987778 -0.0547995675 -0.0489979193
C -1.3329159705 -0.6734092264 0.3158616264
C -1.2677874103 -2.1660521661 0.0873947901
O -0.5003662762 -2.7283990994 -0.6467179060
O -2.2318680643 -2.8048439597 0.8054074228
C -2.3229124191 -4.2161971403 0.5943282796
C -3.2122432476 -4.5337838574 -0.5283229379
N -3.9211212263 -4.7933697941 -1.4019907998
H 0.7961018801 1.7723446788 -0.5583726706
H -0.9395039775 1.7021668097 -0.9564470765
H -0.4098281277 1.8633759440 0.7296243768
H 0.2791840818 -0.5086808705 -0.8820335584
H -1.5784346597 -0.4794891357 1.3667455933
H -2.2056407940 -0.3153474298 -0.2696743830
H -1.3321185676 -4.6346913148 0.4005187673
H -2.7319095465 -4.6362650720 1.5154752489