19

O -0.1353731768 1.3537577904 -0.0690858339
C -0.0228294526 -0.0316059901 0.0104537787
C 0.4378795625 -0.7788100498 1.2983215323
C -0.3928929766 -1.9182616630 0.6925556455
C -1.3566833397 -0.8866072789 0.0319195688
C -1.4421115886 -1.7474022984 -1.2375795652
C 0.0143351927 -2.1252253379 -0.8438942094
O 0.6806491129 -3.2459376266 -1.3260067098
C 0.7510468474 -0.7995617799 -1.0869579042
H 0.7500326188 1.7286499448 -0.1313753811
H 1.5118867173 -0.9124295150 1.4653732938
H -0.0377928067 -0.3747184592 2.1968019433
H -0.7437671082 -2.7891711004 1.2453646711
H -2.2133624078 -0.4573642517 0.5467777967
H -2.1436225269 -2.5771933015 -1.0944971135
H -1.6079172919 -1.2835611661 -2.2147994460
H 0.1290978431 -4.0185245039 -1.1646976322
H 0.5864990513 -0.4065614905 -2.0937205010
H 1.8253069598 -0.8629500824 -0.8900435639