16

C 0.1218889538 1.5604776870 -0.1774517873
C 0.1059466809 0.0609198437 0.0320065757
N 1.0493247301 -0.7131074555 -0.8102788986
C 1.3552114231 -1.6364157316 0.2945256933
C 2.7485173495 -2.0651631894 0.4009868225
N 3.8400060414 -2.4336227802 0.4845657569
C 0.7939713811 -0.5668201253 1.2989127849
C 1.7848370410 0.2741377720 1.9462183242
N 2.5500209722 0.9601689086 2.4747687322
H 1.1362413748 1.9557627523 -0.0884547620
H -0.2560412605 1.8003644558 -1.1766064354
H -0.5196150525 2.0613191908 0.5547929315
H -0.9246943141 -0.3210448421 -0.0174531194
H 0.6720144711 -1.1415744612 -1.6486024109
H 0.7198125337 -2.5328413184 0.3352856558
H 0.1155453445 -0.9709636365 2.0509545067