15

C 0.0795213895 1.5400359336 -0.0920257479
C 0.0580222811 0.0858301063 -0.0278184075
C 0.0438694323 -1.1178760250 0.0216291168
C 0.0096915781 -2.5624301871 0.0971181269
C 0.0529568346 -3.2470375294 1.4933412783
O -1.1021037629 -4.0471212399 1.1812079016
C -1.3591844945 -3.2925730197 -0.0172466270
H 0.9068363111 1.8999256350 -0.7136145090
H -0.8502232461 1.9326957289 -0.5185235389
H 0.1974269576 1.9806034992 0.9041906437
H 0.7478296826 -3.0027912588 -0.5796351308
H 0.9347220432 -3.8586043385 1.7126184731
H -0.1324225987 -2.5566056024 2.3256245213
H -2.2224540241 -2.6239576502 0.0898706298
H -1.4997630538 -3.9371132620 -0.8915534405