16

C -0.4227669472 1.0975927813 -0.4625559054
O 0.5697225875 1.5393478673 0.4687500984
C 0.4026400033 0.1293310657 0.2703728983
C -0.1423307389 -0.6118461528 1.4318958553
N -1.3231402348 -0.1548761900 2.2324853631
C -0.9223745913 -1.4295413285 2.9141734766
C -0.5623255946 -2.1134998725 1.5636755336
O 0.7482907427 -2.5741620092 1.9958294794
C 0.6098579656 -1.2780109369 2.6460040102
H -1.4532807567 1.2497264529 -0.1499949583
H -0.2036784798 1.3014425781 -1.5093565324
H 1.2289386306 -0.3623481239 -0.2430423462
H -1.0609691328 0.6533361416 2.8013078098
H -1.4391418429 -1.8450335430 3.7785752229
H -1.1596906944 -2.7393565877 0.9027017131
H 1.4212253638 -0.9088723822 3.2745920815