16

C 0.0008387495 1.5266241308 0.1018443975
C 0.0305254064 0.0413558336 -0.0083057786
C 0.0247155746 -0.7765253394 -1.1133329281
O -0.0162553311 -0.3035653999 -2.3993850142
C 0.0425933651 -2.1372837294 -0.6851386760
C 0.0686166190 -2.1152753984 0.6944983254
N 0.1514248539 -3.1328320022 1.6703449457
N 0.0558345169 -0.8073497107 1.0919503966
H 0.8627814660 1.9267696913 0.6526271754
H 0.0220659321 1.9584472688 -0.9013895305
H -0.9045921152 1.8958847741 0.6021734037
H 0.0287760765 -1.0537226618 -2.9976965079
H 0.0086862511 -3.0187945402 -1.3086919615
H 0.5315332707 -3.9809204475 1.2678056452
H -0.7576119055 -3.3644565789 2.0623454038
H 0.1875178698 -0.5195398001 2.0460930933