18

C -0.0853174437 1.5245711985 0.0115452966
C 0.0565481879 0.0060227451 -0.0139354086
C 1.0433100857 -0.5247545042 -1.0780952064
C 1.1767847027 -2.0233796303 -0.7367849202
C 1.8945848859 -1.3747652852 0.4602284318
O 2.3503449974 -0.3034872572 -0.4368311501
C 0.7956852696 -0.6211914853 1.2366583397
O 1.3444449412 0.3165337908 2.1336382110
H 0.8918249735 2.0148544128 -0.0312023172
H -0.6681526850 1.8695464032 -0.8488650485
H -0.5868650650 1.8606002928 0.9226012479
H -0.9289551820 -0.4536993462 -0.1441683488
H 0.9852218357 -0.1371395457 -2.0956336869
H 0.2705435871 -2.6094276815 -0.5629032334
H 1.8718166962 -2.5437310915 -1.3964311013
H 2.6927139016 -1.8479450578 1.0322388493
H 0.1507588969 -1.2746822571 1.8291610414
H 2.0262215444 0.7889286587 1.6384998337