19

O -0.1876081778 -0.0681841899 0.0260569376
C -0.0858537967 1.1286901084 -0.0447464055
C 1.2199901736 1.8924942850 -0.0450426992
C 1.3573419106 2.8151002815 -1.2636224156
C 2.6171216375 3.7137674290 -1.2232635703
C 2.7841020981 4.2025316022 -2.6683639042
C 2.2047895820 3.0768835073 -3.5364072714
O 2.3025804687 2.9870449201 -4.7314694138
C 1.4774657123 2.0892093292 -2.6157985058
H -0.9919405342 1.7767571060 -0.1201171117
H 1.2401779776 2.5049144611 0.8688951237
H 2.0457416907 1.1756307438 0.0081079671
H 0.4759554407 3.4715122403 -1.3022295263
H 2.5243787428 4.5249392871 -0.4962717045
H 3.4838578176 3.1097196832 -0.9273795532
H 2.1831367708 5.1016734806 -2.8580068412
H 3.8088191309 4.4368474084 -2.9656038815
H 2.1146744845 1.1983945714 -2.5200292566
H 0.5348169004 1.7582007453 -3.0580346176