13

O -0.0071430813 -0.0050358977 0.0567500807
C -0.0218652672 1.1817108176 0.0550413741
C -1.0667244223 2.3116259841 -0.0124748415
C -1.2679531024 2.9061101935 1.3758281771
O -0.0036658804 3.1552832981 2.0256872590
C 1.1710185103 2.8835168542 1.3956707837
O 2.2200044045 3.0489906608 1.9421355566
C 0.9924866467 2.3452910825 -0.0254202355
O -0.0528338262 3.1203308901 -0.6736208376
H -1.9924598971 2.1973650996 -0.5797700822
H -1.7848948417 3.8675183476 1.3006769971
H -1.8455063990 2.2330912755 2.0176891045
H 1.9302993162 2.2865237341 -0.5743665962