20

C -0.1984500643 1.5100715247 0.0520136218
C -0.0581862998 -0.0150692970 0.0121038382
C 0.7770555421 -0.5575819214 1.1653393750
C 0.1953928237 -0.5092352122 2.6203720375
C 0.4229017417 -2.0272492497 2.7529724164
O -0.7583968280 -2.7926159608 2.3535977584
C -0.2842750674 -2.9198834813 1.0570411857
N -0.7723870999 -3.5250177574 0.0726860594
C 0.9665534803 -2.1093324773 1.3014801236
H 0.7793516900 2.0010968218 -0.0096561217
H -0.8061630440 1.8723476174 -0.7824673638
H -0.6772469096 1.8431414604 0.9794373321
H -1.0504620593 -0.4809250739 0.0268456347
H 0.4022354664 -0.3212624428 -0.9355357933
H 1.7662076339 -0.0883567392 1.1479812997
H 0.7797032830 0.0957035794 3.3173507254
H -0.8576008370 -0.2294644842 2.7045020552
H 0.8909936441 -2.4527754830 3.6397023954
H -1.6587593644 -3.9717644585 0.3153826241
H 1.9143093087 -2.5466712849 0.9945915663