17

C -0.2248924734 1.4816803535 0.3542959493
C -0.1185332134 -0.0272703910 0.1310824314
C 0.6970396862 -0.4029173659 -1.1282125389
N 2.0777899195 0.0800620018 -1.0639635078
C 2.5402082927 1.0844949057 -1.8575156824
O 1.8635686860 1.7388242043 -2.6218235614
C 0.6791011077 -1.8485937857 -1.3559132008
C 0.6689657189 -3.0416296374 -1.5004737644
H 0.7600868972 1.9316867056 0.5068973573
H -0.6864244080 1.9792967459 -0.5041576730
H -0.8324197574 1.6956296847 1.2384558979
H 0.3373856191 -0.5143942692 1.0016086778
H -1.1153238603 -0.4674093785 0.0180793489
H 0.2616521061 0.1109258167 -1.9929451835
H 2.7396248706 -0.4509765108 -0.5194838595
H 3.6263342031 1.2500702267 -1.7163226618
H 0.6524954853 -4.0927922365 -1.6518872290