19

C -0.5439459636 1.4284233537 -0.1525774742
C 0.0092237808 0.0314094433 0.0561473766
O 0.3336408989 -0.3691011289 1.1559146337
C 0.1354547318 -0.8091963624 -1.1733695866
C 1.1916012458 -1.9003127164 -1.2001483198
C -0.2459390801 -2.2976176083 -1.1492897758
C -0.8313794294 -2.9493230665 0.0601148043
C -2.2087036771 -3.4589964338 0.0559502283
O -1.1022375095 -4.3509986531 -0.0829958010
H 0.0981370337 1.9898889901 -0.8412690153
H -1.5361428836 1.3779506895 -0.6157817620
H -0.6063597141 1.9517017159 0.8018775360
H -0.0746764041 -0.2976192185 -2.1065960831
H 1.7469524110 -2.0434963447 -2.1196206897
H 1.7636071891 -2.0027244063 -0.2840276305
H -0.6847405448 -2.6542560602 -2.0769343050
H -0.3876389141 -2.6663766708 1.0105425561
H -2.7607688103 -3.5351144930 0.9917945054
H -2.8248387703 -3.3377656197 -0.8350946174