15

O -0.0476020429 0.0500476204 -0.0079232729
C -0.0718005650 1.2429100847 0.0157577796
C -1.2546207891 2.2226919438 0.0252262005
C -0.8287954117 3.2441265729 -1.0582430326
C 0.2149428365 3.5267876629 0.0448758795
O -0.7925571533 3.1655085256 1.0427322215
C 1.1245559519 2.2674798149 0.0415984021
C 1.9893672306 2.1391394350 1.1948930438
C 2.7073013981 2.0328998272 2.1525225353
H -2.2593897254 1.8306973475 0.1639805846
H -0.4962722909 2.8870170313 -2.0364972592
H -1.5572783622 4.0499163369 -1.1486549616
H 0.6825087659 4.4955929450 0.2087734325
H 1.6999571705 2.1670468819 -0.8865111018
H 3.3381632370 1.9349130699 3.0010232188