19

C -0.0896997841 1.6082258839 0.0060864904
C -0.0228094583 0.0919383070 -0.0904328457
C 0.7729284550 -0.5274674729 -1.2451417439
O 2.1558141528 -0.1531594497 -1.0592195504
C 1.6458655141 -1.2862713377 -0.3345795667
C 2.3657365937 -2.5881114520 -0.4741603078
O 1.4739685475 -3.6119277362 -0.0564587017
C 0.9501361076 -0.6865549929 0.8987749243
O 1.7630746586 0.0579872226 1.7642946869
H 0.8940683240 2.0565704321 -0.1578750359
H -0.7735577768 2.0190454257 -0.7440662444
H -0.4421256460 1.9192266272 0.9940116397
H -1.0232127169 -0.3498632472 -0.0365709306
H 0.4671074756 -0.7563049506 -2.2598547157
H 2.6824712427 -2.7113226960 -1.5208300355
H 3.2733023765 -2.5669560567 0.1492674816
H 1.9816813846 -4.4184280117 0.0696753265
H 0.4245142222 -1.4301554262 1.4997927327
H 2.3396839870 0.5896450912 1.2009787863