21

C 0.0932673487 1.1204432141 -1.0880088330
C -0.0481970210 0.0017196892 -0.0780498452
C 1.1403608054 -0.7514488882 0.3544657365
O 0.5952855034 0.2824755521 1.1849812207
C -1.4210906266 -0.6239900798 0.0341084142
C -1.9455788965 -1.2726007783 -1.2335976618
C -1.8097257953 -1.2488878498 1.3685979599
C -2.3983909134 0.0741890012 0.9577533324
O -2.0709936419 1.2612865069 1.6150942252
H 1.0961557906 1.5513607243 -1.0392067575
H -0.0801906055 0.7627576130 -2.1071295818
H -0.6358576681 1.9069036145 -0.8702197885
H 1.0231319083 -1.7631512688 0.7387328603
H 2.1144988170 -0.5231743496 -0.0749726226
H -1.2945055146 -2.0922875843 -1.5611622144
H -2.9416653270 -1.6928134879 -1.0644804426
H -2.0285490970 -0.5577718034 -2.0590025353
H -2.4344877447 -2.1360833592 1.3543746940
H -1.0722645909 -1.2220157515 2.1638065804
H -3.4411364207 0.1006046830 0.6556029957
H -1.1703509304 1.1749156522 1.9506720935