19

C -0.2204200562 1.5926412619 -0.1204858316
C 0.0129159683 0.0738577420 -0.0377171699
C -1.2987696369 -0.6796862571 0.2445035778
C 0.6976776956 -0.4512466307 -1.2838465605
N 1.9099497110 -1.0013255233 -1.1275892123
C 2.5106222168 -1.4627595965 -2.2258002529
N 2.0452073146 -1.4424479083 -3.4739608906
C 0.8351846589 -0.8916749593 -3.6192585015
C 0.1141477240 -0.3781608981 -2.5523026239
H 0.7167861232 2.1299771868 -0.2930050610
H -0.9110919099 1.8498642957 -0.9310557586
H -0.6556356842 1.9601463045 0.8142053361
H 0.7099035247 -0.1251879006 0.7822836380
H -2.0347262510 -0.5177875391 -0.5507144016
H -1.1276983733 -1.7567472427 0.3312360123
H -1.7421756152 -0.3295463135 1.1820072111
H 3.4939137484 -1.9064571934 -2.0837079497
H 0.4337192331 -0.8635784728 -4.6300606190
H -0.8647512218 0.0621253044 -2.7027302923