17

C 0.0857235348 1.5073203217 -0.0707808284
C -0.0856258563 0.0339421902 0.0440915154
C -1.1508205007 -0.8001595094 0.0706502596
C -2.6437009528 -0.9481775254 0.0397187376
C -2.7879177450 -2.4871676295 -0.2101887168
N -1.5217483100 -3.0783822297 0.2851624360
C -0.5636029360 -2.0852849670 0.2005922212
N 0.7412810447 -2.0839128753 0.2422485867
O 1.0545095107 -0.6968571964 0.1430712870
H 0.7212582767 1.7618358876 -0.9251704364
H -0.8840108417 1.9922810945 -0.1998110318
H 0.5622038733 1.9176750456 0.8259118121
H -3.0971354929 -0.6722144847 0.9992216565
H -3.1497778311 -0.3717705382 -0.7390026263
H -3.6434991055 -2.9161435231 0.3177623784
H -2.9199487441 -2.6765956936 -1.2849583214
H -1.2806364641 -3.9966104772 -0.0586646197