22

C 0.6077526132 0.2735882268 -1.4069667245
C 0.0735046451 0.0492200974 0.0101466339
O 0.1650837362 1.2437295295 0.7917464453
C -1.3522512097 -0.4696971377 -0.0325411393
C -1.7647325918 -1.8912196385 0.1539680415
C -0.8010931572 -2.8984212995 0.7699892018
C -0.3953617698 -2.2965537476 2.1408777354
C -1.3947288577 -1.1320819475 2.3853720648
N -2.1473815572 -0.8683275015 1.1424149396
H 1.6173241055 0.6903906846 -1.3651298666
H 0.6363447348 -0.6646436198 -1.9709208859
H -0.0302391895 0.9762314962 -1.9564774739
H 0.7338692960 -0.6541598792 0.5206906296
H -0.5053292523 1.8563126987 0.4685981375
H -1.9617246112 0.1110535146 -0.7300729458
H -2.5649144191 -2.2870268936 -0.4674027395
H -1.3255046657 -3.8503818482 0.8987260111
H 0.0662254627 -3.1015909669 0.1332636822
H -0.4517655200 -3.0439835580 2.9368335669
H 0.6362483427 -1.9366553401 2.1279837493
H -2.1321692008 -1.4085205662 3.1454742277
H -0.8970783342 -0.2172749433 2.7153702891