20

C -0.4743235611 1.3772891613 0.1655013513
C -0.0110165005 -0.0645792249 -0.0420395911
N 0.8680822990 -0.3779770656 -1.2153369572
C 0.9532066936 0.5375537000 -2.3333881513
C 2.0385390283 -0.5909718905 -0.3576044091
C 3.2004150543 -1.5160299704 -0.5825351966
C 3.4404801261 -0.0317789281 -0.4956876045
C 1.1739104796 -0.4691330354 0.8605193995
O 1.3405109136 -0.5948562650 2.0397929875
H 0.3640332052 2.0801498941 0.1699992455
H -1.1787033847 1.6849859946 -0.6133509083
H -0.9826069773 1.4531891532 1.1312681031
H -0.8693846653 -0.7452708088 0.0136966506
H 1.3045020838 1.5510045946 -2.0740783875
H 1.6369569402 0.1296865718 -3.0858489663
H -0.0292118163 0.6274871131 -2.8069204994
H 3.5002677304 -2.1426895477 0.2509199981
H 3.2677229850 -1.9834899244 -1.5594494635
H 3.6727991536 0.4970074018 -1.4139262063
H 3.9055612025 0.3746561662 0.3963565356