18

O -0.0824782017 1.4704004021 0.0815605018
C 0.0045545234 0.0521844172 -0.0146580142
C -1.4007221064 -0.4811586383 -0.0113278011
C -2.5549845226 -0.1951834082 -0.9672234475
N -3.2344788885 -1.1669481021 -0.0037984611
C -1.9006557931 -1.9586337986 0.1067342940
C -1.9947499890 -1.9337517885 1.6279548822
O -0.7698015348 -2.0914081366 2.3010120035
C -2.4313189243 -0.5338521529 1.1661605457
H 0.8114621764 1.8244822738 0.0772587004
H 0.5082243456 -0.2536373703 -0.9470445308
H 0.5593723023 -0.3831424364 0.8273347970
H -2.9941895686 0.8065960063 -0.9578373606
H -2.4862925648 -0.5781038187 -1.9916203955
H -1.6930857450 -2.7908752534 -0.5685155981
H -2.7960246460 -2.5530795977 2.0521088245
H -0.9146616399 -1.9178814453 3.2364192934
H -2.8432894333 0.3068563575 1.7268541866