18

C 0.2823071433 1.6136275264 0.0969623494
C 0.0282919244 0.1035637729 0.0211291066
C 0.6468740079 -0.6360479763 1.2261437372
C -1.4941392204 -0.2336949394 -0.0956311555
C -2.2870686179 0.2763122984 1.0898425337
O -2.5585246816 -0.3899951573 2.0563479439
C 0.6683940006 -0.4772237141 -1.2374291698
O 1.2892660340 0.1490146880 -2.0547516410
H 1.3540476396 1.8192302517 0.0422879788
H -0.1916208247 2.1385277705 -0.7372174791
H -0.0977071567 2.0323499758 1.0334627984
H 0.1442156471 -0.3564787099 2.1553241001
H 0.5547568532 -1.7220817294 1.1181679798
H 1.7090960704 -0.3911015490 1.3213219274
H -1.8926513583 0.2218821288 -1.0104727341
H -1.6268193488 -1.3190915911 -0.1502533359
H -2.6035392697 1.3410691058 1.0261835095
H 0.5148651977 -1.5768079718 -1.3499534391