19

C -0.1321453917 1.3921508074 0.5466641294
C -0.0426037486 -0.0219088719 -0.0237953754
C -1.4332782340 -0.5490387779 -0.3718680943
C 1.1121197622 -0.2911410593 -1.0021688494
O 2.1146956090 -0.0438432883 0.1084413389
C 1.0403207913 -0.9519546883 0.6636655387
C 0.6312157349 -2.2226093158 1.4294732717
O 0.2595785669 -2.7784994041 0.1049082709
C 1.1968952386 -1.8106332890 -0.5216970469
H 0.8490297337 1.7739329714 0.8272463961
H -0.5734012365 2.0717864616 -0.1911229176
H -0.7841284734 1.4059033939 1.4272108388
H -1.9466876786 0.1846463851 -1.0037481436
H -1.4199640384 -1.5070210996 -0.8880216365
H -2.0364051986 -0.6647691285 0.5358844689
H 1.3746390386 0.1820927608 -1.9535907982
H 1.4486564973 -2.7947688304 1.8805835865
H -0.2303887041 -2.1609084376 2.0998355596
H 2.1582948017 -2.2850422895 -0.7194448677