22

C -0.3942847829 1.8733074128 -0.7477498171
C -0.0779773488 0.5535331860 -0.0478610669
N -1.2752434666 -0.2755453382 0.0218240732
C -1.5206112055 -1.2453400314 -1.0364543863
C -1.1850898434 -1.6927959140 0.3487824751
C 0.1179694658 -2.4143832949 0.6231455829
C 0.6424187228 -2.2303793691 2.0462473939
C 1.8073707286 -3.1192902071 2.4464465709
O 0.1617855694 -1.4230407809 2.8072774280
H 0.4882590659 2.5201911958 -0.7711969162
H -0.7159977816 1.7013106224 -1.7803661879
H -1.1998290888 2.3979680269 -0.2268873871
H 0.7583402038 0.0589651446 -0.5732113188
H 0.2487449509 0.7372605601 0.9812069198
H -2.5378396731 -1.3042658480 -1.4158137520
H -0.7482349634 -1.3806032716 -1.7954612369
H -1.9975698602 -2.0253280938 0.9927274809
H -0.0079824885 -3.4897868698 0.4352991960
H 0.9124816152 -2.1005039407 -0.0651376982
H 1.4853971478 -4.1669187665 2.4732804201
H 2.6171442793 -3.0562469395 1.7111853453
H 2.1749425031 -2.8289404828 3.4312100212