27

C -0.3913119747 1.5693729208 0.2488229738
C -0.2668218357 0.0432737131 0.3465200715
C 0.8703160253 -0.4960078605 1.2528444087
C 2.2366091549 -0.0144479177 0.7464522060
C 0.6451140230 -0.1164527559 2.7373875263
C -0.4177256291 -1.1038226498 3.2727322875
C -0.3294997746 -2.3486238625 2.3474761138
C 0.8148547025 -2.0541202589 1.3503757323
C 0.7108008159 -2.8366968500 0.0408514681
H 0.5065247745 2.0275099737 -0.1766125532
H -1.2318872212 1.8398464424 -0.3984582891
H -0.5704921603 2.0340076077 1.2235464163
H -1.2263730078 -0.3625402089 0.6894101962
H -0.1203505515 -0.3530939085 -0.6653135366
H 2.3408462873 1.0720912430 0.8254456676
H 3.0468263959 -0.4629510026 1.3319336473
H 2.3959681579 -0.2826895241 -0.3042687944
H 1.5890047090 -0.2557474388 3.2784766383
H 0.3598347302 0.9300098175 2.8759567059
H -0.2375406158 -1.3539029733 4.3219447035
H -1.4175809129 -0.6610922715 3.2298619437
H -0.1424509901 -3.2718677329 2.9041423200
H -1.2716992968 -2.5015849569 1.8095168678
H 1.7564232515 -2.3494090785 1.8354600135
H -0.2376642671 -2.6476734796 -0.4721973714
H 1.5230498169 -2.5862209789 -0.6500156880
H 0.7664296731 -3.9136874583 0.2332383344