18

N -0.2405570634 1.2612665125 0.0645271358
C -0.1932670383 0.0184186672 -0.1481106790
O -0.8406198115 -0.8313740624 0.6721882203
C -0.8650659389 -2.2121403388 0.2981409627
C -1.1277705305 -3.0330935814 1.5852976856
O -1.9420696693 -4.1382710588 1.2232779569
C -2.6295514362 -3.8089775258 0.0433174953
C -3.3968759525 -2.5197939001 -0.0229997434
C -2.0011530543 -2.6147388607 -0.6206932290
H 0.3209153935 1.7528487383 -0.6276483913
H 0.3542630059 -0.4841767532 -0.9581290261
H 0.0971527188 -2.4759079989 -0.1575387032
H -0.2147188403 -3.4187193103 2.0454458219
H -1.6304071641 -2.3791637269 2.3094126056
H -2.9652195287 -4.6899519112 -0.4901498026
H -4.2243824874 -2.4703689741 -0.7218176235
H -3.5329619273 -1.9308636552 0.8770526672
H -1.8614704355 -2.5480912602 -1.6927692331