14

O -0.0694662623 0.2974139008 -0.8892062729
C 0.0202086989 1.2426187986 -0.1445534128
C -1.1801688890 1.7909097260 0.6256245607
O -1.2828175356 3.2248115521 0.6463060922
C -0.2089684487 4.0424293069 0.5707304060
O -0.3604092789 5.2317609487 0.5242563933
C 1.1514617526 3.4072135828 0.5244913291
N 1.4246952252 2.3862285420 1.5379071536
C 1.2930066702 1.9661158456 0.1277468163
H -2.0944896790 1.4258570695 0.1567065926
H -1.1286738498 1.4219352703 1.6565801199
H 1.9355620637 4.1026667824 0.2458615625
H 2.4069717221 2.4139849787 1.7986887863
H 2.1664318409 1.6531246256 -0.4345240468