18

C -0.1086237669 1.5096710856 -0.0456510926
C 0.0393594260 0.0063839834 0.0162006458
C 1.3492787829 -0.6813541892 -0.2201576017
C 0.7447993077 -0.6999747112 1.1857959733
C 1.4179814272 0.0921710125 2.2999730825
C 0.1540746878 -1.9311025826 1.6138141334
C -0.3460405498 -2.9653115354 1.9974415112
C -0.9113256541 -4.1318754270 2.4196145138
N -1.3944955225 -5.1265772334 2.7787182727
H 0.7988218039 2.0313998569 0.2685715046
H -0.3229606437 1.8198098962 -1.0739675278
H -0.9339187044 1.8560221949 0.5850434448
H -0.8302728484 -0.5343550062 -0.3458750864
H 1.3662769241 -1.6084882368 -0.7805726487
H 2.2344803198 -0.0642072936 -0.3375471585
H 1.8938115208 0.9942810904 1.9103273188
H 0.6940431550 0.3894206607 3.0644937085
H 2.1909973946 -0.5125170351 2.7830388064