20

C -0.2631751923 1.6296458910 0.0808970643
C 0.0265233621 0.1331086059 -0.0040654234
C 1.2232490365 -0.2739930577 -0.9294314771
C 1.8844368490 -1.0288054101 0.2570312190
C 0.7963062119 -0.4707739682 1.2158548158
C -1.2862859858 -0.6113186051 -0.3355499353
O -1.8700129830 -0.1888549069 -1.5552511333
C -1.1175266613 -2.0822637674 -0.3370352737
N -0.9759380136 -3.2289220860 -0.3709539038
H 0.6584586583 2.1850264517 0.2785205394
H -0.6999174177 2.0021217455 -0.8497224743
H -0.9656511269 1.8489444621 0.8939482186
H 0.9775873212 -0.8905300364 -1.8007773882
H 1.7914037173 0.5904865604 -1.2810093950
H 1.8438127022 -2.1137911862 0.1496710477
H 2.9122288657 -0.7416515592 0.4869364828
H 1.1595867237 0.3039017962 1.8957524061
H 0.2539553063 -1.2136384811 1.8068418385
H -2.0265174876 -0.3699965205 0.4368799686
H -1.2554093561 -0.4003216979 -2.2681183963