18

C 0.0248401663 1.4907590804 -0.2619066005
O 1.4254630347 1.5890935021 0.1556080807
C 1.2707006947 0.3559784001 0.8657847960
C 1.9538173707 -0.9973358383 1.0703687053
N 0.7752173795 -1.2584180921 2.0036330212
C -0.5910239443 -0.7970204555 1.3074934223
C -0.7353612740 0.2294652525 2.4432638100
C 0.7870507239 0.2256516381 2.3600374454
C -0.0031383254 -0.0183352128 0.1318909684
H -0.6116038322 2.1665453577 0.3185819375
H -0.0847608380 1.7020016816 -1.3285564730
H 2.0756434326 -1.6589619009 0.2089773383
H 2.8495174436 -1.0068252585 1.6971650754
H -1.3188888986 -1.5873232091 1.1343171170
H -1.2970580896 1.1438256508 2.2472798758
H -1.0706590373 -0.2331438356 3.3738267899
H 1.4587328236 0.5545229743 3.1537596728
H 0.1730671498 -0.6420863048 -0.7467285825