17

O 0.0004241623 1.3049742769 0.0922877774
C 0.0389211114 -0.0677775445 -0.0080535189
C -0.5901986646 -0.9444721741 -1.0924622186
C -0.4090559150 -2.1100921311 -0.0730073178
C -0.3035162675 -1.0324202889 1.0824580895
C 1.1625355864 -0.8927049665 0.6638463667
C 1.1142235892 -2.2534205074 0.0303029678
C 1.9156162612 -3.4424691830 0.2935295675
O 1.9627284065 -2.7645984741 -0.9801251044
H 0.7057482566 1.6695883370 -0.4542452670
H -1.6443854523 -0.6911575333 -1.2326831231
H -0.0862166979 -1.0473776810 -2.0595828853
H -1.0659121625 -2.9761288740 -0.0880290402
H -0.7696343697 -0.9304712828 2.0500526439
H 1.9600421322 -0.4038497791 1.2079538771
H 2.8236505373 -3.3695056737 0.8911240272
H 1.4511700165 -4.4280400904 0.2777326783