19

C -0.0295670785 1.5354223137 0.0097880696
C -0.0409590527 0.0136793175 -0.0780047083
N 0.8004366482 -0.4516051057 -1.1730733643
C 0.8578459323 -1.8238068280 -1.3980374367
C 0.4368671098 -2.8658137345 -0.6279322642
O 0.7707818365 -4.0390626234 -1.2141259991
N 1.4146752578 -3.7767983869 -2.4087861582
C 1.4731293547 -2.4709718382 -2.5198231176
C 2.1212081956 -1.8229581962 -3.6988073948
H 0.9895205022 1.9091552264 0.1438829222
H -0.4415263342 1.9867083664 -0.9004022621
H -0.6388025403 1.8759631247 0.8513207993
H 0.3573365038 -0.4148666803 0.8505272378
H -1.0776226010 -0.3543007496 -0.1736764034
H 0.6540442398 0.0766051159 -2.0240880698
H -0.0746844616 -2.9383954440 0.3170824819
H 1.4008880919 -1.2307302226 -4.2762240447
H 2.9215141135 -1.1457950765 -3.3810742887
H 2.5434436922 -2.5835220485 -4.3580043791