22

C -0.0567301387 1.5278151757 -0.0704383910
C 0.0257053137 0.0010753768 0.0554201703
C 0.7599700521 -0.5080206163 1.2871956464
C 0.2250201236 -0.1210838419 2.6917403952
C 1.2890637449 -0.8524697834 3.4989033931
C 1.6939766810 -2.0532918907 2.7149787731
C 0.8754621988 -2.0481214806 1.4322420171
N 2.5663344749 -0.8499047546 2.7363851786
C 2.2491581011 -0.1339421499 1.4775424643
H 0.9373295978 1.9843688546 -0.1125610304
H -0.5878681980 1.8110960092 -0.9842733642
H -0.5926496104 1.9744854195 0.7731122694
H -0.9906745925 -0.4144024824 0.0502987676
H 0.5188230484 -0.4061310261 -0.8375909208
H 0.2246025389 0.9589069471 2.8688575222
H -0.7832723129 -0.5055147065 2.8805859439
H 1.3607817842 -0.7870306493 4.5778766238
H 2.0905739906 -2.9570545927 3.1616158208
H -0.0983160973 -2.5354817065 1.5510311395
H 1.3952349093 -2.5109946775 0.5863419363
H 2.8914158760 -0.4958250375 0.6675579222
H 2.4204625947 0.9386026530 1.6094896025