22

C 0.4576676786 1.3541330555 1.1771085811
C 0.1889107097 -0.1006717659 0.8179604167
C 0.7095845588 -0.4500620862 -0.5954786361
C 1.0296860459 -1.9218774403 -0.8242882202
C 0.9352139671 -2.8683564593 0.3344209124
C 0.5030483884 -2.2777963144 1.6720282072
O 0.8182231786 -0.8996938329 1.8060122293
N 0.0488934998 -2.9957247926 -0.8242168137
C -1.3789958439 -2.7458862340 -0.7531076876
H 1.5356640902 1.5423629095 1.2003688578
H 0.0036658246 2.0227713591 0.4390880255
H 0.0460581747 1.5892663187 2.1620654114
H -0.8988426356 -0.2768844793 0.8630980798
H 0.0011865523 -0.0826542692 -1.3488717998
H 1.6440871323 0.1010249270 -0.7565547581
H 1.8265055535 -2.0770061000 -1.5504499103
H 1.6546548418 -3.6810962555 0.4112590898
H -0.5742982121 -2.4341168669 1.8473975111
H 1.0408861592 -2.7812131986 2.4793133524
H -1.7474805548 -2.5562463500 -1.7667150595
H -1.8762376058 -3.6487497234 -0.3828408431
H -1.6970264533 -1.9055083713 -0.1205545861