22

C 0.1256845121 1.4799512570 0.1575355927
C -0.0029170443 -0.0572688290 0.0367182426
C 0.7321506715 -0.7536529519 1.2067486122
C -1.5002615614 -0.4188103176 0.1324949285
C 0.6089798915 -0.5156964310 -1.2927853592
C -0.2442559077 -1.2345478591 -2.3284018345
O 0.4525167489 -1.5910479927 -3.4905239349
N 1.8164070882 -0.3716251050 -1.6843434921
O 2.6760198043 0.2805301200 -0.7936708253
H 1.1661249460 1.8007639166 0.1168050962
H -0.4214588481 1.9809206484 -0.6479720258
H -0.3054927485 1.8090312965 1.1090765274
H 0.3007747155 -0.4231158724 2.1576914660
H 0.6160375018 -1.8409312186 1.1474154416
H 1.7967309771 -0.5217702725 1.2075526038
H -2.0956215714 0.0613445758 -0.6494741859
H -1.6723236672 -1.4978849736 0.0828779226
H -1.8877599914 -0.0718127658 1.0952622056
H -0.6766777847 -2.1327193464 -1.8595380482
H -1.0973263932 -0.5869825541 -2.5861105411
H 1.3599039636 -1.2802527960 -3.3541012369
H 3.5090560776 0.2798285514 -1.2769932154