18

O 0.1179032409 1.4702650500 -0.3100156346
C 0.1848909051 0.0728268719 -0.1537339878
C -1.2154168724 -0.4865655903 0.1719095136
O -2.1311797765 -0.0209249000 -0.7940555830
C -1.2161006594 -2.0116819242 0.1712426976
O -1.7708114412 -2.6262313789 -0.7204342678
N -0.4587273703 -2.6161654433 1.1543182722
C -0.7400080926 -2.6005418416 2.5806384873
C -0.8115309478 -3.8684240212 1.7803109148
H -0.6268199173 1.6253187707 -0.9058651457
H 0.5579524455 -0.4235707315 -1.0649473688
H 0.8839205958 -0.1402400174 0.6601618233
H -1.5186955798 -0.1073687668 1.1573284855
H -2.3433770444 -0.7999897900 -1.3350069849
H 0.1097596113 -2.4119009296 3.2299614369
H -1.6778296130 -2.1569048725 2.9053041727
H -1.7926168419 -4.2724509872 1.5473703312
H -0.0123327120 -4.5988769482 1.8596111374