14

N 0.1065966590 1.4064880035 0.1344999469
C -0.0275043654 0.0080993389 0.0437281143
C -1.1047839554 -0.8413599778 0.0171147806
C -0.5937629813 -2.1813661630 -0.0061726715
C -1.3606516571 -3.4184587662 -0.0414567548
O -0.8869588118 -4.5356048772 -0.0879535183
C 0.7881186843 -2.0928291773 -0.0015105368
N 1.1143888304 -0.7720530717 0.0373512842
H 0.3383144154 1.8349217666 -0.7573586581
H -0.7520683011 1.8285054751 0.4654704044
H -2.1443271311 -0.5500273234 -0.0009924833
H -2.4650857448 -3.2708300307 -0.0216064048
H 1.5318360810 -2.8716889702 -0.0210647274
H 2.0437520379 -0.3939219266 0.1191281046