15

O 0.1253579996 -0.1236885321 -0.0059144510
C 0.0647656179 1.0758607751 0.0060529083
C 1.2714874517 1.9972472491 0.0006663634
C 1.2298611049 2.9244990287 -1.2123007544
O 2.2540927995 3.9211723488 -1.1533011724
C 2.7175030018 4.4348905957 0.0078656308
O 3.5172115486 5.3187988551 0.0071844658
O 2.2813574612 3.8983183989 1.1692519698
C 1.2593320178 2.8996476759 1.2329059889
H -0.9163541278 1.6056787509 0.0225336748
H 2.1756699902 1.3829848092 -0.0164877062
H 1.4031164362 2.3822648195 -2.1443159094
H 0.2538742915 3.4241360546 -1.2813300083
H 0.2851564014 3.3969482568 1.3359683424
H 1.4555258254 2.3386544138 2.1491409075