14

F -0.0176372170 0.0616051635 -0.0467109062
C -0.0406279993 1.3965515952 0.0414193087
F 1.2311456121 1.8324097381 -0.0203680512
F -0.6641486465 1.8680587360 -1.0540701205
C -0.7099778123 1.8693165364 1.2849285847
C -1.2442154221 1.1200484182 2.2402399259
C -1.8108234761 2.0084047360 3.3089737533
O -1.5484452864 3.3392142033 2.8725112101
C -0.8675842064 3.3297345997 1.6222657540
H -1.2791735136 0.0394543693 2.2685119664
H -2.8940626916 1.8596273157 3.4399135771
H -1.3389216974 1.8312994179 4.2880541314
H 0.1026525546 3.8402898386 1.7123997368
H -1.4550122181 3.8680956622 0.8638033795