18

C 0.2512651596 1.3854168625 -0.0918996740
C -0.0284510029 -0.0835987437 -0.0903587921
C -0.2702463315 -0.8822422657 -1.1484371370
C -0.2177535186 -2.2696721355 -0.5708979375
C 0.9442396890 -2.9425564409 -0.5458432793
C 1.4203270552 -3.0197620019 0.9009999918
N 0.4341281936 -2.2402423976 1.6896741909
C -0.1653511108 -0.8652645436 1.2187298531
C -0.7497205245 -2.1623643443 0.8600224691
H 1.2474319062 1.5957902058 0.3178462770
H 0.2033860105 1.8013157744 -1.1018028452
H -0.4650762770 1.9317503005 0.5353662703
H -0.2270046614 -0.6023561532 -2.1933327641
H 1.6485374634 -2.9743061383 -1.3707830566
H 1.4865891383 -4.0188712842 1.3567492820
H 2.4234016748 -2.5772024540 0.9599949038
H -0.4650553600 -0.3144343372 2.1041569070
H -1.7090929542 -2.5693454829 1.1742119808