20

C 0.1956575970 1.0421358936 -0.4241329140
O -0.4388541764 0.2368116838 0.5515777993
C 0.4392802110 -0.4886718076 1.3448284840
C -0.2370460046 -1.3529086618 2.4193736843
C 0.7928177866 -2.4804492138 2.1384241803
C 0.3310497226 -3.9272886737 2.1611976371
C 1.1272439054 -1.7920642187 0.7602438006
C 0.4284978807 -2.3544384356 -0.3816704469
N -0.1223108525 -2.8065778482 -1.2929632512
H 0.7467825833 0.4366536917 -1.1564814564
H -0.5904815973 1.5918533517 -0.9450977089
H 0.8903818198 1.7593957171 0.0389048763
H 1.2255142258 0.1586125667 1.7632585413
H -0.3007922889 -0.9494040518 3.4314132140
H -1.2372156142 -1.6377903387 2.0794300976
H 1.6683654339 -2.3569046253 2.7835322614
H -0.5162911987 -4.0836274565 1.4871474230
H 1.1328625212 -4.6075129429 1.8553859478
H 0.0187765203 -4.2101275585 3.1720606934
H 2.1894171849 -1.7082023716 0.5174524770