15

C -0.7585802238 1.0062601238 0.0181705546
O 0.3505069676 0.1625258188 0.2843992905
C 0.9010490183 -0.4575034717 -0.8340698559
C 2.2694121063 -1.0007833435 -0.3945261046
O 3.0938865543 -1.4528842319 -1.1384189671
C 0.0203648449 -1.6097783866 -1.3780822617
O -0.9673817617 -1.9811757386 -0.7889462455
C 0.4552715515 -2.1815596298 -2.6328181145
C 0.8137084258 -2.6396767747 -3.6862551871
H -0.4921286824 1.7900111365 -0.7066169682
H -1.6169803787 0.4397736669 -0.3569855680
H -1.0256325774 1.4768859736 0.9662169418
H 1.0781783553 0.2427342281 -1.6687568835
H 2.4095016517 -0.9241452773 0.7041565030
H 1.1345392583 -3.0504120736 -4.6131048237