18

C -0.8108498651 1.5170164921 0.1949086765
C -0.1563854615 0.1499172983 0.0030290229
C -1.1727577935 -0.9922806199 0.1507772290
C 0.7805931086 -0.0139480378 -1.2435815524
C 1.9411745449 -0.5480460191 -0.3377632480
C 3.2665586729 0.0129873409 -0.4900745492
N 4.3125713132 0.4913908094 -0.6094314301
C 1.0813695096 -0.0883371318 0.8889569243
O 1.3302227806 0.0827976556 2.0404515927
H -0.0843444196 2.3284324805 0.0908437727
H -1.6014217769 1.6697392968 -0.5474286108
H -1.2575349044 1.5911996413 1.1907993483
H -1.9579787315 -0.8935038217 -0.6059945914
H -0.7077095580 -1.9757040967 0.0251898230
H -1.6416882727 -0.9649042528 1.1387056429
H 0.4414506892 -0.7097654311 -2.0115342634
H 1.0350076055 0.9403230424 -1.7069499391
H 1.9990558087 -1.6418302264 -0.3489255280