12

N -0.1267423412 1.2995287419 0.0363350093
C 0.1016436167 -0.0302925450 0.0236131032
O 1.1551687027 -0.6008078480 0.0340549549
N -1.1513439575 -0.7763202610 -0.0067858934
N -2.3454874728 -0.1866107327 -0.0207813722
N -3.2289425804 -1.1427865844 -0.0485175278
C -2.5102505947 -2.3004579039 -0.0485445002
O -3.0648625089 -3.5079774405 -0.0724293960
N -1.2042128936 -2.1121752720 -0.0223854394
H 0.6721029907 1.9085753076 0.0543784993
H -1.0623298014 1.6703747066 0.0226389882
H -4.0231300196 -3.3893592986 -0.0886994558