21

C 0.0684230282 1.5724340168 -0.1201173719
C -0.0258744108 0.0571757655 0.0181523376
C -1.4586899175 -0.4429053630 -0.1762709411
C 1.0207561746 -0.7596020840 -0.7898226897
O 1.5327604006 -1.3864668726 0.4092056116
C 0.7059518981 -0.5609924822 1.2229244043
C 1.2455321406 0.0943482976 2.4648694710
C 0.2108250421 -1.0196845225 2.5484609392
O -1.1117999627 -0.7096807238 2.8851961690
H 1.0954290844 1.9255038220 0.0136992082
H -0.2742984486 1.8915525850 -1.1109656607
H -0.5622402915 2.0726293555 0.6229324132
H -1.8204699978 -0.1764253029 -1.1761954276
H -1.5134350860 -1.5305207551 -0.0720880141
H -2.1303271816 -0.0053142267 0.5656193658
H 0.6172181584 -1.4970850896 -1.4926154700
H 1.7908749109 -0.1599363624 -1.2914706591
H 2.2651435763 -0.1356257863 2.7566033443
H 0.9090138318 1.1024488222 2.6882015137
H 0.5662873142 -1.9951041826 2.8828208710
H -1.1319828135 -0.4825973608 3.8212002251