21

C -0.2800053818 1.5075041591 0.1064079217
C 0.0626411464 0.0209020813 -0.0659815876
C 0.9199870034 -0.5014533368 1.0444136629
C 2.4019379771 -0.2031527609 1.3476717738
C 2.5051252695 -1.6228029508 2.0135935463
C 2.9112467023 -1.6966786183 3.4717359633
O 4.2672706827 -1.2770370802 3.5639838564
C 1.0134223485 -1.8211677804 1.6953141263
O 0.2956267705 -0.7454014448 2.3202207203
H 0.6250483568 2.1235133436 0.1257331512
H -0.9084304296 1.8615198571 -0.7159296731
H -0.8187391774 1.6720125573 1.0441300184
H -0.8570899781 -0.5735380322 -0.1036823596
H 0.5850058456 -0.1340711139 -1.0185175522
H 3.0239770493 -0.1120194277 0.4543526636
H 2.5806702122 0.6505566298 2.0049940613
H 3.1358270559 -2.2875579168 1.4157154538
H 2.2468260301 -1.0493664848 4.0607964554
H 2.7878855975 -2.7290174760 3.8401105704
H 4.5002860967 -1.2209227131 4.4951168758
H 0.4652503924 -2.7415625315 1.5221394416