18

O -0.0431057133 1.3836940586 0.0336270504
C 0.0072460796 -0.0169435160 0.0246857902
C 0.2705576354 -0.7229329796 -1.3526935005
C -0.9504101098 -1.6023628064 -1.0778799631
C -0.9327937354 -2.1246686220 0.3507383453
C 0.3959838748 -2.1528263868 1.1122708030
C 0.8420552083 -0.6675781138 1.1387027666
C -1.3786370171 -0.7172733130 0.0793450150
H 0.8572703959 1.7164509071 -0.0471475242
H 0.0754364704 -0.0196051463 -2.1663046593
H 1.2437758429 -1.2050402035 -1.5080460775
H -1.5719991363 -2.0715118255 -1.8317076086
H -1.6855467740 -2.8727472744 0.5743520312
H 0.2586231589 -2.5458915817 2.1237925871
H 1.1334777527 -2.7951279438 0.6188583328
H 1.9194464256 -0.5425787458 0.9781987863
H 0.5845013374 -0.1948991812 2.0929821558
H -2.3287097659 -0.2638569859 0.3262611296