23

C 0.1875159298 1.1911174605 0.3492945727
O -0.2361881490 -0.0755395999 -0.0986561801
C 0.4531757624 -0.5229007952 -1.2368479543
C 1.9239210959 -1.0254248944 -1.0818230641
C 1.5433825388 -2.3338093907 -1.8481252795
C 2.2676036273 -2.5982870699 -3.1495176501
C 1.2618607464 -3.5226312299 -0.8948994952
C -0.1736707690 -2.9763667446 -0.6371382433
C 0.0229496472 -1.9052653456 -1.7472810984
H 1.2476090915 1.1921097189 0.6449567037
H 0.0471637020 1.9630458341 -0.4243228845
H -0.4196535230 1.4504951074 1.2201078313
H 0.3848944498 0.2327623159 -2.0360050202
H 2.6866285788 -0.4066168883 -1.5615592882
H 2.2136212769 -1.1967275746 -0.0407188151
H 3.3162756595 -2.8654907855 -2.9669927011
H 1.8068462278 -3.4254707293 -3.7013490033
H 2.2621625893 -1.7172599677 -3.8018652217
H 1.2512739599 -4.4802394568 -1.4253567320
H 1.9252170800 -3.6195852966 -0.0293390539
H -0.9744912654 -3.6908968976 -0.8369623021
H -0.3380288049 -2.5453982460 0.3520456169
H -0.6726233618 -1.9384816043 -2.5876132274