20

C 0.1531853252 1.5334887173 0.0080655004
C -0.0321120214 0.0181020257 0.0019051635
C -1.4914125529 -0.4171797670 0.0140608305
O -2.4022037162 0.3785449432 0.0275148550
C -1.7472058339 -1.9232029642 0.0084224020
C -3.2327163034 -2.2801951174 0.0206893131
C -3.4510110325 -3.8055732035 0.0148413615
C -4.8658778564 -4.1722386644 0.0263594468
N -5.9874794307 -4.4497643381 0.0355484261
H 1.2154455979 1.7922854228 -0.0008898221
H -0.3221371963 1.9878138411 -0.8647843212
H -0.3050730453 1.9785602685 0.8946952271
H 0.4467853814 -0.4374903857 -0.8761005705
H 0.4639379335 -0.4466369684 0.8654857829
H -1.2457827869 -2.3514500873 -0.8711582101
H -1.2292034969 -2.3606760960 0.8737533328
H -3.7112255813 -1.8421160838 0.9007717645
H -3.7278428090 -1.8330622891 -0.8455462448
H -2.9860473844 -4.2557441755 -0.8705856089
H -2.9693896903 -4.2648595481 0.8865746914