19

C 0.0082818695 1.4121849014 0.0062960903
O -0.0615480791 -0.0066994349 0.1173818807
C -1.3311728168 -0.5277765816 0.0726453154
C -1.6270928253 -1.7379621059 -0.7488741318
C -2.4253381783 -0.4658651661 -0.9868395763
C -3.4783832987 -0.1678371201 0.1217745230
C -3.5545128583 -1.2201071163 1.2163839913
C -2.4154441735 -0.2352544792 1.1810728170
O -2.1862195852 0.6882174382 2.1870807973
H 1.0694292405 1.6716063892 0.0158978497
H -0.4371694689 1.7537801871 -0.9377523368
H -0.5003514941 1.9053779354 0.8405424644
H -0.8740947546 -1.9107888984 -1.5126668531
H -2.0602245277 -2.6494078238 -0.3511637605
H -2.4391693519 0.0157933639 -1.9557123873
H -4.2577031453 0.5728127852 -0.0011772861
H -4.2853193790 -0.9789402209 1.9836476652
H -3.4507082023 -2.2830047310 1.0286014160
H -1.7190285809 0.2406322779 2.9022230016