18

O -0.0383594813 0.7006336674 -1.4765289016
C 0.0562338438 1.3969412433 -0.4900318012
C -1.1563629086 1.6541811585 0.4133999824
N -1.3135279291 3.0488874636 0.8490462479
C -0.9687226594 3.4230792703 2.2181573784
C -0.1018674171 3.8423533574 1.0826830999
C 1.2591523213 3.2568779408 0.8213764645
C 1.7306279532 1.9593094554 1.3895406760
C 1.3388367772 2.0272323039 -0.0831533972
H -2.0394310885 1.3567132515 -0.1576045136
H -1.0835222537 0.9680556948 1.2714618737
H -1.6412837541 4.1319989516 2.6945856319
H -0.5851033799 2.6515587778 2.8839763716
H -0.1924082578 4.8660672838 0.7234281353
H 2.0278204946 4.0038759125 0.6514294258
H 2.7881182161 1.8555907539 1.6030464397
H 1.0896887591 1.3999095535 2.0606131126
H 2.1252473541 1.9569742100 -0.8247225962