17

O -0.1833983582 1.3787863872 -0.0513289328
C -0.0512106478 0.0079081247 -0.0797483109
C 0.7535206371 -0.7965158520 -1.0862676224
C -0.1690888266 -2.0409233264 -0.7536791692
C 0.4709526613 -2.8179685944 0.3690308288
C 0.4311849434 -2.0807391360 1.4880839584
C -0.3329792479 -0.8338183480 1.2336848843
C -1.1391081632 -1.0097212670 -0.0393523401
O -2.4896340252 -0.8545844155 -0.2154535115
H 0.5930393819 1.7513535848 0.3814782264
H 0.5565661849 -0.4249606686 -2.0946468671
H 1.8289890729 -0.9302438872 -0.9313792266
H -0.5395494088 -2.5953942706 -1.6147708892
H 0.9819900499 -3.7632437630 0.2361456648
H 0.8895893050 -2.3246064073 2.4386965176
H -0.7510184772 -0.2197765354 2.0236512767
H -2.9440966915 -1.5278103954 0.3045702627