19

C 0.1486766797 1.5308569475 -0.1749080193
C 0.0703689628 0.0351846581 0.1538082395
C -1.3520298425 -0.4955130465 0.1163121074
C -2.0029817652 -0.8386458121 -1.2558733695
O -1.1006406136 -2.0023970614 -1.3801989605
C -1.5911084558 -2.0272975005 0.0149750856
C -3.0311123266 -1.7773213070 -0.5425542732
C -4.0934581231 -1.2573353829 0.2890399912
C -4.9898328916 -0.8380292176 0.9728972883
H 1.1796628630 1.8928869650 -0.1192357535
H -0.2200603737 1.7355190922 -1.1858835979
H -0.4516557997 2.1257637861 0.5225004826
H 0.6822470848 -0.5400613269 -0.5468425932
H 0.4829599965 -0.1391420732 1.1560520164
H -2.0124143376 0.0261317133 0.8153292915
H -2.1580904368 -0.2213193270 -2.1412800686
H -1.2478290868 -2.8382835954 0.6584233879
H -3.3612101064 -2.5883427916 -1.1947942729
H -5.7800510474 -0.4665229001 1.5773814883