18

C 0.0530336109 1.5005451556 0.0511727787
C 0.0357757689 -0.0304896565 -0.0450226676
C 0.6406933876 -0.5509696865 -1.3129637711
N 2.1024137027 -0.2576132078 -1.7408771475
C 1.5913993717 -1.1632589521 -2.8670305187
C 0.9818626921 -2.0331159601 -1.7194935345
O 1.8526726775 -2.7334167032 -0.8967933727
C 0.3131546726 -0.3102075104 -2.7987726674
O -0.4034787169 0.3482119341 -3.4908533065
H 1.0784306386 1.8847944749 0.0508302464
H -0.4799861214 1.9513284562 -0.7914350183
H -0.4250811518 1.8368555086 0.9752604871
H 0.5653541064 -0.4772203940 0.8053651818
H -0.9969700429 -0.3970855138 0.0049857858
H 2.2140024503 0.7074326278 -2.0608276792
H 2.2279743638 -1.4592668676 -3.6978412847
H 0.1443237594 -2.6820210603 -1.9766284010
H 2.5819215507 -2.1235257948 -0.7105977004