15

N -0.0045298760 -1.1524158817 -0.0500366940
C -0.0197434182 0.0046204047 -0.0429466561
C -0.0238362746 1.4338813294 -0.0096804152
C -0.5576721124 2.3449369381 1.1589502141
C 0.8988341765 2.6764912123 1.5666700505
C 1.2354520906 2.3750531060 0.0856578662
C 0.3559714508 3.3065305165 -0.7715314690
C -0.9207875098 3.2850846326 -0.0073172174
N -0.6939451013 2.2808539308 -1.1054541685
H -1.3277232921 2.0329085680 1.8591677123
H 1.1108767233 3.6780465724 1.9490277230
H 1.3132601521 1.9184418511 2.2377703360
H 2.2237589231 2.0925566698 -0.2666069270
H 0.6510422588 4.0663113303 -1.4829478004
H -1.7057729609 4.0267230499 -0.0722579348