15

O -0.9376382957 0.8927169303 -0.1386533194
C 0.2569618944 0.7920178579 -0.0851411585
C 1.2066515019 1.9982064236 -0.0010527787
O 2.5140627362 1.5696624681 0.3387517567
C 3.4535131114 1.9639864071 -0.6695310060
C 2.6201012825 2.6450208711 -1.7232969760
C 3.1710707420 3.1938119558 -2.9652398369
O 4.3466054433 3.1421915868 -3.2504812383
C 1.3414467728 2.6762697669 -1.3353672572
H 0.7925643559 -0.1824755221 -0.1050347897
H 0.8004422746 2.6791209470 0.7639447362
H 4.2081396846 2.6369499829 -0.2409561367
H 3.9797949794 1.0823126933 -1.0562212677
H 2.4278246107 3.6690232106 -3.6404790994
H 0.4997242260 3.0971134106 -1.8704316884