19

C -0.2356030725 1.4861862155 0.0427309976
O -0.0181119717 0.0827402668 -0.0237044295
C 0.6753188544 -0.5227081667 1.0493628595
C 0.0957514127 -0.2149895089 2.4347419450
C 0.7198106710 -2.0358846573 0.7730224762
O 1.9364509966 -2.4974788060 1.3565743643
C 2.9290438775 -1.5295640204 1.0705258766
C 2.1919367697 -0.1922901300 1.0301501721
O 2.6892640451 0.9023487308 0.9739447895
H 0.7022803263 2.0390776195 0.1469992928
H -0.7153729148 1.7576904381 -0.9004533588
H -0.9089346982 1.7584202501 0.8661460686
H -0.9827273135 -0.4028183360 2.4358538770
H 0.5624747135 -0.8664783736 3.1796681747
H 0.2786811326 0.8216161261 2.7286643267
H -0.1002753953 -2.5906081436 1.2326237931
H 0.7043799276 -2.1993064874 -0.3146268415
H 3.7018533455 -1.5534486640 1.8435021340
H 3.4110811133 -1.7032246431 0.0931114322