14

N -0.2994341691 -0.9865724552 -0.6883272406
C -0.1581743384 0.0973405088 -0.3129030383
C 0.0476175588 1.4754530948 0.1298813636
N 0.1455284694 1.6665407001 1.5986355041
C 1.3194301583 2.5716087557 1.4584599901
C 1.4692253415 2.0738046244 0.0208224592
C 2.6238121268 1.5962128416 -0.7298065333
O 1.9315462997 2.8181979074 -1.0678978129
H -0.6787059530 2.1250970073 -0.3778479358
H -0.6773324334 2.0812887590 2.0197038519
H 1.0868550195 3.6441255683 1.4904040345
H 2.1332152684 2.3562455597 2.1569434747
H 3.6231538762 1.7288506092 -0.3201603990
H 2.5032168854 0.7825942089 -1.4419499182