20

C 0.1048710417 1.5429351157 0.1002643570
C -0.0727062492 0.0572207262 -0.0100766109
C -0.9352237274 -0.7307651005 0.8842479252
N 0.5285680782 -0.9232762747 1.0073447012
C 1.0140293627 -1.7587242682 -0.1638596282
C 0.1187384145 -2.8807418500 -0.7544949270
C -0.3880452917 -1.8709824671 -1.8494407933
O -1.7660067075 -1.5817633967 -1.9325923321
C 0.4729330912 -0.7524517290 -1.2049335239
H 1.1146282433 1.8486662013 -0.1956944623
H -0.6088854934 2.0650630280 -0.5483694073
H -0.0621713282 1.8762187745 1.1287091567
H -1.3372720640 -0.2109575466 1.7499420999
H -1.5808702013 -1.5096202543 0.4990327513
H 2.0747833021 -1.9770341961 -0.0468912145
H 0.6913013756 -3.7161442988 -1.1664130046
H -0.6497639071 -3.2849832451 -0.0916363995
H 0.0099246877 -2.1389275009 -2.8379079393
H -2.2017954096 -2.3204349434 -2.3694193857
H 1.1219457223 -0.1810029844 -1.8682541928