15

C 0.0203900316 1.5598832023 0.0101663471
C -0.0079954708 0.0294159849 0.0022917532
C -1.4316439170 -0.5351829068 0.0129887038
C -1.4452631675 -2.0768326727 0.0047781107
C -2.7973193620 -2.6307042489 0.0145403406
N -3.8739446761 -3.0506099717 0.0227096850
H 1.0472309301 1.9371465753 0.0022833985
H -0.4926823129 1.9697031443 -0.8665242891
H -0.4756549529 1.9602831724 0.9008962714
H 0.5240655752 -0.3447854075 -0.8823621421
H 0.5409570650 -0.3541446194 0.8724971057
H -1.9705196421 -0.1776905507 0.8979465880
H -1.9874260936 -0.1682549169 -0.8575294164
H -0.9219207444 -2.4559958416 -0.8811207544
H -0.9051511127 -2.4655055029 0.8764080580