18

C 0.1124271849 1.3742913283 -0.1683301824
N -0.0085358208 0.0324247676 0.3919597711
C -1.2133457320 -0.6457523470 0.1627334895
C -1.3614918738 -1.9601429575 -0.1568331543
O -0.4432721953 -2.9050525885 -0.4602838758
O -2.6840648062 -2.3048979138 -0.2263441729
C -3.4008524018 -1.1741395413 0.0489935285
C -4.8813731026 -1.2986608263 0.0327094014
C -2.5554764519 -0.1356011854 0.2875401641
H 1.1079063651 1.7645012555 0.0598878533
H -0.0423866480 1.4209839085 -1.2583195054
H -0.6161522767 2.0405710865 0.3035385816
H 0.7730449987 -0.5517155319 0.1219810361
H -0.4427484644 -3.5924049713 0.2182705830
H -5.2344724616 -2.0334617756 0.7658659183
H -5.3349971249 -0.3342282205 0.2726467673
H -5.2515562721 -1.6154367895 -0.9495322767
H -2.8480724466 0.8726756222 0.5357702334