14

C -0.0322872282 1.5296531556 0.0208792883
C -0.0046109350 0.0377166369 -0.0552125449
C -0.0243334995 -0.6801125304 -1.2066627455
C 0.0067815013 -2.1034792960 -1.1359532012
F -0.0133740599 -2.7832039183 -2.2766376381
N 0.0532736131 -2.7927190282 -0.0510784533
N 0.0720806557 -2.0642678941 1.0831852690
C 0.0477723327 -0.6817424624 1.2265531718
O 0.0710995181 -0.1585505068 2.3288632886
H 0.8521818561 1.8958746672 0.5528159710
H -0.0739014700 1.9850574081 -0.9705597754
H -0.8939275287 1.8604808039 0.6102659627
H -0.0630386717 -0.2068064949 -2.1821320517
H 0.1088821758 -2.6061921404 1.9359280789