17

O -0.0257129100 1.4342197899 -0.1177115253
C 0.0432434005 0.0170959012 0.0091810840
C 0.6943892495 -0.4774575588 1.3345342817
C -0.5050846768 -0.8515770366 2.2095887272
C -1.4828558921 0.3453767856 2.3143394287
N -2.3035273799 -0.1567826993 1.1572709730
C -1.5413076918 -1.4516453783 1.2211713930
C -1.3675114020 -0.5520151410 0.0629804629
H 0.8713338857 1.7644819781 -0.2288872024
H 0.5666084866 -0.4066637800 -0.8604354466
H 1.3217094731 -1.3557657725 1.1437061435
H 1.3236954166 0.2997809203 1.7822742084
H -0.2668999055 -1.3917882551 3.1256419113
H -2.1102984294 0.3115652610 3.2083504936
H -1.0748688492 1.3503193416 2.1795429814
H -2.0189498763 -2.4245944715 1.2270443922
H -1.8957324389 -0.7298121448 -0.8671945967