17

C -0.0011584387 1.6483827674 0.0308471956
C -0.0458384900 0.1234506923 -0.0067272159
C 0.7085961518 -0.5158214190 -1.2096462102
C 1.9116736852 -0.8814786536 -0.2889344382
C 1.0120963031 -0.5609048179 0.9106685073
O 1.0269207385 -0.8325368661 2.0752710791
O -1.3876820195 -0.3582125850 0.0987451236
C -1.9990057100 -0.3186767921 1.3095350307
O -3.1320028391 -0.6696907407 1.4466934325
H 1.0176197816 2.0147891941 -0.1277253332
H -0.6421497025 2.0495862606 -0.7600174992
H -0.3515323981 2.0300551314 0.9940946392
H 0.1760279505 -1.3962209275 -1.5711383169
H 0.9153348122 0.1553677141 -2.0435961799
H 2.2932333403 -1.9038021949 -0.3266443777
H 2.7579706519 -0.1918846573 -0.3655427764
H -1.3468286974 0.0422825942 2.1202220696