19

C 0.1295438580 1.5854456463 0.0207607851
C 0.0094829540 0.0574286490 0.0114505242
C 0.6202323034 -0.5304576585 -1.2725852269
N 0.6541066574 -1.9860003997 -1.2338223171
C 0.9873216121 -2.7407505417 -0.1455029335
O 1.0888187353 -3.9541549986 -0.1847024785
C 1.1607380038 -1.9670394732 1.1326186234
N 2.1086207345 -0.8230977129 1.1010224723
C 0.6704349109 -0.5659000030 1.2269933435
H 1.1815129262 1.8889579381 0.0272517510
H -0.3472859323 2.0279544282 -0.8599541363
H -0.3499113529 2.0115732540 0.9077117019
H -1.0524787902 -0.2218687714 0.0412111849
H 0.0160038188 -0.2276483049 -2.1330778764
H 1.6271446112 -0.1170071739 -1.4089729607
H 0.6056734150 -2.5005975344 -2.1002009924
H 1.1512982871 -2.6023096752 2.0117026337
H 2.5700836980 -0.7501773658 2.0034547610
H 0.2904499698 -0.2380637624 2.1928645009