19

O 0.1310796718 1.3558706397 -0.1179291104
C 0.0193423973 -0.0360550685 -0.0453376168
C -0.3715802727 -0.7588589421 1.2153007681
C -1.3144589886 -0.7259744090 0.0158708466
C -2.6303814921 0.0623255244 0.0456048244
C -3.7466015248 -1.0087154124 -0.0768993057
C -3.0754048617 -2.1675160304 -0.7899926870
O -2.3344175029 -1.7769533671 -1.9544320131
C -1.6189466267 -1.9925362729 -0.7250562160
H -0.5128215609 1.7519272182 0.4770829179
H 0.7913167233 -0.4846478660 -0.6626995349
H 0.1344636121 -1.6861278537 1.4678435708
H -0.6526710007 -0.1608094194 2.0781624108
H -2.7485587168 0.6674526076 0.9493005462
H -2.6664531848 0.7382239775 -0.8133400876
H -4.0787639061 -1.3506782777 0.9106405186
H -4.6260376466 -0.6350167122 -0.6096716967
H -3.5544977843 -3.1420852905 -0.8459041220
H -0.9130748747 -2.8199179356 -0.7304690633