19

O -0.2079450681 0.0145996118 -0.1323054241
C -0.0004938288 1.1975146280 -0.0449735819
C 1.3531156951 1.8531492155 -0.2069538434
C 1.3595741954 2.8836483681 -1.3387743000
C 0.5316123506 4.1996937493 -1.1677922868
C 1.7284011433 4.9477251787 -1.7575447322
C 1.7525913137 5.9255422991 -2.8459290777
O 2.0614455468 6.2928397533 -1.4912357459
C 2.6468076269 3.7459748433 -1.5270407643
H -0.8355522790 1.9081134154 0.1590128714
H 1.5984251354 2.3603697758 0.7376761935
H 2.0981225496 1.0702166208 -0.3793235304
H 1.0960650862 2.3939672610 -2.2813595872
H -0.4279404981 4.2759048985 -1.6840535022
H 0.3897624156 4.4605251015 -0.1133596393
H 2.5942281726 5.9485911867 -3.5373377623
H 0.8182991339 6.3284143490 -3.2353926776
H 3.2057265476 3.8512096841 -0.5912499569
H 3.3378309912 3.4638654600 -2.3244931129