23

C -0.1912557649 1.5171562977 -0.0439716099
C 0.0075183066 -0.0036618625 0.0907223688
C 0.7213512197 -0.5726061508 -1.1175100178
C 1.9813065837 -0.9122779761 -0.8507766923
C 2.3339657025 -0.6707504232 0.5966493701
C 0.9463677323 -0.4538419973 1.2616387370
C 0.9679286681 0.4309760540 2.4857036050
C -0.0973943888 0.3024874503 3.5475657471
C 1.3130349324 -0.1501569784 3.8349477578
H 0.7661618956 2.0360894695 -0.1612118047
H -0.7982183910 1.7476694233 -0.9259566021
H -0.7011977489 1.9304987811 0.8314463830
H -0.9851869410 -0.4541744965 0.2180660343
H 0.2515482426 -0.6235991595 -2.0947044230
H 2.6958105966 -1.2895511798 -1.5747257032
H 2.8835194094 -1.5005321579 1.0553175818
H 2.9785789522 0.2147161671 0.7019618010
H 0.5896014472 -1.4439168003 1.5741812646
H 1.3331354915 1.4394283595 2.3084702538
H -0.4586563273 1.2027360212 4.0325051099
H -0.8560362364 -0.4619509506 3.4131879457
H 1.4994049067 -1.2178652613 3.8933450278
H 1.9152003514 0.4413094405 4.5157760751