19

C 0.1229069331 1.4893661938 -0.2273133887
C -0.0468164865 0.0184771206 -0.0905562194
C -1.1235573890 -0.7961247350 0.1205464439
C -0.5965359279 -2.1381436027 0.1514369646
C 0.7399767531 -2.0307192551 -0.0408996145
O 1.0959236940 -0.7288194358 -0.1903060223
C -2.5342473743 -0.3875472254 0.2832708636
C -3.6619037060 -1.2452500193 -0.2561536678
C -3.4574769282 -1.1306394071 1.2286191613
H 0.7913530464 1.8905618143 0.5435012524
H 0.5506901398 1.7562497277 -1.2008167443
H -0.8410541029 1.9935807675 -0.1331738238
H -1.1488986718 -3.0537299868 0.2981754592
H 1.5433325491 -2.7467253862 -0.0963445776
H -2.6985087452 0.6835249762 0.2232163287
H -4.5141835441 -0.7443082975 -0.7020548622
H -3.3897841877 -2.1767498287 -0.7405561064
H -3.0459938129 -1.9839841025 1.7566990126
H -4.1688222190 -0.5506508081 1.8063356405