17

C -0.3039943490 1.4337755552 -0.0683125595
N 0.0241107080 0.0104780162 0.0131244353
C 1.3928731393 -0.3933707441 -0.1691091281
C 0.7744573809 -0.5197785698 1.1947306722
C 1.2820198046 0.3870721757 2.2693233513
O 1.7749770762 1.4756843544 2.0816494857
C 0.2728714506 -1.8957805416 1.6045351373
N -0.6149458739 -1.8866941441 2.6490444493
O 0.6463373362 -2.9172077035 1.0680268501
H 0.4758285666 2.1003330785 0.3139129142
H -0.4874536773 1.6583056470 -1.1234058702
H -1.2320551651 1.6174623982 0.4817812230
H 1.5519848396 -1.3201862458 -0.7112449974
H 2.1498399901 0.3816121690 -0.2721077661
H 1.1778516898 -0.0190138047 3.2976295563
H -1.1286887768 -1.0493454235 2.8705393400
H -1.0711006198 -2.7639000572 2.8514378067