15

C -0.0313577696 1.5360082514 -0.0337704138
C -0.0172217655 -0.0107036333 0.0373509749
C 0.6935298480 -0.4894234633 1.2234240396
C 1.2878457514 -0.8627580872 2.1976226620
C -1.4143547412 -0.5622975350 -0.0215956857
N -1.9503508505 -1.2697612548 -0.9714584499
C -3.2284740681 -1.4455794729 -0.4988872027
N -3.4786522722 -0.8922985399 0.6547479619
O -2.2556286173 -0.2919570500 0.9827982863
H 0.9938328064 1.9120242895 -0.0336683364
H -0.5303723209 1.8666064481 -0.9485709761
H -0.5567947406 1.9533580891 0.8276997907
H 0.4797981513 -0.4013611937 -0.8570561170
H 1.8089498582 -1.2010130504 3.0591604500
H -3.9881927994 -2.0004806474 -1.0297885338