15

O -0.0304680796 0.0235598138 0.3385028425
C -0.0511297904 1.1931565720 0.0926874715
C -1.2814404255 2.0835112449 -0.1057409095
C -0.7883209394 3.5255284809 0.1158022769
C 0.7468294195 3.4059384975 0.0069237053
C 1.4981947513 2.7620620102 1.1261241101
N 1.1446560130 1.9843084273 -0.0716199918
C 1.4302616863 4.3264830001 -0.8705757318
N 1.9514598842 5.0976689578 -1.5557509095
H -1.6374626921 1.9381194221 -1.1316641815
H -2.0815468336 1.7629206078 0.5628396040
H -1.1673511972 4.2148526982 -0.6388856637
H -1.0780931840 3.9171634740 1.0941492639
H 2.5591163690 2.9531025860 1.2499249962
H 0.9495088584 2.5667323074 2.0447821473