13

C 0.1064192078 1.4614860159 -0.0951404164
N 0.2576046392 0.0212353131 -0.0044453554
C 0.2386368764 -0.6402907370 1.1839809498
O 0.0933219814 -0.1188659348 2.2742017756
C 0.4090241949 -2.0851047523 1.0518425651
C 0.5586273220 -3.2836009550 1.0099606409
C 0.7013251222 -4.7201801779 0.9717922313
O 1.7084141897 -5.2909242648 0.6259068324
H 1.0153468289 1.9316034086 -0.4858410988
H -0.7353428913 1.7258857791 -0.7431979277
H -0.0826059654 1.8360299571 0.9110088901
H 0.4197942330 -0.5142552043 -0.8421125790
H -0.2051842287 -5.2719196176 1.2904893221