14

N 0.0667656720 1.3518022210 0.1383170489
C -0.0544998945 0.0016219581 0.0465249987
C -1.2379880352 -0.6880549489 0.0084833095
C -1.1294482521 -2.1008546251 -0.0364482616
N -2.2507480381 -2.8614679463 -0.1013500508
N 0.0196051865 -2.7631475976 -0.0442422017
C 1.1852833368 -2.1011029760 -0.0169845959
O 2.3043951598 -2.5173564396 -0.0240039096
O 1.1130718524 -0.6179479764 0.0319054784
H 0.9762528679 1.7367367562 -0.0604180437
H -0.7298903855 1.9239356384 -0.0845094260
H -2.1902095427 -0.1766705350 0.0138233287
H -3.1521869544 -2.4649722492 0.0957941365
H -2.1307832027 -3.8561597096 -0.0008894314