19

C 0.0963895035 1.5831081169 -0.2253872801
C -0.0288808532 0.0818056050 0.0429020805
N 0.5292913321 -0.6670464924 -1.0996452869
C 1.5800834373 -1.2480182567 -0.6752355832
N 1.9455439120 -1.0435932001 0.6490234233
C 0.7592951628 -0.4542057197 1.3189785409
C 1.1789997040 0.6075282950 2.3452766587
C -0.0205659729 -1.5041734319 1.9872272986
C -0.6496733008 -2.3651844802 2.5435165752
H 1.1415828893 1.8810820472 -0.3506317755
H -0.4295029087 1.8177764022 -1.1543207621
H -0.3448752149 2.1776514236 0.5798807688
H -1.0881073771 -0.1683417234 0.1496263394
H 2.2265709595 -1.8516029322 -1.3071966182
H 2.4026631907 -1.8056446530 1.1318813751
H 1.7978250181 1.3721588809 1.8726141675
H 0.3014479164 1.0801474114 2.7944885564
H 1.7564289566 0.1438416153 3.1501852000
H -1.2125031546 -3.1261946080 3.0254851217