18

C -0.0285149581 1.5270290123 -0.0607094882
C 0.0046197865 0.0081221413 -0.0118031296
C 1.3384646005 -0.7195275045 -0.1798182915
C 0.6789861611 -0.6957107820 1.1539641975
C 1.1344448696 -0.0800489103 2.4738459874
O 0.5669304107 -1.1853288722 3.2051363860
C 0.1411089948 -1.8496704407 1.9933932318
C -1.1591819555 -0.6491386627 -0.5526670770
N -2.1000452315 -1.1801655551 -0.9676843826
H 0.8822407463 1.9401334332 0.3815221110
H -0.0959660927 1.8817669295 -1.0930882697
H -0.8860613433 1.9216300410 0.4920588563
H 1.3416965839 -1.6513336244 -0.7351278372
H 2.2082142926 -0.0901110731 -0.3414427946
H 2.2219587203 -0.0096775834 2.6086168124
H 0.6747840088 0.8778372204 2.7485823643
H -0.9439819508 -2.0029216749 1.9593598030
H 0.6493385270 -2.8117992943 1.8520995708