17

O -0.2314275366 0.0628353344 -0.1229715767
C -0.0770186195 1.2559166201 -0.1053991014
C 1.2679546018 1.9350128194 0.0754979945
C 1.5370129162 2.8738088354 -1.1213981161
O 0.8751117714 4.0793951859 -0.7932358279
C 1.1502614513 4.3403151492 0.5710451405
C 1.2859631677 2.9461886952 1.2754311793
C 0.2678730224 2.6976924464 2.2868278634
C -0.5742400748 2.5007445002 3.1217554646
H -0.9260017240 1.9556054896 -0.2651194617
H 2.0256900316 1.1578795789 0.1884010273
H 2.6211837229 3.0272886915 -1.2464524495
H 1.1277385516 2.5107834682 -2.0682807988
H 2.0914184935 4.8993818053 0.6777797155
H 0.3337466467 4.9403693416 0.9755847436
H 2.2686624763 2.8833315869 1.7536017856
H -1.3178881483 2.3179438120 3.8577167677