16

C 0.0240088357 1.5548444336 0.0511211989
O 1.3835847131 1.9599789560 -0.0938579593
C 2.0404483556 0.9836135148 -0.8545789200
C 2.5471664776 -0.2597019933 -0.1450166462
N 2.5895434979 -0.3959816543 1.2707840805
C 1.4865304143 -0.5085930046 1.8819023679
O 0.2267326344 -0.4747401481 1.3859308311
C 0.0515901633 0.0192485075 0.0437498283
C 1.2216209383 -0.2825392797 -0.8889801762
H -0.3711903029 1.9663250083 0.9827338111
H -0.5774053758 1.9197432945 -0.7952175775
H 2.5854923522 1.3659744805 -1.7111605646
H 3.3863186600 -0.7400258402 -0.6392886676
H 1.4590521362 -0.6902498921 2.9540055657
H -0.8862663491 -0.4209456608 -0.2956359828
H 1.0618191493 -0.8913557221 -1.7690513993