23

C 0.1220139667 1.5528466441 -0.3640021163
C 0.0371828940 0.0685795376 -0.0788925761
C 1.2724900143 -0.8006387037 -0.0892062794
C 0.5320998050 -0.5593874784 1.2072578016
C 1.1555227181 0.2291200604 2.3363193782
C 0.1326625427 0.8788934108 3.3130397305
C 0.8353697100 0.8162432534 4.6479914619
C 1.8965857381 0.0118883912 4.6150416901
C 2.0938025886 -0.6093349987 3.2531962882
H 1.0475882280 1.9919382360 0.0193417521
H 0.0966960250 1.7415100674 -1.4431721492
H -0.7156166085 2.0974298620 0.0868278153
H -0.8560036015 -0.3971155511 -0.4888318798
H 1.2269830395 -1.7820122732 -0.5490111898
H 2.2283538426 -0.2993762128 -0.2140252460
H -0.0671315868 -1.3974675701 1.5603841721
H 1.7628819081 1.0388326187 1.9170775103
H -0.1378174443 1.8970286187 3.0106703337
H -0.8086495025 0.3095056838 3.3421926357
H 0.4745840564 1.3422209371 5.5254842672
H 2.5336760381 -0.2195269936 5.4620111714
H 1.7992385897 -1.6696593247 3.2646586269
H 3.1346285085 -0.5876610947 2.9108949814