17

C -0.0446120749 1.5335192648 0.0089658549
C 0.0950732506 0.0167681520 0.0017028058
O 1.1717504689 -0.5251536955 -0.0094330371
N -1.1137324202 -0.7002334234 0.0090308678
C -2.4041915023 -0.1206218915 0.0211671060
C -3.3756923728 -1.0311520477 0.0255940841
C -2.7608462113 -2.4015434077 0.0160096279
C -1.2535345965 -2.1205293189 0.0052631492
N -0.2818837468 -2.9309345847 -0.0049068091
H 0.9627985026 1.9475972396 0.0030586384
H -0.5862645382 1.8954474111 -0.8708867868
H -0.5730810373 1.8883352287 0.8996493241
H -2.4968941130 0.9528997630 0.0255813760
H -4.4342275127 -0.8209917757 0.0345649135
H -3.0270637788 -3.0001921335 0.8959755532
H -3.0407808696 -2.9939917259 -0.8639009459
H -0.6384320675 -3.8877022147 -0.0053181720