18

C -0.0108090750 1.4394151961 0.0247417873
N 0.0188669706 -0.0066260819 -0.1032250146
C -1.2415977245 -0.7438647379 -0.0399513010
C -1.1140244493 -2.0723618189 -0.7789240292
N 0.0467334092 -2.8531707393 -0.3841315865
C 1.0767741582 -2.1927738875 -0.0102190599
N 2.2268382571 -2.7930865730 0.4106970401
C 1.1957816983 -0.6723213093 0.0172382691
O 2.2922446942 -0.1363767977 0.1148794966
H 1.0131681650 1.8080924539 -0.0173874100
H -0.5966877032 1.8795426616 -0.7892628005
H -0.4626895062 1.7414762835 0.9787986311
H -1.5271089201 -0.9152848752 1.0094397312
H -2.0233992453 -0.1266517308 -0.4947123890
H -2.0166721249 -2.6659847975 -0.5970934272
H -1.0785787800 -1.8878526499 -1.8638418713
H 2.3389434688 -3.7690099474 0.1896156661
H 3.0431726372 -2.2002295388 0.4072033277