14

O 0.2606531131 1.3472061253 0.3053601212
C 0.0940051505 -0.0138327755 0.0374438693
C -1.3923629279 -0.6004035617 0.0141111494
N -1.0840225475 -0.9781814718 -1.3711769935
N -1.4782783768 -1.6695792477 -2.4411931493
C -0.3831520721 -1.5974255692 -3.2231758841
C 0.7001743140 -0.8934782353 -2.6323480041
C 0.1762507495 -0.5138161672 -1.4079588022
H -0.1500854153 1.8486079245 -0.4081860001
H 0.7393574422 -0.5448459894 0.7410676574
H -1.5848027157 -1.4483296698 0.6766418386
H -2.1811728581 0.1499357048 0.1138351755
H -0.4082996355 -2.0561974872 -4.2013891082
H 1.6748311296 -0.7124373199 -3.0529177100