15

O 0.2568019892 1.4065180466 -0.2321310680
C 0.0078053559 0.0489372181 -0.0025537209
C 0.2310288763 -0.5215798563 1.4694339403
N -1.1977374474 -0.8636783984 1.4285544771
N -2.1292954314 -1.6448386816 1.9610079634
C -3.0655569976 -1.6653859000 0.9910729970
C -2.6780223988 -0.9498873014 -0.1734113150
O -3.4410439886 -0.8426765546 -1.2930316621
C -1.4335197159 -0.4366418414 0.1638730599
H -0.3555448927 1.9181900509 0.3089882332
H 0.5906603292 -0.4948107637 -0.7499123668
H 0.8928761354 -1.3889723288 1.5375366426
H 0.4988925920 0.2238678977 2.2231495537
H -3.9995354944 -2.1845214305 1.1471472853
H -2.9553401913 -0.3470024365 -1.9587475997