17

O -0.0691938964 1.4448431046 -0.0183793335
C 0.0473325484 0.0288422358 -0.0196531421
C -1.3788856945 -0.5317254517 0.0793360659
N -2.1831791070 -0.0676455969 -1.0500261201
C -2.6868575269 -0.8066546438 -2.0854854038
O -3.2212981753 -0.3251668246 -3.0666216409
N -2.5624580861 -2.1827346275 -1.9209028907
C -1.9622278045 -2.7604815262 -0.8133700440
C -1.3995584620 -2.0317498418 0.1520735988
H 0.7740153573 1.8248417518 -0.2792555738
H 0.5161811604 -0.3414231420 -0.9425902097
H 0.6404057758 -0.3280175795 0.8371951639
H -1.8067126181 -0.1054300157 1.0009833173
H -2.1739384467 0.9259025168 -1.2220996092
H -2.9934868332 -2.7383386580 -2.6391952369
H -1.9889935816 -3.8437088403 -0.7873783469
H -0.9426604896 -2.5125474811 1.0067343558