18

O 0.4096516530 0.4260470811 -1.1297570920
C 0.2209319446 1.3222556216 -0.3337281844
N 1.0940726461 1.7043760847 0.6365800268
C 2.4296449311 1.1325634730 0.7468089113
C 3.4869402744 2.0515634965 0.2206870561
C 3.8583956926 2.2699063085 -1.2118042051
C 4.9279256237 1.8787637888 -0.2071760021
C 5.2018683333 3.0702352825 0.7028833679
O 3.7845907168 3.2266122547 0.9947202115
H -0.7122328118 1.9184759828 -0.3051843512
H 0.8823365012 2.5274999501 1.1783170327
H 2.6344126072 0.8920894903 1.7958273180
H 2.4199512836 0.2064679145 0.1679873774
H 3.5608826131 1.4798265490 -1.8937219268
H 3.8334565792 3.2747895751 -1.6247323718
H 5.5369439172 0.9899511389 -0.3005664153
H 5.7541539681 2.8150721766 1.6141576684
H 5.6336292467 3.9694303214 0.2476421085