19

O 0.1349402444 0.9866875860 -0.8229650017
C -0.0151285009 -0.3806027536 -0.4628016707
C -1.4062132837 -0.5417757877 0.1275374217
C -2.5593433677 -0.4413360393 -0.9078549684
C -2.7300662703 -1.9995681974 -0.8838217535
C -2.1279219486 -2.7070992761 -1.9953701982
C -1.5703061635 -3.3186200932 -2.8712107031
C -1.8253524945 -2.0191238104 0.4106287711
O -0.8506134293 -3.0136100213 0.5373872270
H 1.0012422664 1.0960453971 -1.2255975413
H 0.1072235846 -1.0332457788 -1.3411411417
H 0.7332900387 -0.6883483679 0.2825579974
H -1.4926565597 0.1307999593 0.9853354467
H -3.4456402660 0.0651442942 -0.5210867840
H -2.2947383329 -0.0050042724 -1.8713421903
H -3.7514861434 -2.3580297257 -0.7283653804
H -1.1178809875 -3.8485144297 -3.6729554843
H -2.4552319717 -2.0783443230 1.3027033455
H -0.5690474745 -3.2646498201 -0.3527311017