20

C -0.0322526923 1.4610897387 -0.0035912795
N 0.0213733232 0.0212412265 -0.1758238817
C -1.2365232326 -0.7079536636 -0.0841789434
C -1.1564422244 -2.0670506019 -0.7763624920
C 0.0971536210 -2.8118196962 -0.3865390782
C 0.0894601536 -4.3061333592 -0.5143869054
C 1.1677370811 -2.1113220943 0.0040716544
C 1.2186174729 -0.6292977717 0.0412589593
O 2.2721086751 -0.0347685013 0.2218364801
H 0.9839240574 1.8478053220 -0.0657751486
H -0.6511379712 1.9132364368 -0.7864234803
H -0.4557973938 1.7381835748 0.9729848384
H -1.5242464387 -0.8481005220 0.9715741156
H -2.0186722129 -0.0973158676 -0.5468974098
H -2.0482676002 -2.6527928945 -0.5259509769
H -1.1688866974 -1.9395186712 -1.8687643770
H -0.1654559263 -4.6069664950 -1.5389976915
H 1.0591320092 -4.7403479870 -0.2600965035
H -0.6730036092 -4.7514808747 0.1371944628
H 2.1071338854 -2.5891675286 0.2602989572