25

C 0.0088029828 1.6806114193 -0.1988701866
C -0.2822977277 0.1998508412 -0.4678913641
C 0.8568679681 -0.5097043469 -1.1879381219
C 2.1927943205 -0.7685979907 -0.4347149684
C 2.2857082617 -2.1398689550 -1.1530929683
C 0.7694070340 -2.0346787717 -1.4777105483
C -0.1628888725 -2.9768726822 -0.6597250916
C -0.3104554811 -3.8624284529 -1.9263002514
C 0.2022502696 -2.6652264800 -2.7713241135
H 0.9070504254 1.8020383171 0.4161377207
H 0.1735773488 2.2272442538 -1.1341951208
H -0.8215886919 2.1620571368 0.3271495703
H -0.4831554802 -0.3103950329 0.4832538132
H -1.2022921515 0.1108861007 -1.0620029534
H 1.0681987434 0.0105398830 -2.1327389301
H 3.0125055642 -0.0614290554 -0.5826251687
H 2.0254595285 -0.8839171340 0.6415361442
H 2.8959671061 -2.0823430802 -2.0605406994
H 2.6175830108 -3.0012387982 -0.5660664271
H 0.2505829714 -3.4371835517 0.2424973447
H -1.1088135564 -2.4924721609 -0.3983837426
H 0.3990740297 -4.6944529602 -1.9279796192
H -1.3042462561 -4.2556312444 -2.1530747845
H -0.6245067198 -2.0727692647 -3.1788992612
H 0.9110320923 -2.8714369598 -3.5791308721