14

O 0.3142702644 1.3485254572 -0.0745518048
C 0.1398239396 -0.0245616104 0.1285334855
C -0.0930820613 -0.3992130412 1.6011635733
O -1.3040693888 -1.1243802480 1.2620495115
C -1.2649304363 -0.6592281772 -0.0897942073
C -2.3894114307 0.3216832589 -0.3979295992
F -2.5203904032 1.2637062900 0.5335701909
F -2.1339149097 0.9278748590 -1.5792513472
F -3.5650695184 -0.3064751090 -0.5148400312
H 0.2351404348 1.5358951173 -1.0160883496
H 0.9268667567 -0.6164336374 -0.3550091088
H 0.6476446909 -1.0466116482 2.0785039653
H -0.2995884101 0.4736352793 2.2289545795
H -1.3312008276 -1.4756034302 -0.8182396279