23

C 0.3844251685 0.7848477404 -0.3152683450
O -0.0155759520 -0.5052639118 0.0828750143
C -1.4201620791 -0.6502173026 0.2590519381
C -2.2156036986 -0.7389227970 -1.0804350355
C -2.8240568237 -2.1334748940 -1.1581384664
C -1.9210004415 -3.3478701908 -1.1963467871
C -0.4497481494 -3.3209007787 -1.5521391360
C -2.5016389605 -2.8814899080 0.1213586492
C -1.6841221994 -1.9711415072 1.0284842004
H 1.4765525291 0.7869215908 -0.3566603074
H -0.0036957643 1.0620928600 -1.3066953209
H 0.0537097921 1.5484493907 0.4068322776
H -1.7709022956 0.2124545190 0.8454083078
H -3.0157858338 0.0083391776 -1.0999052122
H -1.5538847546 -0.5140020529 -1.9242194500
H -3.8013257794 -2.2213935635 -1.6215908206
H -2.4283708196 -4.2292381448 -1.5846938623
H 0.0628328883 -2.4384444534 -1.1651343400
H 0.0583969158 -4.2050563832 -1.1498357890
H -0.3182092121 -3.3364192854 -2.6405537115
H -3.2439968263 -3.5153524521 0.5950503322
H -0.7238291222 -2.3994277755 1.3320798583
H -2.2470469518 -1.7685648177 1.9449647961