18

O 0.0385071153 -0.0393258042 0.0171276627
C -0.0126493462 1.1677438162 -0.0230919669
C -1.3709899095 1.8822730850 -0.0093860772
C -1.9049974640 1.9568364445 1.4266047175
O -0.9015896989 2.4510370055 2.3265125884
C -0.4087136136 3.6853898546 1.9948463519
N 0.7430792750 3.8933442421 1.5307089723
C 1.5941072086 2.7286290107 1.2681158046
C 1.2547380497 2.0170777815 -0.0661167437
H -1.2909397333 2.8864223803 -0.4355848381
H -2.0723771959 1.3000418176 -0.6140493353
H -2.8069772963 2.5823456390 1.4758917295
H -2.1459265979 0.9580605495 1.7951989313
H -1.0936062667 4.5175224996 2.1789047750
H 2.6228187657 3.0907020518 1.1955783448
H 1.5484311398 2.0003327061 2.0855233306
H 2.0779503879 1.3434347939 -0.3181449303
H 1.1669590403 2.7758667661 -0.8531506773