14

C -0.0142665109 1.4547628146 0.0088726175
N 0.0061710427 -0.0053520467 -0.0227332529
C -0.1033021584 -0.7059434250 -1.1959739903
C -0.0806211132 -2.0612926353 -1.1885249855
N 0.0509021283 -2.7716725332 -0.0226966294
C 0.1523183222 -2.1088213024 1.0664109258
F 0.2802407766 -2.7646287364 2.2057570953
C 0.1437986948 -0.6440134961 1.2141134917
O 0.2411278073 -0.0248778445 2.2572507271
H 0.9116600651 1.8294499432 0.4513394236
H -0.1238732444 1.8323200054 -1.0075830501
H -0.8435422772 1.8011415850 0.6300476890
H -0.2058940575 -0.1207242670 -2.1005407310
H -0.1657490255 -2.6300242617 -2.1047313108