18

O 0.8821779967 -0.1659886632 0.4592205907
C -0.0379249204 0.2923169660 -0.5174298577
C -1.3389054585 -0.4987685575 -0.4536314061
C -2.2728308266 -0.2464318487 0.7611873114
C -3.3794786020 0.0849359336 -0.2722629195
N -2.4385835343 -0.1781274780 -1.4379887949
C -2.5285273965 1.2515176928 -1.8800773883
C -3.4776671416 1.5565865484 -0.7032196907
O -4.0523715670 2.5219916209 -0.2994522193
H 1.1076101164 -1.0784901849 0.2498730911
H -0.2031321958 1.3481708918 -0.2809428421
H 0.3804491365 0.2419872404 -1.5359347446
H -1.0837809588 -1.5608892979 -0.5644214363
H -2.4824771782 -1.1195717832 1.3804510575
H -1.9785141318 0.5791240136 1.4138972277
H -4.3163083997 -0.4761606223 -0.2200994707
H -1.6001714547 1.8278566164 -1.9235893968
H -3.0228261439 1.3339537718 -2.8550781713