12

C -0.0163298764 1.4355908242 0.0794837971
C -0.0172613204 -0.0359720020 -0.0763299822
N -0.2008240757 -0.7258276407 -1.1552252681
C -0.0953465124 -2.0374764536 -0.7106794943
N -0.1508187140 -3.2653466571 -1.1416981028
O 0.0723372890 -4.0125929905 0.0067449421
N 0.2670718325 -3.2314009203 1.1563415602
C 0.1569494483 -2.0381631913 0.6742006836
O 0.2120582539 -0.7606136077 1.1085982657
H 0.9467474598 1.7753525634 0.4734069514
H -0.2019209785 1.8990892775 -0.8886577587
H -0.7895501860 1.7428491980 0.7907117860