21

C -0.1616177999 1.5326160283 -0.1050785428
C 0.0792178122 0.0261228992 -0.0266675944
C 0.8891464846 -0.5475782886 -1.2149612109
C 1.2427114037 -1.9598679259 -0.7383957876
O 2.2829609118 -2.6022868518 -1.4191771594
C 1.5773469141 -1.7224729277 0.7324671446
O 2.4086764147 -2.3691813920 1.3245733180
C 0.8277175252 -0.4898009072 1.2428161390
C 1.8293428398 0.4801025213 1.8930241182
H 0.7767176738 2.0951854731 -0.1300073169
H -0.7183548986 1.7816348780 -1.0144780323
H -0.7457441974 1.8914979258 0.7488449476
H -0.9024671826 -0.4662491299 -0.0403277189
H 0.3292539625 -0.5353802243 -2.1531551151
H 1.8155775786 0.0196953089 -1.3694377271
H 0.3200994705 -2.5726721898 -0.7605712995
H 2.8307067723 -3.0094447000 -0.7308288988
H 0.1156494041 -0.8049887826 2.0147102144
H 2.5550973913 0.8614889901 1.1676671654
H 1.3163819921 1.3346122028 2.3412864524
H 2.3858699072 -0.0439641377 2.6738503639