23

C -0.1256134261 1.5755019586 -0.0419207622
C 0.0625661226 0.0801055196 -0.0487247089
C 0.1593455756 -0.6020879464 -1.1940586736
C 0.4002721225 -2.0858462523 -1.3852268042
C -0.3658448132 -3.1293550471 -0.6021658268
C -1.4036591341 -3.0343447524 0.2320198079
C -2.1321209944 -1.7937127995 0.6879290947
C -1.3621901033 -0.9891257285 1.7575905176
C 0.0622828724 -0.5930243387 1.3051478547
H 0.7011086894 2.0722292871 0.4828104725
H -0.1818994235 1.9853431066 -1.0539459314
H -1.0424815934 1.8607667091 0.4907242086
H 0.1208048114 -0.0324883139 -2.1211816623
H 0.2573560097 -2.3165471056 -2.4507942342
H 1.4719268744 -2.2904021876 -1.2209863036
H 0.0184243518 -4.1330923295 -0.7859170599
H -1.7562552780 -3.9675395567 0.6683946924
H -2.3346096991 -1.1394584016 -0.1642662060
H -3.1063895449 -2.0790366071 1.0992029459
H -1.9415732140 -0.0903705024 2.0025361962
H -1.2859496175 -1.5731419786 2.6824095628
H 0.6840779041 -1.4922068650 1.2795675401
H 0.5006832376 0.0739139718 2.0570482497