15

C -0.0371639976 1.4949345839 -0.0140763544
O 1.1770429292 0.7365359873 0.0321862243
C -0.0644402645 0.0313668406 0.0199463261
C -0.4143121378 -0.8235689830 1.2391805392
C -1.0533153254 -2.0678262678 0.5972306776
O -0.4759972448 -2.1624068668 -0.7003369593
C -0.3891903671 -0.8369127715 -1.1953048509
H -0.2711427647 2.0622527885 0.8863440088
H -0.2230548474 2.0227547803 -0.9499443103
H 0.5119373899 -1.0788748701 1.7616035621
H -1.0790164933 -0.3180864528 1.9436868581
H -0.8408772620 -2.9986716937 1.1273640483
H -2.1474032754 -1.9505479881 0.5242129018
H -1.3470526128 -0.5258850550 -1.6464224337
H 0.3950036036 -0.7888545718 -1.9544235077