14

O 0.0788571488 1.3366562763 0.0952941586
C 0.0648800008 -0.0043727573 0.0629075382
N 0.0965445284 -0.5828650510 -1.1385794397
C 0.0829690226 -1.9128459063 -1.1804455547
C 0.0377621539 -2.7224313626 -0.0413742583
C 0.0249113694 -4.1905816535 -0.1550762939
O 0.0507069006 -4.8053089704 -1.1971034294
C 0.0052878824 -2.0854820731 1.2070961947
C 0.0185459778 -0.7070846818 1.2751873554
H 0.1114128348 1.6287705833 -0.8275380078
H 0.1088784152 -2.3786573208 -2.1611934285
H -0.0119875161 -4.7223988684 0.8233579019
H -0.0301828809 -2.6802579638 2.1158158125
H -0.0051440177 -0.1659651204 2.2123594211