23

C -0.2680492893 1.5453176934 0.0267611049
C 0.0473000492 0.0503396358 -0.0096399443
C 0.7518097590 -0.4822823168 -1.2929570820
C 2.0519782243 0.2857617972 -1.6349297243
C 2.7483995921 -0.5401509398 -0.5299338123
C 2.4129182994 0.0183311703 0.8787866188
C 0.9713362524 -0.4951424161 1.1125688029
C 1.1119936678 -1.9701082714 0.6795026073
C 1.6439244765 -1.6464906642 -0.7153378564
H 0.6309888212 2.1675571775 0.0166755565
H -0.8787228163 1.8375120435 -0.8348931894
H -0.8312380338 1.7991887621 0.9314614156
H -0.9090258276 -0.4833681001 0.0767340001
H 0.0521091957 -0.6859848846 -2.1065785957
H 2.4161203074 0.0127065895 -2.6304408520
H 2.0630552914 1.3766224248 -1.5491563526
H 3.8014781368 -0.7967840961 -0.6603565650
H 3.0844337362 -0.4010916584 1.6360203511
H 2.5083019519 1.1074830975 0.9307073236
H 0.5911828183 -0.3234583166 2.1227103853
H 1.8245346963 -2.5346503292 1.2906867300
H 0.1578481570 -2.5074631996 0.6706052543
H 1.8814317639 -2.4666607587 -1.3920746462