17

C -0.1083609528 1.5179940883 -0.1705118192
C 0.0249244818 0.0250305162 0.0347546900
C 1.2995891250 -0.7525744962 -0.1611337786
O 2.4418331727 0.0008749262 0.2695205056
C 1.9947916176 -0.0470267508 1.6352296780
C 1.9806936596 1.2439974570 2.4084662961
O 2.2991794728 2.3275250447 1.9936539705
C 0.6604451597 -0.7018005541 1.2097391073
O 0.0472949205 -1.6941794134 1.9407414091
H 0.8415705700 2.0244302270 0.0050378320
H -0.4201794189 1.7253901235 -1.1994569343
H -0.8599352009 1.9513887766 0.4981345628
H -0.8237023456 -0.5679876926 -0.3082222094
H 1.4634518999 -1.5549857263 -0.8699697526
H 2.5815373807 -0.7808479396 2.2105315317
H 1.6322011851 1.0987998238 3.4596396441
H -0.7752499674 -1.3482088905 2.3035307668