18

O 0.4838008999 0.2282564432 0.8971364301
C -0.1145140181 0.1915475379 -0.3890088800
C -1.4711999242 -0.5267877999 -0.4107191280
O -2.0234429731 -0.4773735356 -1.7234394998
C -1.3921321413 -1.9566246474 0.1050997064
C -1.2812803425 -2.1995588726 1.6269796779
O -2.4770162175 -3.0056943348 1.6310636555
C -2.7220865873 -2.7293440440 0.2362373932
H -0.0092442735 0.8537265279 1.4373960354
H -0.2371782384 1.1954694787 -0.8189518209
H 0.5898839644 -0.3542520569 -1.0305930399
H -2.1826876598 0.0364484373 0.2096659399
H -1.4574259209 -1.0015566081 -2.3017328348
H -0.6342531864 -2.5074703089 -0.4640563038
H -0.4020201001 -2.7552433877 1.9694041810
H -1.3909683889 -1.3008292550 2.2465867515
H -3.6200441382 -2.1158241999 0.0847084661
H -2.8182648842 -3.6477634842 -0.3544846698