18

O 0.0117288584 1.3237202712 -0.5381103246
C 0.0402806643 0.0163143371 0.0036270234
C 0.2978927928 -1.0932627530 -1.0560214260
C -1.2365312461 -1.3131491914 -1.1565655250
C -1.4118708224 -0.5099593918 0.1703645617
N -1.6227754405 -1.3949281361 1.3013996159
C -0.6523852586 -1.6772696151 2.0606376575
O 0.6222580347 -1.2074317727 2.0493313790
C 0.8307586885 -0.0021618752 1.3031081984
H 0.8665869394 1.5005399566 -0.9467407207
H 0.8175519406 -0.7633735036 -1.9596010819
H 0.8261734664 -1.9541082258 -0.6377779011
H -1.6800377484 -0.7965034421 -2.0097454349
H -1.5979772687 -2.3414538645 -1.1237635082
H -2.1806280790 0.2664009402 0.1619702603
H -0.7668694022 -2.4070159957 2.8602814376
H 1.9108464906 0.0666961681 1.1364378268
H 0.5119929201 0.8540531238 1.9108286619