16

C -0.1287222546 1.5553791637 -0.0625031496
C -0.0859213984 0.0699701138 0.0038175372
C 0.0549733701 -1.0056753331 -1.0799828407
C 1.2711185260 -1.4742048165 -0.3834173693
O 2.2505516836 -2.1108763729 -0.6116970406
N 0.8725210582 -0.7659378765 0.8746959603
C -0.3220835980 -1.6184025247 1.2915416172
C -1.0436748107 -1.0462475511 0.0753743855
O -2.3804278467 -0.9924961283 -0.2125394281
H 0.8355538878 1.9582573364 -0.3867855918
H -0.8960494225 1.8789136582 -0.7717239533
H -0.3663942272 1.9814433683 0.9171456258
H -0.2428107875 -0.9832562593 -2.1204134390
H -0.1068380512 -2.6906937426 1.3491979599
H -0.7365744533 -1.2599522018 2.2374391660
H -2.6742593356 -1.8619624835 -0.5087275095