19

C -0.2575843160 1.4873515852 -0.0988609203
C 0.1103992500 0.0278954685 -0.0358426712
O 1.4880406506 -0.3308722992 -0.2149518468
C 0.8798400127 -0.5838970934 1.0606402777
C 1.4132093457 0.1952098050 2.2634117445
C 1.8543828731 -0.7698334936 3.3646358857
O 2.3068787239 0.0134954359 4.4530138627
C 2.6036362255 1.0608252338 1.8515025153
O 2.5637987824 2.2526459123 1.7062084663
H -0.2327336384 1.8355657832 -1.1365673723
H -1.2784022881 1.6279709839 0.2739163501
H 0.4213059374 2.1079098083 0.4884131290
H -0.5704805889 -0.6381054007 -0.5704450265
H 0.7098914133 -1.6458306462 1.2521530818
H 0.6455005469 0.8640014220 2.6656456969
H 1.0094673355 -1.4164442486 3.6484997576
H 2.6524592103 -1.4248954043 2.9760731872
H 2.6604488162 -0.5716549481 5.1294636868
H 3.5438037777 0.4884513860 1.6911516354