19

O -0.0967952228 1.4685224821 0.1128890653
C -0.0126551340 0.0562063625 -0.0044724129
C 0.7426760284 -0.6304773276 1.1605637884
C 0.0559773879 -1.9830135546 1.3218789837
C 0.7678786806 -3.2647337853 1.2444430632
O 0.3207930499 -2.7444421119 2.5014350263
C -1.3585664671 -1.8234527476 0.8394278460
C -2.1083055553 -0.6130750657 1.3431105722
C -1.4056264841 -0.5522669875 0.0148519102
H 0.7900181967 1.8297619792 0.0154783230
H 0.4662615444 -0.2140664840 -0.9587896570
H 1.8174641686 -0.7198114606 0.9837638867
H 0.6057223963 -0.0367320585 2.0704417633
H 0.2462196953 -4.1562316459 0.8961493005
H 1.8481934886 -3.2775318974 1.0996325029
H -1.9154106281 -2.7104691752 0.5606408782
H -3.1905397905 -0.6707477874 1.3204782416
H -1.7134765638 -0.0500520424 2.1809644201
H -2.0008039509 -0.4852058620 -0.8881042717