22

C 0.2402024253 1.3363607026 -0.3169288582
C -0.0187667449 -0.0528213892 0.2404886545
O -1.1844571098 -0.5738929189 -0.3748052994
C -1.5057650869 -1.8779075533 0.0192484786
C -2.2373335631 -2.1289548192 1.3755334774
C -3.1865193166 -3.1194534480 0.6345951638
C -2.7196175272 -2.4867495987 -0.6791015710
C -3.5242172352 -1.7924061969 -1.7044544038
N -2.8160780531 -3.0550274137 -2.0146092520
H 1.1359973386 1.7693761368 0.1380854212
H 0.3859621346 1.2943710341 -1.4001593350
H -0.6073433534 1.9962487150 -0.1111488950
H 0.8392668536 -0.7173764569 0.0431467990
H -0.1501817914 -0.0117141293 1.3333803462
H -0.6222806859 -2.5333810127 -0.0721329116
H -1.6474673215 -2.5194703695 2.2066958911
H -2.7620077825 -1.2237529889 1.6917256908
H -2.8629896852 -4.1602170041 0.7268263988
H -4.2515476525 -3.0590828156 0.8666701122
H -4.6082045425 -1.8723080639 -1.6890025954
H -3.1313891959 -0.8606576057 -2.1001376743
H -1.9669388944 -2.8520243738 -2.5386300480