15

O 0.0409589911 0.0381118060 0.3005121764
C -0.0154747498 1.2058518136 0.1247255095
C -1.1047755800 2.3366579854 -0.0480822866
C -0.6702202413 3.0658717991 1.2421247495
C 0.6872731128 3.1531119698 1.2208220972
C 0.9749212392 2.4926233406 -0.0898784620
O 1.9790523375 2.3698935854 -1.0723336796
C 0.8853114257 2.3423571674 -2.0720964153
C -0.0976143431 2.9900351716 -1.0388618988
H -2.1654175084 2.1619939993 -0.2144734909
H -1.3291922403 3.2456735123 2.0796126686
H 1.3598224306 3.4492571482 2.0121273711
H 1.1364735698 2.9566246125 -2.9377856434
H 0.6689525329 1.3141505617 -2.3774122047
H -0.1874635467 4.0719008470 -1.1444262410