15

C -0.0260558966 1.5653241920 0.0446557798
C -0.0229656206 0.0293020172 0.0461015546
C 0.7136135741 -0.5255443029 1.1801168369
C 1.3420054476 -0.9569900530 2.1071320463
N -1.4022262498 -0.4893470091 0.0122513796
N -1.8058497034 -1.3912364887 -0.8753745198
C -3.0718266899 -1.5570611402 -0.5137168461
N -3.4185231164 -0.7913516577 0.5453401642
N -2.3420422954 -0.1178806966 0.8699252467
H 1.0047348296 1.9254318642 0.0245817204
H -0.5528547175 1.9378779095 -0.8373503666
H -0.5172312522 1.9443715622 0.9418918574
H 0.4140248694 -0.3425336737 -0.8849078783
H 1.8904790920 -1.3473472542 2.9290574573
H -3.7478083810 -2.2288997390 -1.0168286726