22

C 0.0157899112 1.5350147427 -0.2043298638
C -0.0135841232 0.0269181567 0.0535547865
C -1.4290606315 -0.5656960032 0.0098853140
O -2.0665608543 -0.2968570283 -1.2375263969
C -1.4395021745 -2.0634157361 0.3512785235
C -2.8233314711 -2.6755436913 0.3898667846
C -3.4494226293 -3.2588171890 -0.8483472376
C -3.0064614486 -4.1686024276 0.2711098463
H 1.0416084504 1.9148169045 -0.2298622718
H -0.4653054001 1.7697613323 -1.1572629268
H -0.5224810217 2.0782047435 0.5804362359
H 0.6042661123 -0.4926372872 -0.6941671349
H 0.4362167701 -0.1993822077 1.0285780192
H -2.0523848715 -0.0367048439 0.7443580425
H -1.5865346891 -0.7804131207 -1.9192128706
H -0.8188186433 -2.6021862980 -0.3811373742
H -0.9451793614 -2.1990810003 1.3229558898
H -3.5086639010 -2.1709860911 1.0671970925
H -4.5114007513 -3.1127550972 -1.0105329243
H -2.8626047688 -3.2576236554 -1.7610363493
H -2.1213514386 -4.7765927734 0.1118648081
H -3.7654263046 -4.6468232893 0.8805416574