25

C 0.0140559133 1.5678393482 0.0732944089
C 0.0312078740 0.0371298198 0.0454729386
C 0.7474123288 -0.5726372652 1.2545897729
C 0.7643990278 -2.0947324718 1.2269277642
O 1.4410560175 -2.5639760894 2.3731853472
C 1.5129822857 -3.9702061599 2.4441799282
C 2.2598414496 -4.3531483722 3.7142856640
C 2.3925372544 -5.8604145965 3.8854532932
O 3.1000746157 -6.0982691757 5.0927051437
H 1.0314484200 1.9741945278 0.0805433053
H -0.5025970298 1.9777447311 -0.8001175982
H -0.4957813370 1.9409454597 0.9683487131
H -0.9995701765 -0.3392969078 0.0035396981
H 0.5165042075 -0.3062890507 -0.8778407593
H 1.7825412090 -0.2122810860 1.3000674980
H 0.2636285256 -0.2452661287 2.1831359716
H -0.2668124260 -2.4899005854 1.2022649827
H 1.2654136192 -2.4566046386 0.3113973180
H 0.4978422309 -4.4060985536 2.4453747989
H 2.0298374353 -4.3727154031 1.5545967447
H 3.2585206416 -3.9041010013 3.6969841679
H 1.7365748269 -3.9375848256 4.5819220288
H 1.3924662126 -6.3243089714 3.9126322480
H 2.9252372932 -6.2906078652 3.0210022560
H 3.1857599208 -7.0489671383 5.2079966753