12

N 0.1777314211 1.4627898234 0.0172452363
C 0.0050307233 0.0722221286 0.0073359065
C -1.0536244250 -0.7479134400 -0.0531258577
O -2.3672300011 -0.4875392822 -0.1282202484
O -0.6702357260 -2.0616678362 -0.0311307347
C 0.7370418403 -2.1090333806 0.0492955675
O 1.3579832133 -3.1348961056 0.0848759921
N 1.1244239619 -0.8065987939 0.0713071294
H -0.1643325209 1.9087512716 -0.8260716996
H -0.2592015293 1.9087872208 0.8155170394
H -2.8361443924 -1.3299791615 -0.1545823772
H 2.0836954248 -0.5126963944 0.1263054763