18

C -0.1048982236 1.5063804246 -0.0774994493
C 0.0288790869 0.0166485151 0.0308301017
C 1.3173818802 -0.7414519536 -0.2647398236
C 0.6862553502 -0.7715398373 1.1220169674
C 1.3612076291 -0.2514315981 2.3560601602
O -0.1736184809 -1.8618636538 1.3939842154
C -1.0911196451 -1.9386106169 0.3215215400
O -1.1771760000 -0.6586161648 -0.2718466601
H 0.8143808634 2.0003862975 0.2483584366
H -0.2985010029 1.8036825901 -1.1133452294
H -0.9331752695 1.8644603596 0.5416040729
H 1.2896694731 -1.6281313127 -0.8885237523
H 2.2173304800 -0.1449250077 -0.3760131153
H 1.9461726388 0.6433788294 2.1270858559
H 0.6215077668 0.0004009555 3.1222045287
H 2.0417369051 -1.0021004083 2.7710587824
H -0.7495455845 -2.6803176610 -0.4199990158
H -2.0751189171 -2.2292373377 0.7043969046