27

C 0.0623692282 1.5376257666 0.2383370139
C 0.1555012580 0.0107173174 0.1499433005
C 0.6359110017 -0.5277919274 -1.2155022992
C 2.1475070619 -0.2859713922 -1.4099076779
C 2.6321373559 -0.4003647876 -2.8587725285
C 0.2898848137 -2.0219199300 -1.3758792120
C -1.1735073180 -2.2901125013 -1.7070822325
O -1.3606708599 -3.6863934265 -1.8062681191
C -2.6837815741 -4.0403656513 -2.1218174896
H 1.0278922189 2.0229030020 0.0646259472
H -0.6425016886 1.9315175711 -0.5026228516
H -0.2867205594 1.8521454890 1.2270032467
H 0.8301524983 -0.3659134684 0.9312592050
H -0.8306331945 -0.4089706047 0.3805284403
H 0.1062386894 0.0323818604 -2.0025324971
H 2.4041430623 0.7124556139 -1.0380345813
H 2.7000314949 -0.9940162707 -0.7768201783
H 3.7089411067 -0.2158776799 -2.9273344720
H 2.4442044700 -1.3924067768 -3.2814869881
H 2.1289999020 0.3322095094 -3.5000181846
H 0.8908410154 -2.4718518193 -2.1730433202
H 0.5467939725 -2.5606398310 -0.4547680458
H -1.8443601905 -1.8737286844 -0.9363135960
H -1.4422865331 -1.8002345161 -2.6601717581
H -3.3961085808 -3.6938709443 -1.3552978750
H -3.0003928419 -3.6236657820 -3.0919188503
H -2.7290805492 -5.1310645158 -2.1761532065