18

C -0.1827966530 1.4855147649 0.3506652937
C 0.0291846768 0.0266446869 -0.0094928519
C 1.4104420404 -0.4177240402 -0.4354106123
C 0.8685031050 -0.8158476764 0.9171773036
C -1.1861017727 -0.5938943264 -0.7053682255
N -1.4483230410 0.0941820534 -1.9743082055
C -1.0531041637 -2.0579853842 -0.8794766119
N -0.9664035633 -3.1953795587 -1.0711484952
H 0.7213872206 1.9053728703 0.8003477525
H -0.4383858404 2.0750152457 -0.5331470893
H -0.9975464296 1.5960837562 1.0764922795
H 1.4989899835 -1.2015046015 -1.1806712232
H 2.1893626093 0.3351634585 -0.4840143268
H 1.2702999310 -0.3268725252 1.7979269508
H 0.6081752675 -1.8580627598 1.0634406064
H -2.0624472602 -0.4335260849 -0.0632764090
H -0.6721953389 -0.0651788932 -2.6108511471
H -2.2771436214 -0.2891276252 -2.4186076990