20

C 0.0217826667 1.6056321389 0.1198306355
C -0.0238149806 0.0881995671 -0.1266006296
C -1.4143630180 -0.4951885032 -0.0592565356
C -2.0866964282 -0.8938683134 -1.1716285358
N -3.3444802630 -1.4343055474 -1.1805766949
C -3.8484783895 -1.9802275007 0.0753548073
C -3.5564060106 -0.9947902094 1.2041438559
C -2.0804953738 -0.5810996562 1.2413374242
O -1.5394140296 -0.2837460715 2.2946246822
H 1.0508684997 1.9771285594 0.0746903223
H -0.5661141274 2.1444594438 -0.6310296070
H -0.3822708053 1.8419652591 1.1070308224
H 0.4194545194 -0.1409718301 -1.1032739817
H 0.5980491890 -0.4064590733 0.6281262075
H -1.6384231891 -0.7758827489 -2.1555763035
H -3.6010731013 -1.9359716561 -2.0161683510
H -4.9220822560 -2.1652662498 -0.0213065153
H -3.3579200573 -2.9434398016 0.2954689764
H -4.1474969168 -0.0803819350 1.0569523002
H -3.8308010582 -1.4126390217 2.1751014104