16

O -0.6106559558 0.8524342318 0.8573587567
C 0.0384251687 1.1185212552 -0.1210304845
C 1.3534751241 1.8467401912 -0.0779309796
C 1.5896999945 2.9045472778 1.0247137649
C 1.9508455428 3.8808702448 -0.1262799425
N 1.6609314917 2.8463393630 -1.1813052604
C 2.8782407884 2.0878925589 -1.6023994139
C 2.6239109320 1.0460858030 -0.5009177175
O 3.1510421859 0.0494328541 -0.1188195249
H -0.2939835844 0.8428157742 -1.1456274896
H 0.6774898323 3.1404082122 1.5744404710
H 2.3808530032 2.6761043352 1.7403040968
H 1.2915998952 4.7465979478 -0.2236658587
H 2.9881197097 4.2308698954 -0.1371916493
H 2.7827508514 1.6715292341 -2.6119090683
H 3.8272053403 2.6328646212 -1.5413001303