10

C 0.0133109170 -3.7842005082 -0.0183871730
C 0.0193661224 -2.5774602736 -0.0119630606
C 0.0240000026 -1.2167838280 -0.0046956171
C 0.0297446758 -0.0090351130 0.0017399257
C 0.0150404129 1.4487596123 0.0097103341
C 1.3598351383 2.0408707493 0.0000406604
N 2.4090552824 2.5219585316 -0.0074023676
H 0.0117167961 -4.8463059968 -0.0240803536
H -0.5353038693 1.8289499069 -0.8611627029
H -0.5185157283 1.8195153094 0.8949785445