19

C -0.0378981688 1.5289280418 0.1582254829
C -0.0204881510 0.0179478398 -0.1116207941
C -1.3823417154 -0.5901479689 -0.0036923847
C -2.0915368930 -1.0666553249 1.2270577383
C -1.9206327543 -2.0060392196 0.0462239905
C -2.8425066293 -1.5406593336 -1.0881640248
O -2.3616208666 -0.1920865704 -0.9862188021
C -2.4961672959 -2.2034159114 -2.4073417184
O -1.7711417397 -1.7411298129 -3.2452927623
H 0.9619999598 1.9558136775 0.0394560206
H -0.7091739649 2.0354374195 -0.5409437370
H -0.3824461226 1.7452715811 1.1745576564
H 0.3670042422 -0.1775504310 -1.1178544603
H 0.6442986683 -0.4889487117 0.5977918237
H -1.4543832994 -1.3030121941 2.0741619331
H -3.0709161489 -0.6704285116 1.4807926354
H -1.4108954020 -2.9586508961 0.1020354063
H -3.9257859452 -1.6232755425 -0.9132182899
H -2.9672825832 -3.2089571712 -2.5246896737