19

C 0.4111867103 1.5653131178 0.5626762822
O -0.2270751651 0.3040016576 0.4451960049
C 0.5211665386 -0.7445172767 0.9726495421
C -0.1092946214 -2.1590295204 0.8209857329
C 1.2872920300 -2.7612047076 0.4165750905
C 2.0274594921 -3.4057887739 1.5863519527
O 1.3402605683 -3.6152176088 -0.6968995762
C 1.6772154677 -1.3029452437 0.1114671654
O 2.3364154588 -0.8466181510 -0.7832937104
H 1.3546998807 1.5906422010 0.0051490396
H -0.2745513301 2.3068677875 0.1475824643
H 0.6109469119 1.8142277368 1.6164997775
H 0.8377676950 -0.5437883364 2.0091732338
H -0.5846280578 -2.5795141033 1.7074641769
H -0.7962328386 -2.1738383401 -0.0269164376
H 1.5674904575 -4.3731770711 1.8109014086
H 3.0746681524 -3.5755054063 1.3223325777
H 1.9862784276 -2.7874871756 2.4882122051
H 1.6576637822 -3.0927944361 -1.4445904200