19

C -0.2389879418 1.2847752014 0.2265420789
O 0.6229463723 0.2013150371 -0.0838392648
C 0.9930462014 -0.5127809884 1.0467053007
C 0.0845016748 -1.5853217998 1.5924059408
O -1.1598899380 -1.8756543270 1.0328350857
C -1.2591269188 -2.1376920021 -0.3693810466
C -0.0407879107 -2.7498803729 -0.9896334878
C 1.1620846734 -2.6658421193 -0.4267154766
C 1.3559879866 -1.9881422017 0.8735866924
H 0.2502691871 2.0058932624 0.8982491099
H -0.4736181055 1.7848369877 -0.7160043978
H -1.1668564617 0.9369385833 0.6984790771
H 1.5895482946 0.0541055380 1.7662078120
H 0.0285171745 -1.7191680039 2.6681424748
H -2.1203883362 -2.8090454508 -0.4758009815
H -1.5111283759 -1.2056241410 -0.8982351945
H -0.1846938831 -3.2490797574 -1.9431009307
H 2.0326743076 -3.1051543231 -0.9038277327
H 2.1914685193 -2.3350809027 1.4732310607