22

C -0.0495025048 1.5165840544 0.0218701649
C -0.0080332579 -0.0131013434 -0.0130658920
C 0.7154649021 -0.5605396360 -1.2470555923
C 0.8006961997 -2.0897503593 -1.2671249042
C 1.4621750689 -2.5686406918 -2.5851040125
C 1.4570439649 -4.0185798829 -2.7599132468
N 1.4376114730 -5.1657370570 -2.9012655044
O 1.5667367567 -2.5034875500 -0.1515241207
C 1.1193997896 -3.6777127328 0.5057309980
H 0.9610579650 1.9396721667 0.0339761733
H -0.5669148960 1.9231443806 -0.8545014511
H -0.5714214175 1.8784369091 0.9129380265
H 0.4934276653 -0.3947196030 0.8821886608
H -1.0323323909 -0.4087274471 0.0107152731
H 0.2080870961 -0.2199903685 -2.1589375264
H 1.7370700159 -0.1593345491 -1.2843168731
H -0.2135706724 -2.5125728613 -1.2072465054
H 0.9478492048 -2.1195146115 -3.4420834146
H 2.4984133053 -2.2140077976 -2.6008035197
H 1.7763942639 -3.8219286077 1.3667915632
H 0.0860783603 -3.5657621085 0.8650428227
H 1.1769465481 -4.5635932633 -0.1370016092