18

C -0.1334138105 1.4138017087 -0.0585365532
C -0.0015026156 -0.1017660566 -0.0025565378
C 1.1691717788 -0.6674099020 -0.9010376035
O 1.6408694813 0.0518251555 -2.0024956844
C 1.9935072938 -0.7221419305 0.3694635849
N 3.2345291481 -0.5207777353 0.5242898444
O 3.5556506449 -0.4323304329 1.9038313716
C 0.7673169699 -0.6267664216 1.2637226538
O 0.8314030287 0.2457454567 2.3605947803
H 0.8156736254 1.9120322618 0.1645186845
H -0.4609813735 1.7286638469 -1.0531859137
H -0.8575957698 1.7654603589 0.6800805631
H -0.9665685954 -0.5831435702 -0.1747087877
H 0.9224374553 -1.6703845774 -1.2657830682
H 2.1604282977 0.7931050993 -1.6730753582
H 4.4917078400 -0.2070297068 1.8872373721
H 0.4052053187 -1.6223849238 1.5614607299
H 1.7349933621 0.2038721195 2.6971904420