19

O -0.0330067329 1.3679290441 -0.0856824316
C 0.0367004717 -0.0501026283 -0.0452390609
C 0.9735099842 -0.5366804409 -1.0504032718
C 1.7777675790 -0.9050177422 -1.8662257509
C 0.1124633476 -0.6454019154 1.4130616630
C -1.3851711343 -0.2383094634 1.5346602452
C -1.4116780021 -0.6386347916 0.0291072601
C -1.1495662389 -2.1527647687 0.0979584999
C 0.0139666428 -2.1582997603 1.1521463520
H 0.8684788788 1.7031672882 -0.0360675308
H 2.4776313800 -1.2316522035 -2.5954371440
H 0.8740768573 -0.2915893915 2.1094936763
H -2.0060608236 -0.8254103758 2.2162672554
H -1.5284452575 0.8273657420 1.6951920034
H -2.1730329405 -0.2744008081 -0.6601397397
H -2.0334158551 -2.6972396015 0.4404118846
H -0.8420872437 -2.5701869214 -0.8635036656
H 0.9388407321 -2.5758874178 0.7478121514
H -0.2408380450 -2.7093797842 2.0613984237