14

C -0.0044823672 1.3992567954 0.0099285695
C 1.3182142158 1.8123108236 -0.0003948858
N 2.0917919001 0.6927802542 -0.0139460753
N 3.4554670728 0.6895117671 -0.0269810794
N 4.0396274690 -0.4448984945 -0.0386282701
C 3.3296315207 -1.6190860453 -0.0381339645
C 1.9630920235 -1.6728534973 -0.0253690975
C 1.2664217203 -0.4570989010 -0.0122146188
C -0.0464003274 -0.0104619580 0.0026104859
H -0.8565752972 2.0623821668 0.0216578877
H 1.7738387196 2.7881040467 0.0006054078
H 3.9448752231 -2.5096263699 -0.0488130872
H 1.4282097828 -2.6155095458 -0.0253533211
H -0.9235872758 -0.6381616520 0.0075201690