17

O -0.0996183302 1.3742321658 0.3982931942
C -0.0093494150 0.0202848748 -0.0241376850
C -1.3996731213 -0.5458346636 -0.0193707419
C -1.9954020525 -1.1543328247 1.2114251863
C -1.6981241343 -2.0263163368 0.0016884871
C -2.8655639265 -2.2344943565 -0.9113388449
O -3.3663048897 -3.2617434408 -1.2649364593
O -3.3338854175 -1.0143635854 -1.3201499194
C -2.4199207205 0.0433227789 -0.9860173575
H 0.7651328457 1.7826780665 0.2943302530
H 0.4151074871 -0.0499826234 -1.0386497819
H 0.6338406211 -0.5723291918 0.6453027979
H -1.3411911081 -1.2904166035 2.0653468223
H -3.0315566600 -0.9477397153 1.4594459310
H -0.9524803448 -2.8075662157 0.0606352423
H -2.9938709489 0.8685607400 -0.5573528952
H -1.9373583445 0.3912912716 -1.9069860990