20

C 0.1212259235 1.5190447476 -0.0476924216
C -0.0406885516 0.0204416999 0.0063294538
C -1.2267130241 -0.6631522640 -0.0379613294
C -1.2379097756 -2.1783681076 -0.0021156555
C 0.1036720054 -2.7676708306 -0.4498151709
C 1.2538778179 -2.0766614913 0.2837394256
N 1.1521010146 -0.6376875860 0.0946032780
C -2.5163366928 -0.0111140983 -0.1254208845
O -3.5813482684 -0.6066177113 -0.1755881801
H 0.8049807071 1.7901449189 -0.8604992194
H -0.8165632114 2.0442707416 -0.2080156446
H 0.5622078373 1.8861802059 0.8868717336
H -1.4822307180 -2.5307356946 1.0096415592
H -2.0539653299 -2.5345645883 -0.6371986332
H 0.1429288648 -3.8444961483 -0.2599818427
H 0.2343845556 -2.6202076211 -1.5280687076
H 1.2205926581 -2.3316298749 1.3542508551
H 2.2243689578 -2.4072180204 -0.1001865452
H 1.9828282899 -0.0847738666 0.2212561705
H -2.5130885703 1.0992108394 -0.1398907212