19

C -0.6763369065 1.2041987982 -0.0279661535
C 0.1139194199 -0.0922401375 -0.0967211002
C 1.4851035300 -0.1189200637 -0.7826132965
O 1.9503969360 0.4734108968 -1.7128263201
C 2.0615888413 -1.0793703815 0.2658080880
C 0.8265349581 -0.7236819731 1.1767701245
C 1.1981791529 0.3156289895 2.2449463026
C 0.1304360855 -1.8569630790 1.7607223553
C -0.4529782060 -2.7935376273 2.2398007678
H -0.0964086910 2.0119186232 0.4262020860
H -0.9493911015 1.5229156435 -1.0382727047
H -1.5980212468 1.0757124963 0.5478624338
H -0.4949339202 -0.8802199939 -0.5579830012
H 2.0420626926 -2.1157581674 -0.0825526105
H 3.0548891669 -0.8500165334 0.6584956251
H 1.7506704094 1.1502817368 1.8008812272
H 0.3064046156 0.7148789604 2.7351802703
H 1.8313436093 -0.1409137529 3.0107129547
H -0.9643001153 -3.6229252751 2.6620527513