12

F 0.4567168047 0.1594306160 0.2235649241
C -0.0193498934 1.4055855551 0.0265178654
F 1.0524868449 2.1711169331 -0.2572317748
F -0.8047972933 1.3874950829 -1.0523332206
C -0.7647975906 1.8977308375 1.2101649771
C -2.0139381757 2.4451210833 1.3438165912
N -2.2572551039 2.7653451926 2.6554404137
C -1.1701398358 2.4165503697 3.3071925876
N -0.2293531078 1.8856981195 2.4798994187
H -2.7418009272 2.6208051035 0.5675476178
H -1.0067545957 2.5210067690 4.3693313590
H 0.6766635939 1.5299331077 2.7382676608