21

C -0.1464720495 1.5191654411 -0.0020698797
C 0.0501678534 0.0035325712 0.0250246651
C 1.0107147775 -0.5544507754 -1.0837180444
C 2.0134684041 -1.3202618543 -0.2014231577
C 1.0746625052 -2.0398118947 0.8090905854
C 0.7870508393 -0.5864959163 1.2699720071
C 2.2921659137 -0.2930805971 0.9318700078
C 0.2420818745 -0.2790418208 2.6230429077
O -0.1419746046 -1.1080667843 3.4127858106
H 0.7980229486 2.0588663630 0.1239702386
H -0.5713603080 1.8268494220 -0.9634487616
H -0.8329080121 1.8560576026 0.7815951906
H -0.9332478752 -0.4731835956 -0.0514276544
H 0.4929671532 -1.2060047593 -1.7933333066
H 1.4875016041 0.2509852376 -1.6517962858
H 2.8283769056 -1.8433251833 -0.7021920957
H 0.2386073316 -2.6232093047 0.4136734924
H 1.6098508108 -2.6135943438 1.5675840046
H 2.9649901086 -0.6806365440 1.6998902188
H 2.5794975281 0.7248715926 0.6563861075
H 0.2200679411 0.8047378636 2.8856045498