14

O 0.2969314033 1.2232684182 0.6798117110
C 0.2114516835 -0.0346825941 0.2564516641
N 0.9702091034 -0.6411437719 -0.6011284162
C 0.4197094526 -1.9192967381 -0.6542102460
C -0.6355850753 -2.0073606812 0.1817170128
N -1.5250080899 -3.0071462110 0.5260740791
C -2.8174743979 -3.0804076793 0.0290841373
N -3.2512401543 -2.2934660224 -0.8659733689
O -0.7759062806 -0.7516170411 0.7928821117
H 1.0375178109 1.6227926352 0.2051118048
H 0.8205823597 -2.6869504225 -1.2964116793
H -1.3233227222 -3.5684826877 1.3391672918
H -3.3762504981 -3.9002069098 0.4973846699
H -4.2092521852 -2.5305607544 -1.1121167920