16

O -0.0612467926 0.0229305715 -0.4050082716
C -0.0599957260 1.1849509173 -0.1348626356
C -1.0760817267 2.2229813181 0.3551639350
O -0.0256575341 3.2156983810 0.3522364596
C 0.9878906402 2.3022656789 -0.1150381840
C 2.3230004039 2.2904442666 0.6695817887
N 3.1089932154 2.7544872728 -0.5289319086
C 2.8883690529 1.7240014391 -1.5579098940
C 1.8184075029 2.7177062016 -1.3248623932
H -1.8878199816 2.4558540902 -0.3446670089
H -1.4921607322 2.0438927913 1.3539431148
H 2.3100683728 3.0659892763 1.4377791760
H 2.6610829570 1.3393149293 1.0929452851
H 3.5097700954 1.8603225917 -2.4372465765
H 2.7359748878 0.6894867232 -1.2586200191
H 1.5362967450 3.4949216311 -2.0266625676