19

C 0.6891614542 -0.6073416966 1.3576039486
O 0.0417465408 -0.2388634258 0.1439504504
C -1.2394895428 -0.7669109030 -0.0468230589
C -1.5128509617 -1.2478807238 -1.4460807709
C -1.3783436155 -2.2426152732 -0.3133159130
C -2.3440789070 -0.0315328036 0.6953179965
O -2.3235102940 -0.2729543292 2.0786259003
C -2.2292438540 1.4621262600 0.4297116597
O -2.2244901927 2.2633423428 1.3319123592
H 1.7020558490 -0.2022617512 1.2977704681
H 0.1779447723 -0.1993149723 2.2335792306
H 0.7448829612 -1.6987283659 1.4635055857
H -2.4923939626 -1.0797681833 -1.8804062337
H -0.6848011050 -1.1693438645 -2.1400337148
H -0.4700928977 -2.8328419642 -0.2803706518
H -2.2642911028 -2.7525542951 0.0476257611
H -3.3102256761 -0.3512189799 0.2607333104
H -2.3606171685 0.6055856856 2.4917873097
H -2.1651180570 1.7694207732 -0.6317739972