13

O 0.1142320065 1.2524568567 -0.6589279890
C -0.0213247543 0.0605010110 0.0917943746
C -1.4276128820 -0.4673421577 0.0491572536
N -2.1168999700 -0.6329020812 1.1474447896
O -3.3718061939 -1.1048599757 0.7518643677
C -3.4026832729 -1.2014226097 -0.5745504667
C -2.2078559980 -0.8133692418 -1.1070812924
C -1.8327744169 -0.7721112524 -2.4704557812
N -1.5282470745 -0.7496481358 -3.5867142758
H -0.4008188077 1.9404694395 -0.2237462657
H 0.6561912386 -0.6632348626 -0.3719295279
H 0.2749217352 0.1792470976 1.1416873186
H -4.3210606000 -1.5556373879 -1.0163153456