15

C -0.0877192185 1.4775091097 0.0002151701
C 0.0653078054 -0.0192273463 -0.0068835370
O 1.1301595471 -0.6009147554 0.0078967958
N -1.1339595283 -0.7480386450 -0.0288021299
N -2.3799202588 -0.1184386141 0.0302159755
N -3.2604764476 -1.0493430518 0.0606534022
C -2.6688806222 -2.2814873305 0.0231516563
C -1.3015731933 -2.1165631286 -0.0360010444
N -0.2634969379 -2.9901047487 -0.1504244852
H 0.9069257978 1.9216624014 0.0080978365
H -0.6507324045 1.8065099504 -0.8767641964
H -0.6599776927 1.7967314020 0.8747355290
H -3.2446130166 -3.1917749747 0.0353056960
H -0.4372569605 -3.9379655685 0.1400680517
H 0.6519330406 -2.6074576200 0.0404553999