18

O -0.0457827864 1.3935643954 0.1986590388
C 0.0275630880 -0.0042597860 -0.0614757831
C -1.3719491889 -0.5414519053 -0.0266436406
C -2.0327991775 -1.0095260755 1.2505278516
C -1.7260179019 -2.0009662575 0.1449281954
C -2.8132228916 -2.3183074639 -0.8664892938
C -3.1731801121 -0.9616340201 -1.5054303330
O -4.0911126075 -0.7328651851 -2.2593591549
N -2.2562714981 -0.0472789152 -1.0440107852
H 0.8155518717 1.7806385184 0.0163976246
H 0.4685014510 -0.1975320714 -1.0510821558
H 0.6383535244 -0.5248880177 0.6921801521
H -1.4199969350 -1.0672066186 2.1437460369
H -3.0635859175 -0.7170723522 1.4226923222
H -0.9423785717 -2.7286448988 0.3210866219
H -2.4626074456 -2.9991777229 -1.6489973750
H -3.7145493884 -2.7607318475 -0.4333283210
H -2.3933886529 0.9410671936 -1.1893933710