20

C 0.0350414875 1.5419672147 0.0240345570
C -0.0262308558 0.0094198917 0.0330042535
O 0.6874223199 -0.5257439866 1.1503809153
C -1.4354630071 -0.5150554281 -0.0122393617
C -2.0068378451 -1.2549772848 -0.9654584553
C -3.4457709897 -1.5675710432 -0.6247121741
N -3.6816529994 -0.9765780631 0.7138964734
C -2.8684388674 -1.5531796403 1.7873489494
C -2.4181173991 -0.3063161713 1.1001163039
H 1.0775050083 1.8690261336 0.0660250623
H -0.4287566991 1.9492940237 -0.8796779524
H -0.4885728484 1.9634017277 0.8898712549
H 0.5129225577 -0.3694133471 -0.8417361304
H 0.2304005666 -0.2475540212 1.9518683084
H -1.5140945851 -1.6163616625 -1.8612503730
H -4.1466108846 -1.1173821219 -1.3408657364
H -3.6592877020 -2.6440786428 -0.6084514341
H -3.3301667011 -1.5056360626 2.7702808191
H -2.2948146042 -2.4556741616 1.5855014758
H -2.4992666519 0.6590124157 1.5946631244