18

C 0.0160427671 1.3875089484 0.1024133273
O -0.0359852935 -0.0195812163 0.0044310657
C 0.5754719782 -0.5599207792 -1.0861033444
C 0.6418986436 -1.9077612217 -1.3738129247
C 0.4241210168 -3.4003335808 -1.2113222472
C 1.2265178465 -3.5226289658 -2.5665786080
N 1.3316431104 -2.0556254676 -2.5433807450
C 1.7309202957 -0.8620982658 -3.0531381855
C 1.2685371179 0.0975062572 -2.1554043840
H 1.0511249810 1.7514992675 0.1633619078
H -0.4758544970 1.8717485843 -0.7526575686
H -0.5126558535 1.6565817509 1.0190757931
H 0.9119306520 -3.8743969278 -0.3549237349
H -0.6101032772 -3.7515452069 -1.2673235841
H 2.1894694512 -4.0370759801 -2.4993479126
H 0.6589328498 -3.9128354692 -3.4163102162
H 2.2885616725 -0.7582171145 -3.9692264107
H 1.4160269385 1.1608395174 -2.2605173481