23

C -0.2689262571 1.4952004680 -0.4195070043
C -0.1533551751 -0.0313764789 -0.4235534533
C 1.1006452127 -0.5694110341 -1.1608742607
C 2.4142374019 -0.1920620482 -0.4611426028
C 0.9575801130 -2.0819025373 -1.2441308533
O 1.1425515108 -2.7978428197 -0.2797639290
C 0.5238933895 -2.7233631782 -2.5638855039
C 1.6347292669 -2.6033753964 -3.6234909473
O 0.1921118722 -4.0694025422 -2.3523031410
H 0.5573895252 1.9682366251 0.1188929771
H -0.2772477539 1.8959721633 -1.4392706183
H -1.1980709759 1.8069487044 0.0672155445
H -0.1381029326 -0.4163411762 0.6025818913
H -1.0500942449 -0.4531477920 -0.8952342379
H 1.0936278594 -0.1596130699 -2.1782751455
H 2.4485428057 -0.6344045991 0.5378240289
H 3.2792269243 -0.5607244311 -1.0210807255
H 2.5146854991 0.8921441066 -0.3706692880
H -0.3627203560 -2.1746499834 -2.9238841936
H 2.5496676418 -3.0867031251 -3.2678032961
H 1.3091002377 -3.1172988805 -4.5310764543
H 1.8567976415 -1.5624677717 -3.8767078155
H 0.4590771737 -4.2511877834 -1.4360516216