21

C -0.6819334593 1.5229362646 -0.0090199103
C -0.0909248219 0.1308942162 -0.0246125422
C -1.0885727435 -1.0653690942 0.0965133344
C -0.3386847565 -1.5788223608 1.3634423472
C 0.7402450830 -0.4918617084 1.1616833963
C 1.8665092298 -0.8986138250 0.1504890723
C 1.0909349156 -0.1492782902 -0.9855778990
C 3.2151242029 -0.3157699983 0.4621495914
O 4.2389330694 -0.9408329102 0.5712900071
H 0.0961911581 2.2889744522 0.0853765082
H -1.2341834608 1.7235484539 -0.9357587245
H -1.3812081622 1.6520835155 0.8249245754
H -2.1230408464 -0.7635923444 0.2794402668
H -1.0824290482 -1.7480308422 -0.7581173964
H -0.9146828622 -1.4300830787 2.2803539224
H 0.0115216341 -2.6145128109 1.3461072801
H 1.0627758688 0.0817567704 2.0338565129
H 1.9749208649 -1.9765808383 0.0121894784
H 0.8767102142 -0.7344629368 -1.8839419965
H 1.6029934636 0.7703348272 -1.2907958855
H 3.2068346764 0.7940296182 0.5967350413