15

C 0.0071727677 1.4378951763 0.0453160055
O 0.0068110381 0.0182336021 -0.0006284931
C 0.6074711235 -0.6356956650 1.0017972664
C 0.7369643133 -2.0053803778 1.1788376828
N 1.4145595709 -2.2636321137 2.3249161758
C 1.7093733244 -1.0926747960 2.8643274481
N 1.2244409944 -0.0586118735 2.0710686087
C 2.4271763378 -0.8051849351 4.0962015620
O 2.8900519250 -1.6207313854 4.8588230100
H 1.0295533518 1.8373875509 0.0259795922
H -0.5225969828 1.7724647695 -0.8464750290
H -0.5187927424 1.8083665647 0.9348895567
H 0.3689785377 -2.7821602768 0.5272782513
H 1.3168314651 0.9255707946 2.2599107377
H 2.5227115557 0.2917957449 4.2937837649