16

N -0.0299996352 1.3630884400 0.3120112932
C 0.0002306611 0.0110871091 0.0084606238
N -1.0218282349 -0.5645064433 -0.5901266234
O -0.6786063733 -1.9356822071 -0.6520990338
C 0.5338615498 -2.1021084868 -0.1074414958
C 1.0320575332 -0.9141889757 0.3407726834
N 1.0673847706 -3.3748252804 -0.1647379466
C 1.5519080805 -4.0169646870 1.0544310507
C 0.3141802306 -4.5026748796 0.3793922098
H 0.8615542421 1.8265600726 0.2084871571
H -0.7613524741 1.8533071956 -0.1866394198
H 1.9731107069 -0.7294967576 0.8296294670
H 2.4847585853 -4.5615971870 0.9486645628
H 1.4324138470 -3.4706842188 1.9865431919
H -0.6386445354 -4.2847804503 0.8526816373
H 0.3382122157 -5.4032413737 -0.2253570874