20

O -0.0507160032 1.4159023841 -0.1643287686
C 0.0269738623 -0.0001917020 -0.0234372083
C -1.3966080241 -0.4858296743 0.0865265769
C -2.1372740111 -0.2859654176 1.4286367562
C -2.2816507895 -1.8300894212 1.4770057481
N -1.6448192244 -1.9881901466 0.1269310548
C -2.6462278239 -1.8356135043 -0.9839533756
C -2.2718682479 -0.3525110186 -1.1885489480
O -3.3732303079 0.5222179703 -1.1642230216
H 0.8417495392 1.7628519368 -0.2506796388
H 0.5080899636 -0.4690745081 -0.8963443572
H 0.6032430431 -0.2893357418 0.8690714470
H -1.5393447448 0.1646090362 2.2235102514
H -3.0735940829 0.2656315460 1.3282291307
H -1.6804573869 -2.3161019427 2.2516479420
H -3.3008474272 -2.2258449518 1.5349271248
H -2.4489180045 -2.5031761470 -1.8268464888
H -3.6865324915 -1.9643432825 -0.6651088567
H -1.6532103782 -0.1843376151 -2.0806690367
H -3.0274152301 1.4213873802 -1.1952438118