17

O -0.4966850180 1.3862005103 -0.8585617681
C -0.1519150544 0.2724801431 -0.0404899826
C -1.4248882514 -0.5391165713 0.1557095304
C -1.1712719775 -1.8566064110 0.8786721656
O -0.8633250427 -2.9398999122 -0.0035594121
C 0.2292551272 -2.9543301044 -0.7994838216
O 0.4548187249 -3.9491656704 -1.4425076167
C 1.1548702031 -1.7897784588 -0.9018156564
C 1.0047682076 -0.4902579056 -0.6323540832
H 0.2727493395 1.9592246742 -0.9404339758
H 0.1807940623 0.6294294185 0.9519415607
H -2.1338161577 0.0695526655 0.7253315275
H -1.8857414048 -0.7429258365 -0.8163317413
H -0.3792180093 -1.7527851779 1.6321713960
H -2.0745311378 -2.1930471489 1.3911243530
H 2.0863320814 -2.1123809286 -1.3565401928
H 1.8569289376 0.1484326140 -0.8698723826