15

C 0.0729743187 1.4291053630 0.0436188390
N -0.0040733353 -0.0207095057 -0.0103907750
C -1.1719312935 -0.7126015080 -0.1463273540
C -1.2078836397 -2.0665059495 -0.1572313272
C 0.0105585219 -2.8343419412 -0.0178333491
N 0.0546034597 -4.1209720802 -0.0197990567
C 1.1669629279 -1.9383849963 0.1230051356
F 2.3492605851 -2.5288656347 0.2592120076
N 1.1815334210 -0.6567891283 0.1309598367
H 0.7847229725 1.7926800574 -0.7019218095
H -0.9131268005 1.8444865134 -0.1677092315
H 0.3995851425 1.7625896560 1.0336498909
H -2.0600728418 -0.1011022539 -0.2472968663
H -2.1460962221 -2.5927654768 -0.2720533383
H 1.0195913436 -4.4346165951 0.0917251078