18

C -0.0972947514 1.5611071996 0.0494617570
C 0.0935711811 0.0576776883 0.0579645852
C 1.3763736338 -0.6978570560 -0.2531876094
C 2.6141611981 -0.0510733920 0.3534267275
O 2.9844824811 1.1845189274 -0.2254567313
C 1.9377691834 -0.0643451366 1.7713639968
C 0.7319248159 -0.7681156596 1.1353452939
O 0.1191941278 -1.8770576777 1.6981758140
H 0.7765973562 2.0888948352 0.4313401431
H -0.2661615721 1.9174988898 -0.9723974397
H -0.9706336157 1.8459410425 0.6483947969
H -0.7499870592 -0.4879165226 -0.3645171157
H 1.3993207641 -1.4467980100 -1.0356488717
H 3.4590455869 -0.7521967906 0.3335858416
H 3.7864160908 1.4899684071 0.2106171803
H 2.4646175318 -0.7090780393 2.4783584936
H 1.7571771272 0.9115919428 2.2324924378
H -0.6308065498 -1.5739974184 2.2213005301