23

C 0.2034259491 1.5876107998 -0.4832734354
O -0.2661127037 0.2699755614 -0.6434761203
C 0.7118394116 -0.6373858702 -1.1008062029
C 1.8177484717 -1.0062430639 -0.0763537229
C 2.1327588441 -2.4320523356 -0.4597603295
C 1.1914233792 -2.9533184004 -1.2445836565
C 0.0533075129 -1.9881171858 -1.5200745103
C -1.1599272713 -2.3334550614 -0.6311575343
C -0.3771292312 -1.9661732159 -2.9941640976
H 0.9692350078 1.6659364113 0.3027380613
H 0.6308842887 1.9829230642 -1.4187536973
H -0.6522734620 2.2050920933 -0.1985134514
H 1.2067905130 -0.2140698747 -1.9915653072
H 2.6874907577 -0.3422788194 -0.1293585060
H 1.4272618832 -0.9395363980 0.9492006380
H 3.0142297678 -2.9546756265 -0.1043301824
H 1.1813900438 -3.9698621185 -1.6253844109
H -0.8945877876 -2.3246188266 0.4296384567
H -1.9685466993 -1.6138639800 -0.7828206381
H -1.5334565408 -3.3334299147 -0.8767235880
H -0.8368493824 -2.9166059880 -3.2868346421
H -1.1125243285 -1.1726055630 -3.1647505575
H 0.4771149964 -1.7883858772 -3.6557092254