21

C 0.0025786718 1.5802234221 -0.0268162079
C 0.0380077245 0.0511937506 0.0017342031
C 0.6706472997 -0.5414637712 -1.2749829259
C 0.7120570298 -1.9993121193 -1.2700932443
C 0.7153759299 -3.2047398534 -1.2500105059
C 0.7918372585 -4.6609809949 -1.2094253128
O 1.4955169540 -5.2060415655 -2.3373311550
C 1.4596483612 -5.1710674869 0.0814438476
O 1.5749492293 -6.5735205262 0.0478899339
H 1.0110916211 2.0000422272 -0.1120881720
H -0.5823711918 1.9484104007 -0.8769530202
H -0.4484391220 1.9807351024 0.8857962068
H 0.6042709408 -0.2979712713 0.8722302720
H -0.9760323471 -0.3484887056 0.1121221232
H 0.1102672444 -0.1934167263 -2.1530997487
H 1.6889183010 -0.1463429499 -1.3905805443
H -0.2097629677 -5.1026681249 -1.2701834551
H 2.2570229988 -4.6369008683 -2.4983329548
H 2.4399668944 -4.6757443904 0.1883886807
H 0.8522700284 -4.9021170978 0.9512298563
H 1.8920286010 -6.7808608112 -0.8413956865