17

O -0.1329101470 1.3532688533 0.1855850205
C -0.0098967816 0.0183005123 -0.0010623276
C -0.0237348819 -0.7862462660 -1.1254273574
C 0.1572244242 -2.0828540082 -0.6010585093
N 0.2722054310 -2.0856030501 0.7214172150
N 0.1667462597 -0.7768919029 1.0778109331
C 0.2434569583 -0.3675495217 2.4515796821
C -0.3344300231 -1.2492515461 3.5224502825
C 1.1641393821 -1.0927015380 3.3921313349
H -0.2510057350 1.7715440011 -0.6724482230
H -0.1448916026 -0.4796728535 -2.1514016898
H 0.2078159942 -3.0172567492 -1.1412086691
H 0.1390583595 0.7056210844 2.5402386395
H -0.8456457862 -0.7729493927 4.3515678237
H -0.7566318293 -2.1897459752 3.1900279617
H 1.7071893888 -1.9323632702 2.9757709697
H 1.7006940189 -0.5069494673 4.1301322334