19

C 0.1721365849 1.4597442676 -0.0236037733
N -0.0767775337 0.0276653003 -0.0943316477
C 0.5731401192 -0.6994632930 -1.0760521237
N 1.1942138995 -0.1298439078 -2.1099538938
N 1.6239756288 -1.1783594500 -2.8261988073
C 2.3063091890 -1.0106304453 -4.0871131296
N 1.3281791408 -2.3698221634 -2.3278196653
C 0.6562345418 -2.1072989544 -1.2051505364
C 0.1237685101 -3.1730644603 -0.3068018896
H 1.2317248766 1.7115362391 0.1312615380
H -0.1436940148 1.9283434728 -0.9589632215
H -0.4187337101 1.8807400007 0.7933436684
H -0.0717041138 -0.4328107851 0.8040112492
H 3.1494757378 -0.3259282664 -3.9656991091
H 2.6637293711 -1.9911305320 -4.3992289653
H 1.6287344925 -0.6065566735 -4.8464008019
H 0.5932178669 -3.1473500295 0.6851731676
H -0.9569636735 -3.0670952085 -0.1559785766
H 0.3149216768 -4.1564647913 -0.7410794822