18

C 0.0282273177 1.5132793725 0.0861928845
C -0.0211221719 0.0170268614 -0.0360735211
C -0.0700098802 -0.6326432220 -1.1995521869
C -0.0667069327 -2.1352840968 -1.2923890293
C 0.4106577329 -2.7182451536 0.0479959411
O -0.2933136337 -2.1319824093 1.1272741296
C -0.0037792112 -0.7498974753 1.2644530202
C 0.2114904243 -4.1721086681 0.1172882826
N 0.0740894954 -5.3184762345 0.1297527824
H 0.9202041445 1.8387393433 0.6369083191
H 0.0446781994 1.9926594546 -0.8956757415
H -0.8380988222 1.8966140607 0.6400557161
H -0.1045054925 -0.0768506310 -2.1331480911
H -1.0662276746 -2.5233008746 -1.5250087265
H 0.5973307015 -2.4762593922 -2.0951510679
H 1.4917754155 -2.5260637530 0.1531430271
H 0.9710204358 -0.6109458946 1.7670891482
H -0.7682508682 -0.3596320775 1.9461772934