14

N -0.2844927014 1.5619795075 -0.1356502295
C -0.0220417396 0.1192477608 -0.0570467852
C -1.2786803984 -0.5903466568 0.2588100610
N -2.2566934667 -1.1560313593 0.4954473117
C 0.6062659714 -0.4700122935 -1.2504523734
C 1.1413001594 -0.8902833088 -2.2448546287
C 1.8338585826 -1.3336419476 -3.4522153604
N 1.4024319593 -2.5366491540 -3.9210159465
O 2.7115149977 -0.6743951839 -3.9728372931
H 0.5979760930 2.0408583502 -0.2932084729
H -0.8671390302 1.7541472437 -0.9460925952
H 0.6506576660 -0.0400299228 0.7969367511
H 0.6623352140 -3.0467542613 -3.4711935927
H 1.8263646029 -2.9047901343 -4.7569533861