14

O 0.0236506128 1.4388176173 0.0068536115
C -0.0163438566 0.0355166593 0.0020437732
C -1.4433673733 -0.4431387062 0.0127496965
N -2.4388627451 0.3775707863 0.0238252296
C -3.7120232125 -0.1528093859 0.0331125253
C -3.9264247023 -1.4799318650 0.0308746646
O -2.9038560424 -2.3627865288 0.0193616103
C -1.5943590444 -1.9132473437 0.0094463812
O -0.6973861327 -2.7133002406 -0.0009654323
H 0.9480624270 1.7030371596 -0.0028799790
H 0.4766935653 -0.4038532099 -0.8819018217
H 0.4919938617 -0.4102842789 0.8740388048
H -4.5387830823 0.5460274201 0.0423585542
H -4.8935965853 -1.9665340138 0.0377092618