18

C -0.0039955032 1.5338506417 -0.1569810274
C 1.2891820073 0.7754113932 0.0464149765
O 2.0012956370 0.8471106361 1.2579731678
C 1.4759067447 0.0380538240 2.3071667162
C -0.0165435147 0.3626667823 2.5791383162
C -0.3201035742 -0.6089584190 1.4022490374
C 0.9928959266 -1.3546740860 1.8077960451
C -0.0182239781 0.0330072033 0.0518890394
H -0.3520801936 2.1860819274 0.6342454116
H -0.2064362066 1.9008612064 -1.1578455580
H 1.9660542336 0.6907382118 -0.7980251062
H 2.2026942165 0.1005661193 3.1181750829
H -0.3458649584 -0.0658688383 3.5294236734
H -0.3342795613 1.4050365677 2.5273519290
H -1.2709236842 -1.1454716192 1.4083492606
H 1.5707367342 -1.8437155528 1.0198774669
H 0.8483946895 -2.0380615426 2.6483440916
H -0.2497278652 -0.5910500553 -0.8069451631