16

O 0.0196166279 1.3764027470 -0.2641100433
C 0.0795504370 0.0251145909 0.1477126242
C -1.3024252214 -0.5990034444 0.1130655543
O -1.8839977860 -0.5088835643 -1.2219509609
C -2.1878323793 -1.9204947259 -1.2387210250
C -1.4942716359 -2.1375153975 0.1323403225
N -0.4912870369 -2.9353602233 -0.5694730759
C -1.0137376689 -2.7486248269 -1.8423054553
O -0.6377811484 -3.0723836405 -2.9319740835
H -0.3887223046 1.3766261565 -1.1384437479
H 0.7667943682 -0.5581392989 -0.4824910268
H 0.4677286739 0.0193761337 1.1727053643
H -1.9661438179 -0.0966028382 0.8279299727
H -3.2211657677 -2.1498203451 -1.4976548819
H -1.9454063480 -2.6038867174 1.0062781196
H 0.4429039480 -3.2059477157 -0.2935671871