16

C -0.3476544040 1.4475963491 0.1008612437
C -0.0150476438 -0.0134082571 -0.0760873533
N -0.2697245359 -0.5720613860 -1.2012837969
C 0.0386745596 -1.9113067660 -1.5081515590
N 0.5678440566 -2.2576255461 -2.6151652091
C -0.4209716289 -2.9345054997 -0.5548613457
C -0.2500478938 -2.8569720080 0.7783989502
N 0.4360156047 -1.8880321700 1.4910110954
C 0.5809674035 -0.6733151779 1.1062679804
H 0.5564012566 2.0187107809 0.3443437093
H -0.7870559859 1.8424794159 -0.8149774833
H -1.0466134181 1.5918381923 0.9326443589
H 0.7673423495 -1.4233147276 -3.1736433804
H -0.8561048547 -3.8316354849 -0.9843432530
H -0.5789819412 -3.6850779095 1.4009031674
H 1.1408082759 -0.0178171955 1.7785948151