22

C 0.0231986101 1.4440104789 -0.2560278947
C 0.0077778013 -0.0491707210 0.1042948329
C 0.8151305792 -0.3347271549 1.3784898683
C -1.4164133194 -0.5730130317 0.1875936008
C -2.3861464698 -0.0493368402 1.2587431759
C -3.3139130241 -1.2183857711 1.5161772420
C -2.9571865671 -2.2988991554 0.8156613356
C -1.7928909576 -2.0016176744 -0.0694726080
N -2.0110714458 -0.9553465567 -1.1024938053
H 1.0476495572 1.8011889762 -0.4033256208
H -0.5359874837 1.6243575986 -1.1790496628
H -0.4252271396 2.0512215637 0.5392417041
H 0.4747991202 -0.5950487759 -0.7243758802
H 0.8001334471 -1.4001829014 1.6295956721
H 1.8592597142 -0.0332788827 1.2462959226
H 0.4256527674 0.2182169822 2.2406026681
H -1.8562384951 0.2435957152 2.1741635808
H -2.9263629040 0.8454000869 0.9221686400
H -4.1714824198 -1.1477290018 2.1757678172
H -3.4514675199 -3.2631544609 0.8386036714
H -1.0803041156 -2.7738988250 -0.3423512074
H -3.0023480255 -0.7211111186 -1.1302964025