23

C -0.1000450900 1.5717825331 -0.4124106724
C 0.0615634455 0.0740573730 -0.1823348816
C 1.2058001438 -0.6744231320 -0.8835683884
C 2.5457369701 -0.2680542455 -0.3345287767
C 1.6947816213 -1.2203291757 0.4579242987
C 0.5893130803 -0.4545561037 1.1972566710
C 0.9677761982 0.4264016326 2.4198211180
C 0.4172476918 -0.6880542355 3.3506846509
C -0.3331904854 -1.2831375773 2.1293452533
H 0.8275335316 2.1181771146 -0.2139346664
H -0.3908765343 1.7773323938 -1.4486811091
H -0.8764804339 1.9909546543 0.2376333415
H -0.8896399913 -0.4281693231 -0.3945477114
H 1.1205218520 -1.1904589511 -1.8330462375
H 3.4014868379 -0.7121672715 -0.8335068338
H 2.7246905597 0.7424020042 0.0252252762
H 2.0289286526 -2.2222507542 0.7042778320
H 2.0196493401 0.7060125345 2.5253061244
H 0.3599835717 1.3356398369 2.4715161815
H 1.2099519326 -1.3512164867 3.7075726794
H -0.1841422627 -0.3776488264 4.2083621965
H -1.3704714306 -0.9349506916 2.0779787144
H -0.3270100207 -2.3696124925 2.0009096098