20

C 0.1204031715 1.3291290751 -0.1491183138
O 0.2469385287 -0.0696224714 -0.0876654024
C 0.4663863373 -0.5410847361 1.2274340995
C 0.5268804150 -2.0436526002 1.1888687417
C 1.8104864278 -2.7727678645 0.8320592407
C 1.2339573309 -2.8712545123 2.2245730017
C 1.9553651538 -2.2689755507 3.4104005277
O 0.5314581080 -4.0499888513 2.5406212518
H 1.0317826445 1.8408770713 0.2015445779
H -0.0528132767 1.5977144683 -1.1941900046
H -0.7262748441 1.6926384968 0.4557975871
H 1.4008550273 -0.1151665783 1.6297735892
H -0.3503304317 -0.2038656509 1.8897355537
H -0.3812641383 -2.5061105106 0.8147935086
H 1.7299869344 -3.6441403234 0.1922019004
H 2.7056439928 -2.1760950639 0.6850042419
H 2.4814463327 -1.3476707574 3.1484115786
H 1.2520215668 -2.0520651809 4.2208050020
H 2.7034089471 -2.9735194839 3.7952075588
H 1.1819865322 -4.7279227855 2.7564655394