18

O -0.1154195623 1.3638491715 -0.2048119249
C 0.0271833445 -0.0187968351 -0.0623423178
C 0.2824569626 -0.6611889599 1.3628530987
C -0.6547565972 -1.8540292890 0.9675524259
C -1.9084508079 -2.2916677120 1.7049845557
N -2.6888795882 -1.2045032257 2.3263144476
C -3.0787514781 -1.7022687611 0.9711588162
C -2.5225103419 -0.7903195735 -0.0806437440
C -1.1916041439 -0.9130104945 -0.0932980862
H -0.8640023385 1.6305634041 0.3418773338
H 0.8135956062 -0.3218885251 -0.7611344433
H 1.3189387218 -0.8964971801 1.6132033484
H -0.1756231766 -0.0496157055 2.1430902303
H -0.0849910437 -2.7082285005 0.5889094795
H -1.9666482082 -3.2827790391 2.1414388142
H -3.3110254180 -1.6194556161 3.0178220839
H -4.0280762650 -2.2176203169 0.8672852331
H -3.1082832257 -0.0193493115 -0.5672536411