22

C -0.0865140247 1.5233759673 -0.0629752635
C 0.1316391586 0.0102890663 0.0242064269
C 0.7605374591 -0.5620156237 -1.2382481389
C 0.7570484521 -2.0793433510 -1.3491216996
C -0.5388186304 -1.9971214630 -2.1041184623
N -0.2082588067 -0.5194942123 -2.4164559918
C 0.6660938245 -1.0379455824 -3.5393348039
C 0.6941388667 -2.4006770345 -2.8621510379
C 1.0767099714 -3.7342203808 -3.4308086517
H 0.8648225748 2.0555616298 -0.1764851106
H -0.7119834986 1.7660273020 -0.9262849373
H -0.5754837892 1.9061655992 0.8379636271
H 0.7797898812 -0.2312936299 0.8771907415
H -0.8234653669 -0.4975144613 0.2066125407
H 1.7031979040 -0.0396283158 -1.4537265319
H 1.0710220398 -2.8296208387 -0.6322489010
H -1.5266370237 -2.4181868090 -1.9799144825
H 0.0938146167 -1.0513296720 -4.4723276939
H 1.5973740204 -0.4776719895 -3.6889427854
H 2.1586463200 -3.8036543871 -3.5929690450
H 0.7914458669 -4.5504634984 -2.7585096947
H 0.5829903341 -3.9099282451 -4.3934305543