20

C -0.3423030804 1.4126740551 0.0392627315
C -0.0295311674 -0.0671182539 0.2136063441
O 0.3928862915 -0.5362254247 -1.0826608022
C 0.9931229831 -1.7537152582 -1.2346463613
N 1.2753114044 -2.2028726288 -2.3852290421
C 1.3304767985 -2.5341962854 0.0140761167
C 1.7398710670 -1.6501470616 1.1770435871
C 2.4785902588 -0.3547372011 0.9319180666
C 1.0103157620 -0.3420566010 1.2830028157
H 0.5662344201 1.9656928367 -0.2152092505
H -1.0746277682 1.5570932912 -0.7593067983
H -0.7525310833 1.8234984249 0.9666230291
H -0.9547339552 -0.6015450174 0.4795643038
H 0.9538918478 -1.5476434224 -3.1016002232
H 0.4452764689 -3.1168427921 0.3067320407
H 2.1047750516 -3.2542266502 -0.2587109169
H 1.9675050544 -2.1826388399 2.0949914330
H 3.1790586113 -0.0216293600 1.6891517947
H 2.7698013370 -0.1088368899 -0.0834812384
H 0.7262819479 0.0169252188 2.2676904298