20

N -0.3304843825 -0.9749161281 -0.6018433510
C -0.1324212797 0.1326995689 -0.3359588173
C 0.1224430673 1.5258975271 0.0121564999
C -0.6783009134 2.0190860145 1.2465037656
C 0.1006772260 3.2633811969 1.7476678756
C 1.4713959912 3.2028965314 1.0511034762
C 2.0108496784 4.4151272088 0.3275837408
C 2.6753205921 3.9209172753 1.5908226449
C 1.5869608265 1.8275691461 0.4066519943
H -0.1383103434 2.1429188023 -0.8563650880
H -1.7209494324 2.2305648765 1.0003904005
H -0.6777179234 1.2314291411 2.0055245904
H -0.4252786140 4.1894479060 1.4964577471
H 0.2001652381 3.2398567723 2.8372122179
H 2.5304992057 4.2662987135 -0.6137853959
H 1.4392308617 5.3363690734 0.3797866807
H 2.5528135443 4.5088376138 2.4949380119
H 3.6438696998 3.4387566972 1.5043824876
H 1.9259024017 1.0776425946 1.1317844307
H 2.2706122860 1.8001626984 -0.4454743121