17

O -0.1153793332 1.3903128269 -0.0078729222
C 0.0141708555 0.0229676800 -0.0147724717
C -1.0526982388 -1.0164355849 0.0226515342
C -0.4569397737 -1.7577162658 -1.1685317612
C 0.8300997178 -0.8788289764 -1.0165115661
C 1.8762507544 -1.6064508659 -0.1725828642
C 1.1921380362 -1.7704429453 1.1993036528
O 1.6055437690 -2.4247304253 2.1249271564
C -0.0203054063 -0.8956702299 1.1883444959
H 0.6469498342 1.7731675237 0.4412369747
H -2.0998417632 -0.9149792623 0.2807663984
H -0.3216517098 -2.8414540057 -1.0863841352
H -1.0025230890 -1.5292167022 -2.0872945447
H 1.1994261245 -0.4016199838 -1.9227242063
H 2.1910596218 -2.5732287386 -0.5747478637
H 2.7799227020 -1.0004181813 -0.0272776929
H -0.4465470815 -0.5595911030 2.1255689159