14

O -0.0026343254 1.4724135906 0.1607662145
C -0.0273376200 0.0917380548 0.0022108879
C 0.6440467565 -0.6529411613 1.1923993830
C 0.0609127325 -0.2634687030 2.4730820943
N -0.4014748119 0.0348667921 3.4883006043
C -1.4819118622 -0.3997049753 -0.1557380974
O -1.7836961629 -1.5618955205 -0.1307155631
C 0.7178273210 -0.3051804829 -1.2790174396
O 1.2487680853 0.5317416077 -1.9615520066
H 0.5408787948 1.8232611539 -0.5646587518
H 0.5152792609 -1.7310758671 1.0544762181
H 1.7152948576 -0.4273293490 1.2058058182
H -2.2036776516 0.4265702078 -0.3145561052
H 0.7299140155 -1.3827027177 -1.5255492968