18

C 0.3577631640 1.4464774451 0.2091938691
N 0.3797365865 -0.0097202576 0.1897288782
C 0.4392380636 -0.6071238056 -0.9037163935
C 0.4805257438 -2.0529137364 -1.3428017855
C 0.5378069795 -1.4543419233 -2.7597525220
C 1.6293465232 -1.7615064276 -3.7943365360
O 0.6413414077 -2.1803025469 -4.7588804261
C -0.4436322481 -1.7915223609 -3.8907964827
O 0.4926694156 -0.1120521507 -2.2074956432
H 1.2061899389 1.8078058413 0.8003753362
H 0.3971210416 1.9091469707 -0.7837264347
H -0.5518028097 1.7823703397 0.7188463528
H 1.3661791186 -2.6074561228 -1.0264015672
H -0.4143260649 -2.6331691498 -1.1092294272
H 2.1843799565 -0.8723582860 -4.1181243006
H 2.3318805425 -2.5648602912 -3.5425586314
H -1.1430046363 -2.6151750996 -3.7042528527
H -0.9916611029 -0.9183455383 -4.2659113331