20

C 0.0105642854 1.5677994078 0.7682501032
O -0.0729554645 0.2407328348 1.3022087548
C 0.7159504341 -0.6655456745 0.6987894112
O 1.4525139863 -0.4047314640 -0.2228687054
C 0.5971665376 -2.0450372178 1.2648885294
N -0.0067491102 -2.2602903451 2.5920702342
C -0.6868867114 -2.8192042739 1.4219301949
C -2.0306498555 -2.2017492770 1.0940462885
C -0.6068852748 -4.3152692325 1.1830777331
H -0.2920002934 1.5829780811 -0.2820746203
H -0.6675465448 2.1716266230 1.3711529249
H 1.0322320808 1.9482270645 0.8426366992
H 1.4643343221 -2.6359580134 0.9828311896
H 0.5173567969 -2.9788193710 3.0867581194
H -2.0427489863 -1.1400309957 1.3365565627
H -2.2662380331 -2.3288555900 0.0317188960
H -2.8179651112 -2.6977269255 1.6727370641
H -1.3363174037 -4.8399835337 1.8111113365
H -0.8325045525 -4.5607309855 0.1399513369
H 0.3880484083 -4.7090907517 1.4143763671