20

O 0.0246888786 1.4571205234 0.0318059573
C -0.0200249572 0.0387267556 -0.0220018051
C 0.7040166162 -0.5530786312 1.1919044927
O 0.0282355274 -0.1600850622 2.3789762828
C -1.2815333284 -0.7239277912 2.4470552428
C -2.1624562120 -0.2356376614 1.2922797476
C -1.4550231971 -0.4792150773 -0.0294465951
C -2.1948486270 -0.5485266030 -1.3057351507
N -1.7212067880 -1.7903718631 -0.6542355443
H -0.0520381721 1.6939930889 0.9647403117
H 0.4857864760 -0.2597541672 -0.9496038628
H 0.7557550566 -1.6512026484 1.1186503168
H 1.7194576111 -0.1533294532 1.2636407117
H -1.2099364733 -1.8226568541 2.4222874057
H -1.6892041952 -0.4274680289 3.4170849931
H -3.1246357469 -0.7560612233 1.3044019685
H -2.3567724154 0.8373082274 1.4088104296
H -3.2744852625 -0.4244220347 -1.3152698891
H -1.6916436554 -0.2059967053 -2.2064114224
H -0.8884795154 -2.1278509907 -1.1342305608