25

C -0.2336530636 1.5277159443 -0.9043785505
C -0.0860539418 0.1109637165 -0.3251601302
C 0.6476128447 0.1490920106 1.0230386967
C -1.4497374795 -0.5855356902 -0.2106801707
O -2.2545667135 0.0129157566 0.8086049401
C -2.2886239559 -0.7975430437 -1.5063224299
C -2.7279056251 -2.1786899178 -0.9540253383
C -1.5346521026 -2.1291939046 0.0468654534
C -0.3447598736 -2.9760137825 -0.3974625665
H 0.7459849428 1.9938941323 -1.0482268370
H -0.7453200278 1.5214338786 -1.8723282364
H -0.7987867498 2.1789862041 -0.2262952509
H 0.5136433586 -0.4743913437 -1.0340700866
H 0.0633562149 0.7083678751 1.7589270595
H 0.8077532824 -0.8547717082 1.4271318562
H 1.6261386591 0.6295552633 0.9208679744
H -2.5074630143 0.8922980284 0.5076736253
H -3.0678674877 -0.0558809022 -1.7044906055
H -1.6588208095 -0.8872842894 -2.3967129873
H -3.6946553816 -2.1321219786 -0.4501377302
H -2.7351379164 -3.0134077082 -1.6597894394
H -1.7896008270 -2.3524453489 1.0860952452
H -0.0751257244 -2.7857604834 -1.4424417781
H 0.5449626795 -2.7988755776 0.2143494998
H -0.5955994278 -4.0393562207 -0.3173351032