16

O 0.0404228783 0.0390475326 0.2071831557
C 0.0477405031 1.2246746255 -0.0142329299
C -1.1515025604 2.0803055493 0.1334449383
C -1.0971330710 3.3959412517 -0.1244693940
C 0.1112094842 4.0226141717 -0.6971409256
C 1.5137332503 4.0283415302 -0.0509220363
C 1.7218359574 2.7997154920 0.8166566139
N 1.2866165841 1.9129366292 -0.3314152222
C 1.1863432597 3.1110704504 -1.2021156179
H -2.0534617394 1.5898712685 0.4816253111
H -1.9711951622 4.0227216300 0.0344570641
H -0.0558563838 4.9182229048 -1.2879882032
H 2.1014458106 4.9369806253 -0.0400840184
H 2.7705965510 2.6084446194 1.0572700920
H 1.1184258070 2.7123227212 1.7271324150
H 1.5423774610 3.0770994583 -2.2252738327