15

C 0.1428360800 1.5413479450 -0.1211148071
C 0.0661019141 0.0260406657 0.0149877854
O 0.7342694312 -0.4725854905 1.1465683140
C -1.4207680366 -0.4857773251 0.0209674883
O -2.0312715720 -0.0142340048 -1.1576101673
C -1.4296945212 -1.9653606278 0.0682430587
N -1.4689540965 -3.1189188810 0.0414478209
C -2.1024668469 0.0328830281 1.2332767967
N -2.6105292564 0.4829321132 2.1680052397
H 1.1935439428 1.8395375891 -0.1535009425
H -0.3515342332 1.8796753995 -1.0334970360
H -0.3332717369 2.0371340672 0.7324043374
H 0.5283023224 -0.4566230717 -0.8514897512
H 0.5000479488 0.0694152523 1.9098585340
H -2.9204358696 -0.3825142190 -1.2287231010