15

C 0.3198257444 -1.1474361772 0.0639559779
C 0.1278047100 0.0390977379 0.0361976994
C -0.0941598516 1.4831233876 -0.0016790860
C -0.6672509179 2.0699926154 1.3375790163
N 0.4660773614 2.6824206699 2.0345283152
C 1.4291076953 2.7247242199 1.1901342302
N 1.1648860417 2.2490300486 -0.1005865611
C 2.7208323038 3.2640594785 1.4670026440
C 3.8254511729 3.6959277409 1.6617587431
H 0.4847450998 -2.1963894758 0.0926518517
H -0.7466018240 1.7250187841 -0.8462457022
H -1.4190551514 2.8394168838 1.1228266970
H -1.1389584019 1.3026519165 1.9553800592
H 1.9310392790 1.8071015405 -0.5905565357
H 4.7944612885 4.0869656993 1.8537021410