17

O 0.0905874877 1.4459554717 -0.0085285192
C 0.1342649350 0.0506613913 -0.0702040251
C 0.1055542304 -0.6553798170 1.3121852450
O -1.3445368555 -0.3027468643 1.3501783775
C -1.2621555998 -0.6320026300 -0.0966749805
C -1.0208923750 -2.1481536749 -0.0437238336
O -2.1109642845 -3.0030377987 -0.0769987500
C 0.3302389904 -2.6896161776 -0.3721061373
C 0.0636685407 -2.1572860563 1.0316856723
H -0.5840144476 1.6551785355 0.6522816020
H 0.8923117615 -0.2101599887 -0.8069027031
H 0.6605099172 -0.2822952228 2.1728303839
H -2.0997540284 -0.2577738451 -0.6854584863
H -2.6976021970 -2.7479639242 0.6457471203
H 0.3643694212 -3.7732324221 -0.4268417188
H 1.0047027615 -2.1988335416 -1.0629603534
H 0.0378545821 -2.8550756655 1.8596978762