13

C -0.0704198506 1.5203035026 0.1065869098
C -0.0924494454 0.0348336322 -0.0288752050
C 0.0483591076 -0.7662259175 -1.1536639228
N -0.0588060779 -2.0305951469 -0.6599947707
N -0.2495427026 -2.0301028436 0.6539114003
N -0.2715816609 -0.7800335837 1.0474257106
C 0.2611770472 -0.5164796463 -2.5712207381
O 0.3554548803 -1.4048454158 -3.3924262010
H 0.0838245636 2.0114862636 -0.8565906374
H -1.0128152641 1.8805381595 0.5303764148
H 0.7302484015 1.8314645157 0.7845065047
H -0.0070271769 -2.8924292194 -1.1832449165
H 0.3325409181 0.5518505497 -2.8561194489