21

C 0.1334542805 1.5285873696 0.0566412678
C -0.0250167167 0.0073612341 0.0371861682
C -1.4956894420 -0.4998020940 -0.0423854156
N -2.2444065268 -0.0145944134 -1.2148551804
C -1.4976595299 -2.0460091090 -0.0628140729
C -2.8802601113 -2.6893718949 -0.0555482474
O -2.6724525173 -4.0943838981 -0.1144312290
C -2.2121186948 -0.0239867230 1.1613678451
N -2.7387815311 0.3623743265 2.1147954359
H 1.1908276329 1.7994220682 0.1227674593
H -0.2637049078 1.9897818823 -0.8535430123
H -0.3803576169 1.9715773123 0.9153695505
H 0.5005615035 -0.4150605941 -0.8284823045
H 0.4435346792 -0.4240729839 0.9290490291
H -2.2904657528 0.9995309887 -1.2130988643
H -1.7435042184 -0.2884513775 -2.0563624252
H -0.9641559645 -2.3687213318 -0.9653282130
H -0.9269126540 -2.4202573712 0.7926673941
H -3.4194944748 -2.4021860837 0.8594435655
H -3.4637171136 -2.3269005039 -0.9116352661
H -3.5329401935 -4.5228535634 -0.0978038150