20

C -0.0318798790 1.5916352495 -0.0068163299
C -0.0122099400 0.0587118373 -0.0005395833
C -1.3788521850 -0.5375546317 0.1195947379
C -2.6233863718 -0.1107697878 0.8197876474
C -3.1716171882 -1.5561848827 0.7981748093
C -3.0748147340 -1.4998618493 -0.7071112215
N -2.5633884149 -0.0622232309 -0.6891981588
C -1.8936311792 -2.0139133397 0.0757944543
C -1.2062227034 -3.3388745987 0.0916825450
H 0.9740457361 1.9916160659 -0.1614838351
H -0.6799562059 1.9619111980 -0.8055994644
H -0.4071424302 1.9861047247 0.9430806401
H 0.4526345717 -0.3089217798 -0.9254775832
H 0.6116691742 -0.3084117848 0.8254739831
H -2.8584207614 0.7652049865 1.4136487160
H -3.8234307455 -2.1199488223 1.4508794210
H -3.6753517693 -1.9335677089 -1.4979929119
H -0.5197910420 -3.4487908902 -0.7559773205
H -0.6291399315 -3.4855604269 1.0122047841
H -1.9389012407 -4.1512650781 0.0295130504