21

C -0.0022013010 1.5391403724 0.0762352405
C 0.0941103626 0.0318082741 0.0588312872
C 0.4260357240 -0.6547879675 -1.2725340006
C 1.2126861777 -1.8809536663 -0.8648996830
C 1.4185966665 -1.9265038978 0.4524971390
C 0.7745636144 -0.7854283643 1.1720383411
C 1.4353868904 -0.2015247617 2.3983502431
C -0.7371652386 -0.7871974383 1.0289573324
O -1.4569375424 -0.1261128280 2.0305713654
H 0.9528280946 1.9991280394 -0.2012662878
H -0.7524393342 1.8916024389 -0.6431796448
H -0.2838975846 1.9153803227 1.0621574438
H -0.4794409353 -0.9120676178 -1.8395866486
H 1.0163590423 0.0038877277 -1.9265921897
H 1.5495782583 -2.6232297975 -1.5797026896
H 1.9629170983 -2.7036926080 0.9791102484
H 2.3948894765 0.2652897920 2.1500567940
H 0.7965389690 0.5436024242 2.8754719151
H 1.6310451521 -0.9864049050 3.1383132879
H -1.2014181430 -1.7071255864 0.6684948724
H -2.1947343177 0.3343135370 1.6163627137