17

O -0.0007537034 1.4357668127 -0.1620085030
C -0.0056143181 0.0410280045 0.0080957268
C 0.1650775092 -0.5708107617 1.4541581700
C -1.0850476669 -1.4683033393 1.2197132745
O -2.2928015223 -1.0286053161 1.8879211362
C -2.5820807565 -0.1259943226 0.8016463592
C -3.3884136381 -0.7141543351 -0.3816416514
O -2.1651287303 -0.9730103909 -1.1377451081
C -1.3779677339 -0.5901316346 -0.0291481171
H 0.9107171077 1.7368444387 -0.2247147009
H 0.6701719579 -0.4588093691 -0.7008945300
H 1.1017554817 -1.1034861809 1.6266767240
H 0.0040425818 0.1661436574 2.2429569747
H -0.9540838619 -2.5508261069 1.2341790066
H -2.7972494123 0.8937299308 1.1218664140
H -3.9321688124 -1.6329527222 -0.1404817485
H -4.0365198324 -0.0130001847 -0.9173481069