20

C 0.2352617289 1.4469798559 0.0691885843
C 0.1217619171 -0.0630295465 0.0489253893
O 0.1586105190 -0.7398924188 1.0529079643
C -0.0551660886 -0.7161385060 -1.3084297005
C 0.6973329150 -2.0435455275 -1.5516175720
C 1.3357586296 -1.3503665984 -2.7856210651
N 0.5837950225 -0.0763295241 -2.5361107637
C -0.7520343023 -0.0541945901 -3.2154855361
C -1.4681780503 -0.5896033165 -1.9479686152
H 1.0906710560 1.7551338763 -0.5397872397
H -0.6470587449 1.9089559409 -0.3882947831
H 0.3432220544 1.7965804266 1.0963222082
H 1.3859561209 -2.3120371159 -0.7494481692
H 0.0595300818 -2.9046749817 -1.7638679655
H 2.4161299931 -1.1954484081 -2.7113738871
H 1.1197439026 -1.8020722489 -3.7594274834
H -1.0419513448 0.9555961507 -3.5201318608
H -0.8078961398 -0.7050290614 -4.0951988759
H -2.0126610678 -1.5310317306 -2.0461255682
H -2.1201021923 0.1370251039 -1.4578538706