23

C -0.3899085144 1.5283958724 -0.1439088246
C -0.0032125049 0.0592438671 -0.0246082216
C 0.9564900044 -0.6121452803 -1.0404977870
C 2.3463284022 0.0653566476 -1.1565744945
C 2.7981799388 -0.5952454745 0.1714198144
C 2.2362695987 0.0797924529 1.4490751775
C 2.4799802953 1.5547283232 1.7446125107
C 0.8304194802 -0.5247406322 1.1553057085
C 1.5163300355 -1.5029641148 0.1266015956
H 0.4754965969 2.1813199563 -0.2781953975
H -1.0512615495 1.6814059630 -1.0046972033
H -0.9269677327 1.8696056584 0.7484072619
H -0.9259875560 -0.5364238043 -0.0394938474
H 0.5161511535 -0.9994738063 -1.9611242253
H 2.9046776567 -0.3535102151 -1.9992280191
H 2.3882598634 1.1571740039 -1.2355205716
H 3.8227788203 -0.9691318391 0.2147893426
H 2.6225882725 -0.5038634044 2.2956325285
H 2.2525769952 2.1976305037 0.8912470124
H 1.8686277448 1.8952444116 2.5880469666
H 3.5301427323 1.7234476169 2.0100355679
H 0.2585397466 -0.8452308970 2.0288294495
H 1.4954642302 -2.5892978592 0.1734608261