17

O -0.1298878441 0.2097865302 -0.7574269629
C 0.0662249934 1.0152472930 0.1286198032
C 1.2294515098 1.9038697814 0.1659244044
N 2.0848023335 2.0555922047 -1.0421459558
C 2.6743998999 1.4137435753 0.1183165785
C 3.1094414236 2.5080851257 1.1047210102
C 1.6442609580 2.9982997906 1.1355900202
C 1.0700224018 4.3477135828 1.2869416796
N 0.9732756816 3.3510718528 2.3813213303
H -0.6326681847 1.1037862189 0.9877848672
H 1.7718031442 1.3201925676 -1.6812018258
H 2.9971140870 0.3799135920 0.0913539364
H 3.4139067946 2.1149423442 2.0766982002
H 3.8607053634 3.2023687761 0.7216936829
H 1.7187894591 5.1918354718 1.5027071877
H 0.1773917544 4.5925366875 0.7172553888
H 0.0346988644 2.9604546156 2.4178436251