16

O -0.0588722391 -0.1472873205 0.2437254476
C -0.0309184002 1.0116021409 -0.0677767581
C 1.2342530821 1.8485137901 -0.1376454814
O 2.4020308850 1.1273063075 -0.5928229044
C 2.6108471664 2.0698608546 -1.6558328324
C 1.9165369622 1.7801624077 -3.0141541472
N 0.5911772634 1.1974828468 -2.7135824702
C 0.7637898668 2.6554634135 -2.6245945977
C 1.3989166886 2.9318810744 -1.2415323472
H -0.9624892423 1.6010622817 -0.2444625001
H 1.4020126126 2.2635788324 0.8694400179
H 3.6342113464 2.4456943832 -1.7170952190
H 2.3825492384 1.6119733023 -3.9774238158
H 0.1399237580 0.9741525570 -3.5985271533
H 0.1643410576 3.3339502351 -3.2180129203
H 1.4972730441 3.9713326332 -0.9379694284