17

C 0.1646788604 1.5030712537 -0.0315953427
C 0.0570882425 0.0547558933 -0.0073440719
C -0.0542690109 -1.1473441763 0.0099414792
C -0.1627818852 -2.5935196520 0.0323559277
O -1.2223663338 -3.1772055073 0.0402452425
C 1.1840749403 -3.3098282827 0.0858952074
C 1.8037070701 -3.3965026837 1.5089832537
C 1.5800938121 -4.9132280988 1.3338523696
O 1.0775647844 -4.7308636800 -0.0075444922
H 1.2058479142 1.8306706514 0.0532491144
H -0.2414233997 1.9038477580 -0.9667571992
H -0.4018293605 1.9492111688 0.7928627354
H 1.8430045973 -2.8868353081 -0.6844757633
H 2.8451234783 -3.0804315035 1.5707785606
H 1.2299571932 -2.9155862264 2.3023739875
H 2.4823238098 -5.5348916195 1.3484824656
H 0.8245294176 -5.3566208169 1.9921573958