20

C -0.1409281817 1.5278275332 0.1390657167
C -0.0117506064 0.0028406013 0.0321132184
C 0.7066023598 -0.4829124305 -1.1944347556
C 1.0169577339 -1.9515919206 -1.5965750258
C 0.9067465368 -1.5458585599 -3.0152493645
C 0.3328035485 -0.1498778354 -2.7099377453
C 1.5414748637 0.8126643686 -2.8048096933
C 2.1349654817 -0.0952894625 -1.7171585762
N 2.2417945524 -1.4917935371 -2.3190381071
H 0.8412630599 2.0110630252 0.1637311219
H -0.6974844074 1.9422519219 -0.7078266325
H -0.6712165714 1.8078153930 1.0540633649
H 0.5111010686 -0.3805465678 0.9194629819
H -1.0128266858 -0.4498976743 0.0562559890
H 0.9451086022 -2.9102003227 -1.0951147424
H 0.8362536879 -2.1409530662 -3.9172068179
H -0.6713801055 0.1009075844 -3.0482546792
H 2.0734963618 0.8895924872 -3.7572648027
H 1.3085977734 1.8087648007 -2.4190226706
H 2.9950827076 0.1694849815 -1.1025046296