21

C 0.1270949892 1.5865901436 -0.1643989373
C 0.0959121571 0.1315289557 -0.1133054610
C 0.0749530373 -1.0731615382 -0.0774555449
C 0.0525743384 -2.5211660226 -0.0376241661
C 0.2315459811 -3.2142885987 1.3550987308
C 0.5605765662 -2.3839436994 2.5751213695
O -1.1379125475 -3.6707003405 1.3432822812
C -1.3448126891 -3.2276136953 -0.0149340313
C -2.6067536299 -2.4107710704 -0.1776019151
H 1.1550919266 1.9639878749 -0.1274745711
H -0.3289782333 1.9615036105 -1.0874512584
H -0.4180895791 2.0284368492 0.6769222766
H 0.7212195074 -2.9246516502 -0.8030267796
H 0.9195324320 -4.0693554520 1.2820657365
H -0.0806772939 -1.5012216767 2.6317850072
H 0.4146016101 -2.9841844640 3.4787953699
H 1.6045843900 -2.0550005208 2.5447099199
H -1.3600700248 -4.0886286744 -0.6991956916
H -2.5815381590 -1.5217412179 0.4568914730
H -2.7259213935 -2.0927536791 -1.2186446346
H -3.4752982752 -3.0168257835 0.0990745764