16

C 0.0120335810 -1.2488601806 0.0730240227
C -0.0237210251 -0.0476938231 0.0821583582
C -0.0235130581 1.4087744334 0.0879350336
C 1.4000810407 1.9987872296 -0.1037830720
C 1.4141344400 3.4919979902 -0.1021886048
C 1.4472462338 4.4342097160 -1.1060735580
N 1.4088404099 5.6810236655 -0.5581076210
N 1.3522713359 5.5742157886 0.7368244938
N 1.3518843350 4.2555253460 1.0199350649
H 0.0256939093 -2.3106813640 0.0656065856
H -0.6764658998 1.7887672415 -0.7065748704
H -0.4481471253 1.7760451653 1.0305198507
H 2.0556929613 1.6062796606 0.6812764630
H 1.8051880137 1.6416342579 -1.0540695651
H 1.5019449021 4.2850601821 -2.1726273810
H 1.3285989155 3.9620329110 1.9839807598