22

C -0.0779796920 1.5136425647 0.0292671122
C -0.0394991776 -0.0029198398 0.0255382810
C -1.2706230275 -0.6649019039 -0.5632425624
C 1.3035742840 -0.6738348783 -0.1937864256
C 0.6646682851 -0.6951668618 1.1653779346
C 1.2659375869 -0.1465790968 2.4661539841
N 0.9247782692 -1.4171755962 3.2072576170
C -0.5412840527 -1.5496111378 3.1290075250
C 0.2528068284 -1.9249686431 1.9400303365
H 0.8247958427 1.9406703073 0.4767720175
H -0.1591810570 1.9054249252 -0.9916007499
H -0.9393730515 1.8880975068 0.5954383336
H -1.4097381634 -0.3728813587 -1.6108527744
H -1.1980338512 -1.7559935045 -0.5285791837
H -2.1752408969 -0.3751713077 -0.0156930512
H 1.3280361049 -1.6010562394 -0.7596745616
H 2.1779649911 -0.0449021912 -0.3364182435
H 2.3504037265 -0.0148228979 2.4349647572
H 0.8063552719 0.7477529249 2.9028484663
H -0.9251111571 -2.3482062393 3.7569381489
H -1.1550085918 -0.6507431766 3.1066348663
H 0.3699641379 -2.9531219159 1.6105407818