20

C -0.2956061049 1.2969217094 -0.0279242538
N -0.1689361637 -0.1229639802 -0.2698419822
C 0.7499671087 -0.6368964356 -1.1312672706
O 1.5595240837 0.0006344652 -1.7700699579
O 0.6287068097 -1.9887538628 -1.1739130767
C 1.5578681127 -2.6546032359 -2.0484323335
C 1.3170256734 -4.1318729812 -1.9433116345
C 0.2134276790 -4.7739124308 -2.7443605526
C 1.6532595679 -5.0129060965 -3.1209040827
H 0.4753146520 1.7983654270 -0.6142796636
H -1.2770340767 1.6746819714 -0.3382539076
H -0.1481783990 1.5383679339 1.0310212416
H -0.7880150919 -0.7732906509 0.1834227901
H 1.4062455582 -2.3008519282 -3.0744225051
H 2.5780112393 -2.3846780154 -1.7566720450
H 1.5049407649 -4.5472697862 -0.9574905649
H -0.3431511270 -5.5859497980 -2.2904777696
H -0.3801269025 -4.1328993533 -3.3877030006
H 2.0292446411 -4.5370200717 -4.0206696626
H 2.0873469250 -5.9859116601 -2.9213138481