21

C 0.0407747102 1.2774618274 0.3067517977
C -0.2084235052 -0.1541580600 -0.1781946087
C 0.6930135923 -0.5579366054 -1.3416618369
C 2.1370435349 -0.9627397542 -1.0153342972
C 1.1766686457 -2.0143029993 -1.4427764953
O 0.7901821322 -2.9395722985 -0.4850066610
C -0.3937546250 -3.6358929321 -0.8342933097
C 0.4648521477 0.1282375876 -2.5833425933
C 0.2598027573 0.6955153904 -3.6254512449
H 1.0686780864 1.3995289978 0.6639949135
H -0.1192504696 1.9973691349 -0.5016320741
H -0.6345571799 1.5336832589 1.1288338829
H -0.0501566630 -0.8654483177 0.6380829636
H -1.2546911890 -0.2573708154 -0.4902101581
H 2.9255773271 -0.6660902018 -1.6960626159
H 2.4023529851 -0.9528130888 0.0364621671
H 1.2657633682 -2.4164713326 -2.4524817160
H -1.2532908684 -2.9582338851 -0.9238215903
H -0.2734748826 -4.1746681338 -1.7854896183
H -0.5860023551 -4.3584075466 -0.0382165455
H 0.0822064508 1.1990990841 -4.5429078195