15

C -0.0407949408 1.5695270000 -0.0703949528
C 1.5112671734 1.3389833440 0.0466717719
N 1.1345170235 0.2148860102 0.9802358934
C -0.0149565582 -0.0004744381 0.0135236518
C 0.7201162001 -0.3218985962 -1.2867807999
C 1.7544162689 0.5845975947 -1.2622832043
N 2.3828409476 0.3917952094 -2.4282919401
N 1.7731144507 -0.6126357509 -3.1386949176
N 0.7448158397 -1.0293400094 -2.4323795667
H -0.4538904106 2.0341151128 0.8267335271
H -0.4226274502 2.0246969922 -0.9842148896
H 2.2074845573 2.0956851041 0.4022396541
H 1.8072079464 -0.5529771946 0.9541307983
H -0.8621011399 -0.5933328639 0.3492242464
H 3.2026541121 0.8247189056 -2.8222392119