18

C 0.1454130500 1.5519893550 -0.1136558154
C -0.0755314005 0.0433810393 0.0933049296
C 0.5688638093 -0.4753540919 1.3344342198
C 0.0853930043 -1.0176833921 2.4817865236
C 1.2618713831 -1.2737950314 3.2437935618
O 1.2598894936 -1.8166951366 4.4638553526
C 2.5451838878 -1.9976451301 5.0635509148
N 2.3598949357 -0.9178645970 2.6166466125
O 1.9139891995 -0.4056039871 1.3902368915
H 1.2121369866 1.7827371353 -0.1699899145
H -0.3280684434 1.8831170710 -1.0421734574
H -0.2820024340 2.1268213878 0.7131861161
H -1.1448604754 -0.1818722136 0.1454631727
H 0.3241193643 -0.5054178200 -0.7681817052
H -0.9365151471 -1.2134015578 2.7572521389
H 3.0583475630 -1.0377772535 5.1770546473
H 2.3576797011 -2.4464633964 6.0393315685
H 3.1680387520 -2.6582718110 4.4526762729