18

C 0.0886367214 1.3041548961 -0.1541072500
O 0.0507423256 -0.1130725128 0.0217660371
C 0.6147360156 -0.5530543505 1.1741038567
O 1.1241743551 0.1622050322 2.0104459852
N 0.5155510198 -1.9047957246 1.2586008132
C 1.1613746547 -2.6331032996 2.3140555471
C 1.3075696759 -4.0989619352 1.9237095399
C 1.9888410178 -4.9958522594 2.9335571308
O 0.8905902064 -4.5060395573 0.8627421003
H 1.1193422296 1.6679037555 -0.1786081439
H -0.4030000762 1.4960528424 -1.1084115780
H -0.4418880000 1.8124799456 0.6553461535
H 0.2108480218 -2.4459286400 0.4624926794
H 2.1500255420 -2.2112384264 2.5397866206
H 0.5984795365 -2.5832802932 3.2588691390
H 3.0169466761 -4.6576495727 3.1049180975
H 1.4733785217 -4.9490433874 3.8989160831
H 1.9973944263 -6.0229974427 2.5683688384