21

C -0.1799742538 1.4085607628 -0.0319803576
C -0.0664213254 -0.1161903494 0.1009207557
C 0.5779650976 -0.5159563075 1.4321799451
N -1.4024000850 -0.7056331646 0.0295613635
C -1.7769285377 -1.2968938156 -1.0198938452
N -1.2657529810 -1.6075510899 -2.2786877404
C -2.2748720648 -2.6607407486 -2.5247083921
C -3.0377893519 -2.1194860589 -1.2746112365
O -3.3451680749 -3.0538611730 -0.2753202965
H 0.8037842006 1.8815398662 0.0554390128
H -0.6113673447 1.6857038186 -0.9984154893
H -0.8285042630 1.8066425849 0.7546775584
H 0.5820420966 -0.4814373329 -0.7147489864
H 1.5795007143 -0.0839507019 1.5277575440
H -0.0354197320 -0.1633670234 2.2673912437
H 0.6628975888 -1.6038152985 1.5129742026
H -0.2895372235 -1.6536500725 -2.5334495624
H -2.7745914609 -2.5833024872 -3.4937493373
H -1.9163505665 -3.6812109920 -2.3577761982
H -3.9148597131 -1.5169313869 -1.5437131188
H -2.9855516497 -2.6932601996 0.5451364147