18

C 0.0144454307 1.5020001680 -0.0638435674
C -0.0304535835 0.0042033106 0.0199156978
C -1.1566309902 -0.7196448443 -0.0330655369
C -1.1547023653 -2.2281337750 -0.0121916818
O -1.2841667940 -2.7519595516 -1.3322800063
C 0.0896896087 -2.7490133188 0.7095531934
N 1.2710029700 -2.0393211245 0.2442326446
C 1.3049082309 -0.6733502429 0.1059370908
O 2.3524597688 -0.0564280200 0.0032998212
H 0.6317776459 1.8214877871 -0.9088692958
H -0.9886578629 1.9216153361 -0.1702827692
H 0.4831957618 1.9261851802 0.8302876983
H -2.1167578274 -0.2291192048 -0.1740563131
H -2.0362768312 -2.5991657041 0.5199490683
H -0.5601563496 -2.3857161020 -1.8535021420
H -0.0496943229 -2.6306261997 1.7954992454
H 0.2048933139 -3.8149907447 0.4963078085
H 2.1783188963 -2.4559994397 0.3959121141