21

C 0.8398553570 -0.3427911560 1.2971360858
C 0.0131959720 0.0050657046 0.0558854502
C 0.7068459756 -0.3694848958 -1.2607049391
C 0.8992156428 -1.8941899838 -1.4764116195
C 0.7201956619 -2.1386944063 -2.9945091579
C -0.0473930944 -0.9259040293 -3.4462722097
C -0.0596840919 0.0436179129 -2.5188671500
C -0.6414140929 1.3269131038 -2.6595724562
C -1.1204001879 2.4308787790 -2.7355189497
H 1.0367775350 -1.4179985641 1.3637446042
H 1.8083682789 0.1701083053 1.2821720684
H 0.3202843701 -0.0447245519 2.2130023524
H -0.9594400795 -0.5027917427 0.1009164326
H -0.2028341121 1.0796164973 0.0477806921
H 1.6838301764 0.1386110197 -1.2782814800
H 1.8591181732 -2.2560578725 -1.1005323332
H 0.1143882968 -2.4292516770 -0.9291715593
H 1.6862892686 -2.1949442261 -3.5175573773
H 0.2021021827 -3.0789971493 -3.2147205610
H -0.4954452328 -0.8369572971 -4.4292098235
H -1.5480205896 3.3990057493 -2.8186149192