15

O -0.2508610439 0.1503067152 -0.5016752182
C 0.0173085519 1.1017828467 0.1988677082
C 1.2341762989 1.8570425539 0.1221824201
C 2.2490473405 2.5188684194 0.0862429814
C 3.4433262243 3.2616066182 0.0126517578
C 3.9987803105 4.1110194421 1.1610439475
C 3.6947662135 4.7809042754 -0.1251686999
O 4.7295421792 4.5947419059 -1.0741821786
C 4.5236718496 3.1564220478 -1.0712131420
H -0.6876875154 1.4644105421 0.9755003239
H 3.2881076317 4.2768061018 1.9633131400
H 5.0332934296 3.9754772106 1.4638534813
H 3.0000952221 5.5997485202 -0.2710837056
H 5.4339027438 2.6024640975 -0.8185332734
H 4.1276146237 2.8243175531 -2.0349639124