21

O -0.5472645823 1.7195983737 0.5215019251
C -0.3469320107 0.3714982207 0.1884731778
C 0.0825176560 -0.6846148387 1.2483766286
C -1.3783231573 -0.6596016946 1.7843976304
C -1.5240198697 -0.6684057965 0.2232540600
C -0.3985549534 -1.7519294932 0.2278061275
C -2.7846393071 -0.6543044703 -0.5691163799
C -3.4327318913 0.6641186257 -0.9320802673
C -2.7808534536 -0.1736064461 -2.0012809036
H -1.0094137637 1.7718751392 1.3644888150
H 0.2432647315 0.3806523029 -0.7322179802
H 1.0020848525 -0.7002084944 1.8337966527
H -1.7204213165 -1.5586303826 2.3046757581
H -1.7198809848 0.2290759804 2.3260493404
H 0.1844926015 -1.8617615518 -0.6913894720
H -0.6737355873 -2.7225180251 0.6467071006
H -3.4635213808 -1.4743787458 -0.3465254984
H -4.5152328790 0.7256702331 -0.9123313579
H -2.9184134615 1.5682092572 -0.6270694451
H -1.8417764817 0.1790140097 -2.4139271814
H -3.4141667707 -0.6899996635 -2.7140133203