21

C 0.2990750608 1.2145639561 0.3011746065
O -0.3795951958 0.2032437600 -0.4153870918
C 0.4173314740 -0.4156604141 -1.3750292371
C 1.3562308650 -1.5294908647 -0.9506198929
C 0.0852185984 -1.8322874926 -1.7002898297
C -1.1000209591 -2.6601063318 -1.1608780279
C -1.2305090909 -3.2985973892 -2.5549726623
C -1.4289129826 -2.2428137762 -3.6062121586
C -0.0423425670 -2.4775729807 -3.0673349621
H 1.1726821892 0.8165567861 0.8373071501
H 0.6412624090 2.0221742012 -0.3639080837
H -0.4081705048 1.6284416863 1.0240557578
H 0.7455844077 0.2422873246 -2.1831198229
H 2.3064324936 -1.6317066805 -1.4663884561
H 1.3804531215 -1.7808719049 0.1056016870
H -0.7909526417 -3.3716754634 -0.3908026715
H -1.9654701754 -2.0967036918 -0.7995485721
H -1.4606535486 -4.3398356739 -2.7432501742
H -1.6063148956 -2.6153693778 -4.6104177476
H -1.9569108709 -1.3216719085 -3.3698961850
H 0.7843682733 -2.7857316341 -3.6966526661