16

O 0.0298098306 -0.0953171437 0.0822792905
C -0.0116452551 1.1090797261 0.0611387621
C -1.3077915606 1.9031425039 0.0435420395
C -1.4827620382 2.8939915651 1.1702562035
C -0.6162881749 3.2082940921 2.1317834300
C 0.7822312429 2.6434497586 2.3014527230
N 1.5933136085 2.6363521739 1.0860054769
C 1.2821630058 1.9442062480 -0.0381735179
O 1.9225069209 1.9683967129 -1.0704386196
H -1.3504773944 2.4414633929 -0.9161165181
H -2.1366045501 1.1858535960 0.0391411340
H -2.4529883627 3.3853772258 1.1757615090
H -0.9255736033 3.9263094991 2.8862677424
H 1.3251282762 3.2368465753 3.0393719895
H 0.7295109772 1.6262521059 2.7140732446
H 2.4059935771 3.2328652679 1.0274633604