21

C 0.3646401587 1.5620208831 0.0543938401
C -0.0164144515 0.0712259905 -0.0251372728
C 0.5218020382 -0.5665000628 -1.2803387840
C 1.1614831961 -1.7340594043 -1.3625844639
C 1.6604456351 -2.2833417105 -2.6718651077
C 1.4196713537 -2.6034569635 -0.1553010290
C 1.1188270496 -1.9438622839 1.1686894473
O 1.8335141837 -0.7373423474 1.4568151349
C 0.4206776198 -0.6538679777 1.2309911002
H 1.4500282356 1.6679228002 0.1339682604
H 0.0285701629 2.0987978567 -0.8382975193
H -0.0918881794 2.0395371219 0.9277574253
H -1.1166895514 0.0119350564 -0.0531993494
H 0.3604599839 0.0049010889 -2.1933784746
H 1.4158754270 -1.6217436107 -3.5069119920
H 2.7495175510 -2.4209064415 -2.6528556556
H 1.2272110871 -3.2703562765 -2.8814032504
H 0.8196780812 -3.5231012965 -0.2309733294
H 2.4663318125 -2.9415752061 -0.1576707255
H 1.0384560960 -2.6209468526 2.0203185841
H -0.1531550300 -0.4145924237 2.1280620815