15

C -0.0012737517 1.5094277447 -0.0211485267
C 0.0147244892 -0.0099687199 -0.0183230714
O 0.6755517762 -0.4570760148 -1.1825229400
C 0.7456806182 -1.8633471222 -1.2796926072
C 1.4737587703 -2.2266221263 -2.5629553862
H 1.0189165155 1.9034690659 -0.0357229644
H -0.5253354653 1.8857148044 -0.9043410890
H -0.5078406361 1.8881254104 0.8717132268
H 0.5288009804 -0.3893126266 0.8820261226
H -1.0148650879 -0.4071864601 0.0126735209
H 1.2735761704 -2.2806865481 -0.4045059103
H -0.2693699588 -2.2974629662 -1.2751576379
H 0.9423327498 -1.8271773750 -3.4314584209
H 2.4853744383 -1.8108190206 -2.5606646287
H 1.5444880114 -3.3134572756 -2.6678888976