16

C -0.1025714209 1.5329846069 0.0633001671
C 0.0247953160 0.0288911020 0.0320117443
C -1.2509014075 -0.8688651450 0.2061191048
C -0.5031794094 -1.7339993091 1.2669661731
C 0.7664230203 -0.8925732993 1.0444142340
O 1.5883545926 -1.4278682347 -0.0427165864
C 0.9900176348 -0.6031952584 -0.9707465780
O 1.2400235924 -0.5153253281 -2.1300978641
H 0.8760799059 2.0185897204 0.1299042693
H -0.5882349460 1.8878221263 -0.8518237437
H -0.7074439477 1.8597406128 0.9152020052
H -2.0899523693 -0.3061996925 0.6211155963
H -1.5902844922 -1.3797233872 -0.6968189038
H -0.9143446142 -1.6273587061 2.2734581581
H -0.3808565404 -2.7953587587 1.0444599543
H 1.3863796455 -0.5614328691 1.8765629197