14

O -0.0609229845 1.4558198213 -0.0153112501
C -0.0027580624 0.0455349160 0.0108138818
C 0.6649230066 -0.5399312706 -1.2664750584
C -0.0056489990 -0.0930518497 -2.4838299051
N -0.5389832314 0.2483187065 -3.4495902939
C 0.6721374999 -0.4770353461 1.2001730079
C 1.2600545895 -0.9051096001 2.1644441005
C 1.9502117251 -1.3914102375 3.3365700908
O 2.1744684198 -2.5586006728 3.5525808085
H 0.8282953540 1.8037226178 0.1189980283
H -1.0482737125 -0.2835424159 0.0272838070
H 1.7169878760 -0.2355267230 -1.2990851949
H 0.6478188429 -1.6337201897 -1.2204821259
H 2.2663180459 -0.5952861663 4.0394819836