17

O -0.1655064977 1.3765121038 -0.0999383181
C -0.0090036570 -0.0210596635 -0.0165187845
C 0.1003981243 -0.6147798417 1.4396479280
C -1.4336703036 -0.3260720936 1.5584550901
C -1.4143577349 -0.6845516895 0.0328397702
O -2.4110350414 -0.3213628726 -0.8549611379
C -1.0615605238 -2.1765447695 0.0578864126
C 0.0745783281 -2.0982857340 1.1036983380
O 0.7650439286 -2.9860643870 1.5246934062
H 0.6951672441 1.7942948665 -0.0007620046
H 0.7065306805 -0.3887563540 -0.7638587817
H 0.8346424514 -0.2691840841 2.1638022958
H -2.0250685022 -0.9535587706 2.2289166834
H -1.6290865937 0.7307669201 1.7335107334
H -2.3970036680 0.6415771362 -0.9185636669
H -1.8882046691 -2.8084985658 0.3951144873
H -0.6981276254 -2.5598754506 -0.9005353814