18

C -0.6148930989 0.0844999436 0.9842284490
C -0.0001561652 0.5349583367 0.0535221633
C 0.7888114079 1.0932313612 -1.0517898255
N 1.8798622618 1.9914574570 -0.6525813186
C 1.4682065314 3.2003983632 -0.0358728557
C 1.0053845279 4.3829541666 -0.8680498168
C 2.1738850000 4.5341904405 0.0591290649
O 1.7299374568 4.7619849941 1.3974110160
C 1.0843913019 3.4584602244 1.4293682634
H -1.1653505017 -0.3156078470 1.7996777091
H 1.2195363568 0.2745515305 -1.6399253998
H 0.1303147120 1.6503266982 -1.7280804750
H 2.5391819633 1.4916028141 -0.0642130101
H 1.2625521767 4.2958583333 -1.9189015261
H 0.0743290423 4.8971368676 -0.6463136705
H 3.1665282389 4.8677301743 -0.2194898004
H 0.0211924458 3.5199638917 1.6851982187
H 1.5983195024 2.7922854699 2.1330064442