18

C -0.0560964279 1.4248280214 -0.1123022584
N 0.0138015427 0.0029184090 0.1151207240
C -1.1684727540 -0.8591175982 -0.0446295085
C -0.6140136142 -2.3051268348 0.0381457604
O -1.0734190827 -3.0587153020 -1.0686681438
C 0.8895079369 -2.0862235850 0.0426087793
C 1.8177153394 -3.1647633978 -0.0660762615
O 1.4763971386 -4.3314778358 -0.2418108781
C 1.1378540945 -0.7492513681 0.0787897268
H 0.9244342697 1.8733168347 0.0637754233
H -0.3678840084 1.6604039146 -1.1406390930
H -0.7743388555 1.8887160821 0.5732349112
H -1.9109729408 -0.6305240843 0.7256862968
H -1.6268501516 -0.7053824445 -1.0301897140
H -0.9330324901 -2.7882017701 0.9747242017
H -0.5308060652 -3.8614208179 -1.0627329260
H 2.8955282711 -2.8965291057 -0.0043106531
H 2.1040983577 -0.2561454477 0.0849598528