23

C -0.4239488197 1.4620295472 -0.2200712165
C -0.0758320950 -0.0181844526 -0.0824036168
C 1.1822105637 -0.4630808394 -0.8938663190
C 2.0053540568 -0.4666284497 0.4105295284
O 2.6977757775 0.7661961779 0.5268437811
C 2.9233378301 1.1383866403 1.8783466944
C 1.6056590622 1.4818682216 2.5730469430
C 0.6527917613 0.2728039709 2.5478341301
C 0.6755612667 -0.4854858097 1.2159049524
H 0.4665201184 2.0897425308 -0.1393336275
H -0.8774585104 1.6527247359 -1.1994641041
H -1.1439853607 1.7817171579 0.5420390595
H -0.9732607796 -0.6116141294 -0.2842103066
H 1.0809539647 -1.4638831401 -1.3215381720
H 1.5460527586 0.2222535364 -1.6631554033
H 2.7037108283 -1.3000807195 0.5809065985
H 3.4444982555 0.3276470171 2.4172571669
H 3.5940974636 2.0022140334 1.8484471602
H 1.7984096921 1.7883000377 3.6077913068
H 1.1603961295 2.3415547228 2.0620397831
H 0.9638080382 -0.4232900871 3.3381369372
H -0.3696017856 0.5787180335 2.7999018030
H 0.3945458939 -1.5286628360 1.3965253412