18

C 0.0778707265 1.4558179563 -0.0018225262
N 0.0811958417 -0.0038767376 -0.0029202940
C -1.0930186832 -0.7970457071 0.5409606951
C -0.0995362239 -2.0112701736 0.5107903365
O 0.3401806698 -2.4778044826 -0.7095493414
C 0.6429254024 -0.7935623067 1.1651347500
C -0.6478683347 -0.5796562606 2.0276781187
C -0.9184941103 0.6294755575 2.7734200432
C -1.1781997759 1.5609271184 3.4902827085
H 1.0948113091 1.7974481445 -0.2224440555
H -0.5674735606 1.7940879544 -0.8195240065
H -0.2560228036 1.9301513805 0.9251182620
H -2.0956827439 -0.7118978689 0.1190237170
H -0.3313439276 -2.8557839789 1.1602474113
H 0.5190100390 -1.6636379986 -1.2112969130
H 1.6843394232 -0.7043369897 1.4783682398
H -0.8773841602 -1.4387417465 2.6708160145
H -1.3971199177 2.4065750791 4.0941007301