17

O 0.0405037328 -0.0555566194 0.0339671248
C 0.0240470084 1.1539524732 0.0452533566
N -1.0811176268 1.9844867703 -0.1440616525
C -0.7636453320 3.3973352912 0.0664409603
C 0.7419874853 3.3475520353 0.0462806433
C 1.7965571617 4.1384941154 -0.1438646395
C 3.0605833192 3.2936559059 -0.0429667862
C 2.5248089919 1.8242681417 -0.0210269315
N 1.0976064072 2.0097508870 0.2388052420
H -1.9887559340 1.6102135793 0.0788135235
H -1.1721059460 4.0357089880 -0.7236108580
H -1.1387963384 3.7703662412 1.0310961759
H 1.7847905782 5.2063544294 -0.3013643140
H 3.7494850183 3.4567723548 -0.8781438748
H 3.6221073813 3.5189484824 0.8731905632
H 2.6690477789 1.3216653996 -0.9846670819
H 2.9910659939 1.2106832447 0.7521835087