15

C -0.0247372693 1.5196478156 0.0138907030
C -0.0045849814 0.0201701597 -0.0367315856
C -0.0416010943 -0.7064298605 -1.1919727281
C -0.0217086721 -2.1318971462 -1.2226656899
C 0.0371636187 -2.7607919938 -0.0261069172
F 0.0624255944 -4.0774816208 0.1155921206
N 0.0751642727 -2.0749426063 1.1401152884
C 0.0587190073 -0.6645606720 1.2481847982
O 0.0965335344 -0.1429136534 2.3497678222
H 0.8663589903 1.9045035726 0.5216117134
H -0.0723563566 1.9501526741 -0.9894230271
H -0.8821994335 1.8785822467 0.5934394203
H -0.0886755503 -0.1801249752 -2.1411052506
H -0.0513304859 -2.6989391907 -2.1409417800
H 0.1187976856 -2.5834088297 2.0133862924