23

C 0.3530366526 1.3441800431 0.3365645679
C 0.3296253072 -0.1626858920 0.0562178440
C 0.6817525942 -0.5193601364 -1.3914421121
O -0.2330436668 0.0666912111 -2.3065399221
C 2.1943492201 -0.3700243038 -1.7687223079
C 2.3516516243 -1.9204948942 -1.7714650470
C 3.1315520529 -2.5096431914 -0.6010509789
C 0.7928999625 -2.0382198953 -1.6764174050
O 0.2336453706 -2.8601197062 -0.6758912656
H 1.3276036697 1.7879042497 0.1036010266
H -0.4091313870 1.8773700101 -0.2434599558
H 0.1435854352 1.5453439666 1.3911409863
H 1.0236174210 -0.6718080377 0.7322312366
H -0.6632947272 -0.5693693961 0.2720041943
H -0.1994732336 1.0224096380 -2.1947021739
H 2.3173011446 0.0820458461 -2.7552393156
H 2.8212792479 0.1655753439 -1.0500224331
H 2.7537544550 -2.3178739472 -2.7082938580
H 2.7654721655 -2.1428890275 0.3618649041
H 3.0537692671 -3.6019604417 -0.5814388476
H 4.1930008777 -2.2510557559 -0.6797858223
H 0.3459382709 -2.2428061696 -2.6570737944
H 0.2297367056 -3.7672686636 -0.9947650706