17

O -0.0200310434 1.4570576020 0.0751447414
C 0.0429225152 0.0426661498 0.0970913286
C 0.5743032571 -0.5302434257 1.4015230772
C -0.2879620859 -1.4392179157 1.8773241800
N -1.3958026570 -1.6043792552 1.0219376065
C -2.8169290095 -1.8041865780 1.3145071909
C -3.4515327774 -1.1414200445 0.0466845748
N -2.4091971287 -0.2490472044 -0.5169381985
C -1.3332140080 -0.5920981815 0.0668322055
H -0.8277802871 1.6870720874 -0.4016348839
H 0.6490817092 -0.3201049868 -0.7513796583
H 1.5435922972 -0.2904742605 1.8114140851
H -0.1969779608 -2.0622691861 2.7568288998
H -3.0719875312 -2.8616786859 1.4164939461
H -3.1086619401 -1.2808233305 2.2356390424
H -3.7230454390 -1.8968684845 -0.7008841576
H -4.3548180305 -0.5729263099 0.2812053400