20

C 0.9325696806 0.4686673191 -1.0607643333
C -0.0276724420 0.0392626682 0.0647074575
C 0.7043146270 -0.5818765081 1.2262237182
C 0.8205989592 -2.0928258463 1.3135168763
C -0.4768620281 -2.7613802748 1.3942147452
C -1.5537094804 -3.2962315765 1.4580920582
C -2.8507480686 -3.9524397160 1.5441152420
N 1.2893906021 0.0617591845 2.1616758306
O 1.1714284136 1.4540110738 1.9959837747
H 1.5031061507 -0.3824099566 -1.4469914823
H 0.3738548014 0.9020522552 -1.8956605110
H 1.6400912130 1.2161556934 -0.6943118683
H -0.5756114485 0.9148642757 0.4233503728
H -0.7583400174 -0.6803476127 -0.3161524003
H 1.3617216697 -2.4573957297 0.4276178737
H 1.4377292687 -2.3370564767 2.1840856019
H -2.8766661961 -4.6739180891 2.3682432022
H -3.6525886923 -3.2260320110 1.7166903515
H -3.0875964148 -4.4944305482 0.6218539120
H 1.6213312122 1.7864129157 2.7795488584