19

C -0.0696228311 1.5060405978 0.0866950529
C 0.0719504721 -0.0030290955 0.0687566817
C 0.9241786520 -0.6247557813 -0.9843183310
N 1.3697869785 -0.5961576463 0.4216427426
C -1.1634259046 -0.7257641523 0.6095106993
O -2.2921269605 -0.4674881710 -0.2089542189
C -0.9470777321 -2.2385210447 0.8287640620
C -2.0725879655 -2.8571511964 1.5216387578
N -2.9562313107 -3.3493250519 2.0800046306
H 0.7802704672 1.9895540453 -0.4048417635
H -0.9868532075 1.8114823959 -0.4233105979
H -0.1240656913 1.8751273341 1.1175429465
H 0.7196418063 -1.6177064261 -1.3759781213
H 1.4022132500 0.0412500581 -1.6978447344
H 2.0641753735 0.1342826346 0.5581033767
H -1.4182397466 -0.2810959357 1.5786900793
H -2.0881003305 -0.7724130721 -1.1009098558
H -0.8130605524 -2.7456806731 -0.1342138318
H -0.0273843168 -2.3927997292 1.4002659652