21

C -0.0036904571 1.5119559562 -0.0371937595
C 0.0007228092 0.0587810627 0.0571621293
C 0.0154106988 -1.1425997080 0.1379701115
C -0.0043323831 -2.5979267264 0.2231492577
C -1.3510189182 -3.2130581865 -0.2164027736
C -1.3725613108 -4.7237541083 -0.0922087319
O -0.4386429584 -5.3919452768 -0.9067967699
C -1.7216773024 -5.3709957149 1.2272279388
C -2.6780495292 -5.4422680881 0.0503730791
H 0.8775701510 1.8801288861 -0.5744059689
H -0.8895768062 1.8742072641 -0.5708008045
H -0.0035370518 1.9773190871 0.9548818216
H 0.7966368898 -3.0102172034 -0.4049464330
H 0.2166537255 -2.9127929701 1.2523481372
H -2.1558324195 -2.7845354711 0.3898441795
H -1.5478830262 -2.9337342774 -1.2574801220
H 0.4258617455 -5.3238079617 -0.4881624214
H -1.1922474627 -6.2806437079 1.4883259890
H -1.9820861002 -4.7369652019 2.0683522206
H -3.5906921515 -4.8575975615 0.0875575054
H -2.7620092523 -6.3929947722 -0.4627082451