18

C 0.0549040041 1.3893392582 0.0610782089
O -0.0334495836 -0.0239548791 -0.0450002583
C 0.6495909521 -0.5500314433 -1.1318491174
O 2.0767979809 -0.4166682101 -0.9795673708
C 2.6498858183 -1.6619780282 -0.9486898705
N 3.8856400023 -1.8999248470 -0.8194911399
C 1.5859117604 -2.6773920792 -1.1110603261
C 1.8895711764 -4.1366322689 -1.1210134461
C 0.4241063606 -2.0323968633 -1.2253793519
H 1.0840229113 1.7112177925 0.2561243398
H -0.3040561993 1.8797924879 -0.8558237852
H -0.5825168088 1.6832526140 0.8969033417
H 0.3846354125 0.0011770541 -2.0497132635
H 4.4134887085 -1.0318997754 -0.7170830358
H 2.6105404860 -4.3708445308 -1.9108209014
H 2.3597909552 -4.4342094383 -0.1781409808
H 0.9873238548 -4.7336204552 -1.2713743247
H -0.5638880919 -2.4561077279 -1.3422242681