17

C -0.0026304411 1.5174422746 0.0333701709
C -0.0140667314 0.0172583121 0.0329944533
C 0.5498915596 -0.8902127535 -1.0950595247
C -0.2904481743 -2.1701339214 -1.1415084703
C -0.5522999448 -2.2196029383 0.3816349466
O 0.7582165633 -2.0701653465 0.9520616150
C 1.1771011918 -0.8994308575 0.2632429794
C -1.1427026617 -0.7999879480 0.5910552028
O -2.2015180374 -0.4549687092 1.0398620408
H 0.9173571905 1.9100706875 -0.4104207682
H -0.8486793062 1.9146380409 -0.5367227207
H -0.0792950884 1.9072141080 1.0532771182
H 1.0320452084 -0.4566494488 -1.9609057309
H -1.2146070201 -2.0707132040 -1.7176137889
H 0.2762526262 -3.0347180959 -1.4979093031
H -1.0788833849 -3.0623471348 0.8181611599
H 2.1701415205 -0.5546491752 0.5149700398