19

C -0.5898884886 1.3557750573 0.0410302035
C 0.0526366645 -0.0181059006 -0.0697337520
C 1.3609910186 -0.1728501099 -0.9119764326
C 2.0784111968 -0.7862364880 0.3060882030
O 2.7764460569 0.1976580490 1.0882952163
C 1.6651994983 0.3522128676 1.9952575058
C 0.7835612245 -0.6306979373 1.1853855580
C 0.1156370841 -1.6838414493 1.8977813423
C -0.4561483084 -2.5645054437 2.4863739506
H 0.1356652726 2.1279322752 0.3160318906
H -1.0257625491 1.6481022616 -0.9204006854
H -1.3927333446 1.3610584621 0.7862872351
H -0.6971782357 -0.7402221909 -0.4027971738
H 1.2610931133 -0.8430654909 -1.7692518596
H 1.8244225876 0.7608348144 -1.2400276232
H 2.6406975313 -1.7160425707 0.1928248725
H 1.9092327752 -0.0165653423 2.9980283376
H 1.3185160790 1.3892172389 2.0659355611
H -0.9546056662 -3.3435269125 3.0079966201