18

O 0.0154802698 -0.0340403357 -0.2825352693
C -0.0546018508 1.1295042785 -0.0642010326
C -1.2532117850 2.1597070767 0.2072307844
N -0.2227309043 2.8991907749 0.9680290848
C 0.5983963037 4.1646677041 0.9689554204
C 1.8287210595 3.1712908061 1.1209052179
C 0.8793670381 2.3498183652 0.1827859445
C 0.9727265908 3.2240432473 -1.1377970860
C 0.6981074394 4.6128489874 -0.5019323709
H -1.6354656125 2.5906719998 -0.7281792471
H -2.0861951829 1.8002988683 0.8156299073
H 0.3644001306 4.9051457031 1.7334678870
H 2.7962311895 3.5033360002 0.7379748782
H 1.8980871162 2.7555220625 2.1241055653
H 1.9639433803 3.1337175728 -1.5872219561
H 0.2400085268 2.9440889697 -1.8972872911
H -0.2318064962 5.0688109291 -0.8517091684
H 1.5071037671 5.3302378900 -0.6631468984