17

N 0.0354082139 1.2173189354 -0.3321444358
C 0.0137604359 -0.0013465334 -0.0431692171
O 1.0270950681 -0.8284049967 0.4170452161
C 0.1163722367 -1.9630194883 0.5151830327
C -1.0348572091 -1.0950916547 -0.0302690570
C -2.4041315295 -1.0139917117 0.7264592231
C -3.0927799706 -1.5200499867 -0.5488105401
N -2.7984597829 -0.5066310473 -1.5844391107
C -1.7958837196 -1.5526765028 -1.2798542073
H 0.9690515895 1.6107922993 -0.1957285164
H 0.4461783854 -2.7899418843 -0.1208672678
H 0.0162837020 -2.2990554828 1.5513019504
H -2.4449905011 -1.7156725788 1.5629842118
H -2.7076372404 -0.0171625614 1.0514745627
H -3.9553133223 -2.1690377546 -0.6271548363
H -3.2715451978 -0.7958514078 -2.4407149097
H -1.4274538281 -2.2188540035 -2.0509513384