19

C -0.0058420200 1.4669781610 -0.0852315164
C 1.3333826173 0.7951144811 0.0311001969
C 0.0434197221 -0.0254696698 0.0704753421
C 0.4850191992 -0.7322475390 -1.2338609180
C 0.8020254473 0.1138285016 -2.4326654372
C 1.7788226083 0.0556832308 -1.2677352162
C 2.8589023495 -1.0051075502 -1.2558737181
C 2.0874178424 -2.3112325331 -1.6143274800
O 0.7186654899 -2.1025768950 -1.2313214086
H -0.3115119989 1.9921213398 0.8152599827
H -0.3464880797 1.9491148659 -0.9950832941
H 2.0266731423 1.0401929039 0.8265920216
H -0.4354550436 -0.5533706836 0.8843746573
H 1.1050091947 -0.4395284237 -3.3157770531
H 0.2574367413 1.0200606264 -2.6703813498
H 3.6891257000 -0.8331078942 -1.9480984620
H 3.2797642811 -1.0772548876 -0.2476438919
H 2.1456606792 -2.5117015130 -2.6929723335
H 2.4540262676 -3.1980757511 -1.0890278617