19

C -0.1212547273 1.3124734130 0.4693207029
O -0.1487930286 -0.0948223923 0.4111800600
C -1.1613351996 -0.5693655806 -0.4553803178
C -1.1527807415 -2.0257107427 -0.4878110407
C -1.1553489157 -3.2280875215 -0.5364794629
C -1.1715826410 -4.6843813064 -0.5629063271
C -2.0646162964 -5.2946768582 0.5431877709
C -1.9645120041 -6.8032461430 0.5745085322
O -2.9010224258 -7.5581537292 0.5534684205
H 0.6821365455 1.5916163300 1.1544325358
H 0.0798544827 1.7598212982 -0.5173677516
H -1.0707026204 1.7262605703 0.8454376343
H -2.1508209678 -0.2083144331 -0.1231612978
H -1.0114354604 -0.1721766640 -1.4749730249
H -1.5195439838 -5.0313930309 -1.5442087937
H -0.1462691582 -5.0628059051 -0.4538488468
H -1.7216132248 -4.9168012213 1.5157251328
H -3.1104920372 -5.0062478769 0.4160142662
H -0.9183493057 -7.1905404863 0.6239705280