16

O 0.4572824594 0.3197524676 -1.0506764758
C 0.2646224732 1.3542449023 -0.4391557471
C 1.3273435195 1.9667966743 0.3448392146
C 2.2031902159 2.4814969783 0.9910522711
C -1.0159112429 2.1234779081 -0.4133614543
C -1.8705680208 2.3766051828 -1.6151409300
C -1.9146280055 1.2089522119 -2.5974492954
C -2.4055298656 0.3593242390 -1.3995202828
N -2.3930698456 1.5570806325 -0.4720280658
H 2.9873117063 2.9216909380 1.5581646514
H -0.9934513263 2.9489715021 0.2920054194
H -2.2221707063 3.3863649292 -1.8077027651
H -2.6726014090 1.3466740103 -3.3706053100
H -0.9692898705 0.9200715002 -3.0583132626
H -3.4407310086 0.0262377160 -1.4934017469
H -1.7738671932 -0.4673070227 -1.0799371307