18

C -0.9022964447 1.3985628551 -0.3831951132
O -1.0203756892 0.0028134520 -0.5343527494
C -0.5565084944 -0.7138270893 0.6061721143
C -0.7911204489 -2.1738190508 0.4027901605
C -1.8582205130 -2.7433445606 -0.2363525450
N -2.9907535775 -2.2014261808 -0.8184547018
O -1.7658871340 -4.0924187755 -0.2275778195
C -0.6057194292 -4.4114016688 0.4423075494
C 0.0187714576 -3.2794385177 0.8417348222
H -1.2865097005 1.8617412359 -1.2952364673
H -1.4817204146 1.7680798781 0.4774487894
H 0.1469945712 1.7024657438 -0.2458147519
H 0.5170005696 -0.5182779237 0.7630802156
H -1.0804984027 -0.3331403415 1.5018244872
H -2.8126491342 -1.2453513427 -1.1022840633
H -3.3456830757 -2.7612017577 -1.5833693479
H -0.3957339416 -5.4628776658 0.5300974685
H 0.9514681419 -3.2204423700 1.3824824324