21

O 0.0829330855 1.3874015913 -0.1272625721
C 0.0247834611 -0.0343614259 0.0017307634
C 0.7504144770 -0.5041902463 1.2708267144
C 0.0520152468 0.0228287594 2.5337067853
C -1.4438359335 -0.1456324501 2.4579140579
C -2.0899541185 -0.4154361173 1.3202977225
C -1.4129409666 -0.5384205530 0.0042981944
C -2.2269311917 -0.3246768488 -1.2549436322
C -1.7829777895 -1.7112446106 -0.8910932828
H -0.5868476053 1.7575949244 0.4576849513
H 0.5454497664 -0.4158059176 -0.8835411143
H 0.7544689359 -1.6010559619 1.2828350713
H 1.7911079384 -0.1682864424 1.2401434716
H 0.4405032872 -0.4908662724 3.4210858549
H 0.3014366431 1.0837850632 2.6827174463
H -2.0068814588 -0.0393716825 3.3817907888
H -3.1705186819 -0.5459186953 1.3272297518
H -3.2771964095 -0.0757107208 -1.1433014278
H -1.7328482896 0.1805025014 -2.0774463387
H -0.9889946905 -2.1695017949 -1.4718658232
H -2.5243625860 -2.4114392499 -0.5213225628