25

C -0.2836837488 1.5155609072 0.0974587544
C 0.0390111289 0.0195784460 -0.0172073230
C 0.7499668138 -0.4502199471 -1.3138991405
C 0.7360032969 -2.0017916851 -1.3095824389
C 1.5872617610 -2.7090732840 -2.3727656744
C 0.0257601892 0.0775528701 -2.5709148651
O -1.3337421217 -0.3255093238 -2.6620910482
C 2.1935850749 0.0955856929 -1.3480548275
O 2.9956089080 -0.3332454711 -0.2563230718
H 0.6108890472 2.1388845931 0.0058583302
H -0.9973073944 1.8565293872 -0.6615274133
H -0.7284024889 1.7302566786 1.0740857283
H 0.6816982083 -0.2660640421 0.8217964706
H -0.8874278668 -0.5567612768 0.1000659798
H 1.0429746834 -2.3498087948 -0.3151655252
H -0.3066097062 -2.3129384986 -1.4308687379
H 1.3097601801 -2.4116339499 -3.3884951111
H 2.6598730262 -2.5143754823 -2.2579826144
H 1.4496962766 -3.7926241616 -2.3044876757
H 0.1156581359 1.1730848539 -2.6221783135
H 0.5043034670 -0.3165483937 -3.4731847898
H -1.8218932254 0.1114267500 -1.9575138886
H 2.6671948196 -0.1590466271 -2.3081378966
H 2.1833268125 1.1885113569 -1.2862650626
H 3.1421530026 -1.2796883975 -0.3480138651