17

C 0.1230006903 1.5938534586 0.0229223454
C 0.0645110484 0.0870097563 -0.0466893368
O -1.1301992255 -0.4766262729 0.4297760657
C 0.6031808634 -0.7289225865 -1.2041144855
C 1.6330627536 -0.1170644858 -2.1251117311
C 2.8259153228 0.2120381628 -1.2181368088
O 3.8472438966 0.7590838728 -1.5060628444
O 2.5546762961 -0.1979662395 0.0622614049
C 1.2773100528 -0.7944223186 0.1509550323
H 1.0769587093 1.9981703619 -0.3213534838
H -0.6788368815 2.0300045447 -0.5806534111
H -0.0121734288 1.9269090789 1.0588215654
H -1.2003779727 -0.2712127958 1.3694793867
H -0.0174926838 -1.5465852853 -1.5470552336
H 1.9630209619 -0.8212463445 -2.8947641977
H 1.3186519716 0.7962130163 -2.6378795971
H 1.2481404555 -1.6541965935 0.8085621694