18

C -0.0845581105 1.5754765973 0.0074003294
C 1.4508905026 1.2881606452 -0.0348617019
C 1.3299145893 0.1501366015 1.0225529584
C 1.8461794923 -1.0204805000 0.1597394859
C 0.7824790726 -2.1462626378 0.3108301759
C -0.5755764946 -1.3378644015 0.2972520666
C 0.0389868978 0.0396963621 0.1430938941
C 1.2460409635 -0.0222817932 -0.8525593236
H -0.4607871716 2.1228046513 0.8781656808
H -0.5408455164 1.9582238404 -0.9116506596
H 2.2581139276 2.0144506514 -0.1377520128
H 1.3290288987 0.2590307063 2.1096814537
H 2.8937634319 -1.3295248122 0.1412972213
H 0.8341074286 -2.8667536700 -0.5118220142
H 0.9126031052 -2.7054184404 1.2429999280
H -1.2220375229 -1.6253199759 -0.5373789172
H -1.1432239402 -1.4633428019 1.2241741586
H 1.1480225260 -0.1130612628 -1.9369296631