16

O 0.0810421971 1.2424832746 0.6645985751
C -0.0753989123 -0.1147618753 0.3958376749
C -1.5216465385 -0.4355233392 0.0406933345
N -2.3599953412 0.5159135657 0.0334282271
N -1.7454151689 -1.7837469002 -0.2413435111
C -2.9438339501 -2.3838477512 -0.5923429726
N -4.0322737612 -1.7161422454 -0.7014782647
C -2.8299996753 -3.8026474071 -0.8139787880
C -2.7571214389 -4.9879560081 -1.0037872673
H -0.8116760790 1.6167810130 0.5451830464
H 0.5703392674 -0.4304460818 -0.4423184828
H 0.2168394280 -0.7281845565 1.2661443489
H -3.2979016261 0.2032191072 -0.2152203048
H -0.9498627902 -2.4004019425 -0.1832910163
H -4.7995297804 -2.3291485394 -0.9655327317
H -2.7034836505 -6.0359772240 -1.1738819974