21

C -0.2103235862 1.6005696717 0.2353038360
C -0.1083474306 0.0767178758 0.1878200627
N -1.3829376728 -0.5729476442 -0.1480341264
C -1.8184627650 -0.3265726761 -1.5216449087
C -1.4007082648 -1.9697942134 0.1891331289
C -1.6892914214 -2.3360310994 1.6340105829
C -2.7368337356 -2.5716699197 0.5872495351
C -0.4801049364 -2.8292144923 -0.5407785627
N 0.2727454004 -3.4572571916 -1.1563372149
H 0.7288241150 2.0218533240 0.6064423219
H -0.3941793392 2.0360811710 -0.7507829417
H -1.0182991832 1.9131437468 0.9036433876
H 0.6902719846 -0.2236903733 -0.5135512725
H 0.1864770105 -0.2923630197 1.1754806098
H -1.0965761760 -0.6889299165 -2.2731815236
H -2.7739570381 -0.8289966380 -1.6941142269
H -1.9690832280 0.7437096460 -1.6775491488
H -1.1705315147 -3.1898691100 2.0527329997
H -1.8253975830 -1.4951268885 2.3033392805
H -3.5761235111 -1.8876304205 0.5518914370
H -2.9465187845 -3.5889929620 0.2797357640