18

C -0.0494562812 1.5736777667 0.0479255465
C -0.0050373399 0.0294303543 0.0111697414
C 0.8051641663 -0.4944064472 -1.1804843581
C 1.8118579809 -1.2878632842 -0.8157234832
C 1.8865678796 -1.3979291948 0.6701145713
N 2.1636153885 -0.0787334511 1.3147649934
C 0.7775695001 -0.5683798137 1.2032989092
C -1.3646390386 -0.5161496577 -0.0236202584
C -2.4820990494 -0.9599815108 -0.0489084075
H 0.9672288769 1.9602031279 0.1403568010
H -0.5064839160 1.9673727909 -0.8641843856
H -0.6433216361 1.9187139520 0.8991985419
H 0.5568700146 -0.1971749888 -2.1927277000
H 2.5181486896 -1.7609607048 -1.4871732490
H 2.2364542179 -2.3008769403 1.1582950897
H 2.4795491975 -0.2377819911 2.2704548209
H 0.2297089433 -0.8305887891 2.1010880870
H -3.4671950141 -1.3554743181 -0.0759552405