21

C -0.1653399651 1.5702864938 0.0217430178
C 0.0942963361 0.0610078357 0.0505315207
C 0.7834381428 -0.4284081792 -1.2455148771
C -0.0227481735 -0.2011490328 -2.4426650338
N -0.6742289416 -0.0214834868 -3.3802518934
C 0.9495115386 -0.3519149957 1.2582171776
N 0.2775407269 -0.0317145350 2.5098890021
C -0.5707878088 -1.0764449586 3.0771291425
C 0.7413087664 -0.7408336852 3.6956663499
H 0.7740585880 2.1235141269 -0.0990570362
H -0.8261354057 1.8427039759 -0.8058821777
H -0.6226810674 1.8894090596 0.9600117634
H -0.8679979390 -0.4609178185 0.1295762344
H 1.7455818728 0.0833565515 -1.3745776432
H 1.0027008920 -1.5007209825 -1.1807625120
H 1.1946492278 -1.4290575843 1.1888565809
H 1.9017772837 0.1952640010 1.2378763233
H -1.4990393063 -0.7411712895 3.5299450256
H -0.6389054033 -2.0239131332 2.5438583657
H 1.5452413514 -1.4657020319 3.5755471141
H 0.7900950744 -0.1546382513 4.6087005953