19

O 0.0519706185 1.2229424528 -0.6008579804
C 0.0605818335 0.0842481774 0.2434813576
C -1.3181497405 -0.5118895964 0.3721629468
O -1.8005271454 -1.1616280920 -0.8268801894
C -1.5663800106 -1.9523464066 0.3357350689
C -0.6210269609 -3.1591784845 0.3035372498
C -1.8480290919 -4.0635385433 0.5816326111
O -1.6053194499 -5.0184808732 1.5859670635
C -2.6850441296 -2.7962335222 0.9538239953
H -0.3280163148 0.9374254997 -1.4397377991
H 0.7600966405 -0.6833600988 -0.1198126484
H 0.4150425348 0.4273379334 1.2217746791
H -2.0607507533 0.1328944750 0.8454922454
H -0.0678974639 -3.3254334861 -0.6223049105
H 0.0659764107 -3.1798515525 1.1546310808
H -2.2214242012 -4.5324106036 -0.3383650634
H -2.4036852036 -5.5421958080 1.7073699316
H -2.7470116073 -2.6771130494 2.0397497357
H -3.6757079354 -2.6843152115 0.5077028356