16

C 0.0057831226 1.5097424851 -0.0300110320
O 1.4361676821 1.7558660147 -0.0444440833
C 1.9662633425 0.4352348952 0.0229718868
C 1.1101249259 -0.3488654292 -1.0104412383
O 1.4149323546 -1.7429852283 -1.0895108416
C 1.5508541488 -2.3125189406 0.1311307759
N 1.4279583704 -1.7082773678 1.2361100625
C 1.1101494531 -0.2930241179 1.1017619618
C -0.0078432707 -0.0137592260 0.0308798641
H -0.4487666259 1.9868519836 0.8459993578
H -0.4533067455 1.9208246192 -0.9371344328
H 3.0541389675 0.4457013032 0.0267059921
H 1.0373115834 0.0246158865 -2.0315024378
H 1.7785751648 -3.3720688019 0.0590154928
H 1.0187090707 0.1847443302 2.0776998760
H -0.9622479742 -0.5372883359 0.0464428259