19

C -0.1966608069 1.4016304203 -0.1884871121
C -0.3542487619 -0.1034879830 -0.3284105709
O -1.3980685234 -0.6786975377 -0.0773423389
N 0.7585525264 -0.7741673538 -0.7584351079
C 0.7312865669 -2.2060527883 -0.9915915447
C 0.2345539747 -2.5748150035 -2.3965526076
C 0.1600153712 -4.1026941014 -2.5815413791
C -0.2622296788 -4.4837168787 -3.9270400036
N -0.5914686883 -4.7675735866 -4.9976854782
H -0.8001783922 1.8937154361 -0.9570272444
H -0.5938408311 1.7050337561 0.7825139717
H 0.8368370385 1.7460725170 -0.2789851430
H 1.5784839670 -0.2531519466 -1.0197780902
H 1.7371141168 -2.6069252972 -0.8228627386
H 0.0628458534 -2.6394246057 -0.2419361238
H -0.7571587136 -2.1388351135 -2.5452177418
H 0.8981400886 -2.1462171183 -3.1554042221
H 1.1368464061 -4.5615292605 -2.3849182165
H -0.5416415533 -4.5366303650 -1.8595705582