18

O 0.1060637136 1.3867082837 0.1274503450
C -0.0037608319 -0.0215381838 0.1044047151
C -1.4423113023 -0.4283338453 -0.0184825652
C -2.4588842572 0.4268965098 -0.0360886996
C -3.8656920406 -0.0692824004 -0.1612119813
O -4.0758686515 -1.3876307237 0.3695145789
C -3.0668920348 -2.2950321804 0.4250743422
N -3.2340571858 -3.4412067296 0.9394017469
C -1.7266701598 -1.9023281846 -0.1555973653
H 1.0294570052 1.6146573203 0.2646546450
H 0.5620206771 -0.4576616585 -0.7388370187
H 0.4144152683 -0.4763478925 1.0199618886
H -2.2972348756 1.4962508935 0.0249516633
H -4.5594157226 0.5731830961 0.3902410127
H -4.1944037686 -0.0655356759 -1.2122892004
H -4.1976196709 -3.5381389955 1.2668836601
H -1.7159899225 -2.1814804110 -1.2204450997
H -0.9689342603 -2.5240352523 0.3273589825