22

C 0.5616070816 -0.4362580350 1.7360744019
C 0.1394850599 -0.0774304150 0.3064078228
C -1.2068260091 -0.6584686772 -0.1355968248
C -2.3838191742 -0.1500516718 0.7294732293
C -2.5441684591 1.3029045845 0.6832700894
N -2.6557580155 2.4523373986 0.6321646268
C -1.5335523107 -0.5424270562 -1.6594618341
C -1.9772204531 -2.0296801453 -1.6650486052
C -1.2889113557 -2.2137722618 -0.2858624485
H 1.5739672850 -0.0755976321 1.9400495367
H -0.0966215368 0.0143859322 2.4855969563
H 0.5582396286 -1.5204940333 1.8939490889
H 0.1151908639 1.0137028660 0.1910377771
H 0.9025603432 -0.4406340953 -0.3928736304
H -3.3207019973 -0.6064986550 0.3904601619
H -2.2500712367 -0.4532589383 1.7735974761
H -2.2711326118 0.2100131868 -1.9504929995
H -0.6273292257 -0.3769027302 -2.2483096412
H -3.0628942494 -2.1475125693 -1.6137466215
H -1.6106971737 -2.6511223047 -2.4844358347
H -0.2931885054 -2.6571095518 -0.3749597765
H -1.8390855281 -2.7620199857 0.4843821691