16

O 0.0379267707 1.4127556220 0.0157196687
C -0.0283524466 0.0419409902 0.0523254666
C 0.3015977717 -0.8338986883 1.3139449799
C -0.4396228317 -1.9284658055 0.4927408732
C -1.3579263855 -0.7897131334 -0.0381196035
C 0.5228878294 -2.1575665175 -0.6961452802
C 0.8019503488 -0.6797444909 -0.9903499481
O 1.4918669859 -0.1410218253 -1.8191620402
H 0.6389638746 1.6320477417 -0.7146299373
H 1.3508301165 -0.9944538127 1.5776270011
H -0.2663150141 -0.4968386938 2.1832817356
H -0.8568219012 -2.8084021398 0.9760498542
H -2.0837091919 -0.4484634829 0.7026018376
H -1.8326912192 -0.9096900141 -1.0160763586
H 1.4388272129 -2.6957537006 -0.4328507002
H 0.0633026697 -2.6591130991 -1.5535534389