18

O 0.0085311331 -0.0860308886 0.0977889940
C -0.0093999182 1.1292620302 0.0409336357
C -1.3205119041 1.9101398640 0.0360262880
C -1.1900049626 3.3913346773 0.4515545100
C -0.0136276982 4.0235304100 -0.3181396592
C 1.2860931591 3.3052508188 0.0351442252
N 1.1410771939 1.8605634170 -0.0841349860
C -2.4380141434 4.1169593686 0.2427636412
C -3.4662546239 4.7077506754 0.0459855401
H -1.7236546245 1.8557930727 -0.9823010522
H -2.0214692228 1.3725444440 0.6773245290
H -0.9472871287 3.4285761972 1.5237359617
H -0.2094555249 3.9491223456 -1.3936665756
H 0.0799657783 5.0849871517 -0.0739206097
H 2.0892785440 3.6348366414 -0.6329970886
H 1.5885654636 3.5796118872 1.0578811535
H 1.9778525473 1.2957088680 -0.0465067236
H -4.3765766280 5.2299382895 -0.1161760835