21

C -0.1575992167 1.4978379054 0.2781015242
C -0.0988202938 -0.0111174889 0.1968725402
C -1.3361937721 -0.6834066598 -0.3546520701
O 1.1510423610 -0.5417470856 -0.3055551689
C 0.8287789930 -0.7606976098 1.0570847302
C 1.6805740523 -0.2762125138 2.2369668891
C 1.2277332472 -1.5345860059 3.0204497313
O 0.2217386504 -1.1623374351 3.9437340278
C 0.6740490868 -2.1469904151 1.6955688261
H 0.7849293411 1.9090364046 0.6449567693
H -0.3538280550 1.9253881286 -0.7114051051
H -0.9634205796 1.8187263796 0.9473391745
H -1.5559014101 -0.3099577027 -1.3609598266
H -1.2024486459 -1.7653502642 -0.4165133230
H -2.2062215923 -0.4727162618 0.2770742672
H 2.7474701099 -0.2854485525 1.9981505438
H 1.4171777035 0.6739334392 2.7062115186
H 2.0248262265 -2.1073506846 3.5100639918
H -0.1714079186 -1.9679523406 4.2947765223
H -0.3305924367 -2.5753116522 1.7510256473
H 1.3550838192 -2.8762362347 1.2461967601