19

C -0.0134075012 1.6420098556 0.0301139918
C -0.1974350532 0.1202117425 -0.0386833693
C 0.5869178675 -0.5013129280 -1.1831054769
C 2.1138099047 -0.7995726050 -1.1420749712
C 1.8866925298 -1.9914351390 -0.1863569594
C 0.8254010186 -2.0444924633 -1.3244191914
O 1.9224161092 -1.7243212305 -2.2847653665
C -0.1169953666 -3.0746777014 -1.6395168034
C -0.9318184216 -3.9271319500 -1.8741169609
H 1.0326619944 1.9085566536 0.2153962070
H -0.3149534872 2.1201271949 -0.9079604041
H -0.6151856674 2.0753202834 0.8344622088
H 0.0792889531 -0.3245164478 0.9227394267
H -1.2594985494 -0.1130351786 -0.1869229736
H 0.2997740388 -0.0728672147 -2.1479546439
H 2.9574284238 -0.1131358436 -1.1987822724
H 2.6415199004 -2.7754191041 -0.2462581787
H 1.5474332352 -1.8058948835 0.8336180458
H -1.6464204287 -4.6832945506 -2.0884488985