23

C 0.0622576458 1.5783014466 -0.0115902376
C 0.0438640306 0.0514042334 -0.0042970293
O 0.7087165503 -0.4636093539 -1.1713879836
C 0.7488261987 -0.5453065427 1.2148206269
C 0.6860012819 -2.0797932271 1.2864629261
O 1.4605531393 -2.6874132686 0.2642474077
C 1.2027634799 -2.6116612600 2.6235446463
C 1.1115305661 -4.1350161383 2.7350315753
O 1.5478460942 -4.6146094031 4.0009805495
H 1.0921163555 1.9480983083 -0.0032053720
H -0.4342998991 1.9708605996 -0.9064367278
H -0.4611576832 1.9800072612 0.8618062624
H -1.0020331362 -0.2967684188 -0.0041774462
H 0.2111810102 -0.1971164380 -1.9506596336
H 1.8008117865 -0.2328380466 1.2107277551
H 0.2824453801 -0.1230004542 2.1125872432
H -0.3756619692 -2.3792128549 1.1852172502
H 1.2935098021 -2.1837650542 -0.5445778964
H 2.2505722081 -2.3009344703 2.7393508601
H 0.6347992720 -2.1625797330 3.4465512621
H 0.0662161046 -4.4525967720 2.6452704531
H 1.6662268274 -4.6009365739 1.9108768992
H 2.4926256243 -4.4431943996 4.0645205291