21

C -0.3968064884 1.4849105154 -0.1123702927
C -0.0084403376 0.0129247652 -0.0551274406
C 1.1901424988 -0.4082364788 -1.0332974320
C 2.1356697988 -0.1613543274 0.1862681050
C 2.9454783685 -0.8721716760 1.3494721112
C 1.9166749326 -0.0705585735 2.2992670961
C 0.9524996813 -0.4534646568 1.0925924954
C 1.0137021464 -1.9910166186 1.2160263620
C 2.3088959697 -2.2593955169 1.3811971863
H 0.4701415972 2.1443731630 -0.0035752054
H -0.8742418994 1.7215575749 -1.0694299249
H -1.1057881120 1.7331658127 0.6845340480
H -0.9072394889 -0.6058180826 -0.1568911133
H 1.1016570284 -1.4554648403 -1.3276031447
H 1.3520018084 0.2123966881 -1.9190650684
H 2.3869791327 0.9039937975 0.2017802715
H 4.0252404744 -0.7767251268 1.4759387448
H 1.7213309322 -0.5130721473 3.2801279779
H 2.1383481902 0.9976520400 2.3842788949
H 0.1558766807 -2.6499614279 1.1892490011
H 2.8200715659 -3.1990925138 1.5349540077