19

C -0.1326460976 1.5026739756 0.0003898321
C 0.0494002724 0.0048289774 -0.0028923617
O -0.7435760677 -0.7185006252 0.9525116175
C 0.6794302939 -0.7026249014 1.1266240172
C 1.3921919604 -2.0281669271 0.9280601737
O 1.5495123503 -2.4032402777 -0.4298340467
C 0.3863635629 -2.1697801677 -1.2028205434
C 0.1487365409 -0.6631250846 -1.3634321406
O -1.0543716542 -0.3903111646 -2.0683404592
H 0.7165957905 1.9972397834 -0.4834266048
H -1.0383987574 1.7686263867 -0.5504694976
H -0.2190590584 1.8746560741 1.0240528073
H 1.0135437822 -0.1159987906 1.9837215102
H 2.4029553628 -1.9700118855 1.3444662962
H 0.8394101233 -2.8046460756 1.4819494201
H 0.5647329928 -2.6319589303 -2.1793804977
H -0.5056592247 -2.6258155258 -0.7517940305
H 1.0178652342 -0.2263829287 -1.8819526819
H -0.9456620965 -0.6904882624 -2.9761133900