18

O -0.0793046473 1.4023121339 -0.2733488288
C 0.0478649509 -0.0040830208 -0.1278299473
C -1.3506946764 -0.5534820602 0.0785360837
C -2.3294198292 -0.5675337504 -1.1259632404
N -2.6305728422 -2.0283703273 -0.9311298597
C -1.8396830000 -2.9063983681 -1.8467465474
C -0.6941785468 -2.9521530716 -0.8151859530
O 0.3891141493 -3.4532991858 -0.7608104640
C -1.5483382476 -2.0909122872 0.1351384102
H 0.7948404902 1.7701496693 -0.4326694718
H 0.5074567050 -0.4578126656 -1.0196888092
H 0.6820095802 -0.2690891448 0.7333640167
H -1.7894439638 -0.0682418816 0.9538432449
H -3.2190764376 0.0572268729 -1.0214465247
H -1.8584072955 -0.3397861817 -2.0898824827
H -2.3154917472 -3.8817789973 -2.0020123357
H -1.5958672848 -2.4785846758 -2.8256747746
H -1.7845266972 -2.5443331678 1.1020989638