18

C 0.7769539254 1.0789866701 0.6887465454
C 0.3400899694 -0.2723483294 0.3667825415
C -0.0180869814 -1.3928409888 0.1065932550
C -0.4668601274 -2.7450833950 -0.2074366348
C -1.8311702579 -2.7447208386 -0.9437575150
C 0.5329840565 -3.5669486808 -1.0555238783
C 1.4427303120 -2.8203461566 -2.0070316886
O 0.5351933578 -4.7712050761 -0.9638038245
H 1.2025185244 1.1298220971 1.6969842597
H 1.5440425728 1.4270626121 -0.0119400912
H -0.0567917513 1.7883720233 0.6447229642
H -0.5895645827 -3.3183156492 0.7188173221
H -2.5846988390 -2.2394384546 -0.3351050282
H -1.7604179545 -2.2179999745 -1.8999785534
H -2.1514543495 -3.7731414158 -1.1280786061
H 2.1763546032 -2.2445427986 -1.4332940072
H 1.9545556903 -3.5298958778 -2.6577560641
H 0.8775707919 -2.0940819367 -2.6003455765