17

N 0.1865086823 1.4160261616 -0.1009305476
C -0.0024087547 0.0200658821 -0.0287689409
C -1.1093759181 -0.7931135348 -0.0560032563
C -2.6083289275 -0.8234287089 0.0149087276
C -2.8589590620 -2.3400139667 -0.2649014874
O -1.6353142071 -3.0605505757 0.0159937479
C -0.6407342729 -2.1284097571 -0.0324099579
C 0.7235001594 -2.1501027027 0.0082319040
N 1.1012707601 -0.8013643668 0.0253579332
H 0.4516828972 1.8157360587 0.7949994729
H -0.6637894833 1.8753481028 -0.4024596778
H -2.9903486009 -0.5322989317 1.0023292143
H -3.1243289137 -0.2060919252 -0.7276583637
H -3.6477787273 -2.7743624906 0.3534511790
H -3.1137776021 -2.4938967231 -1.3212802795
H 1.4493760605 -2.9417428633 0.0640656311
H 2.0268358102 -0.4691131187 -0.1844799690