21

C -0.1677449982 1.5384785906 -0.1021457521
C 0.0178812508 0.0376933708 0.0323207757
O 0.7346643719 -0.4490316852 -1.1175231343
C 1.3287471262 -1.6708566019 -0.7588426354
C 2.6107674087 -1.6180432327 0.0476083910
C 3.1249464770 -0.2353290024 0.4459770355
C 2.1322813184 0.2522178826 1.5298104318
C 0.8121138349 -0.5000947651 1.2479718280
C 1.2719661864 -1.8776349790 0.7233032136
H 0.7914040583 2.0565128526 -0.1802972111
H -0.7465863468 1.7655219347 -1.0018785080
H -0.7111848125 1.9342170223 0.7619110249
H -0.9751403207 -0.4426577891 0.0481096729
H 1.1691778006 -2.4689557611 -1.4767545426
H 3.3166524792 -2.4296694512 -0.0942058817
H 4.1475939012 -0.2895991125 0.8289280157
H 3.1314640003 0.4383893978 -0.4171704073
H 2.4949540161 -0.0529434905 2.5175755175
H 2.0179750914 1.3397553750 1.5530199313
H 0.1731115518 -0.5640532009 2.1321245307
H 0.9950147550 -2.8080570148 1.2021357537