20

C 0.0459297238 1.3525809986 0.1615835761
O -0.0214721335 -0.0636856458 0.1005702262
C -1.3053276165 -0.5692490867 0.0215452453
C -1.2049315996 -2.0707994417 -0.2561152231
N -2.4161978436 -2.8391547036 0.0770459072
C -2.6395615070 -3.1484482135 1.4917707203
C -3.4994472123 -2.1570429238 0.7995293244
C -3.3477133838 -0.6855169840 1.1350082419
O -1.9834501997 -0.3288689994 1.2496067084
H 1.1050288506 1.6174849138 0.1653213243
H -0.4352337119 1.8099668852 -0.7156545286
H -0.4308329104 1.7373090844 1.0691804139
H -1.8778721035 -0.0582605607 -0.7801168322
H -0.9859362823 -2.2186606344 -1.3191752148
H -0.3534219336 -2.4578942513 0.3121994458
H -3.0048113435 -4.1513366828 1.6980088305
H -1.9254110413 -2.7562868011 2.2126980957
H -4.5001658054 -2.4458445248 0.4806963875
H -3.8369211793 -0.0736416074 0.3576989859
H -3.8216798771 -0.4498494612 2.0933846454