18

C 0.0221249796 1.4008495185 -0.0828196821
N 0.0203400187 -0.0380976335 0.0005750573
N 0.0794658569 -0.8006427426 -1.1383171587
C 0.1158857947 -2.0505904228 -0.6959237919
N 0.2587616497 -3.1240659141 -1.5807205601
C 0.0761765926 -2.1400416131 0.7211223120
C 0.1278596781 -3.3614481016 1.5829136548
C 0.0154528004 -0.8125451001 1.1048502853
O -0.0278231841 -0.2220450676 2.3232019467
H 0.9941153354 1.7751245680 -0.4227817128
H -0.7453979772 1.7301734369 -0.7883346989
H -0.1927708610 1.8090223703 0.9054521715
H 0.1378735385 -2.8170566947 -2.5385081720
H -0.3748337488 -3.8881796583 -1.3822583642
H 0.8395022179 -4.0912165941 1.1809156988
H 0.4625764745 -3.1266242025 2.6014302107
H -0.8410562849 -3.8708175684 1.6768011801
H -0.0928835709 -0.9115174302 2.9916826237