15

O -0.6848289499 0.7605173181 0.5683573285
C 0.1111444192 1.0406044365 -0.2822294708
C 1.4214694991 1.7808372165 0.0028478275
O 2.4566187615 0.9610806720 -0.4106073006
C 3.7098155300 1.6299527868 -0.2889584914
C 3.7283046001 2.8022560970 -1.2662297632
C 2.4457400259 3.6201982144 -1.2431719911
O 2.3540908775 4.7244841944 -1.6936997791
O 1.3336680346 3.0125982387 -0.7337789212
H -0.0254623469 0.7923115979 -1.3552185291
H 1.4917734286 2.0307935753 1.0716365098
H 3.8497179089 1.9705126470 0.7476252299
H 4.4844083108 0.8956005796 -0.5168921818
H 4.5651798353 3.4814354811 -1.0881058662
H 3.8295536753 2.4254835247 -2.2906091012