20

C 0.0500306421 1.6422321612 0.1720189827
C 0.0744035993 0.1411209087 0.0709467354
O -1.2325037834 -0.4541660003 0.2735766473
C -0.7240250842 -1.3628764974 1.2846321713
C 0.7144684947 -0.8863189195 1.0448899147
N 1.3576163105 -1.5988446092 -0.0908765533
C 0.8888105898 -0.5527130752 -1.0631825641
C 0.1525236372 -1.1715236661 -2.2460171138
O 0.9483987965 -2.1872791111 -2.8338278805
H 1.0597064587 2.0578294626 0.0963654448
H -0.5538635208 2.0641747222 -0.6395129668
H -0.3920451070 1.9606943292 1.1204898822
H -1.1383444026 -1.1214138740 2.2717625035
H -0.9147452946 -2.4131346554 1.0417509887
H 1.3488913391 -0.6484012124 1.8996151967
H 2.3668881164 -1.6254710631 -0.0074863617
H 1.7093447150 0.0834371574 -1.4179207568
H -0.8162916690 -1.5594444367 -1.9045784397
H -0.0355702635 -0.4221686895 -3.0221652097
H 1.1531417059 -2.7902296214 -2.1068750611