23

C -0.1627853888 1.3390909331 -0.2516073410
O -0.0320262429 -0.0506407580 -0.0841115088
C -1.2737294005 -0.7179602168 -0.0048771155
C -1.0311207366 -2.2264517652 0.1766711816
C -0.2957456977 -2.4736877223 1.5041662269
C -2.3866120556 -2.9954824264 0.0940931422
C -2.4617939858 -3.6187448568 -1.3249752781
C -1.0377006345 -3.5229059064 -1.8168263266
C -0.2749544585 -2.7813883023 -1.0180436816
H 0.8441014494 1.7617662859 -0.2972014698
H -0.6962736656 1.5910205226 -1.1821736843
H -0.7050950231 1.8032625125 0.5878927389
H -1.8623865433 -0.3273424003 0.8448690493
H -1.8604776147 -0.5399932767 -0.9221819080
H -0.9137427952 -2.1629737665 2.3549184144
H -0.0630763835 -3.5362051575 1.6255252368
H 0.6380058611 -1.9068503157 1.5428106379
H -2.3917659615 -3.7885304280 0.8478246361
H -3.2412522000 -2.3473797065 0.3134570658
H -2.8358055873 -4.6491338306 -1.3062252301
H -3.1419760094 -3.0639898512 -1.9861863301
H -0.7072332884 -3.9893436250 -2.7391158530
H 0.7690490125 -2.5422925019 -1.1838467231