19

C 0.2859393298 1.4442996900 0.1888845673
C -0.1572657190 0.0054274650 0.0692973343
O -0.6295711091 -0.6175463972 0.9937941638
C -0.0145762430 -0.6720192203 -1.3097434602
C -1.4273162607 -0.7507307576 -1.9261930444
O 0.8468232576 0.1277875929 -2.1027274308
C 0.5862066213 -2.0780821210 -1.1005808276
C 0.9288770782 -2.8146375039 -2.3696816470
O 0.9491821615 -2.3264715315 -3.4775246584
H 1.3610215837 1.5142437260 -0.0033737662
H -0.1942828926 2.0592759973 -0.5782488341
H 0.0498381703 1.8157933470 1.1863866938
H -1.8212565155 0.2577781219 -2.0806905866
H -1.3905360774 -1.2533267702 -2.8960121695
H -2.1066943354 -1.2948335139 -1.2647867043
H 0.9478337246 -0.3431983996 -2.9421184440
H 1.5263551668 -2.0061944520 -0.5323111594
H -0.0731901901 -2.6973645486 -0.4831126543
H 1.2030155989 -3.8828092742 -2.2283333122