14

N 0.0856676224 1.4081408033 0.1531843476
C -0.0236667578 0.0262175061 0.0313095795
C -1.0832492245 -0.8024903676 -0.0060861637
N -0.5886591160 -2.1328285091 -0.0199378308
C -1.3974707111 -3.2629353412 -0.0415995231
O -1.0223246875 -4.4026591438 -0.0694609183
C 0.8339990141 -2.1139028326 0.0051969300
O 1.6062527591 -3.0359373604 0.0291593365
N 1.1317659096 -0.7536148547 0.0043369512
H 0.6646275753 1.8266312596 -0.5676076257
H -0.8182165761 1.8625141546 0.1637070744
H -2.1378324143 -0.5948539072 -0.0482807526
H -2.4662442103 -2.9677611404 -0.0325243800
H 2.0603737372 -0.4257441664 0.2108537250