18

O -0.0065375454 0.6044991325 -1.3137602562
C -0.0092945864 1.3142556684 -0.3278404660
C -1.2837927991 1.8209465127 0.2559080366
C -1.6292079818 1.6548383535 1.7344938430
C -1.2284486294 2.9991490279 1.2156250600
C 0.1167673075 3.6618684102 1.4957855491
N 1.3537851492 2.9542387153 1.1498041092
C 1.6423966445 1.6460398294 1.6939854878
C 1.2906454765 1.8030105993 0.2397155450
H -2.1109597680 1.7379088425 -0.4398676805
H -2.6803732449 1.4941209896 1.9484180447
H -0.9699358576 1.0863969181 2.3754023063
H -2.0352212543 3.7208978535 1.1179652671
H 0.1390903337 4.5982164922 0.9257538008
H 0.1878043300 3.9389930876 2.5541554344
H 2.6848263626 1.4718094534 1.9499041260
H 0.9383902765 1.1558555534 2.3566420404
H 2.0960004664 1.7357068505 -0.4871779676