20

C -0.0520668228 1.5389414324 -0.0140395739
C 0.0133425373 0.0293224415 0.0111713484
C -1.3134141957 -0.6817125970 0.3776684761
N -1.1083088169 -2.1496771364 0.2627814028
C -0.6483933830 -1.4320584186 1.4805989973
C 0.7132018792 -0.7730079863 1.1649850469
C 1.6333994213 -1.4864152207 0.1394899463
C 0.9360822286 -0.7084060533 -1.0327906194
O 0.3315090599 -1.4442791583 -2.0558325542
H 0.9516529152 1.9767684472 -0.0395984898
H -0.5920629045 1.8911030378 -0.9016666086
H -0.5667102966 1.9367268769 0.8687933580
H -2.3129846438 -0.2681722845 0.3025648974
H -1.9928548008 -2.5996499528 0.4922571118
H -1.0259206069 -1.7386055180 2.4489252080
H 1.1692928283 -0.2491497423 2.0053262359
H 2.6924577947 -1.2444049860 0.2596342320
H 1.5199015232 -2.5704547497 0.0801135347
H 1.6160173080 -0.0014782165 -1.5195232597
H -0.2446740245 -2.0748417455 -1.5964810999