19

C 0.0174366156 1.5672222274 0.0581443384
C 0.0108904876 0.0687469218 0.0133941679
C 0.5772794577 -0.8778347225 -1.0890088866
C 1.4944767368 -1.5609696324 -0.0451659672
C 0.6485519313 -0.9074016025 1.0813506695
O 1.2987057262 -0.3903481298 2.2044441418
C -0.7349322998 -1.5903964557 1.2589575103
C -1.2087897166 -0.9014014294 -0.0441571849
O -0.6885479057 -1.5603878198 -1.2190747087
H 1.0416427768 1.9551878092 0.0690335637
H -0.4975283312 1.9916463592 -0.8107587451
H -0.4806538680 1.9352161442 0.9615365295
H 0.9887750320 -0.5832060051 -2.0567148391
H 1.5783925853 -2.6506442960 -0.0876338629
H 2.4893242232 -1.1033261304 -0.0581685549
H 1.6274109483 -1.1264181868 2.7330718440
H -0.7918163197 -2.6819144601 1.2988345872
H -1.2423653362 -1.1524947874 2.1250071861
H -2.2595506436 -0.6260084339 -0.1565693289