20

C 0.0025276555 1.3847249571 -0.2849776444
C 1.4144588408 1.9291622088 -0.0210470943
C 2.1948902187 0.6244032918 0.1753918984
C 3.4740236283 0.6027158252 1.0088637794
C 3.8051340439 -0.8687993344 1.2998904560
C 2.6490179839 -1.5704678291 2.0405566477
N 1.2906229797 -1.2170575936 1.6351203692
C 1.1453411920 -0.2559735597 0.8344048953
O -0.1008941875 0.1791445026 0.4897353571
H -0.7991873931 2.0550670940 0.0334899037
H -0.1446047886 1.1445505045 -1.3462578453
H 1.7857423251 2.5521351980 -0.8378529148
H 1.4272172243 2.5239754541 0.8990717632
H 2.4100011078 0.1959751463 -0.8149421048
H 4.2979349136 1.0986207555 0.4854293801
H 3.3122283891 1.1482884178 1.9477843284
H 3.9984025185 -1.3796525803 0.3478073507
H 4.7210908449 -0.9554389638 1.8938168563
H 2.7589972007 -2.6576981914 1.9489125109
H 2.7203459024 -1.3596819634 3.1173201272