20

C 2.8878991826 -0.5246579361 0.1321490627
N 1.6460568120 -1.2430258219 0.3843138637
C 1.6023365978 -2.1881655956 1.4869079509
C 0.8294811277 -0.9095486382 1.5453288102
C 1.2159241405 0.2005144635 2.5134650008
O 1.0043903678 1.4563802310 1.9262309922
C 0.4078314693 0.0962750295 3.8149416234
C 0.5069336027 -1.1666736887 4.6352215217
O -0.2878710078 1.0347384500 4.1415770446
H 3.5256615815 -0.3880057767 1.0195568949
H 3.4657130542 -1.0838144105 -0.6101385104
H 2.6528060178 0.4618672439 -0.2751614415
H 1.1024783645 -3.1348896831 1.2979469457
H 2.4824641594 -2.2626091860 2.1273978317
H -0.2392297410 -0.9281255291 1.3320856977
H 2.2761455750 0.0843321740 2.7940054906
H 0.3857067921 1.9125858965 2.5213572106
H -0.0161513671 -1.9804791143 4.1210690295
H 1.5486621822 -1.4809073252 4.7506336869
H 0.0498805288 -1.0073929232 5.6125884441