19

C -0.1935760193 1.5760121621 0.1086326413
C 0.0583757633 0.0804932917 -0.0084678662
C 0.7720304453 -0.5250586365 -1.2508506919
C 2.1039858500 0.1677796440 -1.6315911173
C 2.8304279768 -0.5568314424 -0.4597955518
C 1.5659816154 -1.4873865795 -0.2970749509
C 1.0921857063 -0.6207077220 0.9327560207
C 2.4655003800 0.0583094161 0.8957163841
O 3.0836031034 0.7032231058 1.6957523966
H 0.7316390728 2.1548277764 0.0269254422
H -0.8764602134 1.9188725753 -0.6767576660
H -0.6462933585 1.8211727820 1.0753340039
H -0.8869417284 -0.4609975687 0.1123288818
H 0.1323907557 -0.8507836222 -2.0718224598
H 2.4733589277 -0.2163697734 -2.5862671150
H 2.1426423402 1.2608741539 -1.6596936900
H 3.8608136659 -0.8816782025 -0.6055146637
H 1.5821818279 -2.5726702540 -0.3236298603
H 0.7423857387 -0.9908270260 1.8971474023