12

O -0.0807714037 1.4612029245 0.0105767785
C 0.0427988069 0.0493851302 0.0021284494
C -1.3744191693 -0.5148383717 0.0123271400
C -1.4023003764 -2.0261617893 0.0043449598
F -0.7760118080 -2.5425315777 1.0768818926
F -2.6601147410 -2.4904672029 0.0138384888
F -0.7966897655 -2.5307322493 -1.0855336022
H 0.8031123251 1.8399930681 0.0056268865
H 0.5735727560 -0.3072713197 -0.8925216654
H 0.5900163307 -0.3164808128 0.8830358423
H -1.9065867665 -0.1706566134 0.9033211243
H -1.9231061183 -0.1610411160 -0.8647769745