17

O 0.2847588219 1.3172931631 -0.0834886678
C 0.2419287801 -0.0611041986 0.1593801361
C 0.1646440747 -0.5748010221 1.6504699177
C -1.1914726943 -1.1891875758 1.3042663728
O -2.0183147027 -0.1099539123 0.8274587270
C -1.1181495818 -0.7507885625 -0.1006798433
C -1.6854981441 -1.2715414222 -1.3839559855
C -2.0156907086 -0.1533704817 -2.3676475750
O -2.9305186616 -0.1997738899 -3.1462527411
H -0.5060017631 1.6852682566 0.3328117199
H 1.0710423348 -0.5120320510 -0.3916971269
H 0.9403526268 -1.3081559121 1.8832606984
H 0.1440707381 0.1998769499 2.4206010399
H -1.7019174403 -2.0398365885 1.7402254084
H -0.9370601223 -1.9139082834 -1.8709848144
H -2.5835076653 -1.8727836963 -1.2181348754
H -1.3281391723 0.7196399568 -2.3259058408