23

C -0.1641376091 1.5457971552 -0.2823298329
C -0.0365373219 0.0590391897 0.0020220779
O -1.3320773261 -0.5025918829 0.0530501202
C -1.3272588858 -1.8889946771 0.3137820914
C -2.7581771411 -2.3602371480 0.3464685196
O -3.3360113154 -2.8460962308 -0.8706737555
C -3.1856427812 -3.7659183495 0.2247116641
C -2.1969622049 -4.8926531783 0.0037011397
C -4.4901054676 -4.1870276081 0.8703470613
H 0.8248345686 2.0114114732 -0.3293225978
H -0.6724134256 1.7102256605 -1.2364935183
H -0.7435936398 2.0387066304 0.5034913196
H 0.5613266464 -0.4351719883 -0.7827364557
H 0.4888038622 -0.1101786928 0.9581773853
H -0.7627201896 -2.4285505670 -0.4604018642
H -0.8445102641 -2.0947604533 1.2866669868
H -3.4069719128 -1.6843395033 0.9071755613
H -1.3041673885 -4.5550030486 -0.5242996425
H -1.8929383860 -5.3338904049 0.9592338924
H -2.6620945970 -5.6846900145 -0.5934244151
H -4.9874260587 -4.9500625508 0.2613684016
H -4.3153074242 -4.6140673416 1.8639385695
H -5.1665250478 -3.3349409291 0.9698720112