18

O -0.2346776164 1.3136668195 0.0464395620
N -0.0025920176 -0.0943815099 0.0328635254
C -1.1095208302 -0.7107218155 -0.0135624967
C -1.3090731213 -2.1962911992 0.0161550869
C -2.4961274787 -2.3330796190 -0.9973873092
C -3.2646839587 -1.5164451109 0.0821691005
C -2.4121648084 -2.2885067338 1.1307114487
C -2.5413196690 -0.1592653033 0.0056205720
O -2.8052095327 0.6477103069 1.1333971811
H 0.6577977468 1.6651685968 0.1268063963
H -0.4268437078 -2.8323499208 -0.0032846550
H -2.3741068401 -1.9006421476 -1.9947838775
H -2.8531489738 -3.3621886495 -1.0712251398
H -4.3521790885 -1.4842812406 0.1244596704
H -2.7533684468 -3.3155394300 1.2764021259
H -2.2190351243 -1.8004393967 2.0870757823
H -2.7754042146 0.3726877859 -0.9288115678
H -2.1195147778 1.3275188975 1.1388523545