16

O -0.1354101002 0.0121429348 0.2893615813
C 0.0248849638 1.1119266619 -0.1765156465
C 1.3283093621 1.8543665967 -0.1408861321
C 1.4083553141 3.0424281808 0.8985865261
C 2.0195991115 3.8466588284 -0.2314923334
C 2.9868764870 3.0707130698 -1.0898913662
C 3.5831029433 1.8104597334 -0.5655579222
C 2.6062713410 1.0624622676 -0.0532529688
N 1.5294089728 2.8761144623 -1.2753114479
H -0.8072917518 1.6788390485 -0.6491990916
H 0.4118327940 3.4255427082 1.1329539461
H 1.9670090850 2.8654496120 1.8209709999
H 1.9097186271 4.9199556934 -0.3550979141
H 3.4757166602 3.6271733359 -1.8837164451
H 4.6410104261 1.5862184659 -0.5936788189
H 2.6735788940 0.1117627103 0.4565415435