11

O -0.1093614777 1.2916066918 0.0101797202
C 0.0370596729 -0.0269374341 0.0021613164
N 1.1813212974 -0.5979481202 -0.0072016193
C 1.2613365267 -1.9996703213 -0.0151150051
O 2.3068276537 -2.6028060780 -0.0241421249
C -0.0559664632 -2.6724081802 -0.0113655523
F -0.0765346878 -3.9945903345 -0.0182978559
C -1.1927240358 -1.9706125243 -0.0012856348
O -1.1761728738 -0.6011824583 0.0059057806
H 0.7841772802 1.6640136544 0.0072643897
H -2.1934876626 -2.3770133354 0.0021355355