23

C -0.5592018345 1.2993334220 0.1078676203
C 0.1150630967 -0.0366724429 -0.1406505735
C 1.0645621834 -0.1467951743 -1.3534024335
C 2.1758913173 -0.3644035385 -0.2980274113
O 1.2083188820 -0.2825757197 0.7807468893
C 2.9564534442 -1.6569640132 -0.2953713986
C 2.1396639699 -2.9339664162 -0.2664693950
C 4.2632745517 -1.6441217100 -1.0573856416
C 4.2718515797 -1.6424197327 0.4506236239
H 0.1587477265 2.1212968847 0.0208692549
H -1.3652705442 1.4633365014 -0.6162879148
H -0.9914731075 1.3274638489 1.1130097788
H -0.6234881310 -0.8472191240 -0.0761758633
H 0.8800457529 -0.9901639247 -2.0202053210
H 1.1628815461 0.7637250659 -1.9478710842
H 2.8837882768 0.4746084464 -0.2392863116
H 1.5257632467 -3.0487552612 -1.1672642857
H 2.7911270564 -3.8105797534 -0.2030089072
H 1.4739109661 -2.9398696404 0.6016457422
H 4.5544361446 -2.5529533630 -1.5731550059
H 4.5532371335 -0.7329375746 -1.5711750860
H 4.5627787861 -0.7294582572 0.9595418131
H 4.5723898263 -2.5501964631 0.9625412808