18

N 0.6932307455 0.4581710592 -0.6611513476
C 0.0980904032 -0.0736362575 0.4443769937
O 0.5516383012 0.0275611540 1.5687579167
C -1.2137945253 -0.8169570821 0.1720332352
C -0.9900046652 -2.3165707544 -0.0910911742
C -2.2500103188 -3.1596976096 0.2312321796
O -2.0300771458 -4.5515586643 0.0994510115
C -0.5458014381 -2.6152530077 -1.5103871363
O -0.2813022970 -1.7822170390 -2.3466904596
H 1.6248745794 0.8250576781 -0.5426622850
H 0.4281384593 0.1041371108 -1.5691201783
H -1.8207685783 -0.6965732353 1.0725760022
H -1.7497662359 -0.3730751668 -0.6719995604
H -0.1924815810 -2.6878349478 0.5725365166
H -2.6003375809 -2.8942202707 1.2382406774
H -3.0554944006 -2.9123698481 -0.4690500835
H -1.4742101554 -4.8384445793 0.8312998290
H -0.5000626264 -3.6947461096 -1.7541708068