20

C 0.1424021156 1.5729995152 0.0458967928
C 0.1169525818 0.0433457388 0.0449215481
C 0.5797330179 -0.5505566969 -1.2999957376
C 0.5726958383 -2.0395095892 -1.3189663809
N -0.1899440606 -2.8376308237 -1.9980156729
C 0.2061456576 -4.1240711036 -1.6281744854
C -0.4374870202 -5.3411974266 -2.2004297391
C 1.2080670914 -4.0150575172 -0.7244258386
O 1.4573802708 -2.6840916607 -0.5133735606
H 1.1527382750 1.9532650093 -0.1418283747
H -0.5143314709 1.9814624005 -0.7300938067
H -0.1905110445 1.9727981965 1.0084319371
H 0.7594611694 -0.3429066427 0.8441371241
H -0.8966608047 -0.3146526628 0.2603321467
H -0.0742297791 -0.2148579445 -2.1093729122
H 1.5919355964 -0.1902071614 -1.5240759547
H -0.3214944551 -5.3693012682 -3.2891017972
H 0.0013980911 -6.2517586836 -1.7843219762
H -1.5123313385 -5.3495534137 -1.9907422057
H 1.8144890581 -4.7125079455 -0.1726372961