19

C -0.0095176123 1.5218051412 0.0232167114
C 0.0056412850 -0.0163391796 -0.0007002147
C 0.8203844009 -0.5934674727 -1.2067162110
C 1.3823313668 -1.9519459460 -0.7334290471
C 1.5439056493 -1.7782118442 0.7652728544
N 2.1777425002 -0.4892418004 1.1306137166
C 0.7134320820 -0.6378776179 1.2131431811
C -1.3708493131 -0.5325130728 -0.0333941177
N -2.4527421920 -0.9400894790 -0.0539408296
H 1.0167776794 1.8793119675 0.1375485781
H -0.4250733392 1.9243515644 -0.9047056696
H -0.6099498691 1.8998033434 0.8554740227
H 0.2095902106 -0.6731025260 -2.1077642540
H 1.6395534364 0.0979733685 -1.4108094560
H 0.6683600103 -2.7614344137 -0.9222083858
H 2.3185392918 -2.2054038237 -1.2394313688
H 1.7098386022 -2.6409982685 1.4016769915
H 2.5719949293 -0.5560836138 2.0652185272
H 0.2201445714 -0.6117251666 2.1789107013