16

O -0.0147738901 1.3915685356 0.0042354853
C -0.0786076927 0.0020085596 0.0648640371
C -0.4456300470 -0.7897330521 1.2984282635
C -1.5549191980 -0.1106162241 2.0630860260
N -2.8252478828 -0.8249513648 2.0316494143
C -2.4357372307 -0.0948309983 0.8185356773
C -3.2567858151 0.9562384507 0.3083958934
C -3.8907143085 1.8601461255 -0.1712577249
C -1.3456319115 -0.7988105212 0.0254643851
H -0.9098863496 1.7490989313 -0.0014514324
H 0.7438327518 -0.4354786969 -0.4982119130
H 0.1760482838 -1.5934461691 1.6778396748
H -1.4463960340 0.6817724949 2.7933475803
H -2.6989301280 -1.8282165917 1.9101487618
H -4.4720384288 2.6482136833 -0.5824882559
H -1.5222818886 -1.6008705725 -0.6830713127