13

N 0.2329363602 0.9592444497 -0.1310045155
C -0.0059350672 -0.2600882464 -0.3702332087
N -1.2721335071 -0.8130160661 -0.0624042294
C -2.3728571901 0.0916407961 0.1042696767
O -3.4433393864 -0.2210999809 0.5318180433
C -1.4679806742 -2.2015756220 0.0350887508
O -2.5294966343 -2.7534642823 -0.1020860773
C -0.2661626717 -3.0795937591 0.4302964094
O 0.8226417180 -2.6886865816 0.7511909573
H 1.1580376583 1.2147509972 -0.4711993659
H 0.6725952438 -0.9659853774 -0.8440567795
H -2.0768441395 1.1039274620 -0.2010040811
H -0.5619096200 -4.1466554693 0.4208506999