21

C 0.0649195820 1.5953236398 0.0086206932
C 0.0897672435 0.0648563348 -0.0247531183
C 0.7770210543 -0.5073566231 -1.2736864222
C 2.2758892651 -0.8154053223 -1.0633882136
C 1.6933713557 -2.1273549139 -0.4937675552
C 1.2592023273 -1.9939952975 0.9674213810
C 0.7235433863 -0.5642192986 1.2481682482
O 1.7818687119 0.2988942874 1.6765730062
O 0.4998660204 -1.9385944817 -1.3069262823
H 1.0738069106 2.0133614189 0.0109247848
H -0.4703241740 1.9832294449 -0.8645950177
H -0.4431103926 1.9622792826 0.9056774383
H -0.9429386181 -0.3017731111 -0.0768716482
H 0.4595333715 -0.0049531338 -2.1924873957
H 2.7867747239 -0.9848686703 -2.0124545635
H 2.8572315982 -0.1703818450 -0.4072287569
H 2.1951284781 -3.0750988586 -0.7087063989
H 0.4782252652 -2.7396199241 1.1537102177
H 2.0877188282 -2.2091224325 1.6546065205
H -0.0402184086 -0.6059001895 2.0386254995
H 2.1585819510 -0.0766089866 2.4781887730