19

C -0.0089254305 1.5845191598 -0.0441250388
C 0.0241501170 0.0514102866 0.0325777920
C 0.6724206477 -0.5311458845 -1.2293705713
N 0.7992040669 -1.9720748569 -1.1199962972
C 1.3919902670 -2.5346862081 0.0020501525
O 1.8535639847 -3.6652614153 -0.0209645481
C 1.3812049502 -1.6868091115 1.1969377182
C 0.7349628620 -0.5006410370 1.2587449435
N 0.5734818675 0.2004833511 2.4334039242
H 0.9998485036 2.0109328358 -0.0127305908
H -0.4739361853 1.9026333733 -0.9821573974
H -0.5993758000 2.0246900819 0.7650590815
H -1.0124528111 -0.3130235878 0.0801835589
H 0.0517043649 -0.2949635726 -2.0993359930
H 1.6501448019 -0.0410249697 -1.3810348410
H 0.9916829818 -2.4911542783 -1.9648375047
H 1.8608813366 -2.1144302311 2.0707803580
H 1.1296962476 -0.1096863466 3.2162973220
H 0.4937274675 1.2026062108 2.3709257017