19

C 0.4178915010 1.2791187494 -0.0929618889
C -0.0193506850 -0.1921801744 -0.0567122714
C 0.8489458605 -1.1217990411 -0.9810295909
C 1.6982330087 -1.5518375555 0.2406225909
O 2.8607236741 -0.7607995307 0.4493887701
C 0.5937774841 -0.9888955984 1.1750340992
O 1.0060519038 -0.2960831986 2.3089412391
C -1.4568042606 -0.3198638654 -0.2132680939
C -2.6479280386 -0.4440327023 -0.3320569683
H 1.5055346660 1.3583153999 -0.0295520338
H 0.0882505515 1.7482851255 -1.0246366758
H -0.0210518619 1.8266540022 0.7447444498
H 0.2718455911 -1.9483942406 -1.4000748716
H 1.3900828907 -0.6158154040 -1.7848576587
H 1.9344198816 -2.6184137520 0.3348699171
H 3.5052089010 -0.9650892475 -0.2344834994
H -0.1039345475 -1.7704474060 1.4857401393
H 1.8826922014 0.0581933578 2.1105904488
H -3.6995317119 -0.5474319683 -0.4353066114