15

O 0.1157353567 1.3609810758 0.1094266700
C 0.0099889627 -0.0370157958 0.0589550262
C -1.4216514596 -0.4753530901 0.0701383724
N -2.4145906417 0.3248717031 0.0556147986
C -3.6010126799 -0.4987748018 0.0274980585
C -3.7516096444 -1.3940326285 -1.1871508580
C -3.0878850019 -1.9286115683 0.0473540102
O -1.6702543273 -1.8101223324 0.1047269749
H -0.7895655118 1.7023694614 0.0793731700
H 0.4927920255 -0.4394864209 -0.8459136681
H 0.5233119117 -0.4987316758 0.9160605717
H -4.4697426251 -0.1326669392 0.5600357376
H -4.7455651433 -1.7764222060 -1.3917443328
H -3.1465299644 -1.1800319187 -2.0618239069
H -3.4647492473 -2.7675473028 0.6166823858