14

C 0.0062700404 1.4557166341 0.0466220457
C 0.0163718077 -0.0453484081 0.0168694030
N 0.0119580797 -0.6310636601 -1.1875378948
C 0.0419275036 -1.9485212639 -1.1812435521
F 0.0359761503 -2.5371299357 -2.3674999950
C 0.0746878581 -2.7410751646 -0.0478709909
C 0.0748152614 -2.0197687527 1.1435506773
O 0.1023276330 -2.6764884434 2.3103417493
N 0.0452464627 -0.6874173218 1.1885600164
H 1.0152910853 1.8361803756 -0.1513317381
H -0.6458655632 1.8459239557 -0.7374591447
H -0.3113960601 1.8177803847 1.0248618614
H 0.0946315185 -3.8204455863 -0.0817181217
H 0.0959073527 -1.9986580536 3.0019843842