21

C 0.9030903633 0.8051795218 0.1877274285
C -0.3331983722 -0.0621228809 0.0912598236
O -1.1458765449 -0.1483017992 0.9833100640
C -0.4955026768 -0.8823063727 -1.1896062888
C -0.0125740123 -2.3194386610 -0.9681744210
C -0.1583238156 -3.2566842076 -2.1712785698
C 0.9424445387 -4.2903338500 -1.8949687481
C 2.0428502336 -3.4263350694 -1.2591413539
O 1.3891213846 -2.2981963935 -0.6722153463
H 1.7855688169 0.1790677556 0.0186508144
H 0.8925660724 1.5667810082 -0.6011230254
H 0.9540222676 1.2871224990 1.1647976629
H -1.5607431239 -0.9072900123 -1.4391704083
H 0.0623812159 -0.4427192454 -2.0227655176
H -0.5568164925 -2.7317051592 -0.1038654768
H -1.1578158879 -3.6914553738 -2.2457579913
H 0.0471194136 -2.7106012613 -3.0995351466
H 0.5860135551 -5.0421980822 -1.1833677418
H 1.2847559661 -4.8130533297 -2.7910600816
H 2.6064383799 -3.9607351859 -0.4857416210
H 2.7590933584 -3.0691332406 -2.0120666953