17

O -0.0775300735 0.1863201424 -0.8778619434
C -0.0942402722 1.2594400957 -0.3500460685
C -1.1971293213 2.2275989659 0.1068029467
C -1.5345875455 2.1368749379 1.6320479173
C -0.5139516909 3.2750512586 1.9351344311
C -0.0822576801 3.2954849461 0.4452820111
C 0.9888749242 2.2570823242 0.0686422032
C 2.3308152258 1.9963450922 0.6126156207
O 2.1496430185 2.5216946394 -0.6995275367
H -2.0233961272 2.3905259305 -0.5847135766
H -2.5706618428 2.3955972370 1.8566346297
H -1.3209030581 1.1683235072 2.0906885818
H -1.0000219114 4.2023415901 2.2463421665
H 0.2752672260 3.0454565939 2.6561013770
H 0.0053438794 4.2503222752 -0.0715041600
H 2.7456460905 2.6896034465 1.3434696901
H 2.6966175987 0.9720060869 0.6608127501