16

C -0.0108716728 1.4568180511 -0.0760631599
C -0.0581545231 -0.0386960665 -0.0134180780
O 0.2734246876 -0.7252410321 -1.2498127626
C -0.4017678421 -1.8629338812 -0.6773911782
C 0.3456253380 -2.2517390540 0.6311236289
C -0.6608670565 -1.5584206209 1.5222663574
C 0.6152329618 -0.8409367970 1.1446357851
C -1.3010312549 -0.9676022581 0.2303808143
H 1.0127313250 1.7986749195 -0.2651411229
H -0.6525900912 1.8337801533 -0.8773028440
H -0.3440420931 1.8870266046 0.8735412161
H -0.7189738794 -2.6130356099 -1.3996363064
H 0.9920279581 -3.0930704355 0.8390994496
H -1.0638409097 -1.8318899919 2.4859029898
H 1.4718076549 -0.5817279991 1.7524057775
H -2.3349262028 -0.6965687921 0.0307674133