19

C -0.0690071813 1.4954909935 0.0426084526
C -0.0180175091 -0.0108239286 -0.0197263448
C 0.3823642537 -0.7787627215 -1.3136361722
C -0.4283513387 -1.9287219265 -0.6918627565
O -0.9383597125 -3.0102356086 -1.3888336545
C -0.0084272085 -2.0927774878 0.8407394813
C 0.7861044914 -0.7951165167 1.0479240318
O -1.3444105425 -1.6791022628 1.2564219157
C -1.3426534828 -0.9326626195 0.0374829655
H 0.9301836248 1.9328030966 -0.0681210823
H -0.6999873215 1.9085950496 -0.7517805153
H -0.4739302406 1.8330553745 1.0032282942
H -0.1297435383 -0.4009301914 -2.2039387843
H 1.4496173018 -0.9063010128 -1.5209711193
H -0.2139554460 -3.6070405260 -1.6061584794
H 0.3181824115 -3.0363820506 1.2777120108
H 1.8506582300 -0.8609963749 0.8049328870
H 0.6622140182 -0.4244409727 2.0685494347
H -2.3043841195 -0.5483171038 -0.2995909951