16

C -0.1355658178 1.5396203483 -0.1691393019
C 0.1922925448 0.0770704705 -0.0019263082
N 1.3891833890 -0.3288905910 0.0611030581
N -0.9780811367 -0.7256624977 0.0695739287
C -1.0107079084 -2.1027310844 0.2218481518
O -0.0351455392 -2.8051174588 0.3144806670
N -2.3324391339 -2.5939349702 0.2564413424
C -2.7288048885 -3.9228502244 0.3978184910
O -2.0175901116 -4.8789876553 0.5147598298
H 0.7953255486 2.1022618563 -0.2176331559
H -0.7079596545 1.7146553037 -1.0879185242
H -0.7343121224 1.9099006413 0.6715869714
H 1.4256029460 -1.3425156714 0.1741373373
H -1.8521798685 -0.2289233917 0.0012313571
H -3.0906799314 -1.9334560080 0.1715249654
H -3.8367752056 -3.9804985172 0.3873098801