21

C -0.5851213377 1.9021486007 -0.3061419262
C -0.2011666949 0.4545544818 0.0516256003
C 0.6175845098 -0.1899704152 -0.9704862007
C 1.2902954472 -0.6951583045 -1.8343899017
C 2.1074603762 -1.3275745939 -2.8491843259
C 3.6137947059 -1.6173717012 -2.5417379307
C 3.4632749557 -2.9436099327 -3.3309458097
O 4.1655749402 -4.0890107141 -2.9278641500
C 1.9283217147 -2.8567248769 -3.1269706655
H 0.3079315410 2.5194417173 -0.4363108601
H -1.1543255577 1.9332852782 -1.2391759901
H -1.1971389715 2.3429551893 0.4866106287
H 0.3351286898 0.4456799888 1.0095847536
H -1.1129748246 -0.1349426060 0.2144959544
H 2.0284431218 -0.7748193786 -3.7918789177
H 4.3573368551 -0.8887537173 -2.8708661806
H 3.7516620235 -1.8140278026 -1.4734827983
H 3.7223726360 -2.7990652230 -4.3845629792
H 3.9651071821 -4.2494178610 -1.9995160369
H 1.6277746771 -3.3762879391 -2.2112597515
H 1.2695398104 -3.1590992100 -3.9434509721