14

C 0.0387743490 1.5043829853 0.0337512643
C -0.0268558580 0.0161308155 -0.0417696047
C -0.1096277825 -0.7865872615 -1.1147153391
C -0.0485773768 -2.2341465515 -0.7196499315
O 1.1945295843 -2.5803697032 -0.0740428511
C 0.0456878285 -2.2806855902 0.7403015046
C 0.0217770482 -0.8260873846 1.2018682399
O 0.0060543808 -0.4270253394 2.3405655880
H 0.9987301812 1.8259560115 0.4538675513
H -0.0818504561 1.9654211324 -0.9493577215
H -0.7353004252 1.8893207385 0.7057933170
H -0.1567702381 -0.4592867120 -2.1470014897
H -0.5044624271 -3.0174055826 -1.3158575771
H -0.3265765583 -3.0774332582 1.3756552996