21

C -0.2464181055 1.5612237165 -0.0674499793
C 0.0270332688 0.0683473790 0.0102430841
O 0.7584565975 -0.3788984525 -1.1501193377
C 1.8151561091 -1.1800330390 -0.6211453235
C 2.9320558894 -0.2453815683 -0.1229249760
C 2.2729529155 0.2719370006 1.1892986383
C 0.9136115946 -0.4726487923 1.1653662761
C 0.2246723448 -0.6826050831 2.4918953100
O 1.2940655363 -1.7364169987 0.5669406369
H 0.6756978878 2.1412048732 -0.1548981060
H -0.8617632253 1.7792896348 -0.9448476744
H -0.7938483963 1.9007102188 0.8186767153
H -0.9308611602 -0.4712317732 0.0440373921
H 2.0842285605 -1.9569596013 -1.3369086449
H 3.8539275203 -0.7993540901 0.0721119879
H 3.1422929827 0.5408033153 -0.8503133658
H 2.8390978079 -0.0370527761 2.0713756615
H 2.1681097119 1.3575859588 1.2254909789
H -0.0608671836 0.2782375593 2.9313256420
H -0.6779332461 -1.2882569795 2.3696062861
H 0.8911430198 -1.1931829723 3.1926810184