23

C 0.0185662575 1.5139703884 -0.1874035233
C -0.0055849068 0.0008168799 -0.0644553885
C -1.1758754577 -0.6382599353 -0.7908516829
C 1.3147333574 -0.7302279867 -0.0555275112
C 0.5036866415 -0.6228160595 1.2299852050
C 0.9789056957 0.2305017615 2.4227666748
C 0.9359006670 -0.7161033915 3.6538560333
C 0.1199187388 -1.8888484740 3.1658911180
C -0.0981788956 -1.8350019989 1.8519109242
H 0.8902391645 1.9545685359 0.3033448178
H 0.0463670863 1.8116494432 -1.2423577845
H -0.8776142759 1.9642903536 0.2566758262
H -1.1788427813 -0.3399593699 -1.8461870168
H -1.1369126173 -1.7300022705 -0.7616147414
H -2.1332126418 -0.3257725968 -0.3569200520
H 1.3710022391 -1.6987550468 -0.5437156047
H 2.2288414512 -0.1467684861 -0.1202022551
H 1.9723992591 0.6581480871 2.2648664465
H 0.2907780324 1.0681508198 2.5792194287
H 1.9412600382 -1.0428234110 3.9542504226
H 0.4994626900 -0.2305409090 4.5343601799
H -0.2037876816 -2.6910111904 3.8196568737
H -0.6256853105 -2.5888539730 1.2795653996