21

C -0.1967898171 1.5832531583 0.0143953073
C -0.0022762422 0.0598348863 -0.0407341136
C 0.7856581124 -0.4643824253 -1.2142901430
C 1.8365960627 -1.1999471587 -0.8499066986
C 1.9845906792 -1.3395772514 0.6478099964
C 1.7809295011 -2.7900740463 1.1330710771
C 3.3208163332 -0.7891868068 1.1809888064
C 0.8154303461 -0.4629814290 1.1552951925
O 0.5931747232 -0.2134923109 2.3127508286
H 0.7624833191 2.1040397339 -0.0665157745
H -0.8380442165 1.9256598414 -0.8032659664
H -0.6603965245 1.8639519181 0.9637959506
H -0.9970168782 -0.4089405229 0.0083711785
H 0.5046872434 -0.2484437133 -2.2396249996
H 2.5322238581 -1.6721885605 -1.5363883100
H 2.5939911298 -3.4308340118 0.7758009082
H 1.7696983408 -2.8207711136 2.2267321089
H 0.8376780559 -3.2068007539 0.7668553878
H 3.5041380229 0.2289390889 0.8245603634
H 3.3069447332 -0.7716793262 2.2746126644
H 4.1551895874 -1.4181006361 0.8528979055