22

C -0.0429703276 1.3538551559 -0.1433347435
N 0.1063871026 -0.0719378217 0.0460638547
C 0.6995631213 -0.6023975078 1.1492879078
O 1.1570277650 0.0233409436 2.0807591021
O 0.7069018840 -1.9578596012 1.0554328520
C 1.3133943587 -2.6449595416 2.1611320789
C 1.1885630496 -4.1458857516 1.9176172507
C 1.9614681930 -4.9092091342 3.0009437997
C -0.2787007222 -4.5892204358 1.8552028684
H 0.4754590385 1.6964038899 -1.0464031918
H -1.0978988936 1.6430725573 -0.2160183910
H 0.3979561313 1.8462673095 0.7241810777
H -0.2265021951 -0.7149214198 -0.6519900736
H 2.3622865425 -2.3400175189 2.2406466095
H 0.8130471389 -2.3488780064 3.0904304346
H 1.6550829873 -4.3560146281 0.9456354415
H 1.5433558611 -4.7134039654 3.9953806039
H 1.9088901303 -5.9882973843 2.8274797840
H 3.0181646396 -4.6228470649 3.0203663296
H -0.7778868783 -4.4177240854 2.8166692658
H -0.8258350688 -4.0345826488 1.0889065406
H -0.3561076181 -5.6569834300 1.6265731285