11

O -0.0425997599 0.0072268085 -0.0012662372
C -0.0030274189 1.2079154423 0.0083013704
C 1.2626404792 1.9875987409 0.0017059440
N 1.3746797748 3.2828372485 0.0113438578
C 2.7377752321 3.4506662464 -0.0014274469
C 3.3674500636 4.8029216708 0.0032076383
O 4.5533263208 4.9923115761 -0.0074333844
N 3.4202531460 2.3253928491 -0.0176728437
O 2.4463390730 1.3528622902 -0.0156481402
H -0.8982636467 1.8569983240 0.0228717801
H 2.6198953060 5.6204823233 0.0176572820