17

C -0.1009821867 1.7110148102 -0.0788214835
C 0.0275130437 0.2026920481 -0.0009584100
O 1.1826432987 -0.2970497240 -0.7292673846
C 1.6918767822 -0.9715813983 0.4427473693
C 0.5186078051 -0.4609196063 1.3234246197
C 0.8585736956 0.3983686269 2.4357796190
C 1.1564103733 1.1106986163 3.3576258528
C -1.1927127641 -0.4887166173 -0.5995613524
O -1.9654460724 -1.1811767801 0.0089578174
H 0.8103205242 2.1851626887 0.2918827356
H -0.2610412740 2.0205483662 -1.1167271218
H -0.9451605343 2.0575167950 0.5258062323
H 1.7322512659 -2.0576149841 0.3072073475
H 2.6783447494 -0.5951086395 0.7278195457
H -0.1709492136 -1.2473567954 1.6396070865
H 1.4121236952 1.7344330632 4.1782514972
H -1.2893148981 -0.3195235095 -1.6953272009