17

O 0.0021735758 -0.0548461025 0.1004568245
C -0.0358232794 1.1629793900 0.0766496910
C 1.1959725259 1.9413795579 0.0303378151
C 2.2203039164 2.5728809137 -0.0118838132
C -1.2947881138 1.9389470809 0.0920213854
C -2.5055135970 1.3625590356 0.0702118802
C -3.6169781554 2.3735101372 0.0459222182
C -2.8954657262 3.7034195275 0.3894779992
C -1.3960409198 3.4525237378 0.0813831167
H 3.1321591561 3.1178189156 -0.0495435209
H -2.6582400132 0.2901365983 0.0374197828
H -4.0778290139 2.3974317887 -0.9526772347
H -4.4261853236 2.1316170770 0.7439579317
H -3.3012248797 4.5584889114 -0.1558535751
H -3.0165816761 3.9138119436 1.4565428344
H -0.7313746765 3.9287294240 0.8083381836
H -1.1081577396 3.8485322134 -0.9016518290