17

O 0.1817451418 -0.0197390661 0.2516062747
C 0.0790838609 1.1511599745 0.0611946592
C -1.0316207296 2.2245124032 0.0198629882
O -0.0998424085 2.9898533153 0.8632327137
C 0.9803602277 2.4061813665 0.0522337313
C 0.7210674698 3.0329020314 -1.3308287437
C 0.8189542151 2.1107317525 -2.5827244201
C -0.7359186549 1.9703383866 -2.6077417659
C -0.8447554282 2.8915180358 -1.3560213534
H -2.0234606903 2.0946238923 0.4485249707
H 1.9652351981 2.4547779572 0.5126989801
H 1.1516090109 4.0308701484 -1.4170855099
H 1.2287837587 2.6109152533 -3.4620423145
H 1.3742338983 1.1814920990 -2.4312820455
H -1.2004219139 2.3915800470 -3.5011264304
H -1.1203616611 0.9562488176 -2.4714238699
H -1.4440796150 3.7964955753 -1.4588464146