20

C 0.1763711761 1.3294839875 0.3479735511
C -0.0128742364 -0.1120510042 -0.0749447489
C 0.6838313501 -0.6092293349 -1.3624567010
C 1.3465577218 -1.6507324917 -0.4406579390
C 2.8634369394 -1.6702434565 -0.3446971870
N 3.2830322818 -2.3772239386 0.8502586120
C 4.1263932742 -3.4422257613 0.8327777155
O 4.6647924030 -3.8952347546 -0.1557902551
O 0.7595293369 -1.0390437651 0.7361112498
H 1.2307932998 1.6172958594 0.2924961343
H -0.4024476676 1.9958565830 -0.3010273018
H -0.1661522655 1.4744614920 1.3774827225
H -1.0775407043 -0.3806228612 -0.0351120582
H 0.0368695656 -0.9991617770 -2.1485680799
H 1.3834414739 0.1115598923 -1.7942213432
H 0.9700574757 -2.6743974479 -0.5686481525
H 3.3062485651 -2.1870058442 -1.2001495809
H 3.2409517054 -0.6391871714 -0.3294307515
H 2.8515643326 -2.1031610290 1.7195879204
H 4.2779872624 -3.8596440167 1.8479091733