19

C 0.0042095145 1.4185978879 0.1155606764
O -0.0871620561 0.0107708629 -0.0475119777
C 0.5863999682 -0.5090381324 -1.1610280861
C 2.1442538333 -0.5924031739 -1.0346536291
N 2.0025762178 -1.9801186272 -0.5681854736
C 2.9627850967 -2.9615509945 -1.0187053771
C 0.6226946548 -2.0583617411 -1.0745708344
C 0.0812525125 0.0598315710 -2.4193947129
N -0.3139751158 0.5178736579 -3.4044632530
H 1.0445964481 1.7487387113 0.2359273685
H -0.4427699317 1.9528457662 -0.7326995391
H -0.5505680469 1.6571773344 1.0243806526
H 2.6381442514 -0.4935826789 -2.0135296880
H 2.6110505991 0.0938007677 -0.3207414952
H 3.9515236366 -2.7240909646 -0.6128976666
H 2.6794750339 -3.9523070138 -0.6489549560
H 3.0470734841 -3.0161625084 -2.1210353714
H -0.1088042469 -2.4878445130 -0.3840562006
H 0.5301086563 -2.5310175514 -2.0638046367