18

C 0.0073062187 1.3300592379 -0.0477218712
O -0.0832953377 -0.0851438345 -0.0225219571
C -1.3617264443 -0.5699908723 -0.0030158640
C -2.4486082288 -0.4497738121 1.1191849824
C -3.0478438321 -1.3753554730 0.0237008912
C -2.5155609962 -0.3794824858 -1.0459587628
C -1.6581778275 -2.1000632033 -0.0175206907
C -1.3044393045 -2.8787089878 -1.1931858748
N -1.0254416394 -3.5126531075 -2.1191023125
H 1.0700044729 1.5768023772 -0.0709917499
H -0.4780461236 1.7481886088 -0.9396656360
H -0.4461838817 1.7792529482 0.8463865128
H -2.2143483472 -0.9077019695 2.0832224549
H -2.9296798284 0.5232272175 1.2340617674
H -4.0150051359 -1.8691250505 0.0370472580
H -3.0013637138 0.5980514763 -1.0669278751
H -2.3449468671 -0.7733562604 -2.0491191130
H -1.3789781734 -2.6355710792 0.8932364802