17

C -0.0462811770 1.4144202983 0.0099477542
N -0.0600604347 -0.0320400174 0.0021596518
N -0.0259712322 -0.7338404184 -1.1259012209
C 0.0345536562 -2.0034692073 -0.7149794774
C 0.0730004330 -3.1478761408 -1.6740514823
C 0.0415142867 -2.0111360084 0.6968650999
C 0.0893584109 -3.1658905251 1.6430221728
N -0.0148480268 -0.7460505004 1.1221442454
H 0.9796478686 1.7975138933 0.0055613954
H -0.5664587532 1.7690258714 -0.8799966999
H -0.5551518278 1.7591042260 0.9102524510
H 0.9730385283 -3.7576366238 -1.5356786646
H -0.7887476733 -3.8123918835 -1.5431967922
H 0.0654069136 -2.7767057666 -2.7008042895
H 0.9881423146 -3.7738538068 1.4894160165
H 0.0915445779 -2.8059045435 2.6737753233
H -0.7734824350 -3.8291884969 1.5132087765