21

O 0.0287698587 1.3661933657 -0.0898683794
C 0.0556318684 -0.0463153843 0.0605927165
C -1.3730924016 -0.5449900490 0.0372570191
C -2.1593940213 -0.4649442972 -1.3011218004
C -2.7441738584 -1.8597517595 -0.9914217432
C -4.2234523175 -2.0217240712 -0.5746187588
C -4.2962137684 -3.0142136073 -1.7500047601
O -2.9041033449 -2.8047466719 -2.0640974554
C -1.6088593285 -2.0812995154 0.0335464261
H 0.9357611002 1.6850787232 -0.1079408504
H 0.6224879982 -0.5240633669 -0.7561127206
H 0.5378928650 -0.3387246448 1.0085852710
H -1.9305836195 -0.0609196423 0.8453015960
H -2.8564362550 0.3628672282 -1.4502558006
H -1.4849308403 -0.5233019275 -2.1616138119
H -4.3826366863 -2.4542789436 0.4152774713
H -4.8357502089 -1.1237942248 -0.6782226078
H -4.5033386713 -4.0578327423 -1.4842373574
H -4.9508398074 -2.7240067067 -2.5805346063
H -0.7788514083 -2.6139946541 -0.4429971954
H -1.8573429429 -2.5775920581 0.9755436877