17

C -0.1519982870 1.4619824964 0.0170080313
C -0.0161410641 -0.0278846568 0.0978352820
C -0.0179959034 -0.9551481231 -1.1491668943
O 0.6982137451 -2.1510101516 -0.8143299382
C 0.0369714312 -2.1039108498 0.4840985232
C 0.7133877574 -0.8764584327 1.1499962374
O 2.1087987468 -0.8703949912 1.2111229451
C -1.0630988534 -1.1115996177 -0.0893864016
O -2.4233048318 -1.0142078582 -0.0145521951
H 0.8254388212 1.9336868491 -0.1286680104
H -0.7983580503 1.7592320078 -0.8155687543
H -0.5894408361 1.8698868270 0.9345559109
H -0.0251417830 -0.6062551007 -2.1732906297
H -0.0605914679 -3.0771644689 0.9603960931
H 0.3202083504 -0.6868707794 2.1525623573
H 2.4010386491 -1.2599573592 0.3753123812
H -2.8138745742 -1.7072078209 -0.5603830478