25

C -0.1066110160 1.4778939753 -0.1677498445
C -0.0517577296 -0.0380791143 -0.2577169339
O -1.3398462506 -0.5522888586 0.0041529677
C -1.4057793629 -1.9621202054 -0.0572627845
C -2.8385649999 -2.3791772946 0.2310549152
C -3.8222666256 -2.0401516908 -0.9251165638
C -3.7429511928 -3.5177525530 -1.3950197790
C -3.1585158042 -3.8943847258 -0.0038257130
C -2.0684497827 -4.9539104735 0.0895916782
H 0.8792934035 1.9090669963 -0.3659445184
H -0.8151633154 1.8795219912 -0.8977833720
H -0.4292935012 1.7910996889 0.8292669177
H 0.2890943330 -0.3536824066 -1.2591307485
H 0.6752899577 -0.4422685883 0.4678400868
H -1.0831115757 -2.3113475237 -1.0540489339
H -0.7143937223 -2.4097210958 0.6775203474
H -3.1110631411 -1.9887468202 1.2160404381
H -4.8167118929 -1.7781968749 -0.5544557018
H -3.4976415792 -1.2645393880 -1.6220847160
H -4.6718341913 -4.0068853697 -1.6995080815
H -3.0075153484 -3.6575781803 -2.1940295131
H -3.9815489011 -4.1733603097 0.6640407768
H -1.2234538583 -4.7320441804 -0.5708696893
H -1.6803060301 -5.0448926272 1.1103924837
H -2.4607952731 -5.9348513510 -0.2015466780