18

C -0.4296291690 1.2483486154 0.1701186076
C 0.0606235979 -0.1876093693 0.0481403179
C 0.9806223495 -0.5754810247 -1.1428756064
O 2.0381143531 -0.9501839223 -0.2045885575
C 1.2644100077 -0.5794535644 0.8814992649
N 1.5336347586 -0.5609865811 2.1040717253
C 0.5431868123 -1.7187772852 -2.0158090211
C 1.3383684976 -2.9446317912 -2.1548537961
O 0.1591534016 -2.9141581432 -1.3434870961
H 0.3871296274 1.9617845523 0.0218230059
H -1.2105497328 1.4613121367 -0.5667110285
H -0.8453503413 1.4187446185 1.1668837332
H -0.7581880002 -0.9011445407 0.1729729966
H 1.3068017043 0.2714021869 -1.7572494674
H 2.4826026784 -0.8920554958 2.2858029665
H -0.1150992468 -1.4245342286 -2.8358023736
H 1.2623644655 -3.5329893222 -3.0676145939
H 2.2714228564 -3.0279145612 -1.6040651473