20

C -0.0373358632 1.5870847754 0.0298305144
C 0.0010636052 0.0652097194 0.0086685340
C -1.3833032442 -0.5412758879 -0.2420893375
C 1.0898684682 -0.6363503446 -0.8439017873
C 2.4778834253 -0.2021830194 -0.3521554722
C 2.2141154408 -0.2299545766 1.1711685352
C 2.6253166247 -1.4673262660 0.4350613395
N 1.1620901841 -1.7958425249 0.1756796833
C 0.7442816261 -0.6728129871 1.1521185667
H 0.9542406499 2.0127044113 0.2091964082
H -0.4080552534 1.9818784427 -0.9230969271
H -0.7090345764 1.9500964443 0.8162207287
H -1.7869450402 -0.2022813027 -1.2029177244
H -1.3402872477 -1.6332544167 -0.2545763006
H -2.0884716973 -0.2340720464 0.5385505683
H 0.9409570103 -0.8829283994 -1.8967894673
H 3.2289915269 0.4295071191 -0.8076902899
H 2.7645221797 0.3806143279 1.8747068481
H 3.4280774352 -2.1822907865 0.5610267853
H 0.2516924159 -0.9556517920 2.0842704348