17

C 0.1679517046 1.4852808190 0.0083541335
C 0.0614375162 0.0340465323 0.0024399330
C -0.0349569010 -1.1648721905 -0.0024034827
C -0.1546997033 -2.6119393294 -0.0082147963
C -1.6007208847 -3.1335663342 -0.0037829856
O -2.5714580890 -2.4137708259 0.0039030291
C -1.7022030267 -4.5792922628 -0.0096745421
C -1.7774641760 -5.7839771110 -0.0146707973
C -1.8937288059 -7.2318865315 -0.0202249492
H 0.7025714729 1.8502337002 -0.8755953280
H -0.8235240792 1.9510981490 0.0124556906
H 0.7063721268 1.8427520054 0.8930531288
H 0.3438009254 -3.0521481496 -0.8835465329
H 0.3519046731 -3.0598154272 0.8585315195
H -2.4726372232 -7.5706928918 -0.8862069781
H -0.9119046243 -7.7147870206 -0.0571901768
H -2.4107928859 -7.5816253714 0.8799349243