19

C 0.7740758773 -0.6095891661 1.4482820078
C 0.0483631855 -0.0904254326 0.2035123145
C 0.7586412822 -0.4594874504 -1.1299908232
O 2.0645652534 0.0507163213 -1.0587776205
C 2.8393469747 0.0137668051 -2.2526074632
C 0.7674830362 -1.9872500645 -1.2727238785
O -0.2264977507 -2.6468450720 -1.4362300648
C -0.1104937370 0.1432683204 -2.2425247961
O 0.1512518463 1.1622937585 -2.8235307275
H 0.7789451441 -1.7037553426 1.4881779532
H 1.8080478505 -0.2592681036 1.4675007950
H 0.2701507806 -0.2491280192 2.3495134775
H -0.9719544613 -0.4846398514 0.1618293996
H -0.0142938479 1.0024063893 0.2329832367
H 2.7761319577 -0.9625976514 -2.7544284285
H 2.5308127310 0.7927633929 -2.9541321015
H 3.8757400145 0.1782472943 -1.9498997026
H 1.7772259026 -2.4441357945 -1.1840678996
H -1.0319360596 -0.4410398833 -2.4453548082