22

C -0.2531128659 1.5149492578 -0.0668190795
C -0.0245478545 0.0065524939 -0.0434359297
O -1.2291228282 -0.6921862070 -0.2983590010
C 1.2322926303 -0.4516441200 -0.8501115851
C 2.0171157975 -0.5238820580 0.4848290884
C 0.6653017323 -0.5106723383 1.2433518280
N 2.8406067785 -1.7017889350 0.6755599978
C 4.2462969153 -1.5736857337 0.2988344138
C 3.8468478881 -1.6208369331 1.7317630553
H 0.6604629425 2.0650233793 0.1810604871
H -0.5727279490 1.8435573451 -1.0642689351
H -1.0302024298 1.7920964593 0.6524649647
H -1.6189456566 -0.3351033947 -1.1040403940
H 1.0760762346 -1.4569610006 -1.2477567218
H 1.6107145732 0.2075839820 -1.6362203665
H 2.5856894670 0.4049059258 0.6646977179
H 0.5810180761 0.0981827460 2.1467219807
H 0.3408516521 -1.5322088504 1.4522927081
H 4.6883967752 -2.4416641932 -0.1816158834
H 4.5849037165 -0.6146267972 -0.0908825625
H 3.9193296549 -0.6935533507 2.2982666545
H 3.9909244797 -2.5240999374 2.3174123122