20

C 1.1028312336 0.5264129518 -1.0749523656
C 0.0493492488 0.0130450342 -0.0744560920
C 0.6874502675 -0.6025676977 1.1476213355
C 0.8340374570 -2.1001655663 1.2400635046
C -0.5117490288 -2.8066154663 1.5479438604
C -0.3879354871 -4.2581308056 1.5691061434
C -0.2559824734 -5.4528097247 1.5789627565
N 1.1463998415 0.0615606318 2.1398757789
O 0.9692486498 1.4475053058 1.9755710209
H 1.7604381661 -0.2818348205 -1.4107991040
H 0.6172425414 0.9529282677 -1.9576869338
H 1.7195847463 1.2997884165 -0.6119900936
H -0.5869525277 0.8461926318 0.2369390525
H -0.5895858533 -0.7293941951 -0.5638820472
H 1.2272398338 -2.4908978660 0.2939097432
H 1.5527391943 -2.3429164094 2.0255988678
H -0.8830274366 -2.4500860951 2.5162553780
H -1.2651574706 -2.5167788625 0.8047115221
H -0.1533154318 -6.5094262053 1.5924971562
H 1.3457437294 1.7950935450 2.7906226761