19

C -0.5217678028 1.4427290876 0.6443731923
N 0.2249038146 0.3173779384 0.0834545111
C -0.6264885671 -0.6485026398 -0.6152857121
C -1.0079069566 -1.7593041300 0.4355286675
C -1.2776223927 -3.0467882570 -0.1963033347
N -1.4887919159 -4.0598938331 -0.7122659454
C 0.1812223636 -1.7479377705 1.3927381679
C 1.5532358081 -1.7400073640 0.7521056208
C 0.9036761322 -0.4377055958 1.1200636536
H 0.1746793120 2.1264705747 1.1386083565
H -1.0097780516 1.9931772357 -0.1645160984
H -1.2911893388 1.1523803922 1.3820588127
H -1.5067378525 -0.1618220481 -1.0381608387
H -0.0793185548 -1.1123060988 -1.4400438719
H -1.9082098711 -1.4621202959 0.9852637974
H 0.0476383183 -2.1605158475 2.3848812173
H 2.3794522300 -2.0614718654 1.3761081014
H 1.6597506086 -2.0178728110 -0.2905227885
H 1.3327384766 0.1621394682 1.9137416212