21

C 1.0008787136 1.4409901107 0.2043508332
C 0.4087167928 0.0291572733 0.0849342519
C -1.1017804333 0.0359872814 0.3628035478
C 0.6904855699 -0.5443915652 -1.2969534769
O 2.1343510171 -0.5432005327 -1.6088193213
C 2.1486891390 -1.8960217304 -1.8159132610
O 3.0823300898 -2.5822159475 -2.0861324433
C 0.6504102260 -2.0775725426 -1.5640410948
C 0.2648369353 -3.0908781750 -0.4915700169
H 2.0749818173 1.4345271989 0.0056295390
H 0.5282464185 2.1249151018 -0.5106830286
H 0.8361176846 1.8430688414 1.2086801521
H 0.9033207432 -0.6113520042 0.8262406149
H -1.6297283377 0.6613989045 -0.3665781999
H -1.5359851680 -0.9668794255 0.3212688483
H -1.3049527332 0.4465077195 1.3563547804
H 0.1710037327 0.0431495210 -2.0621971214
H 0.1346229306 -2.3113816018 -2.5005954540
H 0.7247004756 -2.8661548512 0.4743660724
H -0.8189579513 -3.1384760215 -0.3555256557
H 0.6093913477 -4.0831264648 -0.7973377862