18

C -0.4921223234 1.3476756278 -0.4966603018
N -0.8775726735 -0.0480193371 -0.5512135139
C -1.0636196793 -0.7911194555 0.5741141121
O -0.9425658218 -0.3524748602 1.7065013201
C -1.4339252717 -2.2435174070 0.3643398373
C -2.7562571846 -2.7792044005 -0.1840525001
C -3.1670448830 -2.0190020454 -1.4381952222
O -1.8508640011 -2.2280949800 -2.0392229384
C -1.4601149592 -3.0316805965 -0.9121960396
H 0.5242522575 1.5005737229 -0.8788342443
H -1.1785782700 1.9692871454 -1.0817892422
H -0.5254099107 1.6596993646 0.5476916680
H -0.9628227560 -0.5207910174 -1.4410543902
H -1.1100848207 -2.8343613115 1.2163951678
H -3.3881547164 -3.4409750655 0.3912278190
H -3.9291272015 -2.5359059834 -2.0292673056
H -3.4146116669 -0.9571738704 -1.3431367430
H -0.8749231778 -3.9209352203 -1.1153004029