20

C -0.5756344934 1.1831583225 0.4439160150
C 0.1201868224 -0.1355558940 0.1191374758
C 1.0920765800 -0.0764164144 -1.0884920937
O 2.2681199850 -0.8092675979 -0.7234416656
C 1.9447229481 -1.6120179958 0.4061842281
C 1.0229853207 -0.7224154112 1.2394697452
N 1.8084716043 0.2802031462 1.9434883572
C 1.5144526009 0.7096544505 3.1985303764
O 0.5681035861 0.3374417258 3.8610495622
H 0.1536618467 1.9741566418 0.6433520104
H -1.2032803184 1.5079311795 -0.3922567629
H -1.2117604274 1.0845042138 1.3281618803
H -0.6444781407 -0.8940253910 -0.0853314146
H 0.6417078473 -0.5097784115 -1.9915655848
H 1.3990145700 0.9493731778 -1.3237794743
H 1.4239574963 -2.5363032237 0.1092554521
H 2.8755527573 -1.8799411650 0.9121968988
H 0.4432007312 -1.2570571186 1.9924584530
H 2.6158451068 0.6608168280 1.4735699093
H 2.2534251969 1.4510071572 3.5627764621