23

C -0.0017214675 1.5231280834 -0.0100105033
C -0.0808171012 -0.0074441426 -0.0093284065
C -1.4910735745 -0.5391201709 0.0240533342
C -2.6237842146 -0.3025793706 -1.0306520192
C -3.2368334935 -1.2086096007 0.0542598149
C -1.9146399972 -2.0407498957 0.0355506336
C -2.5692906450 -0.2906964411 1.1284799710
O -4.5363746557 -1.6608397157 0.0025110575
C -4.9077724153 -2.4790600152 1.0941527362
H 1.0381432346 1.8627935745 -0.0352588502
H -0.5125736309 1.9460569925 -0.8813194702
H -0.4694618457 1.9442583106 0.8860543896
H 0.4256681181 -0.4033137400 -0.8994386113
H 0.4676609723 -0.4044958921 0.8551353139
H -3.0280385199 0.7106043379 -1.1033765454
H -2.4757406271 -0.7530540218 -2.0161333931
H -1.7093375724 -2.6130140823 -0.8737300205
H -1.6631167414 -2.6068457109 0.9371146156
H -2.3658431959 -0.7304283377 2.1092374862
H -2.9639426660 0.7254674920 1.2132057672
H -5.9484341583 -2.7702975211 0.9362070063
H -4.2885347154 -3.3855228331 1.1516585140
H -4.8287848573 -1.9415711793 2.0498081296