15

N -0.2467178121 1.4015233157 0.0671778945
C -0.0456828902 -0.0146233361 0.0194702846
C -1.1705309407 -0.7828628001 0.0233373653
O -2.4078160256 -0.2765257873 0.0685461488
N -1.0970852161 -2.1417844943 -0.0196629159
N 0.0674501720 -2.8200183058 -0.0681457314
C 1.1549016373 -2.1180221258 -0.0731596237
C 1.2501988632 -0.6502842065 -0.0311166528
N 2.3391104519 0.0474199114 -0.0363691302
H 0.2538042520 1.7806020874 0.8701167564
H 0.2156209169 1.8291916263 -0.7342440096
H -2.2577401351 0.6896940856 0.0941316160
H -1.9352330638 -2.6999587390 -0.0160019604
H 2.0743099730 -2.6978539060 -0.1128088832
H 3.1547322373 -0.5667312156 -0.0746882882