22

C 0.0293678903 1.6501807544 -0.0546809197
C -0.0856813612 0.1274011087 0.0580384419
C 0.7843596272 -0.4530600010 1.1802594954
C 0.7533795005 -1.9744169257 1.2868329414
C 1.5488464849 -2.6159537049 2.4638963379
C 0.1974846754 -3.2172738353 2.9023207771
O -0.1939986840 -3.9665228488 3.7602198440
N -0.4580818040 -2.5779362362 1.8778861868
C -1.8097079348 -2.7474806482 1.4070161705
H 1.0625327459 1.9541508779 -0.2562399231
H -0.5964861540 2.0387087496 -0.8638045101
H -0.2833702249 2.1406148878 0.8736832811
H -1.1346655734 -0.1461475402 0.2229209614
H 0.2027634990 -0.3338431933 -0.8959245661
H 1.8279261790 -0.1522166172 1.0135007503
H 0.4870885513 -0.0250092673 2.1467402606
H 0.9968501917 -2.4245333804 0.3136238961
H 2.2988628422 -3.3570372720 2.1820684406
H 1.9818250886 -1.9052347568 3.1712473026
H -2.2906270880 -3.4824273361 2.0579358069
H -2.3857172294 -1.8161585303 1.4479356299
H -1.8283977224 -3.1221485647 0.3758498744