20

C -0.5919325447 1.4952284351 0.0044360967
C 0.0212236458 0.1147109790 -0.0562435884
O 1.2653710704 0.0468540623 -0.8006639406
C 1.8461944691 -0.8357183821 0.1789355351
C 0.7112433621 -0.5352456333 1.1854422974
N 1.0480803754 0.3088421589 2.3089146225
C 2.0256536539 1.3892425818 2.1924627991
C 0.5011855163 0.0836233592 3.5395398459
O 0.7472617470 0.7335110721 4.5330873637
H 0.0693573386 2.2255873793 0.4737527804
H -0.8194428753 1.8398646390 -1.0091514367
H -1.5295250617 1.4635546544 0.5692250450
H -0.7056098612 -0.5897691836 -0.4900368659
H 1.8619993489 -1.8789242090 -0.1632302972
H 2.8595292664 -0.5357975669 0.4620833749
H 0.1882295349 -1.4097967727 1.5769706068
H 2.1736029380 1.6390804373 1.1422238878
H 1.6615250399 2.2642948957 2.7343637355
H 2.9874018091 1.1023889050 2.6328090719
H -0.2055052530 -0.7698682415 3.5337755061