18

C -0.0358826609 1.3597749635 -0.1218072721
N 0.0081631962 -0.0580692003 0.1427027474
C -1.1407106625 -0.9221884359 0.1649050711
C -1.2455870159 -2.0837227624 -0.8290535642
C 0.1334257212 -2.4167560506 -1.3950322608
C 0.7309874962 -2.2504448228 0.0558784588
C -0.7250489378 -2.2881138061 0.5934283840
C 1.1763863044 -0.7900024493 0.1557034348
O 2.3036303306 -0.3423477897 0.1278190086
H 0.9930013036 1.7247691827 -0.0984153493
H -0.4705856570 1.5769668241 -1.1062106574
H -0.6209865880 1.8892102755 0.6394230583
H -2.0620366232 -0.4873011376 0.5335910719
H -2.2008276479 -2.3706367281 -1.2533807363
H 0.1840860313 -3.4631859863 -1.7026519294
H 0.5478723431 -1.7848964806 -2.1876992481
H 1.4763058490 -2.9697271622 0.3820503344
H -1.1163670724 -2.8419897338 1.4364020983