16

O 2.3502929894 0.7405384338 -1.9038844423
C 2.1222390708 1.8267377183 -1.4707219113
O 1.4136689916 2.0186751737 -0.3299655516
C 1.1683123401 3.3565827475 0.0626178509
C -0.0342611406 3.9751320646 -0.6363181980
C -1.2882490957 3.2859043839 -0.3242832935
N -2.2816801089 2.7542452455 -0.0716662055
C 1.4259407616 3.6410726129 1.5072619791
C 2.3447755171 4.2161004037 0.4500776106
H 2.4620425987 2.7741739526 -1.9288207795
H -0.1291178117 5.0238072207 -0.3359295213
H 0.1098453361 3.9700064397 -1.7232176096
H 0.7429769600 4.3045842699 2.0251444311
H 1.7991843885 2.8148967102 2.0999821664
H 3.3319971397 3.7786816854 0.3574312205
H 2.3009557034 5.2783578277 0.2362053842