16

C 0.0927687762 -1.2117320617 0.0861086395
C 0.0324888163 -0.0099490875 0.0383848557
C -0.0543433675 1.3980560158 -0.0218850496
C -0.0527883840 2.4890486943 1.0603478770
C 0.9878398361 2.4944106806 -0.0526626547
N 0.3402088948 3.2798337627 -1.1461371443
C -0.3563345416 4.4119412673 -0.4228893461
C -1.1386478242 3.3398671934 0.3584594921
C -0.8927960162 2.3969078773 -0.8660318114
H 0.1497793480 -2.2709208427 0.1267449086
H 0.1768977852 2.3808416817 2.1109392001
H 2.0589150669 2.4320483128 0.0851216440
H 0.3025444480 5.0972601060 0.1184324879
H -0.9742506972 4.9653898729 -1.1358925663
H -2.0968747497 3.4941501327 0.8524503187
H -1.5818507711 2.1781537045 -1.6784954010