18

C 0.0405907266 1.5002957144 0.0954311545
C 0.0100428914 0.0114254768 -0.0127592915
C 0.0175271646 -0.7764142779 -1.1091369349
C -0.0084962623 -0.3555743415 -2.5080732197
O -0.0148543837 -1.1286826870 -3.4432863588
C 0.0457431309 -2.2154088388 -0.7105442021
C 1.2384662389 -2.6366704077 0.0745387229
N 0.0020572683 -2.2642637386 0.7716369562
C -0.0341355712 -0.8617625668 1.2271034619
H 0.9481129111 1.8290340383 0.6173135336
H 0.0086466199 2.0006037614 -0.8738102361
H -0.8064625600 1.8572572028 0.6946629415
H -0.0337618183 0.7415387566 -2.6812709246
H -0.5407184650 -2.9365207077 -1.2696597571
H 1.4964895270 -3.6887713632 0.1549946288
H 2.0834652236 -1.9508987408 0.1036885197
H 0.7942290318 -0.6508012457 1.9168488403
H -0.9612439436 -0.6821384046 1.7908114456