19

C -0.1763131179 1.6073496758 0.1003734389
C -0.0942065008 0.1062506535 -0.1324654779
C 0.3088688295 -0.7413427702 1.0930292325
O -1.0083165878 -1.3309852848 1.1739043718
C -1.4304326093 -0.6617030441 -0.0300506971
N 1.1553724623 2.1720876728 0.2841197588
C 1.8351580223 2.6351034899 -0.9223293709
C 1.2890633227 3.6066119429 0.0652396320
H -0.7203354102 2.0853218463 -0.7368779219
H -0.7545319209 1.8044245688 1.0123527544
H 0.4833438820 -0.1022913275 -1.0366312574
H 1.0830452904 -1.4971544595 0.9105856237
H 0.5688019263 -0.1752146916 1.9948999554
H -2.3258723919 -0.0462069426 0.1314345906
H -1.6316489609 -1.3686292904 -0.8455608861
H 2.9019567278 2.4376940901 -0.9734260355
H 1.3083508110 2.5452826505 -1.8716738986
H 0.3996462474 4.1632056235 -0.2270330166
H 1.9496468382 4.1311095367 0.7496490937