19

O -0.2118882659 1.5458851600 0.0033691476
C -0.0345355121 0.1455499267 0.0032074817
C -1.3981893643 -0.5260135090 0.0129797829
O -2.0725466845 -0.1641030743 1.2045619817
C -3.4909763464 -0.1400311105 1.0690944293
C -3.9627938659 -1.1966654237 0.0316877146
C -3.5063762862 -0.1390799484 -1.0116343354
C -3.8683961397 0.9522613572 0.0319696987
O -2.0901191463 -0.1631225728 -1.1682146297
H 0.6572019931 1.9557449954 0.0058734276
H 0.5009199805 -0.2051174049 -0.8923066657
H 0.5127170942 -0.2040278700 0.8919267546
H -1.2458471601 -1.6201576407 0.0113773199
H -3.9037531100 -0.1244557637 2.0787114322
H -3.5006929299 -2.1860218804 0.0277945867
H -5.0499585428 -1.2984034059 0.0396643456
H -3.9341219334 -0.1225593181 -2.0149863047
H -4.9350066489 1.1913575749 0.0399270153
H -3.2544599715 1.8535755982 0.0278847472