20

C 0.0940910354 1.0961393762 -0.6562832847
C -0.1644089191 0.2213268922 0.5837774665
C -1.4918920475 -0.3831997930 0.5969941792
C -2.5901571998 -0.8761930373 0.5861403388
C -3.9302906161 -1.4375730236 0.5999711238
O -3.8871074391 -2.7632189071 0.0384100549
C -5.0667207311 -3.4150255972 -0.0158013916
C -4.8718381454 -4.7816474816 -0.6215710171
N -6.1367052782 -2.8758924873 0.4064094017
H 1.1004892720 1.5236739571 -0.6185403932
H 0.0033243715 0.5067098575 -1.5725756012
H -0.6270810536 1.9161291872 -0.7104029679
H 0.5914767163 -0.5726559707 0.6382436517
H -0.0322112145 0.8223006681 1.4927284860
H -4.3350272990 -1.4926933045 1.6170311973
H -4.6307585785 -0.8258975109 0.0199414102
H -4.1585337191 -5.3588424621 -0.0256099777
H -5.8170832402 -5.3240163011 -0.6743537834
H -4.4524807080 -4.6905550569 -1.6280305833
H -6.9264557461 -3.5061343349 0.2893247701