19

C 0.1589735062 1.7783514201 0.0155369508
C 0.0005261480 0.2525479256 0.0076305502
C 0.7186671161 -0.4120757204 1.1797393591
O 0.0589375941 0.0126391341 2.3779134294
C 0.5625363504 -0.4390015972 3.5439409724
N -0.0109408692 -0.1487246575 4.6289149534
N -1.4013737909 -0.1442599410 0.0149108928
C -2.0278522126 -0.6743937495 -1.0680200023
O -1.5079907011 -0.8841737640 -2.1445668959
H 1.2160715921 2.0567211573 -0.0463357500
H -0.3606806977 2.2130939113 -0.8414762987
H -0.2537238115 2.2084891393 0.9321711714
H 0.4165750536 -0.1546407717 -0.9180629399
H 0.6601678678 -1.5036487716 1.0903992732
H 1.7740856921 -0.1114361943 1.2013086695
H 1.4723548334 -1.0429642565 3.4235641352
H 0.4959707768 -0.5558334145 5.4119396951
H -1.9193069900 -0.0103750408 0.8699652981
H -3.0909256976 -0.9024940487 -0.8560933737