19

C -0.0259064984 1.5194829281 0.1097835484
C 0.0141665512 0.0652838072 0.0543616977
C 0.0623044894 -1.1362413655 0.0065276089
C 0.0629784942 -2.5998010930 -0.0383934070
C -1.3907237408 -3.1557318229 0.0457158011
O -1.4130797892 -4.5626244159 0.0543108791
C 0.7214945502 -3.1295518193 -1.2393040486
C 1.2147126672 -3.6085857635 -2.2286075748
C 1.8430231749 -4.1562318309 -3.4231062662
H 0.5480505915 1.9015574634 0.9611249907
H 0.3948685209 1.9620454115 -0.7997624549
H -1.0534460470 1.8855818948 0.2115414299
H 0.5933448691 -2.9872794714 0.8432882471
H -1.8400891716 -2.8220465180 0.9847037841
H -1.9731858219 -2.7321164297 -0.7851106113
H -0.9535137920 -4.8541545508 -0.7431007202
H 2.3236346796 -5.1185636180 -3.2160375149
H 1.1115346495 -4.3143300764 -4.2230209589
H 2.6119191931 -3.4771485896 -3.8072766201