20

C 0.6888261813 -0.9971323061 -1.3023292295
C 0.0613056228 -0.3354121566 -0.0746544925
C 0.5628053257 -0.9109325401 1.2728474388
C -0.0285524492 -0.1069543486 2.4642515137
C 0.6822851618 -0.3655942222 3.7928898059
N 0.3500170029 -1.5403047412 4.4111891126
O 1.4673384327 0.4306212153 4.2699025543
C 0.2539052288 -2.3378019667 1.3797293250
C -0.0393184290 -3.5028402597 1.4592935447
H 0.4652090103 -2.0672971671 -1.3328810138
H 0.3077950249 -0.5448086787 -2.2226750740
H 1.7783321160 -0.8817773053 -1.3005557474
H 0.2839323026 0.7377244975 -0.0766467142
H -1.0303822583 -0.4316875139 -0.1117375249
H 1.6551306560 -0.7921770039 1.3010725269
H 0.0943671948 0.9580375831 2.2584235773
H -1.0985543666 -0.3246344209 2.5494306888
H -0.0805407337 -2.2797970859 3.8776661070
H 0.9213253111 -1.8075957239 5.1980904692
H -0.2749990249 -4.5374789353 1.5101241421