14

C -0.0216310192 1.4552356915 0.0329379242
C -0.0031200115 -0.0334464310 -0.0385614070
N -0.0578294407 -0.7346479551 -1.1479874124
C -0.0110815618 -2.0404975667 -0.7047951373
N -0.0206841459 -3.2816152882 -1.1941963879
N 0.0570510280 -4.0067290278 -0.0722679585
N 0.1173597265 -3.3625209168 1.1161558561
C 0.0727827077 -2.1083842994 0.6944189254
N 0.0777851109 -0.8053425049 1.1256454938
H 0.8890955067 1.8445438918 0.5021349600
H -0.0931840388 1.8543044395 -0.9787694938
H -0.8757188274 1.8172328809 0.6165012220
H 0.0708061486 -5.0122117276 -0.1062775806
H 0.1278417869 -0.4556654961 2.0666292760