18

O 0.4509261852 -0.1240573163 -0.0103185153
C 0.0747521206 1.0230121561 -0.0421780333
C -1.3836548658 1.4245726045 -0.2017332354
C -1.6204486220 2.8500300444 -0.7478434072
N -0.9110966562 3.2156566845 -1.9691447204
C 0.4449575419 3.7132742861 -1.8261423574
C 1.5290691341 2.7299738135 -1.2841758535
C 1.1053503307 2.1636113311 0.0523479656
O 1.4906524652 2.5635049929 1.1257054235
H -1.8596308978 0.6685052859 -0.8363196612
H -1.8520996112 1.3322407766 0.7881695922
H -2.6976435593 2.9652867742 -0.9162782318
H -1.3521322971 3.5888824945 0.0163845646
H -0.9815458871 2.4965733779 -2.6798737650
H 0.7815516146 4.0750908883 -2.8029563278
H 0.4139503874 4.5831608475 -1.1593907666
H 1.6684086782 1.9116380789 -2.0008240764
H 2.4766865886 3.2627562191 -1.1590602849