15

O 0.0861004044 -0.0652616066 0.1797759748
C 0.1028084241 1.1196794243 0.2844904625
O 1.0536835268 1.8844740594 -0.3291136663
C 0.9366701185 3.2509295659 -0.1801267073
C 2.0028045049 4.3110868842 -0.0401634054
C 1.4454233697 5.1115532697 -1.2161813315
C 0.1025068372 4.4021072473 -0.9054425513
O -0.2828052099 4.9372445338 0.3897484195
C 0.8028272857 4.2119336611 0.9518700955
H -0.6088573289 1.7272936412 0.8707999556
H 3.0234879315 4.1894908385 0.2975208247
H 1.4300901289 6.2028988016 -1.1555269776
H 1.8723276867 4.7776483292 -2.1645262573
H -0.7216380590 4.3242414919 -1.6103750015
H 0.8995496393 4.1296981385 2.0256786355