17

C 0.0357026737 -1.2111760439 0.4428795867
C -0.0414945827 -0.0691630250 0.0744374497
C -0.1050262216 1.3211269271 -0.3683251883
C 1.2803062376 1.9964238283 -0.3169721499
C 1.9016854515 2.9441624793 -1.3115561309
C 0.9401947226 4.0701782043 -1.7998412021
O -0.3571889960 3.8863790225 -1.2123954092
C 0.6822828330 4.4953278089 -0.4309019447
C 1.6295793946 3.3926595179 0.1325810808
H 0.0887004760 -2.2210130681 0.7658193678
H -0.5088823543 1.3640983402 -1.3835580947
H -0.8167616325 1.8713005384 0.2532995531
H 2.0410146533 1.3060178036 0.0408145528
H 2.8574864361 2.7515459640 -1.7821379343
H 0.9976138339 4.6198416214 -2.7311234270
H 0.4829350816 5.4682818520 0.0007634994
H 2.3488526633 3.5898542792 0.9173514706