17

O -0.0901849590 1.3301801411 -0.0789128898
C 0.0354282262 -0.0402351713 -0.0509756854
C 0.8804537487 -0.9264320443 -0.9603094654
C -0.0143000989 -2.0870098500 -0.4381849807
C -1.1016493250 -1.0152144569 -0.0250468182
C -0.2609858575 -0.8483205274 1.2325941946
C 0.3886508994 -2.2266759994 1.0731231713
C -0.4001468079 -3.3027735680 1.7652777283
O 0.0730654773 -4.1531491614 2.4767293463
H 0.6284001044 1.7158328151 0.4350023380
H 0.6739995130 -0.7113524483 -2.0122561557
H 1.9613048735 -1.0013231274 -0.7943182762
H -0.1862399407 -2.9714503311 -1.0464110096
H -2.1591235507 -0.9073892865 -0.2118622535
H -0.5367635779 -0.3361170905 2.1458370150
H 1.4517853569 -2.3479512814 1.3023273872
H -1.4970161719 -3.2614557423 1.5690365339