23

C -0.1540654641 1.3839424444 0.0472571780
O 0.0731460309 -0.0077972148 -0.0312144963
C 0.6974069988 -0.5625312332 1.0801119022
C 0.0335466932 -0.6194877492 2.4984371454
C 1.0253400726 -1.8052298274 2.6646033873
C 0.7755444930 -2.1045073336 1.1585493046
C 2.3923083621 -1.0755370597 2.6552845903
C 3.6179683387 -1.9811039131 2.5561370661
C 2.1506230174 -0.1445064921 1.4187703467
H 0.7825015308 1.9585741021 0.0747955034
H -0.7106392448 1.6669755649 -0.8492329913
H -0.7506472531 1.6498819902 0.9321768998
H 0.1443591060 0.2370228805 3.1704639187
H -1.0099677716 -0.9381905565 2.4467156923
H 0.8756105537 -2.5677015118 3.4287350573
H -0.1966279102 -2.5672684457 0.9772357112
H 1.5508663530 -2.6119698746 0.5789195360
H 2.4830417332 -0.4723400849 3.5663522392
H 3.5811316535 -2.6205624998 1.6680138648
H 4.5383736699 -1.3901018038 2.4975460289
H 3.6968289442 -2.6332795113 3.4332726539
H 2.8302882766 -0.3596932776 0.5880462491
H 2.2433577363 0.9161691468 1.6674301326