19

C -0.0090073504 1.5344366306 -0.1181676761
O 0.0721114910 0.1300468175 -0.1566502767
C 0.7358097924 -0.3451396514 -1.3095495628
C 0.7515109813 -1.8643656478 -1.2234246426
C 1.4350842995 -2.5240331431 -2.3976657266
N 1.9358948009 -1.8517424035 -3.3478555923
N 1.4373341584 -3.9386249170 -2.2918947901
C 1.9731164192 -4.8333426131 -3.1836284821
O 2.5372034777 -4.5532853470 -4.2172815572
H 0.9884059711 2.0019118073 -0.1109905938
H -0.5669981474 1.9358452885 -0.9789408232
H -0.5334669879 1.8073788855 0.8009396784
H 0.2221156286 -0.0200190868 -2.2262158796
H 1.7628313712 0.0446761410 -1.3658881738
H 1.2492187070 -2.1666958433 -0.2921264446
H -0.2810615015 -2.2309808624 -1.1470469671
H 2.3534545074 -2.4637346278 -4.0491216249
H 0.9983588271 -4.3347043930 -1.4737293034
H 1.8289091742 -5.8773784541 -2.8441258116