21

C -0.0339244109 1.6519190592 -0.0130245754
C 0.0066226806 0.1134001400 -0.0581937857
C -1.3181527411 -0.4963256199 -0.0284429553
C -2.4214491561 -0.9821424315 -0.0112104533
C -3.7502490276 -1.5291673156 0.0326617687
O -4.2232166472 -2.2550351753 -1.1203693153
C -4.0393242111 -2.9848958362 0.0988714392
C -2.9110882776 -3.9904732568 0.0834231369
C -5.3222447908 -3.4416293139 0.7595699253
H 0.9807972672 2.0600076845 -0.0374191013
H -0.5875478923 2.0509046123 -0.8671076543
H -0.5240857496 2.0012231638 0.8997227076
H 0.5312453719 -0.2140179371 -0.9649599343
H 0.6002826108 -0.2639253502 0.7846393965
H -4.5002819684 -0.8611269868 0.4585612807
H -2.0212097102 -3.5704212016 -0.3877124191
H -2.6553643680 -4.2992455689 1.1026599305
H -3.2137265908 -4.8846814400 -0.4721774691
H -5.7095238177 -4.3346416675 0.2567132794
H -5.1510042013 -3.6967207031 1.8106905103
H -6.0871660498 -2.6630820254 0.7068836780