21

C -0.2114940303 1.4868852317 0.0474294183
C 0.0369761322 -0.0227172549 0.0212845017
C 0.7165073144 -0.4943103099 -1.2710151745
O 1.9510862783 0.1709134673 -1.4941233939
C 0.8909778272 -2.0304510480 -1.2845209841
C 1.4708379150 -2.5426397107 -2.5192127668
C 1.9434525344 -2.9437035268 -3.5522486461
C 2.4987197902 -3.4786888258 -4.7941195113
O 1.5940009773 -4.3094085303 -5.5116101373
H 0.7232427908 2.0324025924 -0.1046269177
H -0.9017240571 1.7844368409 -0.7494949703
H -0.6460739799 1.8003982559 1.0011397892
H 0.6674102284 -0.3142907382 0.8746382708
H -0.9097848073 -0.5640464303 0.1430753063
H 0.0955999377 -0.2117995795 -2.1295437402
H 2.5551720582 -0.0785871655 -0.7852648084
H 1.5152438554 -2.3205245052 -0.4259124387
H -0.0872636409 -2.4992376830 -1.1151347055
H 2.7535898300 -2.6597938004 -5.4761223863
H 3.4386882486 -4.0106884027 -4.5746182678
H 1.2529514174 -4.9618268568 -4.8911551776