13

O 0.1393971999 -0.0281228481 -0.3587309015
C 0.1351913314 1.1269508322 0.0105286018
C 1.3157007114 1.9550135506 0.0572676664
C 2.3081514060 2.6351020148 0.0846832928
C -1.1734996223 1.8008729682 0.4806171066
O -1.1686966353 2.9283992676 0.9069900935
C -2.4039929827 0.9459438683 0.3950775244
C -3.3681101697 1.0026898955 1.5184743166
O -3.6326139841 1.6650904411 0.2985489198
H 3.1844543684 3.2373362458 0.1092484090
H -2.3303471118 0.0413742447 -0.1994210990
H -3.9729397926 0.1221524565 1.7284057481
H -3.1418238586 1.6531978230 2.3611582915