18

C 0.1798333454 1.0819018717 -0.7974035979
C -0.1084201214 0.0954344744 0.3132575161
O 0.6399431161 -0.0703074263 1.2567786109
C -1.3590059327 -0.6938907058 0.1918429664
C -1.9600725871 -1.3986009160 1.3887621593
C -1.4955681182 -2.2239649105 0.2415419747
C -2.3845243445 -2.0928491205 -1.0046236943
C -3.5320187992 -1.1700422173 -0.8701883928
N -2.1857173224 -0.6029934525 -1.0799918825
H 1.0865144586 1.6394628988 -0.5609155012
H 0.2959497755 0.5537967560 -1.7493076068
H -0.6673834379 1.7623411562 -0.9329695291
H -1.2695639472 -1.3817372862 2.2250940333
H -3.0043122929 -1.2983245206 1.6595601368
H -0.6807884153 -2.9313114187 0.3169903216
H -2.2348223679 -2.7089014601 -1.8850862980
H -4.1576000016 -1.0480685177 -1.7499499330
H -4.0593652173 -1.0271680752 0.0653443764