19

C -0.0492940674 1.5346763846 -0.0150522076
O 1.1093595354 0.7087057001 -0.1457799317
C -0.1672149453 0.0708504225 -0.0092178574
C -0.4019181160 -0.7124212623 1.2350208611
C -1.5953713514 -1.6653252207 1.3205632506
C -0.2068452958 -2.2000543867 1.2447597385
C 0.4669564691 -3.1050689852 0.2177364020
C 1.1305069969 -3.7391736298 1.4598349640
O 0.4062350802 -2.8572716402 2.3515465467
H -0.1311850703 2.0792515797 0.9250391321
H -0.3259694297 2.1014337530 -0.9034508250
H -0.5180575366 -0.4062135100 -0.9270238206
H -0.1259545209 -0.2077041395 2.1567256240
H -2.1068750519 -1.7350444075 2.2742851631
H -2.2377329046 -1.7640990943 0.4499336398
H -0.2060156554 -3.7632767789 -0.3353030967
H 1.1449685285 -2.6060592436 -0.4766799314
H 0.8894858672 -4.7906946128 1.6493072895
H 2.2133725479 -3.5941287983 1.5408862490