22

C 2.7213572720 0.6851380607 0.8277183970
C 1.5991604527 -0.3175895299 0.5269313594
C 1.5588895715 -0.7503610045 -0.9272918124
O 1.3308341356 0.3216446896 -1.8188571496
C 2.4034370968 -1.8907235158 -1.4670255692
C 3.3627207049 -2.7125229998 -0.6315181321
C 0.8851033045 -2.0212283127 -1.3700048552
C 0.1864288799 -2.9794863811 -0.4291294850
H 3.7072194995 0.2609312805 0.6082688530
H 2.6043685056 1.5978667008 0.2340634290
H 2.7118381103 0.9807570174 1.8809780668
H 1.7081595886 -1.1897720881 1.1777646571
H 0.6311758540 0.1361184815 0.7737275586
H 2.1492273584 0.8244106472 -1.8908425131
H 2.7557873337 -1.7113366527 -2.4802944043
H 3.0096754369 -2.8664649713 0.3910794795
H 3.5142040885 -3.7034540423 -1.0748178207
H 4.3442937043 -2.2293299381 -0.5680812919
H 0.3783175215 -1.9049405135 -2.3242798504
H 0.7164899826 -3.1127563908 0.5170709192
H -0.8232562789 -2.6263955375 -0.1918323441
H 0.0893502871 -3.9693242196 -0.8886899315