17

C -0.8581884755 1.1994619700 0.3181209427
C -0.0946047140 -0.0676289794 -0.0493992034
C 0.8839475910 -0.0176935907 -1.2703092223
C 2.0231780120 -0.6536893503 -0.3928420790
C 3.3100323850 0.0234541884 -0.3859703067
N 4.3192612645 0.5862719308 -0.4163297257
C 1.0933831279 -0.4574967202 0.8086466781
N 1.2204911068 -0.5167826339 2.0643801178
O 2.5128339980 -0.8996849647 2.4341085570
H -0.1790499386 2.0524121121 0.4126767619
H -1.6035324233 1.4365704691 -0.4477880058
H -1.3762068223 1.0749099843 1.2731475526
H -0.7926277339 -0.9086926858 -0.1430629777
H 0.6019129071 -0.5941955115 -2.1514382333
H 1.1268238911 1.0034293587 -1.5687520232
H 2.1788794507 -1.7164401967 -0.6079255199
H 2.4829333434 -0.8465374201 3.3958687470