21

C -0.0581029861 1.5591273470 -0.0004521467
C 1.4859566751 1.5476729604 -0.0172627787
C 2.1160985228 0.8656987082 1.2612205658
C 1.0058385963 0.4636534585 2.2444390507
C 0.3000589540 -0.6180234882 1.3960680541
C 1.4955640883 -1.5566143478 1.1070928648
C 2.3641247491 -0.4758765321 0.4486638071
C 1.4561501704 0.1233360667 -0.6422240725
C 0.0086494147 0.0051180520 -0.0098893401
H -0.6010545627 2.0644254958 0.8044008129
H -0.4351604958 1.9336151114 -0.9574295798
H 2.0381791228 2.3900182338 -0.4368089067
H 2.9739162950 1.3706706011 1.7055983579
H 1.4162507447 0.0247923821 3.1605901557
H 0.3659195599 1.2993344793 2.5376065187
H -0.5708203450 -1.0768591535 1.8683541099
H 1.9198432939 -1.9965895069 2.0156560818
H 1.2527401272 -2.3646456714 0.4076542724
H 3.3915164481 -0.7271272848 0.1860763044
H 1.5757007317 -0.0924481731 -1.7045982524
H -0.7599178546 -0.5408715285 -0.5599362792