19

O 0.1416872336 1.2999090756 -0.6164746209
C 0.0284671342 0.0505742211 -0.0104248171
C -0.2448649993 -1.1855875418 -0.8494171011
C -1.3009654774 -0.6255851688 0.0878536810
O -1.4680255875 -1.2109438962 1.3513792179
C -0.1896571464 -1.2588655792 1.9678324683
C -0.1686120599 -1.6637790415 3.4018181831
C 0.3434393971 -2.6197117986 2.3365104177
C 0.6796489272 -0.1669434989 1.3508639798
H 0.9807507682 1.3273228902 -1.0892991877
H -0.4188144119 -1.0074647144 -1.9054324629
H 0.2441357817 -2.1231873711 -0.6086247487
H -2.2152744403 -0.2004353475 -0.3065293516
H 0.5473013370 -1.1861328788 4.0621934169
H -1.1259370113 -1.8916645608 3.8568031113
H -0.2821268728 -3.4717725013 2.0957085514
H 1.4123726768 -2.7973266642 2.2707289064
H 1.7332600347 -0.4601019052 1.3049990855
H 0.6056983465 0.7729500114 1.9097855608