22

C 0.6809720091 1.6205076985 0.7568388205
C 0.3496127255 0.2900102236 0.0799849080
C 1.1827243102 0.1206690643 -1.1890169114
C 0.7639528675 -0.9268424729 -2.2462291421
C 0.7058187041 0.2771058996 -3.2052971415
O 0.9614440906 1.2021388634 -2.1278851161
N 0.6533226868 -0.8197744109 0.9841848971
C -0.3076394343 -1.0838585750 2.0476900349
C -0.1788319633 -2.0159025590 0.8950564966
H 1.7227296327 1.6257579674 1.0930445574
H 0.5332777831 2.4431887696 0.0537195079
H 0.0413455279 1.7851717556 1.6289847557
H -0.7187996198 0.2926522951 -0.2095777528
H 2.2424258580 0.0559958799 -0.9053741041
H 1.4970186929 -1.7004943276 -2.4768687884
H -0.2036127470 -1.3941617785 -2.0548865483
H 1.5005061210 0.3051400884 -3.9621811956
H -0.2549010897 0.4739019449 -3.6950905388
H 0.1133927222 -1.3353257559 3.0169690193
H -1.2082635361 -0.4726152352 2.0871245166
H -0.9972022347 -2.0215547978 0.1769569545
H 0.3394170230 -2.9647691276 1.0008061005