16

O 0.1829636557 1.4005192592 -0.0822345070
C 0.0359033138 0.0224768763 0.0302932986
C 0.2030853733 -0.6861175691 1.4125782639
O -0.4976808113 0.0638495641 2.4291831406
C -1.7308051286 0.4411150766 2.0186190562
N -2.2564477204 0.1711318542 0.8931929355
C -1.3833599215 -0.6301279435 0.0199834196
C -0.7585560984 -1.7782253533 0.8583883383
O -0.1283320586 -2.7121428034 0.0139505706
H -0.6028124296 1.8168767740 0.2919354378
H 0.6847322439 -0.4586367650 -0.7004294652
H 1.1822656453 -0.9372127911 1.8199725515
H -2.2426701656 1.0297609034 2.7757421801
H -1.8785809413 -0.8684702663 -0.9200316686
H -1.4255925145 -2.2454626505 1.5923956292
H 0.4282192879 -3.2830910157 0.5543606290