17

C 0.1393724287 1.4425299826 -0.0759119750
C -0.0476379308 -0.0531174852 0.1014817841
C -1.4974498094 -0.4931692931 0.0118402998
O 0.7610396031 -0.7733539247 -0.9321630423
C 1.5560601544 -1.3640159630 -0.0031997295
O 2.4936107069 -2.0768591392 -0.1670400397
C 0.7961682330 -0.7666838542 1.1916687257
C 1.6056249928 -0.0359886084 2.2351567023
O 1.3920635566 1.0847891212 2.6176300371
H 1.1958684937 1.7165712178 -0.0716560719
H -0.2955658641 1.7501784555 -1.0315826267
H -0.3524155179 1.9872553608 0.7325009324
H -1.9368693819 -0.1669293194 -0.9350833498
H -1.5835755590 -1.5815586004 0.0742030517
H -2.0752574528 -0.0489839537 0.8284057455
H 0.2481738159 -1.5644164612 1.7095284427
H 2.4358283405 -0.6469862555 2.6505794935