23

C -0.1037853350 1.5186456216 -0.1245750360
C 0.0303544368 0.0072700367 0.0104641210
O 0.7023030676 -0.4389665609 -1.1656488255
C 0.6399081756 -1.8382064759 -1.3450671183
C 0.9300626712 -2.5980146612 -0.0827266106
C 1.0085644900 -1.9861558451 1.0948735127
C 0.7751638992 -0.4979974230 1.2772852118
C 2.1357784868 0.2069348377 1.4578603092
C -0.0962931295 -0.2857814836 2.5299426900
H 0.8765305592 1.9897931488 -0.2321233970
H -0.6891799030 1.7546920992 -1.0171182923
H -0.6083125039 1.9533729893 0.7422836694
H -0.9801860706 -0.4372028142 0.0318100374
H -0.3483187738 -2.1349863490 -1.7453353399
H 1.3770674346 -2.0816836391 -2.1201433552
H 1.0724474392 -3.6717420091 -0.1748185536
H 1.2453345314 -2.5520899922 1.9941914712
H 2.7111477216 0.1652564739 0.5293778308
H 2.0102462469 1.2558397588 1.7458124347
H 2.7213366690 -0.2837568757 2.2424967467
H 0.3952943117 -0.7087746361 3.4128782935
H -0.2665349693 0.7770769288 2.7274139546
H -1.0708344058 -0.7748974896 2.4261794751