23

O -0.0958987642 1.4937326759 -0.1258524625
C 0.0332248136 0.0824843119 -0.0370564464
C -1.3752529993 -0.5073876673 0.0742921098
C -1.3878373379 -2.0177323966 0.0813375152
C -1.5311278443 -2.7144634191 1.2125390016
C -1.5658505510 -4.2187918650 1.2960885128
C -1.7612303305 -4.8742206343 -0.0784341471
C -0.8803086301 -4.1940734661 -1.1317527250
C -1.2358619426 -2.7069775675 -1.2596332163
H 0.7860226393 1.8736804674 -0.1747086376
H 0.5473434561 -0.3244526756 -0.9223795457
H 0.6204346800 -0.2140773260 0.8460366851
H -1.8362517800 -0.1149531007 0.9864666608
H -1.9624135480 -0.1250558008 -0.7711237821
H -1.6354082584 -2.1742850426 2.1525385516
H -0.6332282930 -4.5806925329 1.7560084736
H -2.3642319921 -4.5313961612 1.9814560231
H -1.5437087721 -5.9462221572 -0.0222963123
H -2.8134849100 -4.7807589028 -0.3773120760
H 0.1731381429 -4.2904114018 -0.8372728659
H -0.9818692115 -4.6908450131 -2.1028341794
H -2.1750477217 -2.5924080640 -1.8228280587
H -0.4779570152 -2.1898550106 -1.8617958785