21

C -1.2817392451 -0.7104691355 -3.3719522054
C -0.7115981467 -0.2877242875 -2.0195368360
N -1.5189345775 -0.8794207151 -0.9476053014
C -1.1946112902 -2.1672317055 -0.3638273991
C -0.0128605968 -3.0223445193 -0.7675229059
C -1.0625176741 -0.8953964845 0.4448704158
C 0.2830653420 -0.3791000970 0.8711924816
N 0.2783315108 0.1871774730 2.1161773105
O 1.3052035859 -0.4454738575 0.2062087906
H -0.7367026985 -0.2207255413 -4.1849605564
H -1.1968101308 -1.7925507876 -3.5161144194
H -2.3397360500 -0.4433797454 -3.4484582028
H 0.3528235176 -0.5300960488 -1.9493820303
H -0.7928059026 0.7998692540 -1.9078480244
H -2.0875687932 -2.7514188999 -0.1358152890
H 0.9119423015 -2.4506188677 -0.8266578077
H 0.1251956065 -3.8195351372 -0.0292381028
H -0.2057746065 -3.5025653011 -1.7331297441
H -1.8596222289 -0.6727657400 1.1547180130
H -0.5666169860 0.3491657388 2.6340372642
H 1.1360956726 0.5966236050 2.4477159588