20

C -0.0407363390 1.5303578613 0.0541908861
C 0.0018981808 -0.0201928045 0.0081967180
C -1.4374691263 -0.5699835610 -0.0240788960
C 0.7393420740 -0.4585885006 -1.2324806380
C 1.9567279305 -0.9836129591 -1.2155700609
C 2.7191546650 -1.1844653464 0.0508926136
O 2.0661290233 -0.6976683112 1.2237505164
C 0.7150119588 -0.4973635697 1.2707704300
N 0.0945763409 -0.5832504270 2.3711646921
H 0.9673433743 1.9482758284 0.1282767195
H -0.5045386470 1.9222969541 -0.8572453646
H -0.6231169352 1.8645712828 0.9166453840
H -1.9644609656 -0.1820880006 -0.9025517708
H -1.4399471190 -1.6624322130 -0.0775331042
H -1.9771502436 -0.2737151413 0.8762313771
H 0.2133746168 -0.3129465268 -2.1731691511
H 2.4581696348 -1.2940889443 -2.1279499822
H 2.9395605877 -2.2526376220 0.2023515466
H 3.6872675392 -0.6692829276 0.0063342230
H 0.7373358996 -0.8719798314 3.1112576315