17

C 0.0306124476 1.4079291311 -0.1417933827
N -0.0319405418 -0.0439467862 -0.0986191968
C -1.2520511665 -0.6676839126 0.0951073214
O -2.2725154905 -0.0447650499 0.3353032123
C -1.2190629544 -2.1370308854 0.0197270100
C -2.2639598801 -3.0142474400 -0.1949222823
C -1.7318043565 -4.3262730726 -0.2020011294
C -0.3747616031 -4.2207615845 0.0212282051
N -0.0668627421 -2.8930741229 0.1332472178
H 1.0573780636 1.7343007927 0.0422040067
H -0.3078287871 1.8175877374 -1.1024531154
H -0.6214802745 1.8037330044 0.6372507113
H 0.6375092875 -0.5374522656 -0.6691094785
H -3.2887395913 -2.7156373991 -0.3481132560
H -2.2758344566 -5.2453744064 -0.3552473281
H 0.3880750175 -4.9773951939 0.1151158150
H 0.8158456782 -2.5332840864 0.4539142797