13

N 0.0238642148 1.3394566593 0.1430115646
C -0.0214528107 -0.0426501827 0.0383983154
N -1.1332598728 -0.7665297140 0.0761349316
C -0.6352338723 -2.0321152416 0.0563586087
C 0.7182099807 -2.1085236812 -0.0096021177
N 1.1434622001 -0.7875392009 -0.0349835325
N 1.1470061510 -3.4076779280 -0.0898588493
C 0.0165151761 -4.0609761041 -0.0530694209
O -1.1280696950 -3.2984522452 0.0305414645
H 0.5952969085 1.7905148180 -0.5613673537
H -0.9144071810 1.7186932701 0.1330190654
H 2.0756625541 -0.4280189318 0.0774907853
H -0.1291281435 -5.1280396080 -0.0733802714