14

N 0.0242693562 1.3145817179 -0.0736572162
C -0.0142733371 -0.0458958812 0.0007329041
N -1.0897722345 -0.7478908502 0.0628672254
C -0.7371311070 -2.1688554397 0.1268106893
C 0.7526228316 -2.2176669225 -0.2088449806
O 1.4046124418 -3.0816009688 -0.7345541663
C 1.2867756791 -0.8160403441 0.0991835301
O 2.3085121821 -0.3917272161 -0.7643062418
H 0.8616451723 1.7050182562 -0.4788400316
H -0.8390210293 1.7640565066 -0.3423153946
H -0.9191029138 -2.5936402847 1.1253780694
H -1.3222490022 -2.7644210154 -0.5822076432
H 1.6297244987 -0.8000304267 1.1501672693
H 2.6614842520 -1.1945576713 -1.1759025733