18

N 0.0611246117 1.3156622614 -0.0628032060
C 0.0295775990 0.0553875566 -0.0586256371
C -1.2141298073 -0.8080060909 -0.0346208975
C -0.7097910175 -2.1660258597 -0.5234264383
C -1.5172852265 -3.4516000208 -0.2534369898
O -1.6034019130 -3.7540869419 -1.6583293921
C -0.9298485267 -2.5313071959 -2.0141046099
C 0.7418410491 -2.1332817132 -0.0358636810
O 1.1357634233 -0.7542909496 -0.0797162202
H 1.0260749557 1.6512617693 -0.0641541740
H -1.5778692353 -0.8790195355 0.9983893188
H -2.0133259821 -0.3737382881 -0.6362420338
H -0.9932362090 -4.2371264913 0.3074468766
H -2.5053193721 -3.2928248448 0.1983767775
H -1.5858899566 -1.8463814543 -2.5667613648
H -0.0245374557 -2.7146659959 -2.6062944401
H 0.8204701836 -2.4998702855 0.9971372524
H 1.4312246693 -2.7049993900 -0.6623408107