15

O 0.0475796901 1.3951167532 0.0676320541
C -0.0475249996 0.0103889746 -0.0079598508
C -1.3449072661 -0.7346335664 0.0115140733
C -2.5868423719 0.0874824832 -0.3253089057
N -2.2539151048 0.6907369380 -1.6137599526
C -1.2172720860 0.0483664749 -2.2816883112
O -0.9743108887 0.1562007443 -3.4607417365
C -0.4760746464 -0.7543225047 -1.2522400273
H -0.5980775859 1.7794198199 -0.5399542586
H 0.7750831856 -0.4399831415 0.5373851159
H -1.4678520304 -1.6067363169 0.6422138032
H -3.4732366652 -0.5556357850 -0.3969491069
H -2.7835806736 0.8560626959 0.4318125282
H -2.9548755196 1.1568395292 -2.1702984351
H 0.0935486225 -1.6058726485 -1.5990510201