15

C -0.0197492707 1.5267823231 -0.0313920053
C -0.0387079779 0.0133379978 0.0333147409
O -0.0486588834 -0.5986115952 1.1018108683
C -0.0393226504 -0.7309931198 -1.1931633815
C -0.0318047840 -2.0989291184 -1.3973433221
N -0.1036787963 -3.0706679824 -0.4633791199
N 0.0217637324 -2.3616685933 -2.7540495919
C 0.0369062454 -1.1813833744 -3.2978291555
O 0.0007354599 -0.1455255903 -2.4567928859
H 0.8632167329 1.8793696115 -0.5749034535
H -0.8963352330 1.9001859807 -0.5714497171
H -0.0133932164 1.9264550248 0.9831049044
H 0.0188948583 -2.7660440660 0.4922085242
H 0.1599377712 -4.0045552809 -0.7280243795
H 0.0744858421 -0.9532129473 -4.3525353855