19

C 0.0797867756 1.7058772795 -0.1196164598
C -0.0125003774 0.1835490147 0.0437477424
C 0.7379129612 -0.5637650832 -1.0719504959
C 2.1374422492 -0.7656216715 -0.4993551915
O 3.1510048532 -1.0401735398 -1.0708071452
O 2.0878888405 -0.5835553682 0.8522731443
C 0.7483109410 -0.3225395884 1.2673921898
C 0.5802766087 0.1573074448 2.6677541130
C 0.1805180214 -1.2612627784 2.2914755554
H 1.1234593571 2.0351236695 -0.1632363888
H -0.4134976369 2.0255468163 -1.0428230949
H -0.3985570126 2.2243376849 0.7162543263
H -1.0621566033 -0.1172296301 0.0985918157
H 0.3104342912 -1.5546306318 -1.2621441154
H 0.7885269599 -0.0343777470 -2.0247437891
H 1.4809435306 0.2823450123 3.2575761524
H -0.2023154229 0.8798269759 2.8731541381
H -0.8752936960 -1.5058507325 2.2400541056
H 0.8231106994 -2.0646883368 2.6328819076