14

N -0.1324211392 0.9273542019 0.9870774480
C -0.1053092651 -0.0583171290 0.2202388614
C -1.1368418237 -1.0062808288 -0.3478424537
C 0.0752116733 -1.6597131835 -1.0507726930
O 0.9707255228 -0.6579745213 -0.4298125867
C 0.4901740020 -3.0327610250 -0.5001271709
O -0.2184886544 -3.7174233907 0.1834492519
C 0.1380657335 -1.6545101040 -2.4954639734
C 0.1967461441 -1.7158530761 -3.6944786411
H 0.7980825455 1.3210348954 1.1352396130
H -1.6256720403 -1.6596399331 0.3754335111
H -1.8702292740 -0.5465303458 -1.0090996933
H 1.5236524962 -3.3230737666 -0.7778601454
H 0.2429984693 -1.7494474033 -4.7558420877