22

C -0.1013874603 1.4986762353 -0.1317377795
C -0.0348304518 0.0094167844 0.1636019669
O -1.3122704728 -0.5507987049 -0.0834063240
C -1.3920173365 -1.9664830115 0.0145630107
C -1.3863680843 -2.4486945459 1.4676265797
C -2.6769283282 -2.3803791155 -0.7054736218
C -2.6857116294 -1.9223162970 -2.1763167605
C -3.9127732707 -2.2958588116 -2.8738440972
N -4.8887194158 -2.6004562898 -3.4128534532
H 0.8694305331 1.9667527265 0.0560344795
H -0.3756308609 1.6740728109 -1.1759256802
H -0.8482375759 1.9821405570 0.5042152304
H 0.7197371251 -0.4793485515 -0.4752190904
H 0.2707998515 -0.1549017582 1.2079171915
H -0.5291672300 -2.4100538539 -0.5142201312
H -1.4793610549 -3.5384170582 1.5103801696
H -0.4590685959 -2.1758867881 1.9782474368
H -2.2238529401 -2.0064196596 2.0162091989
H -2.7864497272 -3.4679880987 -0.6530626163
H -3.5346836676 -1.9419389344 -0.1844151050
H -2.5647742615 -0.8360315076 -2.2149474023
H -1.8350418059 -2.3570448776 -2.7151516523