21

C 0.2292648125 1.6882016984 0.1381448428
O 1.4855815397 2.0140267141 -0.4516099010
C 2.0418416073 0.8605940881 -1.1014117331
C 0.8977088635 -0.1702350535 -1.1622743502
C 0.1016022024 0.1560632547 0.1132407146
C 0.6669462832 -0.5692348755 1.3621324217
O 2.0150382145 -0.9867228810 1.2778304177
C 2.9745361970 0.0526207835 1.1423057852
C 3.2726765578 0.3868440857 -0.3203787851
H 0.1944476980 2.1024915306 1.1534394060
H -0.5812425324 2.1529738010 -0.4433245524
H 2.3533853025 1.1637468106 -2.1080752531
H 0.2799373863 0.0083058167 -2.0475786506
H 1.2602191272 -1.1988283173 -1.1923010427
H -0.9521817129 -0.1239121061 0.0190190180
H 0.5195224838 0.0654700763 2.2521987313
H 0.1051449208 -1.4947863378 1.5224131856
H 2.6418234631 0.9561843515 1.6728548384
H 3.8872486750 -0.3029088577 1.6326240861
H 3.6997242859 -0.4926224023 -0.8177343319
H 4.0331542545 1.1770674401 -0.3457380075