13

C -0.0388042446 1.4432290019 -0.1238294665
N -0.0436698791 -0.0032236051 -0.2893799334
C -1.0523336995 -0.6543792820 0.0528750314
C -1.4394342537 -2.1185426043 0.0435955685
C -2.7589635478 -1.6007749685 0.6500833813
O -2.2593392214 -0.2316985622 0.6016897185
H 0.8027545318 1.7275985185 0.5174305917
H 0.1310464004 1.9148050815 -1.0980457264
H -0.9614112644 1.8495180531 0.3068238090
H -1.5106095356 -2.5670227358 -0.9486588007
H -0.8326728052 -2.7566168521 0.6881665785
H -3.6536164616 -1.7130363178 0.0324181085
H -2.9718710293 -1.9036598771 1.6784063096