20

C 0.1431564536 1.4107110210 0.0979178194
N 0.1680452628 -0.0407746872 0.0721298185
C 0.5013705206 -0.6347983872 -0.9999829851
O 0.8814816477 0.0658569809 -2.1133488018
C 0.8243049250 -0.6148357490 -3.3704398189
C 1.5605409715 -1.9459963114 -3.3208446633
C 1.0901978836 -2.7200291460 -2.1228481816
C 0.5627508418 -2.1126190767 -1.0512502273
C 0.0710864107 -2.8545392643 0.1596717748
H 1.1380133123 1.8048686904 0.3458375924
H -0.1568371963 1.8597444762 -0.8565230889
H -0.5420104853 1.7396004280 0.8845335722
H -0.2271298013 -0.7812660909 -3.6421272312
H 1.2627847607 0.0754887371 -4.0949067259
H 1.3686247739 -2.5006256299 -4.2469278910
H 2.6470760137 -1.7841113160 -3.2759113587
H 1.1940781992 -3.8018134854 -2.1337407224
H 0.6135445064 -2.5386159044 1.0551334024
H -0.9841575188 -2.6353544409 0.3502132306
H 0.1902686881 -3.9332308942 0.0276299058