15

C 0.0198869317 1.3871828969 0.0199941209
O 1.2998622210 1.9215204852 -0.0097726092
C 2.0794729208 1.6306433186 1.1684497871
C 1.8698712201 0.1887581677 1.4990535823
C 0.8973470730 -0.5123444988 0.8495440039
N 0.9637787698 -1.8009919324 1.3064753061
C 1.9909586810 -1.8182298610 2.2265591943
N 2.5499151966 -0.6401608047 2.3651453975
O 0.0082856572 -0.0565575939 -0.0554105254
H -0.5144798289 1.6692959833 0.9409275775
H -0.5064738430 1.7333263027 -0.8693990331
H 3.1149372728 1.8542937971 0.8962973044
H 1.7920370466 2.3080014024 1.9874647844
H 0.3773573033 -2.5676202179 1.0228467041
H 2.2725932280 -2.7215324450 2.7450005553