18

O 0.0337900797 -0.0719154565 0.2107439227
C 0.0176608903 1.1208474481 0.0543845893
C 1.2494976582 2.0095869868 0.0231731022
C 1.2702386229 2.8148363829 -1.2844110989
C 2.5778426421 3.5818840316 -1.5159318151
N 2.9336650470 4.6534862457 -0.6054904836
C 2.8700149735 4.6072989599 0.6498546404
O 2.4039960485 3.6607839121 1.5171921405
C 1.2106428560 2.9277598288 1.2533285570
H -0.9455852079 1.6661775216 -0.0886238823
H 2.1245962842 1.3541324934 0.0916457519
H 1.1289604247 2.1385969479 -2.1365899820
H 0.4264786928 3.5175108289 -1.2958414297
H 3.4108553354 2.8631305880 -1.5233839995
H 2.5437058652 4.0133532751 -2.5220771039
H 3.2983036520 5.4257523460 1.2302283070
H 0.3728937294 3.6331649895 1.1580675204
H 1.0566921160 2.3368502101 2.1601598939