15

N 0.0438361283 -1.1460798138 -0.1047623767
C 0.0402028299 0.0092384160 -0.0376867305
C 0.0153443933 1.4368161490 0.0567689864
C 0.3331902984 2.3008698642 -1.1523533838
C 1.2816155794 2.2881739321 0.0081591719
C 1.0644102051 3.3573296916 1.0649985451
O -0.3454761129 3.4118607589 1.2614944064
C -0.8653933288 2.0994112347 1.1194228466
H 0.6366333059 1.7828239982 -2.0538184820
H -0.2922734786 3.1747314040 -1.3020150479
H 2.2539093607 1.8225585569 -0.0919157149
H 1.5907110750 3.0836316705 1.9925644634
H 1.3879405963 4.3571665570 0.7603506726
H -1.9158940881 2.1886820146 0.8294476838
H -0.8021661937 1.5275556060 2.0575199794