21

C -0.0165885821 1.6848396981 0.2187081309
C -0.0647184468 0.1743322507 0.0817492775
C -1.3764974534 -0.4056385358 -0.4233782970
C -1.6979369169 -0.0161720795 -1.8842961840
C -2.9244337470 -0.6330322331 -2.3735113046
C -3.9394288656 -1.1565086434 -2.7491523265
C 1.2161475745 -0.5444827439 -0.3221103816
C 0.6915930041 -0.6501444280 1.0903082195
O 1.3427995695 0.0254176390 2.1272949403
H 0.8944500917 1.9981283721 0.7309003828
H -0.0493229955 2.1789913552 -0.7581154965
H -0.8682491307 2.0472008795 0.8061912976
H -1.3487782857 -1.4989486274 -0.3581167597
H -2.2004737243 -0.0762487141 0.2212566514
H -1.7831599690 1.0738191795 -1.9689263653
H -0.8573479411 -0.3061183253 -2.5279968401
H -4.8346931556 -1.6113860024 -3.0934059546
H 1.1531184806 -1.4148626132 -0.9680554495
H 2.1012105920 0.0664901538 -0.4682922949
H 0.2401687928 -1.5978736729 1.3865378968
H 2.1876198285 -0.4102493190 2.2795655276