21

C -0.0805276440 1.4949087505 -0.2197804209
C -0.0792196122 -0.0194655847 0.0166219496
C -1.4510010097 -0.5998461054 0.1830846358
C -2.5794753000 -0.2815558229 1.1903267003
C -3.1752322540 -1.1945832804 0.0976911224
C -4.5916370836 -1.5715572951 -0.1972538477
O -2.4405022923 -0.3831388164 -0.9282311056
C -1.9032331671 -2.0911846589 0.1856108325
O -1.5799057245 -2.8694643570 -0.9190651582
H 0.9352541219 1.8631985248 -0.3898720021
H -0.6890903984 1.7469989328 -1.0923694940
H -0.4921379551 2.0309434838 0.6414160877
H 0.4051106969 -0.5352068053 -0.8219946660
H 0.5037008524 -0.2692557277 0.9122346221
H -2.4914059341 -0.6820988795 2.2044469142
H -2.9400963299 0.7470930445 1.1681114838
H -5.1973880787 -0.6839302216 -0.4024059827
H -4.6348094601 -2.2343969697 -1.0671654281
H -5.0259908690 -2.0994999054 0.6575721374
H -1.7452205113 -2.6785815047 1.0935132255
H -1.7432837272 -2.2885421817 -1.6779517362