21

C 0.0386868077 1.4955500968 -0.2574493709
C 0.0170270032 0.0121904302 0.1345290420
C -1.3727035645 -0.5892265763 0.0730657570
O -2.3448924572 0.0829203357 0.8403032427
C -1.9462579517 -1.2262802438 -1.1703476766
O -0.9306169053 -1.8749546379 -1.9387310707
C -0.6771073614 -2.7936202131 -0.8399587876
C -1.6825715179 -2.0818041745 0.0625725147
C -2.5761956639 -2.7656339444 1.0551155301
H 1.0581513312 1.8908483604 -0.2319167934
H -0.3485940158 1.6422452917 -1.2719421389
H -0.5606856874 2.1008949873 0.4311416868
H 0.6734628853 -0.5434236969 -0.5400034748
H 0.4122875936 -0.1070805752 1.1508842220
H -2.5277208008 0.9251063561 0.4104583068
H -2.8554156647 -0.9079703152 -1.6711063179
H -0.9973340205 -3.8072911146 -1.1102187952
H 0.3773783548 -2.8114746870 -0.5402750590
H -1.9945019649 -3.1647686195 1.8952134262
H -3.3076642543 -2.0645274505 1.4601394861
H -3.1114839955 -3.6033687192 0.5943513806