17

O -0.1039326899 1.4779466032 -0.1461807742
C 0.0018402129 0.0943796927 -0.0480401767
C 1.0992655257 -0.5052454547 -0.9249895619
C 2.4084505123 0.0348740886 -0.5682427146
C 3.4547301501 0.5304959366 -0.2430105008
C -0.3488641563 -0.5557645314 1.2594479626
C -1.3112035924 -0.6504323331 0.0684463792
C -2.5616035757 0.0477955415 0.0819807525
C -3.6270536351 0.6048648182 0.0834090507
H 0.7366007081 1.8483306413 0.1520687326
H 1.1028979790 -1.5971332875 -0.8290733828
H 0.8791158716 -0.2736336832 -1.9744945327
H 4.3948837100 0.9426793384 0.0294184945
H 0.1639780333 -1.4608691707 1.5661059245
H -0.6505881805 0.1073567525 2.0610158697
H -1.3385636890 -1.6145741445 -0.4330952504
H -4.5595341940 1.1120002522 0.0821479978