20

C 0.0629803315 1.4532029970 -0.3417974345
C 0.0077457171 -0.0559784882 -0.0704941298
O 0.6712916181 -0.3638147915 1.1587585573
C -1.4441909463 -0.5411452478 0.0337458489
O -1.9954831095 0.0800383141 1.1921000322
C 0.7493376784 -0.8654967643 -1.1437950615
N 2.1693977375 -0.5758863200 -1.1299889399
C 2.8743805624 -0.2391441133 -2.2398179555
O 2.4235370845 -0.1669369480 -3.3646665204
H 1.1001352960 1.7943211527 -0.3546503896
H -0.3937018634 1.6980528744 -1.3062563805
H -0.4763533378 1.9943205903 0.4395700805
H 0.0655408875 -0.0934537343 1.8603849187
H -2.0072856291 -0.2704052092 -0.8712100751
H -1.4524862926 -1.6351496058 0.1372219539
H -2.8224835278 -0.3561751683 1.4134776990
H 0.5837100809 -1.9342922189 -0.9556774843
H 0.3831499585 -0.6307890116 -2.1454841887
H 2.6267075339 -0.5822174358 -0.2315717403
H 3.9372022300 -0.0344805814 -2.0015138602