19

C 0.0961743636 1.3375274193 -0.5060483582
C -0.0155877217 0.0535105612 0.3228616013
O 0.2378592231 0.3555041146 1.6823225513
C -1.3577579779 -0.6150632648 0.1561216799
N -2.1007440907 -0.8432324339 1.2331773969
N -3.2121108741 -1.4494372993 0.7645650556
C -3.2017648546 -1.6166563495 -0.5836034904
C -4.3280219701 -2.2593635049 -1.3250505808
C -2.0026609195 -1.0831957232 -1.0133435940
H 1.0753250319 1.7949329822 -0.3395960635
H -0.0135492039 1.1298392063 -1.5753688259
H -0.6767094733 2.0501334919 -0.2039259032
H 0.7572850726 -0.6490377499 -0.0336028564
H -0.4963568843 -0.0136847033 2.1908580373
H -3.9323423949 -1.7189461007 1.4131668777
H -5.2599455080 -1.6917462199 -1.2217590814
H -4.0898333202 -2.3168713625 -2.3888570078
H -4.5203128315 -3.2781386354 -0.9698371111
H -1.6480140164 -1.0428770082 -2.0308445871