23

C 0.0868935084 1.6231041686 0.0998715555
C 0.0276730632 0.0942598323 0.0388211860
C 0.6552037311 -0.4711459770 -1.2438656703
O 1.9946596435 -0.0174368754 -1.3900651824
C 0.5804376315 -2.0241136449 -1.3283867218
C -0.8710498001 -2.5614483699 -1.3960841623
C -0.9589926457 -4.0895059030 -1.3962144398
C 1.3618243249 -2.5090279257 -2.4663734356
C 1.9704343239 -2.9216877025 -3.4175796203
H 1.1164489247 1.9746722983 0.0007231016
H -0.4956588452 2.0701672182 -0.7132703166
H -0.3196559811 1.9948785122 1.0451380430
H 0.5555805388 -0.3362052771 0.9030994010
H -1.0136601490 -0.2344047824 0.1211747834
H 0.1319116557 -0.0587529622 -2.1158581973
H 2.5252930790 -0.4279691269 -0.6977859397
H 1.0394004300 -2.4180583408 -0.4063412706
H -1.4315191263 -2.1703252893 -0.5417353890
H -1.3469493832 -2.1606952446 -2.2991516044
H -0.5216463516 -4.5100623325 -0.4835985159
H -2.0016885253 -4.4172960012 -1.4469404911
H -0.4245189020 -4.5144462132 -2.2497847616
H 2.5250956746 -3.2731339908 -4.2519279617