16

C 0.0460492079 1.4189917142 0.0218029983
N 0.1942599373 -0.0150654453 -0.0319369505
C -0.0538502482 -0.8011808116 -1.1086257751
C -0.1256331280 -2.1339446090 -0.8349354875
C 0.0676735674 -2.3205448482 0.5882608910
O 0.1141107580 -3.3177226553 1.2693060926
C 0.2019387279 -0.8495897139 1.1704590277
C 1.3692533034 -0.6425879291 2.0070212908
C 2.3367806863 -0.4714964958 2.6982846997
H 0.8134391833 1.8464485584 0.6741326614
H 0.1741721360 1.8327315965 -0.9818731367
H -0.9405962894 1.7241585471 0.4006630137
H -0.1603124481 -0.3248867131 -2.0769859304
H -0.2561868860 -2.9291082688 -1.5511630401
H -0.7154169305 -0.6665022712 1.7508548214
H 3.1936234028 -0.3378783949 3.3114323336