21

C -0.5252693250 1.3379686836 0.2389519148
C 0.1701167968 0.0082109622 -0.0788260574
C 0.9058348033 -0.5426221758 1.1278922927
C 0.1637805602 -1.3105139760 2.1987392722
O -1.2097539121 -1.5406426769 2.1253776047
C 1.1609471323 -2.0374732080 1.3208648070
C 0.7506396787 -3.0573025398 0.3062733792
C 0.0090838988 -4.2731588258 0.6766299597
O -0.6529807471 -3.1960964630 -0.0046153018
H 0.1929674674 2.0883157342 0.5881017985
H -1.0280980939 1.7434393759 -0.6447357113
H -1.2729418374 1.1954932028 1.0244945891
H -0.5733638760 -0.7118520794 -0.4328628658
H 0.8784848169 0.1447971111 -0.9060562297
H 1.7031655958 0.1055492097 1.4870164229
H 0.4586450525 -1.1361004082 3.2298295159
H -1.3767559917 -2.0703873977 1.3312529645
H 2.1092556318 -2.3005865914 1.7855829229
H 1.3788712474 -3.1160632607 -0.5837247114
H 0.1190048493 -5.1816904964 0.0883560700
H -0.2923118281 -4.4109169802 1.7126321632