18

C -0.2334327106 1.4968749160 0.0025422092
C 0.0598577512 -0.0100977463 -0.0337550625
C 0.8619128444 -0.3961094897 -1.2963510864
O 0.2043770750 -0.0285153401 -2.4960544741
C 0.7814029013 -0.4817073269 1.1963260259
N 0.2987003519 -1.4817442842 1.8983196287
O 1.1971086062 -1.6889599806 2.9431394376
C 2.1955436777 -0.8033519080 2.8334067600
C 2.0072958082 -0.0042417004 1.7548201349
H 0.6906024126 2.0765882021 0.1054593536
H -0.7138557119 1.8004120217 -0.9302395581
H -0.8881773046 1.7527952878 0.8399159643
H -0.8899497520 -0.5591772040 -0.0664452762
H 1.8185486289 0.1387753436 -1.3060350950
H 1.0866668107 -1.4722443566 -1.2718462403
H -0.5796361702 -0.5803316770 -2.5844678511
H 2.9613902317 -0.8611427940 3.5915956272
H 2.6340283594 0.8007180666 1.4095029523