20

C -0.2531219602 1.4200175355 -0.1522638828
C 0.2649460091 -0.0053602712 0.0669338056
C 0.9056185735 -0.5791735262 -1.1764324233
C 0.8885270503 -2.0396655405 -1.4239027031
N -0.0434896457 -1.0970074564 -2.1800050533
C 0.7632404364 -1.3554501453 -3.4302884285
C 1.6508491352 -2.3572781711 -2.6863141987
C 3.0040820183 -2.8701986932 -2.9037536080
O 1.8397545885 -3.6772086352 -3.1527395318
H 0.5612247946 2.1013194755 -0.4232937139
H -0.9903523153 1.4373119804 -0.9600663285
H -0.7266749551 1.8115959199 0.7528555243
H 0.9977976954 -0.0220751573 0.8836266904
H -0.5613906863 -0.6588313966 0.3681881075
H 1.7615365428 -0.0141274324 -1.5516122646
H 0.5222526127 -2.7674103688 -0.7067749122
H 0.1450528164 -1.8441777029 -4.1867243380
H 1.2300485941 -0.4592946866 -3.8526050775
H 3.5612493446 -2.5742139679 -3.7917392126
H 3.6116949507 -3.1776229596 -2.0535473511