23

C -0.0758781173 1.4058263380 0.0465308245
O -0.0409880835 -0.0002346326 0.0861026209
C -1.3153783529 -0.6366297596 0.0509504327
C -1.8967426513 -0.6390953677 -1.3650201864
C -1.0961964096 -2.0556949061 0.6125753726
C -0.6210711794 -2.0529077755 2.0934646987
C -1.8509146044 -2.4668755202 2.9447629526
C -2.7832254038 -3.0757891742 1.9255964276
C -2.3717306033 -2.8694505480 0.6758508033
H 0.9508550640 1.7569215324 0.1803537830
H -0.4521096836 1.7983787266 -0.9097803140
H -0.6989061627 1.8209860717 0.8548107961
H -2.0047110813 -0.0967080137 0.7235437610
H -2.8960272752 -1.0832146162 -1.3752406475
H -1.9856734839 0.3766129789 -1.7605962491
H -1.2522455724 -1.2121359204 -2.0398989632
H -0.3469701441 -2.5257811196 -0.0378068403
H 0.1750748605 -2.7921809724 2.2190589262
H -0.2029770168 -1.0855817136 2.3777111351
H -1.5853496256 -3.1695478921 3.7431707577
H -2.3238507045 -1.6096531079 3.4443346845
H -3.6890220220 -3.6047090566 2.2032694638
H -2.8906819470 -3.2128877712 -0.2121726997