17

C 0.2874971537 1.6238319268 0.8536447983
C 0.1041638552 0.1398281991 0.5393811347
C 0.2878538431 -0.2609326054 -0.9459225055
O 1.5195968496 -0.9851629903 -0.5948547956
C 1.3398412811 -0.7255564139 0.7380069647
N 1.9573292866 -1.1028054851 1.7615923446
N -1.0565302167 -0.4335471397 1.1988907069
C -2.3224751550 -0.1901861631 0.7751191009
O -2.5995488710 0.4719704928 -0.2052633045
H 1.1747337199 2.0206699095 0.3518644379
H -0.5900172908 2.1794241730 0.5150442079
H 0.4109834791 1.7645021773 1.9307268932
H -0.4625472964 -0.9405206612 -1.3476730953
H 0.4959369445 0.5530864264 -1.6411131414
H 2.7420248121 -1.7149758506 1.5327244072
H -0.8960365364 -0.9649238998 2.0415314986
H -3.0822548885 -0.6766758858 1.4168410473