19

C 0.0329243094 1.4611899164 -0.0318204451
C 0.0160450066 0.0068012767 -0.0087870748
C 0.0093676253 -1.1971443949 0.0027747864
C -0.0308780091 -2.6342597747 0.0498192210
C 0.2081741709 -3.4757350421 1.3406572501
C -0.3965850404 -4.5904869860 0.4341391227
C -1.3249552805 -3.4815207076 -0.1476713083
C 0.6700551555 -4.6481473265 -0.6643846760
O 0.8880415732 -3.2386266621 -0.8944115196
H 0.7493595750 1.8330386911 -0.7724907369
H -0.9514839132 1.8676013717 -0.2890475746
H 0.3192797024 1.8723537982 0.9425203544
H 1.2439501344 -3.5734313416 1.6735632223
H -0.4476923351 -3.1870806983 2.1626306842
H -0.7758165160 -5.5317524299 0.8284452014
H -2.1282423857 -3.1934223628 0.5311892312
H -1.6880343391 -3.5844962859 -1.1727432326
H 1.6034298785 -5.1249278522 -0.3421073778
H 0.3221073780 -5.1297625394 -1.5859864878