19

C -0.1025266841 1.5722077498 0.0893712337
C -0.0171749303 0.0415235287 0.0677971283
C 0.7930459920 -0.5106542177 1.2003446643
O 0.3542426254 -0.2307608530 2.5820088250
C 1.5623815570 -1.0443011455 2.7328778542
C 1.1379923789 -2.0063602156 1.5739834851
C 2.3910631428 -2.3838740498 0.8134615782
C 3.1381188901 -1.2735039263 0.8277522680
C 2.3072965465 -0.2689638322 1.5966991010
H 0.8873620265 2.0245062564 -0.0288010094
H -0.7381167293 1.9383298002 -0.7218624369
H -0.5189247886 1.9207629026 1.0382207970
H -1.0223050196 -0.3943402874 0.1240169575
H 0.4308916519 -0.3107161138 -0.8696188382
H 1.8941261479 -1.2800437656 3.7471303206
H 0.3248997488 -2.7122250520 1.7369995909
H 2.6036741092 -3.3441772228 0.3644612072
H 4.1128702115 -1.1008553483 0.3929597348
H 2.6549730835 0.7454025223 1.7849323185