14

O -0.0875357847 -0.1163931655 -0.0213349083
C 0.0098187988 1.0800124371 -0.0866925477
C 1.3320827297 1.8351089323 -0.1458638282
C 1.3254649920 2.8899137131 -1.2131454278
C 1.8465519904 2.7894911872 -2.4673356462
O 1.6275658273 3.9271260714 -3.1758949330
C 0.9452746837 4.7735891709 -2.3623138905
C 0.7297932398 4.1986360757 -1.1518892924
H -0.8911252100 1.7347899078 -0.1108520381
H 1.4817637728 2.3002374469 0.8389228671
H 2.1322034946 1.1051224936 -0.2918878894
H 2.3873973870 2.0110943084 -2.9803054184
H 0.6972669480 5.7325586089 -2.7860415396
H 0.2220342206 4.6440612423 -0.3100556274