21

C 0.0091762318 1.3464288841 0.0091094354
O -0.0406019670 -0.0849687071 0.0019452427
C -1.2853069234 -0.6165908448 0.0109569930
O -2.2869512916 0.0433044660 0.0240592192
C -1.2068184152 -2.1568442938 0.0020579635
C -0.4807915430 -2.6099202569 -1.2794442816
C -0.4563839068 -2.6233737362 1.2645348831
O -2.5664139258 -2.5614173293 0.0130169551
C -2.8353980940 -3.9450742782 0.0076560477
H 1.0675709258 1.6074729336 0.0003995258
H -0.4934549805 1.7542722792 -0.8715752168
H -0.4765099899 1.7447989139 0.9035311156
H 0.5067100232 -2.1493344052 -1.3387269428
H -0.3507894192 -3.6955525373 -1.2884626938
H -1.0584927408 -2.3215051517 -2.1623822457
H -1.0169729274 -2.3442681794 2.1613828123
H -0.3264464469 -3.7090401815 1.2596370444
H 0.5321704313 -2.1634409298 1.3096828440
H -2.4553111436 -4.4510074497 -0.8908794511
H -2.4369880736 -4.4615139369 0.8921664153
H -3.9239437631 -4.0401106890 0.0182905351