21

C 0.0055708167 1.3925970209 0.0086438568
O -0.0172932106 -0.0142476356 -0.0105615857
C 0.6676676601 -0.5592153649 -1.1111752558
C 0.6446084931 -2.0914083691 -0.9973892014
C 1.1926670630 -2.7361638726 -2.2884056269
C 1.0887221782 -4.2557065594 -2.2987900778
O 1.5736080811 -4.7050236376 -3.5559297581
C 1.3737753870 -2.5389803128 0.1891059619
C 2.0000277127 -2.9121298678 1.1451107987
H 1.0334431534 1.7836455536 0.0693520381
H -0.4720017639 1.8228723680 -0.8863938929
H -0.5481319868 1.7158238017 0.8932868481
H 0.1845682418 -0.2590561835 -2.0567555131
H 1.7102528166 -0.2018737468 -1.1421599446
H -0.4100364120 -2.3783209861 -0.8826250655
H 0.6337686545 -2.3451118769 -3.1461332469
H 2.2418641822 -2.4539048025 -2.4292963774
H 1.6739821290 -4.6734361246 -1.4675545370
H 0.0384578070 -4.5562238448 -2.1463525055
H 1.5849563213 -5.6662952974 -3.5457189498
H 2.5383518556 -3.2360446718 2.0010432150