13

O -0.0707893628 -0.0849291596 0.0043992992
C -0.0246787022 1.1387957148 0.0091896381
C -1.2404064193 1.9754372246 0.0307629893
N -1.2723701537 3.2728707142 0.0376610602
N -0.0947469400 3.9105967086 0.0242864548
C 1.1304419054 3.2908265923 0.0040955625
C 1.1968323555 1.9275003595 -0.0036559804
C 2.2626828231 4.1517350368 -0.0073727417
C 3.2026128057 4.9022774888 -0.0166243784
H -2.2032793165 1.4738732955 0.0419056205
H -0.1542717865 4.9163459489 0.0301315405
H 2.1559536400 1.4271661381 -0.0194473250
H 4.0441031914 5.5514518976 -0.0248683595