18

C -0.0157102000 1.5330150791 0.0168202622
C -0.0161652625 0.0235371460 0.0166499086
C -1.3161663739 -0.7185627206 -0.2683338352
C -1.3314053679 -1.9410732117 0.6644613780
O -2.1809926079 -2.7956803836 0.7517683861
N -0.1494167033 -1.9077869824 1.3775763773
C 0.6937365079 -0.7835329323 1.0977254951
C 1.2615366788 -0.7363267030 -0.3059924503
O 1.2460802437 -1.8646497943 -1.1201642671
H 0.9656278082 1.9306575807 0.2955842424
H -0.2612044504 1.9259017364 -0.9762985013
H -0.7497895614 1.9321024714 0.7263337401
H -2.1956429135 -0.1003870668 -0.0649784299
H -1.3886443662 -1.0717614564 -1.3012827002
H 0.0695246987 -2.6257241124 2.0496709251
H 1.2014218906 -0.3269675404 1.9406408583
H 2.1511298701 -0.1281332991 -0.4544816763
H 1.0199165789 -2.6254625806 -0.5709550730