19

O 0.0091894842 1.4353643173 -0.1338200592
C 0.1106904779 0.0544671244 -0.0491130778
C 0.0194177063 -0.6063081405 1.3402835016
O -1.4243266818 -0.1494237309 1.3860529648
C -1.2183403656 -0.7785861025 0.0408684727
C -2.0886034671 -1.2891693326 -1.0694641401
C -1.1777155710 -2.4765499668 -1.5843885688
C -0.0266121341 -2.7510707020 -0.5228782114
C -0.4841934673 -1.9315413445 0.6879405112
H -0.6881152336 1.6679274254 0.4977056935
H 0.8914621757 -0.2760676381 -0.7343640587
H 0.5894490521 -0.4307344921 2.2538385445
H -3.0398162171 -1.6646663878 -0.6800678127
H -2.3018084467 -0.5579207600 -1.8530075740
H -1.7859406903 -3.3718529881 -1.7331649187
H -0.7433614718 -2.2284203178 -2.5559104780
H 0.0578313025 -3.8159617372 -0.2957002866
H 0.9401723893 -2.4368497153 -0.9223801106
H -1.1196117918 -2.4888427309 1.3796951385