21

C 0.0629967550 1.4824068073 0.0812629934
C 0.0443384515 0.0263113972 0.0668683181
C 0.0421210904 -1.1778677270 0.0545622216
C 0.0037905968 -2.6355328341 0.0391267701
C -1.4243376282 -3.1989751803 -0.1072956727
C -1.4658213477 -4.7245192280 -0.0567924689
O -0.9379434868 -5.2406419038 1.1742233511
C -2.8693583185 -5.2970661971 -0.2690500520
O -2.8638598409 -6.7029291393 -0.1578121332
H 0.6696502824 1.8817909034 -0.7391708380
H -0.9464154522 1.8955368328 -0.0243700261
H 0.4804782535 1.8677953433 1.0182097217
H 0.6241018957 -3.0156814659 -0.7837245418
H 0.4487490978 -3.0370785245 0.9571443606
H -2.0600761301 -2.7883610075 0.6890627723
H -1.8584542021 -2.8560625222 -1.0534958143
H -0.8048382867 -5.1440519320 -0.8252752197
H -1.4181629010 -4.8164474445 1.8962642856
H -3.5589414750 -4.8354676005 0.4629388603
H -3.2391647113 -5.0439013032 -1.2688095355
H -2.2680455629 -6.8966369943 0.5779544174