21

C -0.3286472589 1.3828664314 0.0896814782
C 0.4548757453 0.0921897197 -0.0806307425
O 1.2343591185 -0.2694796067 0.7789871099
C 0.2202973594 -0.7093574350 -1.3348775010
C -0.4936403864 -0.0279112204 -2.4904125190
C 1.2875504081 -1.7427836093 -1.6679185253
C -0.0371326467 -2.2171278950 -1.1722346896
C -0.1857513372 -2.9049865609 0.1621059418
O 0.0428354999 -4.2929874636 -0.0665258183
H -0.0849641602 2.0958959223 -0.7050926587
H -1.4062959401 1.1959229029 0.0263513595
H -0.0859350315 1.8202343372 1.0583466067
H 0.0489263437 0.8595795570 -2.8347229491
H -0.5713471170 -0.7108958093 -3.3410190424
H -1.5103880818 0.2814978665 -2.2267078393
H 1.5381877827 -1.8744257619 -2.7148265505
H 2.1199219664 -1.7936641905 -0.9753126101
H -0.7172435093 -2.6140611919 -1.9222158414
H 0.5265705261 -2.4906224270 0.8829289388
H -1.2024402584 -2.7376221682 0.5556461171
H 0.0437999476 -4.7340000673 0.7880133053