20

C -0.3070705935 1.4677286429 -0.0741008229
C 0.2068335165 0.0234042101 0.0042377196
C 0.8546640364 -0.4446256038 -1.2653802393
C 1.1010561428 -1.8602698483 -1.7743345087
C 0.1076258852 -0.9896082638 -2.4894851206
N 1.0001627161 -0.6613913416 -3.6447440212
C 1.5146355832 0.7246274409 -3.3301470234
C 2.0808668144 0.1458906888 -2.0203760346
C 2.1208342268 -1.2381380654 -2.7506479863
H 0.5073427094 2.1649466521 -0.2979378450
H -1.0621749871 1.5760193608 -0.8593328083
H -0.7571754443 1.7770586104 0.8740929308
H 0.9159846420 -0.0654546731 0.8382804840
H -0.6245773012 -0.6519965999 0.2460029086
H 1.0030697745 -2.8307599873 -1.3069267199
H -0.9696937469 -1.0620912069 -2.5731214458
H 2.2890710124 0.9932440302 -4.0554847009
H 0.7517338560 1.5081571730 -3.2874579117
H 2.9005884553 0.5799262635 -1.4469548415
H 2.9851301317 -1.6976921225 -3.2264227028