17

C 0.4801179511 0.6473740832 0.3515512242
N -0.6432114785 0.4877091074 -0.5676214807
C -1.5458772616 -0.5900437493 -0.2852555655
C -0.9853441075 -2.0736287085 -0.4803885818
N -1.3715057071 -2.2867132001 0.9235280969
N -1.5852845575 -3.1302572074 1.9541527639
C -2.1924395437 -2.2871903528 2.8006568605
N -2.3997088555 -0.9999227176 2.3644458195
C -1.8569777221 -1.0725299084 1.1597191786
H 1.0619152866 1.5217453584 0.0495825687
H 0.1801574750 0.7679513992 1.4038687111
H 1.1426976533 -0.2221376678 0.2897817928
H -1.1581079736 1.3557467690 -0.6465800626
H -2.4581422993 -0.4404441081 -0.8682886279
H -1.5385136253 -2.6908653964 -1.1916320882
H 0.0879856928 -2.1451326286 -0.6653140844
H -2.4972648871 -2.6183471722 3.7828351649