21

C -0.0718181720 1.5136926236 -0.1002574512
C 0.0557870634 0.0011823098 0.0140866709
O 0.9199553384 -0.5206126403 -1.0134980473
C 1.9231625009 -1.2186924283 -0.2849261436
C 2.9126183279 -1.8402989706 -1.2329502080
C 1.2641288521 -1.9681301043 0.9237191335
C 2.5307265087 -1.7068891588 1.7693091010
C 2.3165045899 -0.3918454904 0.9858104684
C 0.7760449262 -0.5181057757 1.2519559285
H 0.8989578207 2.0000614636 0.0348682422
H -0.4575831839 1.7895948291 -1.0858689531
H -0.7627911714 1.8996571023 0.6570930229
H -0.9356821767 -0.4625934654 -0.0928183375
H 3.3824626101 -1.0670559691 -1.8484430739
H 3.6966649493 -2.3810780469 -0.6977675187
H 2.4043391437 -2.5396119318 -1.9037622841
H 0.6485632416 -2.8686153295 0.8834960180
H 2.3794692919 -1.6488474247 2.8500450287
H 3.4234444338 -2.2928476447 1.5369461582
H 2.9168609859 0.5186863267 1.0197923933
H 0.3740149595 -0.2907415245 2.2398346818