19

C -0.0977127900 1.5904331415 0.0420679706
C 0.0778731665 0.0915246206 0.1167385160
O -1.0895223541 -0.6180425421 -0.2678845186
C 1.3425190139 -0.6847107182 -0.2352109795
C 2.5989682916 -0.0582619084 0.3417644131
O 2.9840491180 1.1672002591 -0.2544543233
C 1.9606785429 -0.0376022046 1.7790222266
C 0.7264121834 -0.7056639155 1.2025543320
O 0.0578312382 -1.6805747457 1.8992460071
H 0.8117047025 2.1147342518 0.3350291805
H -0.3243971407 1.8910392563 -0.9884496903
H -0.9304078744 1.9084007030 0.6780986638
H -1.1735781832 -0.5732345148 -1.2260569966
H 1.3210938194 -1.4182419830 -1.0340008412
H 3.4291155620 -0.7757644843 0.3090927372
H 3.7915148270 1.4677342014 0.1752481937
H 2.4904119458 -0.6889469338 2.4776352366
H 1.8180494235 0.9454334441 2.2380317553
H -0.7586465122 -1.8460640475 1.4066114170