19

C -0.0444984524 1.5367740109 -0.0605714154
C 0.0597494949 0.0189588902 -0.0797058101
C -1.1494386783 -0.6578117656 0.5532193861
C 0.6917058307 -0.7506560497 -1.1875788989
C 1.3710780945 -0.7048261387 0.2343375356
C 2.5438748003 -0.0771411786 -0.4268486812
O 3.7118497455 0.0050206490 -0.1488029902
C 1.8618154448 0.0052727468 -1.8277602756
O 2.5804315114 -0.7786671760 -2.7533924216
H 0.8473520481 2.0361611316 -0.4428015504
H -0.8999630971 1.8695266788 -0.6593778778
H -0.2020989835 1.8867215804 0.9651495464
H -2.0638934509 -0.3797692016 0.0182324226
H -1.0629562614 -1.7479095108 0.5297617481
H -1.2659057321 -0.3479088832 1.5971130596
H 0.2376619774 -1.6218909154 -1.6420609396
H 1.4214473545 -1.4532848888 1.0168330484
H 1.6271440633 0.9930412273 -2.2433301816
H 3.5176318304 -0.6386483067 -2.5677119146