19

C -0.0906015128 1.5665859109 -0.1780109538
C -0.0007677897 0.0505128767 -0.0326728128
O -1.3048141971 -0.5199536548 0.0856424723
C 0.7931459510 -0.6168108753 -1.1841238543
O 1.4266227117 -1.7542575872 -0.6313833066
C 1.9151358064 -1.3307845802 0.6252818093
C 0.7748115325 -0.4690923735 1.2344139338
C 1.2498996963 0.5366571290 2.1667341139
C 1.6709765510 1.3547676857 2.9410530082
H 0.8983787837 2.0316793541 -0.1730076622
H -0.5802142647 1.8263442027 -1.1251205088
H -0.6731870868 1.9928260943 0.6418206517
H -1.8384017236 -0.1967049677 -0.6485136782
H 0.1404056437 -0.9444801205 -1.9975657977
H 1.5418289003 0.0864437232 -1.5870151357
H 2.1511007317 -2.2136744474 1.2222615933
H 2.8262648757 -0.7217110366 0.5135946300
H 0.0690221033 -1.1305692043 1.7452980771
H 2.0347335674 2.0743508209 3.6319987204