19

C 0.0126801033 1.5634628846 -0.2208105005
C 0.0645056812 0.0570917516 -0.0938092180
C 1.3958150172 -0.6724385595 -0.0359040713
O 2.5895701020 0.0534290871 0.0271109219
C 0.5324233777 -0.6011727821 1.1816510163
C 0.9412086759 0.0959841656 2.4919662762
C 0.3462135409 -1.1136328152 3.2382123526
O 0.2651689632 -1.4160664053 4.3919376332
C -0.1033908546 -1.7894709959 1.9250448806
H 0.8914912138 2.0253906897 0.2360857724
H -0.0178953928 1.8683100413 -1.2730698685
H -0.8787653423 1.9743833382 0.2651520560
H -0.7240724637 -0.4739810002 -0.6239739208
H 1.4722084587 -1.6338373992 -0.5463258342
H 2.7837068916 0.3955179797 -0.8521118978
H 2.0160899316 0.2395830130 2.6355726174
H 0.4322152976 1.0392487900 2.7175926890
H -1.1918442407 -1.8791841303 1.8366447929
H 0.3423282494 -2.7740128933 1.7475861925