16

N 0.0245542348 1.3213356070 0.0723296422
C -0.0562294354 -0.0454110713 -0.0043776721
N 1.1476548799 -0.7263756360 -0.0703150279
H 1.9372441496 -0.1671497767 -0.3610659090
H 1.1069403566 -1.5884891813 -0.5943002671
C -1.2806272381 -0.6848281707 -0.0122772344
C -2.5933879434 -0.1862751936 -0.0957066948
C -3.5422651324 -1.2763430215 -0.0519694551
O -4.7790531284 -1.2852512873 -0.1137937549
C -2.6649482156 -2.4392466793 0.0878048096
H -2.9526396115 -3.4720374176 0.2294290807
N -1.3607597333 -2.0872669858 0.0493511544
H 0.8825477442 1.7067110324 0.4388906754
H -0.8026425673 1.7726334608 0.4355625483
H -2.8603596111 0.8427255333 -0.2910788273
H -0.6380237987 -2.6514187724 0.4715377117