15

O 0.0602820713 1.4274930213 -0.0378982878
C 0.1080385958 0.0271475318 -0.0163089171
C -1.2535089256 -0.6796392658 -0.0105272672
O -1.9544374488 -0.0981665176 -1.1223952336
C -1.0655083442 -1.1911760983 -1.3788297439
C 0.3731569773 -0.6218981199 -1.4627445846
O 0.6274425604 0.3126672222 -2.4693848842
C 1.3650445117 -1.6883657153 -1.4207000904
C 2.1629586592 -2.5860820473 -1.3667518400
H -0.7789983064 1.6526701782 -0.4670884248
H 0.8265361026 -0.2935168979 0.7370372277
H -1.8443514242 -1.0527835204 0.8169307881
H -1.4748147618 -2.0665991697 -1.8677062216
H 0.7347101914 1.1614526303 -2.0136392634
H 2.8788327413 -3.3700924615 -1.3316965772