19

C 0.0897732742 -1.1435649057 -0.3767591024
C 0.0025974447 0.0496992266 -0.2283512352
C -0.0351170054 1.4554362347 -0.0596062586
C -1.1277142042 2.2051700705 0.1594556231
C -0.7926686201 3.6617593045 0.3474609888
C 0.6973133578 3.7505257409 -0.0778792386
C 1.2055007320 2.3025713121 -0.0716064134
C 2.4323656553 1.8710136252 0.7064496154
C 2.4570342576 1.8858077975 -0.7996630542
H 0.1434934400 -2.1962020075 -0.5045917066
H -2.1339805908 1.8115369603 0.2370978380
H -1.4358997077 4.3224031829 -0.2447532141
H -0.9402861222 3.9555690935 1.3965633310
H 0.7668098642 4.1601525186 -1.0915218280
H 1.2832039649 4.4020310350 0.5758723833
H 2.9816044398 2.6398734549 1.2402491244
H 2.4042468304 0.9068002492 1.2026584973
H 2.4481952121 0.9313612879 -1.3152071946
H 3.0259594275 2.6645791589 -1.2978238757