16

N 0.1147784530 -1.1464173680 0.3373140166
C 0.0448448859 -0.0048333641 0.1631204600
C -0.0118737570 1.4328629953 -0.0211056762
C -0.3598561180 2.3154888959 1.2256725239
N 0.8852322822 3.1201780614 1.0641016627
C 2.0174225865 2.6171630871 1.9107662217
C 2.5205541782 1.6857450793 0.7726149185
C 1.3381801976 2.2167320252 -0.0636378864
H -0.6450903136 1.6591670278 -0.8817983861
H -1.2688104201 2.9099654211 1.1044918632
H -0.4205666064 1.7654482040 2.1699658656
H 2.7044961185 3.4241213935 2.1792706667
H 1.6923810378 2.1201276533 2.8309362232
H 3.5008493114 1.9432033590 0.3678614653
H 2.5005286693 0.6139295687 0.9817615655
H 1.5709330149 2.6775867905 -1.0265389541