21

C -0.0029812606 1.5283516938 0.0012900121
C 1.3078152111 0.7760114767 0.0534135166
C -0.0038984027 0.0241025423 0.0063260746
C -0.4317575741 -0.7183109039 1.2610167672
C 0.2669145659 -2.0846324919 1.3445859385
C 0.1061874642 -2.8783006085 0.0673622470
O -1.2113939911 -2.9224067574 -0.4892201277
C -0.1963007195 -2.2024250160 -1.2060615692
C -0.3790748774 -0.6947663452 -1.2845622523
H -0.3317382651 2.0456299662 0.8968565919
H -0.2610196904 2.0369177177 -0.9224426904
H 1.9344408307 0.7809672046 -0.8325438842
H 1.8624945434 0.7857837258 0.9864790359
H -0.1954128695 -0.1270153775 2.1520727615
H -1.5175607452 -0.8677167818 1.2511579521
H 1.3407961515 -1.9465236041 1.5266905689
H -0.1246260517 -2.6670276914 2.1874821691
H 0.6343006730 -3.8328442002 0.0333376301
H 0.1030535970 -2.6927489831 -2.1329449537
H -1.4313988211 -0.5016734958 -1.5332385445
H 0.2147133014 -0.3026100603 -2.1179383834