18

C 0.3451774808 1.6227080531 -0.3715910541
C 0.1493631522 0.1616200896 -0.0632338030
O 1.3188741048 -0.6626631551 0.0486823287
C 0.4932075880 -0.4966107666 1.2068148615
C 1.1269574190 0.1905211048 2.3930751203
O 0.0935007134 0.5386558953 3.2953308801
C 2.1325265375 -0.7326087697 3.0907119060
O 2.5454697870 -0.1631116068 4.3316475594
H 1.1509873805 2.0629216308 0.2186602825
H 0.5921733051 1.7525100163 -1.4304540188
H -0.5775022867 2.1769863060 -0.1704113658
H -0.6502878139 -0.3116091307 -0.6371793276
H -0.0832244438 -1.3819559198 1.4845489402
H 1.6690591937 1.0885514036 2.0517935310
H 0.5203602696 0.5966695875 4.1613578928
H 1.6448017448 -1.6782999532 3.3494410863
H 2.9818262352 -0.9480731180 2.4305099170
H 3.1413047327 0.5690295630 4.1392184136