21

O 0.1287476123 0.0953860498 -0.3534233538
C 0.0486194318 1.2694211368 -0.1262831013
C -1.1253833140 2.2272582039 0.1339811809
C -0.0912302601 3.2210393792 0.7448320103
C 1.0890001659 2.3629648849 0.1828997328
C 2.2703505736 1.9914544772 1.0797319521
C 3.2540383124 1.0653151884 0.3936185530
C 4.3522821881 1.6337768871 -0.4712491151
C 4.6851555552 0.9963820989 0.8567393270
H -1.5712864704 2.5813884266 -0.8013336512
H -1.9240255515 1.8460668382 0.7750413857
H -0.1454808078 4.2519154412 0.3930824002
H -0.1128029155 3.2192790134 1.8376365396
H 1.4575757616 2.7814404220 -0.7628875745
H 2.7845015281 2.9093373646 1.3949942818
H 1.8903860476 1.5196014566 1.9960208268
H 2.8108665525 0.1354901811 0.0510005373
H 4.6232945056 1.1074076376 -1.3797046246
H 4.4344708774 2.7140662635 -0.5446334564
H 4.9876796112 1.6507361486 1.6683562075
H 5.1827400060 0.0329199406 0.8569973620