23

C 0.0042538278 1.3266517268 -0.4260580899
C 0.3425659820 -0.1264882502 -0.1818630686
C 1.7617744070 -0.5446686851 0.1579968960
C 0.6901685077 -0.6411523724 1.2027588421
O 0.8429786532 0.3216788140 2.2235644287
C 0.1307993032 -1.9534676613 1.6950823670
C -1.2744897992 -1.8413228422 2.2635438751
C 0.4936714819 -3.2456669907 1.0032072290
C 1.0787594807 -2.9247712927 2.3570337518
H 0.5247404207 1.9693985336 0.2885824615
H 0.2949397451 1.6360293187 -1.4358858791
H -1.0719391222 1.5101998999 -0.3236152089
H -0.2055576783 -0.8346515190 -0.7991092522
H 2.1715728207 -1.4412635660 -0.2919374538
H 2.4828357586 0.2506320965 0.3147495584
H -0.0352980462 0.6075478546 2.4971712202
H -1.9798508512 -1.4706681687 1.5103480835
H -1.6377340257 -2.8126980485 2.6118810674
H -1.3049766728 -1.1612150159 3.1232233231
H -0.2755475012 -4.0089709255 0.9454388106
H 1.1530282715 -3.2266478939 0.1432778899
H 2.1264081348 -2.6486310951 2.4006523701
H 0.7266224520 -3.4836145970 3.2177604181