17

O -0.0471120550 1.3477580753 -0.0280596284
C 0.0063269107 -0.0377494696 -0.0439913568
C 0.8962357451 -0.7143955817 -1.0821024893
O 0.3548650783 -2.0150168663 -1.2709679777
C -1.0487718677 -1.9693547612 -1.0028753295
C -1.2386142577 -0.8527323411 0.0052585497
C -0.3201882431 -0.8147864227 1.2361897429
C 0.4715922410 -1.9653374601 1.7409844567
O 0.7015552155 -2.1317686211 2.9172042667
H 0.7276311472 1.6790301724 0.4396909323
H 0.8543211580 -0.1108753456 -2.0023781956
H 1.9445150451 -0.8322318467 -0.7882125275
H -1.6190385193 -1.7387587976 -1.9160750580
H -1.3455422950 -2.9623957316 -0.6527929129
H -2.2093114099 -0.3836214547 0.1081846110
H -0.6927341964 -0.1783982170 2.0332568414
H 0.8525571232 -2.6668914607 0.9739592751