14

C 0.0030291173 1.3683762644 0.0949149442
N 0.0052886705 -0.0802039123 0.0537590428
N -0.0717566531 -0.7612681913 -1.0736433771
N -0.0436055304 -2.0329820690 -0.7385528127
C 0.0513659308 -2.0457195933 0.6077046698
O 0.1100112226 -3.1367208276 1.3843647616
C 0.0715793733 -4.3717838614 0.7817440873
N 0.1270699937 -5.3824686275 1.5249514327
N 0.0851817540 -0.8350759411 1.1484858188
H 0.9277414705 1.7242452024 0.5535548541
H -0.0709363756 1.7202010728 -0.9331299507
H -0.8504319764 1.7178804113 0.6793226183
H -0.0049168511 -4.3181947967 -0.3046761915
H 0.0901651140 -6.2290420306 0.9601092425