18

C -0.0378912742 1.5581867027 0.1171383503
C 0.1268676044 0.0630685897 0.0109908842
N -0.7755619740 -0.8250360013 0.7659189284
C 0.6722552129 -0.7958191074 1.1265709051
C 1.3266900777 -2.0007141523 0.5105141199
C 1.3418218919 -1.8256726024 -0.8095121491
C 0.8593882201 -2.4656248601 -2.0891948293
O -0.0366499375 -1.3235286540 -2.2544651434
C 0.7133891287 -0.5430697724 -1.2595552700
H 0.8490393155 2.0810605759 -0.2564814205
H -0.8963031650 1.8975264549 -0.4739519073
H -0.1990294263 1.8714000386 1.1539104298
H -1.2916118343 -0.2468855540 1.4285461283
H 0.9640768298 -0.3743248456 2.0832000792
H 1.4823119668 -2.9259362055 1.0523474580
H 1.5833260586 -2.5208889808 -2.9129256281
H 0.3194338450 -3.4134432190 -2.0010247917
H 1.3472185497 0.1894203329 -1.7793757038