21

C 0.0200604772 1.4469662388 -0.1038293033
C 1.3614525945 0.7662543344 0.0119356158
C 1.9538749682 0.6316139926 1.4213243300
C 0.8011704266 0.0654762823 2.2003464834
C 0.2761933119 0.2322342154 3.4110791711
C -1.0667259610 -0.4668978101 3.5231860303
C -1.4599013034 -0.7048213882 2.0355776122
C -0.1097337540 -0.7357786688 1.2857673036
C 0.0830025360 -0.0609845453 -0.0684946006
H -0.3694220915 1.9727512718 0.7632208125
H -0.2229295619 1.9124443646 -1.0526268916
H 2.0429809374 0.8241775796 -0.8294238876
H 2.7999750250 -0.0693768788 1.3943577105
H 2.3280002394 1.5755263297 1.8318479025
H 0.7194447408 0.7918238793 4.2279002795
H -0.9792969800 -1.4162427556 4.0719125323
H -1.8099477479 0.1298403967 4.0643396923
H -2.0590804812 -1.6082922760 1.8925663188
H -2.0522242173 0.1445295525 1.6776920585
H 0.2531109749 -1.7727191291 1.2028897782
H -0.1612373038 -0.6070655257 -0.9729597583