16

C -0.2967340311 1.3626150497 0.3140504481
N 0.0553704467 -0.0199762831 -0.0046624535
C 0.5379187104 -0.4464617787 -1.2929579718
C 1.0447935432 0.5920762063 -2.2845947114
C 2.2017329344 1.3005936105 -1.5809572921
O 2.8025568167 2.2698788189 -1.9525622067
C 2.5251483539 0.5082914301 -0.2737184958
O 3.5166986860 0.6739837189 0.3874871995
C 1.4421116286 -0.5003479592 -0.0739021342
H 0.2477252816 2.1456447639 -0.2295891442
H -1.3638000956 1.4909306407 0.1092451735
H -0.1357516929 1.5187938537 1.3837898238
H 0.0894756246 -1.3570085108 -1.6809302369
H 1.4362862469 0.1053068073 -3.1860257469
H 0.2825497056 1.3050863616 -2.6126767765
H 1.6665190310 -1.4011595398 0.4882625451