17

O -0.1639592290 1.2782082702 0.1241931665
C -0.0500165263 -0.0881047521 0.0434411362
C -0.3572037090 -0.9603688574 1.1918386972
C -1.3409064521 -1.0221840198 -0.0002677497
C -2.6201480774 -0.3393281890 0.1375357509
O -2.7901174601 0.6267697789 0.8667749660
C -1.0281290780 -2.0424428799 -1.0364290918
C 0.1753159272 -1.8463912209 -1.5823186554
C 0.8680059420 -0.6067129293 -1.0557942838
H -0.9696049971 1.4728770739 0.6343003449
H 0.2191054098 -1.8639286614 1.3622792633
H -0.7486083355 -0.4691274960 2.0772577647
H -3.4465300214 -0.7095216386 -0.5042426715
H -1.7024084857 -2.8558011239 -1.2818978040
H 0.6387877978 -2.4925016883 -2.3187464044
H 0.9773204130 0.1601448454 -1.8321809237
H 1.8736344019 -0.8199323517 -0.6740645453