23

O -0.0729052495 1.4583511043 0.0945248282
C -0.0309312743 0.0606846546 0.0319891320
C -0.6134639870 -0.7545641350 1.1607609748
C -1.3360931407 -0.6517205137 -0.1717784277
C -2.6386045339 0.1134160794 -0.2805517545
C -3.8575106533 -0.7140424062 0.1536600629
C -5.1616006638 0.0462740472 0.0361308727
C -5.9025197656 0.0956045361 -1.2772844516
C -6.4706134758 -0.6844924247 -0.1157793225
H 0.5563559169 1.7427233378 0.7651224672
H 0.8436920492 -0.3410090763 -0.4803894515
H -0.1353731790 -1.6867032537 1.4422655571
H -1.0399861273 -0.1937981803 1.9870030467
H -1.2821765379 -1.5362839641 -0.8026768126
H -2.5714202389 1.0249943945 0.3224600035
H -2.7801898671 0.4472966208 -1.3166120139
H -3.9175374977 -1.6262979432 -0.4562374878
H -3.7158413443 -1.0511174210 1.1893655371
H -5.1987676401 0.9583540605 0.6280448340
H -6.3911778939 1.0192242230 -1.5674322083
H -5.4912722300 -0.4670172245 -2.1096815740
H -6.4411997452 -1.7681081047 -0.1716474233
H -7.3463867410 -0.2922370409 0.3896889115