23

C -0.1011332004 1.5625452987 0.0355424409
C 0.0344466304 0.0352842816 0.0078184619
C 0.6568425912 -0.4640636108 -1.3073750029
C 0.8745141958 -1.9783554187 -1.2685108338
C 1.9208585680 -2.3848840073 -0.2179266225
O 3.2443033774 -2.0689643482 -0.6604852239
C 1.6964020969 -1.6946231792 1.1256590151
C 2.2794872487 -0.3202940560 1.3577604939
C 0.7896171140 -0.4813950883 1.2255452779
H 0.8831589883 2.0408117240 -0.0118304709
H -0.6932775470 1.9225993557 -0.8131244538
H -0.5911311216 1.9018220185 0.9544917061
H -0.9786271917 -0.3921548877 0.0581868065
H -0.0003938089 -0.1930983273 -2.1412139311
H 1.6152382329 0.0363898163 -1.4932076069
H -0.0738622083 -2.4801501108 -1.0335505673
H 1.1892303541 -2.3552943086 -2.2508212765
H 1.8444271706 -3.4706999059 -0.0562264929
H 3.3823244826 -2.5180794302 -1.5011565454
H 1.7023385978 -2.3633182785 1.9799823049
H 2.6911291966 -0.1008962018 2.3367451524
H 2.8363945684 0.1143704026 0.5363843070
H 0.2273238342 -0.3951757880 2.1523452313