15

N 0.0561765733 -3.6459364926 -0.3293197339
C 0.0386788364 -2.4931784616 -0.1847225588
C 0.0182619667 -1.1390464535 -0.0148500013
C -0.0033739361 0.0599394440 0.1343583489
C -0.0027505890 1.5042106089 0.3180820288
C 1.3864263790 2.1179461708 0.1964900727
C 1.9396227253 2.4730306851 -1.1575954808
C 1.5246463383 3.5643410873 -0.2006712425
H -0.6727711057 1.9569231450 -0.4247571432
H -0.4353359478 1.7366379717 1.3005011726
H 2.0958330156 1.7418541038 0.9268719825
H 2.9968325907 2.3153474444 -1.3367533118
H 1.3121718816 2.2940234468 -2.0245615580
H 0.6192307707 4.1187119882 -0.4256665806
H 2.2964692410 4.1545280818 0.2799381455