20

C 0.0072566795 1.5214335878 -0.2334527746
C 0.0725225463 0.0263496120 -0.0428571666
N 1.4218514704 -0.5838531068 -0.0274140460
C 0.6083430204 -0.6084783269 1.1836244828
C 1.0210570049 0.0609646455 2.5063985472
C 0.2618965093 -1.0697001259 3.2222481282
O -0.1058330559 -1.2470246682 4.3472407809
C 0.0481737555 -1.8549422823 1.9098410038
C -1.3523928960 -2.3786191532 1.6175294240
H 0.8257565135 2.0142840337 0.2976387027
H 0.0917806606 1.7805557817 -1.2940569212
H -0.9421235149 1.9231787374 0.1375001024
H -0.7069190399 -0.5334792829 -0.5594604362
H 1.4064615717 -1.4938837672 -0.4831108149
H 2.1001498012 0.0359308546 2.6923812410
H 0.6544481246 1.0719389259 2.7052466265
H 0.7788914825 -2.6764836592 1.8715169394
H -2.0895884977 -1.5705965010 1.6457132645
H -1.4057981490 -2.8535566120 0.6323208988
H -1.6396450370 -3.1224602032 2.3665154575