13

C -0.1105436840 1.4505733744 -0.0969848964
C 0.3372448979 0.0201262309 -0.0680295312
O 1.2274747651 -0.4701401389 0.5509995634
O -0.4757648321 -0.7324110911 -0.9316711444
C -0.2412780949 -2.0496273221 -1.0082763948
N 0.2838360520 -2.6933857909 -1.9995650370
C 0.1830161254 -3.9860290204 -1.5459105130
N -0.3620352981 -4.1322639422 -0.3688158248
O -0.6583616468 -2.8099094383 0.0032347633
H 0.5305384322 2.0416323536 0.5549557270
H -0.0667805366 1.8318597377 -1.1207725067
H -1.1509395695 1.5183065207 0.2332219728
H 0.5261165895 -4.8405457533 -2.1107606084