14

O -0.9170102474 1.5372274648 -0.3287081941
C 0.1925029470 1.0827581829 -0.3740445706
C 1.4758814469 1.9126768195 -0.2158617383
O 2.5464404111 1.3404942631 -0.2758639620
C 1.3097276245 3.3195850370 -0.0058106062
C 1.1745691202 4.5085317751 0.1762560105
C 1.0225086549 5.9140376347 0.3667199848
C 1.9126529273 6.6101082377 1.3570158018
N 2.1024909013 6.8372902670 -0.0687411291
H 0.4185159077 0.0076612515 -0.5347441363
H 0.0229985373 6.3080517613 0.2080582301
H 1.4983846520 7.4486027408 1.9088500423
H 2.6283205015 6.0008615659 1.9004160751
H 2.8913514557 6.2914896086 -0.4085842081