11

C 0.0397991316 1.4980844497 0.0091282267
C -0.0400527639 -0.0485713664 -0.0149355282
C 0.7142059470 -0.6016415100 1.2048563756
O 1.8532480217 -0.9709744421 1.1506760731
C -1.4268343516 -0.5116520602 -0.0060761965
N -2.5207680901 -0.8824597432 0.0319253270
H 1.0865159297 1.8065761164 -0.0393184644
H -0.4957618891 1.9171231634 -0.8452010174
H -0.4063368960 1.8983029787 0.9236630144
H 0.4650521426 -0.4300067841 -0.9077006473
H 0.1348190482 -0.5897698820 2.1525056571