10

O 0.0237603325 -0.0489005443 0.0023261228
C -0.0181456723 1.1588849033 0.0097274057
C -1.2614962712 1.9395244132 0.0306265375
C -1.2119178365 3.2763286366 0.0370885425
O -0.0362343765 3.9585683719 0.0248921114
C 1.0938678603 3.2016092403 0.0056868873
N 1.1784957628 1.9365870889 -0.0022505319
H -2.2101803420 1.4188046221 0.0405994997
H -2.0613043941 3.9475971984 0.0520949283
H 1.9696602470 3.8450359296 -0.0027367034