18

C -0.0190312068 1.3630385595 -0.1152161210
N -0.0195886747 -0.0605807876 0.1135683513
C -1.1822978272 -0.9833977666 0.0215399843
C -0.7523712850 -2.1021129627 1.0116454237
C 0.3592196951 -2.2801045421 -0.0760751877
O 1.2202032162 -3.3463978736 -0.1532174981
C -0.7577355819 -1.9389340085 -1.1336497897
C 1.0462566421 -0.9044605857 -0.0025697647
O 2.2389746798 -0.6878801562 -0.0697707826
H 1.0209590640 1.6973933670 -0.1068019402
H -0.4628883495 1.6257812410 -1.0849279586
H -0.5662668815 1.8931973452 0.6719819954
H -2.1445003722 -0.4805895961 0.0687041700
H -0.4515250527 -1.7958900074 2.0157839055
H -1.4472153714 -2.9440669779 1.0392357397
H 2.1120404159 -2.9636652195 -0.1846804981
H -1.4488424184 -2.7689106990 -1.2967552764
H -0.4546900718 -1.4846728796 -2.0803771428