17

O -0.6799810875 0.9147341527 1.0014531988
C -0.0639599020 1.0271616742 -0.0287244592
C 1.3048884301 1.6833014035 -0.1109670012
C 1.4040474080 2.7667198079 -1.2027039877
C 2.6633401708 3.6598194598 -1.1208698747
C 3.1766234023 3.7120907241 -2.5371694017
C 2.5010003063 2.9123639625 -3.3706667973
C 1.4340108157 2.1980073563 -2.6378655570
O 0.7180986910 1.3181861940 -3.0628150659
H -0.4615726426 0.6539998894 -0.9928194104
H 1.5304631619 2.1019178721 0.8744982275
H 2.0422894152 0.8948066270 -0.3186487826
H 0.5135687850 3.4065210755 -1.1465988136
H 2.4517091571 4.6603435499 -0.7273714360
H 3.4246108269 3.2284040709 -0.4573441412
H 4.0232510211 4.3316483283 -2.8143080777
H 2.6914640003 2.7494113419 -4.4234169302