23

C -0.1244480771 1.5416707991 -0.0305033550
C 0.0302783997 0.0196327356 -0.0029874251
C 0.9552892166 -0.5581009530 -1.1094923082
C 2.0123252545 -1.2864352916 -0.2682450116
C 3.1086425938 -1.9933351319 -1.0372668615
C 1.2773399145 -1.9616121392 0.9506572762
C 2.5018231622 -1.6767647066 1.8517427499
C 2.3212189118 -0.4004690526 0.9961285722
C 0.7764329912 -0.5081797306 1.2225796258
H 0.8511466325 2.0382722016 0.0228135394
H -0.6161688176 1.8743537632 -0.9508225452
H -0.7246217633 1.8966738016 0.8146823406
H -0.9667000819 -0.4352410665 -0.0571103671
H 0.4340384038 -1.2433827681 -1.7874232419
H 1.4045236937 0.2281473943 -1.7285802884
H 3.6627155498 -1.2822011499 -1.6611981744
H 3.8304614413 -2.4944653492 -0.3865545862
H 2.6848388409 -2.7504616644 -1.7074649173
H 0.6628157392 -2.8652387118 0.9191725312
H 2.3007002079 -1.5736028704 2.9220200013
H 3.4021088555 -2.2735584445 1.6893010649
H 2.9263647862 0.5091477816 1.0206001159
H 0.3806528448 -0.2726247867 2.2135616645