18

C 0.0659256221 1.5139536690 -0.2449615082
O 1.4593465938 1.5520891959 0.2273809551
C 1.2607489314 0.2537567674 0.8217590149
C 0.4832299084 0.0986373864 2.1523978804
C -0.3878104731 -0.8597877322 1.2830173298
C 0.6574660931 -1.9908714729 1.0177523424
C 1.6302926887 -1.1250965399 0.1666721183
N 0.7104408120 -0.8591726573 -0.9971661617
C -0.0029041342 0.0004382579 0.0145085418
H -0.5856934350 2.1353453566 0.3789674933
H -0.0176940827 1.8329418546 -1.2889708648
H 0.9727531514 -0.3211753998 3.0340602364
H -0.0146205006 1.0334183949 2.4163434483
H -1.3971048159 -1.1623258216 1.5588579236
H 1.0842346006 -2.3724946180 1.9484257093
H 0.2760014311 -2.8145151959 0.4134492259
H 2.6316068045 -1.5120068491 -0.0271523990
H 1.1815685045 -0.2215355559 -1.6377783657