19

C 0.8122326131 1.0772343950 0.3795896823
C 0.3472229494 -0.2763378712 0.1116225762
C -0.0321130585 -1.3979472092 -0.1090479895
C -0.5319963328 -2.7443783480 -0.3791949392
C -2.0012648200 -2.7511882246 -0.8437306016
C 0.3625594892 -3.5392565863 -1.3456028165
O -0.0777167620 -4.4541060115 -2.0071299863
C 1.8425335536 -3.2053795355 -1.4312340281
O 2.5232328382 -4.1210767584 -2.2361850711
H 1.8641292076 1.1978307080 0.0985609162
H 0.2314805652 1.8150268759 -0.1845095485
H 0.7221947451 1.3251274819 1.4427535710
H -0.4714295257 -3.3241032014 0.5574647576
H -2.6396320500 -2.3146389657 -0.0727664049
H -2.1149531507 -2.1640091374 -1.7586030236
H -2.3217788635 -3.7740127389 -1.0476546873
H 1.9292366835 -2.1762885012 -1.8155151006
H 2.2572033057 -3.1793091395 -0.4107754454
H 1.8360329826 -4.7080609221 -2.5896459806