22

C -0.3016368078 0.5598090283 -1.0319491885
O -0.5817083089 -0.3714229569 0.0105215117
C -1.8493263455 -0.4282755298 0.5448353769
C -2.2926839934 -1.8648512988 0.6933256117
C -2.6416040545 -2.5154512419 -0.6345821545
C -1.5621043017 -3.0871857562 -1.5184100899
C -2.5171478468 -4.0089202895 -0.8010126525
N -2.5922199684 0.5232410729 0.9188421009
C -2.1475177399 1.9057315098 0.9297185144
H 0.4720829180 0.1028339971 -1.6539476206
H -1.1890126544 0.7425209401 -1.6460268518
H 0.0702849684 1.5142273491 -0.6476223219
H -1.4763410706 -2.4259599430 1.1650049018
H -3.1530240897 -1.8829601769 1.3663337345
H -3.4807246012 -2.0483026784 -1.1434818299
H -1.6614725402 -2.9795182214 -2.5930880071
H -0.5409434328 -3.0315106275 -1.1584179767
H -2.1365357914 -4.5801453148 0.0395849132
H -3.2713855206 -4.5272875537 -1.3826443139
H -1.0829719317 2.0203188272 1.1704833521
H -2.3364594500 2.4030670714 -0.0297759868
H -2.7249740868 2.4456461028 1.6861700169