17

C -0.0295388432 1.5437439979 0.0371586314
C -0.0122975674 0.0019214138 -0.0376253927
C 0.8139835923 -0.5399558756 -1.2420482387
C 1.9448366216 -1.3114068303 -0.6168399667
C 1.9140543147 -1.3197690886 0.7199996077
C 0.7653142945 -0.5377039429 1.2160961194
O 0.4678034695 -0.3003751651 2.3597219998
C -1.3698353604 -0.5301075615 -0.0300125181
C -2.4873380520 -0.9732192158 -0.0282769167
H 0.9919041761 1.9365073154 0.0001641766
H -0.5982771396 1.9641612762 -0.7962150800
H -0.4886486481 1.8588009473 0.9766260760
H 0.2125604102 -1.1807333444 -1.8949776386
H 1.1929098426 0.2747475241 -1.8712416843
H 2.6987470087 -1.8010076994 -1.2246341600
H 2.6157240538 -1.7999916676 1.3894918830
H -3.4753449633 -1.3619953736 -0.0153802381