17

N -0.0853349522 1.3425444984 0.6573897544
C 0.0312260060 0.2636750078 -0.1519565165
O 1.0322302003 0.0052844023 -0.7920863764
C -1.1917483296 -0.6713560578 -0.2466127420
C -1.6168479102 -1.0332194426 -1.7195495675
C -1.6924849571 -2.5266315703 -1.3193028653
C -0.8551738824 -2.1984443330 -0.0595352028
C -2.3138383471 -0.2399279552 0.5712336462
N -3.1847402425 0.1360041054 1.2347804139
H 0.7014752494 1.9664400276 0.7316297763
H -0.9237446766 1.5393307182 1.1777369468
H -2.5184272028 -0.5488618980 -2.0960725233
H -0.7723392581 -0.8242342111 -2.3776699910
H -2.7106438955 -2.8332373557 -1.0673226228
H -1.2706637261 -3.2489284252 -2.0198937969
H 0.2142117228 -2.3338440719 -0.2272283415
H -1.1477259981 -2.6456797191 0.8911035583