20

C 0.1187830953 1.5433604316 -0.1350734335
C 0.0634989088 0.0188309152 -0.0046061745
C 0.6350399570 -0.5281483326 1.3247713765
C -0.1920772606 -0.1080981424 2.5465981241
C 0.7846381533 -2.0194401074 1.2456284509
C 0.2052669907 -3.0074198400 1.9724387944
O 0.6611966659 -4.2144195219 1.5091860600
C 1.5061552052 -3.8828219427 0.5103044683
N 1.6263063553 -2.6150386129 0.3009258342
H 1.1450399051 1.9118059688 -0.0244858412
H -0.2415111017 1.8602247403 -1.1187433825
H -0.4981320230 2.0473249523 0.6156125366
H -0.9725824647 -0.3294295718 -0.1112978502
H 0.6282912804 -0.4367892452 -0.8242741694
H 1.6481345507 -0.1142977363 1.4330164695
H -1.2227386695 -0.4732269767 2.4673639700
H 0.2379310661 -0.5052903241 3.4714085781
H -0.2322323069 0.9796149893 2.6406079387
H -0.4914994497 -3.0452156067 2.7906854471
H 1.9921799323 -4.6968060267 -0.0048004869