23

C 0.3776979271 1.7114359582 -0.6390093950
C 0.4331052143 0.2170534904 -0.3872186973
C 1.6576246516 -0.6515494505 -0.4946543856
C 2.8901318439 0.0324453844 0.1126978703
C 2.1624974728 0.0724980485 1.4941761654
C 2.0924323144 1.3512831329 2.3105359932
O 3.3991702331 1.5969458335 2.8194602972
C 0.8995865668 -0.5263123277 0.8452957070
C 0.0175164917 -1.5214457413 1.5503476733
H 1.3159378559 2.2182900867 -0.4047767587
H 0.1627190057 1.9056826538 -1.6961017038
H -0.4145351683 2.1873011632 -0.0497133122
H -0.4371542840 -0.2908942594 -0.8032101506
H 1.6948663966 -1.5010417246 -1.1680682665
H 3.7784830275 -0.6011709898 0.1258817038
H 3.1708166449 0.9978620779 -0.3206271533
H 2.6109060003 -0.6872876046 2.1445083341
H 1.7445135979 2.1962382303 1.7012871726
H 1.3651844686 1.2193967557 3.1297776683
H 3.3835775348 2.4303878128 3.2986623235
H -0.6131942879 -1.0372906271 2.3067656416
H -0.6508582490 -2.0287176224 0.8464831619
H 0.6108358010 -2.2893251911 2.0610353909