16

O 0.0446705413 1.3491221320 -0.4763544652
C 0.0375714709 0.1399765022 0.2575958783
C -1.3427322451 -0.4640909375 0.3118708813
O -1.7728066981 -1.1215243470 -0.9019109649
C -1.5680814288 -1.9094212044 0.2436700619
C -0.6462331791 -3.1243148653 0.3607071372
O -1.7191641137 -3.8291084852 1.0627889184
C -2.6014796249 -2.7684532618 0.9206135095
N -3.7966483359 -2.6287310888 1.2593604012
H -0.2723852691 1.1460807777 -1.3637229829
H 0.7434619988 -0.5951270115 -0.1588955292
H 0.3709702741 0.3918181835 1.2702263390
H -2.1180702951 0.1475766505 0.7721061939
H -0.4020709392 -3.6111666720 -0.5864219021
H 0.2402370592 -3.0258284209 0.9914100005
H -4.1680595654 -3.4657530914 1.7108514831