14

O -0.2989739670 0.1649531415 0.1025808106
C 0.2728180642 1.0296223138 -0.5028214246
C 1.1387430739 2.0819697845 0.1678189391
O 1.2608448912 3.2218177933 -0.6856754213
C 2.5161586919 3.5072308878 -1.1378435390
O 3.5082762210 2.8875428478 -0.8859372748
N 2.4166228533 4.6418104045 -1.9343014159
C 3.4539086395 5.2842325721 -2.6072408091
O 4.6067103601 4.9597383354 -2.6120840334
H 0.2251954262 1.1203198585 -1.6112991643
H 0.6856998145 2.3960420113 1.1113901379
H 2.1327699700 1.6636044985 0.3625730542
H 1.4903232512 5.0330902792 -2.0242801800
H 3.0574463101 6.1622607520 -3.1543726093