18

C -0.0886795526 1.4554704630 0.1082700012
C 0.0573408797 -0.0495200709 -0.0093221321
O 0.5803809557 -0.5314163232 1.2354434381
C 0.7762641916 -1.8469469281 1.3163996460
N 0.5189965850 -2.6997748318 0.3342460800
N 0.8846274118 -3.8800679282 0.9182507882
C 1.3260374728 -3.6784900327 2.1752462900
C 1.7985159177 -4.7669606078 3.0772839752
N 1.2699044354 -2.3878715366 2.4621314730
H 0.8786517686 1.9245875838 0.3083935823
H -0.4868395309 1.8650789726 -0.8247881662
H -0.7717535767 1.7165657566 0.9213438722
H -0.9040715497 -0.5372416305 -0.2097360199
H 0.7399527921 -0.3300209538 -0.8203168216
H 0.8006818613 -4.7387806269 0.4008453065
H 1.7377500256 -5.7433108408 2.5891990380
H 2.8361274787 -4.5920541724 3.3758247903
H 1.1948325141 -4.7962734322 3.9888739189