19

C -0.0027976318 1.3381043073 0.1365313274
N 0.1326145197 -0.1053891581 0.1072176419
C 0.5783514043 -0.6169933334 -0.9457982697
O 0.7227145294 -1.9854609259 -0.9952252753
C 1.1829066700 -2.5436214793 -2.1560720084
O 1.4732489039 -1.9178251011 -3.1399448316
C 1.2186045179 -4.0557959864 -2.0329819568
C -0.2257674245 -4.5914495369 -2.1653887934
N 2.1673238881 -4.5701046584 -3.0136817206
H 0.5948929228 1.7380045462 0.9626573015
H 0.3054758569 1.8377901869 -0.7944881532
H -1.0466695509 1.5968214417 0.3438797545
H 0.8826752090 -0.1093111969 -1.8633980474
H 1.5757712295 -4.2895079803 -1.0228845134
H -0.6404677486 -4.3381866241 -3.1465968294
H -0.2212349996 -5.6812162436 -2.0649142551
H -0.8776710571 -4.1805993160 -1.3891137716
H 1.9725457751 -5.5468711443 -3.2064521135
H 2.0548615560 -4.0561166774 -3.8829498860