20

C -0.4500030025 1.0286112365 -0.2480660305
O 0.4072468043 -0.0586055675 0.0765768172
C 0.9774843587 -0.6433031015 -1.0601954614
C 1.6207922916 -1.9886232731 -0.8608821445
C 0.2879762685 -1.8873522441 -1.5812133497
O -0.8617950470 -2.2817008932 -0.8849772568
C 0.1841207526 -2.1603534930 -3.0466726023
C -0.5700280591 -3.3363645362 -3.5437037960
N -1.1011977809 -1.9706614204 -3.7339387720
H 0.1073639197 1.8346864168 -0.7449354720
H -1.2721755867 0.7148501887 -0.9048692812
H -0.8579981666 1.4047303921 0.6924988614
H 1.4253502982 0.0634701208 -1.7588517300
H 2.5197974764 -2.2134801756 -1.4248459904
H 1.5911894783 -2.3990091153 0.1428808897
H -0.9128530718 -1.7119222815 -0.1047714010
H 1.0473487201 -1.8169349729 -3.6139510969
H -0.2544302210 -3.8377239641 -4.4542885096
H -1.0475888566 -3.9720083007 -2.8048198623
H -1.8095326362 -1.8111398758 -3.0193565520