23

C -0.0218118027 1.3466516798 0.5661379867
C -0.0586542123 0.0724452977 -0.2974409608
C -1.3920354963 -0.5132431695 -0.3975265739
C -2.5057216026 -0.9679236261 -0.4703016117
C -3.8370650298 -1.5623300699 -0.5483755096
C -3.8752672831 -3.0165702236 -0.0673854433
C -3.6517719070 -3.3210790457 1.4396011663
C -4.7589862343 -4.4058108923 1.3424022206
C -5.2541165953 -3.7269102911 0.0365860825
H 0.9945058630 1.7498083437 0.6115828721
H -0.6796782424 2.1152283064 0.1513458863
H -0.3545920619 1.1339906571 1.5857753581
H 0.3165629101 0.3027248269 -1.3031793013
H 0.6362244769 -0.6691508956 0.1178349419
H -4.5418723142 -0.9696201410 0.0518137899
H -4.2061710559 -1.5126182394 -1.5824258343
H -3.1870032277 -3.6138838112 -0.6746249462
H -2.6528405357 -3.6292692073 1.7553287692
H -3.9671501826 -2.4775846408 2.0629497638
H -4.3394533800 -5.3971324053 1.1482676123
H -5.4659272939 -4.4866921814 2.1713318706
H -6.0556708676 -3.0074717724 0.2368894227
H -5.5634908249 -4.3673994989 -0.7932177418