22

C 2.5180291169 1.7755533504 0.1583646471
C 1.2452720211 1.4904985627 -0.6436049156
C 1.3036499033 0.2492960562 -1.5013581842
C 2.2267962931 -0.8880755522 -1.2894772016
N 2.4427483293 -0.0006277061 -2.4563912186
C 1.4143846809 -0.2879969794 -3.5305800354
C 0.3912028819 -1.3548666111 -3.2525899702
C 0.2429972825 0.0078611691 -2.6217494930
C -0.9726793269 0.8699103565 -2.8169511916
H 2.6834912448 1.0258743555 0.9383193694
H 3.3920581638 1.7841391519 -0.4998362586
H 2.4510731586 2.7513568549 0.6479315381
H 0.3845515418 1.4075279359 0.0343967281
H 1.0369143928 2.3486650179 -1.2948736668
H 3.0074306227 -0.7600942015 -0.5462136793
H 1.9260522348 -1.9203114981 -1.4207117325
H 1.6464792084 0.0600597775 -4.5299390482
H -0.2852356928 -1.5093526085 -4.0891564957
H 0.5883444312 -2.2659429252 -2.6995928731
H -1.7507791699 0.6414118826 -2.0780417290
H -0.7415213817 1.9368611469 -2.7361690173
H -1.4052267666 0.7011818342 -3.8082713220