16

O -0.0314156460 -0.0636269750 0.2732428134
C 0.0226330011 1.1440500301 0.3282211711
C 1.2058346120 1.9483828109 -0.0372993358
C 1.1168551949 3.2806109721 0.0494393188
C 2.1571777143 4.3059604390 -0.2872284971
N 3.5587604727 3.9913402248 -0.4159606606
C 4.1304308344 2.8790851689 -0.2625823646
O 3.6780992579 1.6221099781 -0.0330566164
C 2.4086938288 1.1991465641 -0.5391939460
H -0.8487544883 1.7463599138 0.6691597692
H 0.1681134710 3.7024502999 0.3860157965
H 1.8340325823 4.8123481567 -1.2126487691
H 2.0931133941 5.1019819698 0.4699043623
H 5.2209377829 2.8531420420 -0.2818607427
H 2.3168683295 0.1506502396 -0.2522422478
H 2.4416679585 1.2432895452 -1.6361445512