18

C 0.5291907182 1.3045234083 -0.3073954285
C -0.0713291106 -0.0069545663 0.1857626133
O -0.1896058030 -0.9429963253 -0.9203711825
C 0.8006555921 -1.7955498907 -1.2680206989
O 0.6835992354 -2.4603518585 -2.2622910842
C 2.0230840064 -1.8710930288 -0.3609680377
C 1.7102720233 -1.6137992329 1.1010388775
N 2.0504167872 -0.2762233460 1.6056743207
C 0.6369548375 -0.6296753207 1.3829632857
H 1.5824997376 1.1888522935 -0.5692470582
H -0.0254705844 1.6572551069 -1.1802191233
H 0.4678188143 2.0603522591 0.4813725278
H -1.1168291364 0.1630655684 0.4573332589
H 2.4691274049 -2.8532573478 -0.5234756301
H 2.7463859038 -1.1257354236 -0.7111630132
H 1.8173978225 -2.4584184493 1.7754656543
H 2.2609910451 -0.3137358249 2.5993379941
H 0.0133849959 -0.7913666911 2.2572062245