18

C 0.0390995830 1.5086924238 0.0512834334
C 0.0406463309 -0.0193151184 0.0075589242
O 0.7593519985 -0.5931830969 1.0955403556
C -1.3689209966 -0.5595554834 -0.0705008106
C -2.1928655055 -1.0375476873 1.1311098331
C -1.9134181700 -1.9728061043 -0.0057136690
N -2.7753389118 -1.6935316049 -1.1612110925
C -2.3586439336 -0.3508370683 -1.2154951721
O -2.6855308044 0.5661111036 -1.9166866368
H 1.0634253377 1.8911552926 0.0461287545
H -0.5031336562 1.9141477203 -0.8076379340
H -0.4648928879 1.8654735253 0.9584779480
H 0.5805122064 -0.3481477303 -0.8892909715
H 0.5546470317 -0.0782759775 1.8834988499
H -1.6040738738 -1.2008217357 2.0291439789
H -3.1995280171 -0.6651457516 1.2985688328
H -1.3604227043 -2.8992707377 0.0668823885
H -3.7489382868 -1.9716023393 -1.2225008222