19

C -0.3405656452 1.4767175941 -0.0583740045
C -0.0761068230 -0.0194590340 -0.1153036948
C 1.1778403172 -0.5438607738 -0.9416058820
O 2.0318918656 0.3946842459 -1.5316630529
C 1.6873265083 -1.2082972857 0.3474572175
O 1.8652128639 -0.1228113746 1.2768057941
C 0.5410411564 -0.6956324689 1.1190063610
C -0.1197720918 -1.1898697392 2.3654468191
O -0.6208500401 -0.1203653382 3.1539904537
H 0.5329943623 2.0154400683 0.3190168471
H -0.5746104701 1.8696531298 -1.0521821497
H -1.1809004455 1.6930976661 0.6079039812
H -0.9731427778 -0.5613298579 -0.4341086820
H 0.8918544501 -1.2558890986 -1.7191882379
H 2.4128456457 0.9056656184 -0.8063909355
H 2.3131040050 -2.0830422995 0.4893015174
H -0.9869205877 -1.8069015691 2.1074778624
H 0.5882683045 -1.8161104621 2.9283282805
H 0.1318203222 0.4342376992 3.3874611854