20

C -0.0843096888 1.5455487591 -0.6066354219
C -0.0097521987 0.2345346196 0.1711215429
N -1.3088508046 -0.4333668037 0.1759976896
C -1.5868348343 -1.3456855820 -0.9369562132
C -1.3492196574 -1.8575601029 0.4346943638
C -0.1934573191 -2.7749471684 0.8959799146
C -1.2295051517 -3.5069092460 1.7751096709
O -1.1822551926 -4.4882761291 2.4562434594
C -2.3476667353 -2.5152477682 1.4034512673
H 0.8788127337 2.0641818331 -0.5822303610
H -0.3447059855 1.3633526412 -1.6543622304
H -0.8464652760 2.2026189818 -0.1788613374
H 0.7843557774 -0.4064710136 -0.2512250267
H 0.2644936651 0.4354317902 1.2139960092
H -2.5921996492 -1.3042430072 -1.3488758118
H -0.7979910855 -1.5079856813 -1.6720263081
H 0.2972916820 -3.3974876775 0.1426310978
H 0.5803872338 -2.2761359699 1.4904460517
H -2.6504087417 -1.8709111319 2.2358820361
H -3.2425918616 -2.9701283233 0.9686328071