18

C 0.6396740160 1.4307544236 0.2785516120
C 0.0718757779 0.0381629735 -0.0364754895
C 0.6857757231 -0.6178964488 -1.2978061042
C 1.8162086473 -1.4958896647 -0.7787936282
O 3.0503199803 -0.7497666829 -0.4756617773
C 2.8777486705 -0.9065706812 0.8802379775
O 3.5776268052 -0.5002638315 1.7516722045
C 1.5504487206 -1.6865162065 0.7280422829
N 0.3047814791 -0.9915631853 0.9994767222
H 1.7295547081 1.4348506846 0.3559329682
H 0.3571673412 2.1389602516 -0.5081438398
H 0.2280095167 1.8068083986 1.2215804247
H -1.0120587393 0.1434424610 -0.1634521260
H -0.0532762510 -1.2608417390 -1.7858198432
H 1.0375515422 0.1118721226 -2.0306533666
H 2.0548956338 -2.3655886749 -1.3901351279
H 1.5687468138 -2.6915063725 1.1562101443
H 0.2520220746 -0.6263954781 1.9438185963