13

F 0.3719549317 0.2134493403 -0.0893377348
C 0.0203651681 1.4993772301 -0.0041514048
F 1.1183772825 2.2434780039 -0.2007572708
F -0.8286128620 1.7591886339 -1.0079570086
C -0.6133084488 1.8532794881 1.3206437654
N -1.5304025457 0.8936623640 1.8958963836
C -0.2836318861 1.1894788460 2.6242947682
C 0.6814828672 0.0509769570 2.7789157248
O 1.5430381250 0.0527186494 3.6201483950
H -0.8410963345 2.9159716091 1.3718689019
H -2.3311118717 1.3498943473 2.3223931596
H -0.3113600219 1.8448384319 3.4921345910
H 0.5219338061 -0.7947008110 2.0847657796