21

C 0.6000033481 1.4923141440 -0.3799976532
C 0.3382314907 0.0245759500 -0.2194609772
N -0.9732673670 -0.4804796636 0.2710132431
C 0.2677799836 -0.8190892128 1.0103751944
C 0.8614734253 -2.0382000820 0.3039080653
C 1.0437752437 -1.1470226248 -0.9706735666
N 0.6402184000 -1.7098753475 -2.2401118942
C -0.7639052088 -1.6846873426 -2.6444516068
C 0.2368248042 -0.8033077261 -3.3096844322
H 1.6680786070 1.6860970403 -0.5273119506
H 0.0651513784 1.9119743431 -1.2402127317
H 0.2795387949 2.0474100604 0.5097677032
H -1.4135574730 0.2967333969 0.7646774753
H 0.3856971355 -0.5227890589 2.0458173177
H 1.8061444433 -2.3970070100 0.7162810864
H 0.1660349073 -2.8725079653 0.1896475014
H 2.1010842538 -0.8739071297 -1.0691620387
H -1.1071605102 -2.5840818457 -3.1497330515
H -1.4804474153 -1.2244839453 -1.9738671715
H 0.1818314644 0.2613698270 -3.0914005468
H 0.6162229740 -1.0416166674 -4.3000855756