19

C 0.0466063941 1.6800706257 -0.0421647067
C 0.1127213351 0.1607058565 0.0395925240
C 1.1082538784 -0.6680742390 -0.8037333205
C 2.5269956830 -0.1786568278 -0.4589608443
C 2.2146798658 -0.7468361865 0.9119168495
N 1.1956658442 -1.7138057192 0.3574122873
C 0.7591182555 -0.5583524662 1.2193900294
C 0.1849890754 -0.7605401116 2.5883589542
H 1.0234746334 2.1438682053 0.1217962438
H -0.3215083834 2.0056734559 -1.0214841495
H -0.6384571734 2.0783147544 0.7142962838
H -0.8874914703 -0.2673762531 -0.1014687288
H 0.8531098244 -1.0047067624 -1.8071811347
H 3.2809226703 -0.7880640098 -0.9644674734
H 2.7742161534 0.8813923329 -0.5742899378
H 2.9169535491 -1.0581627913 1.6782053245
H 0.2147171517 0.1682714131 3.1695570873
H -0.8568915948 -1.0935282117 2.5312999031
H 0.7505121280 -1.5200215852 3.1372450486