18

C -0.0248629680 1.5213025978 0.0129960023
C -0.0177142357 0.0048278220 0.0134611786
C -0.8609001199 -0.7258986291 1.0583169307
C 0.6442647723 -0.7414573862 1.1550965733
N 1.4055713229 -1.9072208173 0.8330022517
C 1.4427682316 -2.5313654610 -0.3913872147
O 2.0144668564 -3.5970307130 -0.5549597818
C 0.7722595706 -1.7999927795 -1.4924252615
C 0.1308978025 -0.6409367395 -1.3122613824
H 0.8978900084 1.9239020662 -0.4181171048
H -0.8667715253 1.9054297948 -0.5745215673
H -0.1220767262 1.9160774549 1.0286699094
H -1.4097959945 -0.1143155300 1.7669186497
H -1.3540135903 -1.6414101679 0.7524226329
H 1.0987961522 -0.1428660240 1.9388588102
H 1.8300100195 -2.4318144832 1.5834318317
H 0.8627059743 -2.2677284035 -2.4655325699
H -0.3003159810 -0.1163355213 -2.1629027982