16

C -0.0593770774 1.5120088676 -0.0022447672
C -0.0186440975 0.0079716015 0.0091361253
C -0.0024677189 -0.7296106334 -1.1649260536
N 0.0238784417 -2.0680689112 -1.2435948045
C 0.0343122955 -2.7012412234 -0.0942025407
F 0.0617420575 -4.0332214885 -0.1558518932
C 0.0239121266 -2.1130954788 1.1612353409
C -0.0045286877 -0.7172370266 1.2241956273
N -0.0707186588 -0.0619712222 2.4370534407
H 0.8258779923 1.9544829471 0.4756541310
H -0.0937495698 1.8904753585 -1.0268085170
H -0.9391160501 1.8994979259 0.5264842681
H -0.0118663526 -0.2036147564 -2.1176448606
H 0.0355514555 -2.7264364214 2.0545306113
H 0.1994967649 -0.5921477968 3.2506951104
H 0.2473202087 0.8936443682 2.4578196317