19

C -0.6441223515 1.1050341814 0.2950666035
C 0.4874131923 0.1297427193 -0.0306483048
C 0.9901084715 -0.6046391029 1.2086780023
O 0.9287679490 -0.1360020282 2.3327774914
N 1.5500366290 -1.8306498326 0.9767616324
C 2.1624057628 -2.5960465789 2.0446925630
C 1.1058790066 -3.2346431288 2.9781925701
C 1.7230973943 -4.0579027642 4.0128455358
N 2.2375515608 -4.7106742739 4.8157860992
H -0.3411793073 1.7735288935 1.1031960494
H -0.9049136779 1.7025662612 -0.5824728283
H -1.5411821009 0.5726268344 0.6247328587
H 0.1815177932 -0.5905839199 -0.7988152269
H 1.3448099857 0.6751877288 -0.4473157827
H 1.5685368983 -2.1980435080 0.0404914442
H 2.7900879366 -3.3719435902 1.6007691441
H 2.8005356945 -1.9366990498 2.6392229553
H 0.5269915524 -2.4319633697 3.4437052242
H 0.4140193305 -3.8526875217 2.3958325091