21

C 0.0736334830 1.2553461849 -0.2813519373
O -0.0831053983 -0.0483243108 0.2541755882
C -1.3690822013 -0.5241527921 0.1676693519
C -2.5668205654 -0.1489458517 1.0371555457
C -3.2188431659 -1.4556018608 0.4814834616
C -4.2484327778 -2.2048243231 1.2847379125
C -3.4414343904 -1.1351640609 -1.0292637213
C -1.9221495665 -1.1233598388 -1.1449775074
C -1.7580882895 -1.9675296483 0.1073326723
H 1.1285719303 1.5184737375 -0.1774258539
H -0.2066791584 1.2890627828 -1.3432068826
H -0.5324553359 1.9928896190 0.2631266914
H -2.3221594461 -0.2456479989 2.0995036287
H -3.0982505576 0.7936642939 0.8586479319
H -5.1617515583 -1.6081538772 1.3983832341
H -4.5247655839 -3.1462705617 0.7972018105
H -3.8794205245 -2.4416107849 2.2886048297
H -3.8806094374 -1.9878945000 -1.5578129867
H -4.0039061616 -0.2252160222 -1.2729197889
H -1.3006683048 -1.1508407732 -2.0311502651
H -1.2103696197 -2.8775776633 0.3042581647