16

C -0.0128569208 1.5601735035 -0.0037557085
C -0.0004949786 0.0578584362 -0.0166566020
C -0.0469875717 -0.6713903774 -1.1609193352
N -0.0209500642 -2.0238853363 -1.1275895916
C 0.0546301362 -2.7800897315 0.0746461406
O 0.0726336799 -3.9915010617 0.0003845198
N 0.0948918953 -2.0467463839 1.2316722855
C 0.0752125432 -0.7326033702 1.1929002405
N 0.1652291797 -0.0855856601 2.3893399710
H 0.8802774356 1.9720381887 0.4823228659
H -0.0445371936 1.9568184756 -1.0222886159
H -0.8867734861 1.9639292614 0.5253608069
H -0.1040398872 -0.2106826309 -2.1418455796
H -0.0550841966 -2.5706404990 -1.9745712080
H 0.0749135278 -0.6634878416 3.2099553663
H -0.0981133890 0.8806557572 2.4668909943