16

O -0.0734491133 0.0223909564 0.4519302586
C -0.0871227257 1.1830199910 0.1377235918
C -1.3262344562 2.0860016820 -0.0111036986
C -0.7552211223 3.4501364597 0.3351111854
O -0.2827914032 3.5300006801 1.7196510529
C 1.1105950766 3.6231165784 1.3205204473
C 1.8005453509 2.2456788607 1.2686174046
N 1.0779314264 1.9739283599 -0.0285951524
C 0.6987496910 3.4131700573 -0.1468510856
H -1.7191158749 2.0735043295 -1.0352260285
H -2.1109974552 1.7408870689 0.6638298427
H -1.3778296687 4.3114279996 0.0788354133
H 1.6156622032 4.4886950107 1.7525357637
H 2.8820490496 2.3117351103 1.1161129105
H 1.5711046084 1.5279320951 2.0589906304
H 1.0609208836 3.9374079002 -1.0292188762