19

O -0.1027477897 1.4561037007 0.0037544870
C 0.0091929754 0.0398811888 -0.0437085236
C -1.3608984329 -0.5997778034 -0.1101851876
C -1.9857316323 -0.8965323266 -1.4671770264
C -1.2637962485 -1.9828428163 -0.6719923987
C -0.0689455554 -1.8375515239 -1.6528488087
C -0.9284190769 -0.9410396706 -2.5955903218
C 0.1496134735 0.1621056936 -2.5758366513
C 0.7229142279 -0.5141209354 -1.2970386563
H 0.7851687583 1.8225549150 0.0647532221
H 0.5184031741 -0.3213934968 0.8650637135
H -2.0613615693 -0.4076957246 0.6952685675
H -3.0503129862 -0.7534645975 -1.6107325081
H -1.6370374745 -2.8824287280 -0.1999038892
H 0.4798081242 -2.7075913924 -2.0058712418
H -1.3154862349 -1.3151867040 -3.5447482482
H 0.8300399949 0.0608810356 -3.4265565380
H -0.1644764051 1.2031526620 -2.4775645089
H 1.8088600473 -0.5599879762 -1.1893532715