23

C 0.0974503357 1.5379549842 -0.0717220340
C -0.0035824724 0.0151027407 0.0736515247
O 0.6101740919 -0.4120278304 1.2813121848
C -1.4464737408 -0.5253847372 0.0242649926
O -2.1297123106 -0.0905768637 1.2211183356
C -2.2499938004 -0.1301219701 -1.2309333275
C -3.3074522400 -1.2357433504 -1.3582820871
C -2.4999111239 -2.5072854260 -1.0482546920
C -1.5030362169 -2.0786836668 0.0563454467
H 1.1411146101 1.8430624457 0.0369002047
H -0.2652682714 1.8833245285 -1.0450788810
H -0.4734250199 2.0506462726 0.7119981032
H 0.5635431780 -0.4543896971 -0.7403666623
H -0.0659896588 -0.2925660675 1.9622328343
H -2.3125651952 0.8514303681 1.1320906305
H -2.6668780341 0.8801736529 -1.1580669185
H -1.5881661157 -0.1443035818 -2.1069134713
H -4.0834791964 -1.0857793973 -0.5996802288
H -3.7953604936 -1.2577728992 -2.3365997881
H -3.1273603569 -3.3497129477 -0.7454791433
H -1.9556350210 -2.8224793483 -1.9463875638
H -0.5115821380 -2.5137470429 -0.0844553037
H -1.8488292898 -2.3832944564 1.0466286942