17

C -0.2786713444 1.4602962302 -0.0113038226
N 0.0394605108 0.0380745329 0.0526462273
C 1.3811808794 -0.4367941251 -0.2976081443
C 2.4433300934 0.4623465572 -0.6526542584
C 3.3271939842 1.2056319948 -0.9895663669
C 0.8735413908 -0.4769225372 1.1390439700
C 1.4852494391 0.4062971589 2.2125778700
C 0.4334196556 -1.7704604033 1.6351832597
N 0.1093974877 -2.8010675497 2.0465431553
H 0.5681505368 2.1324357780 0.1719471031
H -0.6700380446 1.6707456174 -1.0104040944
H -1.0682946089 1.6707207280 0.7149665335
H 1.3771847309 -1.3718677454 -0.8533454340
H 4.1147461463 1.8538214363 -1.2868591825
H 1.9552648723 1.2904370489 1.7822238617
H 0.7214490442 0.7182765513 2.9309339809
H 2.2507759165 -0.1532239132 2.7568326415