20

C -0.0393122309 1.4813648736 0.0939335320
C -0.0240816061 0.0285088787 0.0059683142
C 0.0161123099 -1.1730221527 -0.0668712373
C -0.0212262379 -2.6372124545 -0.1370978832
C -1.4989923211 -3.0615097678 0.0393920817
O -2.0964002470 -3.7836031282 -0.7123316547
N 0.6805426923 -3.1799244282 -1.2857073811
C 0.9095273523 -4.6153609485 -1.2127774693
C 0.2023986891 -2.7360007209 -2.5891411138
H 0.8714274991 1.9106602925 -0.3373769834
H -0.8951174950 1.9060359614 -0.4417142882
H -0.1003196186 1.8125939099 1.1362742209
H 0.4818831091 -3.0273798320 0.7649907280
H -1.9780185580 -2.6345889963 0.9513087076
H 0.0010593592 -5.2217585250 -1.3487592143
H 1.6286130435 -4.8992585348 -1.9886475871
H 1.3522199197 -4.8689103538 -0.2428303860
H 0.1024165964 -1.6474421825 -2.5870064865
H 0.9468043125 -3.0046184459 -3.3465458922
H -0.7624017382 -3.1773066151 -2.8796278273