23

C -0.0071665656 1.5071926107 -0.3037073679
C 0.0845468360 0.0027202319 -0.0304596195
O 0.6831419274 -0.7055953723 -1.1151669089
C -0.1351209022 -0.9029202321 -2.2244888693
C -0.0454012148 0.0260835468 -3.4109522936
C 0.5440187654 -1.3699037119 -3.4703775154
C 0.9014470134 -0.2896733341 1.2150700598
C 1.5157574703 -1.6423843975 1.4524418652
C 2.3979263732 -0.4555982193 1.1434121577
H 0.9911766056 1.9229339133 -0.4703978219
H -0.6249318027 1.7154183237 -1.1806381316
H -0.4542780685 2.0194775806 0.5546940782
H -0.9351534911 -0.3918423234 0.1204076351
H -1.1122478303 -1.3241790298 -1.9840069896
H -0.9456725018 0.2412729244 -3.9768012588
H 0.6551203827 0.8493714390 -3.3349827901
H 1.6241966832 -1.4505194803 -3.4261628861
H 0.0555674013 -2.1240552017 -4.0768733487
H 0.5171539440 0.2251246259 2.0915259946
H 1.5110946046 -2.0378647589 2.4623082150
H 1.3990077224 -2.3820301553 0.6694783776
H 2.8538162529 -0.4268360332 0.1610444053
H 3.0013400346 -0.0335627465 1.9395023528