21

O -0.0734645499 1.3739864332 0.1364534892
C 0.0142877736 -0.0206673274 -0.0112366490
C -0.4852938312 -0.6336145900 -1.2967685327
C -1.2987565590 -0.7424668865 -0.0164389587
C -1.3492871892 -2.0329262288 0.8011278431
C -0.7222984147 -1.8249696573 2.1806940158
C 0.5344313080 -2.5544122160 2.5869625429
C 0.6081714144 -1.1030860119 2.1815653897
C 1.1197756434 -0.6999428150 0.7993762305
H 0.6569878619 1.7677544732 -0.3536316800
H -0.8529944009 0.0473248537 -2.0569319121
H 0.0020264099 -1.5262163835 -1.6797992581
H -2.1742384571 -0.1032641824 0.0360207796
H -2.3819922900 -2.3796531573 0.9004613992
H -0.8167594091 -2.8282624263 0.2667846218
H -1.4182277989 -1.5726465456 2.9747388953
H 0.6703183500 -2.8064714533 3.6334775198
H 0.9362858403 -3.2942012813 1.8993362722
H 0.7770709398 -0.3789316802 2.9716572244
H 1.4811654541 -1.5835888809 0.2620093793
H 1.9744109748 -0.0212237667 0.8857081178