21

C -0.0801946092 1.5838663820 -0.0673559895
C 0.0267781990 0.0569260620 -0.0145897672
C 0.8543025864 -0.5429180536 -1.1538641735
C 1.5058619847 -1.6087280300 -0.7052685415
C 2.7853283427 -2.4082816168 -0.7907115164
C 2.8885175585 -2.1799862034 0.7660615806
C 1.3619663966 -1.8175586335 0.7765914514
C 0.7505145340 -0.4924321876 1.2775070923
O 1.8073188216 0.3502722336 1.7116358891
H 0.9114561356 2.0463394747 -0.0837235545
H -0.6120377446 1.9044824495 -0.9685459118
H -0.6350352815 1.9787848478 0.7927312757
H -0.9949341605 -0.3536217947 -0.0209734437
H 0.9378601001 -0.0732482475 -2.1278897652
H 2.6240424924 -3.4656408765 -1.0280053301
H 3.5861834597 -2.0236581324 -1.4268797621
H 3.2009505952 -3.0357369907 1.3688783610
H 3.4993798941 -1.3105865402 1.0082917064
H 0.7469323616 -2.6786699857 1.0622305497
H 0.0281951687 -0.6402309743 2.0942964865
H 1.4247846148 1.1833485271 2.0026988826