16

O -0.0123032627 -0.0542783682 0.0323262184
C -0.0145044856 1.1619800667 -0.0080715179
N -1.1912129482 1.8900344065 -0.0664801980
C -1.2903447120 3.3283506574 0.1999535516
C -0.1755634399 3.9599633151 -0.6216801638
O 0.4158229324 5.2097526081 -0.1754748406
C 1.7497421617 4.6194478109 -0.1792822610
C 1.1182942786 3.2602565803 -0.3337320392
C 1.2319310231 1.9861289931 0.0142289034
H -2.0178108243 1.3220780780 0.0438502970
H -2.2847909996 3.6739190551 -0.0944398573
H -1.1390154127 3.5699169024 1.2620941108
H -0.4516080264 4.0128414698 -1.6841694883
H 2.3438154454 4.9726913008 -1.0327305240
H 2.2978558535 4.8096708300 0.7497226171
H 2.1393523565 1.4988402737 0.3497638517