11

N 0.0350726009 1.3425442541 -0.1328656335
C -0.0124050759 0.0066664649 -0.0252425498
C -1.1269335003 -0.7683708070 0.0685100293
F -2.3430947217 -0.2263531253 0.0598688620
N -1.0850909623 -2.1118364158 0.1747762351
N -0.0511502123 -2.7866498118 0.1990989860
O 1.2317585011 -2.0344077692 0.1020837183
C 1.2870882351 -0.6946630446 -0.0065754668
O 2.3359347726 -0.0992327301 -0.0848303501
H 0.9468035159 1.7677603460 -0.1950726277
H -0.7990933931 1.9011481687 -0.1561995429