19

O -0.0796262255 1.3329597980 -0.5391470303
C -0.0004472203 0.0530701731 0.0677868185
C -1.3672834494 -0.5367080875 0.2877320528
C -2.3670403937 0.1074398967 1.2370469068
C -3.5388077031 -0.8962968949 1.2859728671
C -2.9273403726 -2.2877462466 0.9659946763
O -3.8197085623 -3.1830065957 0.3314110847
C -1.6949920921 -1.9580521981 0.1398757451
O -1.9979720605 -1.0306340729 -0.9217384177
H -0.5263736057 1.2113262462 -1.3846361770
H 0.6046865220 -0.6428712439 -0.5313907000
H 0.5052503669 0.2024259755 1.0279728608
H -1.8925595955 0.2188536377 2.2196548227
H -2.6647603970 1.1062156992 0.9069533892
H -4.0680649265 -0.8915105995 2.2408255844
H -4.2686312869 -0.6592161164 0.5069853615
H -2.6112384482 -2.7966309253 1.8846342554
H -4.0395795762 -2.7955622746 -0.5242772125
H -0.9644366136 -2.7255013110 -0.1040554277