17

C -0.5985115187 1.4405029401 -0.1817119507
N -0.1828033583 0.0603360546 -0.0286150960
N -0.1125266039 -0.7469356560 -1.1067787625
N 0.2762998849 -1.9207544617 -0.6965823985
C 0.4552689945 -1.8781886063 0.6492894402
C 0.1673113718 -0.6082657497 1.1051772059
C 0.1979320514 0.0290918928 2.4333689713
C 0.9969281429 -0.5658788032 3.5321496616
N 1.4375712881 0.6950519574 2.9173021570
H 0.1376368389 2.1130813883 0.2653659620
H -0.6777233223 1.6354776098 -1.2507910568
H -1.5706667133 1.6101210810 0.2908424209
H 0.7636515370 -2.7469760319 1.2081746980
H -0.6977066293 0.5848881959 2.7027691874
H 0.6420191044 -0.4793210899 4.5545284103
H 1.5588136924 -1.4710140694 3.3214673867
H 2.1915927493 0.4970645283 2.2622169532