15

O 0.0551646853 0.0331678756 -0.1645973419
C 0.0162580693 1.2123260898 -0.0755268438
C -1.0787162582 2.3554204715 0.0835630402
C -0.0250747888 2.9833781483 1.0526972357
C 1.0239746958 2.4273179108 0.0412676656
C 0.5939355522 3.1341266027 -1.2465394270
C -0.7618756016 3.0798799655 -1.2046609941
C 1.4612638024 3.5887450587 -2.2546262140
C 2.2360461348 3.9789857881 -3.0919775355
H -2.1122684763 2.1643183337 0.3592226041
H -0.0598749154 4.0717501946 1.1422038081
H 0.0122084419 2.4970704092 2.0320939227
H 2.0830399237 2.3212226584 0.2587434416
H -1.4664981404 3.3644299439 -1.9720592020
H 2.9079949152 4.3221975991 -3.8389902096