15

O -0.1019869572 1.4174678180 -0.0785488931
C -0.0051993328 0.0427609791 -0.0765018036
C 0.4831636502 -0.8074744559 -1.2696139445
C -0.2923585219 -1.9632957576 -0.5462825832
C -1.2370333463 -0.8654400623 0.1044459675
O -1.1001722928 -0.9332550286 1.5345203063
C 0.3263237188 -0.7417876468 1.2800405907
C 0.6373347001 -2.1138114531 0.6625874210
O 1.3879436832 -2.9861605054 0.9906699284
H 0.7844304955 1.7959144639 -0.0703207016
H -0.0132045069 -0.4910272878 -2.1905543831
H 1.5534520010 -0.9475228815 -1.4442031962
H -0.6482808113 -2.8448297088 -1.0691678066
H -2.2432337777 -0.6991666373 -0.2747857090
H 0.8976519480 -0.3474411958 2.1172270372