16

O 0.0851317130 1.3860221702 0.0103507152
C 0.0578541569 -0.0079962644 -0.0082102458
C -0.4618860403 -0.7225716489 1.2222191103
O -0.9551597941 0.1040677224 2.2483375858
C -1.2723779231 -0.7134053415 -0.0365065934
C -2.6337879483 -0.0701092463 -0.2616491835
O -3.0397475552 -1.1841931625 -1.0932543835
C -1.7833734092 -1.8653106525 -0.8924195081
H -0.3523456291 1.6506157693 0.8318847982
H 0.8948748955 -0.4271843419 -0.5603271447
H -0.0075623535 -1.6571162847 1.5496461661
H -0.2338324316 0.2730183303 2.8652402530
H -3.2661456779 0.0326324949 0.6280553642
H -2.6164325345 0.8773615166 -0.8136671987
H -1.2491328157 -2.0356405728 -1.8366066508
H -1.9130378629 -2.8248176981 -0.3729263842