18

C -0.1513738410 1.5431933480 0.0123899802
C 0.0101080242 0.0219870081 0.0105702168
C 0.7184880665 -0.5188234594 1.2473709030
O -0.0098624708 -0.2131759807 2.4075958774
C 0.3772654848 -1.1847342815 3.3781706485
C 0.7444225584 -2.4226294751 2.5270932009
O 0.7973563639 -1.9244718377 1.1861439244
C 2.1100050711 0.0392028448 1.3723162931
N 3.1810430273 0.4601156490 1.4772637888
H 0.8192971661 2.0477942425 0.0305583917
H -0.6803333396 1.8658051671 -0.8881923480
H -0.7236959556 1.8733847647 0.8830008079
H -0.9624710440 -0.4785934375 -0.0145468650
H 0.5759271115 -0.3126667192 -0.8644584273
H 1.2359258569 -0.8262065296 3.9587547693
H -0.4692107792 -1.3452873818 4.0477133468
H 1.7110566590 -2.8476958065 2.8166109748
H -0.0169599895 -3.2066146850 2.5634571370