22

C -0.5326925940 1.3613871274 -0.0385775480
C 0.3418520232 0.1053992488 0.0804363903
C 0.8289281543 -0.3996256318 -1.2479443767
C 0.0550065939 -1.1021980947 -2.3563136317
N 1.3685740491 -1.5605421828 -2.9566622105
C 2.0016672184 -1.2794653465 -1.5739320821
C 2.0829671554 0.1704146471 -1.9559761140
C 1.9649944817 -0.2353492862 -3.4185893698
C 3.2788387309 -0.4464297860 -4.1486001965
H 0.0242781220 2.1862518708 -0.4946261650
H -1.4126302916 1.1716389414 -0.6623297703
H -0.8851512674 1.6918629567 0.9431568119
H 1.2036112055 0.3162516204 0.7267522535
H -0.2255993187 -0.6898238697 0.5823494067
H -0.4998587363 -1.9700558974 -1.9861977795
H -0.5800412561 -0.5255577417 -3.0399405585
H 2.6215256779 -1.9580401308 -1.0048135891
H 2.6764993970 0.9532395897 -1.4972983817
H 1.2716584147 0.3383821665 -4.0476532543
H 3.9736427057 -1.0357290523 -3.5418967911
H 3.1083841150 -0.9796879850 -5.0886117885
H 3.7545409395 0.5136104060 -4.3768645151