16

O -0.0860252827 1.3301102484 0.0265034990
C -0.0567524624 -0.0341189787 0.0208781038
C 0.8080573136 -1.0099594831 -0.8704616010
N 1.9594498580 -0.9201248312 0.0868826060
C 0.7456926125 -1.0115420366 0.9652391597
C -0.0738415762 -1.9571246834 0.0220143060
C -1.2433141809 -0.9755218005 -0.0103913213
C -2.6055897118 -0.9429621546 0.4995734040
O -2.3153313919 -0.9608006154 -0.9197838155
H 0.8284780518 1.6414655010 0.0295367645
H 0.9184479335 -1.0170994432 -1.9544495448
H 2.4794668118 -1.8013108763 0.1036424722
H 0.7834036164 -1.0155250759 2.0546805880
H -0.0678681203 -3.0442004624 0.0215908996
H -3.0681800378 -1.8497307450 0.8865433241
H -3.0252743936 -0.0091775629 0.8696828556