14

O -0.0612209025 1.3883799289 -0.0011444277
C -0.0160324840 0.0193293799 -0.0500551508
C 1.0253335089 -0.8088588355 0.7336145088
C 0.6651630753 -2.2084808051 0.3370304608
C -0.5217152882 -1.9820883840 -0.6145061646
C 0.4549377001 -0.9273692961 -1.2418561724
N 1.6766783194 -1.4426773803 -0.4580292663
C -1.3229624770 -0.8083638906 -0.0023428835
O -2.4712637113 -0.5722177356 0.2120979729
H 0.8373555586 1.7362122943 0.0304597469
H 1.5700072784 -0.5365564083 1.6302518848
H 0.9198315997 -3.0942712971 0.9057287033
H -0.9805139735 -2.8111572725 -1.1428011314
H 0.5150022462 -0.6576331780 -2.2923810608