19

N 1.3036675302 -0.2042641526 -0.9036083513
C 0.1242644267 -0.1532394148 -0.0192822525
C -1.0188962366 -0.9049292598 -0.5788688690
N -1.8852123817 -1.5033209932 -1.0568595748
C 0.5039630398 -0.6094649644 1.3910874848
C 1.5696541366 0.2714145400 2.0336099235
O 2.8558007748 0.1229207050 1.4714927104
C -0.5488820989 -1.2000527445 2.2959933065
C 0.5257840532 -2.0840573767 1.7139014179
H 1.5811313089 -1.1726525397 -1.0417597430
H 1.0794534559 0.1758884907 -1.8185072800
H -0.1856871250 0.8986102140 0.0364655745
H 1.2310258431 1.3224754368 1.9964765412
H 1.6597352417 0.0031199228 3.0914960890
H 2.7419768636 0.2470844039 0.5171940635
H -0.4964050721 -0.9435992394 3.3484781389
H -1.5572655095 -1.3183366654 1.9154551133
H 0.2227375361 -2.7889840912 0.9466618973
H 1.3233847531 -2.4361645115 2.3579392997