17

C 0.0474461674 1.4498808605 0.0054850036
N -0.0223125522 -0.0022140297 0.0640313698
N -0.1310528699 -0.6906419944 -1.0757451172
C -0.1732768141 -1.9785460043 -0.7171559666
C -0.0908351495 -2.1224955390 0.6707256213
C 0.0069010313 -0.8226548517 1.1610404682
C 0.1206768870 -0.3271484794 2.5407800012
C 0.1391032082 -1.3765954712 3.6380488794
O 0.1962031121 0.8616254436 2.7959483669
H 0.9772703302 1.8071069309 0.4506107219
H -0.0016968776 1.7182041903 -1.0491046097
H -0.7830894066 1.8960849192 0.5547428561
H -0.2609643650 -2.7408986469 -1.4764634504
H -0.0996596377 -3.0328628142 1.2476776253
H 0.9814333461 -2.0630032138 3.5027395518
H 0.2256643749 -0.8764621054 4.6028864441
H -0.7768990446 -1.9760966544 3.6154862942