17

C 0.0102768372 1.5615884379 -0.0345385787
C -0.0005394043 0.0351820480 0.0334815690
C 0.7291513213 -0.5123296870 1.2674342593
O 2.0845238399 -0.1256133287 1.1362055365
N -1.3701585103 -0.4871167808 0.0185534775
N -1.8373123824 -1.2846217942 -0.9355471386
C -3.0806628815 -1.4893378756 -0.5164545055
N -3.3560328704 -0.8484016809 0.6400290207
N -2.2553020646 -0.2140105246 0.9678689719
H 1.0450668574 1.9070703987 -0.0026722343
H -0.4554948917 1.9134416100 -0.9585859948
H -0.5316005460 1.9870744266 0.8142006740
H 0.4662345445 -0.3890227175 -0.8576873360
H 0.2663091946 -0.1003852865 2.1752246723
H 0.6169227321 -1.6065167133 1.2945301245
H 2.5506142886 -0.3734021910 1.9395399788
H -3.7901569244 -2.1021857711 -1.0480356465