23

C -1.1141856111 0.9514788968 0.1640485866
C -0.1307272934 -0.2096889119 0.0872534808
C 1.1094353333 -0.1498314448 -0.8618802594
C 1.9692762880 -0.7961088489 0.2574905446
O 2.7872037168 0.1455007708 0.9665293943
C 1.7640509724 0.3310889410 1.9995413614
C 2.2609917748 -0.2698262122 3.3125559703
C 1.4263915253 1.8060171288 2.1706528526
C 0.7947749613 -0.6481683454 1.2626057317
H -0.6224289470 1.9145024272 0.3145368376
H -1.6884108663 1.0200752112 -0.7668875351
H -1.8306467870 0.8102435951 0.9814157161
H -0.7028873347 -1.1085020047 -0.1730448230
H 1.0139504941 -0.7136869695 -1.7935274732
H 1.4610410361 0.8590645012 -1.0933694826
H 2.4935925143 -1.7287932156 0.0328823758
H 3.1613142846 0.2546230336 3.6479239448
H 1.4972073860 -0.1834534421 4.0937550177
H 2.5089926088 -1.3277616685 3.1875402634
H 0.5491404780 1.9385274530 2.8121210780
H 2.2702223757 2.3231386945 2.6401910702
H 1.2377707395 2.2879499946 1.2107838184
H 0.4194966106 -1.4557752742 1.8929392188