19

O -0.0950736182 1.4184809632 -0.3267422561
C 0.0512697331 0.0657454436 -0.1063392973
C -0.9341607581 -0.6888644949 0.7424160692
C 0.5407455130 -0.7748413999 1.0505536640
O 1.1710547348 -1.7129125001 0.1712630328
C 0.8245224172 -0.9182945633 -0.9907284330
C 0.1972180098 -1.5764010086 -2.2338610484
C 1.0521212663 -0.6151667731 -3.1083389752
C 1.9658472442 -0.3700545893 -1.8757011138
H 0.7817772095 1.8170193506 -0.3665388119
H -1.4997788412 -0.0447070091 1.4093053086
H -1.4631801278 -1.5612472332 0.3674593385
H 1.0075004261 -0.5669168823 2.0055210589
H 0.5307903540 -2.6139066554 -2.3254135163
H -0.8912059232 -1.5400647152 -2.3255727847
H 1.5211157671 -1.0326802500 -4.0006979874
H 0.4966039146 0.2832325181 -3.3873298442
H 2.3280060698 0.6455297103 -1.6880662785
H 2.8168882192 -1.0556735214 -1.8485541855