18

O 0.0106770177 0.3593790412 1.1711775539
C 0.0468653796 1.3431770240 0.4672260051
N 1.1514254606 1.8105794181 -0.1854827013
C 2.4115278742 1.1335112252 -0.1885903985
C 3.1525233972 1.0211627700 1.1129599136
C 3.7102689282 1.9079104698 0.0146627091
C 4.6942727872 1.2594727157 -0.8984923039
C 4.1537154822 0.2364356973 -1.5661044582
C 2.6825760490 0.0648444481 -1.2566046705
H -0.8334020770 1.9942983264 0.2865478209
H 1.0209255932 2.5830669228 -0.8217363855
H 2.6919859368 1.5098526993 1.9631848319
H 3.6697886348 0.0944541321 1.3364134792
H 3.7158720422 2.9817273522 0.1702792225
H 5.7279482797 1.5787752079 -0.9644943865
H 4.6840568811 -0.4178593131 -2.2483272570
H 2.4362672855 -0.9406789213 -0.8958603231
H 2.0585459378 0.2370093844 -2.1447581916