14

O 0.2633069163 0.1273977438 -0.3635527399
C 0.3147252082 1.3187815124 -0.3519810276
O 0.8315573638 2.0125677884 0.6850150213
C 0.9240127100 3.4352019143 0.5467956498
C 2.3069545446 3.8368237351 0.1429623833
C 3.4846934900 3.1330265060 0.2304329473
N 4.4041462625 3.9944890345 -0.2635722522
N 3.8466468802 5.1593421356 -0.6364646287
N 2.5719162152 5.0634846585 -0.3906937908
H -0.0569315606 1.9745631935 -1.1631174299
H 0.1968451950 3.8090285953 -0.1841461061
H 0.6541695406 3.8500416947 1.5224728771
H 3.7243595751 2.1439345308 0.5799787535
H 5.3955186391 3.8610402071 -0.3866750070