21

C -0.0594601529 1.5343950347 0.0134764435
C 0.0347446215 0.0203707080 0.0109216813
C 1.0501011906 -0.6844659385 -0.9428497456
C 1.2557725457 -1.7075454877 0.1797671791
C -0.0713805316 -2.4963461735 0.5306995188
C -0.0908027479 -1.7881197816 1.9140385361
C 0.7496424838 -0.6863149938 1.2439549055
O -1.1509252785 -2.0746316625 -0.2863202826
C -1.3204771946 -0.6581936019 -0.2143247108
H 0.9216861049 1.9879608910 0.1886360226
H -0.4346594416 1.9121605392 -0.9450005993
H -0.7354102734 1.8906945346 0.8002004950
H 0.6724771184 -1.0334593132 -1.9088075708
H 1.9499886120 -0.0808532395 -1.0981586116
H 2.1820490133 -2.2755375684 0.2800052066
H -0.0546898080 -3.5863918089 0.4879632675
H -1.0657906016 -1.5595654974 2.3548682722
H 0.5105417777 -2.3365752243 2.6457141149
H 1.4079363352 -0.0393573331 1.8273787115
H -2.0262414495 -0.3927257617 0.5879107647
H -1.7632649034 -0.3450665016 -1.1667693587