19

O -0.1492264399 1.3566321779 0.0825110963
C 0.0381148679 -0.0241374491 0.0142532816
C 1.1594485405 -0.7225801285 0.8049324394
C 1.1647676092 -1.8153193038 -0.3070410402
C 0.1361212686 -2.9084313618 0.0187615971
C -1.1901704988 -2.2313531219 -0.2798843821
C -1.0561440034 -1.2803278581 -1.4339232472
C -1.3304060920 -0.7370348054 -0.0328255636
C 0.4119369657 -0.8154534130 -1.2857769702
H 0.7093411723 1.7792826301 -0.0277977554
H 2.0760628895 -0.1203051740 0.7797427082
H 0.9683134445 -1.0387328814 1.8355046149
H 2.1384490652 -2.1983742703 -0.6128089117
H 0.2575684027 -3.7807208855 -0.6351148165
H 0.2281823342 -3.2557171200 1.0541355113
H -2.1115850333 -2.7974965690 -0.1860565775
H -1.6739902521 -1.2729476670 -2.3223103142
H -2.2373441337 -0.3088487735 0.3771397288
H 0.9569985329 -0.3670512955 -2.1137388188