19

C 0.0142546504 1.4783601807 0.0344920897
C -0.0628925083 -0.0094242725 -0.0225418271
C -0.0823923994 -0.8202195775 -1.0889870551
C -0.0273902546 -2.2641584233 -0.5961086474
C -0.8033403813 -2.1297473450 0.7351616049
C 0.0164727858 -0.9070700575 1.2177347732
C 1.4520859303 -1.5038106783 1.2137148624
C 1.4201074482 -2.3819668288 -0.0587388294
O 2.3271477943 -3.0154162624 -0.5271065789
H 0.9367267680 1.8056313637 0.5329500302
H -0.0065659698 1.9232845067 -0.9640275108
H -0.8159783396 1.8986186682 0.6161926522
H -0.0171274041 -0.5333446122 -2.1309531490
H -0.3034677290 -3.0455341706 -1.3009753995
H -1.8592599642 -1.8990530897 0.5747382594
H -0.7089928660 -3.0012524874 1.3925515181
H -0.2877715228 -0.4496703142 2.1602191372
H 2.2505831347 -0.7596601810 1.1695497314
H 1.6419476074 -2.1468846287 2.0805318883