14

O 0.0657678767 1.3637142329 -0.0250411248
C 0.0631226412 0.0277697955 -0.0279194752
N 0.1255692520 -0.7647361619 -1.0740501452
C 0.0864871250 -2.0078368931 -0.4855452685
N 0.1344273034 -3.1105739236 -1.3172608887
C 0.1137910338 -4.4531148553 -1.0051721886
N 0.0415094575 -4.9127215641 0.1768457695
N 0.0058474407 -2.0258899839 0.8301370146
N -0.0077109431 -0.6741930459 1.1099967136
H 0.1238035895 1.6462501525 -0.9464184833
H 0.1947592826 -2.8649876857 -2.2913669175
H 0.1683029772 -5.0538974980 -1.9221539739
H 0.0416628516 -5.9303727528 0.1485001506
H -0.0656903782 -0.3509688767 2.0598841675