25

C -0.2972792147 1.5624816592 -0.0218827777
C 0.0363890527 0.0669835010 0.0084732533
C 0.8577519018 -0.4261917454 -1.1624779726
C 1.6925597812 -1.4100330698 -0.8237573884
C 2.5912429056 -2.1838013030 -1.7373815299
C 1.5491142224 -1.7366492292 0.6591626895
C 2.8282931364 -2.1986714915 1.3657335342
C 0.8613945643 -0.4544281829 1.2289435763
C 1.8651740920 0.5783522820 1.7579943749
H 0.6021118811 2.1826981797 -0.0790323503
H -0.9132480151 1.7947530280 -0.8974575583
H -0.8622302669 1.8657319999 0.8663809692
H -0.9249196817 -0.4739943552 0.0035864399
H 0.7233140388 -0.0457216551 -2.1710565110
H 2.5145934565 -1.8265213661 -2.7680638100
H 3.6420939018 -2.1125623947 -1.4314840756
H 2.3398230499 -3.2529918473 -1.7312590283
H 0.8253066527 -2.5653247783 0.7410550259
H 3.6371542011 -1.4671847160 1.2765705489
H 2.6475007250 -2.3697239874 2.4323300237
H 3.1872996265 -3.1418733700 0.9412618900
H 0.1895005716 -0.7231316995 2.0525777630
H 2.5719065531 0.8909922816 0.9819741935
H 1.3524159858 1.4726907285 2.1228739028
H 2.4431526881 0.1726368314 2.5930220372