21

C -0.0663353591 1.5480357105 0.0007948155
C -0.0025422635 0.0128280347 -0.0111961991
O -1.3394172588 -0.4900516400 0.1093599324
C 0.6518631309 -0.5103815703 -1.3338704290
C 2.0627983543 -1.0513261692 -1.1071838942
C 2.8852500383 -0.1984282303 -0.1204032589
C 2.1305259120 -1.0659903711 0.9075237188
C 0.7419838641 -0.5292935624 1.2444898414
O 1.9751966794 -2.1022854907 -0.1045110275
H 0.9263397040 2.0062103164 -0.0376372739
H -0.6282945867 1.9155633571 -0.8669779034
H -0.5713325951 1.8934562038 0.9075701917
H -1.8601757882 -0.1186857022 -0.6115762893
H 0.0377992767 -1.3347872997 -1.7090391757
H 0.6601857702 0.2774462105 -2.0977941589
H 2.5361907786 -1.3972113821 -2.0302882571
H 3.9453305151 -0.4538648593 -0.1586018374
H 2.7591611515 0.8850813666 -0.1085905901
H 2.6668154687 -1.4265088123 1.7894595619
H 0.8042955245 0.2477385999 2.0152249965
H 0.1488618428 -1.3516506398 1.6530518765