14

N 0.0133102480 1.3321729395 0.0095945048
C 1.2442209085 1.8769185940 0.0005374521
C 2.1250652523 0.7943894682 -0.0141295807
C 3.5267876349 0.6038404614 -0.0289587865
N 4.0651060150 -0.5920193136 -0.0408998365
C 3.2359922745 -1.6829884619 -0.0388209556
C 1.8656911348 -1.6397532615 -0.0251157771
C 1.2711614691 -0.3573985917 -0.0121442027
N -0.0289239451 -0.0140917074 0.0025466484
H -0.8619914924 1.8322755296 0.0209610224
H 1.3966441928 2.9440920495 0.0049728926
H 4.2062069265 1.4548566022 -0.0309057960
H 3.7485941253 -2.6406205668 -0.0491791308
H 1.2655891458 -2.5417616416 -0.0242305345