14

O -0.0593945233 1.4260243952 0.0109242624
C 0.0053159091 0.0576889779 0.0031744959
C 1.1577311980 -0.6540202009 -0.0070662771
F 2.3548075799 -0.0661289099 -0.0107424205
N 1.1840504148 -2.0123125593 -0.0144826685
C 0.0418996356 -2.8295376579 -0.0123716417
N 0.2324701283 -4.1015114800 -0.0202710817
C -1.1930897308 -2.0611239587 -0.0013439014
C -1.2019251185 -0.7026413650 0.0059030582
H 0.8386025343 1.7753338502 0.0064723591
H 2.0756200324 -2.4876735211 -0.0221015199
H -0.6612029802 -4.5877981462 -0.0178606031
H -2.1209247974 -2.6202227174 0.0008756816
H -2.1359896422 -0.1502829068 0.0140571068