13

N 0.0475933645 1.3096165393 0.0093193488
C -0.0148447643 0.0465596718 0.0032228364
O 1.1637204643 -0.7268484879 -0.0073745214
C 1.1003862289 -2.0816480088 -0.0139447593
N 0.0270256776 -2.7870479184 -0.0114410125
C -1.1658703316 -2.0812050813 -0.0011579669
C -1.2316292080 -0.7349679271 0.0060546946
C 2.3916540174 -2.6832151170 -0.0240956665
C 3.4847673101 -3.1827852616 -0.0326473392
H 1.0148448974 1.6330233537 0.0055356926
H -2.0605941586 -2.6944864328 0.0007449867
H -2.1668869691 -0.1918495421 0.0140692314
H 4.4476792915 -3.6324422876 -0.0402708748