23

C 0.0887959942 1.5640500287 0.2087515904
C -0.0687020598 0.0649492351 -0.0633958952
C 0.6450042511 -0.4689280335 -1.3398961760
C -0.0112861441 0.1107178332 -2.6200635391
C 2.0486070104 0.0024883259 -1.2892687465
N 3.1315060399 0.4046000905 -1.2533770624
N 0.6917786884 -1.9497929512 -1.2999503920
C -0.6000430661 -2.6105566590 -1.1670704166
C 1.4774820833 -2.5620431123 -2.3663953123
H 1.1390339502 1.8466323717 0.3196268880
H -0.3446804893 2.1755506118 -0.5882529622
H -0.4290910850 1.8245946450 1.1363928297
H 0.3165984648 -0.5106499481 0.7843026216
H -1.1339357314 -0.1667004518 -0.1562164459
H 0.0257018987 1.2021258369 -2.6203315153
H 0.4989463088 -0.2388096391 -3.5200871340
H -1.0593828538 -0.1970514186 -2.6704800358
H -1.2729463262 -2.4650545868 -2.0313104016
H -0.4226508265 -3.6858989134 -1.0719991833
H -1.1219646953 -2.2874106248 -0.2653200677
H 2.4555436497 -2.0817472011 -2.4413822839
H 1.6402377302 -3.6158718731 -2.1201250095
H 0.9936328479 -2.5239538160 -3.3583594504