20

C 0.0707635120 1.4617286584 -0.2374575283
C -0.0811319276 -0.0085692519 0.1754872498
C -1.5069851861 -0.5083774974 0.1377439749
C -2.6109201665 0.0653472127 1.0156206116
N -3.7798008794 -0.7339802740 0.6301084683
C -3.6569057064 -1.0985769542 -0.7938176344
C -3.3294990560 -2.0899813876 0.2663923805
C -1.8176733487 -1.9766906967 -0.0735640287
C -2.1513072684 -0.9662716914 -1.1565318595
H 1.1223025918 1.7642345038 -0.2227404501
H -0.3144587767 1.6282042728 -1.2486611146
H -0.4746907697 2.1269581934 0.4394121151
H 0.5348029655 -0.6345300785 -0.4815308846
H 0.3213690855 -0.1470564647 1.1877037705
H -2.4102142417 -0.0637654247 2.0850945863
H -2.8108280729 1.1236221220 0.8188746707
H -4.5092850052 -0.9937595631 -1.4527698382
H -3.8612993303 -2.9542405955 0.6431821115
H -1.0831726397 -2.7697553071 -0.0716611992
H -1.7234352693 -0.8434032664 -2.1415766115