21

C -0.6059268073 1.2445887678 0.1917249920
C -0.0725549072 -0.1676218721 -0.0774480196
C 0.9678556324 -0.2693594751 -1.2121730501
C 2.5437266526 -0.2344924705 -1.0034793931
C 3.1365925231 -0.5293177248 0.4195408446
C 1.8572424447 -1.3863913902 0.5434998014
C 1.7463180976 -1.5069537210 -0.9875188172
C 0.7902079977 -0.7320903599 1.0662203390
C 0.7514655178 -0.1929929047 2.4613071391
H 0.2045730484 1.9415663869 0.4271243251
H -1.1164116802 1.6218636467 -0.7004545364
H -1.3251902240 1.2612187074 1.0167727894
H -0.9311324871 -0.8018683532 -0.3506704809
H 0.6815652097 0.0237981383 -2.2221974496
H 3.1391472920 0.1345893712 -1.8364822594
H 4.0835703312 -1.0706212205 0.3058089882
H 3.2621754407 0.2851992279 1.1401423717
H 1.8317223374 -2.3981279126 -1.5956927252
H 1.6484321892 -0.4866608168 3.0139191562
H 0.6563558547 0.8982277628 2.4983955245
H -0.1121138834 -0.5948800876 3.0093191202