19

C -0.0107071570 1.5333663907 0.0397295531
C -0.0636767781 -0.0050136111 -0.0128124046
C -1.5178693870 -0.5083839921 -0.0284815092
C 0.7046771625 -0.5346072026 -1.1900687272
C 1.8879777888 -1.2472999634 -1.2293462250
N 2.7939294647 -1.6676386803 -0.2535133866
N 2.1115377756 -1.4393239872 -2.5531929684
N 1.1255244375 -0.8924829671 -3.3070371440
N 0.2911390916 -0.3429847854 -2.4798766057
H 1.0206906230 1.8936687379 0.1033941305
H -0.4572719853 1.9560562849 -0.8652061291
H -0.5617737637 1.9134296112 0.9063999743
H 0.4176172305 -0.3911479623 0.8980848620
H -2.0196554388 -0.1807114526 -0.9431378427
H -1.5593039778 -1.6014511810 0.0015869447
H -2.0729101882 -0.1189244923 0.8311604621
H 2.4876230040 -1.4011976007 0.6734705556
H 2.9651390710 -2.6671783518 -0.2664803881
H 2.8966030666 -1.8840042851 -3.0007045917