23

C -0.0844300930 1.5297298450 0.0751100609
C 0.0339127576 0.0177465623 0.0773165374
C -0.9014710464 -0.6924283201 -0.8826804202
C 1.4124606954 -0.5861522284 0.3031891283
C 0.3485273807 -0.6717691391 1.3737310056
O 0.4404332057 0.1151323692 2.5255740587
C 1.1644876934 -0.4831758073 3.5602793702
C 2.6464900119 -0.2429129322 3.6843994108
C 1.6675525374 0.4286471020 4.6296216069
H 0.5661992143 1.9809073365 0.8263465333
H 0.1822581751 1.9363703001 -0.9071936629
H -1.1118712357 1.8407295624 0.2969820897
H -0.6987380185 -0.3936875261 -1.9180514105
H -0.7900405858 -1.7799106176 -0.8249084114
H -1.9485006465 -0.4505920439 -0.6651184747
H 1.6884002411 -1.4895079105 -0.2317608166
H 2.2306967114 0.1029524484 0.4797219185
H -0.1106057796 -1.6460377178 1.5509331337
H 0.7839604124 -1.4619888921 3.8541816646
H 3.2742156315 -1.0439724347 4.0594592890
H 3.1105411932 0.3845789364 2.9329767380
H 1.4880554575 1.4873901267 4.4808471275
H 1.6162885967 0.0990525710 5.6610924733