17

O 0.0387196625 1.3681672136 -0.0241120960
C 0.0104426495 -0.0353881396 -0.0248387747
C 0.5394941654 -0.6858399960 1.3026454699
C -0.7881159555 -1.3310005801 1.7586273277
C -1.2621632039 -2.0609810828 0.4660042944
C -1.4293212890 -0.5913376140 0.0218412749
N -1.7598196104 -0.1988220649 1.4514054146
C -0.8485561727 -1.9500404800 3.0648758481
N -0.9051820963 -2.4608348582 4.1003165641
H -0.5514497836 1.6377364558 0.6939760172
H 0.5632718814 -0.3637321863 -0.9074520713
H 1.3249023470 -1.4291144130 1.1533328125
H 0.8908923744 0.0773262096 1.9980350013
H -0.5499593319 -2.7088746494 -0.0534930817
H -2.2178729233 -2.5703502070 0.6059560398
H -2.1138756957 -0.2715861670 -0.7617297233
H -2.7011752779 -0.5296437406 1.6661602024