18

O 0.1175822210 1.2873771987 -0.3252520115
C 0.0428454521 0.0061828203 0.2826874685
C -1.3686178793 -0.5088632867 0.2838194235
C -2.5055879415 -0.0933260970 1.2315265021
C -3.0591504364 -1.5549245703 1.1848212866
C -1.9252510399 -1.9397201406 0.2291530748
N -1.8820938054 -1.0697713273 -0.9509018829
C -1.1935573835 -3.2188916295 0.2001039767
O -1.3893041595 -4.1184374096 0.9827314994
H -0.1412366770 1.1734865228 -1.2466842686
H 0.6995574587 -0.7188565826 -0.2179197839
H 0.4000502913 0.1364879100 1.3089757621
H -2.1504909753 0.1890646408 2.2247402595
H -3.1553840755 0.7018646559 0.8538227023
H -2.9793866075 -2.0715010094 2.1420055155
H -4.0696796850 -1.6962422780 0.7895764769
H -2.8105133532 -0.7296972216 -1.1970407625
H -0.4286783541 -3.2880444060 -0.6030600187