17

N -0.1304649955 1.6035003535 -0.1432591320
C -0.0187480231 0.1507423496 -0.0647349223
C -1.3426710034 -0.4325938984 0.2150524955
N -2.3721146040 -0.9165627509 0.4158612137
C 0.5841365503 -0.5438709885 -1.3124395144
O 0.0818312535 0.0145837055 -2.5432961254
C 1.3919332841 0.4813833796 -2.9361815136
C 2.0354304671 -0.1532796750 -1.6826172437
O 2.6412760016 0.7070124832 -0.7438614812
H 0.8088033398 1.9853472807 -0.1934715901
H -0.6034080607 1.8413774980 -1.0111797811
H 0.6306858577 -0.0968777357 0.7837789652
H 0.4033869002 -1.6240847504 -1.2604277466
H 1.6960197615 0.0725971166 -3.9062303198
H 1.4543048911 1.5762030329 -2.9563905823
H 2.6757857938 -1.0155374803 -1.8968645116
H 3.5683094360 0.8219921297 -0.9727859900