19

C -0.0383949524 1.5541996586 -0.0253700726
C 0.0264844129 0.0314234299 0.0464068658
C 0.7583786636 -0.4783219811 1.2675594853
O 1.2490019187 0.2334828015 2.1133103414
C 0.8657569769 -2.0189611221 1.4093468143
O 0.3755644911 -2.7347969061 0.5645047335
C 1.5954453796 -2.5286809305 2.6270148070
C 1.6560552519 -4.0469291538 2.6915507563
O 2.3629362730 -4.3849880352 3.8741839968
H 0.9643157572 1.9891399625 -0.0495408923
H -0.5751891267 1.8735322216 -0.9225061824
H -0.5495893654 1.9669698247 0.8484042488
H -0.9725051180 -0.4237849213 0.0462165105
H 0.5146259666 -0.4020933111 -0.8361701821
H 2.6044463868 -2.0982063561 2.6395732499
H 1.1136155378 -2.1199926539 3.5238645373
H 0.6359882412 -4.4581470620 2.6938162037
H 2.1553350354 -4.4357928258 1.7920323320
H 2.4105190299 -5.3436870298 3.9304054167