20

C -0.1651647591 1.5681052626 0.1099142799
C -0.0348553913 0.0725083797 0.0409663734
C -1.2313612857 -0.8960318616 0.0402383394
C -0.4291175309 -1.8823584940 0.9472313331
C 0.7550203346 -0.9106485216 0.9308619405
C 1.2056204894 -0.6102506996 -0.4737429867
C 1.2420152193 -1.6189072530 -1.6175110742
C 2.4333263774 -2.4674974071 -1.5670980297
N 3.3820566002 -3.1253399280 -1.5142341199
H 0.7992367013 2.0423360467 0.3190710574
H -0.5376251046 1.9804702995 -0.8360797878
H -0.8647378448 1.8691818351 0.8980875058
H -2.0947772475 -0.4740917210 0.5602252870
H -1.5724203980 -1.2620694348 -0.9344341101
H -0.8758347177 -1.9822064418 1.9381257519
H -0.2424318362 -2.8885564464 0.5576346557
H 1.4003779890 -0.6992921533 1.7758801845
H 2.0622803005 0.0597346438 -0.4925898780
H 0.3604766352 -2.2664700203 -1.6081701388
H 1.2322751492 -1.0964954850 -2.5816360233