21

C -0.0565968303 1.5268984792 0.0200197047
C 0.0048182435 -0.0052135751 -0.0007031879
C -1.4163408185 -0.5657674660 -0.1335494324
C 1.0500739914 -0.6115478642 -0.9933067989
C 2.3571350669 -0.0425837662 -0.4108540914
O 2.1148468589 -0.0626908034 1.0141931536
C 0.8180823089 -0.6189545133 1.1617412929
O 0.8512849416 -2.0072799437 0.8714890091
C 1.0271534556 -2.0893901416 -0.5610601747
H 0.9045335885 1.9865369581 0.2510905331
H -0.4038661423 1.9130695310 -0.9447586883
H -0.7710032435 1.8632479556 0.7790547065
H -1.8453261253 -0.3052118414 -1.1075123972
H -1.4575413215 -1.6487578955 -0.0157861563
H -2.0650466844 -0.1284197934 0.6329686254
H 0.8947442556 -0.4325031170 -2.0577384983
H 3.2269264837 -0.6677767123 -0.6436430693
H 2.5703910803 0.9818594647 -0.7359885137
H 0.4874185014 -0.4795731364 2.1902500800
H 0.2034233285 -2.6608434850 -1.0033096372
H 1.9671307513 -2.6065679038 -0.7859248998