14

C 0.0238404380 1.4889443477 0.0976265137
C 1.3186935602 0.7215514065 0.0076681389
N 2.0603325407 0.3379412845 1.2154427379
C 1.1381598621 -0.4234287932 1.9513189856
C 0.0041393875 -0.7252332113 1.2691017483
O -0.7380553596 -1.5497779486 1.9755245383
N 0.0362080267 -1.7434929187 3.2377484546
N 1.0995690915 -1.0662108203 3.1433606836
C -0.0330276037 -0.0273243142 -0.0273908609
H -0.2721924323 1.9330605474 1.0415190100
H -0.2588391733 2.0544480147 -0.7833004585
H 1.9246313465 0.8225477842 -0.8849817298
H 2.4846479894 1.1173495787 1.7047319567
H -0.4248496338 -0.4920902374 -0.9227476784