15

O -0.0773249630 0.2306564647 -0.8977314166
C -0.0806410752 1.2734967718 -0.3050027787
C -1.2260296382 2.0368739459 0.2420371182
C -1.0555113749 2.4990191629 1.6996307096
C -0.6740760620 3.4146617531 0.5999532145
N 0.7503414570 3.5027782681 0.2953827432
C 1.2118541879 2.1519776607 -0.0594634345
C 2.0508173649 1.5515812399 0.9842504109
N 2.6924334492 1.0652508657 1.8134358157
H -2.2156998126 1.8375004657 -0.1459048743
H -1.9850579443 2.6944046762 2.2210264713
H -0.2813998577 2.0444188069 2.3080675608
H -1.2394794513 4.3195863645 0.4167778517
H 0.8848008901 4.1150773090 -0.5000510786
H 1.7833961200 2.1562190649 -0.9916513631