16

N 0.8538649727 0.2813554771 -0.2093222838
C -0.3336887734 0.6281303182 0.0697921420
N -1.3960206983 -0.1878128507 -0.3020318486
C -2.7169516764 0.1053509134 -0.0399705614
O -3.0803993691 1.1183867492 0.5143781851
C -3.6955731218 -0.9982442081 -0.4640768262
O -4.9852520715 -0.4983027763 -0.7069569030
C -5.7255285930 -0.1522269102 0.3776235045
N -6.8697181527 0.3429697083 0.2054495997
H 1.5163996218 0.9785858492 0.1249987781
H -0.6680889216 1.5276251297 0.5894019107
H -1.1463823849 -1.0327715502 -0.7979233908
H -3.3691181660 -1.4743536466 -1.3929980440
H -3.6968534506 -1.7692840044 0.3221361143
H -5.2322614970 -0.3670040889 1.3322925873
H -7.3067693481 0.5303931504 1.1051493862