20

O 0.0941741098 -0.1878430815 -0.4018491783
C 0.0585953212 1.0245425678 -0.4427392424
N 1.0462154715 1.8655176964 0.0054702371
C 0.9526260386 3.2795438661 -0.2121199924
C -0.3416073220 4.0053770154 0.0575081961
C 0.8423734223 4.2334268714 0.9570108024
C 2.2882125624 1.2622811992 0.4341611080
C 3.6374543727 1.7985589936 0.0339639624
C 3.1893509599 1.8547700268 1.4811738963
H -0.8014279506 1.5856723545 -0.8469977902
H 1.5250105883 3.6428566736 -1.0638546067
H -0.6315628169 4.7813448836 -0.6412498428
H -1.1697538667 3.4412543831 0.4683527987
H 0.7906800508 3.7973124942 1.9472573629
H 1.3792374706 5.1733168688 0.8978271832
H 2.1695706644 0.1869263002 0.4377888145
H 4.3987283121 1.0855257406 -0.2620754698
H 3.6844866411 2.7429671830 -0.4961445005
H 2.9584488269 2.8339453427 1.8801287389
H 3.6348126837 1.1739312303 2.1982158727