20

C -0.0042404734 1.5711787649 0.0077982069
C 0.0259961190 0.0488963231 0.0349719716
C 0.5895167285 -0.6329619983 -1.2281805605
C 1.2890687754 -1.8875934267 -0.6855744425
O 1.5272754237 -2.9010745666 -1.2924046896
C 1.5527765634 -1.6621048122 0.7793346739
C 1.6833025553 -2.8577511254 1.6839623817
C 2.2471277633 -0.3589742892 1.0434558864
N 0.8025869209 -0.4608319438 1.2072729156
H 0.9951744884 1.9868123805 -0.1599762568
H -0.6544345878 1.9282840027 -0.7966776548
H -0.3813714238 1.9634439840 0.9565130669
H -0.9938501118 -0.3183702247 0.1990216812
H -0.1778743051 -0.9155005087 -1.9508781309
H 1.3174353034 -0.0103931830 -1.7624525216
H 2.4909071078 -3.5054933189 1.3308126420
H 1.8976125395 -2.5482052333 2.7094654864
H 0.7612640128 -3.4472688482 1.6871523020
H 2.8079782298 -0.2627423526 1.9690179862
H 2.6603182107 0.2004820564 0.2077365959