21

C -0.1007759704 1.5511983085 0.0808541855
C -0.0256572007 0.0362671283 -0.0367934954
C 0.7224546700 -0.5849871693 -1.2536787532
C 0.1008201495 -1.2034598624 -2.4697381672
C 1.0047245727 0.0036910405 -2.6012827540
C 1.6947539494 -1.2549757155 -0.3089938245
O 2.3038478844 -0.2150153472 0.4825386329
C 1.0051743812 -0.6948848024 0.8671141094
C 0.8179452559 -1.1918971511 2.2634354529
H 0.9029803837 1.9816723267 0.0375820377
H -0.6953736523 1.9834316186 -0.7314671566
H -0.5678322384 1.8525630831 1.0250667562
H -1.0170707603 -0.4190140073 0.0717573203
H 0.4771657162 -2.1644198738 -2.8073106169
H -0.9647934484 -1.0662735478 -2.6257965486
H 0.5449537860 0.9562732359 -2.8446911905
H 1.9931929449 -0.1335804425 -3.0272223751
H 2.2567432756 -2.1746264451 -0.4362474728
H 0.7336888098 -0.3561435834 2.9676883237
H -0.0946830622 -1.7914320904 2.3437929286
H 1.6703651034 -1.8052848533 2.5674967276