18

O -0.2805699049 -0.0542322103 0.1230617173
C 0.0161401756 1.1104159586 0.0860177147
C 1.3524346422 1.6424406714 -0.4076892036
N 1.1833746462 2.9374530538 -1.0488109678
C 2.3770271818 3.7218368706 -1.1852527904
C 3.4502077876 3.5950662947 -2.3377464491
C 2.4432829709 4.1993322317 -3.3434778812
C 2.3939662564 5.0217712070 -2.0302727478
O 3.8713901163 4.9674731314 -1.9865518092
H -0.6776639071 1.9125512293 0.4253256740
H 1.9770548363 1.7863067232 0.4865954279
H 1.8408902048 0.8661675999 -1.0166139742
H 0.6911526673 2.8402196826 -1.9289822632
H 2.8532797385 3.8545547843 -0.2103809831
H 4.2365766135 2.8576048217 -2.5018844214
H 2.8968281741 4.7176255378 -4.1888609050
H 1.5695577111 3.6129884129 -3.6421441875
H 1.9175854993 5.9821458095 -1.8306764603