23

C 0.0987876677 1.5586282608 0.1596731109
C 0.0147247459 0.0391590890 0.0003040260
C -1.4232213365 -0.4867884101 -0.0464823801
C -1.4403454724 -2.0173295816 -0.1859905583
O -2.5950543480 -2.6046396322 -0.7597017301
C -3.8764175383 -2.1019181366 -0.4195753709
C -4.0477260191 -1.5341700687 0.9921329289
C -3.4583731051 -0.1319206404 1.1769673305
O -2.0477692762 -0.0735939632 1.1643785769
H 1.1404066249 1.8895424338 0.2121428481
H -0.3715614916 2.0706000983 -0.6875838356
H -0.4120253487 1.8782171266 1.0705245349
H 0.5242226077 -0.2720683990 -0.9188528509
H 0.5347152757 -0.4524066514 0.8326382740
H -1.9458033219 -0.0361402835 -0.9082245585
H -0.6197320795 -2.3322939705 -0.8394597030
H -1.2439726315 -2.4313280630 0.8157421177
H -4.1795332499 -1.3267663780 -1.1444298288
H -4.5580362068 -2.9481881502 -0.5602476907
H -5.1261468453 -1.4662500233 1.1857377698
H -3.6335832492 -2.2218502800 1.7383954368
H -3.8736644602 0.5330348215 0.3988671026
H -3.7552968117 0.2734067418 2.1495632999