12

N 0.1055572749 1.2967821186 -0.0820995307
C -0.0360842826 -0.0425081702 -0.0309970913
N -1.1580648110 -0.6478801350 -0.0045795145
C -1.1663903795 -2.0561955126 0.0014673936
O -2.1911565131 -2.6838746258 0.0161406206
N 0.0934355223 -2.7207446882 -0.0056529876
C 1.1396106504 -2.0054491222 -0.0232689510
O 2.3754272694 -2.4888380692 -0.0283630479
O 1.2032689369 -0.6518616664 -0.0397542705
H 1.0069475709 1.7081402882 0.0881410243
H -0.7240427821 1.8490142298 0.0526672034
H 2.2851160836 -3.4531539671 -0.0168921085