25

C 0.3938780194 1.3970452233 0.2827585294
C -0.0916495309 -0.0320821492 -0.0253137879
C -1.6206615043 -0.0390125031 -0.1360746330
C 0.5838902438 -0.5830112631 -1.3051455204
C 1.9830215407 -1.0595128083 -0.8648246936
C 1.8785019222 -1.3840000364 0.6617892110
C 2.2400027250 -2.8351472747 0.9883258518
O 2.7139305741 -0.5053351135 1.4327619039
C 0.4209578546 -1.0326816653 1.0371365649
H 1.4761779492 1.4350481559 0.4223567053
H 0.1189637106 2.0833479010 -0.5264300452
H -0.0666558563 1.7688191624 1.2049501920
H -1.9619111996 0.6329198080 -0.9320263090
H -1.9995626611 -1.0425373178 -0.3604076406
H -2.0878484245 0.2944712283 0.7974315136
H 0.0018305331 -1.4351978203 -1.6778650279
H 0.6199418211 0.1545665702 -2.1134565414
H 2.3245449262 -1.9216098132 -1.4459996988
H 2.7265910518 -0.2677661173 -0.9971871455
H 3.2861012914 -3.0430203458 0.7304004135
H 2.1080988804 -3.0322533996 2.0565566934
H 1.6156010970 -3.5361369543 0.4246048793
H 3.6276220904 -0.6759384150 1.1795927386
H 0.3736556059 -0.6463107065 2.0591111287
H -0.1895431102 -1.9425689761 0.9979619679