19

C -0.0243741897 1.0587025953 -0.5494837124
O -0.3896552103 0.1006273612 0.4340639281
C -1.1977673165 -0.8941635804 0.0034586850
N -1.5710588862 -1.7866112961 0.8049278220
C -2.4382340902 -2.8661731824 0.3676395293
C -2.8976448186 -2.9058625095 -1.0956460666
C -3.7980431442 -4.1021830223 -1.3750472534
O -4.1711477828 -4.0562273627 -2.7444385488
H 0.6191779331 1.7834059193 -0.0490848752
H 0.5315226355 0.5986202270 -1.3761399239
H -0.9018859555 1.5794076504 -0.9530895781
H -1.4619584799 -0.8216739114 -1.0595195785
H -1.9224655449 -3.8063434920 0.6095755184
H -3.3209113173 -2.8502837890 1.0226928186
H -3.4497023568 -1.9939573987 -1.3538103446
H -2.0355985774 -2.9607052345 -1.7715569503
H -3.2611782273 -5.0358854671 -1.1399924448
H -4.6836992949 -4.0633846635 -0.7197751580
H -4.7401699560 -4.8098375535 -2.9261922569