18

C 0.0130437076 1.5127819627 0.1001302562
C -0.0148122268 0.0231559269 0.0098781553
C 0.8082987253 -1.0057928746 -0.8184129591
C 0.6760279602 -2.0199092217 0.2583023498
C -0.1469406435 -1.0375408962 1.1226985554
C -1.1471776015 -0.9770904595 -0.0101851940
C -2.6323437749 -0.9140793818 -0.0909487208
O -3.2316587263 -2.1507367440 0.2633256290
N -0.3431189069 -1.9786870003 -0.8492268469
H 0.9900344695 1.8737991683 0.4417957013
H -0.1964139399 1.9794665333 -0.8694807693
H -0.7383911698 1.8724289251 0.8112206592
H 1.5064983449 -0.9104548393 -1.6424846408
H 1.2498806640 -2.9115003950 0.4812199113
H -0.2748985229 -0.8967070435 2.1868652888
H -3.0180195249 -0.1618758761 0.6060460103
H -2.9296707846 -0.6074871162 -1.1074291297
H -2.8073178197 -2.8255893282 -0.2795528260