12

N -0.0855609867 1.2782082637 0.0101997161
C -0.0282752500 0.0173652184 0.0033769652
O 1.1253157816 -0.7363393047 -0.0067413456
C 0.7879941943 -2.0975150525 -0.0119367182
O 1.6154873298 -2.9487932779 -0.0208257379
C -0.7075799196 -2.1633597089 -0.0042087515
C -1.5170468917 -3.4000297925 -0.0062206975
O -1.0656984197 -4.5159127515 -0.0143881862
C -1.1710641002 -0.9033434618 0.0048071770
H 0.8499220192 1.6900510426 0.0072730842
H -2.6123829733 -3.2094505942 0.0006295361
H -2.1958269437 -0.5583410607 0.0121236283