23

C -0.0938543286 1.3131828573 0.0941200579
O 0.1496744628 -0.0756482277 -0.0268313558
C 0.7180489296 -0.5582875076 -1.2664088726
C 0.0451598280 0.0446073222 -2.5037024565
C 2.2227650508 -0.2108832039 -1.2501548748
O 2.8419113738 -0.6318080378 -0.0529688826
C 0.5398071639 -2.0854648230 -1.2018956128
C -0.9017271366 -2.5762991561 -1.0456306960
O -0.9713475974 -3.9942299263 -0.9773346682
H 0.8038601537 1.9213535452 -0.0827649518
H -0.8859015140 1.6568289301 -0.5829668975
H -0.4239104547 1.4778436008 1.1230667589
H 0.2679748912 1.1100399455 -2.6123310417
H 0.4087242846 -0.4612639770 -3.4031390972
H -1.0409450734 -0.0742283249 -2.4664884489
H 2.7305350392 -0.7154817643 -2.0791169546
H 2.3503151274 0.8736485070 -1.4036802058
H 2.2086230509 -0.4250626842 0.6470717828
H 0.9712289813 -2.5294675846 -2.1060967513
H 1.1351162861 -2.4513520625 -0.3571787985
H -1.3616912593 -2.1046581212 -0.1672645798
H -1.5052065958 -2.3037477342 -1.9175454982
H -0.4896101036 -4.2711644126 -0.1912825150