18

O 0.1715658690 1.3171658508 0.0547933732
C -0.0196705893 -0.0865292664 0.0930394350
C -1.4758019482 -0.4794296676 -0.0086065274
O -1.6661941620 -1.9188570768 0.0472850143
C -2.4357505255 -1.9030973997 -1.1873753802
C -2.3838563668 -0.3712485070 -1.2421368020
N -3.4087169252 0.4584130043 -0.4874861665
C -3.8461685254 -0.2728800051 0.7209839665
C -2.5195926670 0.3572917836 0.7572432515
H -0.1164691452 1.6358310000 -0.8069489883
H 0.5554978918 -0.6074398813 -0.6867665578
H 0.3666535092 -0.4239385571 1.0619270744
H -1.8860280826 -2.3915707717 -2.0014723319
H -3.4170615293 -2.3783039786 -1.0813982250
H -2.1157421351 0.1145432634 -2.1801367410
H -4.6557603053 0.2430657487 1.2280705870
H -3.9275902709 -1.3542017853 0.7242989859
H -2.2782463924 1.2341695457 1.3475158224