21

C -0.4610136869 1.0401717036 0.0592246082
O 0.5069768750 0.0362743545 -0.1687418043
C 0.9561991160 -0.5654732560 0.9961796940
C 0.1433144611 -1.6404933173 1.7231607070
C -0.9755263827 -2.2614893911 0.9653241449
C -0.5495542268 -2.8581937924 -0.1502486184
C 0.9524973782 -2.7778511205 -0.2962539996
C 1.4199475551 -1.9852902088 0.9353475319
C 2.7154053570 -2.3878936156 1.5991036205
H -0.0655903742 1.8456788508 0.6967096126
H -0.7281008573 1.4581964034 -0.9142180720
H -1.3610087505 0.6275747019 0.5356595994
H 1.5212107918 0.1044312865 1.6497904416
H 0.1265767592 -1.6109720962 2.8084590510
H -2.0087537924 -2.1901047578 1.2860792619
H -1.1826927972 -3.3270078567 -0.8949840344
H 1.4152402590 -3.7740684198 -0.3188838444
H 1.2403491739 -2.2735780445 -1.2269609732
H 3.5633271966 -2.2753526545 0.9128095984
H 2.9219778556 -1.7743470963 2.4819961347
H 2.6848603794 -3.4350946731 1.9212704403