21

C -0.2585830991 1.3475507285 0.2774859832
C 0.1924129195 -0.1099149319 0.1946291402
N 0.6215705131 -0.5121998704 -1.1547429317
C 1.9118882405 0.0813044725 -1.5076570143
C 0.5500959784 -1.9807804084 -1.3058841499
C -0.9141770051 -2.3763152960 -1.6357730142
O -1.3848843049 -1.6459656916 -2.7353157945
C 1.4236380413 -2.4771549795 -2.3777109665
N 2.1035314182 -2.9185382232 -3.2007862976
H 0.5593515298 2.0489475020 0.0930509803
H -1.0511331456 1.5478629018 -0.4494571855
H -0.6482010266 1.5565923969 1.2782981297
H 1.0002942044 -0.2982474414 0.9256305361
H -0.6461786197 -0.7470491331 0.4880710885
H 2.7273491137 -0.2341768807 -0.8337902189
H 2.1845195053 -0.1855614310 -2.5290508195
H 1.8313816642 1.1687511945 -1.4570191955
H 0.8674593681 -2.4991251251 -0.3832599714
H -0.9594658762 -3.4404414054 -1.8852388763
H -1.5318421776 -2.2198140139 -0.7371988705
H -1.0546898617 -0.7453682447 -2.5957376716