17

O -0.3772579984 0.4806156175 0.8467518487
C -0.0272020555 1.1355722887 -0.1014299669
C 1.1941701685 2.0216860891 -0.1063876688
C 1.1464748884 3.3464814664 -0.9346869096
C 1.4501973378 4.1528613751 0.3626865292
C 0.2224359640 4.5887088375 1.1983277804
O -0.7937735681 3.5925700127 1.0265275145
C 0.2469965736 3.3313322454 1.9741884695
C 1.4846216901 2.8269341177 1.1949363057
H -0.5858377733 1.1039612861 -1.0656504498
H 2.0442557172 1.3906933245 -0.3923748713
H 1.9290237341 3.4238054287 -1.6917773744
H 0.1798814407 3.5628650501 -1.3953617257
H 2.2916895258 4.8441691913 0.3644146423
H -0.1141518546 5.5877337446 1.4529424170
H -0.0636285383 3.0975037040 2.9852442134
H 2.3436591683 2.5544345608 1.8055598357