21

C -0.1921637976 1.6941917103 0.1208701347
C 1.1730900177 1.0420675714 0.0509828780
C 2.1642527470 1.0276089078 -1.1192945108
C 3.2897366467 0.6918938234 -0.0945629872
C 2.3166712069 1.0375314491 1.0730905597
C -0.0587308134 0.2033332318 0.0965894202
C -0.5113091030 -0.8549502905 1.0970324245
C -0.9364972166 -1.6330303050 -0.1669173673
O -0.4730972479 -0.5713548096 -1.0336855263
H -0.4959925822 2.1710428702 1.0495106816
H -0.5653609226 2.1717846907 -0.7808371622
H 1.9627598512 0.2881294286 -1.8979962395
H 2.2924367118 2.0086164734 -1.5872098900
H 3.5657319658 -0.3653972462 -0.1092687135
H 4.2026008394 1.2877244534 -0.1583324344
H 2.5038650726 2.0274242462 1.5019073335
H 2.2485387191 0.3158128338 1.8933378269
H 0.2854927534 -1.3152000147 1.6858658645
H -1.3251731261 -0.5576647738 1.7611375860
H -0.4021730747 -2.5714941380 -0.3533994490
H -2.0131801072 -1.8032980723 -0.2787773295