19

C -0.2620235990 1.5722867320 0.1699489275
C -0.0689712670 0.0661470178 0.0450833627
C 0.4817542092 -0.5791391375 -1.2546583958
C 0.9561578575 0.2954245420 -2.3971674773
C 1.6910821615 -0.5058712287 -3.4788376576
O 2.0892621843 0.3018843372 -4.5729810600
O 1.6161219191 -1.1331864829 -0.4883121929
C 1.1924845072 -0.5352907645 0.6717606596
O 1.7254736669 -0.5512639994 1.7343416496
H 0.6159478146 2.1297359404 -0.1660708737
H -1.1249902140 1.9074709721 -0.4129961316
H -0.4391195218 1.8331407065 1.2170510588
H -0.9579590032 -0.4580409875 0.4095873559
H -0.1279701566 -1.4096629718 -1.6248282178
H 0.0925795081 0.7963172603 -2.8509286995
H 1.6199791191 1.0785327899 -2.0104810511
H 2.5431584855 -1.0365204794 -3.0311762838
H 1.0199468659 -1.2644549319 -3.8974553871
H 2.7999548927 0.8774776956 -4.2734871561