19

O -0.1069880789 1.4955121054 0.0212619058
C 0.0391229416 0.0820277535 0.0741664348
C -1.3477864452 -0.5280565375 -0.0430324937
C -2.0577983281 -0.3166002177 -1.4132585670
C -2.4380238947 -1.7906818038 -1.7754632194
O -2.7171455181 -2.3369328997 -0.4777966989
C -1.4188180950 -2.0932009312 0.0745651977
C -0.5041644696 -2.6936161990 -0.9885399052
C -1.1423921218 -2.5055196137 -2.1441734484
H 0.7696737124 1.8892774246 0.0565552195
H 0.6796826850 -0.2803031127 -0.7441233565
H 0.5060169632 -0.2301123175 1.0239938011
H -1.9664913868 -0.1107850146 0.7565048387
H -2.9551922326 0.2955779297 -1.3053609766
H -1.4131152526 0.1525990067 -2.1600018520
H -3.2924030443 -1.9174788152 -2.4389506207
H -1.3479358717 -2.4906224309 1.0867549538
H 0.4873824962 -3.0902612040 -0.8180423806
H -0.7981879190 -2.7042626425 -3.1501183523