21

C 0.3779026148 1.4673085497 -0.3685050453
C 0.0067955174 0.0092538385 -0.0569703879
C -1.4978839454 -0.1292826949 0.1784942892
C 0.5333282221 -0.9211610335 -1.1630858299
O 1.9280435664 -1.0700495979 -0.9297914655
C 2.1947213616 -0.9180151290 0.4614122076
C 0.8435955629 -0.5615603320 1.1355508751
C 0.9651582270 0.2940657256 2.3026055452
C 1.0690247174 0.9981937053 3.2721073079
H 1.4373848745 1.5640657439 -0.6218874445
H -0.2041017560 1.8296442986 -1.2223410706
H 0.1712602681 2.1171283158 0.4859795788
H -2.0646281267 0.2050442093 -0.6972226852
H -1.7784796972 -1.1681793538 0.3841223705
H -1.8141179275 0.4804584963 1.0309535284
H 0.0240820341 -1.8984445239 -1.1213127985
H 0.4004742436 -0.5095253385 -2.1685965897
H 2.6123309950 -1.8455747223 0.8716231491
H 2.9325048707 -0.1198699604 0.6015173091
H 0.3587018925 -1.4965260210 1.4457079404
H 1.1628719146 1.6178436944 4.1293030257