16

O -0.0580122990 1.4757939577 -0.2302182181
C -0.0353953911 0.0753077983 -0.1023919452
C -1.3833371331 -0.6167754257 -0.0948599760
C -1.7811978557 -0.8718963591 -1.5505917185
C -0.8151542860 -1.7974467421 -0.8572630485
C 0.3090572742 -0.8049271890 -1.3436954095
C -0.6766318605 -0.2650873463 -2.4310658904
C -0.5354026291 -0.9358341252 -3.7147012488
N -0.4177209727 -1.4616858335 -4.7378219536
H 0.8349689828 1.8133154454 -0.1061509353
H 0.5629961936 -0.2470573904 0.7599043292
H -2.1246967157 -0.6226209726 0.6929710500
H -2.8081003519 -1.0600715973 -1.8314651168
H -0.8319618532 -2.8568455532 -0.6567120699
H 1.3340810676 -1.0522897713 -1.6073036938
H -0.6776880402 0.8203115141 -2.5692459049