18

O -0.1034333928 1.4088580669 0.0659321842
C 0.0024575463 -0.0027248931 0.0133589843
C 0.5237241695 -0.5905374818 1.3362317222
C -0.6167815033 -0.3135219686 2.3311765227
C -1.9072814693 -0.2628192656 1.4509022370
C -1.4026203407 -0.6154877697 0.0358909509
N -1.2843474468 -2.0783299404 -0.1080332379
C -0.2749414922 -2.6132491204 0.4361765689
O 0.7122935398 -2.0171110765 1.1536010851
H 0.7845900600 1.7803179767 0.0577680638
H 0.5882081039 -0.3375129293 -0.8521843900
H 1.4984409959 -0.2123719817 1.6515979755
H -0.6451213303 -1.0929632888 3.0959034419
H -0.4484158196 0.6405743355 2.8357033855
H -2.6692307874 -0.9733628448 1.7771841733
H -2.3450397849 0.7375894763 1.4593221322
H -2.0475149679 -0.2357783340 -0.7583813568
H -0.0972474201 -3.6847652307 0.3705540073