16

O 0.2144658562 1.1739268291 -0.6361066374
C 0.0024629505 -0.0588722340 0.0352333173
C 0.4085999335 -0.0514859826 1.5291288373
C -0.6261657720 -0.9797182199 2.1980616920
N -1.8505267283 -0.9785975395 1.3669299066
C -2.3238072671 0.3695319439 1.0242970834
C -1.4801693369 -0.3888259298 0.0668933012
H 1.1633661068 1.3012795815 -0.7325642364
H 0.5265023658 -0.8704246492 -0.4934284713
H 1.4366331259 -0.3863759740 1.6911443394
H 0.3370386553 0.9755746104 1.8988506799
H -0.2609925501 -2.0121819949 2.2278479200
H -0.8670733449 -0.6875292422 3.2251015443
H -3.3938235539 0.4394274735 0.8540931662
H -1.8907619664 1.2304039445 1.5264173169
H -1.9234501344 -0.8338018068 -0.8187091396