16

C -0.0123559790 1.5072255870 -0.1834405983
C 0.0362963729 0.0205116360 0.0495217500
O 1.3140138380 -0.6329111129 -0.0422830796
C 0.6586454986 -0.6217966185 1.2227567565
C 1.3292914466 0.1156587440 2.3577623041
C 0.1304442843 -1.9924268218 1.6264501405
F 1.1155842759 -2.7641408842 2.1091215811
F -0.7928555697 -1.8673536963 2.5972206395
F -0.4335958313 -2.6458085687 0.6081796650
H 0.8057035924 2.0317510914 0.3126305751
H 0.0541531417 1.7144616955 -1.2562382171
H -0.9628989125 1.9143964760 0.1769916875
H -0.7596055348 -0.5396417749 -0.4402849262
H 1.7200212553 1.0753935873 2.0208464245
H 0.6232386566 0.2844728358 3.1755595359
H 2.1626645350 -0.4780049857 2.7434372514