23

O -0.1018724076 1.4802713332 0.1281136064
C 0.0294271150 0.0715091570 0.2500544160
C -1.3500341079 -0.5484001517 0.0738038182
C -1.3389455523 -2.0778731081 0.1907662815
C -2.7351229980 -2.6768179665 0.0730400489
C -3.4772793277 -2.8176770831 -1.3002335149
C -2.5524520312 -4.0266770740 -1.6295865670
C -2.9700842049 -4.2083590831 -0.1398652151
C -4.4130218359 -3.8382596789 -0.5898040754
H 0.7685229086 1.8738121608 0.2374061474
H 0.7186029615 -0.3314408895 -0.5107461538
H 0.4380557427 -0.2068457449 1.2359065272
H -2.0218144365 -0.1159803478 0.8257209240
H -1.7439486169 -0.2470158870 -0.9042570438
H -0.6597228680 -2.4946170014 -0.5609798752
H -0.9216811774 -2.3638184416 1.1667989310
H -3.3742167568 -2.2521112721 0.8581734255
H -3.7774599009 -2.0142465209 -1.9753413501
H -2.9544794910 -4.7602978896 -2.3341041681
H -1.5024003036 -3.8241781093 -1.8447504186
H -2.6785920146 -5.0173728026 0.5330181315
H -5.0825568188 -3.4416058474 0.1788931999
H -4.9225624278 -4.5604425313 -1.2333376752