21

C -0.3662276364 1.4747572865 0.1228887322
C -0.0747003366 0.0108009740 0.0266088312
C -0.0055838822 -0.7459546326 -1.0703777781
C 0.2956716130 -2.1939363659 -0.7854793734
C 0.4681238561 -2.2219713819 0.7395080827
C 0.0704563063 -3.4281929688 1.5501468636
C 1.5265065090 -3.0788967793 1.3917646820
C 0.2042379101 -0.7996709905 1.2780614887
O 1.2597993630 -0.2476629184 2.0673079153
H 0.4169871628 1.9864604217 0.6927170674
H -0.4456938456 1.9398265040 -0.8633448068
H -1.3062524327 1.6536170878 0.6612015609
H -0.1650395707 -0.3789433221 -2.0799088812
H -0.5259530105 -2.8444911261 -1.1157377451
H 1.1904835703 -2.5399977883 -1.3211237768
H -0.3889332317 -3.2584474530 2.5192892950
H -0.3124734772 -4.2945746104 1.0197389975
H 2.1380084878 -3.7045753276 0.7492880008
H 2.0428186470 -2.6627030471 2.2495662068
H -0.6551397007 -0.7834995513 1.9613146598
H 2.0523592089 -0.2530182908 1.5178010974