20

C 0.4728768531 1.6486239204 0.0088190489
C 0.0335850636 0.1782810876 0.0301847277
C 0.1340283336 -0.4279780641 -1.3840809547
N -0.2241508700 -1.8296614687 -1.5396873347
C 0.5621605288 -2.7905696693 -0.7789598189
C 0.1957182885 -2.9272093257 0.7040343833
O -0.2062523343 -3.9549561950 1.1799545754
O 0.2743230557 -1.8282602886 1.4956495378
C 0.8693299728 -0.6012692544 1.0512110100
H 1.5315653342 1.7420272900 -0.2613102961
H -0.1044607546 2.2179853857 -0.7260901352
H 0.3342117908 2.1229366615 0.9851323433
H -1.0114985956 0.1243155675 0.3649489201
H -0.4932270600 0.1535636029 -2.0695206501
H 1.1688778573 -0.3103569470 -1.7386264758
H -1.2151212189 -1.9765319043 -1.3824809105
H 0.4289047301 -3.7905821530 -1.1987435286
H 1.6224911621 -2.5289285871 -0.8836063934
H 1.8815731530 -0.7862653165 0.6668635195
H 0.9711769198 -0.0187153919 1.9702544420