22

C 0.1701710411 1.5662279037 0.1428861513
C -0.0262652929 0.0994667721 -0.0335213863
C 0.4485089351 -0.9085045411 -1.0066508928
N 0.9239829736 -0.9558161958 0.4311304963
C -0.1977442130 -1.6005924479 1.1922187243
C -1.2097954011 -0.9167539851 0.2672690469
C -0.9377516986 -1.5516595002 -1.1406801870
C -1.7638409770 -0.8461803510 -2.2218688134
C -1.0317439078 -3.0680655679 -1.3117094299
H 1.2018689819 1.8350105578 -0.1045862798
H -0.4995820569 2.1416752941 -0.5057371394
H -0.0187904718 1.8739976467 1.1776963811
H 1.2290756862 -0.8247668954 -1.7542356364
H -0.1760270965 -2.6934475137 1.2526079896
H -0.1967199680 -1.1855536752 2.2040147351
H -2.2308320337 -0.6841551018 0.5707307115
H -1.7533250987 0.2406881037 -2.0947200379
H -1.3765430768 -1.0699234926 -3.2224590795
H -2.8072851121 -1.1802003392 -2.1915418478
H -2.0579444342 -3.4184766564 -1.1488619337
H -0.7480893999 -3.3518657307 -2.3316771768
H -0.3749077487 -3.6121303440 -0.6300371856