20

C -0.0408744363 1.5286115465 0.2254388747
C 1.4172356927 2.0078017829 -0.0269592268
C 2.0832218395 0.9305692214 -0.9108380678
C 1.9197401245 1.0249739440 -2.4327854459
O 1.9410388350 -0.3254966176 -2.9121757946
C 1.4650595187 -1.2107587196 -1.8948632482
C 1.2705256606 -0.3330311993 -0.6799694575
N 1.0468495765 -0.7119642494 0.7153563838
C -0.0087830169 0.0333767732 -0.0298995595
H -0.3877948716 1.7874146083 1.2305769491
H -0.7378720009 1.9866717759 -0.4860234310
H 1.4540755368 3.0055674393 -0.4746796843
H 1.9543689214 2.0618066663 0.9224306584
H 3.1406478109 0.7956042723 -0.6604439097
H 0.9658831663 1.5118068584 -2.6943766526
H 2.7268735067 1.5645229157 -2.9358523635
H 0.5354607819 -1.7011405531 -2.2168875021
H 2.2210769890 -1.9910109176 -1.7282819942
H 0.7764867758 -1.6925985265 0.7686167785
H -0.9277414004 -0.4949303510 -0.2662813567