18

N -0.0645590762 -1.1555413659 0.0609623491
C -0.0610544073 -0.0003007157 0.0898643682
C -0.0176647638 1.4630375129 0.1196519623
C 1.4004216703 1.9935897599 -0.0419280621
C 2.4051468452 1.8184556260 1.1340655045
C 2.7399988584 3.3430370286 1.0785539534
C 1.7761746195 3.5056373112 -0.1179421179
O 2.4219405250 3.3181405594 -1.3910817083
C 2.0581010249 1.9190075010 -1.4341909621
H -0.6643808150 1.8472293928 -0.6782634717
H -0.4478244869 1.8027656378 1.0693764743
H 1.9266921592 1.5108784470 2.0671704079
H 3.2311178440 1.1319982315 0.9347988494
H 2.4254530834 3.8890114866 1.9718566659
H 3.7724234377 3.6087937255 0.8444896404
H 1.0689798241 4.3404401335 -0.1270804687
H 2.9283764142 1.2591769433 -1.5297847844
H 1.3617739132 1.7130062943 -2.2581496902