17

O -0.0655696985 1.4301509206 0.0717227428
C -0.0087128972 0.0500739926 0.0504136539
C -0.2975338610 -0.7757861956 -1.1633118285
C -1.1747368341 -0.9427198002 0.0602593938
C -0.4940034715 -1.7695751296 1.1687785368
O -1.3513892509 -1.9710334364 2.2435195924
C 0.5442192835 -2.8528243637 0.7779889638
O 1.5876375426 -1.8517289255 0.6632428857
C 0.7096325613 -0.7968511914 1.1327216238
H 0.6104480471 1.7715582314 -0.5245803542
H -0.7831536660 -0.2206755212 -1.9602449826
H 0.3882373790 -1.5470869766 -1.4977200163
H -2.2430810243 -0.7705718865 0.0288205408
H -0.8394577137 -2.3101905448 2.9861849368
H 0.7558719470 -3.5574786196 1.5950650060
H 0.3917134935 -3.4144785277 -0.1501077291
H 1.0878391931 -0.2465354557 1.9978608141