15

C 0.0774760877 1.4845459620 -0.0344864349
C 1.3348259070 0.6842691653 0.0021413722
N -0.0114345497 0.0204125069 -0.0184730167
C -0.2223861360 -0.6214784544 -1.3521912341
C 1.0392110668 -0.2987687135 -2.0964382855
C 1.9249794499 0.4052115737 -1.3269557625
N 3.0561050653 0.6508630184 -2.0304041954
N 2.9115448739 0.1312722229 -3.2210764307
N 1.6744791722 -0.4441289728 -3.2740093693
H -0.2941224180 1.9631999779 0.8676612056
H -0.1412027511 2.0150392498 -0.9594514100
H 1.9167814179 0.5896589690 0.9126468996
H -0.3643538756 -1.6986654176 -1.2061171670
H -1.1323119235 -0.2284463602 -1.8188910360
H 1.3965697232 -0.9095382975 -4.1229123052