25

C -1.5277697137 -0.5819627396 0.6240104382
C -0.2064541728 -0.0237847180 0.0795395147
C 0.3148285923 -0.7628084938 -1.1778846589
C -0.4265943310 -0.1607098331 -2.3863351324
C 1.8714385381 -1.0465788940 -1.2180701974
C 1.6358772358 -2.1052251940 -0.0936469601
C 0.4991885118 -2.3270588443 -1.1321452995
C 1.6426178647 -2.2294156642 -2.2120776445
C 1.4881351517 -2.0594068892 -3.7270242763
H -2.3095750303 -0.5996881800 -0.1427884059
H -1.4022073865 -1.6072345809 0.9875689099
H -1.8980433821 0.0240856747 1.4570124019
H -0.3472008617 1.0297693080 -0.1934924997
H 0.5325509022 -0.0133187898 0.8842464464
H 0.0912425680 0.7257928203 -2.7717533968
H -0.5716861740 -0.8539441117 -3.2122152328
H -1.4243919229 0.1685617521 -2.0789093172
H 2.6699832022 -0.3003136967 -1.2591766632
H 2.3850388114 -2.8975420909 -0.0250117803
H 1.3566066836 -1.7577327865 0.8982789536
H -0.2913088530 -3.0810374038 -1.0870804757
H 2.3680560126 -3.0339490009 -2.0503360309
H 1.3048377001 -1.0335841215 -4.0454708782
H 2.4128176839 -2.3831093028 -4.2164475949
H 0.6819327795 -2.6855817295 -4.1263132996