17

C -0.0472667856 1.5541979945 0.0688335427
C 1.5039761070 1.4186912297 0.0014992355
C 1.7964578133 0.6091918466 1.2697453689
C 2.0848786143 -0.8080797562 0.9180567103
C 2.2591382717 -0.9170050079 -0.5829001023
C 1.2817913140 0.1863669387 -0.9491825063
C 0.0296522743 0.0135822085 -0.0359447669
N 0.6905523909 -0.3945990569 1.2499445239
H -0.4928421878 1.9800782701 0.9711969143
H -0.4731105308 2.0166895544 -0.8253488150
H 2.1636683698 2.2489632594 -0.2483470453
H 2.0516775554 1.0686506395 2.2178354645
H 2.5526861598 -1.4981304096 1.6115168623
H 3.2875470104 -0.7102501249 -0.8984253511
H 1.9623330266 -1.8958933053 -0.9754814865
H 1.1009097967 0.4154547449 -1.9971509372
H -0.8228049999 -0.6155212455 -0.2899030417