16

C -0.0095012173 1.4791285068 0.0189331514
C -0.0490558146 -0.0182509762 0.0017551935
C -1.2202216810 -0.9763648582 -0.2015139393
N -0.3237744052 -2.0960767979 0.3178607464
C 0.5817319972 -1.0156816184 0.9104126365
C 1.2184514095 -0.8516622205 -0.4600473195
O 2.4157685096 -0.2569106369 -0.7531631901
C 0.6561948735 -2.1898805659 -0.8110698238
O 0.8636319827 -3.0775233253 -1.5737998992
H 0.9991560337 1.8380892527 0.2436492449
H -0.3096399952 1.8938435710 -0.9501011219
H -0.6900432296 1.8790334072 0.7780129244
H -2.0496098992 -0.8018776230 0.4904617914
H -1.6077693020 -1.1485816791 -1.2124003414
H 1.0275840087 -1.0336959213 1.8937415293
H 2.3495714392 0.1810338950 -1.6097290525