24

C 0.1297176892 1.5410430073 0.1093730089
C -0.0210810180 0.0196710625 0.0101625343
C -1.4747856738 -0.4856325280 -0.0801860244
C -2.1668078177 -0.0105989233 -1.3664021355
C -1.5033124088 -2.0204427222 0.0558822973
C -2.9021924103 -2.6298975295 0.1977227613
C -2.8378997136 -4.1532494196 0.4313793491
C -4.1601691430 -4.7605261720 0.5665942898
N -5.2141985660 -5.2228322988 0.6708491038
H 1.1797221035 1.8190290547 0.2436796276
H -0.2295624501 2.0518030518 -0.7889007169
H -0.4296895527 1.9384738635 0.9639280064
H 0.5392041570 -0.3491879439 -0.8605095689
H 0.4514556564 -0.4381782630 0.8887119254
H -2.0240191090 -0.0668156701 0.7770301903
H -1.6593040711 -0.4135414849 -2.2516519404
H -3.2130085021 -0.3265925234 -1.4093359319
H -2.1590068144 1.0796622274 -1.4468743903
H -0.9968448807 -2.4680822484 -0.8116524443
H -0.9074716737 -2.3045330001 0.9340303976
H -3.4315225070 -2.1636314910 1.0367653852
H -3.5043591380 -2.4397691625 -0.6957945633
H -2.3157087292 -4.6421210190 -0.3996772478
H -2.2600908970 -4.3750771374 1.3364574864