21

C 0.1794898462 1.6205277180 0.0813007147
C 0.0941298412 0.1017514116 0.0371086014
C 1.0435009168 -0.6891376673 -0.9349583871
O 2.0553293314 0.0329605455 -1.5948582900
C 1.4690640805 -1.6334192816 0.2431647516
C 2.7047466307 -1.1472595491 0.9906394388
O 1.9353785306 -0.1329016956 1.6844487333
C 0.6729988992 -0.7104195898 1.2216851057
C -0.2063819776 -1.1459565000 2.3645121531
H 1.1660097199 1.9495098218 0.4204193036
H -0.0136288384 2.0531513920 -0.9049988390
H -0.5553452976 2.0331908857 0.7802374407
H -0.9406962845 -0.2111645051 -0.1457536454
H 0.5062849373 -1.2192876686 -1.7247125781
H 2.4429721552 0.6519937440 -0.9671949025
H 1.3048354338 -2.7030414531 0.1177074110
H 3.1236028457 -1.8792932330 1.6932930836
H 3.5197307481 -0.7251284936 0.3915324134
H -0.5168139610 -0.2774721348 2.9564557778
H -1.1077551444 -1.6450585189 1.9941229046
H 0.3248290769 -1.8331336383 3.0300473088