21

C -0.1085612020 1.5735245942 -0.0382322557
C -0.1651247204 0.0421152266 -0.0949940941
C 0.6660761120 -0.5302346434 -1.2387123819
C 2.2120506273 -0.6536705468 -1.0942419394
C 1.9963424575 -1.9495337192 -0.2796254816
C 0.8272648136 -2.0814166788 -1.3174682527
O -0.2952712087 -2.8842415137 -1.1561603756
C 1.6473248967 -2.1899519947 -2.6182220228
O 2.6154190612 -1.1463009540 -2.3901975858
H 0.9111525609 1.9314705835 0.1404055762
H -0.4529486737 2.0175767507 -0.9785672942
H -0.7425575131 1.9612060965 0.7650859093
H 0.1465757624 -0.3685052488 0.8707827976
H -1.2033399300 -0.2824807758 -0.2354488801
H 0.3626177615 -0.0608716278 -2.1817936730
H 2.8668917698 0.1590270242 -0.7879034453
H 2.8027164736 -2.6868566820 -0.3073620057
H 1.6474592084 -1.7911384390 0.7393418511
H -0.0244988309 -3.8082882293 -1.1924209971
H 2.1500040216 -3.1595940538 -2.7374265946
H 1.0514587722 -1.9820558484 -3.5147066846