19

C 0.0038135556 1.5556914675 -0.0182676870
C 0.0841269125 0.0463204942 -0.0610025198
C 0.6940960723 -0.7481925097 -1.1703877763
C 0.0147062254 -1.8368988618 -1.9389130763
N 1.8218263818 0.0123673392 -1.7408797043
C 2.5718025604 -0.0913145951 -0.4478534650
C 1.3622390626 -0.7436643685 0.2377204328
C 1.4294485760 -1.7473670531 1.2403967348
N 1.4846986175 -2.5784789004 2.0466862899
H 0.8034900876 2.0108974204 -0.6057162582
H -0.9489132547 1.8911722195 -0.4411789235
H 0.0619498303 1.9250023550 1.0103591795
H -0.7747398843 -0.4631128092 0.3711325714
H -0.5172685636 -1.4172556495 -2.8009166683
H 0.7348239812 -2.5744956631 -2.3102008084
H -0.7146718521 -2.3586731982 -1.3138722067
H 2.2871009101 -0.5238848597 -2.4655743064
H 3.4193654689 -0.7791235698 -0.5001264326
H 2.9100193923 0.8700400324 -0.0482558454