18

C -0.0319455405 1.5052840915 0.0377510217
C 0.0529223610 -0.0020842116 0.0056724980
C -0.7990105588 -0.8204493921 0.9425501708
C 0.7073853550 -0.8065230435 1.1223588401
C 1.4265193061 -1.9261028788 0.4357489365
C 1.2560186206 -1.8813600299 -0.8961765657
C 0.4489815572 -0.6785746598 -1.3145346459
C 2.1633615041 -2.9176595619 1.1402473912
N 2.7648096902 -3.7057659246 1.7397862971
H 0.9038777845 1.9634348877 -0.3018619334
H -0.8361193264 1.8697125386 -0.6121962734
H -0.2356119531 1.8698571639 1.0491828445
H -1.3876107995 -0.2729032171 1.6715618308
H -1.2568103668 -1.7391712478 0.5893109293
H 1.1403269060 -0.3481762259 2.0038517933
H 1.6353094279 -2.6184154632 -1.5933467531
H -0.4215400581 -0.9608326036 -1.9205792413
H 1.0518679708 -0.0072415219 -1.9427123408