15

N -0.1381738114 1.1974114659 -0.6102858166
C -0.0667388546 0.0601637456 -0.0992097962
O 0.9742166797 -0.5777907860 0.5609400859
C 0.2111796231 -1.8220910632 0.6500057990
C -0.1573496697 -2.1846101861 2.0910936900
N -1.4154312160 -1.4912064790 2.2943396320
C -2.0186266669 -0.9701073729 1.1780305916
O -3.1191099706 -0.4790820420 1.1216142013
C -1.0109867211 -1.1231194827 0.0249987516
H 0.7324795021 1.7188764364 -0.4970167785
H 0.7131711294 -2.6182400810 0.1006655950
H -0.2653660172 -3.2716236498 2.2046783985
H 0.6226461058 -1.8420142891 2.7798774732
H -1.9180271069 -1.5079377875 3.1677160850
H -1.4764855559 -1.4869989885 -0.8880011317