19

C 0.3260346223 1.6743049100 0.0544839885
C 0.0588654269 0.1780878771 0.0259770479
C 0.8641910018 -0.7150384942 -0.9707664158
C 1.2474855845 -1.6933719069 0.1929717168
C 2.5609402142 -1.2876291978 0.8987855317
O 1.8916342437 -0.2636990229 1.6646625917
C 0.5923513005 -0.6754834814 1.1985665321
C 0.9140893019 -3.0834357607 0.0661238455
C 0.6333552984 -4.2486138174 -0.0431480710
H 1.3801479866 1.8700316319 0.2693683677
H 0.0761843432 2.1342718517 -0.9074603565
H -0.2709190720 2.1701026490 0.8276338584
H -1.0131896883 -0.0179412345 -0.0903773704
H 0.2672409337 -1.1759216952 -1.7584884509
H 1.7328916630 -0.2302048887 -1.4254684697
H 2.9716098320 -2.0700896557 1.5478909721
H 3.3540555936 -0.8850445964 0.2573840863
H -0.0773332460 -0.9477536542 2.0188139206
H 0.3860303701 -5.2769593935 -0.1367229253