19

C -0.0675745063 1.5118163280 -0.1089432487
C -0.0030593255 0.0154067107 0.0606414054
N 1.3034054678 -0.6229022026 -0.1309364918
C 0.6810285376 -0.6565560506 1.2192429239
C 1.3326071836 0.1371284283 2.2331610273
C 1.8362855408 0.7807451058 3.1162246695
C 0.1134869272 -1.9723653496 1.6933310423
C 0.8178859599 -2.7930321600 2.7101458265
N -0.4533289247 -2.1228839842 3.0378651508
H 0.8195397112 1.9870303121 0.3141651462
H -0.1234451231 1.7707678487 -1.1714247811
H -0.9537698581 1.9193519092 0.3884267175
H -0.8755806582 -0.5250982874 -0.3064189831
H 1.2035766155 -1.5404990348 -0.5609530971
H 2.2983110324 1.3593838772 3.8778749243
H -0.4575692387 -2.4835736736 0.9188222283
H 0.7675458262 -3.8769741440 2.6613224264
H 1.7353384316 -2.3898538530 3.1290761599
H -0.2550892191 -1.2817609602 3.5776279836