15

C -0.0377487361 1.5757901433 -0.0211701303
C 1.4482077347 1.9611860787 0.0035085158
C 2.1022427123 0.8270563927 -0.3153889161
C 2.4445470975 -0.2589753602 0.6657682170
C 1.6939380186 -1.3321096371 -0.0615891279
C 0.8685729749 -0.6359323539 0.9735488061
N -0.0074337075 0.0602985352 -0.0054830900
C 1.1147993554 -0.2045604834 -0.9551391948
H -0.5403557937 1.9976444316 0.8560932614
H -0.6236321332 1.8572582270 -0.9046710029
H 1.8209611640 2.6895985465 0.7173353271
H 3.1677539226 -0.3324336227 1.4679943062
H 1.8909555629 -2.3779364932 -0.2495984371
H 0.5503739877 -0.9400548702 1.9625365041
H 0.9111880898 -0.2400845743 -2.0246845288