20

C 0.0415310570 1.5441027044 0.0799342837
C 0.0198550894 0.0411310854 0.0314117390
C 0.5496600902 -0.7021496386 -1.2262536173
C 0.3799921485 -2.1806373655 -0.7405956830
C -0.2049577588 -1.9178974775 0.6749190755
C -0.4882348094 -3.0722439108 1.5963232878
N 0.5972759403 -0.7445573764 1.1842235744
C -1.2328248487 -0.8161729602 0.3268510807
O -2.4145771468 -0.6668104587 0.3687085150
H 1.0580372385 1.9317881152 -0.0515088078
H -0.5800507376 1.9580171311 -0.7204792628
H -0.3436189923 1.9050923411 1.0369108248
H -0.0295552452 -0.4765674301 -2.1267528666
H 1.5930177715 -0.4361151817 -1.4246226532
H -0.2923535947 -2.7666228089 -1.3745110821
H 1.3310326497 -2.7190619807 -0.6747098246
H 0.4161595007 -3.6613766559 1.7856789494
H -0.8738195677 -2.7156020094 2.5547537269
H -1.2338367441 -3.7385125087 1.1507729606
H 1.6026578395 -0.8947094339 1.0783493296