17

C -0.0387795443 1.5275362146 0.0542888367
C 0.1560111189 0.0475977262 -0.0282403459
N -0.7216237230 -0.9130944936 0.6661857850
C 0.7489442195 -0.9400957537 0.9433974013
C 1.3622872220 -1.7819333038 -0.1776971709
C 0.7191615827 -0.7768902162 -1.2102433089
O -0.2148763585 -1.2631310430 -2.1247282875
C 1.2514903577 -0.7018934001 2.2543825156
N 1.6668752115 -0.5005488936 3.3164961496
H 0.8502956429 2.0571990651 -0.3011340407
H -0.8858644129 1.8375777485 -0.5674290252
H -0.2333240567 1.8452223690 1.0839118928
H -1.1818208035 -0.4257350170 1.4350330475
H 2.4531460170 -1.7650890402 -0.1889203283
H 0.9990572841 -2.8101511582 -0.2295782559
H 1.4785609616 -0.2330415402 -1.7762760996
H -0.9372677090 -1.6304096238 -1.5971479757