17

C 0.0941682420 1.5352504157 -0.1656867101
O 1.4949819051 1.3778077083 0.2094573893
C 1.2522858684 0.0408016813 0.7141561653
C 1.7587945244 -1.1390274380 -0.1258147763
O 1.0718031583 -2.3094135812 0.4034044197
C -0.1078914996 -2.0654572475 -0.4078443781
C -1.1127232503 -1.0636556663 0.2423259380
C -0.0872109605 0.0312134691 -0.0701438394
C 0.6072702056 -0.8993358983 -1.1353839091
H -0.4522065455 2.1182581168 0.5896051902
H -0.0229820345 2.0069130561 -1.1473994150
H 1.3346567444 -0.0226975700 1.8039194519
H 2.8158791119 -1.3202468914 -0.3290966010
H -0.4875283029 -2.9851710070 -0.8558520786
H -2.0096153330 -0.9943952497 -0.3847035244
H -1.4029502280 -1.2223124404 1.2842103131
H 0.6580771045 -0.7209789574 -2.2056515554