19

C -0.4861176169 1.2785942491 -0.0178099735
C 0.0642030280 -0.1411659268 -0.0739425937
C 1.3746690615 -0.3573840793 -0.8573053130
O 1.7497535142 -0.0160467476 -1.9411030018
C 2.0460534103 -1.0943657677 0.3206917841
C 0.7946568574 -0.7498932728 1.1458929466
C 0.7533699764 -0.2252136563 2.5591712936
C 0.1455007308 -1.5656915819 2.2091292390
O -1.2440921737 -1.6866401341 2.1110604408
H 0.2623866384 1.9819468179 0.3604944678
H -0.7835188667 1.6075592255 -1.0177585932
H -1.3638375206 1.3276848979 0.6338606820
H -0.7102545068 -0.8273219129 -0.4405425722
H 2.2050333865 -2.1618973687 0.1323529013
H 2.9931040684 -0.6529529001 0.6466548582
H 1.6734572153 -0.2075137495 3.1355038180
H 0.0642422247 0.5864394149 2.7716097273
H 0.6636476799 -2.4629016752 2.5512236225
H -1.6106498672 -1.6827634024 3.0015537261