15

N 0.9282616507 0.9383884252 -0.6384187969
C 0.3966622121 -0.1037448500 -0.1911991040
O 0.9016435613 -1.3703044960 0.0626599256
C -0.4572855818 -1.8701321585 0.2706113803
C -1.0389594174 -1.2054479348 1.4731080776
C -1.0123021827 -0.4688422434 0.1301363485
N -2.1059108158 0.1233391250 -0.5458161277
C -3.3351010209 -0.4459228461 -0.6464778629
O -3.6429068652 -1.5081156428 -0.1443340747
H 1.9256860899 0.8141975908 -0.8158427014
H -0.7156138284 -2.8178941372 -0.1769552635
H -2.0318246691 -1.5480422075 1.7394840035
H -0.3906128468 -0.8962488057 2.2874961545
H -1.9046476244 0.9812329090 -1.0385638039
H -4.0320750915 0.1739424519 -1.2406530750