18

O 0.1121323518 1.4089597788 -0.0203282152
C 0.0868463903 0.0007514784 0.0690032051
C -1.3537970543 -0.5183403417 0.0272723021
O -2.0064544092 -0.0154755950 -1.1436317323
C -1.4297698755 -2.0405015771 0.1011257982
C -2.8350842926 -2.7152512942 0.0833747376
N -2.4039789973 -3.4303440572 -1.1275082624
C -1.2186815868 -2.7567082245 -1.2599539450
O -0.3992708514 -2.6901164484 -2.1418669321
H -0.5306485710 1.6380411426 -0.7037677798
H 0.6599381026 -0.4757679769 -0.7445497279
H 0.5623610236 -0.2757680680 1.0167494212
H -1.9075585935 -0.0748864505 0.8630735740
H -1.5435242825 -0.3851691007 -1.9085796475
H -0.7775712826 -2.4271827272 0.8889046042
H -3.0723331785 -3.3662928498 0.9286082237
H -3.6496965269 -2.0072168090 -0.0946825241
H -2.9395903163 -3.9318949297 -1.8216023695