17

O -0.0123848571 1.3741250703 0.0740523114
C 0.0575033125 -0.0206978836 0.0305188269
C 1.1584594740 -0.6335503148 -0.8164803051
C 1.0517510102 -2.1867647634 -0.8301185699
C -0.1459101533 -2.6132101457 0.0145700309
O -1.3254151499 -1.9987223679 -0.4964108786
C -1.2936139020 -0.6999599224 0.0486435725
C -0.4093598345 -0.7826965054 1.2649610611
O 0.0163802392 -2.1251318070 1.3445264469
H 0.7297147219 1.6939728191 0.6009407918
H 1.0841351768 -0.2242557678 -1.8287706083
H 2.1316302915 -0.3181287406 -0.4212733554
H 0.9158795610 -2.5643054749 -1.8475462838
H 1.9529931524 -2.6510860137 -0.4198802698
H -0.2976751600 -3.6938557390 0.0513129417
H -2.2242735887 -0.1545364315 -0.0284889069
H -0.6000895039 -0.3138628718 2.2214897648