21

C -0.2070308093 1.5887059552 0.0480839922
C 0.0104592079 0.0711642850 -0.0201775525
C 0.8327553167 -0.4090880076 -1.1990030048
C 1.8196902042 -1.2425939702 -0.8474114871
C 2.7978721195 -1.9305826581 -1.7464035228
C 1.8626803315 -1.4013152059 0.6411433908
C 2.1925625975 -0.1271523913 1.4166494640
C 0.7592709942 -0.5279013168 1.1790487934
O -0.0008840676 -0.9719157568 2.2642651358
H 0.7451027922 2.1266573290 0.0921934188
H -0.7548888323 1.9487234748 -0.8288359700
H -0.7922107456 1.8593607618 0.9344902643
H -0.9802936845 -0.4082191966 -0.0443332152
H 0.6207822489 -0.0961433680 -2.2166425067
H 2.6195293042 -1.6866462659 -2.7972003996
H 3.8298297480 -1.6522048568 -1.4978610075
H 2.7354458761 -3.0207313508 -1.6358420668
H 2.1051738742 -2.3558922310 1.0956245831
H 2.5477223211 -0.2634767005 2.4331486449
H 2.6300512873 0.7063221061 0.8763630627
H -0.1880791441 -0.2123430357 2.8264663730