21

C -0.1124683028 1.5072063264 0.0060593538
C 0.0545883191 0.0058998878 0.0039301152
C 1.0980491948 -0.6691843386 -0.9389102231
C 1.2924641851 -1.7106130388 0.1765691915
C -0.0256146982 -2.5116471531 0.5346344060
C -0.0792272649 -1.7735328095 1.9041598262
C 0.7784891814 -0.6901690905 1.2376977145
C -1.1749559346 -1.9884031434 -0.3205344972
O -1.2372209224 -0.5665762182 -0.2011165837
H 0.8454444502 2.0015152905 0.1919609120
H -0.5027823714 1.8515497656 -0.9567939119
H -0.8177318722 1.8087542176 0.7870379303
H 0.7569016257 -0.9742335150 -1.9329867916
H 1.9928584366 -0.0480001355 -1.0456639036
H 2.2257683520 -2.2665969320 0.2751650621
H 0.0230240620 -3.6026565117 0.5245656249
H -1.0665973593 -1.4997253229 2.2880002154
H 0.4833176809 -2.2985451097 2.6813970112
H 1.4340332619 -0.0359387818 1.8160771046
H -1.0519031345 -2.2838538259 -1.3733974641
H -2.1398442293 -2.3759892114 0.0253280077