22

C 0.0575384481 1.5830530880 0.0013513970
C 0.0037422686 0.0531069754 -0.0482831562
N 0.6617142935 -0.5155569155 -1.2246959924
C 2.1116658659 -0.5909874979 -1.2063314134
C -0.1051484939 -0.7293012769 -2.3453689316
O -1.3041801753 -0.5334780970 -2.3639364182
C 0.6410612131 -1.2504829073 -3.5827672025
O -0.2749393903 -1.4054238468 -4.6239232347
C 0.3267560225 -1.8757764917 -5.8056599718
H 1.0880843258 1.9532252650 0.0076552195
H -0.4589443007 2.0076551167 -0.8637453137
H -0.4346092485 1.9499578327 0.9076305500
H 0.4805865175 -0.3753836442 0.8411844561
H -1.0346606682 -0.2791905052 -0.0746289369
H 2.4787484874 -1.3453697139 -1.9033999209
H 2.5939981871 0.3658396854 -1.4519323177
H 2.4429017395 -0.8849729663 -0.2053160623
H 1.4442251939 -0.5438623415 -3.8590807244
H 1.1359657973 -2.2092430764 -3.3426822813
H 1.0963328755 -1.1813320826 -6.1803520422
H 0.7976231877 -2.8620992205 -5.6633942083
H -0.4624952664 -1.9660800394 -6.5553075740