20

C -0.1572341836 1.5775508687 -0.0387582768
C 0.0492901509 0.0725589550 0.0193671341
O 0.8217092924 -0.3349689389 -1.1205294791
C 1.5882783330 -1.4935407203 -0.8154349652
C 3.0771138889 -1.1782949933 -0.5245461724
N 2.8592544868 -1.2421177721 0.9591154576
C 2.2473203677 0.0273537391 1.4857213869
C 0.7973837867 -0.4822665970 1.2339133855
C 1.4557049603 -1.7704247696 0.7027359324
H 0.7945824302 2.1117078056 0.0291515459
H -0.6347060108 1.8549731495 -0.9823823421
H -0.8031931263 1.9059186674 0.7816852766
H -0.9369556365 -0.4217309641 -0.0226841221
H 1.3665533360 -2.2897048517 -1.5326235860
H 3.7561955894 -1.9796143129 -0.8325356102
H 3.4433000235 -0.2212854256 -0.9079680432
H 2.4852008133 0.1600915536 2.5447672566
H 2.5525660595 0.9294544236 0.9458852231
H 0.1644688164 -0.5590593538 2.1193663502
H 1.1853773523 -2.7607329532 1.0707983281