18

C -0.4611668366 1.3231897912 -0.0757640902
C 0.1319747105 -0.0656275136 0.1014437132
C 0.9013745906 -0.7651545362 -1.0529394834
C 2.0073401808 -1.2315832181 -0.0592681455
C 1.4037624014 -0.2401669492 0.9492199096
O 1.8088218190 0.2886528198 1.9428643369
O 0.1443233330 -1.7800833091 -1.6855589975
C 0.5330989591 -2.1706005216 -2.9178486765
N -0.0291292505 -3.1532116291 -3.4725954624
H 0.2828430519 2.0239966966 -0.4679773689
H -1.3110733034 1.3036748411 -0.7644720562
H -0.8080300061 1.7123608134 0.8856342766
H -0.6228431519 -0.7743920011 0.4678954950
H 1.2796634579 -0.0500520142 -1.7929065890
H 1.8449042294 -2.2697216075 0.2489618423
H 3.0556376478 -1.0931299592 -0.3318016336
H 1.3356962531 -1.5495164670 -3.3400372961
H 0.3606405940 -3.2988876763 -4.4014350344