19

C -0.0005031787 1.4922621276 -0.0846898019
C -0.0606892517 0.0003606891 0.0361242005
C -1.3370556928 -0.8612486841 0.0080731329
C -0.6612304443 -1.8101304800 1.0528385533
O -0.4202245715 -3.1549111427 0.6520441798
C -1.3771220055 -4.0629022894 0.9260705170
N -1.2905627690 -5.2337377210 0.4636792335
C 0.5929724451 -0.9459124124 1.0178520735
N 1.0909589574 -0.8036061739 -0.3458512908
H 1.0087757430 1.8506137966 0.1325696319
H -0.2586465822 1.8105478601 -1.1015582647
H -0.7025016493 1.9734627441 0.6045482411
H -2.2241581031 -0.3661236934 0.4118469257
H -1.5841459604 -1.3109124972 -0.9587377563
H -1.1709506901 -1.7928547722 2.0227060608
H -2.1755712506 -3.6740932713 1.5742728603
H -2.0753471026 -5.7941369456 0.7895967709
H 1.2741706352 -0.7677802391 1.8420808136
H 0.8626122911 -1.6087541653 -0.9263046514