15

C -0.0190854635 1.4520528445 -0.0198176538
N -0.0178853413 -0.0060375347 -0.0164489501
C -1.1583141407 -0.7185890905 -0.1290549711
C -1.1590000525 -2.0803504362 -0.1263973459
C 0.1270985544 -2.6675313240 0.0032901637
F 0.1742429190 -3.9944536541 0.0112153302
N 1.2417465928 -2.0422312167 0.1132649756
C 1.2432315959 -0.6551240588 0.1101307874
N 2.2745153907 0.0926387378 0.2110572681
H 0.5954101273 1.8214531339 -0.8438569664
H -1.0459153312 1.8070048846 -0.1231049907
H 0.4205477213 1.8254500159 0.9077343979
H -2.0692448287 -0.1387345941 -0.2210953362
H -2.0600101415 -2.6666423227 -0.2150126403
H 3.0970298080 -0.5012381850 0.2942677418