23

C 0.0054500348 1.5979917299 -0.1130993093
C -0.0369370926 0.0733879215 0.0175802284
C 0.8272261329 -0.4551703725 1.1703882536
C 0.7974758966 -1.9763965752 1.2900033800
C 1.5912196983 -2.6647637498 2.4108807204
C 1.0477198004 -2.3013881031 3.7603331032
C 0.3216779391 -3.3408946640 2.9439165452
C -0.5071288837 -2.6883807568 1.8403211450
O -1.6310357748 -1.9148691711 2.2013241832
H 1.0269554014 1.9545477353 -0.2886379894
H -0.6157261259 1.9456475354 -0.9446505273
H -0.3599778211 2.0840203448 0.7987510070
H -1.0693539101 -0.2583288088 0.1728889671
H 0.2992044687 -0.3839437754 -0.9228918661
H 1.8681797793 -0.1306487729 1.0323456266
H 0.4916199333 0.0090067371 2.1068762016
H 1.0548725738 -2.4137960113 0.3190111348
H 2.5757587333 -3.1015952598 2.2954416762
H 1.5957726171 -2.6985953556 4.6085287423
H 0.6240218321 -1.3174460691 3.9502659354
H 0.1885738170 -4.3504896421 3.3140065327
H -0.8788799336 -3.4209745806 1.1202053192
H -1.4192916664 -1.4436526558 3.0135564602