16

N -0.1470515908 1.4709318054 -0.0519499892
C -0.0674945115 0.0431407308 -0.0274228888
C -0.4728738792 -0.6733157525 1.2424070860
C -0.9077579924 0.0588093506 2.3890983055
C -1.2777158354 0.6704520436 3.3571740039
C -1.4017115922 -0.7113925010 -0.0155024314
N -2.5981315964 0.0591760185 -0.0900410751
C -1.4357888642 -1.9855505498 -0.6960247595
N -1.4342397327 -3.0172135028 -1.2197871406
H 0.3223083148 1.8867360949 0.7445193433
H 0.2437747726 1.8520868896 -0.9042165508
H 0.7312691502 -0.4384551333 -0.5874993762
H 0.0672475762 -1.5919886450 1.4495434668
H -1.6007836195 1.2010591151 4.2185326480
H -3.2160317366 -0.1365746321 0.6906228404
H -2.3398637328 1.0432545679 -0.0564845822