20

C 0.0178699193 1.5411154329 0.0199805396
C 0.0126837337 0.0280386348 0.0216845981
C 1.3037522040 -0.7052653648 -0.2591062656
C 0.7158880965 -0.7016191776 1.1426346520
C 0.4329562664 -2.1810017132 1.2995431627
C -0.1080804790 -2.7937833160 -0.0216218302
C 0.7083484201 -4.0403319350 0.3240224686
N 1.6788788772 -2.9330283379 0.7281556296
C 1.2146321349 -2.1858521539 -0.5643410559
H 0.9607945564 1.9347635632 0.4138991941
H -0.1093251625 1.9352795175 -0.9940651083
H -0.7932953454 1.9394620995 0.6389867188
H -0.9035790929 -0.4129853817 -0.3614434737
H 2.1980315947 -0.1499499375 -0.5158133424
H 1.1605789632 -0.1435057794 1.9579689576
H 0.0818850069 -2.5564430815 2.2625164984
H -1.1174511135 -2.7247326016 -0.4451093233
H 0.3745665937 -4.6593728199 1.1619635458
H 1.0709679489 -4.6636961019 -0.4985901205
H 1.6547756276 -2.5662022461 -1.4879929655