20

C -0.0618364735 1.2917882660 0.1046521230
O 0.0753377187 -0.1249845813 -0.0065279955
C 0.6425055857 -0.5475130970 -1.1683576801
O 1.0175447332 0.1928002452 -2.0532022881
N 0.7048622918 -1.9029104712 -1.1898614916
C 1.3961385673 -2.6263352186 -2.2468840027
C 2.9054308126 -2.7329747859 -1.9870098610
C 0.7319399484 -3.9933904282 -2.3953722155
O 0.8246368358 -4.6528828122 -1.1362606843
H 0.9113782674 1.7860043221 0.0421788580
H -0.7042205671 1.6870217613 -0.6869977627
H -0.5141115808 1.4691820000 1.0812519581
H 0.4693108166 -2.4140617995 -0.3539817944
H 1.2335040548 -2.0635085963 -3.1707675033
H 3.4075371665 -3.2252746387 -2.8266989047
H 3.3325661564 -1.7339843138 -1.8712823459
H 3.1013738977 -3.3129440876 -1.0813277225
H -0.3180963341 -3.8578090891 -2.6913227817
H 1.2434026802 -4.5645915108 -3.1841365164
H 0.3267897327 -5.4735428344 -1.1824398986