15

O -0.0836437099 0.0483090068 0.2886285013
C 0.0638625708 1.1911355153 -0.0636020032
C 1.3284927166 1.9318089376 -0.0477656314
O 2.5035432721 1.3149152525 0.4094837403
C 3.3761101371 2.4352833439 0.3217465836
C 3.2386689920 2.8799038183 -1.1496915241
C 1.7256993325 3.0230025188 -1.0711395739
C 1.4694039708 3.4124259087 0.3580390487
O 2.6984085900 3.4692104053 1.0390951590
H -0.7851523459 1.8057662345 -0.4432351098
H 4.3470035803 2.2213892804 0.7575058017
H 3.7491517005 3.8247808051 -1.3463470890
H 3.5710364594 2.1081312039 -1.8455053261
H 1.0850947465 3.3009174209 -1.8956984686
H 0.6833038971 4.0426712380 0.7461839014