17

O 0.2660002440 1.4232184060 -0.2026212451
C 0.0624267934 0.0497728242 -0.0794485247
C 0.0872994851 -0.6452077225 1.3428721258
C -1.3773769901 -0.2079318414 1.6576128630
C -2.0279476998 -1.6096446851 1.7300779762
C -3.2017420740 -1.5145061868 0.7084068376
O -2.6268230141 -0.7392197356 -0.3954620449
C -1.3508029292 -0.5399576356 0.1314479429
C -0.7875822694 -1.8153983421 0.8275328041
H -0.2902353277 1.8751518122 0.4419786041
H 0.6738911404 -0.4271962758 -0.8507745736
H 0.9284996043 -0.6952515242 2.0302332318
H -1.7230166539 0.7242208106 2.1065545874
H -2.2221433915 -2.1588978365 2.6529178533
H -3.5177099769 -2.4916980728 0.3273912188
H -4.0737339249 -0.9804424905 1.1015949231
H -0.4549355855 -2.7091690541 0.3000986303