18

C 0.3858006902 1.1350320525 0.1074889937
N 0.0396858349 -0.2776733662 0.0634070602
C -1.3765887446 -0.5430815705 -0.1130664356
C -1.6072700218 -2.0167363110 -0.5417148241
N -1.5101264230 -2.2327568154 -1.9785411870
C -0.3383065058 -2.3479982874 -2.6522710050
O 0.7649172669 -2.1777638291 -2.1702306784
C -2.0993282508 -0.2812053785 1.1496571464
N -2.6883719029 -0.0813554113 2.1234300693
H 1.4705263150 1.2335637543 0.1955907571
H 0.0573621360 1.7056168172 -0.7798167494
H -0.0647146213 1.6022396746 0.9901657102
H 0.5606573556 -0.7759393591 -0.6531895325
H -1.8535503782 0.1005446689 -0.8786359508
H -0.8651263128 -2.6355655153 -0.0288318285
H -2.6010496731 -2.3392651662 -0.2279145051
H -2.3611511247 -2.3912187295 -2.4936755908
H -0.4914622398 -2.6185315880 -3.7137161897