18

C -0.0149580087 1.5372070062 0.0534269118
C 0.0176563347 0.0391412902 -0.0378542799
C -0.0444065117 -0.6667497374 -1.1749682756
C -0.0333211831 -2.1252394991 -1.0667103627
C 0.8022118382 -2.8630561889 -0.0071228420
C -0.6895391575 -2.8212245076 0.1226084296
N -0.6366919253 -2.0535417825 1.4130936681
C 0.8485352140 -2.0467352109 1.2833432373
C 0.1134786736 -0.7446477877 1.2018500576
H 0.8796901124 1.9312230695 0.5521506719
H -0.0731381236 1.9899251403 -0.9402567686
H -0.8781612247 1.8840689346 0.6353750946
H -0.1272764215 -0.1974036364 -2.1495817207
H -0.1255065043 -2.6969734879 -1.9848222990
H 1.4738642261 -3.6715941486 -0.2602457883
H -1.4604386724 -3.5711648527 0.0077319574
H 1.4900175532 -2.2902766590 2.1238988188
H 0.0993934106 -0.1805196622 2.1307177697