14

N -0.0757121704 1.3102207165 -0.0978230444
C 0.0161287152 0.0511916021 -0.0260438407
N 1.1074717426 -0.7947491975 0.0302552068
C 0.7718417259 -2.1570492093 0.0099703709
O 1.5412686539 -3.0801649450 0.0934267938
N -0.5985693174 -2.1992018005 -0.1526664852
C -1.2145104353 -0.8809190742 0.0038479738
C -1.9887158501 -0.7493796874 1.2357306688
C -2.6376211708 -0.6818212682 2.2437649600
H 0.8385894454 1.7636341672 -0.1083209646
H 2.0701669971 -0.5000937479 0.0377289580
H -1.0826219029 -3.0324367068 0.1411338362
H -1.8499848352 -0.6376518309 -0.8551620515
H -3.2074965081 -0.6051710180 3.1371187081