17

O 0.0081870967 -0.0917934719 0.1057594664
C 0.0033612979 1.1096453671 0.0168165112
C 1.2540145681 1.9696089262 -0.0178695164
C 1.2642226362 2.9629310885 -1.2249196560
C 0.9704667259 4.3103149907 -0.5762438694
O -0.3481486686 4.2089295102 0.0674045274
C 0.3076978644 4.0048007316 1.3200719349
C 1.6726902027 4.3125111666 0.7984412738
C 1.3350327352 2.8906287327 1.2104079884
H -0.9435730948 1.6886463980 -0.0389104726
H 2.1116073932 1.2927366912 -0.0438259534
H 2.2467712601 2.9682686867 -1.7084691152
H 0.5155859919 2.7170201233 -1.9846993719
H 1.0348949487 5.1914602383 -1.2157567840
H -0.2201948755 4.2816660399 2.2248172342
H 2.4840938546 4.9297934604 1.1562743221
H 1.7332940634 2.5028118705 2.1409814506