16

O -0.1655807232 0.0049578286 -0.2876588766
C -0.1164173420 1.1786390566 -0.0754716324
C -1.1012620133 2.2790068666 0.3402874225
O -0.0223613746 3.2381627174 0.2951101326
C 0.9618135658 2.2633187836 -0.0967837457
C 2.3652183200 2.2649071183 0.5640297694
C 2.8669947289 1.4499760432 -0.6518806481
C 1.9927982278 2.6003671494 -1.2056960481
N 2.7156944148 3.5201418273 -0.2276308930
H -1.8952745292 2.4973308089 -0.3833599239
H -1.5322033912 2.1702100100 1.3424046053
H 2.6106929761 2.1524893457 1.6200959243
H 3.9314235802 1.5636359645 -0.8543339269
H 2.4972871971 0.4312804866 -0.7671780933
H 1.7983742519 2.8841917959 -2.2400142572
H 2.0798628408 4.2744027774 0.0491475910