17

C -0.2440981657 1.5818775003 -0.0490867099
N -0.1703109256 0.1381277988 0.0253313194
C -1.3106309226 -0.6123047612 0.5702638552
C -0.3038988390 -1.6091492031 1.2209412137
C -0.1024096668 -2.8414571499 0.4749683226
N 0.0472335002 -3.8259233742 -0.1122999336
C 0.7641762332 -0.4803312559 0.9741879983
C 2.1093513006 -0.8806171783 0.3921516745
O 3.1387325229 -0.8411491530 1.0124197595
H 0.7122760850 1.9835644231 -0.3978994503
H -1.0133633738 1.8722329002 -0.7712993382
H -0.4839075401 2.0527929728 0.9216925166
H -1.8738304538 -0.0659689820 1.3430982603
H -2.0050950070 -1.0131382314 -0.1727702876
H -0.4756068471 -1.8441994764 2.2714249471
H 0.9320839993 0.0901793440 1.9006415313
H 2.0587432600 -1.2150947640 -0.6657125687