14

C 0.0483008935 1.3754775733 0.0095575563
N 1.3156498896 1.8255054276 -0.0003183926
N 2.0548742000 0.7093422821 -0.0135870101
C 3.4179711343 0.6524533992 -0.0271505125
C 4.0036902016 -0.5786087052 -0.0395704120
N 3.3024480757 -1.7520664363 -0.0391655202
C 1.9940666842 -1.6776425635 -0.0260340653
C 1.2847540021 -0.4527048481 -0.0124432707
C -0.0404264226 -0.0180301677 0.0027959559
H -0.7581426718 2.0941843955 0.0213172613
H 3.9376787996 1.6001982012 -0.0270321332
H 5.0843474350 -0.6599347187 -0.0505202608
H 1.4341485949 -2.6099893380 -0.0256922820
H -0.9263950561 -0.6308104814 0.0080710558