21

C -0.0238721157 1.4802759163 0.0215650229
O 0.0025974163 0.0753928865 -0.1157089153
C -1.2544021278 -0.5451024680 0.0025378779
C -1.8774075539 -0.5721690394 1.4358775256
C -1.9170141097 -2.1266940103 1.3832706352
C -1.1764852278 -2.1002395868 0.0114761989
O -1.8878930879 -2.5931392985 -1.1037753982
C -2.8721125646 -1.6187931864 -1.4379183536
C -2.2167442054 -0.2534163060 -1.1679989472
H 1.0101984467 1.8273245680 -0.0423162164
H -0.6070358588 1.9640821560 -0.7755213764
H -0.4403607742 1.7909783916 0.9910967911
H -1.1817182331 -0.1857654133 2.1839561760
H -2.8393117886 -0.0669685446 1.5563171226
H -1.3781449416 -2.6346731425 2.1852418032
H -2.9179994772 -2.5581644180 1.3145643809
H -0.1739723948 -2.5305025967 0.0060249548
H -3.1524783502 -1.7711410038 -2.4831152701
H -3.7763181528 -1.7484201709 -0.8225197971
H -2.9508885160 0.5295169493 -0.9606767268
H -1.6128023830 0.0480640075 -2.0291633179