18

C -0.1093398339 1.4907675792 0.0136396805
C 0.1331975238 0.0174148981 0.0221695662
O -0.7153595403 -0.8097164111 0.8270492209
C 0.6979333549 -0.9269313573 1.0124958135
C 1.1833681901 -1.8971683194 -0.0705851148
C 0.6594468318 -0.8584609590 -1.1246839429
O -0.3224501078 -1.2745776951 -2.0516755339
C 0.0757528774 -1.5306378983 -3.3137846991
N -0.7452324069 -1.9811218062 -4.1586611886
H 0.7546861721 2.0283285146 -0.3901603007
H -0.9788275289 1.7305867355 -0.6079142724
H -0.3053553513 1.8493842642 1.0272164411
H 1.0951472386 -0.7419044123 2.0033679617
H 2.2642622187 -2.0465123642 -0.1180853708
H 0.6645889663 -2.8573252159 -0.0718178179
H 1.4928986561 -0.3680098935 -1.6432626499
H 1.1357979092 -1.2981147705 -3.4928742007
H -0.2860325698 -2.0986975485 -5.0593585422