23

C 0.6537493438 1.5170181317 0.1011720822
C 0.2093947551 0.0854404075 -0.0589976270
C -0.1711725268 -0.4794137584 -1.2242189595
C -0.2236782115 0.2597063111 -2.5467305877
C -0.6311595799 -1.8728319275 -1.3615375208
C -0.4371672963 -2.9745715478 -0.6207412918
C 0.3619758594 -3.1827470900 0.6320303966
C 1.1235560926 -1.9701023611 1.1676936280
C 0.2438623427 -0.7038645563 1.2357843364
H 0.0411756782 2.0224016982 0.8598547394
H 1.6878597401 1.5592677926 0.4706860049
H 0.6044796252 2.1090758188 -0.8121646896
H 0.1016632494 1.2974355877 -2.4867874798
H 0.4050577572 -0.2416189373 -3.2930119525
H -1.2449129177 0.2541057733 -2.9491743818
H -1.2340233884 -2.0254810367 -2.2572997137
H -0.9247493168 -3.8807814552 -0.9788031027
H -0.3222054119 -3.5556917435 1.4098208908
H 1.0651306771 -4.0118790182 0.4633734192
H 1.5088395606 -2.2137050877 2.1645154149
H 1.9957095300 -1.7645755430 0.5374727214
H 0.6079567041 -0.0506094086 2.0351845112
H -0.7762959062 -0.9966705095 1.5221460418