17

C -0.0526984152 -1.1773017803 -0.2066766962
C -0.0323551287 0.0202045861 -0.1005075609
C -0.0014436082 1.4630919238 0.0509576599
O -0.3592381675 2.1580066061 -1.1825486760
C 0.8274269347 2.9785753016 -1.1112532374
C 1.3671920033 2.2208435884 0.1192642241
C 1.4057017092 2.9693318791 1.4613301020
C 0.0008197306 2.7986364709 1.9947854902
C -0.7503749217 1.9827172591 1.2563739254
H -0.0730373985 -2.2342847816 -0.3082305695
H 1.4242383025 2.8981284807 -2.0263483057
H 0.5868906303 4.0344971311 -0.9305644844
H 2.2496750414 1.6149779767 -0.0794710288
H 2.1471367068 2.5443071321 2.1499929429
H 1.6746243739 4.0261838733 1.3365573623
H -0.3359879986 3.2974832876 2.8975365319
H -1.7787552942 1.7041172153 1.4503389301