15

O 0.3817349883 -0.0601152747 0.0945157637
C 0.5667216947 1.0336792586 -0.3357136878
O 0.7075248128 2.1146590294 0.4736756341
C 0.9271366084 3.3858273370 -0.1325575890
C 2.3730209418 3.8190041163 0.0240166342
C 2.6559936991 5.2452903145 0.3838134000
N 2.8816188892 4.1829759791 1.3574620060
C 3.3041654360 3.0897816043 -0.8140058369
N 4.0024540175 2.5028074742 -1.5236329195
H 0.6337999063 1.2922111166 -1.4093533293
H 0.6474854293 3.3619921566 -1.1930185721
H 0.2737865244 4.0965368890 0.3821371209
H 3.5549163921 5.7167857603 0.0007067587
H 1.7976419030 5.9041099794 0.4910937238
H 2.1275184571 4.1219683894 2.0380705831