18

C 0.0123895900 1.2970607623 -0.1491871685
O -0.0366271073 -0.1234679849 -0.0490555481
C 0.6064953130 -0.6573492954 1.0012062810
N 0.6104305508 -1.9029180217 1.1865651358
C 1.3067267545 -2.4272488705 2.3442471562
C 0.3454053377 -3.3914363434 3.0787723581
O -0.1508779861 -4.3617592747 2.1760134794
C 1.0199798218 -4.0514714524 4.1940420636
C 1.5952762538 -4.5555477823 5.1202257800
H 1.0450605905 1.6570752394 -0.2257208499
H -0.5258249499 1.5573463940 -1.0608182282
H -0.4777422853 1.7749215183 0.7071186976
H 1.1151929267 0.0709490936 1.6513608127
H 2.1696925332 -3.0130085571 2.0071489811
H 1.6633881600 -1.6506799975 3.0383506316
H -0.4840000187 -2.7852281430 3.4840697859
H -0.3292366640 -3.8690037558 1.3614477532
H 2.0920352596 -5.0148417491 5.9387665083