18

N -0.0945120523 1.2652692727 -0.5049313063
C -0.0414484364 0.0793696820 -0.0700600091
O 1.1088465649 -0.5698880837 0.2894936905
C 0.8208138458 -1.8992707059 0.7903811463
C 0.8012752508 -1.8350290312 2.3217024031
C -0.5469398456 -1.1386282086 2.6384315767
C -1.4408071394 -1.4950435697 1.4468156879
C -0.6331777545 -2.2037571936 0.3924831944
C -1.1965239923 -0.8431915040 0.0846899442
H 0.8431473148 1.6678173981 -0.5522804157
H 1.5672036832 -2.5748508787 0.3701268678
H 0.7997588107 -2.8565955491 2.7188775113
H 1.6747674560 -1.3138523626 2.7211631893
H -0.9806326700 -1.5013456774 3.5736379455
H -0.4227179671 -0.0559604656 2.7410121898
H -2.4682521758 -1.7864294405 1.6312499200
H -0.9168465018 -3.1149303084 -0.1170305420
H -2.0466093510 -0.6879822238 -0.5655729339