16

C -0.0328819004 1.3881559506 -0.0058660251
N 0.2603835006 -0.0251713150 0.1186209067
C 0.5604904339 -0.6410869264 -0.9325252347
O 0.8050262399 -1.9832401034 -0.8640972662
C 1.2895768184 -2.6106075170 -1.9662154746
N 1.8586998808 -1.9718680352 -2.9786007798
N 2.1964950481 -2.9696606044 -3.8291068242
C 1.8668712239 -4.1966624532 -3.3660509053
C 1.2640126372 -4.0103838150 -2.1408212256
H 0.6459973451 1.9585614799 0.6378650871
H 0.0526315219 1.7771892843 -1.0329983803
H -1.0497401182 1.5825005012 0.3536016333
H 0.6427487438 -0.2240961075 -1.9405586757
H 2.6606925524 -2.7338733297 -4.6884983094
H 2.0794900562 -5.0914986466 -3.9292639743
H 0.8625910263 -4.7522610226 -1.4724404521