19

C -0.1439855850 1.5270299383 0.0534358110
C -0.0021641930 0.0098160899 0.0278286430
O -1.2623118654 -0.5901642521 0.2616663916
C 0.7388626786 -0.6090898982 -1.1971545837
C 2.0677420427 -0.2714681344 -0.4597535237
C 1.2239931143 -0.5890379309 0.8206401802
C 0.9721873720 -2.0771278901 0.5908264148
O 1.0431606086 -2.9851622927 1.3724391519
C 0.6209565900 -2.1207410154 -0.9147007193
H 0.7857004221 2.0572904357 -0.1596387428
H -0.8925624921 1.8327288719 -0.6841044313
H -0.4898781518 1.8571974566 1.0407535188
H -1.6341396300 -0.2205277788 1.0694645673
H 0.5345962996 -0.2628125368 -2.2103830282
H 2.9238685411 -0.9196169015 -0.6615303176
H 2.3742992236 0.7711805905 -0.5262758634
H 1.5041529808 -0.2757475628 1.8250275440
H -0.3778353021 -2.5320917945 -1.0664561731
H 1.3438382260 -2.7198352046 -1.4767601995