25

C 0.3785511014 1.2361600734 0.4866538153
C -0.1975501528 0.0560501093 -0.2994904446
C 0.8382234297 -0.6054772407 -1.1974793959
O 0.2194189518 -1.6781258143 -1.8877937848
C 1.0814047369 -2.3603422419 -2.7415698483
C 1.9893007039 -3.4302536135 -2.1789379572
C 0.7774307762 -3.8013522046 -3.0177119174
C -0.4119276395 -4.4902011366 -2.3794867348
C -0.2106729966 -6.0020659421 -2.2304480904
H 1.2078632787 0.9211840930 1.1297903468
H 0.7577673817 2.0160078121 -0.1831073224
H -0.3825437851 1.6913988969 1.1268561362
H -0.5958221262 -0.6999358160 0.3872076334
H -1.0379929948 0.3859032035 -0.9208401127
H 1.2436012316 0.1245865997 -1.9188471328
H 1.6887203383 -0.9762235836 -0.6028430827
H 1.4664758191 -1.7502152047 -3.5610131418
H 2.9855847335 -3.5532104182 -2.5898625481
H 1.9123596898 -3.6125369103 -1.1114622397
H 0.9924421478 -4.1292390962 -4.0325635902
H -0.6051799329 -4.0355740092 -1.4031245487
H -1.3069143924 -4.2962574112 -2.9847294992
H 0.6605119612 -6.2232452275 -1.6047552879
H -1.0847436132 -6.4747135026 -1.7712357577
H -0.0471831682 -6.4795770249 -3.2031799743