19

O -0.1063375318 1.4313683471 -0.0339726692
C -0.0480175594 0.0343756918 0.0207518946
C -0.5235609231 -0.6778475523 1.2573613059
C -1.3629251770 -0.6989456995 -0.0176678025
C -2.6631461852 0.0269871077 -0.0993246814
C -3.5817314240 -0.6960445019 -0.7490637344
C -3.0172034551 -1.9826473766 -1.2525748921
C -1.9021816459 -1.8472076303 -2.2739988839
C -1.5603100315 -1.9723931705 -0.8099339869
H 0.5811744368 1.7779048784 0.5446533855
H 0.7770273827 -0.4115473596 -0.5361075223
H -0.0277065640 -1.5966898230 1.5555627943
H -0.8846606092 -0.0630600733 2.0754310130
H -2.7912934301 1.0275656632 0.2919386854
H -4.6032622652 -0.3867877069 -0.9372432890
H -3.6175283919 -2.8859258168 -1.2515028370
H -1.6900360276 -2.7085668664 -2.8992956150
H -1.7753086830 -0.8857040316 -2.7606050114
H -1.0726581955 -2.8795171595 -0.4713114437