21

C 0.2612920156 1.3102108821 0.5772419115
C -0.0381965088 -0.0652527102 -0.0244047418
C -1.5349630758 -0.3131677902 -0.1737592654
O 0.5231075416 -0.1975908307 -1.3336057309
C 1.8978524732 -0.4564989057 -1.3794615691
C 2.3691689954 -1.9092357183 -1.0228991111
C 3.1085748852 -1.9232857027 -2.3707367999
O 3.9616222749 -2.6186135970 -2.8397949195
C 2.4100616282 -0.6363131408 -2.8318485448
H 1.3357414159 1.4855190922 0.6831670164
H -0.1537082287 2.0982007867 -0.0590432470
H -0.1862972218 1.3961782729 1.5723910461
H 0.3907207084 -0.8446299823 0.6258583515
H -1.9761631905 0.4319565403 -0.8433947660
H -1.7192953906 -1.3039848631 -0.5970932484
H -2.0368362568 -0.2470914685 0.7959556320
H 2.4758503330 0.2977282665 -0.8305536997
H 2.9764082532 -2.0729177712 -0.1297490049
H 1.5280945347 -2.6114847064 -1.0247450508
H 1.5752913680 -0.8541361817 -3.5069321181
H 3.0356930359 0.1427515283 -3.2720774202