21

C 0.2889365658 1.3232921661 0.1888107134
C -0.2559312397 -0.0261461215 -0.3165310035
C -1.7419802237 -0.1338996269 -0.1640374203
C -2.5986419226 -0.4861925222 -1.1537071482
C -2.3624064536 -1.8987063513 -1.7313908529
C -3.3959108989 -2.2942685112 -0.6186194390
C -3.4745730387 -1.4319135916 0.7106991196
C -2.3716989277 -0.4735036735 1.1889130949
C -3.9679222512 -0.9060449488 -0.5856399043
H 1.3761050146 1.3725061982 0.0735856102
H -0.1527091012 2.1538879079 -0.3701307896
H 0.0558169767 1.4722800610 1.2482475016
H 0.0144155726 -0.1532674677 -1.3705698444
H 0.2362676445 -0.8336523747 0.2466148361
H -2.7996229504 -2.1096583522 -2.7144284304
H -1.3400292535 -2.2874741914 -1.6910529243
H -3.9682049619 -3.2196869365 -0.6362855082
H -4.1731060386 -1.8538413926 1.4319621718
H -1.6024881652 -0.9312615935 1.8243496359
H -2.8119439416 0.3488907704 1.7713119120
H -4.9483478558 -0.5425758079 -0.8647058207