14

C -0.0272274639 1.5376616570 0.0354112461
C 0.0052586530 0.0447503736 -0.0444740027
C 0.1747947787 -0.6704820850 -1.1923570442
F 0.3299767223 -0.0585293301 -2.3746065825
C 0.1856913126 -2.0839152279 -1.1245064228
N 0.0435951998 -2.7745117274 -0.0283792174
C -0.1331113898 -2.1042939547 1.1764900690
O -0.2749562343 -2.6353577964 2.2547896499
N -0.1419815170 -0.6876157456 1.0930043083
H 0.1037418053 1.9704443742 -0.9560190328
H -0.9822048161 1.8830106912 0.4464343878
H 0.7702652960 1.9081256126 0.6888258288
H 0.3227427131 -2.6353527848 -2.0556997031
H -0.2717368495 -0.2193801668 1.9798295055