23

C -0.1118370869 1.4746773944 -0.4428739408
C -0.0004790269 -0.0117342678 -0.0904858252
C -1.3593190582 -0.6195783850 0.2127057411
O -2.2670315042 -0.5687879644 -0.9160981958
C -2.4963517280 -1.9983579642 -0.8849105419
C -2.1820044049 -2.6579762885 -2.2125969231
C -1.4837744131 -2.1579715508 0.2904284828
O -0.2794844296 -2.8253657269 0.0237294429
C -0.3213199913 -4.2125838546 0.2828600098
H 0.8670714341 1.8952205798 -0.6915561678
H -0.7728178222 1.6145417777 -1.3029329131
H -0.5224388658 2.0530363159 0.3926418575
H 0.4634223120 -0.5655075039 -0.9118997299
H 0.6435624931 -0.1526594612 0.7865111109
H -1.8085989980 -0.1154719541 1.0814543565
H -3.5328862510 -2.2098897106 -0.5856642419
H -1.1183341096 -2.5742232839 -2.4466530375
H -2.4579350784 -3.7180840636 -2.2002642020
H -2.7558899245 -2.1680788790 -3.0052500214
H -1.9287780474 -2.5363602416 1.2206056883
H 0.6801904075 -4.6060455795 0.0936244813
H -0.5932280875 -4.4163576655 1.3299763071
H -1.0350392193 -4.7370906427 -0.3679857980