13

O -0.0849039410 0.0389218287 0.0033016941
C -0.0448033466 1.2374545996 0.0087707619
C 1.3292821722 1.9466243272 -0.0021579082
O 2.3724338017 1.3498536600 -0.0166674974
N 1.2880210198 3.3520506681 0.0061657350
C 2.3760724582 4.1903438758 -0.0009433910
C 1.8849318730 5.4646673508 0.0118094304
C 0.4687814873 5.3097866347 0.0264350488
N 0.1064591769 4.0434166421 0.0231371174
H -0.9356953595 1.8841139427 0.0210210129
H 3.3733073057 3.7842687119 -0.0142150502
H 2.4495294890 6.3826985003 0.0108903069
H -0.2872793069 6.0818386383 0.0391742893