17

C 0.2636017391 1.0151595325 0.6538312455
N -0.0572098239 0.1058695710 -0.4532982279
C -1.3010995036 -0.5485399219 -0.3629770531
C -2.5899330674 -0.1879080164 -0.6886533033
C -3.4319496728 -1.2993351351 -0.3721718502
O -4.7893640374 -1.4681777308 -0.5703860739
C -2.6313293485 -2.2907070525 0.1377246438
O -2.9225524918 -3.5415508256 0.5754705462
N -1.3424236461 -1.8398078782 0.1419519822
H 1.2537319460 1.4506464734 0.4860066338
H -0.4641547336 1.8312240077 0.7828822033
H 0.2988700370 0.4476247159 1.5883320900
H 0.0224290071 0.5927141619 -1.3375243815
H -2.9008906619 0.7601582397 -1.1009496224
H -5.2607279404 -0.7908173732 -0.0742329442
H -3.8736657476 -3.6522798493 0.4563136340
H -0.5299851142 -2.3846967991 0.3742176576