18

C 0.0153659756 1.5368110665 -0.1223716886
N -0.0071234888 0.0912668331 0.0093775544
C -1.2289231855 -0.5638850012 0.5317008935
C -1.4669177999 -0.1245521515 2.0109251922
C -0.8162929625 -1.3702039982 2.5928941198
C -0.3476639504 -1.7041513621 1.1459513665
C 0.6928600537 -0.5316001383 1.1524917292
C -0.0078442100 -0.1102790350 2.4923363244
O 0.4697658105 0.6517693362 3.5346633359
H 1.0312532708 1.8666704811 -0.3638907202
H -0.6412476516 1.8416944742 -0.9441994206
H -0.3126514905 2.0719802820 0.7873741747
H -2.0718420107 -0.6882847923 -0.1490814858
H -2.2250140141 0.5056003545 2.4574693345
H -1.0932927766 -1.9808595725 3.4399641036
H -0.1751008956 -2.6780589560 0.6980935958
H 1.7785798813 -0.6269703363 1.1141458871
H 0.3893417645 1.5825496457 3.2978224236