21

C 0.1636376890 1.5937405828 -0.1006956193
C -0.0511400329 0.0775953957 0.0529529191
C 0.6473363626 -0.5184022860 1.2509317731
C -0.0010542486 -0.9492965782 2.3370890882
C 0.6808683952 -1.5504107478 3.5419099754
C 2.0045215540 -2.2580743043 3.1915881248
C 2.8280900304 -1.4832922012 2.1714425705
O 2.6923639204 -1.8908935421 0.8037671122
C 2.1359937502 -0.6201252521 1.2060502276
H 1.2230288403 1.8457388573 -0.2131165852
H -0.3590791174 1.9710379883 -0.9851389855
H -0.2156231502 2.1312136831 0.7742081474
H -1.1248260247 -0.1278442091 0.1267754021
H 0.3022955989 -0.4279118278 -0.8558453381
H -1.0855863229 -0.8641619998 2.3757154675
H 0.8628539258 -0.7600745336 4.2855682199
H 0.0064362327 -2.2603367270 4.0331624273
H 2.5923599501 -2.4261784504 4.0996166223
H 1.7894261481 -3.2408666721 2.7595685139
H 3.8510329467 -1.2328149149 2.4516220823
H 2.6696331623 0.2317240592 0.7841634243