19

C 0.0045992786 1.5292337261 0.0587667144
C -0.0546154981 0.0362939972 0.0035278626
C 0.0010277359 -0.7624413383 -1.0752568104
C -0.0437228886 -2.1874055243 -0.6606313501
C 0.8843357907 -2.6734054817 0.5171777812
C 1.4161318578 -1.4953833424 1.3160411056
C -0.0215734853 -0.8359228818 1.2383820548
C -0.5294714248 -2.2569210678 0.7627922808
O -1.5683385565 -3.0029211501 1.2674069020
H 0.9029478072 1.8798612240 0.5839294496
H 0.0106391325 1.9674816982 -0.9433306653
H -0.8529863275 1.9425907035 0.6056121849
H 0.0916737953 -0.4343538623 -2.1042860943
H -0.3206393289 -2.9811312369 -1.3452683176
H 1.3074703641 -3.6689331081 0.4618174132
H 1.6464759952 -1.8020883245 2.3393137110
H 2.2437547557 -0.9071420056 0.9066093711
H -0.4084451367 -0.4108178949 2.1646932777
H -2.3932755166 -2.6550346804 0.9085678987