13

N 0.0453445872 1.3561037978 0.1787016873
C 0.0144754769 -0.0069342728 0.0359046422
N -1.0543670428 -0.7632550029 -0.0422764908
N -0.5776945617 -2.0700388455 -0.0827392717
C 0.7699189142 -2.0900311402 -0.0484850848
N 1.8213307477 -2.8935990923 -0.0710649314
C 2.8362161145 -1.9761868736 -0.0010827440
N 2.5116969934 -0.6854612283 0.0631830501
N 1.1463403760 -0.7839098019 0.0335629092
H 0.8670736548 1.7950657836 -0.2126578351
H -0.8175094287 1.8083122781 -0.0870696316
H -1.2256071898 -2.8322209592 -0.1512097305
H 3.8741900683 -2.2773375629 0.0020159511