16

C -0.0914661832 1.4959398707 0.0034980757
C -0.0177869710 -0.0172343215 0.0038089668
O -1.3692806129 -0.5220194626 -0.0135947270
C -1.4940987691 -1.8486872124 -0.0174641706
N -0.5318532315 -2.7239248326 -0.0013225036
O -1.1585803658 -3.9483854832 -0.0011928604
N -2.5376252217 -3.8091459780 -0.0097715214
C -2.7603131707 -2.5247854573 -0.0268840589
N -3.9967919285 -1.9265342769 -0.1094357401
H 0.9190707405 1.9140207395 0.0151305000
H -0.6059412861 1.8605287580 -0.8898202258
H -0.6256216466 1.8606895754 0.8852958272
H 0.5105604217 -0.4038776098 -0.8746996736
H 0.4899180460 -0.4053237728 0.8939936157
H -4.7659133968 -2.5183301398 0.1702232303
H -4.0362038944 -1.0050511465 0.3010806556