20

C 0.4180155868 1.2795350176 0.3302895894
C 0.0487483931 -0.1614132961 0.0389380595
C -1.3873389282 -0.5385162649 0.3414855097
C 0.7773629841 -0.8796083956 -1.0726985015
N 1.0318517574 -1.1932899663 0.3198011840
C 2.2025541498 -1.0835132858 1.0269805881
O 2.2820145598 -0.5375840882 2.1137396608
C 3.4228438474 -1.7881541519 0.4356988212
O 4.5038827529 -1.7013500012 1.3159708366
H 1.4409512724 1.5057106087 0.0187451419
H -0.2613931593 1.9541497045 -0.2002604849
H 0.3442524403 1.4851353784 1.4016566748
H -2.0761498342 0.0567142824 -0.2670467467
H -1.5656357479 -1.5970939549 0.1379092086
H -1.6180367795 -0.3505793106 1.3951300065
H 0.2697706374 -1.6489098639 -1.6494502678
H 1.5407473122 -0.3277412928 -1.6173251797
H 3.1551704234 -2.8349088156 0.2244290336
H 3.6643940041 -1.3245753518 -0.5350606891
H 4.1595429079 -1.2035214220 2.0763891149