16

C -0.0297583500 1.5054744810 -0.0174684143
C -0.0386471009 0.0066590988 -0.0041037465
C -1.1706005328 -0.7437417492 -0.1068459772
C -1.1403382396 -2.1695299255 -0.0904771995
O -2.3440380815 -2.8107544556 -0.2012402130
C 0.0614119756 -2.7914501219 0.0320042935
N 1.2039073136 -2.0340436542 0.1357307239
C 1.2669746505 -0.6416437487 0.1287236929
O 2.3409832936 -0.0607860268 0.2274934582
H 0.5910279705 1.8785911743 -0.8391482388
H -1.0390027720 1.9113859270 -0.1189811549
H 0.4226622306 1.8950967802 0.9008224475
H -2.1419136680 -0.2676096829 -0.2055611085
H -2.2048517225 -3.7629434824 -0.1787838308
H 0.1876170162 -3.8671923712 0.0543904019
H 2.1007543268 -2.4893006529 0.2270914156