17

C -0.2281920688 1.3386627442 -0.4189969828
C -0.0406495030 -0.1237741996 -0.1510294334
C 0.3539317600 -1.0845895926 -1.0521474714
N 0.4373489080 -2.2997192824 -0.4224348315
C 0.1021139776 -2.1368704853 0.9003532514
C -0.2040168039 -0.8126493577 1.0930404478
O 0.7071917967 -1.0007622391 -2.3717691974
C -0.2969941782 -0.7741313486 -3.2679799975
N -0.0154882101 -0.6427050530 -4.4868139769
H 0.3463331142 1.9473221346 0.2878696612
H 0.1075107382 1.6019722655 -1.4260566740
H -1.2770688903 1.6447036183 -0.3263661157
H 0.7464119258 -3.1465123157 -0.8671295544
H 0.1129975973 -2.9712137826 1.5821787158
H -0.5089716976 -0.3655522230 2.0273212464
H -1.2821182716 -0.7299229287 -2.7889104855
H -0.8648868145 -0.4844371943 -5.0248899422