17

N -0.0165656352 1.4893736953 0.1008014315
C -0.0325650754 0.0217641993 -0.0273409295
C -1.4243268411 -0.4531919105 0.1240584265
N -2.5089251012 -0.8330673534 0.2359719511
C 0.5631461637 -0.5139591336 -1.2593477532
C 1.0767917685 -0.9073539833 -2.2769356239
C 1.6786289803 -1.3797446524 -3.4882554405
C 3.0653522877 -2.0063773691 -3.4624914159
C 1.8691511243 -2.8729302213 -3.7124767443
H 0.9498297178 1.7980733593 0.0356139750
H -0.4966520249 1.8930562568 -0.6995538036
H 0.5225724403 -0.3758020109 0.8335445011
H 1.4385382594 -0.7967549124 -4.3723988493
H 3.7248769716 -1.7762692416 -4.2914268773
H 3.5552835431 -2.0784576935 -2.4989206262
H 1.5418967119 -3.5342092877 -2.9194383312
H 1.6950188192 -3.2446130008 -4.7156110104