20

C -0.2932140093 1.5582059345 0.0579295946
C 0.1575030490 0.1061014890 -0.0482180918
C 1.4853886547 -0.2578220833 -0.7955130228
C 1.9419490334 -1.0739031797 0.4214461986
C 2.0265658215 -0.2055515970 1.6345870688
O 2.4133545297 1.1532900933 1.5815144716
C 3.7362688659 1.3806812878 1.4330111188
N 4.1714775106 2.5649737258 1.4081553421
C 0.6700226417 -0.6329134941 1.2006097697
H 0.4940216655 2.1920585447 0.4692662832
H -0.5718653386 1.9460077383 -0.9284905850
H -1.1729380341 1.6442989923 0.7058195357
H -0.6504213896 -0.4920252796 -0.4822624563
H 1.3193485095 -0.8671703754 -1.6854634224
H 2.1318802928 0.5834091596 -1.0617328750
H 2.4234095838 -2.0442769278 0.3826431388
H 2.3823539825 -0.7045876233 2.5342886706
H 4.3281463223 0.4602644245 1.3421264990
H 5.1824581846 2.5588618554 1.2887904521
H 0.0421394141 -1.2078280350 1.8725927000