17

C 0.2060786863 1.5096325444 -0.0010659147
C -0.0205255578 -0.0213702495 -0.0174294055
O -1.4038564666 -0.2996092755 0.0020124682
C 0.5998465875 -0.6466954399 -1.2391189485
C 1.8652316424 -1.0444581259 -1.2178852420
C 2.6849031368 -0.9293205624 0.0305822059
O 1.9113579100 -0.9285289407 1.2460045407
C 0.6081107865 -0.6169336232 1.2512216798
O -0.0522093415 -0.7822823082 2.2468159814
H 1.2689666786 1.7696935094 -0.0161402080
H -0.2734819106 1.9462578904 -0.8809444315
H -0.2515910387 1.9377362753 0.8954353965
H -1.6212801622 -0.4499609918 0.9346955532
H -0.0328634492 -0.7270623278 -2.1166789536
H 2.3591736245 -1.4598616931 -2.0903874871
H 3.3678278067 -1.7781781575 0.1339667049
H 3.3010749174 -0.0191726941 0.0241768904