19

C 0.3267762728 -0.9749577935 0.7644690410
C 0.1488444755 0.1384164634 0.3475620602
C -0.0790756470 1.4984387798 -0.1566944738
C -0.9072983350 2.3605304765 0.8199332865
C 0.1874501582 2.8964067960 1.7539995294
C 1.3686576534 3.0493920691 0.8073664604
C 2.0560182389 4.3536944233 0.5283422262
C 2.7837574629 3.2310283000 1.2554738090
O 1.1490739879 2.2109124127 -0.3211058038
H 0.4910630109 -1.9604174600 1.1248203008
H -0.5476345379 1.4370900954 -1.1449497085
H -1.3747655135 3.1769701090 0.2615115860
H -1.6852404196 1.7910683816 1.3302127704
H -0.0848647931 3.8355874125 2.2402117852
H 0.4116352633 2.1604781366 2.5334350130
H 2.3439643226 4.5444024045 -0.4995488350
H 1.7589286939 5.2324700146 1.0916623721
H 2.9830319996 3.3399359774 2.3169585004
H 3.5450829063 2.6939404111 0.7012083605