14

C -0.1894578872 1.5915407902 0.0110440049
C 0.0845255743 0.0878059569 -0.0139119438
C 0.9022458089 -0.4152503323 -1.1912262959
O 0.8342703350 -0.0704473330 -2.3392718336
C 1.8732326535 -1.4546872132 -0.6287388430
O 1.7920284293 -1.3484502003 0.7940842725
C 0.8478691438 -0.4428208165 1.1941946546
O 0.6940505213 -0.1586944445 2.3436402778
H 0.7450941061 2.1584539392 0.0382109546
H -0.7406930249 1.8839000768 -0.8851298615
H -0.7712998684 1.8497414984 0.8979294369
H -0.8707522002 -0.4587726210 -0.0385270674
H 1.5901075973 -2.4655367704 -0.9447593703
H 2.8983581113 -1.2597629902 -0.9576575259