17

C -0.0217480065 1.3884395647 0.0383464452
C 1.4124832396 1.9629795038 -0.0497758589
C 2.1423100615 0.7924375632 -0.7188272843
C 3.5718473332 0.3291756770 -0.4137906486
C 3.3815301416 -1.2238961345 -0.3558585177
N 1.9869181025 -1.4647512246 0.0770262883
C 1.3819341675 -0.3734134863 -0.1325724321
O 0.1209197166 -0.0449756188 0.2041689672
H -0.5962774737 1.7615749198 0.8887807942
H -0.5905707402 1.5769488179 -0.8802140374
H 1.4411651983 2.9036087948 -0.6037750779
H 1.8101743116 2.1412552523 0.9551439894
H 1.9673339850 0.8237618479 -1.8040424905
H 4.3142885347 0.6461520713 -1.1497210202
H 3.8883074662 0.6975932349 0.5686105402
H 3.5537462755 -1.6848603732 -1.3385236971
H 4.0725616466 -1.7022704201 0.3445190502