19

C 0.0341878027 1.5848263486 -0.0356374884
C 0.0394152052 0.0579840466 0.0547865559
C 0.7586072779 -0.6243011763 -1.1339256251
O 1.2929430756 -1.8595297537 -0.6587781015
C 1.4856776901 -1.7560397284 0.7165142098
C 2.2685902693 -0.5582648800 1.2468006823
C 0.7667451714 -0.5288986313 1.2596193075
C 1.5208934044 -3.0280764371 1.4672468870
O 1.3914763581 -4.1266726715 0.9927103103
H 1.0544828857 1.9825347037 -0.0297116762
H -0.4536116458 1.9218301661 -0.9565057271
H -0.5043219388 2.0295599394 0.8065622972
H -0.9957578101 -0.3015258742 0.0967049627
H 0.0928268030 -0.8472530476 -1.9717734677
H 1.5678719535 0.0192029867 -1.5099603896
H 2.7737749431 -0.6771798007 2.1994762580
H 2.8186713806 0.0258849634 0.5174396478
H 0.2516133954 -0.5656844800 2.2130193133
H 1.6865893687 -2.8736670538 2.5599062139