21

O 0.4165006910 0.3030987917 0.9552372100
C -0.0682617938 0.1290783446 -0.3667828811
C -1.4555772681 -0.5261455115 -0.4457892902
O -1.9168898193 -0.4883067444 -1.7955782630
C -1.4878752776 -1.9438214190 0.1059670816
C -1.1736211761 -2.2497764870 1.5996505289
C -2.2807007303 -3.3370804067 1.5587594098
C -2.8669574843 -2.6342462771 0.3021058344
O -3.8295856677 -1.6466576575 0.6292677221
H -0.1637953270 0.9297096740 1.3992480347
H -0.1096072311 1.0796628578 -0.9186913653
H 0.6693301761 -0.5088406540 -0.8716482556
H -2.1741217715 0.0860972717 0.1110272605
H -1.3499961073 -1.0702180331 -2.3144278763
H -0.8634694475 -2.5847137949 -0.5326696611
H -0.1568417295 -2.5548873880 1.8488814986
H -1.4545772029 -1.4159338121 2.2452057642
H -1.8813225482 -4.3276489997 1.3205652470
H -2.9490635651 -3.4223049129 2.4202324016
H -3.2251079164 -3.2737861612 -0.5150321263
H -4.6171353734 -2.0962194307 0.9508440356