18

C 0.2931240523 1.4483782841 -0.0509830237
N -0.2733118812 0.1486844511 0.3075836910
C 0.4616440477 -0.6777162075 1.1298597516
C 0.7003636527 -2.0167490131 1.1283577705
N 0.2726258334 -2.9231113250 0.1316053085
N 1.4265559570 -2.3388806720 2.2787264406
C 1.6020668669 -1.2179933471 2.8930628312
C 2.3349364206 -0.9367421832 4.1533435443
O 1.0269497009 -0.1450783423 2.2503979071
H 1.2398796957 1.3773194582 -0.6079603210
H -0.4333248591 1.9914395103 -0.6598215117
H 0.4734457965 2.0256989604 0.8582230059
H -0.5879498064 -0.3867914082 -0.4926659416
H -0.4041975484 -3.5840479023 0.5047583133
H 1.0542263634 -3.4787029211 -0.2051005164
H 3.1720781829 -0.2499123511 3.9845703757
H 1.6810869522 -0.4777137665 4.9029809634
H 2.7235272832 -1.8753705747 4.5497230014