21

C -0.1568560108 1.4983352324 -0.0931963421
C -0.0500393162 -0.0253665004 0.0165850784
C 0.7292393661 -0.5024712701 1.2561755047
C 0.0685282274 -0.2147432891 2.5918535053
C 0.0014169019 -1.2816724760 3.3889387396
C 0.5741262761 -2.5140819441 2.7454511177
C -0.4498093194 -3.4297361666 2.0335583702
O -0.1990437558 -2.7843227848 0.7679061559
C 0.9163798741 -2.0345602438 1.3098424937
H 0.8332552653 1.9677556994 -0.1212520412
H -0.6862177816 1.7873712914 -1.0065169087
H -0.7034260907 1.9309020729 0.7513992167
H -1.0454458442 -0.4786293557 0.0314387091
H 0.4491667788 -0.4177464385 -0.8781696886
H 1.7214619743 -0.0241667757 1.2291885753
H -0.2960260677 0.7720860599 2.8564199139
H -0.4273535665 -1.2904727684 4.3855559739
H 1.3403460511 -3.0198570895 3.3379340316
H -0.1706354031 -4.4917514540 2.0074662888
H -1.4964217864 -3.3370946478 2.3460113972
H 1.8604845076 -2.3704062915 0.8660971184