19

O -0.0039810859 1.3487329517 -0.0537137252
C 0.0265448661 -0.0600864082 0.0211442268
C 0.3148243723 -0.7817013537 -1.3550683164
C -1.0613718708 -1.4450162673 -1.2673921792
C -1.2911840410 -2.1248435128 0.0657611546
C -0.2295267889 -2.8047580143 0.9320992021
C 0.7345394130 -1.8403931927 1.5769275803
C 0.8456130767 -0.5764293205 1.1752841972
C -1.4048833480 -0.6314454801 -0.0248877705
H 0.9028238840 1.6605468488 -0.1492478857
H 0.3489838827 -0.0310170815 -2.1489440237
H 1.1965455501 -1.4279048695 -1.4167716582
H -1.6903336503 -1.6783878257 -2.1184756913
H -2.2562690466 -2.6239653555 0.0960900461
H -0.7309268894 -3.3802050944 1.7214399687
H 0.3237225896 -3.5510720409 0.3433793101
H 1.3350640294 -2.2163000925 2.4011037032
H 1.5326779426 0.1158623260 1.6563792834
H -2.2863875358 -0.0596968570 0.2354992779