20

C -0.0753886863 1.5962059796 0.0946529878
C -0.0284328218 0.0643120392 -0.0368346396
O 0.6799121969 -0.5033114123 1.0629955421
C -1.4545329442 -0.5099002325 -0.0336070197
O -2.0058224772 -0.2241154722 1.2491429806
C 0.6995515161 -0.3992631164 -1.3074167534
C 2.1962091927 -0.0273638201 -1.3065207513
C 2.8951567584 -0.5678581206 -2.4692287381
N 3.4321908278 -1.0003467075 -3.3967549896
H 0.9274556730 2.0019592543 0.2468381302
H -0.5108386937 2.0601803660 -0.7968449474
H -0.6875563586 1.8753925077 0.9556776417
H 0.0743770832 -0.4629374379 1.8144010353
H -2.0560713787 -0.0575877054 -0.8357729427
H -1.4033729089 -1.5939878329 -0.2027513905
H -2.7909364261 -0.7631358657 1.3764555635
H 0.6160016982 -1.4882132407 -1.3813861682
H 0.2124680084 0.0269024778 -2.1904930110
H 2.3314286473 1.0589943535 -1.3014014332
H 2.6620062934 -0.4129158239 -0.3948507564