19

N -1.9940353275 1.5990860234 -0.1001386556
C -2.1932056686 0.3438485090 -0.1108586755
N -1.1645158308 -0.5940916822 -0.0596756544
C 0.1638380359 -0.1799681121 0.0076626102
O 1.1029394335 -0.9404346366 0.0544548469
C -1.4590402864 -2.0220969117 -0.0756901219
C -2.4261030320 -2.6473367723 0.9647527342
C -2.8822460841 -3.6317269538 -0.1487842669
C -2.3164433855 -2.6455730081 -1.2091744796
H -2.8794753670 2.0976015570 -0.1449037392
H -3.1775423351 -0.1306217847 -0.1612781544
H 0.2498440072 0.9143130986 0.0128505558
H -0.4859433928 -2.5100411595 -0.0270022797
H -1.9835076978 -3.0551249847 1.8759468538
H -3.2321777032 -1.9622472400 1.2443117603
H -2.3170455207 -4.5665448370 -0.1210298763
H -3.9459912383 -3.8684789826 -0.2026341040
H -3.0903438773 -1.9599594276 -1.5673227833
H -1.7843657397 -3.0519237051 -2.0718618604