18

C -0.0259072695 1.5598074706 -0.0229572882
C -0.0019880962 0.0494146624 0.0363499118
C -1.3329922435 -0.6557315606 0.4119866217
N -1.1314139713 -2.1182800042 0.2793186795
C -0.6703897969 -1.4188726956 1.5028705055
C 0.7029196237 -0.7865467236 1.1746487517
C 1.5945568681 -1.5175139721 0.1307064977
C 0.8784707974 -0.7220032234 -0.9838711144
O 1.0162034118 -0.6441486711 -2.1688882429
H 0.9868623196 1.9745928399 -0.0477230298
H -0.5458225720 1.8979964265 -0.9260453063
H -0.5438987215 1.9816555637 0.8455690052
H -2.3240351815 -0.2223907760 0.3435794483
H -2.0186943322 -2.5684146613 0.4993150049
H -1.0406242236 -1.7127824316 2.4774634989
H 1.1964543921 -0.2761083725 2.0001076945
H 2.6556218597 -1.2561330740 0.1986913628
H 1.4909343061 -2.6011518872 0.0568727190