29

C 0.1301294494 1.5833320446 0.1141227859
C 0.0512715511 0.0663378468 -0.0777394139
C -1.3776809362 -0.4811374415 0.0179419418
C -1.4524859651 -2.0034652472 -0.1578899678
C -2.8708194600 -2.6049427112 -0.0422925486
C -3.7028435821 -2.2374710964 -1.2825416880
C -2.8231638860 -4.1386606366 0.2050217280
C -2.2433472594 -4.4819356865 1.5875717301
C -4.1974941296 -4.8136690720 0.0645236457
H 1.1611669145 1.9438652312 0.0421173498
H -0.4599915993 2.1097839725 -0.6445230308
H -0.2579695618 1.8786045652 1.0954666792
H 0.4769168010 -0.2023574509 -1.0537814433
H 0.6804274767 -0.4312074926 0.6724381466
H -1.8026684605 -0.2103077121 0.9948968247
H -2.0000605977 0.0237648904 -0.7318102857
H -1.0333038152 -2.2784603943 -1.1368599019
H -0.7911536528 -2.4583935480 0.5875373568
H -3.3588130903 -2.1532557767 0.8359483390
H -3.3259197104 -2.7569911777 -2.1723967530
H -4.7571952493 -2.4986459517 -1.1646671564
H -3.6577006363 -1.1639411197 -1.4859248626
H -2.1601973223 -4.5717519470 -0.5596691906
H -2.8861409788 -4.0867457372 2.3838569451
H -2.1835131810 -5.5669410215 1.7225897654
H -1.2391222889 -4.0795499561 1.7422362893
H -4.9282461435 -4.3639301649 0.7483229689
H -4.5984158392 -4.7403467542 -0.9491550803
H -4.1275223272 -5.8775800946 0.3142671565