15

O -0.0154328934 1.3331924151 -0.4301860217
C -0.1019438654 0.0522855189 0.1629512958
C -1.4688777502 -0.5386301247 0.0370576364
O -2.5270656060 0.0472205045 0.8187247687
C -3.3201690860 -1.1233910948 0.4774531289
C -2.0239089710 -1.9092439357 0.0626597789
C -2.0807094955 -1.0691723487 -1.2656749286
C -3.5590193743 -0.9526562978 -1.0489493872
O -4.5261050180 -0.9647667802 -1.7519554775
H -0.6734370714 1.8938565578 -0.0042784058
H 0.6206719173 -0.5874517292 -0.3536900176
H 0.1703025108 0.0762895662 1.2290769932
H -4.0890496102 -1.3866301700 1.1981747480
H -1.6501743444 -2.9095613861 0.2220082086
H -1.5143595025 -1.2105139453 -2.1751784500