15

C 0.0314495047 1.3788635015 0.0838169114
N 0.0281056291 -0.0679583743 0.0424485415
N -0.1161427241 -0.7462444139 -1.0850589885
C -0.0753225473 -2.0251595046 -0.7058599710
C 0.1000410983 -2.0491544148 0.6840689623
O 0.2131244864 -3.1622294681 1.4441471366
C 0.0418603747 -3.0545873633 2.7965898653
N 0.2693745957 -4.0675838015 3.5064333713
N 0.1694501729 -0.8041986967 1.1476004701
H 0.9634195727 1.7382881790 0.5266378619
H -0.0561003939 1.7307408828 -0.9428509404
H -0.8115372872 1.7425249504 0.6772708880
H -0.1662693599 -2.8363122452 -1.4078804086
H -0.2936412116 -2.0638602987 3.1095082057
H 0.0797247295 -3.8535372326 4.4837247344