16

C -0.0588422895 1.5311533470 -0.0145648395
C -0.0115420948 0.0274090154 -0.0240066335
C 0.0063249236 -0.7034173703 -1.2027757446
C 0.0263286051 -2.0913452352 -1.1421375612
F 0.0409578510 -2.8121620580 -2.2719239713
C 0.0308908709 -2.7223538923 0.0872211720
N 0.0259781078 -2.0386783718 1.2345057653
C 0.0016281532 -0.7058713341 1.1866820729
N -0.0720019219 -0.0493212839 2.4096379783
H 0.8476352069 1.9659153682 0.4289964128
H -0.1484185588 1.9306197050 -1.0275152892
H -0.9087806359 1.8958658290 0.5742005741
H -0.0026052347 -0.2083052870 -2.1682550952
H 0.0449509143 -3.8071311759 0.1464867872
H 0.1529556194 -0.6569527916 3.1848057542
H 0.3846963734 0.8484750955 2.4635969478