25

C -0.0415025591 1.4689099378 -0.5125735112
C -0.1882920067 -0.0524249240 -0.3829033147
C -1.5709558556 -0.5352245306 0.0916913400
C -1.9454751357 0.0464323608 1.4538861882
C -2.6618403070 -0.4043415433 -1.0241387738
C -2.4758973491 -1.9045190012 -1.3747338927
O -1.5802229437 -2.1388065126 -2.4511013061
C -1.7475319814 -2.0981243582 -0.0197866743
C -0.5618272330 -3.0493215518 0.0610787109
H 0.9330216710 1.7245675387 -0.9404614064
H -0.8087817971 1.8949421480 -1.1687326377
H -0.1161214149 1.9750431816 0.4545741043
H 0.0249763704 -0.5145498139 -1.3516274598
H 0.5745421526 -0.4255777296 0.3132207147
H -2.0229127539 1.1382946996 1.4260900794
H -2.9121301746 -0.3415518895 1.7934028972
H -1.1978573998 -0.2128010989 2.2136942929
H -3.6555123370 -0.1934439313 -0.6168637721
H -2.4615734773 0.2996393098 -1.8378590775
H -3.3962565961 -2.4888894639 -1.5129081053
H -1.9909547480 -1.8025171511 -3.2540021700
H -2.4990269884 -2.4007370109 0.7190980297
H 0.1794529072 -2.8421177228 -0.7127676700
H -0.0709314097 -2.9802854821 1.0380626953
H -0.8922128531 -4.0856366705 -0.0690415811