18

C -0.1745933407 1.4135471901 -0.1122928720
C 1.2559121250 1.0141543355 0.1393309326
C 0.1733514239 -0.0399479443 0.1016370771
C -0.2564866225 -0.7244671281 1.3426823847
N -0.3020791882 -0.0759945734 2.7003660434
C -0.7889869793 -1.4678449723 2.9740290145
C -1.5708580460 -1.5289133359 1.6350928543
O -1.0214845060 -2.8138311171 1.2229310264
C 0.0960924892 -2.1612788666 1.8900234244
H -0.7002825890 1.9151933456 0.6922355798
H -0.4581663285 1.7276242939 -1.1104121994
H 1.9597186505 1.0467758246 -0.6847745092
H 1.6856392762 1.2714825321 1.1015732062
H 0.1502673040 -0.6867766498 -0.7706166337
H 0.6469645626 0.0351776527 3.0668771867
H -1.0849703234 -1.8228960283 3.9608031195
H -2.6095315886 -1.2946516224 1.4075587683
H 1.0484431906 -2.6889881562 1.9670743365