14

O 0.0327958825 0.0112274744 0.4652553018
C 0.0415430752 1.1470165737 0.0817687898
O -1.1614876396 1.7667409760 -0.1740339635
C -1.1646902024 3.0130589581 -0.8742407392
C -0.1121141163 3.9924133041 -0.3374680346
C 1.2091862250 3.2915989144 -0.2130012620
C 1.2625987652 1.9666284333 -0.0653544274
C -0.9898238423 2.7861344551 -2.3241001693
N -0.8660010746 2.6341874336 -3.4622492288
H -2.1707411008 3.4149515040 -0.7248705576
H -0.0447000432 4.8566960187 -1.0048399190
H -0.4379713627 4.3700164364 0.6404605813
H 2.1158620219 3.8888211001 -0.2291074983
H 2.1914570722 1.4196721079 0.0381581668