15

C 0.0026197991 1.5113489536 0.1214986799
O 1.2820838280 2.0214654723 -0.3564571067
C 2.2612823938 1.1990537809 -0.7792274748
N 2.2668192272 -0.0767441595 -0.8411526228
C 1.0809745437 -0.6400107929 -0.4021736453
C -0.0308534440 0.0188823447 0.0649197978
C -0.9992923241 -0.9630331549 0.3990398119
C -0.4360122957 -2.1930019403 0.1205600636
N 0.8317979666 -1.9841012349 -0.3672193112
H -0.1217774970 1.9066024546 1.1387885840
H -0.7664179368 1.9833671958 -0.5048940007
H 3.1253628118 1.7787837079 -1.0911219086
H -1.9906640094 -0.8026266937 0.7955431531
H -0.8324514196 -3.1889589687 0.2295871029
H 1.4868901263 -2.6899885648 -0.6571982931